{
	"version": 1,
	"objects": [ {
			"aliases": [ "AgeGateScreen" ],
			"objclass": "HotUIWidgetProperties",
			"objdata": {
				"EntryPoint": true,
				"DarkenBackground": 0.7,
				"Name": "AgeGateScreen",
				"Width": {
					"Value": "100.0%"
				},
				"Height": {
					"Value": "100.0%"
				},
				"Anchor": {
					"AnchorPoint": "center",
					"Parent": ""
				},
				"IgnoreSafeArea": true,
				"Children": [ "RTID(AgeGateDialog@.)" ]
			}
		}, {
			"aliases": [ "AgeGateDialog" ],
			"objclass": "HotUIImageBorderProperties",
			"objdata": {
				"Name": "AgeGateDialog",
				"Width": {
					"Value": "520.0"
				},
				"Height": {
					"Value": "content_size"
				},
				"Anchor": {
					"AnchorPoint": "center",
					"Parent": "RTID(AgeGateScreen@.)",
					"OffsetY": {
						"Value": "-10.0"
					}
				},
				"Padding": {
					"Left": {
						"Value": "24.0"
					},
					"Top": {
						"Value": "18.0"
					},
					"Right": {
						"Value": "24.0"
					},
					"Bottom": {
						"Value": "20.0"
					}
				},
				"Children": [ "RTID(DialogFooterImage@.)", "RTID(DialogTitle@.)", "RTID(AcceptButton@.)", "RTID(AgeAnim@.)", "RTID(AgePopupBox@.)", "RTID(AgeSlider@.)", "RTID(DialogContentsLabel@.)", "RTID(PrivacyLink@.)", "RTID(TOSLink@.)", "RTID(LegalTextContinue@.)", "RTID(LegalTextApplies@.)", "RTID(LegalTextExtension@.)", "RTID(BackButton@.)" ],
				"DrawType": "normal",
				"DrawStyle": "stretched",
				"Image": "IMAGE_UI_DIALOG_ASSET_DIALOGTEXTURE",
				"ImageInsets": {
					"Left": {
						"Value": "12.0"
					},
					"Top": {
						"Value": "13.0"
					},
					"Right": {
						"Value": "12.0"
					},
					"Bottom": {
						"Value": "22.0"
					}
				},
				"BorderDrawType": "9slice",
				"BorderDrawStyle": "normal",
				"BorderImage": "IMAGE_UI_DIALOG_ASSET_DIALOGBORDER",
				"BorderInsets": {
					"Left": {
						"Value": "0.0"
					},
					"Top": {
						"Value": "0.0"
					},
					"Right": {
						"Value": "0.0"
					},
					"Bottom": {
						"Value": "0.0"
					}
				}
			}
		}, {
			"aliases": [ "DialogFooterImage" ],
			"objclass": "HotUIImageProperties",
			"objdata": {
				"Name": "DialogFooterImage",
				"Width": {
					"Value": "100.0%"
				},
				"Height": {
					"Value": "220"
				},
				"Anchor": {
					"AnchorPoint": "bottom",
					"ParentAnchorPoint": "bottom",
					"Parent": "RTID(AgeGateDialog@.)",
					"OffsetX": {
						"Value": "0.0"
					},
					"OffsetY": {
						"Value": "0.0"
					}
				},
				"DrawType": "9slice",
				"DrawStyle": "stretched",
				"Image": "IMAGE_UI_MAINMENU_BTN_BKGD",
				"ImageInsets": {
					"Left": {
						"Value": "-6.0"
					},
					"Top": {
						"Value": "0.0"
					},
					"Right": {
						"Value": "-6.0"
					},
					"Bottom": {
						"Value": "0.0"
					}
				}
			}
		}, {
			"aliases": [ "DialogTitle" ],
			"objclass": "HotUILabelProperties",
			"objdata": {
				"Name": "DialogTitle",
				"Width": {
					"Value": "76.0%"
				},
				"Height": {
					"Value": "48.0"
				},
				"Anchor": {
					"AnchorPoint": "top",
					"Parent": "RTID(AgeGateDialog@.)"
				},
				"Label": "[AGE_GATE_TITLE]",
				"HorizontalJustification": "center",
				"VerticalJustification": "center",
				"Font": "Dialog_Header_Font_36",
				"Color": "Yellow_Dialog_Header_Color"
			}
		}, {
			"aliases": [ "AgeAnim" ],
			"objclass": "HotUIAnimProperties",
			"objdata": {
				"Name": "AgeAnim",
				"Resources": [ "UI_AgeGate" ],
				"Width": {
					"Value": "300"
				},
				"Height": {
					"Value": "180"
				},
				"Anchor": {
					"AnchorPoint": "top",
					"ParentAnchorPoint": "bottom",
					"OffsetX": {
						"Value": "0"
					},
					"OffsetY": {
						"Value": "-159"
					}
				},
				"PopAnimName": "POPANIM_UI_AGEGATE_AGEGATE",
				"InitialAnimationName": "Toddler",
				"ScaleOverride": 1.55,
				"DrawStyle": "scale_override",
				"PlayStyle": "playandstop"
			}
		}, {
			"aliases": [ "AgePopupBox" ],
			"objclass": "HotUIImageProperties",
			"objdata": {
				"Name": "AgePopupBox",
				"Width": {
					"Value": "60"
				},
				"Height": {
					"Value": "45"
				},
				"Anchor": {
					"AnchorPoint": "top",
					"ParentAnchorPoint": "bottom",
					"OffsetX": {
						"Value": "0"
					},
					"OffsetY": {
						"Value": "-10"
					}
				},
				"Image": "IMAGE_UI_GENERIC_POPUP_9SLICE",
				"DrawType": "9slice",
				"DrawStyle": "normal",
				"Children": [ "RTID(DownCaret@.)", "RTID(AgeLabel@.)" ]
			}
		}, {
			"aliases": [ "DownCaret" ],
			"objclass": "HotUIImageProperties",
			"objdata": {
				"Name": "DownCaret",
				"IgnoreMouseInput": true,
				"Width": {
					"Value": "content_size"
				},
				"Height": {
					"Value": "content_size"
				},
				"Anchor": {
					"AnchorPoint": "top",
					"ParentAnchorPoint": "bottom",
					"OffsetX": {
						"Value": "11.5"
					},
					"OffsetY": {
						"Value": "5.0"
					}
				},
				"Image": "IMAGE_UI_GENERIC_POPUP_CARET",
				"DrawType": "vertical_mirror",
				"DrawStyle": "normal"
			}
		}, {
			"aliases": [ "AgeLabel" ],
			"objclass": "HotUILabelProperties",
			"objdata": {
				"Name": "AgeLabel",
				"IgnoreMouseInput": true,
				"Width": {
					"Value": "100%"
				},
				"Height": {
					"Value": "100%"
				},
				"Anchor": {
					"AnchorPoint": "top",
					"OffsetX": {
						"Value": "0.0"
					},
					"OffsetY": {
						"Value": "0.0"
					}
				},
				"Label": "39",
				"HorizontalJustification": "center",
				"VerticalJustification": "center",
				"Font": "BLACK_28",
				"Color": "Black"
			}
		}, {
			"aliases": [ "AgeSlider" ],
			"objclass": "HotUISliderProperties",
			"objdata": {
				"Name": "AgeSlider",
				"Resources": [ "UI_PauseMenu" ],
				"Anchor": {
					"AnchorPoint": "top",
					"ParentAnchorPoint": "bottom",
					"OffsetX": {
						"Value": "0.0"
					},
					"OffsetY": {
						"Value": "17.0"
					}
				},
				"Width": {
					"Value": "440.0"
				},
				"Height": {
					"Value": "60.0"
				},
				"SliderKnobImage": "IMAGE_UI_PAUSEMENU_SLIDER_BOLT",
				"SliderFillImage": "IMAGE_UI_GENERIC_AUDIO_FILL",
				"SliderBarImage": "IMAGE_UI_GENERIC_AUDIO_BAR"
			}
		}, {
			"aliases": [ "DialogContentsLabel" ],
			"objclass": "HotUILabelProperties",
			"objdata": {
				"Name": "DialogContentsLabel",
				"Width": {
					"Value": "475"
				},
				"Height": {
					"Value": "content_size"
				},
				"Anchor": {
					"AnchorPoint": "top",
					"ParentAnchorPoint": "bottom",
					"OffsetX": {
						"Value": "0.0"
					},
					"OffsetY": {
						"Value": "-34.0"
					}
				},
				"Label": "[MAINMENU_LEGAL_READ_AND_ACCEPTED]",
				"HorizontalJustification": "center",
				"VerticalJustification": "center",
				"Font": "BLACK_18_HARDSHADOW",
				"Color": "White"
			}
		}, {
			"aliases": [ "PrivacyLink" ],
			"objclass": "HotUIClickableLinkProperties",
			"objdata": {
				"Name": "PrivacyLink",
				"Anchor": {
					"AnchorPoint": "top",
					"ParentAnchorPoint": "bottom",
					"Parent": "RTID(DialogContentsLabel@.)",
					"OffsetX": {
						"Value": "0.0"
					},
					"OffsetY": {
						"Value": "0.0"
					}
				},
				"Width": {
					"Value": "content_size"
				},
				"Height": {
					"Value": "content_size"
				},
				"Text": "[SETTINGS_TERMS_TITLE_AGEGATE]",
				"Link": "[SETTINGS_TERMSOFSERVICE_URL]",
				"Font": "BLACK_16_HARDSHADOW"
			}
		}, {
			"aliases": [ "LegalTextContinue" ],
			"objclass": "HotUILabelProperties",
			"objdata": {
				"Name": "LegalTextContinue",
				"Width": {
					"Value": "475"
				},
				"Height": {
					"Value": "content_size"
				},
				"Anchor": {
					"AnchorPoint": "top",
					"ParentAnchorPoint": "bottom",
					"Parent": "RTID(PrivacyLink@.)",
					"OffsetX": {
						"Value": "0.0"
					},
					"OffsetY": {
						"Value": "0.0"
					}
				},
				"Label": "[MAINMENU_LEGAL_READ_CONTINUED]",
				"HorizontalJustification": "center",
				"VerticalJustification": "center",
				"Font": "BLACK_18_HARDSHADOW",
				"Color": "White"
			}
		}, {
			"aliases": [ "TOSLink" ],
			"objclass": "HotUIClickableLinkProperties",
			"objdata": {
				"Name": "TOSLink",
				"Anchor": {
					"AnchorPoint": "top",
					"ParentAnchorPoint": "bottom",
					"Parent": "RTID(LegalTextContinue@.)",
					"OffsetX": {
						"Value": "0.0"
					},
					"OffsetY": {
						"Value": "0.0"
					}
				},
				"Width": {
					"Value": "475"
				},
				"Height": {
					"Value": "content_size"
				},
				"Text": "[SETTINGS_PRIVACY_TITLE_AGEGATE]",
				"Link": "[SETTINGS_PRIVACY_URL]",
				"Font": "BLACK_16_HARDSHADOW"
			}
		}, {
			"aliases": [ "LegalTextApplies" ],
			"objclass": "HotUILabelProperties",
			"objdata": {
				"Name": "LegalTextApplies",
				"Width": {
					"Value": "475"
				},
				"Height": {
					"Value": "content_size"
				},
				"Anchor": {
					"AnchorPoint": "top",
					"ParentAnchorPoint": "bottom",
					"Parent": "RTID(TOSLink@.)",
					"OffsetX": {
						"Value": "0.0"
					},
					"OffsetY": {
						"Value": "0.0"
					}
				},
				"Label": "[APPLIES]",
				"HorizontalJustification": "center",
				"VerticalJustification": "center",
				"Font": "BLACK_18_HARDSHADOW",
				"Color": "White"
			}
		}, {
			"aliases": [ "LegalTextExtension" ],
			"objclass": "HotUILabelProperties",
			"objdata": {
				"Name": "LegalTextExtension",
				"Width": {
					"Value": "475"
				},
				"Height": {
					"Value": "70"
				},
				"Anchor": {
					"AnchorPoint": "top",
					"ParentAnchorPoint": "bottom",
					"Parent": "RTID(LegalTextApplies@.)",
					"OffsetX": {
						"Value": "0.0"
					},
					"OffsetY": {
						"Value": "-3.0"
					}
				},
				"Label": "[AGE_GATE_LEGAL_EXTENSION]",
				"HorizontalJustification": "center",
				"VerticalJustification": "top",
				"Font": "BLACK_18_HARDSHADOW",
				"Color": "White"
			}
		}, {
			"aliases": [ "AcceptButton" ],
			"objclass": "HotUIButtonProperties",
			"objdata": {
				"Name": "AcceptButton",
				"Anchor": {
					"AnchorPoint": "top",
					"ParentAnchorPoint": "bottom",
					"Parent": "RTID(LegalTextExtension@.)",
					"OffsetX": {
						"Value": "0.0"
					},
					"OffsetY": {
						"Value": "2.0"
					}
				},
				"Width": {
					"Value": "210.0"
				},
				"Height": {
					"Value": "50"
				},
				"Label": "[AGE_GATE_ACCEPT_BUTTON]",
				"ButtonImageType": "3slice",
				"UpAudio": "Play_UI_Button_X_Close_Release",
				"DownAudio": "Play_UI_Button_X_Close_Press"
			}
		}, {
			"aliases": [ "BackButton" ],
			"objclass": "HotUIButtonProperties",
			"objdata": {
				"Name": "BackButton",
				"Anchor": {
					"AnchorPoint": "topright",
					"ParentAnchorPoint": "topright",
					"Parent": "RTID(AgeGateDialog@.)",
					"OffsetX": {
						"Value": "0.0"
					},
					"OffsetY": {
						"Value": "0.0"
					}
				},
				"Width": {
					"Value": "image_width"
				},
				"Height": {
					"Value": "image_height"
				},
				"ButtonImageType": "normal",
				"UpImage": "IMAGE_UI_GENERIC_CLOSE_CIRCLE",
				"DownImage": "IMAGE_UI_GENERIC_CLOSE_CIRCLE_DOWN",
				"UpAudio": "Play_UI_Button_X_Close_Release",
				"DownAudio": "Play_UI_Button_X_Close_Press"
			}
		} ]
}