{
	"version": 1,
	"objects": [ {
			"aliases": [ "ClaimAllRewardsDialog" ],
			"objclass": "HotUIWidgetProperties",
			"objdata": {
				"EntryPoint": true,
				"DarkenBackground": 0.85,
				"Name": "ClaimAllRewardsDialog",
				"Resources": [],
				"Width": {
					"Value": "100%"
				},
				"Height": {
					"Value": "100%"
				},
				"Anchor": {
					"AnchorPoint": "center"
				},
				"Padding": {
					"Left": {
						"Value": "0.0"
					},
					"Top": {
						"Value": "0.0"
					},
					"Right": {
						"Value": "0.0"
					},
					"Bottom": {
						"Value": "0.0"
					}
				},
				"IgnoreMouseInput": false,
				"Children": [ "RTID(Background@.)" ]
			}
		}, {
			"aliases": [ "Background" ],
			"objclass": "HotUIImageBorderProperties",
			"objdata": {
				"Name": "Background",
				"Resources": [],
				"Width": {
					"Value": "400"
				},
				"Height": {
					"Value": "500"
				},
				"Anchor": {
					"AnchorPoint": "center"
				},
				"Padding": {
					"Left": {
						"Value": "0.0"
					},
					"Top": {
						"Value": "0.0"
					},
					"Right": {
						"Value": "0.0"
					},
					"Bottom": {
						"Value": "0.0"
					}
				},
				"IgnoreMouseInput": false,
				"Children": [ "RTID(Title@.)", "RTID(ScrollBackground@.)", "RTID(ClaimButton@.)" ],
				"DrawType": "normal",
				"DrawStyle": "stretched",
				"Image": "IMAGE_UI_DIALOG_ASSET_DIALOGTEXTURE",
				"ImageInsets": {
					"Left": {
						"Value": "10.0"
					},
					"Top": {
						"Value": "10.0"
					},
					"Right": {
						"Value": "10.0"
					},
					"Bottom": {
						"Value": "15.0"
					}
				},
				"BorderDrawType": "9slice",
				"BorderDrawStyle": "normal",
				"BorderImage": "IMAGE_UI_DIALOG_ASSET_DIALOGBORDER",
				"BorderInsets": {
					"Left": {
						"Value": "-6.0"
					},
					"Top": {
						"Value": "0.0"
					},
					"Right": {
						"Value": "-6.0"
					},
					"Bottom": {
						"Value": "0.0"
					}
				}
			}
		}, {
			"aliases": [ "Title" ],
			"objclass": "HotUILabelProperties",
			"objdata": {
				"Name": "Title",
				"Width": {
					"Value": "90.0%"
				},
				"Height": {
					"Value": "48.0"
				},
				"Anchor": {
					"AnchorPoint": "top",
					"OffsetX": {
						"Value": "0.0"
					},
					"OffsetY": {
						"Value": "15.0"
					}
				},
				"Label": "[TRAVEL_LOG_CLAIM_ALL_REWARDS_TITLE]",
				"HorizontalJustification": "center",
				"VerticalJustification": "center",
				"Font": "Dialog_Header_Font_36",
				"Color": "Dialog_Header_Color"
			}
		}, {
			"aliases": [ "ScrollBackground" ],
			"objclass": "HotUIImageProperties",
			"objdata": {
				"Name": "ScrollBackground",
				"Width": {
					"Value": "360"
				},
				"Height": {
					"Value": "380"
				},
				"Anchor": {
					"AnchorPoint": "bottom",
					"ParentAnchorPoint": "bottom",
					"OffsetY": {
						"Value": "-50.0"
					}
				},
				"Padding": {
					"Left": {
						"Value": "0.0"
					},
					"Top": {
						"Value": "0.0"
					},
					"Right": {
						"Value": "0.0"
					},
					"Bottom": {
						"Value": "0.0"
					}
				},
				"Image": "IMAGE_UI_GENERIC_CONTENT_WELL",
				"DrawStyle": "stretched",
				"DrawType": "9slice",
				"Children": [ "RTID(ScrollList@.)" ]
			}
		}, {
			"aliases": [ "ScrollList" ],
			"objclass": "HotUIScrollWidgetProperties",
			"objdata": {
				"Name": "ScrollList",
				"Width": {
					"Value": "340"
				},
				"Height": {
					"Value": "377"
				},
				"Padding": {
					"Left": {
						"Value": "0.0"
					},
					"Top": {
						"Value": "0.0"
					},
					"Right": {
						"Value": "0.0"
					},
					"Bottom": {
						"Value": "0.0"
					}
				},
				"Anchor": {
					"AnchorPoint": "top",
					"ParentAnchorPoint": "top",
					"OffsetX": {
						"Value": "0.0"
					},
					"OffsetY": {
						"Value": "0.0"
					}
				},
				"Children": [ "RTID(RewardList@.)" ],
				"ScrollMode": "vertical",
				"ShowScrollIndicators": true,
				"ScrollIndicatorDistanceFromEdge": {
					"Value": "-1"
				},
				"ScrollIndicatorInsets": {
					"Left": {
						"Value": "0.0"
					},
					"Top": {
						"Value": "4.0"
					},
					"Right": {
						"Value": "0.0"
					},
					"Bottom": {
						"Value": "4.0"
					}
				}
			}
		}, {
			"aliases": [ "RewardList" ],
			"objclass": "HotUIVerticalListProperties",
			"objdata": {
				"Name": "RewardList",
				"Width": {
					"Value": "335"
				},
				"Height": {
					"Value": "377"
				},
				"SpaceBetweenWidgets": {
					"Value": "2.0"
				},
				"Anchor": {
					"AnchorPoint": "top",
					"ParentAnchorPoint": "top",
					"OffsetX": {
						"Value": "-0.0"
					}
				}
			}
		}, {
			"aliases": [ "ClaimButton" ],
			"objclass": "HotUIButtonProperties",
			"objdata": {
				"Name": "ClaimButton",
				"Width": {
					"Value": "150.0"
				},
				"Height": {
					"Value": "50"
				},
				"Anchor": {
					"AnchorPoint": "bottom",
					"ParentAnchorPoint": "bottom",
					"OffsetY": {
						"Value": "6.0"
					}
				},
				"Label": "[TRAVEL_LOG_CLAIM_ALL_REWARDS]",
				"LabelInset": {
					"Left": {
						"Value": "5.0"
					},
					"Top": {
						"Value": "5.0"
					},
					"Right": {
						"Value": "10.0"
					},
					"Bottom": {
						"Value": "5.0"
					}
				},
				"Font": "Dialog_Button_Label_Font_26",
				"Color": "Dialog_Button_Label_Color",
				"ButtonImageType": "3slice",
				"UpImage": "IMAGE_UI_GENERIC_PURPLEBUTTON",
				"DownImage": "IMAGE_UI_GENERIC_PURPLEBUTTON_DOWN",
				"DownAudio": "Play_UI_PointOfLoss_Gems_Press",
				"UpAudio": "Play_UI_PointOfLoss_Gems_Release",
				"IncludelistID": "CLAIM_BUTTON"
			}
		} ]
}