{
	"version": 1,
	"objects": [ {
			"aliases": [ "JoustResultsSeasonRewardMain" ],
			"objclass": "HotUIWidgetProperties",
			"objdata": {
				"EntryPoint": true,
				"DarkenBackground": "0.85",
				"Name": "JoustResultsSeasonRewardMain",
				"Width": {
					"Value": "100%"
				},
				"Height": {
					"Value": "100%"
				},
				"Anchor": {
					"AnchorPoint": "center",
					"Parent": ""
				},
				"IgnoreMouseInput": false,
				"Children": [ "RTID(JoustResultsSeasonRewardDialog@.)" ]
			}
		}, {
			"aliases": [ "JoustResultsSeasonRewardDialog" ],
			"objclass": "HotUIWidgetProperties",
			"objdata": {
				"Name": "JoustResultsSeasonRewardDialog",
				"Resources": [],
				"Width": {
					"Value": "100%"
				},
				"Height": {
					"Value": "100%"
				},
				"Anchor": {
					"AnchorPoint": "center"
				},
				"Padding": {
					"Left": {
						"Value": "0.0"
					},
					"Top": {
						"Value": "0.0"
					},
					"Right": {
						"Value": "0.0"
					},
					"Bottom": {
						"Value": "0.0"
					}
				},
				"IgnoreMouseInput": false,
				"Children": [ "RTID(Dialog@.)", "RTID(DialogButtonList@.)" ]
			}
		}, {
			"aliases": [ "Dialog" ],
			"objclass": "HotUIImageBorderProperties",
			"objdata": {
				"Name": "Dialog",
				"Resources": [],
				"Width": {
					"Value": "600"
				},
				"Height": {
					"Value": "275"
				},
				"Anchor": {
					"AnchorPoint": "center",
					"Parent": ""
				},
				"Padding": {
					"Left": {
						"Value": "18.0"
					},
					"Top": {
						"Value": "24.0"
					},
					"Right": {
						"Value": "18.0"
					},
					"Bottom": {
						"Value": "48.0"
					}
				},
				"IgnoreMouseInput": true,
				"Children": [ "RTID(DialogCard@.)", "RTID(SeasonRewardHeader@.)", "RTID(SeasonProgressBar@.)" ],
				"DrawType": "normal",
				"DrawStyle": "stretched",
				"Image": "IMAGE_UI_DIALOG_ASSET_DIALOGTEXTURE",
				"ImageInsets": {
					"Left": {
						"Value": "12.0"
					},
					"Top": {
						"Value": "10.0"
					},
					"Right": {
						"Value": "12.0"
					},
					"Bottom": {
						"Value": "13.0"
					}
				},
				"BorderDrawType": "9slice",
				"BorderDrawStyle": "normal",
				"BorderImage": "IMAGE_UI_DIALOG_ASSET_DIALOGBORDER",
				"BorderInsets": {
					"Left": {
						"Value": "-6.0"
					},
					"Top": {
						"Value": "0.0"
					},
					"Right": {
						"Value": "-6.0"
					},
					"Bottom": {
						"Value": "0.0"
					}
				}
			}
		}, {
			"aliases": [ "DialogCard" ],
			"objclass": "HotUIImageProperties",
			"objdata": {
				"Name": "DialogCard",
				"Width": {
					"Value": "100.0%"
				},
				"Height": {
					"Value": "225"
				},
				"Anchor": {
					"AnchorPoint": "",
					"ParentAnchorPoint": "",
					"Parent": "",
					"OffsetX": {
						"Value": "0.0"
					},
					"OffsetY": {
						"Value": "0.0"
					}
				},
				"DrawType": "9slice",
				"DrawStyle": "stretched",
				"Image": "IMAGE_UI_CARDS_STORE_STORE_UPGRADE_CARD",
				"ImageInsets": {
					"Left": {
						"Value": "0.0"
					},
					"Top": {
						"Value": "-8.0"
					},
					"Right": {
						"Value": "0.0"
					},
					"Bottom": {
						"Value": "0.0"
					}
				}
			}
		}, {
			"aliases": [ "SeasonRewardHeader" ],
			"objclass": "HotUILabelProperties",
			"objdata": {
				"Name": "SeasonRewardHeader",
				"Width": {
					"Value": "100.0%"
				},
				"Height": {
					"Value": "48.0"
				},
				"Anchor": {
					"AnchorPoint": "top",
					"Parent": "",
					"OffsetX": {
						"Value": "0.0"
					},
					"OffsetY": {
						"Value": "15.0"
					}
				},
				"Label": "[SEASON_REWARD_ANIMATION_HEADER]",
				"HorizontalJustification": "center",
				"VerticalJustification": "center",
				"Font": "Dialog_Header_Font_36",
				"Color": "Dialog_Header_Color"
			}
		}, {
			"aliases": [ "SeasonProgressBar" ],
			"objclass": "HotUIPrefabProperties",
			"objdata": {
				"Name": "SeasonProgressBar",
				"Width": {
					"Value": "500"
				},
				"Height": {
					"Value": "125"
				},
				"Anchor": {
					"AnchorPoint": "top",
					"OffsetX": {
						"Value": "0"
					},
					"OffsetY": {
						"Value": "55%"
					}
				},
				"IgnoreMouseInput": true,
				"Children": [],
				"UIFileName": "JoustSeasonsProgressBar",
				"AdaptorClassName": "AdaptorJoustSeasonsProgressBar"
			}
		}, {
			"aliases": [ "DialogButtonList" ],
			"objclass": "HotUIButtonListProperties",
			"objdata": {
				"Name": "DialogButtonList",
				"Width": {
					"Value": "500"
				},
				"Height": {
					"Value": "60"
				},
				"Padding": {
					"Left": {
						"Value": "20.0"
					},
					"Top": {
						"Value": "0.0"
					},
					"Right": {
						"Value": "20.0"
					},
					"Bottom": {
						"Value": "0.0"
					}
				},
				"Anchor": {
					"AnchorPoint": "top",
					"ParentAnchorPoint": "bottom",
					"Parent": "RTID(Dialog@.)",
					"OffsetX": {
						"Value": "0.0"
					},
					"OffsetY": {
						"Value": "-40.0"
					}
				},
				"Children": [ "RTID(ContinueButton@.)" ],
				"Layout": "horizontal",
				"LayoutJustification": "centered"
			}
		}, {
			"aliases": [ "ContinueButton" ],
			"objclass": "HotUIButtonProperties",
			"objdata": {
				"Name": "ContinueButton",
				"Width": {
					"Value": "150.0"
				},
				"Height": {
					"Value": "50"
				},
				"Label": "",
				"Font": "Dialog_Button_Label_Font_26",
				"Color": "Dialog_Button_Label_Color",
				"ButtonImageType": "3slice",
				"UpImage": "IMAGE_UI_GENERIC_BROWNBUTTON",
				"DownImage": "IMAGE_UI_GENERIC_BROWNBUTTON_DOWN",
				"DownAudio": "Play_UI_Menu_Cancel_Press",
				"UpAudio": "Play_UI_Menu_Cancel_Release",
				"IncludelistID": "CONTINUE_BUTTON",
				"HideButtonImages": true
			}
		} ]
}