{
	"version": 1,
	"objects": [ {
			"aliases": [ "MultiPurchaseItemEntry" ],
			"objclass": "HotUIWidgetProperties",
			"objdata": {
				"EntryPoint": true,
				"Name": "MultiPurchaseItemEntry",
				"Width": {
					"Value": "110"
				},
				"Height": {
					"Value": "140"
				},
				"Anchor": {
					"AnchorPoint": "topleft"
				},
				"IgnoreMouseInput": false,
				"Children": [ "RTID(ItemImage@.)", "RTID(ItemSeedPacket@.)", "RTID(ItemPlantAnim@.)", "RTID(ItemAmountText@.)", "RTID(GuaranteedBackground@.)", "RTID(LockIcon@.)" ]
			}
		}, {
			"aliases": [ "GuaranteedBackground" ],
			"objclass": "HotUIImageProperties",
			"objdata": {
				"Name": "GuaranteedBackground",
				"Width": {
					"Value": "90%"
				},
				"Height": {
					"Value": "20"
				},
				"Anchor": {
					"AnchorPoint": "top",
					"ParentAnchorPoint": "top",
					"OffsetX": {
						"Value": "0"
					},
					"OffsetY": {
						"Value": "2"
					}
				},
				"Image": "IMAGE_UI_GENERIC_GUARANTEED_BG",
				"DrawStyle": "3slice_horizontal",
				"Children": [ "RTID(GuaranteedLabel@.)" ]
			}
		}, {
			"aliases": [ "GuaranteedLabel" ],
			"objclass": "HotUILabelProperties",
			"objdata": {
				"Name": "GuaranteedLabel",
				"Width": {
					"Value": "100%"
				},
				"Height": {
					"Value": "20"
				},
				"Anchor": {
					"AnchorPoint": "center"
				},
				"Label": "[STORE_MULTI_GUARANTEED]",
				"HorizontalJustification": "center",
				"VerticalJustification": "center",
				"Font": "BLACK_24",
				"Color": "White"
			}
		}, {
			"aliases": [ "ItemImage" ],
			"objclass": "HotUIImageProperties",
			"objdata": {
				"Resources": [ "CollectableCommon", "GameUpgrades" ],
				"Name": "ItemImage",
				"Width": {
					"Value": "93%"
				},
				"Height": {
					"Value": "100"
				},
				"Anchor": {
					"AnchorPoint": "topcenter",
					"ParentAnchorPoint": "topcenter",
					"OffsetX": {
						"Value": "6%"
					},
					"OffsetY": {
						"Value": "12"
					}
				},
				"Padding": {
					"Left": {
						"Value": "10.0"
					},
					"Top": {
						"Value": "0.0"
					},
					"Right": {
						"Value": "10.0"
					},
					"Bottom": {
						"Value": "0.0"
					}
				},
				"Image": "$ITEMIMAGE",
				"DrawStyle": "stretched_aspectX"
			}
		}, {
			"aliases": [ "ItemSeedPacket" ],
			"objclass": "HotUISeedPacketProperties",
			"objdata": {
				"Name": "ItemSeedPacket",
				"Width": {
					"Value": "76%"
				},
				"Height": {
					"Value": "75"
				},
				"Resources": [],
				"Anchor": {
					"AnchorPoint": "topcenter",
					"ParentAnchorPoint": "topcenter",
					"OffsetX": {
						"Value": "12%"
					},
					"OffsetY": {
						"Value": "33"
					}
				},
				"PacketConfig": {
					"PlantType": "$ITEMSEEDPACKET"
				}
			}
		}, {
			"aliases": [ "ItemPlantAnim" ],
			"objclass": "HotUIPlantAnimProperties",
			"objdata": {
				"Name": "ItemPlantAnim",
				"Width": {
					"Value": "76%"
				},
				"Height": {
					"Value": "75"
				},
				"Resources": [],
				"Anchor": {
					"AnchorPoint": "topcenter",
					"ParentAnchorPoint": "topcenter",
					"OffsetX": {
						"Value": "12%"
					},
					"OffsetY": {
						"Value": "30"
					}
				},
				"PlantConfig": {
					"PlantType": "$ITEMANIMPLANTTYPE",
					"CostumeLayer": "$ITEMANIMCOSTUMETYPE"
				}
			}
		}, {
			"aliases": [ "ItemAmountText" ],
			"objclass": "HotUILabelProperties",
			"objdata": {
				"Name": "ItemAmountText",
				"Width": {
					"Value": "90%"
				},
				"Height": {
					"Value": "30"
				},
				"Anchor": {
					"AnchorPoint": "bottom",
					"ParentAnchorPoint": "bottom",
					"OffsetY": {
						"Value": "-2"
					}
				},
				"Label": "$DESCRIPTION",
				"HorizontalJustification": "center",
				"VerticalJustification": "center",
				"Font": "BLACK_16_THICKOUTLINE",
				"Color": "White"
			}
		}, {
			"aliases": [ "LockIcon" ],
			"objclass": "HotUIImageProperties",
			"objdata": {
				"Name": "LockIcon",
				"Width": {
					"Value": "40"
				},
				"Height": {
					"Value": "50"
				},
				"Anchor": {
					"AnchorPoint": "center",
					"ParentAnchorPoint": "center",
					"OffsetX": {
						"Value": "0"
					},
					"OffsetY": {
						"Value": "-5"
					}
				},
				"Padding": {
					"Left": {
						"Value": "10.0"
					},
					"Top": {
						"Value": "0.0"
					},
					"Right": {
						"Value": "10.0"
					},
					"Bottom": {
						"Value": "0.0"
					}
				},
				"Image": "IMAGE_UI_LOCK_SMALL_GOLD",
				"DrawStyle": "stretched"
			}
		} ]
}