{
	"version": 1,
	"objects": [ {
			"aliases": [ "PointOfLossDialog" ],
			"objclass": "HotUIWidgetProperties",
			"objdata": {
				"EntryPoint": true,
				"DarkenBackground": 0.75,
				"Name": "PointOfLossDialog",
				"Resources": [],
				"Width": {
					"Value": "100%"
				},
				"Height": {
					"Value": "100%"
				},
				"Anchor": {
					"AnchorPoint": "center",
					"Parent": ""
				},
				"Padding": {
					"Left": {
						"Value": "0.0"
					},
					"Top": {
						"Value": "0.0"
					},
					"Right": {
						"Value": "0.0"
					},
					"Bottom": {
						"Value": "0.0"
					}
				},
				"IgnoreMouseInput": false,
				"Children": [ "RTID(Dialog@.)", "RTID(DialogDismiss@.)", "RTID(DialogXButtonImage@.)", "RTID(DialogXButton@.)", "RTID(DialogButtonList@.)", "RTID(CurrencyWidget@.)" ]
			}
		}, {
			"aliases": [ "DialogDismiss" ],
			"objclass": "HotUIButtonProperties",
			"objdata": {
				"Name": "DialogDismiss",
				"Width": {
					"Value": "100%"
				},
				"Height": {
					"Value": "100%"
				},
				"Anchor": {
					"AnchorPoint": "center",
					"Parent": ""
				},
				"IgnoreMouseInput": false,
				"UpAudio": "Play_UI_Button_X_Close_Release",
				"DownAudio": "Play_UI_Button_X_Close_Press"
			}
		}, {
			"aliases": [ "DialogXButtonImage" ],
			"objclass": "HotUIImageProperties",
			"objdata": {
				"Name": "DialogXButtonImage",
				"Width": {
					"Value": "content_size"
				},
				"Height": {
					"Value": "content_size"
				},
				"Anchor": {
					"AnchorPoint": "bottom",
					"ParentAnchorPoint": "topright",
					"Parent": "RTID(Dialog@.)",
					"OffsetX": {
						"Value": "-60.0"
					},
					"OffsetY": {
						"Value": "2.0"
					}
				},
				"Image": "IMAGE_UI_GENERIC_CLOSE_BTN"
			}
		}, {
			"aliases": [ "DialogXButton" ],
			"objclass": "HotUIButtonProperties",
			"objdata": {
				"Name": "DialogXButton",
				"Width": {
					"Value": "100"
				},
				"Height": {
					"Value": "100"
				},
				"Anchor": {
					"AnchorPoint": "topright",
					"ParentAnchorPoint": "topright",
					"Parent": "RTID(Dialog@.)",
					"OffsetX": {
						"Value": "0"
					},
					"OffsetY": {
						"Value": "-80"
					}
				},
				"ButtonImageType": "normal",
				"UpImage": "IMAGE_UI_GENERIC_CLOSE_BTN",
				"DownImage": "IMAGE_UI_GENERIC_CLOSE_DOWN",
				"UpAudio": "Play_UI_Button_X_Close_Release",
				"DownAudio": "Play_UI_Button_X_Close_Press"
			}
		}, {
			"aliases": [ "DeclineButton" ],
			"objclass": "HotUIButtonProperties",
			"objdata": {
				"Name": "DeclineButton",
				"Width": {
					"Value": "150.0"
				},
				"Height": {
					"Value": "50"
				},
				"Label": "[NOT_NOW_BUTTON]",
				"Font": "Dialog_Button_Label_Font_26",
				"Color": "Dialog_Button_Label_Color",
				"ButtonImageType": "3slice",
				"UpImage": "IMAGE_UI_GENERIC_BROWNBUTTON",
				"DownImage": "IMAGE_UI_GENERIC_BROWNBUTTON_DOWN",
				"DownAudio": "Play_UI_Forfeit_Press",
				"UpAudio": "Play_UI_Forfeit_Release",
				"IncludelistID": "POINT_OF_LOSS_DECLINE_BUTTON"
			}
		}, {
			"aliases": [ "Dialog" ],
			"objclass": "HotUIImageBorderProperties",
			"objdata": {
				"Name": "Dialog",
				"Resources": [],
				"Width": {
					"Value": "460"
				},
				"Height": {
					"Value": "content_size"
				},
				"Anchor": {
					"AnchorPoint": "center",
					"Parent": ""
				},
				"Padding": {
					"Left": {
						"Value": "24.0"
					},
					"Top": {
						"Value": "24.0"
					},
					"Right": {
						"Value": "24.0"
					},
					"Bottom": {
						"Value": "48.0"
					}
				},
				"IgnoreMouseInput": true,
				"Children": [ "RTID(DialogCard@.)", "RTID(DialogTitle@.)" ],
				"DrawType": "normal",
				"DrawStyle": "stretched",
				"Image": "IMAGE_UI_DIALOG_ASSET_DIALOGTEXTURE",
				"ImageInsets": {
					"Left": {
						"Value": "12.0"
					},
					"Top": {
						"Value": "10.0"
					},
					"Right": {
						"Value": "12.0"
					},
					"Bottom": {
						"Value": "13.0"
					}
				},
				"BorderDrawType": "9slice",
				"BorderDrawStyle": "normal",
				"BorderImage": "IMAGE_UI_DIALOG_ASSET_DIALOGBORDER",
				"BorderInsets": {
					"Left": {
						"Value": "0.0"
					},
					"Top": {
						"Value": "0.0"
					},
					"Right": {
						"Value": "0.0"
					},
					"Bottom": {
						"Value": "0.0"
					}
				}
			}
		}, {
			"aliases": [ "DialogCard" ],
			"objclass": "HotUIImageProperties",
			"objdata": {
				"Name": "DialogCard",
				"Width": {
					"Value": "100.0%"
				},
				"Height": {
					"Value": "200"
				},
				"Anchor": {
					"AnchorPoint": "",
					"ParentAnchorPoint": "",
					"Parent": "",
					"OffsetX": {
						"Value": "0.0"
					},
					"OffsetY": {
						"Value": "0.0"
					}
				},
				"DrawType": "9slice",
				"DrawStyle": "stretched",
				"Image": "IMAGE_UI_CARDS_STORE_STORE_UPGRADE_CARD",
				"ImageInsets": {
					"Left": {
						"Value": "0.0"
					},
					"Top": {
						"Value": "-8.0"
					},
					"Right": {
						"Value": "0.0"
					},
					"Bottom": {
						"Value": "0.0"
					}
				}
			}
		}, {
			"aliases": [ "DialogTitle" ],
			"objclass": "HotUILabelProperties",
			"objdata": {
				"Name": "DialogTitle",
				"Width": {
					"Value": "100.0%"
				},
				"Height": {
					"Value": "48.0"
				},
				"Anchor": {
					"AnchorPoint": "top",
					"Parent": "",
					"OffsetX": {
						"Value": "0.0"
					},
					"OffsetY": {
						"Value": "15.0"
					}
				},
				"Label": "[POINT_OF_LOSS_DIALOG_TITLE]",
				"HorizontalJustification": "center",
				"VerticalJustification": "center",
				"Font": "Dialog_Header_Font_36",
				"Color": "Dialog_Header_Color"
			}
		}, {
			"aliases": [ "DialogButtonList" ],
			"objclass": "HotUIButtonListProperties",
			"objdata": {
				"Name": "DialogButtonList",
				"Width": {
					"Value": "500"
				},
				"Height": {
					"Value": "60"
				},
				"Padding": {
					"Left": {
						"Value": "20.0"
					},
					"Top": {
						"Value": "0.0"
					},
					"Right": {
						"Value": "20.0"
					},
					"Bottom": {
						"Value": "0.0"
					}
				},
				"Anchor": {
					"AnchorPoint": "top",
					"ParentAnchorPoint": "bottom",
					"Parent": "RTID(Dialog@.)",
					"OffsetX": {
						"Value": "0.0"
					},
					"OffsetY": {
						"Value": "-40.0"
					}
				},
				"Children": [ "RTID(AcceptAdButton@.)", "RTID(DeclineButton@.)", "RTID(AcceptGemsButton@.)" ],
				"Layout": "horizontal",
				"LayoutJustification": "centered"
			}
		}, {
			"aliases": [ "AcceptGemsButton" ],
			"objclass": "HotUIPurchaseButtonProperties",
			"objdata": {
				"Name": "AcceptGemsButton",
				"Width": {
					"Value": "150.0"
				},
				"Height": {
					"Value": "content_size"
				},
				"Label": "[POINT_OF_LOSS_GEMS]",
				"Font": "Dialog_Button_Label_Font_26",
				"Color": "Dialog_Button_Label_Color",
				"ButtonImageType": "3slice",
				"UpImage": "IMAGE_UI_GENERIC_GEMSBUYBUTTON",
				"DownImage": "IMAGE_UI_GENERIC_GEMSBUYBUTTON_DOWN",
				"DownAudio": "Play_UI_Menu_Buy_PointOfLoss_Confirm_Press",
				"UpAudio": "Play_UI_Menu_Buy_PointOfLoss_Confirm_Release",
				"IncludelistID": "POINT_OF_LOSS_ACCEPT_GEMS_BUTTON"
			}
		}, {
			"aliases": [ "AcceptAdButton" ],
			"objclass": "HotUIPurchaseButtonProperties",
			"objdata": {
				"Name": "AcceptAdButton",
				"Width": {
					"Value": "150.0"
				},
				"Height": {
					"Value": "content_size"
				},
				"Label": "[POINT_OF_LOSS_AD]",
				"Font": "Dialog_Button_Label_Font_26",
				"Color": "Dialog_Button_Label_Color",
				"ButtonImageType": "3slice",
				"UpImage": "IMAGE_UI_GENERIC_PURPLEBUTTON",
				"DownImage": "IMAGE_UI_GENERIC_PURPLEBUTTON_DOWN",
				"DownAudio": "Play_UI_Menu_Buy_PointOfLoss_Confirm_Press",
				"UpAudio": "Play_UI_Menu_Buy_PointOfLoss_Confirm_Release",
				"IncludelistID": "POINT_OF_LOSS_ACCEPT_AD_BUTTON"
			}
		}, {
			"aliases": [ "CurrencyWidget" ],
			"objclass": "HotUIWidgetProperties",
			"objdata": {
				"Name": "CurrencyWidget",
				"Width": {
					"Value": "100%"
				},
				"Height": {
					"Value": "100%"
				},
				"Anchor": {
					"AnchorPoint": "",
					"ParentAnchorPoint": "top",
					"Parent": "RTID(PointOfLossDialog@.)",
					"OffsetX": {
						"Value": "140"
					},
					"OffsetY": {
						"Value": ""
					}
				},
				"Padding": {
					"Left": {
						"Value": "0.0"
					},
					"Top": {
						"Value": "5.0"
					},
					"Right": {
						"Value": "0.0"
					},
					"Bottom": {
						"Value": "0.0"
					}
				},
				"IgnoreMouseInput": true,
				"Children": [ "RTID(AddMoreCurrencyButton@.)" ]
			}
		}, {
			"aliases": [ "AddMoreCurrencyButton" ],
			"objclass": "HotUIButtonProperties",
			"objdata": {
				"Name": "AddMoreCurrencyButton",
				"Width": {
					"Value": "125"
				},
				"Height": {
					"Value": "content_size"
				},
				"ButtonImageType": "3slice",
				"UpImage": "IMAGE_UI_GENERIC_BUTTONS_PREMIUM_NORMAL",
				"DownImage": "IMAGE_UI_GENERIC_BUTTONS_PREMIUM_SELECTED",
				"DownAudio": "Play_UI_Menu_Cancel_Press",
				"UpAudio": "Play_UI_Menu_Cancel_Release",
				"IncludelistID": "POINT_OF_LOSS_ADD_CURRENCY_BUTTON"
			}
		} ]
}