{
	"#comment": "Beach 8",
	"objects": [
		{
			"objclass": "LevelDefinition",
			"objdata": {
				"Description": "[PLAYERS_TRIP_TO_BEACH]",
				"FirstIntroNarrative": "BEACH_INTRO_BOWLING",
				"FirstRewardType": "pinata",
				"FirstRewardParam": "spine_beach",
				"LevelNumber": 8,
				"Loot": "RTID(DefaultLoot@LevelModules)",
				"Modules": [
					"RTID(StandardIntro@LevelModules)",
					"RTID(ZombiesDeadWinCon@LevelModules)",
					"RTID(BeachMowers@LevelModules)",
					"RTID(ConveyorBelt@CurrentLevel)",
					"RTID(DefaultZombieWinCondition@LevelModules)",
					"RTID(NewWaves@CurrentLevel)",
					"RTID(LilypadPlacement@CurrentLevel)",
					"RTID(Tide@CurrentLevel)",
					"RTID(BowlingBulbMinigame@CurrentLevel)"
				],
				"MusicType": "MiniGame_B",
				"Name": "[BEACH_LEVEL_NAME]",
				"NormalPresentTable": "egypt_normal_01",
				"ShinyPresentTable": "egypt_shiny_01",
				"StageModule": "RTID(BeachStage@LevelModules)"
			}
		},
		{
			"aliases": [
				"Tide"
			],
			"objclass": "TideProperties",
			"objdata": {
				"ShowTideMarker": false,
				"StartingWaveLocation": 3
			}
		},
		{
			"aliases": [
				"ConveyorBelt"
			],
			"objclass": "ConveyorSeedBankProperties",
			"objdata": {
				"DropDelayConditions": [
					{
						"Delay": 2,
						"MaxPackets": 0
					},
					{
						"Delay": 3,
						"MaxPackets": 2
					},
					{
						"Delay": 4,
						"MaxPackets": 4
					},
					{
						"Delay": 5,
						"MaxPackets": 8
					}
				],
				"InitialPlantList": [
					{
						"MaxCount": 2,
						"MaxWeightFactor": 0,
						"PlantType": "tool_projectile_bowlingbulb1",
						"Weight": 5
					},
					{
						"MaxCount": 3,
						"MaxWeightFactor": 0,
						"PlantType": "tool_projectile_bowlingbulb2",
						"Weight": 25
					},
					{
						"MaxCount": 6,
						"MaxWeightFactor": 0,
						"PlantType": "tool_projectile_bowlingbulb3",
						"Weight": 75
					},
					{
						"MaxCount": 1,
						"MaxCountCooldownSeconds": 4,
						"MaxWeightFactor": 0.5,
						"PlantType": "tool_projectile_bowlingbulb_explode",
						"Weight": 40
					},
					{
						"MaxCount": 1,
						"MaxCountCooldownSeconds": 10,
						"MaxWeightFactor": 0.1,
						"PlantType": "tool_projectile_bowlingbulb_mega",
						"Weight": 0
					}
				],
				"SpeedConditions": [
					{
						"MaxPackets": 0,
						"Speed": 100
					}
				]
			}
		},
		{
			"aliases": [
				"LilypadPlacement"
			],
			"objclass": "InitialGridItemProperties",
			"objdata": {}
		},
		{
			"aliases": [
				"BowlingBulbMinigame"
			],
			"objclass": "BowlingMinigameProperties",
			"objdata": {
				"BowlingFoulLine": 2
			}
		},
		{
			"aliases": [
				"NewWaves"
			],
			"objclass": "WaveManagerModuleProperties",
			"objdata": {
				"DynamicZombies": [
					{
						"PointIncrementPerWave": -40,
						"StartingPoints": -100,
						"StartingWave": 3,
						"ZombiePool": [
							"RTID(beach@ZombieTypes)",
							"RTID(beach_armor2@ZombieTypes)",
							"RTID(beach_fem@ZombieTypes)",
							"RTID(beach_fem_armor1@ZombieTypes)",
							"RTID(beach_snorkel@ZombieTypes)"
						]
					},
					{
						"PointIncrementPerWave": -25,
						"StartingPoints": -100,
						"StartingWave": 4,
						"ZombiePool": [
							"RTID(beach@ZombieTypes)",
							"RTID(beach_armor2@ZombieTypes)",
							"RTID(beach_fem@ZombieTypes)",
							"RTID(beach_fem_armor1@ZombieTypes)",
							"RTID(beach_snorkel@ZombieTypes)"
						]
					},
					{
						"PointIncrementPerWave": -10,
						"StartingPoints": -100,
						"StartingWave": 5,
						"ZombiePool": [
							"RTID(beach@ZombieTypes)",
							"RTID(beach_armor2@ZombieTypes)",
							"RTID(beach_fem@ZombieTypes)",
							"RTID(beach_fem_armor1@ZombieTypes)",
							"RTID(beach_snorkel@ZombieTypes)"
						]
					},
					{},
					{
						"PointIncrementPerWave": 20,
						"StartingPoints": 100,
						"StartingWave": 5,
						"ZombiePool": [
							"RTID(beach@ZombieTypes)",
							"RTID(beach_armor2@ZombieTypes)",
							"RTID(beach_fem@ZombieTypes)",
							"RTID(beach_fem_armor1@ZombieTypes)",
							"RTID(beach_snorkel@ZombieTypes)"
						]
					},
					{
						"PointIncrementPerWave": 40,
						"StartingPoints": 200,
						"StartingWave": 4,
						"ZombiePool": [
							"RTID(beach_armor2@ZombieTypes)",
							"RTID(beach_fem_armor1@ZombieTypes)",
							"RTID(beach_snorkel@ZombieTypes)"
						]
					},
					{
						"PointIncrementPerWave": 60,
						"StartingPoints": 400,
						"StartingWave": 3,
						"ZombiePool": [
							"RTID(beach_armor2@ZombieTypes)",
							"RTID(beach_snorkel@ZombieTypes)"
						]
					}
				],
				"WaveManagerProps": "RTID(WaveManagerProps@CurrentLevel)"
			}
		},
		{
			"aliases": [
				"WaveManagerProps"
			],
			"objclass": "WaveManagerProperties",
			"objdata": {
				"FlagWaveInterval": 7,
				"MaxNextWaveHealthPercentage": 0.75,
				"MinNextWaveHealthPercentage": 0.55,
				"WaveCount": 14,
				"WaveSpendingPointIncrement": 100,
				"WaveSpendingPoints": 200,
				"Waves": [
					[
						"RTID(Wave1@CurrentLevel)"
					],
					[
						"RTID(Wave2@CurrentLevel)",
						"RTID(Wave2TidalChangeEvent0@CurrentLevel)"
					],
					[
						"RTID(Wave3@CurrentLevel)",
						"RTID(Wave3TidalChangeEvent0@CurrentLevel)"
					],
					[
						"RTID(Wave4@CurrentLevel)",
						"RTID(Wave4LowTideEvent0@CurrentLevel)",
						"RTID(Wave4TidalChangeEvent0@CurrentLevel)"
					],
					[
						"RTID(Wave5@CurrentLevel)"
					],
					[
						"RTID(Wave6@CurrentLevel)",
						"RTID(Wave6TidalChangeEvent0@CurrentLevel)"
					],
					[
						"RTID(Wave7@CurrentLevel)",
						"RTID(Wave7TidalChangeEvent0@CurrentLevel)"
					],
					[
						"RTID(Wave8@CurrentLevel)",
						"RTID(Wave8LowTideEvent0@CurrentLevel)",
						"RTID(Wave8TidalChangeEvent0@CurrentLevel)"
					],
					[
						"RTID(Wave9@CurrentLevel)"
					],
					[
						"RTID(Wave10@CurrentLevel)",
						"RTID(Wave10TidalChangeEvent0@CurrentLevel)"
					],
					[
						"RTID(Wave11@CurrentLevel)",
						"RTID(Wave11TidalChangeEvent0@CurrentLevel)"
					],
					[
						"RTID(Wave12@CurrentLevel)",
						"RTID(Wave12LowTideEvent0@CurrentLevel)",
						"RTID(Wave12TidalChangeEvent0@CurrentLevel)"
					],
					[
						"RTID(Wave13@CurrentLevel)"
					],
					[
						"RTID(Wave14@CurrentLevel)"
					]
				]
			}
		},
		{
			"aliases": [
				"Wave1"
			],
			"objclass": "SpawnZombiesJitteredWaveActionProps",
			"objdata": {
				"ZombieSpawnPattern": "ZombieSpawnerPatternStaggered",
				"Zombies": [
					{
						"Row": "4",
						"Type": "RTID(beach@ZombieTypes)"
					},
					{
						"Row": "4",
						"Type": "RTID(beach@ZombieTypes)"
					},
					{
						"Row": "5",
						"Type": "RTID(beach@ZombieTypes)"
					},
					{
						"Row": "5",
						"Type": "RTID(beach@ZombieTypes)"
					},
					{
						"Row": "3",
						"Type": "RTID(beach@ZombieTypes)"
					},
					{
						"Row": "3",
						"Type": "RTID(beach@ZombieTypes)"
					}
				]
			}
		},
		{
			"aliases": [
				"Wave2"
			],
			"objclass": "SpawnZombiesJitteredWaveActionProps",
			"objdata": {
				"ZombieSpawnPattern": "ZombieSpawnerPatternStaggered",
				"Zombies": [
					{
						"Row": "2",
						"Type": "RTID(beach@ZombieTypes)"
					},
					{
						"Row": "4",
						"Type": "RTID(beach@ZombieTypes)"
					},
					{
						"Row": "3",
						"Type": "RTID(beach@ZombieTypes)"
					},
					{
						"Row": "4",
						"Type": "RTID(beach@ZombieTypes)"
					},
					{
						"Row": "2",
						"Type": "RTID(beach@ZombieTypes)"
					},
					{
						"Row": "3",
						"Type": "RTID(beach_armor1@ZombieTypes)"
					},
					{
						"Type": "RTID(beach_snorkel@ZombieTypes)"
					},
					{
						"Type": "RTID(beach_snorkel@ZombieTypes)"
					},
					{
						"Type": "RTID(beach_snorkel@ZombieTypes)"
					}
				]
			}
		},
		{
			"aliases": [
				"Wave3"
			],
			"objclass": "SpawnZombiesJitteredWaveActionProps",
			"objdata": {
				"ZombieSpawnPattern": "ZombieSpawnerPatternStaggered",
				"Zombies": [
					{
						"Row": "5",
						"Type": "RTID(beach@ZombieTypes)"
					},
					{
						"Row": "4",
						"Type": "RTID(beach_armor1@ZombieTypes)"
					},
					{
						"Row": "5",
						"Type": "RTID(beach_armor1@ZombieTypes)"
					},
					{
						"Row": "4",
						"Type": "RTID(beach@ZombieTypes)"
					},
					{
						"Row": "5",
						"Type": "RTID(beach@ZombieTypes)"
					},
					{
						"Row": "4",
						"Type": "RTID(beach_armor1@ZombieTypes)"
					},
					{
						"Row": "1",
						"Type": "RTID(beach_fem@ZombieTypes)"
					},
					{
						"Row": "1",
						"Type": "RTID(beach_fem_armor1@ZombieTypes)"
					},
					{
						"Row": "1",
						"Type": "RTID(beach_fem@ZombieTypes)"
					},
					{
						"Row": "2",
						"Type": "RTID(beach_fem_armor1@ZombieTypes)"
					},
					{
						"Row": "2",
						"Type": "RTID(beach_fem@ZombieTypes)"
					},
					{
						"Row": "2",
						"Type": "RTID(beach_fem_armor1@ZombieTypes)"
					}
				]
			}
		},
		{
			"aliases": [
				"Wave4"
			],
			"objclass": "SpawnZombiesJitteredWaveActionProps",
			"objdata": {
				"ZombieSpawnPattern": "ZombieSpawnerPatternStaggered",
				"Zombies": [
					{
						"Type": "RTID(beach_fem@ZombieTypes)"
					},
					{
						"Type": "RTID(beach_fem@ZombieTypes)"
					},
					{
						"Type": "RTID(beach_fem@ZombieTypes)"
					},
					{
						"Type": "RTID(beach_fem@ZombieTypes)"
					},
					{
						"Type": "RTID(beach_armor2@ZombieTypes)"
					}
				]
			}
		},
		{
			"aliases": [
				"Wave5"
			],
			"objclass": "SpawnZombiesJitteredWaveActionProps",
			"objdata": {
				"ZombieSpawnPattern": "ZombieSpawnerPatternStaggered",
				"Zombies": [
					{
						"Row": "2",
						"Type": "RTID(beach_fem_armor1@ZombieTypes)"
					},
					{
						"Row": "4",
						"Type": "RTID(beach_fem_armor1@ZombieTypes)"
					},
					{
						"Row": "2",
						"Type": "RTID(beach_fem@ZombieTypes)"
					},
					{
						"Row": "4",
						"Type": "RTID(beach_fem@ZombieTypes)"
					},
					{
						"Row": "2",
						"Type": "RTID(beach_fem@ZombieTypes)"
					},
					{
						"Row": "4",
						"Type": "RTID(beach_fem@ZombieTypes)"
					},
					{
						"Row": "3",
						"Type": "RTID(beach_fem_armor2@ZombieTypes)"
					},
					{
						"Row": "3",
						"Type": "RTID(beach@ZombieTypes)"
					},
					{
						"Row": "3",
						"Type": "RTID(beach_armor1@ZombieTypes)"
					},
					{
						"Row": "3",
						"Type": "RTID(beach@ZombieTypes)"
					},
					{
						"Row": "3",
						"Type": "RTID(beach@ZombieTypes)"
					},
					{
						"Row": "2",
						"Type": "RTID(beach_fem_armor1@ZombieTypes)"
					},
					{
						"Row": "4",
						"Type": "RTID(beach_fem_armor1@ZombieTypes)"
					},
					{
						"Row": "3",
						"Type": "RTID(beach_fem_armor1@ZombieTypes)"
					}
				]
			}
		},
		{
			"aliases": [
				"Wave6"
			],
			"objclass": "SpawnZombiesJitteredWaveActionProps",
			"objdata": {
				"ZombieSpawnPattern": "ZombieSpawnerPatternStaggered",
				"Zombies": [
					{
						"Row": "5",
						"Type": "RTID(beach@ZombieTypes)"
					},
					{
						"Row": "4",
						"Type": "RTID(beach@ZombieTypes)"
					},
					{
						"Row": "3",
						"Type": "RTID(beach@ZombieTypes)"
					},
					{
						"Row": "2",
						"Type": "RTID(beach@ZombieTypes)"
					},
					{
						"Row": "1",
						"Type": "RTID(beach@ZombieTypes)"
					},
					{
						"Row": "5",
						"Type": "RTID(beach_armor1@ZombieTypes)"
					},
					{
						"Row": "1",
						"Type": "RTID(beach_armor1@ZombieTypes)"
					},
					{
						"Row": "3",
						"Type": "RTID(beach_armor1@ZombieTypes)"
					},
					{
						"Row": "2",
						"Type": "RTID(beach_snorkel@ZombieTypes)"
					},
					{
						"Row": "4",
						"Type": "RTID(beach_snorkel@ZombieTypes)"
					},
					{
						"Row": "5",
						"Type": "RTID(beach_snorkel@ZombieTypes)"
					},
					{
						"Row": "3",
						"Type": "RTID(beach_snorkel@ZombieTypes)"
					},
					{
						"Row": "1",
						"Type": "RTID(beach_snorkel@ZombieTypes)"
					},
					{
						"Row": "2",
						"Type": "RTID(beach@ZombieTypes)"
					},
					{
						"Row": "4",
						"Type": "RTID(beach@ZombieTypes)"
					}
				]
			}
		},
		{
			"aliases": [
				"Wave7"
			],
			"objclass": "SpawnZombiesJitteredWaveActionProps",
			"objdata": {
				"ZombieSpawnPattern": "ZombieSpawnerPatternStaggered",
				"Zombies": [
					{
						"Row": "3",
						"Type": "RTID(beach_fem_armor1@ZombieTypes)"
					},
					{
						"Row": "3",
						"Type": "RTID(beach_fem_armor1@ZombieTypes)"
					},
					{
						"Row": "2",
						"Type": "RTID(beach_fem_armor1@ZombieTypes)"
					},
					{
						"Row": "2",
						"Type": "RTID(beach_fem_armor1@ZombieTypes)"
					},
					{
						"Type": "RTID(beach_fem_armor2@ZombieTypes)"
					},
					{
						"Row": "5",
						"Type": "RTID(beach_fem_armor1@ZombieTypes)"
					},
					{
						"Row": "5",
						"Type": "RTID(beach_fem_armor1@ZombieTypes)"
					},
					{
						"Row": "1",
						"Type": "RTID(beach_fem_armor1@ZombieTypes)"
					},
					{
						"Row": "1",
						"Type": "RTID(beach_fem_armor1@ZombieTypes)"
					},
					{
						"Type": "RTID(beach_fem_armor2@ZombieTypes)"
					},
					{
						"Row": "4",
						"Type": "RTID(beach_fem_armor1@ZombieTypes)"
					},
					{
						"Row": "4",
						"Type": "RTID(beach_fem_armor1@ZombieTypes)"
					},
					{
						"Type": "RTID(beach_fem_armor2@ZombieTypes)"
					},
					{
						"Type": "RTID(beach_fem_armor2@ZombieTypes)"
					}
				]
			}
		},
		{
			"aliases": [
				"Wave8"
			],
			"objclass": "SpawnZombiesJitteredWaveActionProps",
			"objdata": {
				"ZombieSpawnPattern": "ZombieSpawnerPatternStaggered",
				"Zombies": [
					{
						"Row": "5",
						"Type": "RTID(beach@ZombieTypes)"
					},
					{
						"Row": "5",
						"Type": "RTID(beach@ZombieTypes)"
					},
					{
						"Row": "5",
						"Type": "RTID(beach_armor1@ZombieTypes)"
					},
					{
						"Row": "4",
						"Type": "RTID(beach@ZombieTypes)"
					},
					{
						"Row": "4",
						"Type": "RTID(beach_armor1@ZombieTypes)"
					},
					{
						"Row": "4",
						"Type": "RTID(beach@ZombieTypes)"
					},
					{
						"Row": "3",
						"Type": "RTID(beach@ZombieTypes)"
					},
					{
						"Row": "3",
						"Type": "RTID(beach@ZombieTypes)"
					},
					{
						"Row": "3",
						"Type": "RTID(beach_armor1@ZombieTypes)"
					},
					{
						"Row": "1",
						"Type": "RTID(beach@ZombieTypes)"
					},
					{
						"Row": "1",
						"Type": "RTID(beach@ZombieTypes)"
					},
					{
						"Row": "1",
						"Type": "RTID(beach_armor1@ZombieTypes)"
					},
					{
						"Row": "2",
						"Type": "RTID(beach@ZombieTypes)"
					},
					{
						"Row": "2",
						"Type": "RTID(beach_armor1@ZombieTypes)"
					},
					{
						"Row": "2",
						"Type": "RTID(beach@ZombieTypes)"
					}
				]
			}
		},
		{
			"aliases": [
				"Wave9"
			],
			"objclass": "SpawnZombiesJitteredWaveActionProps",
			"objdata": {
				"ZombieSpawnPattern": "ZombieSpawnerPatternStaggered",
				"Zombies": [
					{
						"Type": "RTID(beach@ZombieTypes)"
					},
					{
						"Type": "RTID(beach@ZombieTypes)"
					},
					{
						"Type": "RTID(beach_fem_armor1@ZombieTypes)"
					},
					{
						"Type": "RTID(beach_fem_armor1@ZombieTypes)"
					},
					{
						"Type": "RTID(beach_armor2@ZombieTypes)"
					},
					{
						"Type": "RTID(beach_armor2@ZombieTypes)"
					}
				]
			}
		},
		{
			"aliases": [
				"Wave10"
			],
			"objclass": "SpawnZombiesJitteredWaveActionProps",
			"objdata": {
				"ZombieSpawnPattern": "ZombieSpawnerPatternStaggered",
				"Zombies": [
					{
						"Row": "5",
						"Type": "RTID(beach_snorkel@ZombieTypes)"
					},
					{
						"Row": "4",
						"Type": "RTID(beach_snorkel@ZombieTypes)"
					},
					{
						"Row": "4",
						"Type": "RTID(beach_snorkel@ZombieTypes)"
					},
					{
						"Row": "4",
						"Type": "RTID(beach_snorkel@ZombieTypes)"
					},
					{
						"Row": "2",
						"Type": "RTID(beach_snorkel@ZombieTypes)"
					},
					{
						"Row": "2",
						"Type": "RTID(beach_snorkel@ZombieTypes)"
					},
					{
						"Row": "2",
						"Type": "RTID(beach_snorkel@ZombieTypes)"
					},
					{
						"Row": "1",
						"Type": "RTID(beach_snorkel@ZombieTypes)"
					},
					{
						"Row": "1",
						"Type": "RTID(beach_fem_armor1@ZombieTypes)"
					},
					{
						"Row": "5",
						"Type": "RTID(beach_armor1@ZombieTypes)"
					},
					{
						"Row": "3",
						"Type": "RTID(beach_armor1@ZombieTypes)"
					},
					{
						"Row": "1",
						"Type": "RTID(beach@ZombieTypes)"
					},
					{
						"Row": "5",
						"Type": "RTID(beach@ZombieTypes)"
					},
					{
						"Row": "1",
						"Type": "RTID(beach_snorkel@ZombieTypes)"
					},
					{
						"Row": "5",
						"Type": "RTID(beach_snorkel@ZombieTypes)"
					},
					{
						"Row": "3",
						"Type": "RTID(beach_snorkel@ZombieTypes)"
					}
				]
			}
		},
		{
			"aliases": [
				"Wave11"
			],
			"objclass": "SpawnZombiesJitteredWaveActionProps",
			"objdata": {
				"ZombieSpawnPattern": "ZombieSpawnerPatternStaggered",
				"Zombies": [
					{
						"Row": "4",
						"Type": "RTID(beach@ZombieTypes)"
					},
					{
						"Row": "4",
						"Type": "RTID(beach_fem@ZombieTypes)"
					},
					{
						"Row": "2",
						"Type": "RTID(beach@ZombieTypes)"
					},
					{
						"Row": "2",
						"Type": "RTID(beach_fem@ZombieTypes)"
					},
					{
						"Row": "3",
						"Type": "RTID(beach@ZombieTypes)"
					},
					{
						"Row": "3",
						"Type": "RTID(beach_fem_armor1@ZombieTypes)"
					},
					{
						"Row": "2",
						"Type": "RTID(beach_armor2@ZombieTypes)"
					},
					{
						"Row": "4",
						"Type": "RTID(beach_armor2@ZombieTypes)"
					},
					{
						"Row": "1",
						"Type": "RTID(beach_fem@ZombieTypes)"
					},
					{
						"Row": "1",
						"Type": "RTID(beach_armor1@ZombieTypes)"
					},
					{
						"Row": "5",
						"Type": "RTID(beach_fem@ZombieTypes)"
					},
					{
						"Row": "5",
						"Type": "RTID(beach_armor1@ZombieTypes)"
					}
				]
			}
		},
		{
			"aliases": [
				"Wave12"
			],
			"objclass": "SpawnZombiesJitteredWaveActionProps",
			"objdata": {
				"AdditionalPlantfood": 0,
				"ZombieSpawnPattern": "ZombieSpawnerPatternStaggered",
				"Zombies": [
					{
						"Row": "3",
						"Type": "RTID(beach_fem_armor1@ZombieTypes)"
					},
					{
						"Row": "2",
						"Type": "RTID(beach_fem_armor1@ZombieTypes)"
					},
					{
						"Row": "2",
						"Type": "RTID(beach@ZombieTypes)"
					},
					{
						"Row": "4",
						"Type": "RTID(beach_fem_armor1@ZombieTypes)"
					},
					{
						"Row": "4",
						"Type": "RTID(beach@ZombieTypes)"
					},
					{
						"Row": "1",
						"Type": "RTID(beach_fem_armor2@ZombieTypes)"
					},
					{
						"Row": "3",
						"Type": "RTID(beach_fem@ZombieTypes)"
					},
					{
						"Row": "5",
						"Type": "RTID(beach_fem_armor2@ZombieTypes)"
					},
					{
						"Row": "1",
						"Type": "RTID(beach@ZombieTypes)"
					},
					{
						"Row": "5",
						"Type": "RTID(beach@ZombieTypes)"
					},
					{
						"Type": "RTID(beach@ZombieTypes)"
					},
					{
						"Type": "RTID(beach_armor1@ZombieTypes)"
					},
					{
						"Row": "3",
						"Type": "RTID(beach_fem_armor1@ZombieTypes)"
					},
					{
						"Type": "RTID(beach@ZombieTypes)"
					}
				]
			}
		},
		{
			"aliases": [
				"Wave13"
			],
			"objclass": "SpawnZombiesJitteredWaveActionProps",
			"objdata": {
				"ZombieSpawnPattern": "ZombieSpawnerPatternStaggered",
				"Zombies": [
					{
						"Row": "2",
						"Type": "RTID(beach_armor1@ZombieTypes)"
					},
					{
						"Row": "4",
						"Type": "RTID(beach_armor1@ZombieTypes)"
					},
					{
						"Row": "1",
						"Type": "RTID(beach@ZombieTypes)"
					},
					{
						"Row": "5",
						"Type": "RTID(beach@ZombieTypes)"
					},
					{
						"Row": "1",
						"Type": "RTID(beach_armor1@ZombieTypes)"
					},
					{
						"Row": "2",
						"Type": "RTID(beach_armor1@ZombieTypes)"
					},
					{
						"Row": "4",
						"Type": "RTID(beach_armor1@ZombieTypes)"
					},
					{
						"Row": "5",
						"Type": "RTID(beach_armor1@ZombieTypes)"
					},
					{
						"Row": "1",
						"Type": "RTID(beach_armor2@ZombieTypes)"
					},
					{
						"Row": "5",
						"Type": "RTID(beach_armor2@ZombieTypes)"
					},
					{
						"Row": "3",
						"Type": "RTID(beach_gargantuar@ZombieTypes)"
					},
					{
						"Type": "RTID(beach_snorkel@ZombieTypes)"
					},
					{
						"Type": "RTID(beach_snorkel@ZombieTypes)"
					},
					{
						"Type": "RTID(beach_snorkel@ZombieTypes)"
					},
					{
						"Type": "RTID(beach_snorkel@ZombieTypes)"
					},
					{
						"Type": "RTID(beach_snorkel@ZombieTypes)"
					}
				]
			}
		},
		{
			"aliases": [
				"Wave14"
			],
			"objclass": "SpawnZombiesJitteredWaveActionProps",
			"objdata": {
				"Zombies": [
					{
						"Row": "3",
						"Type": "RTID(beach_fem_armor1@ZombieTypes)"
					},
					{
						"Row": "3",
						"Type": "RTID(beach_fem@ZombieTypes)"
					},
					{
						"Row": "2",
						"Type": "RTID(beach@ZombieTypes)"
					},
					{
						"Row": "2",
						"Type": "RTID(beach_armor2@ZombieTypes)"
					},
					{
						"Row": "2",
						"Type": "RTID(beach_armor1@ZombieTypes)"
					},
					{
						"Row": "4",
						"Type": "RTID(beach@ZombieTypes)"
					},
					{
						"Row": "4",
						"Type": "RTID(beach_armor2@ZombieTypes)"
					},
					{
						"Row": "4",
						"Type": "RTID(beach_armor1@ZombieTypes)"
					},
					{
						"Row": "1",
						"Type": "RTID(beach_fem_armor1@ZombieTypes)"
					},
					{
						"Row": "1",
						"Type": "RTID(beach_fem@ZombieTypes)"
					},
					{
						"Row": "5",
						"Type": "RTID(beach_fem_armor1@ZombieTypes)"
					},
					{
						"Row": "5",
						"Type": "RTID(beach_fem@ZombieTypes)"
					},
					{
						"Type": "RTID(beach_armor2@ZombieTypes)"
					},
					{
						"Type": "RTID(beach@ZombieTypes)"
					},
					{
						"Type": "RTID(beach_armor1@ZombieTypes)"
					},
					{
						"Type": "RTID(beach@ZombieTypes)"
					},
					{
						"Type": "RTID(beach_fem@ZombieTypes)"
					},
					{
						"Type": "RTID(beach_fem@ZombieTypes)"
					},
					{
						"Type": "RTID(beach_fem_armor1@ZombieTypes)"
					},
					{
						"Type": "RTID(beach_fem_armor1@ZombieTypes)"
					}
				]
			}
		},
		{
			"aliases": [
				"Wave2TidalChangeEvent0"
			],
			"objclass": "TidalChangeWaveActionProps",
			"objdata": {
				"TidalChange": {
					"ChangeAmount": 4,
					"ChangeType": "absolute"
				}
			}
		},
		{
			"aliases": [
				"Wave4LowTideEvent0"
			],
			"objclass": "BeachStageEventZombieSpawnerProps",
			"objdata": {
				"ColumnEnd": 6,
				"ColumnStart": 4,
				"GroupSize": 6,
				"TimeBeforeFullSpawn": 0.5,
				"TimeBetweenGroups": 0.5,
				"WaveStartMessage": "[WARNING_LOW_TIDE]",
				"ZombieCount": 6,
				"ZombieName": "beach_imp"
			}
		},
		{
			"aliases": [
				"Wave4TidalChangeEvent0"
			],
			"objclass": "TidalChangeWaveActionProps",
			"objdata": {
				"TidalChange": {
					"ChangeAmount": 3,
					"ChangeType": "absolute"
				}
			}
		},
		{
			"aliases": [
				"Wave6TidalChangeEvent0"
			],
			"objclass": "TidalChangeWaveActionProps",
			"objdata": {
				"TidalChange": {
					"ChangeAmount": 4,
					"ChangeType": "absolute"
				}
			}
		},
		{
			"aliases": [
				"Wave8LowTideEvent0"
			],
			"objclass": "BeachStageEventZombieSpawnerProps",
			"objdata": {
				"ColumnEnd": 6,
				"ColumnStart": 4,
				"GroupSize": 10,
				"TimeBeforeFullSpawn": 0.5,
				"TimeBetweenGroups": 0.5,
				"WaveStartMessage": "[WARNING_LOW_TIDE]",
				"ZombieCount": 10,
				"ZombieName": "beach_imp"
			}
		},
		{
			"aliases": [
				"Wave8TidalChangeEvent0"
			],
			"objclass": "TidalChangeWaveActionProps",
			"objdata": {
				"TidalChange": {
					"ChangeAmount": 3,
					"ChangeType": "absolute"
				}
			}
		},
		{
			"aliases": [
				"Wave10TidalChangeEvent0"
			],
			"objclass": "TidalChangeWaveActionProps",
			"objdata": {
				"TidalChange": {
					"ChangeAmount": 4,
					"ChangeType": "absolute"
				}
			}
		},
		{
			"aliases": [
				"Wave12LowTideEvent0"
			],
			"objclass": "BeachStageEventZombieSpawnerProps",
			"objdata": {
				"ColumnEnd": 6,
				"ColumnStart": 5,
				"GroupSize": 8,
				"TimeBeforeFullSpawn": 0.5,
				"TimeBetweenGroups": 0.5,
				"WaveStartMessage": "[WARNING_LOW_TIDE]",
				"ZombieCount": 8,
				"ZombieName": "beach_imp"
			}
		},
		{
			"aliases": [
				"Wave12TidalChangeEvent0"
			],
			"objclass": "TidalChangeWaveActionProps",
			"objdata": {
				"TidalChange": {
					"ChangeAmount": 3,
					"ChangeType": "absolute"
				}
			}
		},
		{
			"aliases": [
				"Wave3TidalChangeEvent0"
			],
			"objclass": "TidalChangeWaveActionProps",
			"objdata": {
				"TidalChange": {
					"ChangeAmount": 5,
					"ChangeType": "absolute"
				}
			}
		},
		{
			"aliases": [
				"Wave7TidalChangeEvent0"
			],
			"objclass": "TidalChangeWaveActionProps",
			"objdata": {
				"TidalChange": {
					"ChangeAmount": 5,
					"ChangeType": "absolute"
				}
			}
		},
		{
			"aliases": [
				"Wave11TidalChangeEvent0"
			],
			"objclass": "TidalChangeWaveActionProps",
			"objdata": {
				"TidalChange": {
					"ChangeAmount": 5,
					"ChangeType": "absolute"
				}
			}
		}
	],
	"version": 1
}