{
	"#comment": "Beach 25",
	"objects": [
		{
			"objclass": "LevelDefinition",
			"objdata": {
				"Description": "[PLAYERS_TRIP_TO_BEACH]",
				"FirstRewardType": "pinata",
				"FirstRewardParam": "spine_beach",
				"LevelNumber": 25,
				"Loot": "RTID(DefaultLoot@LevelModules)",
				"Modules": [
					"RTID(StandardIntro@LevelModules)",
					"RTID(DefaultSunDropper@LevelModules)",
					"RTID(ZombiesDeadWinCon@LevelModules)",
					"RTID(BeachMowers@LevelModules)",
					"RTID(SeedBank@CurrentLevel)",
					"RTID(DefaultZombieWinCondition@LevelModules)",
					"RTID(ChallengeModule@CurrentLevel)",
					"RTID(NewWaves@CurrentLevel)",
					"RTID(LilypadPlacement@CurrentLevel)",
					"RTID(Tide@CurrentLevel)"
				],
				"Name": "[BEACH_LEVEL_NAME]",
				"NormalPresentTable": "egypt_normal_01",
				"ShinyPresentTable": "egypt_shiny_01",
				"StageModule": "RTID(BeachStage@LevelModules)"
			}
		},
		{
			"aliases": [
				"Tide"
			],
			"objclass": "TideProperties",
			"objdata": {
				"StartingWaveLocation": 4
			}
		},
		{
			"aliases": [
				"ChallengeModule"
			],
			"objclass": "StarChallengeModuleProperties",
			"objdata": {
				"Challenges": [
					[
						"RTID(SunUsed@CurrentLevel)",
						"RTID(KillZombies@CurrentLevel)"
					]
				],
				"ChallengesAlwaysAvailable": true
			}
		},
		{
			"aliases": [
				"KillZombies"
			],
			"objclass": "StarChallengeKillZombiesInTimeProps",
			"objdata": {
				"Time": 5,
				"ZombiesToKill": 10
			}
		},
		{
			"aliases": [
				"SunUsed"
			],
			"objclass": "StarChallengeSunUsedProps",
			"objdata": {
				"MaximumSun": 3000
			}
		},
		{
			"aliases": [
				"LilypadPlacement"
			],
			"objclass": "InitialGridItemProperties",
			"objdata": {
				"InitialGridItemPlacements": [
					{
						"GridX": 5,
						"GridY": 0,
						"TypeName": "lilypad"
					},
					{
						"GridX": 7,
						"GridY": 1,
						"TypeName": "lilypad"
					},
					{
						"GridX": 6,
						"GridY": 3,
						"TypeName": "lilypad"
					}
				]
			}
		},
		{
			"aliases": [
				"SeedBank"
			],
			"objclass": "SeedBankProperties",
			"objdata": {
				"SelectionMethod": "chooser"
			}
		},
		{
			"aliases": [
				"NewWaves"
			],
			"objclass": "WaveManagerModuleProperties",
			"objdata": {
				"DynamicZombies": [
					{
						"PointIncrementPerWave": -40,
						"StartingPoints": -100,
						"StartingWave": 3,
						"ZombiePool": [
							"RTID(beach@ZombieTypes)",
							"RTID(beach_armor2@ZombieTypes)",
							"RTID(beach_fem_armor1@ZombieTypes)",
							"RTID(beach_fisherman@ZombieTypes)",
							"RTID(beach_octopus@ZombieTypes)",
							"RTID(beach_snorkel@ZombieTypes)",
							"RTID(beach_surfer@ZombieTypes)"
						]
					},
					{
						"PointIncrementPerWave": -25,
						"StartingPoints": -100,
						"StartingWave": 4,
						"ZombiePool": [
							"RTID(beach@ZombieTypes)",
							"RTID(beach_armor2@ZombieTypes)",
							"RTID(beach_fem_armor1@ZombieTypes)",
							"RTID(beach_fisherman@ZombieTypes)",
							"RTID(beach_octopus@ZombieTypes)",
							"RTID(beach_snorkel@ZombieTypes)",
							"RTID(beach_surfer@ZombieTypes)"
						]
					},
					{
						"PointIncrementPerWave": -10,
						"StartingPoints": -100,
						"StartingWave": 5,
						"ZombiePool": [
							"RTID(beach@ZombieTypes)",
							"RTID(beach_armor2@ZombieTypes)",
							"RTID(beach_fem_armor1@ZombieTypes)",
							"RTID(beach_fisherman@ZombieTypes)",
							"RTID(beach_octopus@ZombieTypes)",
							"RTID(beach_snorkel@ZombieTypes)",
							"RTID(beach_surfer@ZombieTypes)"
						]
					},
					{},
					{
						"PointIncrementPerWave": 20,
						"StartingPoints": 100,
						"StartingWave": 5,
						"ZombiePool": [
							"RTID(beach@ZombieTypes)",
							"RTID(beach_armor2@ZombieTypes)",
							"RTID(beach_fem_armor1@ZombieTypes)",
							"RTID(beach_fisherman@ZombieTypes)",
							"RTID(beach_octopus@ZombieTypes)",
							"RTID(beach_snorkel@ZombieTypes)",
							"RTID(beach_surfer@ZombieTypes)"
						]
					},
					{
						"PointIncrementPerWave": 40,
						"StartingPoints": 200,
						"StartingWave": 4,
						"ZombiePool": [
							"RTID(beach_armor2@ZombieTypes)",
							"RTID(beach_fem_armor1@ZombieTypes)",
							"RTID(beach_fisherman@ZombieTypes)",
							"RTID(beach_octopus@ZombieTypes)",
							"RTID(beach_snorkel@ZombieTypes)",
							"RTID(beach_surfer@ZombieTypes)"
						]
					},
					{
						"PointIncrementPerWave": 60,
						"StartingPoints": 400,
						"StartingWave": 3,
						"ZombiePool": [
							"RTID(beach_armor2@ZombieTypes)",
							"RTID(beach_fisherman@ZombieTypes)",
							"RTID(beach_octopus@ZombieTypes)",
							"RTID(beach_snorkel@ZombieTypes)",
							"RTID(beach_surfer@ZombieTypes)"
						]
					}
				],
				"WaveManagerProps": "RTID(WaveManagerProps@CurrentLevel)"
			}
		},
		{
			"aliases": [
				"WaveManagerProps"
			],
			"objclass": "WaveManagerProperties",
			"objdata": {
				"FlagWaveInterval": 6,
				"WaveCount": 18,
				"WaveSpendingPointIncrement": 100,
				"WaveSpendingPoints": 200,
				"Waves": [
					[
						"RTID(Wave1@CurrentLevel)"
					],
					[
						"RTID(Wave2@CurrentLevel)"
					],
					[
						"RTID(Wave3@CurrentLevel)"
					],
					[
						"RTID(Wave4@CurrentLevel)",
						"RTID(Wave4TidalChangeEvent0@CurrentLevel)"
					],
					[
						"RTID(Wave5@CurrentLevel)"
					],
					[
						"RTID(Wave6@CurrentLevel)"
					],
					[
						"RTID(Wave7@CurrentLevel)",
						"RTID(Wave7TidalChangeEvent0@CurrentLevel)"
					],
					[
						"RTID(Wave8@CurrentLevel)",
						"RTID(Wave8LowTideEvent0@CurrentLevel)",
						"RTID(Wave8LowTideEvent1@CurrentLevel)",
						"RTID(Wave8LowTideEvent2@CurrentLevel)",
						"RTID(Wave8TidalChangeEvent0@CurrentLevel)"
					],
					[
						"RTID(Wave9@CurrentLevel)"
					],
					[
						"RTID(Wave10@CurrentLevel)",
						"RTID(Wave10TidalChangeEvent0@CurrentLevel)"
					],
					[
						"RTID(Wave11@CurrentLevel)",
						"RTID(Wave11TidalChangeEvent0@CurrentLevel)"
					],
					[
						"RTID(Wave12@CurrentLevel)"
					],
					[
						"RTID(Wave13@CurrentLevel)"
					],
					[
						"RTID(Wave14@CurrentLevel)"
					],
					[
						"RTID(Wave15@CurrentLevel)",
						"RTID(Wave15LowTideEvent0@CurrentLevel)",
						"RTID(Wave15LowTideEvent1@CurrentLevel)",
						"RTID(Wave15LowTideEvent2@CurrentLevel)",
						"RTID(Wave15LowTideEvent3@CurrentLevel)",
						"RTID(Wave15TidalChangeEvent0@CurrentLevel)"
					],
					[
						"RTID(Wave16@CurrentLevel)"
					],
					[
						"RTID(Wave17@CurrentLevel)"
					],
					[
						"RTID(Wave18@CurrentLevel)"
					]
				]
			}
		},
		{
			"aliases": [
				"Wave1"
			],
			"objclass": "SpawnZombiesJitteredWaveActionProps",
			"objdata": {
				"AdditionalPlantfood": 0,
				"Zombies": [
					{
						"Type": "RTID(beach_snorkel@ZombieTypes)"
					}
				]
			}
		},
		{
			"aliases": [
				"Wave2"
			],
			"objclass": "SpawnZombiesJitteredWaveActionProps",
			"objdata": {
				"Zombies": [
					{
						"Type": "RTID(beach_fem@ZombieTypes)"
					},
					{
						"Type": "RTID(beach@ZombieTypes)"
					},
					{
						"Type": "RTID(beach@ZombieTypes)"
					}
				]
			}
		},
		{
			"aliases": [
				"Wave3"
			],
			"objclass": "SpawnZombiesJitteredWaveActionProps",
			"objdata": {
				"AdditionalPlantfood": 1,
				"DynamicPlantfood": [
					1,
					1,
					1,
					1,
					1,
					1,
					1
				],
				"Zombies": [
					{
						"Type": "RTID(beach_snorkel@ZombieTypes)"
					},
					{
						"Type": "RTID(beach_fem_armor1@ZombieTypes)"
					}
				]
			}
		},
		{
			"aliases": [
				"Wave4"
			],
			"objclass": "SpawnZombiesJitteredWaveActionProps",
			"objdata": {
				"AdditionalPlantfood": 0,
				"Zombies": [
					{
						"Type": "RTID(beach_fisherman@ZombieTypes)"
					},
					{
						"Type": "RTID(beach_armor1@ZombieTypes)"
					}
				]
			}
		},
		{
			"aliases": [
				"Wave5"
			],
			"objclass": "SpawnZombiesJitteredWaveActionProps",
			"objdata": {
				"Zombies": [
					{
						"Type": "RTID(beach@ZombieTypes)"
					},
					{
						"Row": "2",
						"Type": "RTID(beach_fem_armor1@ZombieTypes)"
					},
					{
						"Row": "3",
						"Type": "RTID(beach_fem_armor2@ZombieTypes)"
					},
					{
						"Type": "RTID(beach_armor1@ZombieTypes)"
					}
				]
			}
		},
		{
			"aliases": [
				"Wave6"
			],
			"objclass": "SpawnZombiesJitteredWaveActionProps",
			"objdata": {
				"AdditionalPlantfood": 1,
				"DynamicPlantfood": [
					1,
					1,
					1,
					1,
					1,
					1,
					1
				],
				"Zombies": [
					{
						"Row": "4",
						"Type": "RTID(beach_surfer@ZombieTypes)"
					},
					{
						"Row": "1",
						"Type": "RTID(beach_surfer@ZombieTypes)"
					},
					{
						"Type": "RTID(beach_fem_armor1@ZombieTypes)"
					},
					{
						"Row": "1",
						"Type": "RTID(beach_armor1@ZombieTypes)"
					},
					{
						"Type": "RTID(beach_snorkel@ZombieTypes)"
					},
					{
						"Row": "3",
						"Type": "RTID(beach_octopus@ZombieTypes)"
					},
					{
						"Type": "RTID(beach_armor1@ZombieTypes)"
					}
				]
			}
		},
		{
			"aliases": [
				"Wave7"
			],
			"objclass": "SpawnZombiesJitteredWaveActionProps",
			"objdata": {
				"AdditionalPlantfood": 0,
				"Zombies": [
					{
						"Type": "RTID(beach_fem@ZombieTypes)"
					},
					{
						"Row": "2",
						"Type": "RTID(beach_fisherman@ZombieTypes)"
					},
					{
						"Type": "RTID(beach@ZombieTypes)"
					},
					{
						"Row": "5",
						"Type": "RTID(beach_snorkel@ZombieTypes)"
					},
					{
						"Type": "RTID(beach_fem@ZombieTypes)"
					}
				]
			}
		},
		{
			"aliases": [
				"Wave8"
			],
			"objclass": "SpawnZombiesJitteredWaveActionProps",
			"objdata": {
				"Zombies": [
					{
						"Type": "RTID(beach_fem_armor1@ZombieTypes)"
					},
					{
						"Type": "RTID(beach_fem_armor2@ZombieTypes)"
					}
				]
			}
		},
		{
			"aliases": [
				"Wave9"
			],
			"objclass": "SpawnZombiesJitteredWaveActionProps",
			"objdata": {
				"AdditionalPlantfood": 1,
				"DynamicPlantfood": [
					1,
					1,
					1,
					1,
					1,
					0,
					0
				],
				"Zombies": [
					{
						"Row": "3",
						"Type": "RTID(beach_armor1@ZombieTypes)"
					},
					{
						"Row": "1",
						"Type": "RTID(beach_fem@ZombieTypes)"
					},
					{
						"Row": "5",
						"Type": "RTID(beach_fem@ZombieTypes)"
					},
					{
						"Row": "3",
						"Type": "RTID(beach_octopus@ZombieTypes)"
					},
					{
						"Row": "2",
						"Type": "RTID(beach@ZombieTypes)"
					},
					{
						"Row": "5",
						"Type": "RTID(beach@ZombieTypes)"
					}
				]
			}
		},
		{
			"aliases": [
				"Wave10"
			],
			"objclass": "SpawnZombiesJitteredWaveActionProps",
			"objdata": {
				"AdditionalPlantfood": 0,
				"Zombies": [
					{
						"Type": "RTID(beach_fem_armor1@ZombieTypes)"
					},
					{
						"Row": "4",
						"Type": "RTID(beach_snorkel@ZombieTypes)"
					},
					{
						"Type": "RTID(beach@ZombieTypes)"
					},
					{
						"Type": "RTID(beach_fisherman@ZombieTypes)"
					}
				]
			}
		},
		{
			"aliases": [
				"Wave11"
			],
			"objclass": "SpawnZombiesJitteredWaveActionProps",
			"objdata": {
				"AdditionalPlantfood": 0,
				"Zombies": [
					{
						"Row": "3",
						"Type": "RTID(beach_armor2@ZombieTypes)"
					},
					{
						"Type": "RTID(beach_fem@ZombieTypes)"
					},
					{
						"Row": "1",
						"Type": "RTID(beach_armor1@ZombieTypes)"
					},
					{
						"Row": "4",
						"Type": "RTID(beach_fem_armor1@ZombieTypes)"
					},
					{
						"Row": "5",
						"Type": "RTID(beach_fem_armor2@ZombieTypes)"
					},
					{
						"Type": "RTID(beach_fem@ZombieTypes)"
					},
					{
						"Row": "2",
						"Type": "RTID(beach@ZombieTypes)"
					}
				]
			}
		},
		{
			"aliases": [
				"Wave12"
			],
			"objclass": "SpawnZombiesJitteredWaveActionProps",
			"objdata": {
				"AdditionalPlantfood": 1,
				"DynamicPlantfood": [
					1,
					1,
					1,
					1,
					1,
					1,
					0
				],
				"Zombies": [
					{
						"Type": "RTID(beach_fisherman@ZombieTypes)"
					},
					{
						"Row": "4",
						"Type": "RTID(beach_surfer@ZombieTypes)"
					},
					{
						"Type": "RTID(beach_fem@ZombieTypes)"
					},
					{
						"Row": "2",
						"Type": "RTID(beach_fisherman@ZombieTypes)"
					},
					{
						"Type": "RTID(beach@ZombieTypes)"
					},
					{
						"Row": "4",
						"Type": "RTID(beach_fisherman@ZombieTypes)"
					}
				]
			}
		},
		{
			"aliases": [
				"Wave13"
			],
			"objclass": "SpawnZombiesJitteredWaveActionProps",
			"objdata": {
				"Zombies": [
					{
						"Type": "RTID(beach_armor2@ZombieTypes)"
					},
					{
						"Row": "1",
						"Type": "RTID(beach_fem_armor2@ZombieTypes)"
					},
					{
						"Row": "2",
						"Type": "RTID(beach_armor1@ZombieTypes)"
					},
					{
						"Row": "5",
						"Type": "RTID(beach_armor1@ZombieTypes)"
					},
					{
						"Type": "RTID(beach_armor2@ZombieTypes)"
					}
				]
			}
		},
		{
			"aliases": [
				"Wave14"
			],
			"objclass": "SpawnZombiesJitteredWaveActionProps",
			"objdata": {
				"Zombies": [
					{
						"Row": "4",
						"Type": "RTID(beach_surfer@ZombieTypes)"
					},
					{
						"Row": "2",
						"Type": "RTID(beach_surfer@ZombieTypes)"
					},
					{
						"Row": "1",
						"Type": "RTID(beach_snorkel@ZombieTypes)"
					},
					{
						"Type": "RTID(beach_armor1@ZombieTypes)"
					},
					{
						"Row": "1",
						"Type": "RTID(beach_fem_armor1@ZombieTypes)"
					},
					{
						"Type": "RTID(beach_armor1@ZombieTypes)"
					},
					{
						"Row": "5",
						"Type": "RTID(beach_fisherman@ZombieTypes)"
					},
					{
						"Row": "1",
						"Type": "RTID(beach_fisherman@ZombieTypes)"
					},
					{
						"Type": "RTID(beach_fem_armor1@ZombieTypes)"
					}
				]
			}
		},
		{
			"aliases": [
				"Wave15"
			],
			"objclass": "SpawnZombiesJitteredWaveActionProps",
			"objdata": {
				"AdditionalPlantfood": 1,
				"DynamicPlantfood": [
					1,
					1,
					1,
					1,
					1,
					1,
					1
				],
				"Zombies": [
					{
						"Row": "3",
						"Type": "RTID(beach_fem_armor2@ZombieTypes)"
					},
					{
						"Type": "RTID(beach@ZombieTypes)"
					},
					{
						"Row": "2",
						"Type": "RTID(beach_armor2@ZombieTypes)"
					}
				]
			}
		},
		{
			"aliases": [
				"Wave16"
			],
			"objclass": "SpawnZombiesJitteredWaveActionProps",
			"objdata": {
				"Zombies": [
					{
						"Row": "5",
						"Type": "RTID(beach_armor1@ZombieTypes)"
					},
					{
						"Row": "1",
						"Type": "RTID(beach_octopus@ZombieTypes)"
					},
					{
						"Row": "4",
						"Type": "RTID(beach_fem@ZombieTypes)"
					},
					{
						"Type": "RTID(beach_fisherman@ZombieTypes)"
					},
					{
						"Type": "RTID(beach@ZombieTypes)"
					},
					{
						"Type": "RTID(beach_fem@ZombieTypes)"
					}
				]
			}
		},
		{
			"aliases": [
				"Wave17"
			],
			"objclass": "SpawnZombiesJitteredWaveActionProps",
			"objdata": {
				"AdditionalPlantfood": 1,
				"DynamicPlantfood": [
					1,
					1,
					1,
					1,
					0,
					0,
					0
				],
				"Zombies": [
					{
						"Row": "3",
						"Type": "RTID(beach_fem_armor1@ZombieTypes)"
					},
					{
						"Row": "2",
						"Type": "RTID(beach_fem@ZombieTypes)"
					},
					{
						"Row": "4",
						"Type": "RTID(beach@ZombieTypes)"
					},
					{
						"Row": "1",
						"Type": "RTID(beach@ZombieTypes)"
					},
					{
						"Row": "5",
						"Type": "RTID(beach_fem@ZombieTypes)"
					},
					{
						"Type": "RTID(beach_surfer@ZombieTypes)"
					},
					{
						"Type": "RTID(beach_snorkel@ZombieTypes)"
					},
					{
						"Row": "2",
						"Type": "RTID(beach_fem_armor2@ZombieTypes)"
					},
					{
						"Type": "RTID(beach_fisherman@ZombieTypes)"
					}
				]
			}
		},
		{
			"aliases": [
				"Wave18"
			],
			"objclass": "SpawnZombiesJitteredWaveActionProps",
			"objdata": {
				"Zombies": [
					{
						"Row": "1",
						"Type": "RTID(beach_gargantuar@ZombieTypes)"
					},
					{
						"Row": "4",
						"Type": "RTID(beach_gargantuar@ZombieTypes)"
					},
					{
						"Row": "4",
						"Type": "RTID(beach_fisherman@ZombieTypes)"
					}
				]
			}
		},
		{
			"aliases": [
				"Wave8LowTideEvent0"
			],
			"objclass": "BeachStageEventZombieSpawnerProps",
			"objdata": {
				"ColumnEnd": "8",
				"ColumnStart": 4,
				"GroupSize": "1",
				"TimeBeforeFullSpawn": "3",
				"TimeBetweenGroups": "0.5",
				"WaveLocation": 1,
				"WaveStartMessage": "[WARNING_LOW_TIDE]",
				"ZombieCount": 6,
				"ZombieName": "beach_imp"
			}
		},
		{
			"aliases": [
				"Wave8LowTideEvent1"
			],
			"objclass": "BeachStageEventZombieSpawnerProps",
			"objdata": {
				"ColumnEnd": "8",
				"ColumnStart": 4,
				"GroupSize": "1",
				"TimeBeforeFullSpawn": "3",
				"TimeBetweenGroups": "0.5",
				"WaveLocation": 1,
				"WaveStartMessage": "[WARNING_LOW_TIDE]",
				"ZombieCount": 1,
				"ZombieName": "beach_octopus"
			}
		},
		{
			"aliases": [
				"Wave4TidalChangeEvent0"
			],
			"objclass": "TidalChangeWaveActionProps",
			"objdata": {
				"TidalChange": {
					"ChangeAmount": 5,
					"ChangeType": "absolute"
				}
			}
		},
		{
			"aliases": [
				"Wave7TidalChangeEvent0"
			],
			"objclass": "TidalChangeWaveActionProps",
			"objdata": {
				"TidalChange": {
					"ChangeAmount": 6,
					"ChangeType": "absolute"
				}
			}
		},
		{
			"aliases": [
				"Wave15LowTideEvent0"
			],
			"objclass": "BeachStageEventZombieSpawnerProps",
			"objdata": {
				"ColumnEnd": "8",
				"ColumnStart": "4",
				"GroupSize": "1",
				"TimeBeforeFullSpawn": "3",
				"TimeBetweenGroups": "0.5",
				"WaveLocation": 1,
				"WaveStartMessage": "[WARNING_LOW_TIDE]",
				"ZombieCount": 3,
				"ZombieName": "beach_octopus"
			}
		},
		{
			"aliases": [
				"Wave15LowTideEvent1"
			],
			"objclass": "BeachStageEventZombieSpawnerProps",
			"objdata": {
				"ColumnEnd": "8",
				"ColumnStart": "4",
				"GroupSize": "1",
				"TimeBeforeFullSpawn": "3",
				"TimeBetweenGroups": "0.5",
				"WaveLocation": 1,
				"WaveStartMessage": "[WARNING_LOW_TIDE]",
				"ZombieCount": 2,
				"ZombieName": "beach_armor1"
			}
		},
		{
			"aliases": [
				"Wave15LowTideEvent2"
			],
			"objclass": "BeachStageEventZombieSpawnerProps",
			"objdata": {
				"ColumnEnd": "8",
				"ColumnStart": "4",
				"GroupSize": "1",
				"TimeBeforeFullSpawn": "3",
				"TimeBetweenGroups": "0.5",
				"WaveLocation": 1,
				"WaveStartMessage": "[WARNING_LOW_TIDE]",
				"ZombieCount": 3,
				"ZombieName": "beach_armor2"
			}
		},
		{
			"aliases": [
				"Wave11TidalChangeEvent0"
			],
			"objclass": "TidalChangeWaveActionProps",
			"objdata": {
				"TidalChange": {
					"ChangeAmount": 6,
					"ChangeType": "absolute"
				}
			}
		},
		{
			"aliases": [
				"Wave15LowTideEvent3"
			],
			"objclass": "BeachStageEventZombieSpawnerProps",
			"objdata": {
				"ColumnEnd": 5,
				"ColumnStart": 5,
				"GroupSize": "4",
				"TimeBeforeFullSpawn": "0.5",
				"TimeBetweenGroups": "0.25",
				"WaveStartMessage": "[WARNING_LOW_TIDE]",
				"ZombieCount": 1,
				"ZombieName": "beach_gargantuar"
			}
		},
		{
			"aliases": [
				"Wave8TidalChangeEvent0"
			],
			"objclass": "TidalChangeWaveActionProps",
			"objdata": {
				"TidalChange": {
					"ChangeAmount": 1,
					"ChangeType": "absolute"
				}
			}
		},
		{
			"aliases": [
				"Wave15TidalChangeEvent0"
			],
			"objclass": "TidalChangeWaveActionProps",
			"objdata": {
				"TidalChange": {
					"ChangeAmount": 1,
					"ChangeType": "absolute"
				}
			}
		},
		{
			"aliases": [
				"Wave10TidalChangeEvent0"
			],
			"objclass": "TidalChangeWaveActionProps",
			"objdata": {
				"TidalChange": {
					"ChangeAmount": "3",
					"ChangeType": "absolute"
				}
			}
		},
		{
			"aliases": [
				"Wave8LowTideEvent2"
			],
			"objclass": "BeachStageEventZombieSpawnerProps",
			"objdata": {
				"ColumnEnd": 4,
				"ColumnStart": 4,
				"GroupSize": "4",
				"TimeBeforeFullSpawn": "0.5",
				"TimeBetweenGroups": "0.25",
				"WaveStartMessage": "[WARNING_LOW_TIDE]",
				"ZombieCount": 2,
				"ZombieName": "beach_surfer"
			}
		}
	],
	"version": 1
}