{
	"#comment": "Cowboy Preset",
	"objects": [
		{
			"objclass": "LevelDefinition",
			"objdata": {
				"Description": "[PLAYERS_TRIP_TO_WEST]",
				"FirstRewardType": "pinata",
				"FirstRewardParam": "spine_cowboy",
				"LevelNumber": 22,
				"Loot": "RTID(DefaultLoot@LevelModules)",
				"Modules": [
					"RTID(StandardIntro@LevelModules)",
					"RTID(DefaultSunDropper@LevelModules)",
					"RTID(ZombiesDeadWinCon@LevelModules)",
					"RTID(WestMowers@LevelModules)",
					"RTID(Rails@CurrentLevel)",
					"RTID(SeedBank@CurrentLevel)",
					"RTID(DefaultZombieWinCondition@LevelModules)",
					"RTID(ChallengeModule@CurrentLevel)",
					"RTID(NewWaves@CurrentLevel)"
				],
				"MusicType": "MiniGame_A",
				"Name": "[WEST_LEVEL_NAME]",
				"NormalPresentTable": "cowboy_normal_01",
				"ShinyPresentTable": "cowboy_shiny_01",
				"StageModule": "RTID(WestStage@LevelModules)"
			}
		},
		{
			"aliases": [
				"Rails"
			],
			"objclass": "RailcartProperties",
			"objdata": {
				"RailcartType": "railcart_cowboy",
				"Railcarts": [
					{
						"Column": 0,
						"Row": 2
					},
					{
						"Column": 1,
						"Row": 3
					},
					{
						"Column": 2,
						"Row": 1
					},
					{
						"Column": 6,
						"Row": 2
					}
				],
				"Rails": [
					{
						"Column": 0,
						"RowEnd": 4,
						"RowStart": 0
					},
					{
						"Column": 1,
						"RowEnd": 4,
						"RowStart": 2
					},
					{
						"Column": 2,
						"RowEnd": 2,
						"RowStart": 0
					},
					{
						"Column": 6,
						"RowEnd": 4,
						"RowStart": 0
					}
				]
			}
		},
		{
			"aliases": [
				"SeedBank"
			],
			"objclass": "SeedBankProperties",
			"objdata": {
				"PresetPlantList": [
					{
						"PlantType": "sunflower",
						"Level": -1
					},
					{
						"PlantType": "repeater",
						"Level": -1
					},
					{
						"PlantType": "bloomerang",
						"Level": -1
					},
					{
						"PlantType": "iceburg",
						"Level": -1
					},
					{
						"PlantType": "potatomine",
						"Level": -1
					},
					{
						"PlantType": "wintermelon",
						"Level": -1
					}
				],
				"SelectionMethod": "preset"
			}
		},
		{
			"aliases": [
				"ChallengeModule"
			],
			"objclass": "StarChallengeModuleProperties",
			"objdata": {
				"Challenges": [
					[
						"RTID(BeatTheLevel@CurrentLevel)"
					]
				],
				"ChallengesAlwaysAvailable": true
			}
		},
		{
			"aliases": [
				"BeatTheLevel"
			],
			"objclass": "StarChallengeBeatTheLevelProps",
			"objdata": {
				"Description": "[STARCHALLENGE_PRESET_PLANTS]",
				"DescriptiveName": "[STARCHALLENGE_PRESET_PLANTS_NAME]"
			}
		},
		{
			"aliases": [
				"NewWaves"
			],
			"objclass": "WaveManagerModuleProperties",
			"objdata": {
				"DynamicZombies": [
					{
						"PointIncrementPerWave": -40,
						"StartingPoints": -100,
						"StartingWave": 3,
						"ZombiePool": [
							"RTID(chicken_farmer@ZombieTypes)",
							"RTID(cowboy@ZombieTypes)",
							"RTID(cowboy_armor1@ZombieTypes)",
							"RTID(cowboy_armor2@ZombieTypes)",
							"RTID(piano@ZombieTypes)",
							"RTID(poncho@ZombieTypes)",
							"RTID(poncho_no_plate@ZombieTypes)",
							"RTID(poncho_plate@ZombieTypes)"
						]
					},
					{
						"PointIncrementPerWave": -25,
						"StartingPoints": -100,
						"StartingWave": 4,
						"ZombiePool": [
							"RTID(chicken_farmer@ZombieTypes)",
							"RTID(cowboy@ZombieTypes)",
							"RTID(cowboy_armor1@ZombieTypes)",
							"RTID(cowboy_armor2@ZombieTypes)",
							"RTID(piano@ZombieTypes)",
							"RTID(poncho@ZombieTypes)",
							"RTID(poncho_no_plate@ZombieTypes)",
							"RTID(poncho_plate@ZombieTypes)"
						]
					},
					{
						"PointIncrementPerWave": -10,
						"StartingPoints": -100,
						"StartingWave": 5,
						"ZombiePool": [
							"RTID(chicken_farmer@ZombieTypes)",
							"RTID(cowboy@ZombieTypes)",
							"RTID(cowboy_armor1@ZombieTypes)",
							"RTID(cowboy_armor2@ZombieTypes)",
							"RTID(piano@ZombieTypes)",
							"RTID(poncho@ZombieTypes)",
							"RTID(poncho_no_plate@ZombieTypes)",
							"RTID(poncho_plate@ZombieTypes)"
						]
					},
					{},
					{
						"PointIncrementPerWave": 20,
						"StartingPoints": 100,
						"StartingWave": 5,
						"ZombiePool": [
							"RTID(chicken_farmer@ZombieTypes)",
							"RTID(cowboy@ZombieTypes)",
							"RTID(cowboy_armor1@ZombieTypes)",
							"RTID(cowboy_armor2@ZombieTypes)",
							"RTID(piano@ZombieTypes)",
							"RTID(poncho@ZombieTypes)",
							"RTID(poncho_no_plate@ZombieTypes)",
							"RTID(poncho_plate@ZombieTypes)"
						]
					},
					{
						"PointIncrementPerWave": 40,
						"StartingPoints": 200,
						"StartingWave": 4,
						"ZombiePool": [
							"RTID(chicken_farmer@ZombieTypes)",
							"RTID(cowboy_armor1@ZombieTypes)",
							"RTID(cowboy_armor2@ZombieTypes)",
							"RTID(piano@ZombieTypes)",
							"RTID(poncho@ZombieTypes)",
							"RTID(poncho_no_plate@ZombieTypes)",
							"RTID(poncho_plate@ZombieTypes)"
						]
					},
					{
						"PointIncrementPerWave": 60,
						"StartingPoints": 400,
						"StartingWave": 3,
						"ZombiePool": [
							"RTID(chicken_farmer@ZombieTypes)",
							"RTID(cowboy_armor2@ZombieTypes)",
							"RTID(piano@ZombieTypes)",
							"RTID(poncho@ZombieTypes)",
							"RTID(poncho_no_plate@ZombieTypes)",
							"RTID(poncho_plate@ZombieTypes)"
						]
					}
				],
				"WaveManagerProps": "RTID(WaveManagerProps@CurrentLevel)"
			}
		},
		{
			"aliases": [
				"WaveManagerProps"
			],
			"objclass": "WaveManagerProperties",
			"objdata": {
				"FlagWaveInterval": 9,
				"WaveCount": 18,
				"WaveSpendingPointIncrement": 50,
				"WaveSpendingPoints": 100,
				"Waves": [
					[
						"RTID(Wave1@CurrentLevel)"
					],
					[
						"RTID(Wave2@CurrentLevel)"
					],
					[
						"RTID(Wave3@CurrentLevel)"
					],
					[
						"RTID(Wave4@CurrentLevel)"
					],
					[
						"RTID(Wave5@CurrentLevel)"
					],
					[
						"RTID(Wave6@CurrentLevel)"
					],
					[
						"RTID(Wave7@CurrentLevel)"
					],
					[
						"RTID(Wave8@CurrentLevel)"
					],
					[
						"RTID(Wave9@CurrentLevel)"
					],
					[
						"RTID(Wave10@CurrentLevel)"
					],
					[
						"RTID(Wave11@CurrentLevel)"
					],
					[
						"RTID(Wave12@CurrentLevel)"
					],
					[
						"RTID(Wave13@CurrentLevel)"
					],
					[
						"RTID(Wave14@CurrentLevel)"
					],
					[
						"RTID(Wave15@CurrentLevel)"
					],
					[
						"RTID(Wave16@CurrentLevel)"
					],
					[
						"RTID(Wave17@CurrentLevel)"
					],
					[
						"RTID(Wave18@CurrentLevel)"
					]
				]
			}
		},
		{
			"aliases": [
				"Wave1"
			],
			"objclass": "SpawnZombiesJitteredWaveActionProps",
			"objdata": {
				"Zombies": [
					{
						"Type": "RTID(cowboy@ZombieTypes)"
					}
				]
			}
		},
		{
			"aliases": [
				"Wave2"
			],
			"objclass": "SpawnZombiesJitteredWaveActionProps",
			"objdata": {
				"Zombies": [
					{
						"Type": "RTID(cowboy@ZombieTypes)"
					}
				]
			}
		},
		{
			"aliases": [
				"Wave3"
			],
			"objclass": "SpawnZombiesJitteredWaveActionProps",
			"objdata": {
				"AdditionalPlantfood": 1,
				"DynamicPlantfood": [
					1,
					1,
					1,
					1,
					1,
					0,
					0
				],
				"Zombies": [
					{
						"Type": "RTID(cowboy@ZombieTypes)"
					},
					{
						"Type": "RTID(cowboy@ZombieTypes)"
					}
				]
			}
		},
		{
			"aliases": [
				"Wave4"
			],
			"objclass": "SpawnZombiesJitteredWaveActionProps",
			"objdata": {
				"Zombies": [
					{
						"Type": "RTID(cowboy@ZombieTypes)"
					},
					{
						"Type": "RTID(cowboy_armor1@ZombieTypes)"
					}
				]
			}
		},
		{
			"aliases": [
				"Wave5"
			],
			"objclass": "SpawnZombiesJitteredWaveActionProps",
			"objdata": {
				"Zombies": [
					{
						"Type": "RTID(cowboy@ZombieTypes)"
					},
					{
						"Type": "RTID(cowboy@ZombieTypes)"
					},
					{
						"Type": "RTID(cowboy@ZombieTypes)"
					}
				]
			}
		},
		{
			"aliases": [
				"Wave6"
			],
			"objclass": "SpawnZombiesJitteredWaveActionProps",
			"objdata": {
				"Zombies": [
					{
						"Type": "RTID(cowboy_armor2@ZombieTypes)"
					},
					{
						"Type": "RTID(cowboy@ZombieTypes)"
					}
				]
			}
		},
		{
			"aliases": [
				"Wave7"
			],
			"objclass": "SpawnZombiesJitteredWaveActionProps",
			"objdata": {
				"AdditionalPlantfood": 1,
				"Zombies": [
					{
						"Row": "3",
						"Type": "RTID(poncho_plate@ZombieTypes)"
					},
					{
						"Type": "RTID(cowboy@ZombieTypes)"
					},
					{
						"Type": "RTID(cowboy@ZombieTypes)"
					},
					{
						"Type": "RTID(cowboy@ZombieTypes)"
					}
				]
			}
		},
		{
			"aliases": [
				"Wave8"
			],
			"objclass": "SpawnZombiesJitteredWaveActionProps",
			"objdata": {
				"Zombies": [
					{
						"Row": "2",
						"Type": "RTID(poncho_no_plate@ZombieTypes)"
					},
					{
						"Row": "4",
						"Type": "RTID(poncho_no_plate@ZombieTypes)"
					},
					{
						"Type": "RTID(cowboy@ZombieTypes)"
					},
					{
						"Type": "RTID(cowboy@ZombieTypes)"
					}
				]
			}
		},
		{
			"aliases": [
				"Wave9"
			],
			"objclass": "SpawnZombiesJitteredWaveActionProps",
			"objdata": {
				"AdditionalPlantfood": 1,
				"Zombies": [
					{
						"NOTE": "was bull",
						"Type": "RTID(poncho_plate@ZombieTypes)"
					},
					{
						"Row": "3",
						"Type": "RTID(cowboy@ZombieTypes)"
					},
					{
						"Row": "3",
						"Type": "RTID(poncho_no_plate@ZombieTypes)"
					},
					{
						"Row": "1",
						"Type": "RTID(chicken_farmer@ZombieTypes)"
					},
					{
						"Row": "2",
						"Type": "RTID(cowboy@ZombieTypes)"
					},
					{
						"Row": "2",
						"Type": "RTID(cowboy@ZombieTypes)"
					},
					{
						"Row": "4",
						"Type": "RTID(cowboy@ZombieTypes)"
					},
					{
						"Row": "4",
						"Type": "RTID(cowboy@ZombieTypes)"
					},
					{
						"Row": "5",
						"Type": "RTID(chicken_farmer@ZombieTypes)"
					}
				]
			}
		},
		{
			"aliases": [
				"Wave10"
			],
			"objclass": "SpawnZombiesJitteredWaveActionProps",
			"objdata": {
				"Zombies": [
					{
						"Row": "5",
						"Type": "RTID(chicken_farmer@ZombieTypes)"
					},
					{
						"Row": "4",
						"Type": "RTID(chicken_farmer@ZombieTypes)"
					}
				]
			}
		},
		{
			"aliases": [
				"Wave11"
			],
			"objclass": "SpawnZombiesJitteredWaveActionProps",
			"objdata": {
				"Zombies": [
					{
						"Row": "2",
						"Type": "RTID(chicken_farmer@ZombieTypes)"
					},
					{
						"Row": "1",
						"Type": "RTID(chicken_farmer@ZombieTypes)"
					}
				]
			}
		},
		{
			"aliases": [
				"Wave12"
			],
			"objclass": "SpawnZombiesJitteredWaveActionProps",
			"objdata": {
				"AdditionalPlantfood": 1,
				"DynamicPlantfood": [
					1,
					1,
					1,
					1,
					1,
					1,
					0
				],
				"Zombies": [
					{
						"Row": "1",
						"Type": "RTID(cowboy@ZombieTypes)"
					},
					{
						"Row": "2",
						"Type": "RTID(cowboy@ZombieTypes)"
					},
					{
						"Row": "3",
						"Type": "RTID(cowboy@ZombieTypes)"
					},
					{
						"Row": "3",
						"Type": "RTID(cowboy@ZombieTypes)"
					},
					{
						"Row": "4",
						"Type": "RTID(cowboy@ZombieTypes)"
					},
					{
						"Row": "5",
						"Type": "RTID(cowboy@ZombieTypes)"
					}
				]
			}
		},
		{
			"aliases": [
				"Wave13"
			],
			"objclass": "SpawnZombiesJitteredWaveActionProps",
			"objdata": {
				"Zombies": [
					{
						"NOTE": "was bull",
						"Type": "RTID(poncho_plate@ZombieTypes)"
					},
					{
						"Type": "RTID(cowboy_armor1@ZombieTypes)"
					},
					{
						"Row": "5",
						"Type": "RTID(cowboy@ZombieTypes)"
					},
					{
						"Row": "4",
						"Type": "RTID(cowboy@ZombieTypes)"
					},
					{
						"Row": "2",
						"Type": "RTID(cowboy@ZombieTypes)"
					},
					{
						"Row": "1",
						"Type": "RTID(cowboy@ZombieTypes)"
					}
				]
			}
		},
		{
			"aliases": [
				"Wave14"
			],
			"objclass": "SpawnZombiesJitteredWaveActionProps",
			"objdata": {
				"Zombies": [
					{
						"Row": "1",
						"Type": "RTID(poncho_no_plate@ZombieTypes)"
					},
					{
						"Row": "3",
						"Type": "RTID(poncho_plate@ZombieTypes)"
					},
					{
						"Row": "5",
						"Type": "RTID(poncho_no_plate@ZombieTypes)"
					},
					{
						"Type": "RTID(cowboy_armor1@ZombieTypes)"
					},
					{
						"Type": "RTID(cowboy@ZombieTypes)"
					},
					{
						"Type": "RTID(cowboy@ZombieTypes)"
					},
					{
						"Type": "RTID(cowboy@ZombieTypes)"
					}
				]
			}
		},
		{
			"aliases": [
				"Wave15"
			],
			"objclass": "SpawnZombiesJitteredWaveActionProps",
			"objdata": {
				"AdditionalPlantfood": 1,
				"DynamicPlantfood": [
					1,
					1,
					1,
					1,
					0,
					0,
					0
				],
				"Zombies": [
					{
						"Row": "1",
						"Type": "RTID(cowboy@ZombieTypes)"
					},
					{
						"Row": "2",
						"Type": "RTID(chicken_farmer@ZombieTypes)"
					},
					{
						"Row": "3",
						"Type": "RTID(cowboy@ZombieTypes)"
					},
					{
						"Row": "4",
						"Type": "RTID(chicken_farmer@ZombieTypes)"
					},
					{
						"Row": "5",
						"Type": "RTID(cowboy@ZombieTypes)"
					}
				]
			}
		},
		{
			"aliases": [
				"Wave16"
			],
			"objclass": "SpawnZombiesJitteredWaveActionProps",
			"objdata": {
				"Zombies": [
					{
						"NOTE": "was bull",
						"Row": "4",
						"Type": "RTID(poncho_plate@ZombieTypes)"
					},
					{
						"Row": "5",
						"Type": "RTID(cowboy_armor2@ZombieTypes)"
					},
					{
						"Row": "3",
						"Type": "RTID(cowboy_armor1@ZombieTypes)"
					}
				]
			}
		},
		{
			"aliases": [
				"Wave17"
			],
			"objclass": "SpawnZombiesJitteredWaveActionProps",
			"objdata": {
				"AdditionalPlantfood": 1,
				"Zombies": [
					{
						"Row": "1",
						"Type": "RTID(cowboy_armor2@ZombieTypes)"
					},
					{
						"Row": "3",
						"Type": "RTID(cowboy_armor1@ZombieTypes)"
					},
					{
						"NOTE": "was bull",
						"Row": "2",
						"Type": "RTID(poncho_plate@ZombieTypes)"
					}
				]
			}
		},
		{
			"aliases": [
				"Wave18"
			],
			"objclass": "SpawnZombiesJitteredWaveActionProps",
			"objdata": {
				"Zombies": [
					{
						"Row": "1",
						"Type": "RTID(chicken_farmer@ZombieTypes)"
					},
					{
						"Type": "RTID(cowboy_armor2@ZombieTypes)"
					},
					{
						"Type": "RTID(poncho_plate@ZombieTypes)"
					},
					{
						"Type": "RTID(cowboy_armor1@ZombieTypes)"
					},
					{
						"Type": "RTID(cowboy@ZombieTypes)"
					},
					{
						"Row": "2",
						"Type": "RTID(chicken_farmer@ZombieTypes)"
					},
					{
						"Row": "3",
						"Type": "RTID(chicken_farmer@ZombieTypes)"
					},
					{
						"Row": "4",
						"Type": "RTID(chicken_farmer@ZombieTypes)"
					},
					{
						"Row": "5",
						"Type": "RTID(chicken_farmer@ZombieTypes)"
					}
				]
			}
		}
	],
	"version": 1
}