{
	"#comment": "Dino 9",
	"objects": [
		{
			"objclass": "LevelDefinition",
			"objdata": {
				"Description": "[PLAYERS_TRIP_TO_DINO]",
				"FirstIntroNarrative": "DINO_9_INTRO",
				"LevelNumber": 9,
				"Loot": "RTID(DefaultLoot@LevelModules)",
				"Modules": [
					"RTID(StandardIntro@LevelModules)",
					"RTID(DefaultSunDropper@LevelModules)",
					"RTID(ZombiesDeadWinCon@LevelModules)",
					"RTID(DinoMowers@LevelModules)",
					"RTID(SeedBank@CurrentLevel)",
					"RTID(DefaultZombieWinCondition@LevelModules)",
					"RTID(NewWaves@CurrentLevel)",
					"RTID(ChallengeModule@CurrentLevel)"
				],
				"MusicType": "MiniGame_A",
				"Name": "[DINO_LEVEL_NAME]",
				"NormalPresentTable": "egypt_normal_01",
				"ShinyPresentTable": "egypt_shiny_01",
				"StageModule": "RTID(DinoStage@LevelModules)"
			}
		},
		{
			"aliases": [
				"ChallengeModule"
			],
			"objclass": "StarChallengeModuleProperties",
			"objdata": {
				"Challenges": [
					[
						"RTID(BeatTheLevel@CurrentLevel)"
					]
				],
				"ChallengesAlwaysAvailable": true
			}
		},
		{
			"aliases": [
				"BeatTheLevel"
			],
			"objclass": "StarChallengeBeatTheLevelProps",
			"objdata": {
				"Description": "[STARCHALLENGE_PRESET_PLANTS]",
				"DescriptiveName": "[STARCHALLENGE_PRESET_PLANTS_NAME]"
			}
		},
		{
			"aliases": [
				"SeedBank"
			],
			"objclass": "SeedBankProperties",
			"objdata": {
				"PresetPlantList": [
					{
						"PlantType": "sunshroom",
						"Level": -1
					},
					{
						"PlantType": "primalpeashooter",
						"Level": -1
					},
					{
						"PlantType": "primalwallnut",
						"Level": -1
					},
					{
						"PlantType": "potatomine",
						"Level": -1
					},
					{
						"PlantType": "perfumeshroom",
						"Level": -1
					}
				],
				"SelectionMethod": "preset"
			}
		},
		{
			"aliases": [
				"NewWaves"
			],
			"objclass": "WaveManagerModuleProperties",
			"objdata": {
				"DynamicZombies": [
					{
						"PointIncrementPerWave": -40,
						"StartingPoints": -100,
						"StartingWave": 3,
						"ZombiePool": [
							"RTID(dino@ZombieTypes)",
							"RTID(dino_armor1@ZombieTypes)",
							"RTID(dino_armor2@ZombieTypes)"
						]
					},
					{
						"PointIncrementPerWave": -25,
						"StartingPoints": -100,
						"StartingWave": 4,
						"ZombiePool": [
							"RTID(dino@ZombieTypes)",
							"RTID(dino_armor1@ZombieTypes)",
							"RTID(dino_armor2@ZombieTypes)"
						]
					},
					{
						"PointIncrementPerWave": -10,
						"StartingPoints": -100,
						"StartingWave": 5,
						"ZombiePool": [
							"RTID(dino@ZombieTypes)",
							"RTID(dino_armor1@ZombieTypes)",
							"RTID(dino_armor2@ZombieTypes)"
						]
					},
					{},
					{
						"PointIncrementPerWave": 20,
						"StartingPoints": 100,
						"StartingWave": 5,
						"ZombiePool": [
							"RTID(dino@ZombieTypes)",
							"RTID(dino_armor1@ZombieTypes)",
							"RTID(dino_armor2@ZombieTypes)"
						]
					},
					{
						"PointIncrementPerWave": 40,
						"StartingPoints": 200,
						"StartingWave": 4,
						"ZombiePool": [
							"RTID(dino@ZombieTypes)",
							"RTID(dino_armor1@ZombieTypes)",
							"RTID(dino_armor2@ZombieTypes)"
						]
					},
					{
						"PointIncrementPerWave": 60,
						"StartingPoints": 400,
						"StartingWave": 3,
						"ZombiePool": [
							"RTID(dino@ZombieTypes)",
							"RTID(dino_armor2@ZombieTypes)"
						]
					}
				],
				"WaveManagerProps": "RTID(WaveManagerProps@CurrentLevel)"
			}
		},
		{
			"aliases": [
				"WaveManagerProps"
			],
			"objclass": "WaveManagerProperties",
			"objdata": {
				"FlagWaveInterval": 4,
				"WaveCount": 12,
				"WaveSpendingPointIncrement": 100,
				"WaveSpendingPoints": 100,
				"Waves": [
					[
						"RTID(Wave1@CurrentLevel)"
					],
					[
						"RTID(Wave2@CurrentLevel)"
					],
					[
						"RTID(Wave3@CurrentLevel)"
					],
					[
						"RTID(Wave4@CurrentLevel)",
						"RTID(Wave4DinoTimeEvent0@CurrentLevel)"
					],
					[
						"RTID(Wave5@CurrentLevel)"
					],
					[
						"RTID(Wave6@CurrentLevel)",
						"RTID(Wave6DinoTimeEvent0@CurrentLevel)"
					],
					[
						"RTID(Wave7@CurrentLevel)"
					],
					[
						"RTID(Wave8@CurrentLevel)",
						"RTID(Wave8DinoTimeEvent0@CurrentLevel)",
						"RTID(Wave8DinoTimeEvent1@CurrentLevel)",
						"RTID(Wave8DinoTimeEvent2@CurrentLevel)"
					],
					[
						"RTID(Wave9@CurrentLevel)"
					],
					[
						"RTID(Wave10@CurrentLevel)",
						"RTID(Wave10DinoTimeEvent0@CurrentLevel)",
						"RTID(Wave10DinoTimeEvent1@CurrentLevel)"
					],
					[
						"RTID(Wave11@CurrentLevel)"
					],
					[
						"RTID(Wave12@CurrentLevel)",
						"RTID(Wave12DinoTimeEvent0@CurrentLevel)",
						"RTID(Wave12DinoTimeEvent1@CurrentLevel)",
						"RTID(Wave12DinoTimeEvent2@CurrentLevel)"
					]
				]
			}
		},
		{
			"aliases": [
				"Wave1"
			],
			"objclass": "SpawnZombiesJitteredWaveActionProps",
			"objdata": {
				"AdditionalPlantfood": 0,
				"Zombies": [
					{
						"Row": "2",
						"Type": "RTID(dino_imp@ZombieTypes)"
					}
				]
			}
		},
		{
			"aliases": [
				"Wave2"
			],
			"objclass": "SpawnZombiesJitteredWaveActionProps",
			"objdata": {
				"Zombies": [
					{
						"Row": "2",
						"Type": "RTID(dino@ZombieTypes)"
					},
					{
						"Row": "2",
						"Type": "RTID(dino_imp@ZombieTypes)"
					}
				]
			}
		},
		{
			"aliases": [
				"Wave3"
			],
			"objclass": "SpawnZombiesJitteredWaveActionProps",
			"objdata": {
				"AdditionalPlantfood": 1,
				"Zombies": [
					{
						"Row": "4",
						"Type": "RTID(dino@ZombieTypes)"
					},
					{
						"Row": "3",
						"Type": "RTID(dino_armor1@ZombieTypes)"
					}
				]
			}
		},
		{
			"aliases": [
				"Wave4"
			],
			"objclass": "SpawnZombiesJitteredWaveActionProps",
			"objdata": {
				"Zombies": [
					{
						"Row": "3",
						"Type": "RTID(dino_imp@ZombieTypes)"
					},
					{
						"Row": "3",
						"Type": "RTID(dino@ZombieTypes)"
					},
					{
						"Row": "1",
						"Type": "RTID(dino_imp@ZombieTypes)"
					},
					{
						"Row": "1",
						"Type": "RTID(dino@ZombieTypes)"
					},
					{
						"Row": "5",
						"Type": "RTID(dino_imp@ZombieTypes)"
					},
					{
						"Row": "5",
						"Type": "RTID(dino@ZombieTypes)"
					},
					{
						"Row": "4",
						"Type": "RTID(dino_armor1@ZombieTypes)"
					},
					{
						"Row": "2",
						"Type": "RTID(dino_armor1@ZombieTypes)"
					}
				]
			}
		},
		{
			"aliases": [
				"Wave5"
			],
			"objclass": "SpawnZombiesJitteredWaveActionProps",
			"objdata": {
				"AdditionalPlantfood": 0,
				"Zombies": [
					{
						"Row": "4",
						"Type": "RTID(dino_imp@ZombieTypes)"
					},
					{
						"Row": "3",
						"Type": "RTID(dino_armor2@ZombieTypes)"
					},
					{
						"Row": "2",
						"Type": "RTID(dino_imp@ZombieTypes)"
					}
				]
			}
		},
		{
			"aliases": [
				"Wave6"
			],
			"objclass": "SpawnZombiesJitteredWaveActionProps",
			"objdata": {
				"AdditionalPlantfood": 1,
				"Zombies": [
					{
						"Row": "5",
						"Type": "RTID(dino_armor1@ZombieTypes)"
					},
					{
						"Row": "5",
						"Type": "RTID(dino@ZombieTypes)"
					},
					{
						"Row": "1",
						"Type": "RTID(dino_armor1@ZombieTypes)"
					},
					{
						"Row": "1",
						"Type": "RTID(dino@ZombieTypes)"
					}
				]
			}
		},
		{
			"aliases": [
				"Wave7"
			],
			"objclass": "SpawnZombiesJitteredWaveActionProps",
			"objdata": {
				"Zombies": [
					{
						"Row": "1",
						"Type": "RTID(dino_imp@ZombieTypes)"
					},
					{
						"Row": "2",
						"Type": "RTID(dino_imp@ZombieTypes)"
					},
					{
						"Row": "3",
						"Type": "RTID(dino_imp@ZombieTypes)"
					},
					{
						"Row": "4",
						"Type": "RTID(dino_armor1@ZombieTypes)"
					},
					{
						"Row": "5",
						"Type": "RTID(dino_armor1@ZombieTypes)"
					}
				]
			}
		},
		{
			"aliases": [
				"Wave8"
			],
			"objclass": "SpawnZombiesJitteredWaveActionProps",
			"objdata": {
				"AdditionalPlantfood": 0,
				"Zombies": [
					{
						"Row": "4",
						"Type": "RTID(dino@ZombieTypes)"
					},
					{
						"Row": "4",
						"Type": "RTID(dino_armor1@ZombieTypes)"
					},
					{
						"Row": "5",
						"Type": "RTID(dino@ZombieTypes)"
					},
					{
						"Row": "5",
						"Type": "RTID(dino_armor2@ZombieTypes)"
					},
					{
						"Row": "1",
						"Type": "RTID(dino_armor1@ZombieTypes)"
					},
					{
						"Row": "1",
						"Type": "RTID(dino_armor2@ZombieTypes)"
					},
					{
						"Row": "3",
						"Type": "RTID(dino_armor3@ZombieTypes)"
					},
					{
						"Row": "2",
						"Type": "RTID(dino@ZombieTypes)"
					}
				]
			}
		},
		{
			"aliases": [
				"Wave9"
			],
			"objclass": "SpawnZombiesJitteredWaveActionProps",
			"objdata": {
				"AdditionalPlantfood": 1,
				"Zombies": [
					{
						"Row": "5",
						"Type": "RTID(dino_armor1@ZombieTypes)"
					},
					{
						"Row": "4",
						"Type": "RTID(dino_armor1@ZombieTypes)"
					},
					{
						"Row": "3",
						"Type": "RTID(dino@ZombieTypes)"
					},
					{
						"Row": "2",
						"Type": "RTID(dino_armor1@ZombieTypes)"
					},
					{
						"Row": "1",
						"Type": "RTID(dino_armor1@ZombieTypes)"
					}
				]
			}
		},
		{
			"aliases": [
				"Wave10"
			],
			"objclass": "SpawnZombiesJitteredWaveActionProps",
			"objdata": {
				"Zombies": [
					{
						"Row": "2",
						"Type": "RTID(dino_armor2@ZombieTypes)"
					},
					{
						"Row": "2",
						"Type": "RTID(dino_imp@ZombieTypes)"
					},
					{
						"Row": "4",
						"Type": "RTID(dino_armor2@ZombieTypes)"
					},
					{
						"Row": "4",
						"Type": "RTID(dino_imp@ZombieTypes)"
					}
				]
			}
		},
		{
			"aliases": [
				"Wave11"
			],
			"objclass": "SpawnZombiesJitteredWaveActionProps",
			"objdata": {
				"Zombies": [
					{
						"Row": "5",
						"Type": "RTID(dino_imp@ZombieTypes)"
					},
					{
						"Row": "5",
						"Type": "RTID(dino_imp@ZombieTypes)"
					},
					{
						"Row": "1",
						"Type": "RTID(dino_imp@ZombieTypes)"
					},
					{
						"Row": "1",
						"Type": "RTID(dino_imp@ZombieTypes)"
					},
					{
						"Row": "4",
						"Type": "RTID(dino_armor1@ZombieTypes)"
					},
					{
						"Row": "3",
						"Type": "RTID(dino_armor2@ZombieTypes)"
					},
					{
						"Row": "2",
						"Type": "RTID(dino_armor1@ZombieTypes)"
					}
				]
			}
		},
		{
			"aliases": [
				"Wave12"
			],
			"objclass": "SpawnZombiesJitteredWaveActionProps",
			"objdata": {
				"AdditionalPlantfood": 0,
				"Zombies": [
					{
						"Row": "1",
						"Type": "RTID(dino_armor3@ZombieTypes)"
					},
					{
						"Row": "1",
						"Type": "RTID(dino@ZombieTypes)"
					},
					{
						"Row": "1",
						"Type": "RTID(dino@ZombieTypes)"
					},
					{
						"Row": "3",
						"Type": "RTID(dino_armor1@ZombieTypes)"
					},
					{
						"Row": "3",
						"Type": "RTID(dino@ZombieTypes)"
					},
					{
						"Row": "3",
						"Type": "RTID(dino_imp@ZombieTypes)"
					},
					{
						"Row": "5",
						"Type": "RTID(dino_armor3@ZombieTypes)"
					},
					{
						"Row": "5",
						"Type": "RTID(dino@ZombieTypes)"
					},
					{
						"Row": "5",
						"Type": "RTID(dino@ZombieTypes)"
					},
					{
						"Row": "2",
						"Type": "RTID(dino_armor2@ZombieTypes)"
					},
					{
						"Row": "2",
						"Type": "RTID(dino_imp@ZombieTypes)"
					},
					{
						"Row": "4",
						"Type": "RTID(dino_armor2@ZombieTypes)"
					},
					{
						"Row": "4",
						"Type": "RTID(dino_imp@ZombieTypes)"
					}
				]
			}
		},
		{
			"aliases": [
				"Wave4DinoTimeEvent0"
			],
			"objclass": "DinoWaveActionProps",
			"objdata": {
				"DinoRow": "2",
				"DinoType": "ptero"
			}
		},
		{
			"aliases": [
				"Wave6DinoTimeEvent0"
			],
			"objclass": "DinoWaveActionProps",
			"objdata": {
				"DinoRow": 0,
				"DinoType": "raptor"
			}
		},
		{
			"aliases": [
				"Wave8DinoTimeEvent0"
			],
			"objclass": "DinoWaveActionProps",
			"objdata": {
				"DinoRow": 3,
				"DinoType": "stego"
			}
		},
		{
			"aliases": [
				"Wave8DinoTimeEvent1"
			],
			"objclass": "DinoWaveActionProps",
			"objdata": {
				"DinoRow": 4,
				"DinoType": "ptero"
			}
		},
		{
			"aliases": [
				"Wave8DinoTimeEvent2"
			],
			"objclass": "DinoWaveActionProps",
			"objdata": {
				"DinoRow": 0,
				"DinoType": "ptero"
			}
		},
		{
			"aliases": [
				"Wave10DinoTimeEvent0"
			],
			"objclass": "DinoWaveActionProps",
			"objdata": {
				"DinoRow": 1,
				"DinoType": "ptero"
			}
		},
		{
			"aliases": [
				"Wave10DinoTimeEvent1"
			],
			"objclass": "DinoWaveActionProps",
			"objdata": {
				"DinoRow": 3,
				"DinoType": "ptero"
			}
		},
		{
			"aliases": [
				"Wave12DinoTimeEvent0"
			],
			"objclass": "DinoWaveActionProps",
			"objdata": {
				"DinoRow": 0,
				"DinoType": "ptero"
			}
		},
		{
			"aliases": [
				"Wave12DinoTimeEvent1"
			],
			"objclass": "DinoWaveActionProps",
			"objdata": {
				"DinoRow": 2,
				"DinoType": "raptor"
			}
		},
		{
			"aliases": [
				"Wave12DinoTimeEvent2"
			],
			"objclass": "DinoWaveActionProps",
			"objdata": {
				"DinoRow": 4,
				"DinoType": "ptero"
			}
		}
	],
	"version": 1
}