{
	"#comment": "Dino 38",
	"objects": [
		{
			"objclass": "LevelDefinition",
			"objdata": {
				"Description": "[EPIC_QUEST_DINO_NEW_TITLE]",
				"LevelNumber": 6,
				"Loot": "RTID(DefaultLoot@LevelModules)",
				"Modules": [
					"RTID(StandardIntro@LevelModules)",
					"RTID(DefaultSunDropper@LevelModules)",
					"RTID(ZombiesDeadWinCon@LevelModules)",
					"RTID(SeedBank@CurrentLevel)",
					"RTID(DefaultZombieWinCondition@LevelModules)",
					"RTID(NewWaves@CurrentLevel)",
					"RTID(ChallengeModule@CurrentLevel)"
				],
				"MusicType": "MiniGame_A",
				"Name": "[EPIC_QUEST_DINO_NEW_TITLE]",
				"NormalPresentTable": "egypt_normal_01",
				"ShinyPresentTable": "egypt_shiny_01",
				"ForceToWorldMap": true,
				"RepeatPlayForceToWorldMap": true,
				"StageModule": "RTID(DinoStage@LevelModules)"
			}
		},
		{
			"aliases": [
				"ChallengeModule"
			],
			"objclass": "StarChallengeModuleProperties",
			"objdata": {
				"Challenges": [
					[
						"RTID(BeatTheLevel@CurrentLevel)",
						"RTID(DoNotPlantBeforeLine@CurrentLevel)"
					]
				],
				"ChallengesAlwaysAvailable": true
			}
		},
		{
			"aliases": [
				"DoNotPlantBeforeLine"
			],
			"objclass": "MoldColonyChallengeProps",
			"objdata": {
				"Locations": "RTID(Dino38@BoardGridMaps)"
			}
		},
		{
			"aliases": [
				"BeatTheLevel"
			],
			"objclass": "StarChallengeBeatTheLevelProps",
			"objdata": {
				"Description": "[STARCHALLENGE_PRESET_PLANTS]",
				"DescriptiveName": "[STARCHALLENGE_PIRATE_FINALE_NAME]"
			}
		},
		{
			"aliases": [
				"SeedBank"
			],
			"objclass": "SeedBankProperties",
			"objdata": {
				"PresetPlantList": [
					{
						"Level": -1,
						"PlantType": "primalsunflower"
					},
					{
						"Level": -1,
						"PlantType": "primalpeashooter"
					},
					{
						"Level": -1,
						"PlantType": "primalpotatomine"
					},
					{
						"Level": -1,
						"PlantType": "perfumeshroom"
					},
					{
						"Level": -1,
						"PlantType": "stallia"
					},
					{
						"Level": -1,
						"PlantType": "threepeater"
					}
				],
				"SelectionMethod": "preset"
			}
		},
		{
			"aliases": [
				"NewWaves"
			],
			"objclass": "WaveManagerModuleProperties",
			"objdata": {
				"DynamicZombies": [
					{
						"PointIncrementPerWave": -1,
						"StartingPoints": -1,
						"StartingWave": 3,
						"ZombiePool": []
					},
					{
						"PointIncrementPerWave": -1,
						"StartingPoints": -1,
						"StartingWave": 4,
						"ZombiePool": []
					},
					{
						"PointIncrementPerWave": -1,
						"StartingPoints": -1,
						"StartingWave": 5,
						"ZombiePool": []
					},
					{},
					{
						"PointIncrementPerWave": 1,
						"StartingPoints": 1,
						"StartingWave": 5,
						"ZombiePool": []
					},
					{
						"PointIncrementPerWave": 1,
						"StartingPoints": 1,
						"StartingWave": 4,
						"ZombiePool": []
					},
					{
						"PointIncrementPerWave": 1,
						"StartingPoints": 1,
						"StartingWave": 3,
						"ZombiePool": []
					}
				],
				"WaveManagerProps": "RTID(WaveManagerProps@CurrentLevel)"
			}
		},
		{
			"aliases": [
				"WaveManagerProps"
			],
			"objclass": "WaveManagerProperties",
			"objdata": {
				"FlagWaveInterval": 3,
				"FlagWaveVeteranOverrideTypes": [
					1,
					1,
					1
				],
				"WaveCount": 9,
				"WaveSpendingPointIncrement": 400,
				"WaveSpendingPoints": 1000,
				"Waves": [
					[
						"RTID(Wave1@CurrentLevel)"
					],
					[
						"RTID(Wave2@CurrentLevel)"
					],
					[
						"RTID(Wave3@CurrentLevel)",
						"RTID(Wave3DinoTimeEvent0@CurrentLevel)"
					],
					[
						"RTID(Wave4@CurrentLevel)",
						"RTID(Wave4DinoTimeEvent0@CurrentLevel)"
					],
					[
						"RTID(Wave5@CurrentLevel)",
						"RTID(Wave5DinoTimeEvent0@CurrentLevel)",
						"RTID(Wave5DinoTimeEvent1@CurrentLevel)"
					],
					[
						"RTID(Wave6@CurrentLevel)"
					],
					[
						"RTID(Wave7@CurrentLevel)",
						"RTID(Wave7DinoTimeEvent0@CurrentLevel)"
					],
					[
						"RTID(Wave8@CurrentLevel)"
					],
					[
						"RTID(Wave9@CurrentLevel)",
						"RTID(Wave9DinoTimeEvent0@CurrentLevel)",
						"RTID(Wave9DinoTimeEvent1@CurrentLevel)",
						"RTID(Wave9DinoTimeEvent2@CurrentLevel)"
					]
				]
			}
		},
		{
			"aliases": [
				"Wave1"
			],
			"objclass": "SpawnZombiesJitteredWaveActionProps",
			"objdata": {
				"AdditionalPlantfood": 0,
				"Zombies": [
					{
						"Type": "RTID(dino_armor4@ZombieTypes)"
					}
				]
			}
		},
		{
			"aliases": [
				"Wave2"
			],
			"objclass": "SpawnZombiesJitteredWaveActionProps",
			"objdata": {
				"Zombies": [
					{
						"Row": "2",
						"Type": "RTID(dino@ZombieTypes)"
					},
					{
						"Row": "4",
						"Type": "RTID(dino@ZombieTypes)"
					}
				]
			}
		},
		{
			"aliases": [
				"Wave3"
			],
			"objclass": "SpawnZombiesJitteredWaveActionProps",
			"objdata": {
				"AdditionalPlantfood": 1,
				"DynamicPlantfood": [
					1,
					1,
					1,
					1,
					1,
					1,
					1
				],
				"Zombies": [
					{
						"Row": "2",
						"Type": "RTID(dino_armor1@ZombieTypes)"
					},
					{
						"Row": "2",
						"Type": "RTID(dino_armor2@ZombieTypes)"
					},
					{
						"Row": "4",
						"Type": "RTID(dino_armor1@ZombieTypes)"
					},
					{
						"Row": "4",
						"Type": "RTID(dino_armor2@ZombieTypes)"
					}
				]
			}
		},
		{
			"aliases": [
				"Wave4"
			],
			"objclass": "SpawnZombiesJitteredWaveActionProps",
			"objdata": {
				"Zombies": [
					{
						"Row": "1",
						"Type": "RTID(dino_imp@ZombieTypes)"
					},
					{
						"Row": "1",
						"Type": "RTID(dino_imp@ZombieTypes)"
					},
					{
						"Row": "3",
						"Type": "RTID(dino_imp@ZombieTypes)"
					},
					{
						"Row": "3",
						"Type": "RTID(dino_imp@ZombieTypes)"
					}
				]
			}
		},
		{
			"aliases": [
				"Wave5"
			],
			"objclass": "SpawnZombiesJitteredWaveActionProps",
			"objdata": {
				"AdditionalPlantfood": 0,
				"Zombies": [
					{
						"Row": "1",
						"Type": "RTID(dino@ZombieTypes)"
					},
					{
						"Row": "1",
						"Type": "RTID(dino@ZombieTypes)"
					},
					{
						"Row": "3",
						"Type": "RTID(dino@ZombieTypes)"
					},
					{
						"Row": "3",
						"Type": "RTID(dino@ZombieTypes)"
					},
					{
						"Row": "5",
						"Type": "RTID(dino_armor4@ZombieTypes)"
					}
				]
			}
		},
		{
			"aliases": [
				"Wave6"
			],
			"objclass": "SpawnZombiesJitteredWaveActionProps",
			"objdata": {
				"AdditionalPlantfood": 1,
				"DynamicPlantfood": [
					1,
					1,
					1,
					1,
					1,
					1,
					1
				],
				"Zombies": [
					{
						"Row": "2",
						"Type": "RTID(dino_armor4@ZombieTypes)"
					},
					{
						"Row": "2",
						"Type": "RTID(dino@ZombieTypes)"
					},
					{
						"Row": "2",
						"Type": "RTID(dino_bully_veteran@ZombieTypes)"
					},
					{
						"Row": "4",
						"Type": "RTID(dino_armor4@ZombieTypes)"
					},
					{
						"Row": "4",
						"Type": "RTID(dino@ZombieTypes)"
					},
					{
						"Row": "4",
						"Type": "RTID(dino_bully_veteran@ZombieTypes)"
					},
					{
						"Row": "1",
						"Type": "RTID(dino_armor2@ZombieTypes)"
					}
				]
			}
		},
		{
			"aliases": [
				"Wave7"
			],
			"objclass": "SpawnZombiesJitteredWaveActionProps",
			"objdata": {
				"Zombies": [
					{
						"Row": "1",
						"Type": "RTID(dino_bully_veteran@ZombieTypes)"
					},
					{
						"Row": "3",
						"Type": "RTID(dino_bully_veteran@ZombieTypes)"
					},
					{
						"Row": "3",
						"Type": "RTID(dino_imp@ZombieTypes)"
					},
					{
						"Row": "3",
						"Type": "RTID(dino_imp@ZombieTypes)"
					},
					{
						"Row": "5",
						"Type": "RTID(dino_bully_veteran@ZombieTypes)"
					}
				]
			}
		},
		{
			"aliases": [
				"Wave8"
			],
			"objclass": "SpawnZombiesJitteredWaveActionProps",
			"objdata": {
				"AdditionalPlantfood": 0,
				"Zombies": [
					{
						"Row": "1",
						"Type": "RTID(dino@ZombieTypes)"
					},
					{
						"Row": "1",
						"Type": "RTID(dino_imp@ZombieTypes)"
					},
					{
						"Row": "1",
						"Type": "RTID(dino_armor3@ZombieTypes)"
					},
					{
						"Row": "2",
						"Type": "RTID(dino_armor2@ZombieTypes)"
					},
					{
						"Row": "2",
						"Type": "RTID(dino_imp@ZombieTypes)"
					},
					{
						"Row": "3",
						"Type": "RTID(dino_armor4@ZombieTypes)"
					},
					{
						"Row": "3",
						"Type": "RTID(dino_imp@ZombieTypes)"
					},
					{
						"Row": "4",
						"Type": "RTID(dino_armor2@ZombieTypes)"
					},
					{
						"Row": "4",
						"Type": "RTID(dino_imp@ZombieTypes)"
					},
					{
						"Row": "5",
						"Type": "RTID(dino@ZombieTypes)"
					},
					{
						"Row": "5",
						"Type": "RTID(dino_armor3@ZombieTypes)"
					}
				]
			}
		},
		{
			"aliases": [
				"Wave9"
			],
			"objclass": "SpawnZombiesJitteredWaveActionProps",
			"objdata": {
				"AdditionalPlantfood": 0,
				"Zombies": [
					{
						"Row": "3",
						"Type": "RTID(dino_armor2@ZombieTypes)"
					},
					{
						"Row": "3",
						"Type": "RTID(dino_bully_veteran@ZombieTypes)"
					},
					{
						"Row": "3",
						"Type": "RTID(dino_armor3@ZombieTypes)"
					},
					{
						"Row": "1",
						"Type": "RTID(dino_armor2@ZombieTypes)"
					},
					{
						"Row": "1",
						"Type": "RTID(dino_bully_veteran@ZombieTypes)"
					},
					{
						"Row": "1",
						"Type": "RTID(dino_armor3@ZombieTypes)"
					},
					{
						"Row": "5",
						"Type": "RTID(dino_armor2@ZombieTypes)"
					},
					{
						"Row": "5",
						"Type": "RTID(dino_bully_veteran@ZombieTypes)"
					},
					{
						"Row": "5",
						"Type": "RTID(dino_armor3@ZombieTypes)"
					},
					{
						"Row": "4",
						"Type": "RTID(dino_imp@ZombieTypes)"
					},
					{
						"Row": "4",
						"Type": "RTID(dino_imp@ZombieTypes)"
					},
					{
						"Row": "4",
						"Type": "RTID(dino_imp@ZombieTypes)"
					},
					{
						"Row": "2",
						"Type": "RTID(dino_imp@ZombieTypes)"
					},
					{
						"Row": "2",
						"Type": "RTID(dino_imp@ZombieTypes)"
					},
					{
						"Row": "2",
						"Type": "RTID(dino_imp@ZombieTypes)"
					}
				]
			}
		},
		{
			"aliases": [
				"Wave5DinoTimeEvent0"
			],
			"objclass": "DinoWaveActionProps",
			"objdata": {
				"DinoRow": 1,
				"DinoType": "raptor",
				"DinoWaveDuration": "0"
			}
		},
		{
			"aliases": [
				"Wave5DinoTimeEvent1"
			],
			"objclass": "DinoWaveActionProps",
			"objdata": {
				"DinoRow": 3,
				"DinoType": "raptor",
				"DinoWaveDuration": "0"
			}
		},
		{
			"aliases": [
				"Wave9DinoTimeEvent0"
			],
			"objclass": "DinoWaveActionProps",
			"objdata": {
				"DinoRow": 0,
				"DinoType": "raptor",
				"DinoWaveDuration": "0"
			}
		},
		{
			"aliases": [
				"Wave9DinoTimeEvent1"
			],
			"objclass": "DinoWaveActionProps",
			"objdata": {
				"DinoRow": 2,
				"DinoType": "raptor",
				"DinoWaveDuration": "0"
			}
		},
		{
			"aliases": [
				"Wave9DinoTimeEvent2"
			],
			"objclass": "DinoWaveActionProps",
			"objdata": {
				"DinoRow": 4,
				"DinoType": "raptor",
				"DinoWaveDuration": "0"
			}
		},
		{
			"aliases": [
				"Wave7DinoTimeEvent0"
			],
			"objclass": "DinoWaveActionProps",
			"objdata": {
				"DinoRow": 0,
				"DinoType": "raptor",
				"DinoWaveDuration": "0"
			}
		},
		{
			"aliases": [
				"Wave4DinoTimeEvent0"
			],
			"objclass": "DinoWaveActionProps",
			"objdata": {
				"DinoRow": 0,
				"DinoType": "raptor",
				"DinoWaveDuration": "0"
			}
		},
		{
			"aliases": [
				"Wave3DinoTimeEvent0"
			],
			"objclass": "DinoWaveActionProps",
			"objdata": {
				"DinoRow": 4,
				"DinoType": "raptor",
				"DinoWaveDuration": 2
			}
		}
	],
	"version": 1
}