{
	"#comment": "Egypt 29",
	"objects": [
		{
			"objclass": "LevelDefinition",
			"objdata": {
				"Description": "[EPIC_QUEST_EGYPT_NEW_TITLE]",
				"LevelNumber": 4,
				"Loot": "RTID(DefaultLoot@LevelModules)",
				"Modules": [
					"RTID(StandardIntro@LevelModules)",
					"RTID(Gravestones@CurrentLevel)",
					"RTID(EgyptMowers@LevelModules)",
					"RTID(ConveyorBelt@CurrentLevel)",
					"RTID(ZombiesDeadWinCon@LevelModules)",
					"RTID(DefaultZombieWinCondition@LevelModules)",
					"RTID(ChallengeModule@CurrentLevel)",
					"RTID(NewWaves@CurrentLevel)"
				],
				"MusicType": "MiniGame_A",
				"Name": "[EPIC_QUEST_EGYPT_NEW_TITLE]",
				"NormalPresentTable": "egypt_normal_01",
				"ShinyPresentTable": "egypt_shiny_01",
				"ForceToWorldMap": true,
				"RepeatPlayForceToWorldMap": true,
				"StageModule": "RTID(EgyptStage@LevelModules)"
			}
		},
		{
			"aliases": [
				"Gravestones"
			],
			"objclass": "GravestoneProperties",
			"objdata": {
				"ForceSpawnData": [
					{
						"GridX": 8,
						"GridY": 0
					},
					{
						"GridX": 4,
						"GridY": 0
					},
					{
						"GridX": 4,
						"GridY": 1
					},
					{
						"GridX": 6,
						"GridY": 1
					},
					{
						"GridX": 8,
						"GridY": 2
					},
					{
						"GridX": 5,
						"GridY": 2
					},
					{
						"GridX": 7,
						"GridY": 3
					},
					{
						"GridX": 3,
						"GridY": 3
					},
					{
						"GridX": 6,
						"GridY": 4
					}
				]
			}
		},
		{
			"aliases": [
				"ConveyorBelt"
			],
			"objclass": "ConveyorSeedBankProperties",
			"objdata": {
				"DropDelayConditions": [
					{
						"Delay": 3,
						"MaxPackets": 0
					},
					{
						"Delay": 6,
						"MaxPackets": 2
					},
					{
						"Delay": 9,
						"MaxPackets": 4
					},
					{
						"Delay": 12,
						"MaxPackets": 8
					}
				],
				"InitialPlantList": [
					{
						"MaxCount": 5,
						"MaxWeightFactor": 0,
						"PlantType": "melonpult",
						"Weight": 40
					},
					{
						"PlantType": "peapod",
						"Weight": 60
					}
				],
				"SpeedConditions": [
					{
						"MaxPackets": 0,
						"Speed": 100
					}
				]
			}
		},
		{
			"aliases": [
				"ChallengeModule"
			],
			"objclass": "StarChallengeModuleProperties",
			"objdata": {
				"Challenges": [
					[
						"RTID(BeatTheLevel@CurrentLevel)"
					]
				],
				"ChallengesAlwaysAvailable": true
			}
		},
		{
			"aliases": [
				"BeatTheLevel"
			],
			"objclass": "StarChallengeBeatTheLevelProps",
			"objdata": {
				"Description": "[STARCHALLENGE_EGYPT_FINALE]",
				"DescriptiveName": "[STARCHALLENGE_EGYPT_FINALE_NAME]"
			}
		},
		{
			"aliases": [
				"NewWaves"
			],
			"objclass": "WaveManagerModuleProperties",
			"objdata": {
				"DynamicZombies": [
					{
						"PointIncrementPerWave": -10,
						"StartingPoints": -100,
						"StartingWave": 3,
						"ZombiePool": [
							"RTID(camel_twohump@ZombieTypes)",
							"RTID(explorer@ZombieTypes)",
							"RTID(mummy_armor1@ZombieTypes)",
							"RTID(mummy_armor2@ZombieTypes)",
							"RTID(pharaoh@ZombieTypes)",
							"RTID(ra@ZombieTypes)",
							"RTID(tomb_raiser@ZombieTypes)"
						]
					},
					{
						"PointIncrementPerWave": -10,
						"StartingPoints": -50,
						"StartingWave": 4,
						"ZombiePool": [
							"RTID(camel_twohump@ZombieTypes)",
							"RTID(explorer@ZombieTypes)",
							"RTID(mummy_armor1@ZombieTypes)",
							"RTID(mummy_armor2@ZombieTypes)",
							"RTID(pharaoh@ZombieTypes)",
							"RTID(ra@ZombieTypes)",
							"RTID(tomb_raiser@ZombieTypes)"
						]
					},
					{
						"PointIncrementPerWave": -10,
						"StartingPoints": -1,
						"StartingWave": 5,
						"ZombiePool": [
							"RTID(camel_twohump@ZombieTypes)",
							"RTID(explorer@ZombieTypes)",
							"RTID(mummy_armor1@ZombieTypes)",
							"RTID(mummy_armor2@ZombieTypes)",
							"RTID(pharaoh@ZombieTypes)",
							"RTID(ra@ZombieTypes)",
							"RTID(tomb_raiser@ZombieTypes)"
						]
					},
					{},
					{
						"PointIncrementPerWave": 20,
						"StartingPoints": 200,
						"StartingWave": 5,
						"ZombiePool": [
							"RTID(camel_twohump@ZombieTypes)",
							"RTID(explorer@ZombieTypes)",
							"RTID(mummy_armor1@ZombieTypes)",
							"RTID(mummy_armor2@ZombieTypes)",
							"RTID(pharaoh@ZombieTypes)",
							"RTID(ra@ZombieTypes)",
							"RTID(tomb_raiser@ZombieTypes)"
						]
					},
					{
						"PointIncrementPerWave": 40,
						"StartingPoints": 300,
						"StartingWave": 4,
						"ZombiePool": [
							"RTID(camel_twohump@ZombieTypes)",
							"RTID(explorer@ZombieTypes)",
							"RTID(mummy_armor1@ZombieTypes)",
							"RTID(mummy_armor2@ZombieTypes)",
							"RTID(pharaoh@ZombieTypes)",
							"RTID(ra@ZombieTypes)",
							"RTID(tomb_raiser@ZombieTypes)"
						]
					},
					{
						"PointIncrementPerWave": 60,
						"StartingPoints": 500,
						"StartingWave": 3,
						"ZombiePool": [
							"RTID(camel_twohump@ZombieTypes)",
							"RTID(explorer@ZombieTypes)",
							"RTID(mummy_armor2@ZombieTypes)",
							"RTID(pharaoh@ZombieTypes)",
							"RTID(ra@ZombieTypes)",
							"RTID(tomb_raiser@ZombieTypes)"
						]
					}
				],
				"WaveManagerProps": "RTID(WaveManagerProps@CurrentLevel)"
			}
		},
		{
			"aliases": [
				"WaveManagerProps"
			],
			"objclass": "WaveManagerProperties",
			"objdata": {
				"FlagWaveInterval": 4,
				"FlagWaveVeteranOverrideTypes": [
					1,
					1,
					1,
					1
				],
				"SpawnColEnd": 9,
				"SpawnColStart": 2,
				"SuppressFlagZombie": false,
				"SuppressedDynamicZombieWaves": [
					10,
					17
				],
				"WaveCount": 16,
				"WaveSpendingPointIncrement": 100,
				"WaveSpendingPoints": 500,
				"Waves": [
					[
						"RTID(Wave1@CurrentLevel)",
						"RTID(Wave1ModConveyor0@CurrentLevel)"
					],
					[
						"RTID(Wave2@CurrentLevel)",
						"RTID(Wave2StormEvent0@CurrentLevel)"
					],
					[
						"RTID(Wave3@CurrentLevel)",
						"RTID(Wave3ModConveyor0@CurrentLevel)"
					],
					[
						"RTID(Wave4@CurrentLevel)"
					],
					[
						"RTID(Wave5@CurrentLevel)"
					],
					[
						"RTID(Wave6@CurrentLevel)",
						"RTID(Wave6StormEvent0@CurrentLevel)",
						"RTID(Wave6ModConveyor0@CurrentLevel)"
					],
					[
						"RTID(Wave7@CurrentLevel)",
						"RTID(Wave7StormEvent0@CurrentLevel)"
					],
					[
						"RTID(Wave8@CurrentLevel)"
					],
					[
						"RTID(Wave9@CurrentLevel)",
						"RTID(Wave9StormEvent0@CurrentLevel)"
					],
					[
						"RTID(Wave10@CurrentLevel)"
					],
					[
						"RTID(Wave11@CurrentLevel)"
					],
					[
						"RTID(Wave12@CurrentLevel)",
						"RTID(Wave12StormEvent0@CurrentLevel)"
					],
					[
						"RTID(Wave13@CurrentLevel)"
					],
					[
						"RTID(Wave14@CurrentLevel)",
						"RTID(Wave14StormEvent0@CurrentLevel)"
					],
					[
						"RTID(Wave15@CurrentLevel)"
					],
					[
						"RTID(Wave16@CurrentLevel)",
						"RTID(Wave16StormEvent0@CurrentLevel)"
					]
				]
			}
		},
		{
			"aliases": [
				"Wave1"
			],
			"objclass": "SpawnZombiesJitteredWaveActionProps",
			"objdata": {
				"AdditionalPlantfood": 0,
				"Zombies": [
					{
						"Type": "RTID(mummy@ZombieTypes)"
					},
					{
						"Type": "RTID(mummy_armor1@ZombieTypes)"
					},
					{
						"Type": "RTID(mummy_armor1@ZombieTypes)"
					}
				]
			}
		},
		{
			"aliases": [
				"Wave2"
			],
			"objclass": "SpawnZombiesJitteredWaveActionProps",
			"objdata": {
				"AdditionalPlantfood": 0,
				"DynamicPlantfood": [
					1,
					0,
					0,
					0,
					0,
					0,
					0
				],
				"Zombies": [
					{
						"Type": "RTID(mummy_armor4@ZombieTypes)"
					}
				]
			}
		},
		{
			"aliases": [
				"Wave3"
			],
			"objclass": "SpawnZombiesJitteredWaveActionProps",
			"objdata": {
				"Zombies": [
					{
						"Row": "5",
						"Type": "RTID(tomb_raiser@ZombieTypes)"
					},
					{
						"Row": "3",
						"Type": "RTID(tomb_raiser@ZombieTypes)"
					},
					{
						"Row": "1",
						"Type": "RTID(tomb_raiser@ZombieTypes)"
					}
				]
			}
		},
		{
			"aliases": [
				"Wave4"
			],
			"objclass": "SpawnZombiesJitteredWaveActionProps",
			"objdata": {
				"Zombies": [
					{
						"Row": "5",
						"Type": "RTID(mummy_armor4@ZombieTypes)"
					},
					{
						"Type": "RTID(egypt_gargantuar@ZombieTypes)"
					}
				]
			}
		},
		{
			"aliases": [
				"Wave5"
			],
			"objclass": "SpawnZombiesJitteredWaveActionProps",
			"objdata": {
				"AdditionalPlantfood": 1,
				"DynamicPlantfood": [
					1,
					1,
					1,
					1,
					1,
					1,
					1
				],
				"Zombies": [
					{
						"Row": "5",
						"Type": "RTID(tomb_raiser@ZombieTypes)"
					},
					{
						"Row": "4",
						"Type": "RTID(tomb_raiser@ZombieTypes)"
					},
					{
						"Row": "2",
						"Type": "RTID(tomb_raiser@ZombieTypes)"
					},
					{
						"Row": "1",
						"Type": "RTID(tomb_raiser@ZombieTypes)"
					}
				]
			}
		},
		{
			"aliases": [
				"Wave6"
			],
			"objclass": "SpawnZombiesJitteredWaveActionProps",
			"objdata": {
				"Zombies": [
					{
						"Row": "5",
						"Type": "RTID(mummy@ZombieTypes)"
					},
					{
						"Row": "3",
						"Type": "RTID(ra@ZombieTypes)"
					},
					{
						"Row": "1",
						"Type": "RTID(mummy@ZombieTypes)"
					}
				]
			}
		},
		{
			"aliases": [
				"Wave7"
			],
			"objclass": "SpawnZombiesJitteredWaveActionProps",
			"objdata": {
				"Zombies": [
					{
						"Type": "RTID(mummy_armor4@ZombieTypes)"
					},
					{
						"Type": "RTID(mummy_armor4@ZombieTypes)"
					},
					{
						"Type": "RTID(mummy_armor1@ZombieTypes)"
					}
				]
			}
		},
		{
			"aliases": [
				"Wave8"
			],
			"objclass": "SpawnZombiesJitteredWaveActionProps",
			"objdata": {
				"AdditionalPlantfood": 0,
				"DynamicPlantfood": [
					1,
					1,
					0,
					0,
					0,
					0,
					0
				],
				"Zombies": [
					{
						"Row": "3",
						"Type": "RTID(explorer@ZombieTypes)"
					},
					{
						"Row": "5",
						"Type": "RTID(mummy_armor4@ZombieTypes)"
					},
					{
						"Row": "5",
						"Type": "RTID(ra@ZombieTypes)"
					},
					{
						"Row": "1",
						"Type": "RTID(mummy_armor4@ZombieTypes)"
					},
					{
						"Row": "1",
						"Type": "RTID(ra@ZombieTypes)"
					},
					{
						"Type": "RTID(egypt_gargantuar@ZombieTypes)"
					},
					{
						"Type": "RTID(ra@ZombieTypes)"
					}
				]
			}
		},
		{
			"aliases": [
				"Wave9"
			],
			"objclass": "SpawnZombiesJitteredWaveActionProps",
			"objdata": {
				"Zombies": []
			}
		},
		{
			"aliases": [
				"Wave10"
			],
			"objclass": "SpawnZombiesJitteredWaveActionProps",
			"objdata": {
				"AdditionalPlantfood": 1,
				"DynamicPlantfood": [
					1,
					1,
					1,
					1,
					1,
					1,
					1
				],
				"Zombies": [
					{
						"Row": "5",
						"Type": "RTID(tomb_raiser@ZombieTypes)"
					},
					{
						"Row": "4",
						"Type": "RTID(tomb_raiser@ZombieTypes)"
					},
					{
						"Row": "3",
						"Type": "RTID(tomb_raiser@ZombieTypes)"
					},
					{
						"Row": "2",
						"Type": "RTID(tomb_raiser@ZombieTypes)"
					},
					{
						"Row": "1",
						"Type": "RTID(tomb_raiser@ZombieTypes)"
					}
				]
			}
		},
		{
			"aliases": [
				"Wave11"
			],
			"objclass": "SpawnZombiesJitteredWaveActionProps",
			"objdata": {
				"Zombies": [
					{
						"Row": "5",
						"Type": "RTID(tomb_raiser@ZombieTypes)"
					},
					{
						"Row": "4",
						"Type": "RTID(tomb_raiser@ZombieTypes)"
					},
					{
						"Row": "3",
						"Type": "RTID(tomb_raiser@ZombieTypes)"
					},
					{
						"Row": "2",
						"Type": "RTID(tomb_raiser@ZombieTypes)"
					},
					{
						"Row": "1",
						"Type": "RTID(tomb_raiser@ZombieTypes)"
					}
				]
			}
		},
		{
			"aliases": [
				"Wave12"
			],
			"objclass": "SpawnZombiesJitteredWaveActionProps",
			"objdata": {
				"AdditionalPlantfood": 0,
				"Zombies": [
					{
						"Type": "RTID(explorer@ZombieTypes)"
					}
				]
			}
		},
		{
			"aliases": [
				"Wave13"
			],
			"objclass": "SpawnZombiesJitteredWaveActionProps",
			"objdata": {
				"AdditionalPlantfood": 0,
				"Zombies": [
					{
						"Row": "5",
						"Type": "RTID(mummy_armor2@ZombieTypes)"
					},
					{
						"Row": "5",
						"Type": "RTID(explorer@ZombieTypes)"
					},
					{
						"Row": "4",
						"Type": "RTID(mummy_armor4@ZombieTypes)"
					},
					{
						"Row": "4",
						"Type": "RTID(explorer@ZombieTypes)"
					},
					{
						"Row": "3",
						"Type": "RTID(mummy_armor2@ZombieTypes)"
					},
					{
						"Row": "3",
						"Type": "RTID(explorer@ZombieTypes)"
					},
					{
						"Row": "2",
						"Type": "RTID(mummy_armor4@ZombieTypes)"
					},
					{
						"Row": "2",
						"Type": "RTID(explorer@ZombieTypes)"
					},
					{
						"Row": "1",
						"Type": "RTID(mummy_armor2@ZombieTypes)"
					},
					{
						"Row": "1",
						"Type": "RTID(explorer@ZombieTypes)"
					}
				]
			}
		},
		{
			"aliases": [
				"Wave14"
			],
			"objclass": "SpawnZombiesJitteredWaveActionProps",
			"objdata": {
				"AdditionalPlantfood": 1,
				"DynamicPlantfood": [
					1,
					1,
					1,
					1,
					1,
					0,
					0
				],
				"Zombies": [
					{
						"Type": "RTID(egypt_gargantuar@ZombieTypes)"
					},
					{
						"Type": "RTID(ra@ZombieTypes)"
					},
					{
						"Type": "RTID(ra@ZombieTypes)"
					}
				]
			}
		},
		{
			"aliases": [
				"Wave15"
			],
			"objclass": "SpawnZombiesJitteredWaveActionProps",
			"objdata": {
				"Zombies": [
					{
						"Row": "5",
						"Type": "RTID(mummy_armor4@ZombieTypes)"
					},
					{
						"Row": "4",
						"Type": "RTID(mummy_armor4@ZombieTypes)"
					},
					{
						"Row": "3",
						"Type": "RTID(mummy_armor4@ZombieTypes)"
					},
					{
						"Row": "2",
						"Type": "RTID(mummy_armor4@ZombieTypes)"
					},
					{
						"Row": "1",
						"Type": "RTID(mummy_armor4@ZombieTypes)"
					}
				]
			}
		},
		{
			"aliases": [
				"Wave16"
			],
			"objclass": "SpawnZombiesJitteredWaveActionProps",
			"objdata": {
				"AdditionalPlantfood": 0,
				"Zombies": [
					{
						"Type": "RTID(egypt_gargantuar@ZombieTypes)"
					},
					{
						"Type": "RTID(egypt_gargantuar@ZombieTypes)"
					}
				]
			}
		},
		{
			"aliases": [
				"Wave7StormEvent0"
			],
			"objclass": "StormZombieSpawnerProps",
			"objdata": {
				"ColumnEnd": 4,
				"ColumnStart": 2,
				"GroupSize": 2,
				"TimeBetweenGroups": 2,
				"Type": "sandstorm",
				"Waves": "",
				"Zombies": [
					{
						"Type": "RTID(ra@ZombieTypes)"
					},
					{
						"Type": "RTID(mummy_armor1@ZombieTypes)"
					},
					{
						"Type": "RTID(ra@ZombieTypes)"
					},
					{
						"Type": "RTID(mummy_armor1@ZombieTypes)"
					},
					{
						"Type": "RTID(ra@ZombieTypes)"
					},
					{
						"Type": "RTID(mummy_armor1@ZombieTypes)"
					}
				]
			}
		},
		{
			"aliases": [
				"Wave9StormEvent0"
			],
			"objclass": "StormZombieSpawnerProps",
			"objdata": {
				"ColumnEnd": 4,
				"ColumnStart": 2,
				"GroupSize": 2,
				"TimeBetweenGroups": 2,
				"Type": "sandstorm",
				"Waves": "",
				"Zombies": [
					{
						"Type": "RTID(mummy_armor2@ZombieTypes)"
					},
					{
						"Type": "RTID(mummy_armor2@ZombieTypes)"
					},
					{
						"Type": "RTID(mummy_armor2@ZombieTypes)"
					},
					{
						"Type": "RTID(mummy_armor2@ZombieTypes)"
					}
				]
			}
		},
		{
			"aliases": [
				"Wave12StormEvent0"
			],
			"objclass": "StormZombieSpawnerProps",
			"objdata": {
				"ColumnEnd": 5,
				"ColumnStart": 3,
				"GroupSize": 2,
				"TimeBetweenGroups": 3,
				"Type": "sandstorm",
				"Waves": "",
				"Zombies": [
					{
						"Type": "RTID(egypt_gargantuar@ZombieTypes)"
					},
					{
						"Type": "RTID(egypt_gargantuar@ZombieTypes)"
					}
				]
			}
		},
		{
			"aliases": [
				"Wave16StormEvent0"
			],
			"objclass": "StormZombieSpawnerProps",
			"objdata": {
				"ColumnEnd": 5,
				"ColumnStart": 2,
				"GroupSize": 4,
				"TimeBetweenGroups": 3,
				"Type": "sandstorm",
				"Waves": "",
				"Zombies": [
					{
						"Type": "RTID(explorer@ZombieTypes)"
					},
					{
						"Type": "RTID(explorer@ZombieTypes)"
					},
					{
						"Type": "RTID(mummy_armor1@ZombieTypes)"
					},
					{
						"Type": "RTID(mummy@ZombieTypes)"
					},
					{
						"Type": "RTID(explorer@ZombieTypes)"
					},
					{
						"Type": "RTID(explorer@ZombieTypes)"
					},
					{
						"Type": "RTID(mummy@ZombieTypes)"
					},
					{
						"Type": "RTID(mummy_armor1@ZombieTypes)"
					}
				]
			}
		},
		{
			"aliases": [
				"Wave2StormEvent0"
			],
			"objclass": "StormZombieSpawnerProps",
			"objdata": {
				"ColumnEnd": 4,
				"ColumnStart": 2,
				"GroupSize": 2,
				"TimeBetweenGroups": 3,
				"Type": "sandstorm",
				"Zombies": [
					{
						"Type": "RTID(ra@ZombieTypes)"
					},
					{
						"Type": "RTID(ra@ZombieTypes)"
					}
				]
			}
		},
		{
			"aliases": [
				"Wave6StormEvent0"
			],
			"objclass": "StormZombieSpawnerProps",
			"objdata": {
				"ColumnEnd": 4,
				"ColumnStart": 1,
				"GroupSize": "2",
				"TimeBetweenGroups": "3",
				"Type": "sandstorm",
				"Zombies": [
					{
						"Type": "RTID(mummy_armor2@ZombieTypes)"
					},
					{
						"Type": "RTID(mummy_armor2@ZombieTypes)"
					}
				]
			}
		},
		{
			"aliases": [
				"Wave1ModConveyor0"
			],
			"objclass": "ModifyConveyorWaveActionProps",
			"objdata": {
				"Add": [
					{
						"MaxCount": 8,
						"MaxCountCooldownSeconds": 15,
						"MaxWeightFactor": 0,
						"Type": "RTID(kernelpult@PlantTypes)",
						"Weight": 40
					}
				],
				"Remove": []
			}
		},
		{
			"aliases": [
				"Wave14StormEvent0"
			],
			"objclass": "StormZombieSpawnerProps",
			"objdata": {
				"ColumnEnd": 4,
				"ColumnStart": 2,
				"GroupSize": "2",
				"TimeBetweenGroups": "3",
				"Type": "sandstorm",
				"Zombies": [
					{
						"Type": "RTID(explorer@ZombieTypes)"
					},
					{
						"Type": "RTID(explorer@ZombieTypes)"
					}
				]
			}
		},
		{
			"aliases": [
				"Wave6ModConveyor0"
			],
			"objclass": "ModifyConveyorWaveActionProps",
			"objdata": {
				"Add": [
					{
						"MaxCount": 10,
						"MaxWeightFactor": 0,
						"Type": "RTID(repeater@PlantTypes)",
						"Weight": 60
					}
				],
				"Remove": [
					{
						"Type": "RTID(peapod@PlantTypes)"
					}
				]
			}
		},
		{
			"aliases": [
				"Wave3ModConveyor0"
			],
			"objclass": "ModifyConveyorWaveActionProps",
			"objdata": {
				"Add": [],
				"Remove": [
					{
						"Type": "RTID(melonpult@PlantTypes)"
					}
				]
			}
		}
	],
	"version": 1
}