{
	"#comment": "Egypt 7",
	"objects": [
		{
			"objclass": "LevelDefinition",
			"objdata": {
				"Description": "[PLAYERS_TRIP_TO_EGYPT]",
				"LevelNumber": 10,
				"Loot": "RTID(DefaultLoot@LevelModules)",
				"Modules": [
					"RTID(StandardIntro@LevelModules)",
					"RTID(EgyptMowers@LevelModules)",
					"RTID(NewWaves@CurrentLevel)",
					"RTID(DefaultSunDropper@LevelModules)",
					"RTID(DefaultZombieWinCondition@LevelModules)",
					"RTID(Gravestones@CurrentLevel)",
					"RTID(EgyptSeedBank@CurrentLevel)",
					"RTID(ZombiesDeadWinCon@LevelModules)"
				],
				"Name": "[EGYPT_LEVEL_NAME]",
				"NormalPresentTable": "egypt_normal_01",
				"ShinyPresentTable": "egypt_shiny_01",
				"StageModule": "RTID(EgyptStage@LevelModules)"
			}
		},
		{
			"aliases": [
				"Gravestones"
			],
			"objclass": "GravestoneProperties",
			"objdata": {
				"ForceSpawnData": [
					{
						"GridX": 7,
						"GridY": 0
					},
					{
						"GridX": 8,
						"GridY": 0
					},
					{
						"GridX": 4,
						"GridY": 1
					},
					{
						"GridX": 5,
						"GridY": 1
					},
					{
						"GridX": 7,
						"GridY": 2
					},
					{
						"GridX": 3,
						"GridY": 2
					},
					{
						"GridX": 4,
						"GridY": 4
					},
					{
						"GridX": 6,
						"GridY": 4
					}
				]
			}
		},
		{
			"aliases": [
				"WaveManagerProps"
			],
			"objclass": "WaveManagerProperties",
			"objdata": {
				"FlagWaveInterval": 8,
				"WaveCount": 16,
				"Waves": [
					[
						"RTID(Wave1@CurrentLevel)"
					],
					[
						"RTID(Wave2@CurrentLevel)"
					],
					[
						"RTID(Wave3@CurrentLevel)"
					],
					[
						"RTID(Wave4@CurrentLevel)"
					],
					[
						"RTID(Wave5@CurrentLevel)"
					],
					[
						"RTID(Wave6@CurrentLevel)"
					],
					[
						"RTID(Wave7@CurrentLevel)"
					],
					[
						"RTID(Wave8@CurrentLevel)",
						"RTID(Wave8SandstormEvent0@CurrentLevel)"
					],
					[
						"RTID(Wave9@CurrentLevel)"
					],
					[
						"RTID(Wave10@CurrentLevel)"
					],
					[
						"RTID(Wave11@CurrentLevel)"
					],
					[
						"RTID(Wave12@CurrentLevel)",
						"RTID(Wave12SandstormEvent0@CurrentLevel)"
					],
					[
						"RTID(Wave13@CurrentLevel)"
					],
					[
						"RTID(Wave14@CurrentLevel)"
					],
					[
						"RTID(Wave15@CurrentLevel)"
					],
					[
						"RTID(Wave16@CurrentLevel)",
						"RTID(Wave16SandstormEvent0@CurrentLevel)"
					]
				]
			}
		},
		{
			"aliases": [
				"NewWaves"
			],
			"objclass": "WaveManagerModuleProperties",
			"objdata": {
				"DynamicZombies": [
					{
						"PointIncrementPerWave": -40,
						"StartingPoints": -100,
						"StartingWave": 3,
						"ZombiePool": [
							"RTID(camel_onehump@ZombieTypes)",
							"RTID(camel_twohump@ZombieTypes)",
							"RTID(mummy@ZombieTypes)",
							"RTID(mummy_armor1@ZombieTypes)",
							"RTID(mummy_armor2@ZombieTypes)",
							"RTID(ra@ZombieTypes)"
						]
					},
					{
						"PointIncrementPerWave": -25,
						"StartingPoints": -100,
						"StartingWave": 4,
						"ZombiePool": [
							"RTID(camel_onehump@ZombieTypes)",
							"RTID(camel_twohump@ZombieTypes)",
							"RTID(mummy@ZombieTypes)",
							"RTID(mummy_armor1@ZombieTypes)",
							"RTID(mummy_armor2@ZombieTypes)",
							"RTID(ra@ZombieTypes)"
						]
					},
					{
						"PointIncrementPerWave": -10,
						"StartingPoints": -100,
						"StartingWave": 5,
						"ZombiePool": [
							"RTID(camel_onehump@ZombieTypes)",
							"RTID(camel_twohump@ZombieTypes)",
							"RTID(mummy@ZombieTypes)",
							"RTID(mummy_armor1@ZombieTypes)",
							"RTID(mummy_armor2@ZombieTypes)",
							"RTID(ra@ZombieTypes)"
						]
					},
					{},
					{
						"PointIncrementPerWave": 20,
						"StartingPoints": 100,
						"StartingWave": 5,
						"ZombiePool": [
							"RTID(camel_onehump@ZombieTypes)",
							"RTID(camel_twohump@ZombieTypes)",
							"RTID(mummy@ZombieTypes)",
							"RTID(mummy_armor1@ZombieTypes)",
							"RTID(mummy_armor2@ZombieTypes)",
							"RTID(ra@ZombieTypes)"
						]
					},
					{
						"PointIncrementPerWave": 40,
						"StartingPoints": 200,
						"StartingWave": 4,
						"ZombiePool": [
							"RTID(camel_onehump@ZombieTypes)",
							"RTID(camel_twohump@ZombieTypes)",
							"RTID(mummy_armor1@ZombieTypes)",
							"RTID(mummy_armor2@ZombieTypes)",
							"RTID(ra@ZombieTypes)"
						]
					},
					{
						"PointIncrementPerWave": 60,
						"StartingPoints": 400,
						"StartingWave": 3,
						"ZombiePool": [
							"RTID(camel_onehump@ZombieTypes)",
							"RTID(camel_twohump@ZombieTypes)",
							"RTID(mummy_armor2@ZombieTypes)",
							"RTID(ra@ZombieTypes)"
						]
					}
				],
				"WaveManagerProps": "RTID(WaveManagerProps@CurrentLevel)"
			}
		},
		{
			"aliases": [
				"Wave1"
			],
			"objclass": "SpawnZombiesJitteredWaveActionProps",
			"objdata": {
				"Zombies": [
					{
						"Type": "RTID(mummy@ZombieTypes)"
					}
				]
			}
		},
		{
			"aliases": [
				"Wave2"
			],
			"objclass": "SpawnZombiesJitteredWaveActionProps",
			"objdata": {
				"Zombies": [
					{
						"Type": "RTID(mummy@ZombieTypes)"
					}
				]
			}
		},
		{
			"aliases": [
				"Wave3"
			],
			"objclass": "SpawnZombiesJitteredWaveActionProps",
			"objdata": {
				"AdditionalPlantfood": 1,
				"DynamicPlantfood": [
					1,
					1,
					1,
					1,
					1,
					1,
					0
				],
				"Zombies": [
					{
						"Type": "RTID(mummy@ZombieTypes)"
					},
					{
						"Type": "RTID(ra@ZombieTypes)"
					}
				]
			}
		},
		{
			"aliases": [
				"Wave4"
			],
			"objclass": "SpawnZombiesJitteredWaveActionProps",
			"objdata": {
				"Zombies": [
					{
						"Type": "RTID(mummy_armor1@ZombieTypes)"
					},
					{
						"Type": "RTID(mummy@ZombieTypes)"
					}
				]
			}
		},
		{
			"aliases": [
				"Wave5"
			],
			"objclass": "SpawnZombiesJitteredWaveActionProps",
			"objdata": {
				"Zombies": [
					{
						"Row": "1",
						"Type": "RTID(camel_onehump@ZombieTypes)"
					}
				]
			}
		},
		{
			"aliases": [
				"Wave6"
			],
			"objclass": "SpawnZombiesJitteredWaveActionProps",
			"objdata": {
				"AdditionalPlantfood": 1,
				"DynamicPlantfood": [
					1,
					1,
					1,
					1,
					1,
					0,
					1
				],
				"Zombies": [
					{
						"Type": "RTID(mummy@ZombieTypes)"
					},
					{
						"Type": "RTID(mummy@ZombieTypes)"
					},
					{
						"Type": "RTID(ra@ZombieTypes)"
					}
				]
			}
		},
		{
			"aliases": [
				"Wave7"
			],
			"objclass": "SpawnZombiesJitteredWaveActionProps",
			"objdata": {
				"Zombies": [
					{
						"Row": "4",
						"Type": "RTID(tomb_raiser@ZombieTypes)"
					}
				]
			}
		},
		{
			"aliases": [
				"Wave8"
			],
			"objclass": "SpawnZombiesJitteredWaveActionProps",
			"objdata": {
				"Zombies": [
					{
						"Type": "RTID(ra@ZombieTypes)"
					},
					{
						"Type": "RTID(camel_twohump@ZombieTypes)"
					},
					{
						"Type": "RTID(mummy_armor1@ZombieTypes)"
					}
				]
			}
		},
		{
			"aliases": [
				"Wave9"
			],
			"objclass": "SpawnZombiesJitteredWaveActionProps",
			"objdata": {
				"AdditionalPlantfood": 1,
				"DynamicPlantfood": [
					1,
					1,
					1,
					1,
					0,
					1,
					0
				],
				"Zombies": [
					{
						"Type": "RTID(mummy_armor1@ZombieTypes)"
					},
					{
						"Type": "RTID(ra@ZombieTypes)"
					},
					{
						"Type": "RTID(mummy@ZombieTypes)"
					},
					{
						"Type": "RTID(mummy@ZombieTypes)"
					}
				]
			}
		},
		{
			"aliases": [
				"Wave10"
			],
			"objclass": "SpawnZombiesJitteredWaveActionProps",
			"objdata": {
				"Zombies": [
					{
						"Type": "RTID(mummy@ZombieTypes)"
					},
					{
						"Row": "2",
						"Type": "RTID(tomb_raiser@ZombieTypes)"
					},
					{
						"Type": "RTID(ra@ZombieTypes)"
					}
				]
			}
		},
		{
			"aliases": [
				"Wave11"
			],
			"objclass": "SpawnZombiesJitteredWaveActionProps",
			"objdata": {
				"Zombies": [
					{
						"Type": "RTID(camel_twohump@ZombieTypes)"
					},
					{
						"Type": "RTID(camel_twohump@ZombieTypes)"
					}
				]
			}
		},
		{
			"aliases": [
				"Wave12"
			],
			"objclass": "SpawnZombiesJitteredWaveActionProps",
			"objdata": {
				"AdditionalPlantfood": 1,
				"DynamicPlantfood": [
					1,
					1,
					1,
					1,
					1,
					0,
					1
				],
				"Zombies": [
					{
						"Type": "RTID(mummy_armor1@ZombieTypes)"
					}
				]
			}
		},
		{
			"aliases": [
				"Wave13"
			],
			"objclass": "SpawnZombiesJitteredWaveActionProps",
			"objdata": {
				"AdditionalPlantfood": 0,
				"Zombies": [
					{
						"Row": "5",
						"Type": "RTID(tomb_raiser@ZombieTypes)"
					},
					{
						"Type": "RTID(ra@ZombieTypes)"
					},
					{
						"Type": "RTID(mummy_armor1@ZombieTypes)"
					}
				]
			}
		},
		{
			"aliases": [
				"Wave14"
			],
			"objclass": "SpawnZombiesJitteredWaveActionProps",
			"objdata": {
				"Zombies": [
					{
						"Type": "RTID(mummy_armor2@ZombieTypes)"
					},
					{
						"Type": "RTID(mummy@ZombieTypes)"
					},
					{
						"Type": "RTID(mummy_armor1@ZombieTypes)"
					}
				]
			}
		},
		{
			"aliases": [
				"Wave15"
			],
			"objclass": "SpawnZombiesJitteredWaveActionProps",
			"objdata": {
				"AdditionalPlantfood": 1,
				"DynamicPlantfood": [
					1,
					1,
					1,
					1,
					1,
					1,
					0
				],
				"Zombies": [
					{
						"Type": "RTID(mummy_armor1@ZombieTypes)"
					},
					{
						"Type": "RTID(mummy@ZombieTypes)"
					},
					{
						"Type": "RTID(tomb_raiser@ZombieTypes)"
					},
					{
						"Type": "RTID(mummy@ZombieTypes)"
					},
					{
						"Type": "RTID(ra@ZombieTypes)"
					}
				]
			}
		},
		{
			"aliases": [
				"Wave16"
			],
			"objclass": "SpawnZombiesJitteredWaveActionProps",
			"objdata": {
				"Zombies": [
					{
						"Row": "1",
						"Type": "RTID(tomb_raiser@ZombieTypes)"
					},
					{
						"Type": "RTID(camel_twohump@ZombieTypes)"
					},
					{
						"Row": "2",
						"Type": "RTID(mummy_armor1@ZombieTypes)"
					},
					{
						"Row": "3",
						"Type": "RTID(camel_twohump@ZombieTypes)"
					},
					{
						"Row": "4",
						"Type": "RTID(mummy_armor1@ZombieTypes)"
					},
					{
						"Row": "5",
						"Type": "RTID(tomb_raiser@ZombieTypes)"
					}
				]
			}
		},
		{
			"aliases": [
				"EgyptSeedBank"
			],
			"objclass": "SeedBankProperties",
			"objdata": {
				"SelectionMethod": "chooser"
			}
		},
		{
			"aliases": [
				"Wave8SandstormEvent0"
			],
			"objclass": "StormZombieSpawnerProps",
			"objdata": {
				"ColumnEnd": 9,
				"ColumnStart": 6,
				"GroupSize": 2,
				"TimeBetweenGroups": 2,
				"Waves": "",
				"Type": "sandstorm",
				"Zombies": [
					{
						"Type": "RTID(mummy@ZombieTypes)"
					},
					{
						"Type": "RTID(mummy@ZombieTypes)"
					},
					{
						"Type": "RTID(mummy@ZombieTypes)"
					},
					{
						"Type": "RTID(mummy@ZombieTypes)"
					}
				]
			}
		},
		{
			"aliases": [
				"Wave12SandstormEvent0"
			],
			"objclass": "StormZombieSpawnerProps",
			"objdata": {
				"ColumnEnd": 9,
				"ColumnStart": 5,
				"GroupSize": 2,
				"TimeBetweenGroups": 3,
				"Waves": "",
				"Type": "sandstorm",
				"Zombies": [
					{
						"Type": "RTID(mummy@ZombieTypes)"
					},
					{
						"Type": "RTID(mummy@ZombieTypes)"
					},
					{
						"Type": "RTID(mummy@ZombieTypes)"
					},
					{
						"Type": "RTID(mummy@ZombieTypes)"
					},
					{
						"Type": "RTID(mummy@ZombieTypes)"
					}
				]
			}
		},
		{
			"aliases": [
				"Wave16SandstormEvent0"
			],
			"objclass": "StormZombieSpawnerProps",
			"objdata": {
				"ColumnEnd": 9,
				"ColumnStart": 5,
				"GroupSize": 2,
				"TimeBetweenGroups": 3,
				"Waves": "",
				"Type": "sandstorm",
				"Zombies": [
					{
						"Type": "RTID(mummy@ZombieTypes)"
					},
					{
						"Type": "RTID(mummy@ZombieTypes)"
					},
					{
						"Type": "RTID(mummy@ZombieTypes)"
					},
					{
						"Type": "RTID(mummy@ZombieTypes)"
					},
					{
						"Type": "RTID(mummy@ZombieTypes)"
					},
					{
						"Type": "RTID(mummy@ZombieTypes)"
					}
				]
			}
		}
	],
	"version": 1
}