{
	"#comment": "Egypt 31",
	"objects": [
		{
			"objclass": "LevelDefinition",
			"objdata": {
				"Description": "[EPIC_QUEST_EGYPT_NEW_TITLE]",
				"FirstIntroNarrative": "EGYPT_31_INTRO",
				"LevelNumber": 6,
				"Loot": "RTID(DefaultLoot@LevelModules)",
				"Modules": [
					"RTID(StandardIntro@LevelModules)",
					"RTID(NewWaves@CurrentLevel)",
					"RTID(DefaultSunDropper@LevelModules)",
					"RTID(DefaultZombieWinCondition@LevelModules)",
					"RTID(Gravestones@CurrentLevel)",
					"RTID(EgyptSeedBank@CurrentLevel)",
					"RTID(ZombiesDeadWinCon@LevelModules)"
				],
				"Name": "[EPIC_QUEST_EGYPT_NEW_TITLE]",
				"NormalPresentTable": "egypt_normal_01",
				"ShinyPresentTable": "egypt_shiny_01",
				"ForceToWorldMap": true,
				"RepeatPlayForceToWorldMap": true,
				"StageModule": "RTID(EgyptStage@LevelModules)"
			}
		},
		{
			"aliases": [
				"Gravestones"
			],
			"objclass": "GravestoneProperties",
			"objdata": {
				"ForceSpawnData": [
					{
						"GridX": 7,
						"GridY": 0
					},
					{
						"GridX": 1,
						"GridY": 0
					},
					{
						"GridX": 0,
						"GridY": 1
					},
					{
						"GridX": 8,
						"GridY": 1
					},
					{
						"GridX": 2,
						"GridY": 1
					},
					{
						"GridX": 6,
						"GridY": 1
					},
					{
						"GridX": 7,
						"GridY": 2
					},
					{
						"GridX": 1,
						"GridY": 2
					},
					{
						"GridX": 4,
						"GridY": 2
					},
					{
						"GridX": 0,
						"GridY": 3
					},
					{
						"GridX": 8,
						"GridY": 3
					},
					{
						"GridX": 2,
						"GridY": 3
					},
					{
						"GridX": 6,
						"GridY": 3
					},
					{
						"GridX": 7,
						"GridY": 4
					},
					{
						"GridX": 1,
						"GridY": 4
					}
				]
			}
		},
		{
			"aliases": [
				"WaveManagerProps"
			],
			"objclass": "WaveManagerProperties",
			"objdata": {
				"FlagWaveInterval": 2,
				"FlagWaveVeteranOverrideTypes": [
					1,
					1,
					1,
					1
				],
				"SuppressFlagZombie": false,
				"WaveCount": 8,
				"WaveSpendingPointIncrement": 200,
				"WaveSpendingPoints": 300,
				"Waves": [
					[
						"RTID(Wave1@CurrentLevel)"
					],
					[
						"RTID(Wave2@CurrentLevel)"
					],
					[
						"RTID(Wave3@CurrentLevel)",
						"RTID(Wave3StormEvent0@CurrentLevel)"
					],
					[
						"RTID(Wave4@CurrentLevel)"
					],
					[
						"RTID(Wave5@CurrentLevel)",
						"RTID(Wave5StormEvent0@CurrentLevel)"
					],
					[
						"RTID(Wave6@CurrentLevel)"
					],
					[
						"RTID(Wave7@CurrentLevel)",
						"RTID(Wave7StormEvent0@CurrentLevel)"
					],
					[
						"RTID(Wave8@CurrentLevel)"
					]
				]
			}
		},
		{
			"aliases": [
				"NewWaves"
			],
			"objclass": "WaveManagerModuleProperties",
			"objdata": {
				"DynamicZombies": [
					{
						"PointIncrementPerWave": -10,
						"StartingPoints": -100,
						"StartingWave": 3,
						"ZombiePool": [
							"RTID(mummy@ZombieTypes)",
							"RTID(mummy_armor1@ZombieTypes)",
							"RTID(mummy_armor2@ZombieTypes)",
							"RTID(ra@ZombieTypes)",
							"RTID(tomb_raiser@ZombieTypes)"
						]
					},
					{
						"PointIncrementPerWave": -10,
						"StartingPoints": -50,
						"StartingWave": 4,
						"ZombiePool": [
							"RTID(mummy@ZombieTypes)",
							"RTID(mummy_armor1@ZombieTypes)",
							"RTID(mummy_armor2@ZombieTypes)",
							"RTID(ra@ZombieTypes)",
							"RTID(tomb_raiser@ZombieTypes)"
						]
					},
					{
						"PointIncrementPerWave": -10,
						"StartingPoints": -1,
						"StartingWave": 5,
						"ZombiePool": [
							"RTID(mummy@ZombieTypes)",
							"RTID(mummy_armor1@ZombieTypes)",
							"RTID(mummy_armor2@ZombieTypes)",
							"RTID(ra@ZombieTypes)",
							"RTID(tomb_raiser@ZombieTypes)"
						]
					},
					{},
					{
						"PointIncrementPerWave": 20,
						"StartingPoints": 200,
						"StartingWave": 5,
						"ZombiePool": [
							"RTID(mummy@ZombieTypes)",
							"RTID(mummy_armor1@ZombieTypes)",
							"RTID(mummy_armor2@ZombieTypes)",
							"RTID(ra@ZombieTypes)",
							"RTID(tomb_raiser@ZombieTypes)"
						]
					},
					{
						"PointIncrementPerWave": 40,
						"StartingPoints": 300,
						"StartingWave": 4,
						"ZombiePool": [
							"RTID(mummy_armor1@ZombieTypes)",
							"RTID(mummy_armor2@ZombieTypes)",
							"RTID(ra@ZombieTypes)",
							"RTID(tomb_raiser@ZombieTypes)"
						]
					},
					{
						"PointIncrementPerWave": 60,
						"StartingPoints": 500,
						"StartingWave": 3,
						"ZombiePool": [
							"RTID(mummy_armor2@ZombieTypes)",
							"RTID(ra@ZombieTypes)",
							"RTID(tomb_raiser@ZombieTypes)"
						]
					}
				],
				"WaveManagerProps": "RTID(WaveManagerProps@CurrentLevel)"
			}
		},
		{
			"aliases": [
				"Wave1"
			],
			"objclass": "SpawnZombiesJitteredWaveActionProps",
			"objdata": {
				"AdditionalPlantfood": 1,
				"Zombies": [
					{
						"Row": "5",
						"Type": "RTID(ra@ZombieTypes)"
					},
					{
						"Row": "1",
						"Type": "RTID(mummy_armor1@ZombieTypes)"
					}
				]
			}
		},
		{
			"aliases": [
				"Wave2"
			],
			"objclass": "SpawnZombiesJitteredWaveActionProps",
			"objdata": {
				"Zombies": [
					{
						"Type": "RTID(ra@ZombieTypes)"
					},
					{
						"Type": "RTID(tomb_raiser@ZombieTypes)"
					},
					{
						"Type": "RTID(mummy_armor2@ZombieTypes)"
					},
					{
						"Type": "RTID(tomb_raiser@ZombieTypes)"
					}
				]
			}
		},
		{
			"aliases": [
				"Wave3"
			],
			"objclass": "SpawnZombiesJitteredWaveActionProps",
			"objdata": {
				"AdditionalPlantfood": 0,
				"DynamicPlantfood": [
					1,
					1,
					0,
					0,
					0,
					0,
					0
				],
				"Zombies": []
			}
		},
		{
			"aliases": [
				"Wave4"
			],
			"objclass": "SpawnZombiesJitteredWaveActionProps",
			"objdata": {
				"Zombies": [
					{
						"Row": "2",
						"Type": "RTID(egypt_gargantuar@ZombieTypes)"
					},
					{
						"Row": "4",
						"Type": "RTID(tomb_raiser@ZombieTypes)"
					}
				]
			}
		},
		{
			"aliases": [
				"Wave5"
			],
			"objclass": "SpawnZombiesJitteredWaveActionProps",
			"objdata": {
				"AdditionalPlantfood": 1,
				"Zombies": [
					{
						"Type": "RTID(ra@ZombieTypes)"
					}
				]
			}
		},
		{
			"aliases": [
				"Wave6"
			],
			"objclass": "SpawnZombiesJitteredWaveActionProps",
			"objdata": {
				"AdditionalPlantfood": 0,
				"Zombies": [
					{
						"Row": "4",
						"Type": "RTID(egypt_gargantuar@ZombieTypes)"
					},
					{
						"Row": "2",
						"Type": "RTID(egypt_gargantuar@ZombieTypes)"
					}
				]
			}
		},
		{
			"aliases": [
				"Wave7"
			],
			"objclass": "SpawnZombiesJitteredWaveActionProps",
			"objdata": {
				"AdditionalPlantfood": 1,
				"Zombies": [
					{
						"Row": "5",
						"Type": "RTID(tomb_raiser@ZombieTypes)"
					},
					{
						"Row": "4",
						"Type": "RTID(tomb_raiser@ZombieTypes)"
					},
					{
						"Row": "3",
						"Type": "RTID(tomb_raiser@ZombieTypes)"
					},
					{
						"Row": "2",
						"Type": "RTID(tomb_raiser@ZombieTypes)"
					},
					{
						"Row": "1",
						"Type": "RTID(tomb_raiser@ZombieTypes)"
					}
				]
			}
		},
		{
			"aliases": [
				"Wave8"
			],
			"objclass": "SpawnZombiesJitteredWaveActionProps",
			"objdata": {
				"Zombies": [
					{
						"Type": "RTID(mummy_armor1@ZombieTypes)"
					},
					{
						"Row": "5",
						"Type": "RTID(egypt_gargantuar@ZombieTypes)"
					},
					{
						"Row": "3",
						"Type": "RTID(egypt_gargantuar@ZombieTypes)"
					},
					{
						"Row": "1",
						"Type": "RTID(egypt_gargantuar@ZombieTypes)"
					}
				]
			}
		},
		{
			"aliases": [
				"EgyptSeedBank"
			],
			"objclass": "SeedBankProperties",
			"objdata": {
				"SelectionMethod": "chooser"
			}
		},
		{
			"aliases": [
				"Wave3StormEvent0"
			],
			"objclass": "StormZombieSpawnerProps",
			"objdata": {
				"ColumnEnd": 5,
				"ColumnStart": 3,
				"GroupSize": "2",
				"TimeBetweenGroups": "3",
				"Type": "sandstorm",
				"Zombies": [
					{
						"Type": "RTID(mummy_armor1@ZombieTypes)"
					},
					{
						"Type": "RTID(ra@ZombieTypes)"
					},
					{
						"Type": "RTID(tomb_raiser@ZombieTypes)"
					},
					{
						"Type": "RTID(ra@ZombieTypes)"
					}
				]
			}
		},
		{
			"aliases": [
				"Wave5StormEvent0"
			],
			"objclass": "StormZombieSpawnerProps",
			"objdata": {
				"ColumnEnd": 5,
				"ColumnStart": 3,
				"GroupSize": "2",
				"TimeBetweenGroups": "3",
				"Type": "sandstorm",
				"Zombies": [
					{
						"Type": "RTID(mummy_armor1@ZombieTypes)"
					},
					{
						"Type": "RTID(tomb_raiser@ZombieTypes)"
					},
					{
						"Type": "RTID(mummy_armor2@ZombieTypes)"
					},
					{
						"Type": "RTID(ra@ZombieTypes)"
					}
				]
			}
		},
		{
			"aliases": [
				"Wave7StormEvent0"
			],
			"objclass": "StormZombieSpawnerProps",
			"objdata": {
				"ColumnEnd": 3,
				"ColumnStart": 2,
				"GroupSize": "2",
				"TimeBetweenGroups": "3",
				"Type": "sandstorm",
				"Zombies": [
					{
						"Type": "RTID(mummy_armor1@ZombieTypes)"
					},
					{
						"Type": "RTID(mummy_armor1@ZombieTypes)"
					}
				]
			}
		}
	],
	"version": 1
}