{
	"#comment": "Missile-toe LOD 307",
	"objects": [
		{
			"objclass": "LevelDefinition",
			"objdata": {
				"Description": "[PLAYERS_TRIP_TO_LOD]",
				"DraperPromo": "missiletoe",
				"FirstIntroNarrative": "MISSILETOE_LOD",
				"IsLevelOfTheDay": true,
				"Loot": "RTID(DefaultLoot@LevelModules)",
				"Modules": [
					"RTID(LevelOfTheDayIntro@LevelModules)",
					"RTID(LevelOfTheDayModule@CurrentLevel)",
					"RTID(FrontLawnMowers@LevelModules)",
					"RTID(NewWaves@CurrentLevel)",
					"RTID(DefaultZombieWinCondition@LevelModules)",
					"RTID(Gravestones@CurrentLevel)",
					"RTID(ConveyorBelt@CurrentLevel)",
					"RTID(ZombiesDeadWinCon@LevelModules)"
				],
				"Name": "[LOD_LEVEL_NAME]",
				"NormalPresentTable": "egypt_normal_01",
				"ShinyPresentTable": "egypt_shiny_01",
				"StageModule": "RTID(FrontLawnStage@LevelModules)",
				"VictoryModule": "RTID(LevelOfTheDayOutro@LevelModules)"
			}
		},
		{
			"aliases": [
				"WaveManagerProps"
			],
			"objclass": "WaveManagerProperties",
			"objdata": {
				"FlagWaveInterval": 3,
				"MaxNextWaveHealthPercentage": 0.9,
				"MinNextWaveHealthPercentage": 0.8,
				"WaveCount": 9,
				"WaveSpendingPointIncrement": 300,
				"WaveSpendingPoints": 200,
				"Waves": [
					[
						"RTID(Wave1@CurrentLevel)"
					],
					[
						"RTID(Wave2@CurrentLevel)"
					],
					[
						"RTID(Wave3@CurrentLevel)"
					],
					[
						"RTID(Wave4@CurrentLevel)",
						"RTID(Wave4StormEvent0@CurrentLevel)"
					],
					[
						"RTID(Wave5@CurrentLevel)",
						"RTID(Wave5StormEvent0@CurrentLevel)"
					],
					[
						"RTID(Wave6@CurrentLevel)"
					],
					[
						"RTID(Wave7@CurrentLevel)"
					],
					[
						"RTID(Wave8@CurrentLevel)",
						"RTID(Wave8StormEvent0@CurrentLevel)"
					],
					[
						"RTID(Wave9@CurrentLevel)"
					]
				]
			}
		},
		{
			"aliases": [
				"Wave1"
			],
			"objclass": "SpawnZombiesJitteredWaveActionProps",
			"objdata": {
				"Zombies": [
					{
						"Type": "RTID(tutorial@ZombieTypes)"
					}
				]
			}
		},
		{
			"aliases": [
				"Wave2"
			],
			"objclass": "SpawnZombiesJitteredWaveActionProps",
			"objdata": {
				"AdditionalPlantfood": 1,
				"Zombies": [
					{
						"Type": "RTID(tutorial_armor1@ZombieTypes)"
					},
					{
						"Type": "RTID(poncho@ZombieTypes)"
					}
				]
			}
		},
		{
			"aliases": [
				"Wave3"
			],
			"objclass": "SpawnZombiesJitteredWaveActionProps",
			"objdata": {
				"Zombies": [
					{
						"Type": "RTID(tutorial_armor2@ZombieTypes)"
					},
					{
						"Type": "RTID(poncho@ZombieTypes)"
					},
					{
						"Row": "3",
						"Type": "RTID(piano@ZombieTypes)"
					}
				]
			}
		},
		{
			"aliases": [
				"Wave4"
			],
			"objclass": "SpawnZombiesJitteredWaveActionProps",
			"objdata": {
				"Zombies": [
					{
						"Type": "RTID(tomb_raiser@ZombieTypes)"
					}
				]
			}
		},
		{
			"aliases": [
				"Wave5"
			],
			"objclass": "SpawnZombiesJitteredWaveActionProps",
			"objdata": {
				"AdditionalPlantfood": 1,
				"Zombies": [
					{
						"Type": "RTID(pirate_captain@ZombieTypes)"
					}
				]
			}
		},
		{
			"aliases": [
				"Wave6"
			],
			"objclass": "SpawnZombiesJitteredWaveActionProps",
			"objdata": {
				"Zombies": [
					{
						"Type": "RTID(beach_octopus@ZombieTypes)"
					},
					{
						"Row": "5",
						"Type": "RTID(piano@ZombieTypes)"
					},
					{
						"Row": "4",
						"Type": "RTID(piano@ZombieTypes)"
					},
					{
						"Row": "3",
						"Type": "RTID(piano@ZombieTypes)"
					},
					{
						"Row": "2",
						"Type": "RTID(piano@ZombieTypes)"
					},
					{
						"Row": "1",
						"Type": "RTID(piano@ZombieTypes)"
					},
					{
						"Type": "RTID(beach_octopus@ZombieTypes)"
					}
				]
			}
		},
		{
			"aliases": [
				"Wave7"
			],
			"objclass": "SpawnZombiesJitteredWaveActionProps",
			"objdata": {
				"AdditionalPlantfood": 1,
				"Zombies": [
					{
						"Type": "RTID(pirate_captain@ZombieTypes)"
					},
					{
						"Row": "5",
						"Type": "RTID(poncho@ZombieTypes)"
					},
					{
						"Row": "3",
						"Type": "RTID(poncho@ZombieTypes)"
					},
					{
						"Row": "1",
						"Type": "RTID(poncho@ZombieTypes)"
					},
					{
						"Type": "RTID(beach_octopus@ZombieTypes)"
					}
				]
			}
		},
		{
			"aliases": [
				"Wave8"
			],
			"objclass": "SpawnZombiesJitteredWaveActionProps",
			"objdata": {
				"Zombies": [
					{
						"Type": "RTID(beach_octopus@ZombieTypes)"
					},
					{
						"Row": "1",
						"Type": "RTID(beach_octopus@ZombieTypes)"
					}
				]
			}
		},
		{
			"aliases": [
				"Wave9"
			],
			"objclass": "SpawnZombiesJitteredWaveActionProps",
			"objdata": {
				"Zombies": [
					{
						"Type": "RTID(poncho@ZombieTypes)"
					},
					{
						"Type": "RTID(poncho@ZombieTypes)"
					},
					{
						"Type": "RTID(poncho@ZombieTypes)"
					},
					{
						"Type": "RTID(tutorial_armor2@ZombieTypes)"
					},
					{
						"Type": "RTID(tutorial_armor2@ZombieTypes)"
					},
					{
						"Type": "RTID(pirate_captain@ZombieTypes)"
					},
					{
						"Row": "1",
						"Type": "RTID(beach_octopus@ZombieTypes)"
					},
					{
						"Row": "2",
						"Type": "RTID(beach_octopus@ZombieTypes)"
					},
					{
						"Row": "3",
						"Type": "RTID(beach_octopus@ZombieTypes)"
					},
					{
						"Row": "4",
						"Type": "RTID(beach_octopus@ZombieTypes)"
					},
					{
						"Row": "5",
						"Type": "RTID(beach_octopus@ZombieTypes)"
					},
					{
						"Row": "5",
						"Type": "RTID(piano@ZombieTypes)"
					},
					{
						"Row": "3",
						"Type": "RTID(piano@ZombieTypes)"
					},
					{
						"Row": "1",
						"Type": "RTID(piano@ZombieTypes)"
					}
				]
			}
		},
		{
			"aliases": [
				"LevelOfTheDayModule"
			],
			"objclass": "LevelOfTheDayModuleProperties",
			"objdata": {
				"FlagCount": 3,
				"PlantfoodToSpawnCount": 0,
				"PointIncrementPerWave": 300,
				"StartingPoints": 400,
				"WaveManagerProps": "RTID(WaveManagerProps@CurrentLevel)",
				"WavesPerFlag": 3,
				"ZombiePool": [
					"RTID(beach_octopus@ZombieTypes)",
					"RTID(poncho@ZombieTypes)",
					"RTID(tutorial_armor2@ZombieTypes)",
					"RTID(tomb_raiser@ZombieTypes)",
					"RTID(pirate_captain@ZombieTypes)"
				]
			}
		},
		{
			"aliases": [
				"Gravestones"
			],
			"objclass": "GravestoneProperties",
			"objdata": {
				"ForceSpawnData": [
					{
						"GridX": 0,
						"GridY": 0
					},
					{
						"GridX": 2,
						"GridY": 0
					},
					{
						"GridX": 4,
						"GridY": 0
					},
					{
						"GridX": 6,
						"GridY": 0
					},
					{
						"GridX": 1,
						"GridY": 1
					},
					{
						"GridX": 2,
						"GridY": 1
					},
					{
						"GridX": 3,
						"GridY": 1
					},
					{
						"GridX": 4,
						"GridY": 1
					},
					{
						"GridX": 5,
						"GridY": 1
					},
					{
						"GridX": 6,
						"GridY": 1
					},
					{
						"GridX": 7,
						"GridY": 1
					},
					{
						"GridX": 1,
						"GridY": 3
					},
					{
						"GridX": 2,
						"GridY": 3
					},
					{
						"GridX": 3,
						"GridY": 3
					},
					{
						"GridX": 4,
						"GridY": 3
					},
					{
						"GridX": 5,
						"GridY": 3
					},
					{
						"GridX": 6,
						"GridY": 3
					},
					{
						"GridX": 7,
						"GridY": 3
					},
					{
						"GridX": 0,
						"GridY": 4
					},
					{
						"GridX": 2,
						"GridY": 4
					},
					{
						"GridX": 4,
						"GridY": 4
					},
					{
						"GridX": 6,
						"GridY": 4
					}
				]
			}
		},
		{
			"aliases": [
				"NewWaves"
			],
			"objclass": "WaveManagerModuleProperties",
			"objdata": {}
		},
		{
			"aliases": [
				"ConveyorBelt"
			],
			"objclass": "ConveyorSeedBankProperties",
			"objdata": {
				"DropDelayConditions": [
					{
						"Delay": 3,
						"MaxPackets": 0
					},
					{
						"Delay": 6,
						"MaxPackets": 2
					},
					{
						"Delay": 9,
						"MaxPackets": 4
					},
					{
						"Delay": 12,
						"MaxPackets": 8
					}
				],
				"InitialPlantList": [
					{
						"MaxCount": 5,
						"MaxCountCooldownSeconds": 25,
						"MaxWeightFactor": 0.05,
						"PlantType": "missiletoe",
						"Weight": 30
					},
					{
						"PlantType": "xshot",
						"Weight": 15
					}
				],
				"SpeedConditions": [
					{
						"MaxPackets": 0,
						"Speed": 100
					}
				]
			}
		},
		{
			"aliases": [
				"Wave4StormEvent0"
			],
			"objclass": "StormZombieSpawnerProps",
			"objdata": {
				"ColumnEnd": 7,
				"ColumnStart": "4",
				"GroupSize": "2",
				"TimeBetweenGroups": "3",
				"Type": "snowstorm",
				"Zombies": [
					{
						"Type": "RTID(tomb_raiser@ZombieTypes)"
					},
					{
						"Type": "RTID(tutorial_armor2@ZombieTypes)"
					},
					{
						"Type": "RTID(tomb_raiser@ZombieTypes)"
					},
					{
						"Type": "RTID(tutorial_armor1@ZombieTypes)"
					}
				]
			}
		},
		{
			"aliases": [
				"Wave5StormEvent0"
			],
			"objclass": "StormZombieSpawnerProps",
			"objdata": {
				"ColumnEnd": 7,
				"ColumnStart": "4",
				"GroupSize": "2",
				"TimeBetweenGroups": "3",
				"Type": "snowstorm",
				"Zombies": [
					{
						"Type": "RTID(tomb_raiser@ZombieTypes)"
					},
					{
						"Type": "RTID(poncho@ZombieTypes)"
					},
					{
						"Type": "RTID(poncho@ZombieTypes)"
					},
					{
						"Type": "RTID(tomb_raiser@ZombieTypes)"
					}
				]
			}
		},
		{
			"aliases": [
				"Wave8StormEvent0"
			],
			"objclass": "StormZombieSpawnerProps",
			"objdata": {
				"ColumnEnd": 7,
				"ColumnStart": "4",
				"GroupSize": "2",
				"TimeBetweenGroups": "3",
				"Type": "snowstorm",
				"Zombies": [
					{
						"Type": "RTID(tutorial_armor2@ZombieTypes)"
					},
					{
						"Type": "RTID(poncho@ZombieTypes)"
					},
					{
						"Type": "RTID(tutorial_armor1@ZombieTypes)"
					},
					{
						"Type": "RTID(poncho@ZombieTypes)"
					}
				]
			}
		}
	],
	"version": 1
}