{
	"#comment": "Level Of The Day Test 1",
	"objects": [
		{
			"objclass": "LevelDefinition",
			"objdata": {
				"Description": "[PLAYERS_TRIP_TO_LOD]",
				"DraperPromo": "none",
				"IsLevelOfTheDay": true,
				"Loot": "RTID(DefaultLoot@LevelModules)",
				"Modules": [
					"RTID(LevelOfTheDayIntro@LevelModules)",
					"RTID(LevelOfTheDayModule@CurrentLevel)",
					"RTID(FrontLawnMowers@LevelModules)",
					"RTID(NewWaves@CurrentLevel)",
					"RTID(DefaultZombieWinCondition@LevelModules)",
					"RTID(Gravestones@CurrentLevel)",
					"RTID(ConveyorBelt@CurrentLevel)",
					"RTID(ZombiesDeadWinCon@LevelModules)"
				],
				"Name": "[LOD_LEVEL_NAME]",
				"NormalPresentTable": "egypt_normal_01",
				"ShinyPresentTable": "egypt_shiny_01",
				"StageModule": "RTID(DarkStage@LevelModules)",
				"VictoryModule": "RTID(LevelOfTheDayOutro@LevelModules)"
			}
		},
		{
			"aliases": [
				"WaveManagerProps"
			],
			"objclass": "WaveManagerProperties",
			"objdata": {
				"MaxNextWaveHealthPercentage": 0.9,
				"MinNextWaveHealthPercentage": 0.8,
				"WaveCount": 12,
				"Waves": [
					[
						"RTID(Wave1@CurrentLevel)",
						"RTID(Wave1GravestoneEvent0@CurrentLevel)"
					],
					[
						"RTID(Wave2@CurrentLevel)"
					],
					[
						"RTID(Wave3@CurrentLevel)"
					],
					[
						"RTID(Wave4@CurrentLevel)",
						"RTID(Wave4GravestoneEvent0@CurrentLevel)"
					],
					[
						"RTID(Wave5@CurrentLevel)"
					],
					[
						"RTID(Wave6@CurrentLevel)"
					],
					[
						"RTID(Wave7@CurrentLevel)",
						"RTID(Wave7GravestoneEvent0@CurrentLevel)"
					],
					[
						"RTID(Wave8@CurrentLevel)"
					],
					[
						"RTID(Wave9@CurrentLevel)"
					],
					[
						"RTID(Wave10@CurrentLevel)",
						"RTID(Wave10GravestoneEvent0@CurrentLevel)"
					],
					[
						"RTID(Wave11@CurrentLevel)"
					],
					[
						"RTID(Wave12@CurrentLevel)"
					]
				]
			}
		},
		{
			"aliases": [
				"Wave1"
			],
			"objclass": "SpawnZombiesJitteredWaveActionProps",
			"objdata": {
				"AdditionalPlantfood": 0,
				"Zombies": [
					{
						"Type": "RTID(explorer@ZombieTypes)"
					}
				]
			}
		},
		{
			"aliases": [
				"Wave2"
			],
			"objclass": "SpawnZombiesJitteredWaveActionProps",
			"objdata": {
				"AdditionalPlantfood": 0,
				"Zombies": [
					{
						"Type": "RTID(explorer@ZombieTypes)"
					}
				]
			}
		},
		{
			"aliases": [
				"Wave3"
			],
			"objclass": "SpawnZombiesJitteredWaveActionProps",
			"objdata": {
				"AdditionalPlantfood": 0,
				"Zombies": [
					{
						"Type": "RTID(explorer@ZombieTypes)"
					}
				]
			}
		},
		{
			"aliases": [
				"Wave4"
			],
			"objclass": "SpawnZombiesJitteredWaveActionProps",
			"objdata": {
				"AdditionalPlantfood": 0,
				"Zombies": [
					{
						"Type": "RTID(explorer@ZombieTypes)"
					}
				]
			}
		},
		{
			"aliases": [
				"Wave5"
			],
			"objclass": "SpawnZombiesJitteredWaveActionProps",
			"objdata": {
				"AdditionalPlantfood": 0,
				"Zombies": [
					{
						"Type": "RTID(explorer@ZombieTypes)"
					}
				]
			}
		},
		{
			"aliases": [
				"Wave6"
			],
			"objclass": "SpawnZombiesJitteredWaveActionProps",
			"objdata": {
				"AdditionalPlantfood": 0,
				"Zombies": [
					{
						"Type": "RTID(explorer@ZombieTypes)"
					},
					{
						"Type": "RTID(dark_gargantuar@ZombieTypes)"
					}
				]
			}
		},
		{
			"aliases": [
				"Wave7"
			],
			"objclass": "SpawnZombiesJitteredWaveActionProps",
			"objdata": {
				"AdditionalPlantfood": 0,
				"Zombies": [
					{
						"Type": "RTID(explorer@ZombieTypes)"
					}
				]
			}
		},
		{
			"aliases": [
				"Wave8"
			],
			"objclass": "SpawnZombiesJitteredWaveActionProps",
			"objdata": {
				"AdditionalPlantfood": 0,
				"Zombies": [
					{
						"Type": "RTID(explorer@ZombieTypes)"
					}
				]
			}
		},
		{
			"aliases": [
				"Wave9"
			],
			"objclass": "SpawnZombiesJitteredWaveActionProps",
			"objdata": {
				"AdditionalPlantfood": 0,
				"Zombies": [
					{
						"Type": "RTID(explorer@ZombieTypes)"
					}
				]
			}
		},
		{
			"aliases": [
				"Wave10"
			],
			"objclass": "SpawnZombiesJitteredWaveActionProps",
			"objdata": {
				"AdditionalPlantfood": 0,
				"Zombies": [
					{
						"Type": "RTID(explorer@ZombieTypes)"
					}
				]
			}
		},
		{
			"aliases": [
				"LevelOfTheDayModule"
			],
			"objclass": "LevelOfTheDayModuleProperties",
			"objdata": {
				"FlagCount": 3,
				"PlantfoodToSpawnCount": 3,
				"PointIncrementPerWave": 200,
				"StartingPoints": 200,
				"WaveManagerProps": "RTID(WaveManagerProps@CurrentLevel)",
				"WavesPerFlag": 3,
				"ZombiePool": [
					"RTID(explorer@ZombieTypes)"
				]
			}
		},
		{
			"aliases": [
				"Gravestones"
			],
			"objclass": "GravestoneProperties",
			"objdata": {
				"ForceSpawnData": [
					{
						"GridX": 8,
						"GridY": 0
					},
					{
						"GridX": 6,
						"GridY": 0
					},
					{
						"GridX": 4,
						"GridY": 0
					},
					{
						"GridX": 2,
						"GridY": 0
					},
					{
						"GridX": 0,
						"GridY": 0
					},
					{
						"GridX": 7,
						"GridY": 1
					},
					{
						"GridX": 5,
						"GridY": 1
					},
					{
						"GridX": 3,
						"GridY": 1
					},
					{
						"GridX": 1,
						"GridY": 1
					},
					{
						"GridX": 8,
						"GridY": 2
					},
					{
						"GridX": 6,
						"GridY": 2
					},
					{
						"GridX": 4,
						"GridY": 2
					},
					{
						"GridX": 2,
						"GridY": 2
					},
					{
						"GridX": 0,
						"GridY": 2
					},
					{
						"GridX": 7,
						"GridY": 3
					},
					{
						"GridX": 5,
						"GridY": 3
					},
					{
						"GridX": 3,
						"GridY": 3
					},
					{
						"GridX": 1,
						"GridY": 3
					},
					{
						"GridX": 8,
						"GridY": 4
					},
					{
						"GridX": 6,
						"GridY": 4
					},
					{
						"GridX": 4,
						"GridY": 4
					},
					{
						"GridX": 2,
						"GridY": 4
					},
					{
						"GridX": 0,
						"GridY": 4
					}
				]
			}
		},
		{
			"aliases": [
				"NewWaves"
			],
			"objclass": "WaveManagerModuleProperties",
			"objdata": {}
		},
		{
			"aliases": [
				"ConveyorBelt"
			],
			"objclass": "ConveyorSeedBankProperties",
			"objdata": {
				"DropDelayConditions": [
					{
						"Delay": 3,
						"MaxPackets": 0
					},
					{
						"Delay": 6,
						"MaxPackets": 2
					},
					{
						"Delay": 9,
						"MaxPackets": 4
					},
					{
						"Delay": 12,
						"MaxPackets": 8
					}
				],
				"InitialPlantList": [
					{
						"MaxCount": 5,
						"PlantType": "bonkchoy",
						"Weight": 5
					},
					{
						"PlantType": "iceburg",
						"Weight": 5
					},
					{
						"PlantType": "potatomine",
						"Weight": 5
					}
				],
				"SpeedConditions": [
					{
						"MaxPackets": 0,
						"Speed": 100
					}
				]
			}
		},
		{
			"aliases": [
				"Wave11"
			],
			"objclass": "SpawnZombiesJitteredWaveActionProps",
			"objdata": {
				"AdditionalPlantfood": 0,
				"Zombies": [
					{
						"Type": "RTID(dark_gargantuar@ZombieTypes)"
					},
					{
						"Type": "RTID(explorer@ZombieTypes)"
					}
				]
			}
		},
		{
			"aliases": [
				"Wave12"
			],
			"objclass": "SpawnZombiesJitteredWaveActionProps",
			"objdata": {
				"AdditionalPlantfood": 0,
				"Zombies": [
					{
						"Type": "RTID(dark_gargantuar@ZombieTypes)"
					},
					{
						"Row": "prev",
						"Type": "RTID(dark_gargantuar@ZombieTypes)"
					},
					{
						"Type": "RTID(explorer@ZombieTypes)"
					},
					{
						"Row": "prev",
						"Type": "RTID(explorer@ZombieTypes)"
					}
				]
			}
		},
		{
			"aliases": [
				"Wave7GravestoneEvent0"
			],
			"objclass": "SpawnGravestonesWaveActionProps",
			"objdata": {
				"GravestonePool": [
					{
						"Count": 0,
						"Type": "RTID(gravestone_dark@GridItemTypes)"
					},
					{
						"Count": 0,
						"Type": "RTID(gravestoneSunOnDestruction@GridItemTypes)"
					},
					{
						"Count": 1,
						"Type": "RTID(gravestonePlantfoodOnDestruction@GridItemTypes)"
					}
				],
				"SpawnEffectAnimID": "POPANIM_EFFECTS_TOMBSTONE_DARK_SPAWN_EFFECT",
				"SpawnPositionsPool": [
					{
						"mX": 0,
						"mY": 0
					},
					{
						"mX": 0,
						"mY": 1
					},
					{
						"mX": 0,
						"mY": 2
					},
					{
						"mX": 0,
						"mY": 3
					},
					{
						"mX": 0,
						"mY": 4
					},
					{
						"mX": 1,
						"mY": 0
					},
					{
						"mX": 1,
						"mY": 1
					},
					{
						"mX": 1,
						"mY": 2
					},
					{
						"mX": 1,
						"mY": 3
					},
					{
						"mX": 1,
						"mY": 4
					},
					{
						"mX": 2,
						"mY": 0
					},
					{
						"mX": 2,
						"mY": 1
					},
					{
						"mX": 2,
						"mY": 2
					},
					{
						"mX": 2,
						"mY": 3
					},
					{
						"mX": 2,
						"mY": 4
					},
					{
						"mX": 3,
						"mY": 0
					},
					{
						"mX": 3,
						"mY": 1
					},
					{
						"mX": 3,
						"mY": 2
					},
					{
						"mX": 3,
						"mY": 3
					},
					{
						"mX": 3,
						"mY": 4
					},
					{
						"mX": 4,
						"mY": 0
					},
					{
						"mX": 4,
						"mY": 1
					},
					{
						"mX": 4,
						"mY": 2
					},
					{
						"mX": 4,
						"mY": 3
					},
					{
						"mX": 4,
						"mY": 4
					},
					{
						"mX": 5,
						"mY": 0
					},
					{
						"mX": 5,
						"mY": 1
					},
					{
						"mX": 5,
						"mY": 2
					},
					{
						"mX": 5,
						"mY": 3
					},
					{
						"mX": 5,
						"mY": 4
					},
					{
						"mX": 6,
						"mY": 0
					},
					{
						"mX": 6,
						"mY": 1
					},
					{
						"mX": 6,
						"mY": 2
					},
					{
						"mX": 6,
						"mY": 3
					},
					{
						"mX": 6,
						"mY": 4
					},
					{
						"mX": 7,
						"mY": 0
					},
					{
						"mX": 7,
						"mY": 1
					},
					{
						"mX": 7,
						"mY": 2
					},
					{
						"mX": 7,
						"mY": 3
					},
					{
						"mX": 7,
						"mY": 4
					},
					{
						"mX": 8,
						"mY": 0
					},
					{
						"mX": 8,
						"mY": 1
					},
					{
						"mX": 8,
						"mY": 2
					},
					{
						"mX": 8,
						"mY": 3
					},
					{
						"mX": 8,
						"mY": 4
					}
				],
				"SpawnSoundID": "Play_Zomb_Egypt_TombRaiser_Grave_Rise"
			}
		},
		{
			"aliases": [
				"Wave1GravestoneEvent0"
			],
			"objclass": "SpawnGravestonesWaveActionProps",
			"objdata": {
				"GravestonePool": [
					{
						"Count": 0,
						"Type": "RTID(gravestone_dark@GridItemTypes)"
					},
					{
						"Count": 0,
						"Type": "RTID(gravestoneSunOnDestruction@GridItemTypes)"
					},
					{
						"Count": 1,
						"Type": "RTID(gravestonePlantfoodOnDestruction@GridItemTypes)"
					}
				],
				"SpawnEffectAnimID": "POPANIM_EFFECTS_TOMBSTONE_DARK_SPAWN_EFFECT",
				"SpawnPositionsPool": [
					{
						"mX": 0,
						"mY": 0
					},
					{
						"mX": 0,
						"mY": 1
					},
					{
						"mX": 0,
						"mY": 2
					},
					{
						"mX": 0,
						"mY": 3
					},
					{
						"mX": 0,
						"mY": 4
					},
					{
						"mX": 1,
						"mY": 0
					},
					{
						"mX": 1,
						"mY": 1
					},
					{
						"mX": 1,
						"mY": 2
					},
					{
						"mX": 1,
						"mY": 3
					},
					{
						"mX": 1,
						"mY": 4
					},
					{
						"mX": 2,
						"mY": 0
					},
					{
						"mX": 2,
						"mY": 1
					},
					{
						"mX": 2,
						"mY": 2
					},
					{
						"mX": 2,
						"mY": 3
					},
					{
						"mX": 2,
						"mY": 4
					},
					{
						"mX": 3,
						"mY": 0
					},
					{
						"mX": 3,
						"mY": 1
					},
					{
						"mX": 3,
						"mY": 2
					},
					{
						"mX": 3,
						"mY": 3
					},
					{
						"mX": 3,
						"mY": 4
					},
					{
						"mX": 4,
						"mY": 0
					},
					{
						"mX": 4,
						"mY": 1
					},
					{
						"mX": 4,
						"mY": 2
					},
					{
						"mX": 4,
						"mY": 3
					},
					{
						"mX": 4,
						"mY": 4
					},
					{
						"mX": 5,
						"mY": 0
					},
					{
						"mX": 5,
						"mY": 1
					},
					{
						"mX": 5,
						"mY": 2
					},
					{
						"mX": 5,
						"mY": 3
					},
					{
						"mX": 5,
						"mY": 4
					},
					{
						"mX": 6,
						"mY": 0
					},
					{
						"mX": 6,
						"mY": 1
					},
					{
						"mX": 6,
						"mY": 2
					},
					{
						"mX": 6,
						"mY": 3
					},
					{
						"mX": 6,
						"mY": 4
					},
					{
						"mX": 7,
						"mY": 0
					},
					{
						"mX": 7,
						"mY": 1
					},
					{
						"mX": 7,
						"mY": 2
					},
					{
						"mX": 7,
						"mY": 3
					},
					{
						"mX": 7,
						"mY": 4
					},
					{
						"mX": 8,
						"mY": 0
					},
					{
						"mX": 8,
						"mY": 1
					},
					{
						"mX": 8,
						"mY": 2
					},
					{
						"mX": 8,
						"mY": 3
					},
					{
						"mX": 8,
						"mY": 4
					}
				],
				"SpawnSoundID": "Play_Zomb_Egypt_TombRaiser_Grave_Rise"
			}
		},
		{
			"aliases": [
				"Wave4GravestoneEvent0"
			],
			"objclass": "SpawnGravestonesWaveActionProps",
			"objdata": {
				"GravestonePool": [
					{
						"Count": 0,
						"Type": "RTID(gravestone_dark@GridItemTypes)"
					},
					{
						"Count": 0,
						"Type": "RTID(gravestoneSunOnDestruction@GridItemTypes)"
					},
					{
						"Count": 1,
						"Type": "RTID(gravestonePlantfoodOnDestruction@GridItemTypes)"
					}
				],
				"SpawnEffectAnimID": "POPANIM_EFFECTS_TOMBSTONE_DARK_SPAWN_EFFECT",
				"SpawnPositionsPool": [
					{
						"mX": 0,
						"mY": 0
					},
					{
						"mX": 0,
						"mY": 1
					},
					{
						"mX": 0,
						"mY": 2
					},
					{
						"mX": 0,
						"mY": 3
					},
					{
						"mX": 0,
						"mY": 4
					},
					{
						"mX": 1,
						"mY": 0
					},
					{
						"mX": 1,
						"mY": 1
					},
					{
						"mX": 1,
						"mY": 2
					},
					{
						"mX": 1,
						"mY": 3
					},
					{
						"mX": 1,
						"mY": 4
					},
					{
						"mX": 2,
						"mY": 0
					},
					{
						"mX": 2,
						"mY": 1
					},
					{
						"mX": 2,
						"mY": 2
					},
					{
						"mX": 2,
						"mY": 3
					},
					{
						"mX": 2,
						"mY": 4
					},
					{
						"mX": 3,
						"mY": 0
					},
					{
						"mX": 3,
						"mY": 1
					},
					{
						"mX": 3,
						"mY": 2
					},
					{
						"mX": 3,
						"mY": 3
					},
					{
						"mX": 3,
						"mY": 4
					},
					{
						"mX": 4,
						"mY": 0
					},
					{
						"mX": 4,
						"mY": 1
					},
					{
						"mX": 4,
						"mY": 2
					},
					{
						"mX": 4,
						"mY": 3
					},
					{
						"mX": 4,
						"mY": 4
					},
					{
						"mX": 5,
						"mY": 0
					},
					{
						"mX": 5,
						"mY": 1
					},
					{
						"mX": 5,
						"mY": 2
					},
					{
						"mX": 5,
						"mY": 3
					},
					{
						"mX": 5,
						"mY": 4
					},
					{
						"mX": 6,
						"mY": 0
					},
					{
						"mX": 6,
						"mY": 1
					},
					{
						"mX": 6,
						"mY": 2
					},
					{
						"mX": 6,
						"mY": 3
					},
					{
						"mX": 6,
						"mY": 4
					},
					{
						"mX": 7,
						"mY": 0
					},
					{
						"mX": 7,
						"mY": 1
					},
					{
						"mX": 7,
						"mY": 2
					},
					{
						"mX": 7,
						"mY": 3
					},
					{
						"mX": 7,
						"mY": 4
					},
					{
						"mX": 8,
						"mY": 0
					},
					{
						"mX": 8,
						"mY": 1
					},
					{
						"mX": 8,
						"mY": 2
					},
					{
						"mX": 8,
						"mY": 3
					},
					{
						"mX": 8,
						"mY": 4
					}
				],
				"SpawnSoundID": "Play_Zomb_Egypt_TombRaiser_Grave_Rise"
			}
		},
		{
			"aliases": [
				"Wave10GravestoneEvent0"
			],
			"objclass": "SpawnGravestonesWaveActionProps",
			"objdata": {
				"GravestonePool": [
					{
						"Count": 0,
						"Type": "RTID(gravestone_dark@GridItemTypes)"
					},
					{
						"Count": 0,
						"Type": "RTID(gravestoneSunOnDestruction@GridItemTypes)"
					},
					{
						"Count": 1,
						"Type": "RTID(gravestonePlantfoodOnDestruction@GridItemTypes)"
					}
				],
				"SpawnEffectAnimID": "POPANIM_EFFECTS_TOMBSTONE_DARK_SPAWN_EFFECT",
				"SpawnPositionsPool": [
					{
						"mX": 0,
						"mY": 0
					},
					{
						"mX": 0,
						"mY": 1
					},
					{
						"mX": 0,
						"mY": 2
					},
					{
						"mX": 0,
						"mY": 3
					},
					{
						"mX": 0,
						"mY": 4
					},
					{
						"mX": 1,
						"mY": 0
					},
					{
						"mX": 1,
						"mY": 1
					},
					{
						"mX": 1,
						"mY": 2
					},
					{
						"mX": 1,
						"mY": 3
					},
					{
						"mX": 1,
						"mY": 4
					},
					{
						"mX": 2,
						"mY": 0
					},
					{
						"mX": 2,
						"mY": 1
					},
					{
						"mX": 2,
						"mY": 2
					},
					{
						"mX": 2,
						"mY": 3
					},
					{
						"mX": 2,
						"mY": 4
					},
					{
						"mX": 3,
						"mY": 0
					},
					{
						"mX": 3,
						"mY": 1
					},
					{
						"mX": 3,
						"mY": 2
					},
					{
						"mX": 3,
						"mY": 3
					},
					{
						"mX": 3,
						"mY": 4
					},
					{
						"mX": 4,
						"mY": 0
					},
					{
						"mX": 4,
						"mY": 1
					},
					{
						"mX": 4,
						"mY": 2
					},
					{
						"mX": 4,
						"mY": 3
					},
					{
						"mX": 4,
						"mY": 4
					},
					{
						"mX": 5,
						"mY": 0
					},
					{
						"mX": 5,
						"mY": 1
					},
					{
						"mX": 5,
						"mY": 2
					},
					{
						"mX": 5,
						"mY": 3
					},
					{
						"mX": 5,
						"mY": 4
					},
					{
						"mX": 6,
						"mY": 0
					},
					{
						"mX": 6,
						"mY": 1
					},
					{
						"mX": 6,
						"mY": 2
					},
					{
						"mX": 6,
						"mY": 3
					},
					{
						"mX": 6,
						"mY": 4
					},
					{
						"mX": 7,
						"mY": 0
					},
					{
						"mX": 7,
						"mY": 1
					},
					{
						"mX": 7,
						"mY": 2
					},
					{
						"mX": 7,
						"mY": 3
					},
					{
						"mX": 7,
						"mY": 4
					},
					{
						"mX": 8,
						"mY": 0
					},
					{
						"mX": 8,
						"mY": 1
					},
					{
						"mX": 8,
						"mY": 2
					},
					{
						"mX": 8,
						"mY": 3
					},
					{
						"mX": 8,
						"mY": 4
					}
				],
				"SpawnSoundID": "Play_Zomb_Egypt_TombRaiser_Grave_Rise"
			}
		}
	],
	"version": 1
}