{
	"#comment": "LOD 254",
	"objects": [
		{
			"objclass": "LevelDefinition",
			"objdata": {
				"Description": "[PLAYERS_TRIP_TO_LOD]",
				"IsLevelOfTheDay": true,
				"Loot": "RTID(DefaultLoot@LevelModules)",
				"Modules": [
					"RTID(LevelOfTheDayIntro@LevelModules)",
					"RTID(LevelOfTheDayModule@CurrentLevel)",
					"RTID(FrontLawnMowers@LevelModules)",
					"RTID(NewWaves@CurrentLevel)",
					"RTID(DefaultZombieWinCondition@LevelModules)",
					"RTID(Gravestones@CurrentLevel)",
					"RTID(ConveyorBelt@CurrentLevel)",
					"RTID(ZombiesDeadWinCon@LevelModules)",
					"RTID(ChallengeModule@CurrentLevel)",
					"RTID(ProtectThePlant@CurrentLevel)",
					"RTID(PlantsToDie@CurrentLevel)"
				],
				"Name": "[LOD_LEVEL_NAME]",
				"NormalPresentTable": "egypt_normal_01",
				"ShinyPresentTable": "egypt_shiny_01",
				"StageModule": "RTID(FrontLawnStage@LevelModules)",
				"VictoryModule": "RTID(LevelOfTheDayOutro@LevelModules)"
			}
		},
		{
			"aliases": [
				"PlantsToDie"
			],
			"objclass": "InitialPlantProperties",
			"objdata": {
				"InitialPlantPlacements": [
					{
						"GridX": 0,
						"GridY": 0,
						"TypeName": "wintermelon"
					},
					{
						"GridX": 0,
						"GridY": 1,
						"TypeName": "wintermelon"
					},
					{
						"GridX": 0,
						"GridY": 2,
						"TypeName": "wintermelon"
					},
					{
						"GridX": 0,
						"GridY": 3,
						"TypeName": "wintermelon"
					},
					{
						"GridX": 0,
						"GridY": 4,
						"TypeName": "wintermelon"
					}
				],
				"IsInitialIntensiveCarrotPlacements": true
			}
		},
		{
			"aliases": [
				"ChallengeModule"
			],
			"objclass": "StarChallengeModuleProperties",
			"objdata": {
				"Challenges": [
					[
						"RTID(BeatTheLevel@CurrentLevel)"
					]
				],
				"ChallengesAlwaysAvailable": true
			}
		},
		{
			"aliases": [
				"BeatTheLevel"
			],
			"objclass": "StarChallengeBeatTheLevelProps",
			"objdata": {
				"Description": "[STARCHALLENGE_PROTECT_THE_PLANT]",
				"DescriptiveName": "[STARCHALLENGE_PROTECT_THE_PLANT_NAME]"
			}
		},
		{
			"aliases": [
				"ProtectThePlant"
			],
			"objclass": "ProtectThePlantChallengeProperties",
			"objdata": {
				"MustProtectCount": 1,
				"Plants": [
					{
						"GridX": 3,
						"GridY": 2,
						"PlantType": "coconutcannon"
					}
				]
			}
		},
		{
			"aliases": [
				"LevelOfTheDayModule"
			],
			"objclass": "LevelOfTheDayModuleProperties",
			"objdata": {
				"FlagCount": 3,
				"PlantfoodToSpawnCount": 3,
				"PointIncrementPerWave": 100,
				"StartingPoints": 200,
				"WaveManagerProps": "RTID(WaveManagerProps@CurrentLevel)",
				"WavesPerFlag": 4,
				"ZombiePool": [
					"RTID(mummy_armor2@ZombieTypes)",
					"RTID(camel_onehump@ZombieTypes)",
					"RTID(mummy@ZombieTypes)",
					"RTID(lostcity_crystalskull@ZombieTypes)",
					"RTID(mummy_armor1@ZombieTypes)"
				]
			}
		},
		{
			"aliases": [
				"WaveManagerProps"
			],
			"objclass": "WaveManagerProperties",
			"objdata": {
				"MaxNextWaveHealthPercentage": 0.9,
				"MinNextWaveHealthPercentage": 0.8,
				"Waves": [
					[
						"RTID(Wave1@CurrentLevel)"
					],
					[
						"RTID(Wave2@CurrentLevel)"
					],
					[
						"RTID(Wave3@CurrentLevel)"
					],
					[
						"RTID(Wave4@CurrentLevel)",
						"RTID(Wave4ModConveyor0@CurrentLevel)"
					],
					[
						"RTID(Wave5@CurrentLevel)"
					],
					[
						"RTID(Wave6@CurrentLevel)",
						"RTID(Wave6ModConveyor0@CurrentLevel)"
					],
					[
						"RTID(Wave7@CurrentLevel)"
					],
					[
						"RTID(Wave8@CurrentLevel)"
					],
					[
						"RTID(Wave9@CurrentLevel)"
					],
					[
						"RTID(Wave10@CurrentLevel)",
						"RTID(Wave10ModConveyor0@CurrentLevel)"
					],
					[
						"RTID(Wave11@CurrentLevel)"
					],
					[
						"RTID(Wave12@CurrentLevel)"
					]
				]
			}
		},
		{
			"aliases": [
				"Wave1"
			],
			"objclass": "SpawnZombiesJitteredWaveActionProps",
			"objdata": {
				"Zombies": [
					{
						"Row": "3",
						"Type": "RTID(explorer@ZombieTypes)"
					}
				]
			}
		},
		{
			"aliases": [
				"Wave2"
			],
			"objclass": "SpawnZombiesJitteredWaveActionProps",
			"objdata": {
				"Zombies": [
					{
						"Type": "RTID(mummy@ZombieTypes)"
					}
				]
			}
		},
		{
			"aliases": [
				"Wave3"
			],
			"objclass": "SpawnZombiesJitteredWaveActionProps",
			"objdata": {
				"Zombies": [
					{
						"Type": "RTID(mummy@ZombieTypes)"
					}
				]
			}
		},
		{
			"aliases": [
				"Wave4"
			],
			"objclass": "SpawnZombiesJitteredWaveActionProps",
			"objdata": {
				"Zombies": [
					{
						"Type": "RTID(mummy@ZombieTypes)"
					},
					{
						"Row": "3",
						"Type": "RTID(lostcity_crystalskull@ZombieTypes)"
					}
				]
			}
		},
		{
			"aliases": [
				"Wave5"
			],
			"objclass": "SpawnZombiesJitteredWaveActionProps",
			"objdata": {
				"Zombies": [
					{
						"Type": "RTID(mummy_armor1@ZombieTypes)"
					},
					{
						"Type": "RTID(explorer@ZombieTypes)"
					}
				]
			}
		},
		{
			"aliases": [
				"Wave6"
			],
			"objclass": "SpawnZombiesJitteredWaveActionProps",
			"objdata": {
				"Zombies": [
					{
						"Type": "RTID(mummy_armor1@ZombieTypes)"
					},
					{
						"Type": "RTID(lostcity_crystalskull@ZombieTypes)"
					}
				]
			}
		},
		{
			"aliases": [
				"Wave7"
			],
			"objclass": "SpawnZombiesJitteredWaveActionProps",
			"objdata": {
				"Zombies": [
					{
						"Type": "RTID(mummy_armor2@ZombieTypes)"
					},
					{
						"Type": "RTID(explorer@ZombieTypes)"
					}
				]
			}
		},
		{
			"aliases": [
				"Wave8"
			],
			"objclass": "SpawnZombiesJitteredWaveActionProps",
			"objdata": {
				"Zombies": [
					{
						"Type": "RTID(mummy_armor2@ZombieTypes)"
					},
					{
						"Type": "RTID(explorer@ZombieTypes)"
					},
					{
						"Type": "RTID(explorer@ZombieTypes)"
					},
					{
						"Row": "5",
						"Type": "RTID(lostcity_crystalskull@ZombieTypes)"
					},
					{
						"Row": "2",
						"Type": "RTID(lostcity_crystalskull@ZombieTypes)"
					}
				]
			}
		},
		{
			"aliases": [
				"Wave9"
			],
			"objclass": "SpawnZombiesJitteredWaveActionProps",
			"objdata": {
				"Zombies": [
					{
						"Type": "RTID(mummy_armor2@ZombieTypes)"
					},
					{
						"Type": "RTID(explorer@ZombieTypes)"
					}
				]
			}
		},
		{
			"aliases": [
				"Wave10"
			],
			"objclass": "SpawnZombiesJitteredWaveActionProps",
			"objdata": {
				"Zombies": [
					{
						"Row": "4",
						"Type": "RTID(lostcity_crystalskull@ZombieTypes)"
					},
					{
						"Type": "RTID(explorer@ZombieTypes)"
					},
					{
						"Type": "RTID(explorer@ZombieTypes)"
					}
				]
			}
		},
		{
			"aliases": [
				"Wave11"
			],
			"objclass": "SpawnZombiesJitteredWaveActionProps",
			"objdata": {
				"Zombies": [
					{
						"Type": "RTID(explorer@ZombieTypes)"
					},
					{
						"Row": "3",
						"Type": "RTID(pharaoh@ZombieTypes)"
					}
				]
			}
		},
		{
			"aliases": [
				"Wave12"
			],
			"objclass": "SpawnZombiesJitteredWaveActionProps",
			"objdata": {
				"Zombies": [
					{
						"Type": "RTID(explorer@ZombieTypes)"
					},
					{
						"Type": "RTID(explorer@ZombieTypes)"
					},
					{
						"Type": "RTID(explorer@ZombieTypes)"
					},
					{
						"Row": "5",
						"Type": "RTID(lostcity_crystalskull@ZombieTypes)"
					},
					{
						"Row": "4",
						"Type": "RTID(pharaoh@ZombieTypes)"
					},
					{
						"Row": "3",
						"Type": "RTID(lostcity_crystalskull@ZombieTypes)"
					},
					{
						"Row": "2",
						"Type": "RTID(pharaoh@ZombieTypes)"
					},
					{
						"Row": "1",
						"Type": "RTID(lostcity_crystalskull@ZombieTypes)"
					}
				]
			}
		},
		{
			"aliases": [
				"Gravestones"
			],
			"objclass": "GravestoneProperties",
			"objdata": {
				"ForceSpawnData": [
					{
						"GridX": 0,
						"GridY": 0
					},
					{
						"GridX": 0,
						"GridY": 1
					},
					{
						"GridX": 0,
						"GridY": 2
					},
					{
						"GridX": 0,
						"GridY": 3
					},
					{
						"GridX": 0,
						"GridY": 4
					},
					{
						"GridX": 1,
						"GridY": 0
					},
					{
						"GridX": 1,
						"GridY": 1
					},
					{
						"GridX": 1,
						"GridY": 2
					},
					{
						"GridX": 1,
						"GridY": 3
					},
					{
						"GridX": 1,
						"GridY": 4
					},
					{
						"GridX": 2,
						"GridY": 0
					},
					{
						"GridX": 2,
						"GridY": 1
					},
					{
						"GridX": 2,
						"GridY": 2
					},
					{
						"GridX": 2,
						"GridY": 3
					},
					{
						"GridX": 2,
						"GridY": 4
					}
				]
			}
		},
		{
			"aliases": [
				"NewWaves"
			],
			"objclass": "WaveManagerModuleProperties",
			"objdata": {}
		},
		{
			"aliases": [
				"ConveyorBelt"
			],
			"objclass": "ConveyorSeedBankProperties",
			"objdata": {
				"DropDelayConditions": [
					{
						"Delay": 3,
						"MaxPackets": 0
					},
					{
						"Delay": 6,
						"MaxPackets": 2
					},
					{
						"Delay": 9,
						"MaxPackets": 4
					},
					{
						"Delay": 12,
						"MaxPackets": 8
					}
				],
				"InitialPlantList": [
					{
						"MaxCount": 5,
						"MaxWeightFactor": 0,
						"PlantType": "endurian",
						"Weight": 75
					},
					{
						"MaxCount": 12,
						"MaxWeightFactor": 0.5,
						"PlantType": "splitpea",
						"Weight": 100
					}
				],
				"SpeedConditions": [
					{
						"MaxPackets": 0,
						"Speed": 100
					}
				]
			}
		},
		{
			"aliases": [
				"Wave6ModConveyor0"
			],
			"objclass": "ModifyConveyorWaveActionProps",
			"objdata": {
				"Add": [
					{
						"MaxCount": 5,
						"MaxWeightFactor": 0,
						"Type": "RTID(bonkchoy@PlantTypes)",
						"Weight": 75
					}
				],
				"Remove": []
			}
		},
		{
			"aliases": [
				"Wave4ModConveyor0"
			],
			"objclass": "ModifyConveyorWaveActionProps",
			"objdata": {
				"Add": [
					{
						"MaxCount": 1,
						"MaxCountCooldownSeconds": 12,
						"MaxDelivered": 5,
						"MaxWeightFactor": 1,
						"Type": "RTID(intensivecarrot@PlantTypes)",
						"Weight": 100
					}
				],
				"Remove": []
			}
		},
		{
			"aliases": [
				"Wave10ModConveyor0"
			],
			"objclass": "ModifyConveyorWaveActionProps",
			"objdata": {
				"Add": [
					{
						"Type": "RTID(repeater@PlantTypes)",
						"Weight": 100
					}
				],
				"Remove": [
					{
						"Type": "RTID(splitpea@PlantTypes)"
					}
				]
			}
		}
	],
	"version": 1
}