{
	"#comment": "LOD template level. Delete unnecessary Modules (e.g. Challenge, Frozen)",
	"objects": [
		{
			"objclass": "LevelDefinition",
			"objdata": {
				"Description": "[PLAYERS_TRIP_TO_LOD]",
				"DraperPromo": "witchhazel",
				"IsLevelOfTheDay": true,
				"Loot": "RTID(DefaultLoot@LevelModules)",
				"Modules": [
					"RTID(LevelOfTheDayIntro@LevelModules)",
					"RTID(LevelOfTheDayModule@CurrentLevel)",
					"RTID(FrontLawnMowers@LevelModules)",
					"RTID(NewWaves@CurrentLevel)",
					"RTID(DefaultZombieWinCondition@LevelModules)",
					"RTID(Gravestones@CurrentLevel)",
					"RTID(ConveyorBelt@CurrentLevel)",
					"RTID(ZombiesDeadWinCon@LevelModules)"
				],
				"Name": "[LOD_LEVEL_NAME]",
				"NormalPresentTable": "egypt_normal_01",
				"ShinyPresentTable": "egypt_shiny_01",
				"StageModule": "RTID(FrontLawnStage@LevelModules)",
				"SuppressSunSpawn": true,
				"VictoryModule": "RTID(LevelOfTheDayOutro@LevelModules)"
			}
		},
		{
			"aliases": [
				"LevelOfTheDayModule"
			],
			"objclass": "LevelOfTheDayModuleProperties",
			"objdata": {
				"FlagCount": 3,
				"PlantfoodToSpawnCount": 3,
				"PointIncrementPerWave": 10,
				"StartingPoints": 100,
				"WaveManagerProps": "RTID(WaveManagerProps@CurrentLevel)",
				"WavesPerFlag": 4,
				"ZombiePool": [
					"RTID(mech_cone@ZombieTypes)",
					"RTID(modern_newspaper@ZombieTypes)",
					"RTID(dino_gargantuar@ZombieTypes)",
					"RTID(pirate_captain@ZombieTypes)",
					"RTID(disco_mech@ZombieTypes)",
					"RTID(modern_allstar@ZombieTypes)"
				]
			}
		},
		{
			"aliases": [
				"WaveManagerProps"
			],
			"objclass": "WaveManagerProperties",
			"objdata": {
				"FlagWaveInterval": 4,
				"LevelJam": "jam_rap",
				"WaveCount": 12,
				"WaveSpendingPointIncrement": 200,
				"WaveSpendingPoints": 200,
				"Waves": [
					[
						"RTID(Wave1@CurrentLevel)"
					],
					[
						"RTID(Wave2@CurrentLevel)"
					],
					[
						"RTID(Wave3@CurrentLevel)"
					],
					[
						"RTID(Wave4@CurrentLevel)",
						"RTID(Wave4ModConveyor0@CurrentLevel)"
					],
					[
						"RTID(Wave5@CurrentLevel)"
					],
					[
						"RTID(Wave6@CurrentLevel)",
						"RTID(Wave6DinoTimeEvent0@CurrentLevel)",
						"RTID(Wave6DinoTimeEvent1@CurrentLevel)"
					],
					[
						"RTID(Wave7@CurrentLevel)"
					],
					[
						"RTID(Wave8@CurrentLevel)"
					],
					[
						"RTID(Wave9@CurrentLevel)",
						"RTID(Wave9DinoTimeEvent0@CurrentLevel)",
						"RTID(Wave9DinoTimeEvent1@CurrentLevel)",
						"RTID(Wave9DinoTimeEvent2@CurrentLevel)"
					],
					[
						"RTID(Wave10@CurrentLevel)"
					],
					[
						"RTID(Wave11@CurrentLevel)"
					],
					[
						"RTID(Wave12@CurrentLevel)"
					]
				]
			}
		},
		{
			"aliases": [
				"Wave1"
			],
			"objclass": "SpawnZombiesJitteredWaveActionProps",
			"objdata": {
				"AdditionalPlantfood": 0,
				"Zombies": [
					{
						"Type": "RTID(modern_newspaper@ZombieTypes)"
					},
					{
						"Row": "3",
						"Type": "RTID(modern_newspaper@ZombieTypes)"
					}
				]
			}
		},
		{
			"aliases": [
				"Wave2"
			],
			"objclass": "SpawnZombiesJitteredWaveActionProps",
			"objdata": {
				"AdditionalPlantfood": 0,
				"Zombies": [
					{
						"Type": "RTID(mech_cone@ZombieTypes)"
					},
					{
						"Row": "2",
						"Type": "RTID(mech_cone@ZombieTypes)"
					},
					{
						"Row": "4",
						"Type": "RTID(mech_cone@ZombieTypes)"
					}
				]
			}
		},
		{
			"aliases": [
				"Wave3"
			],
			"objclass": "SpawnZombiesJitteredWaveActionProps",
			"objdata": {
				"AdditionalPlantfood": 0,
				"Zombies": [
					{
						"Row": "5",
						"Type": "RTID(modern_allstar@ZombieTypes)"
					},
					{
						"Row": "3",
						"Type": "RTID(modern_allstar@ZombieTypes)"
					},
					{
						"Row": "1",
						"Type": "RTID(modern_allstar@ZombieTypes)"
					}
				]
			}
		},
		{
			"aliases": [
				"Wave4"
			],
			"objclass": "SpawnZombiesJitteredWaveActionProps",
			"objdata": {
				"AdditionalPlantfood": 0,
				"Zombies": [
					{
						"Row": "3",
						"Type": "RTID(disco_mech@ZombieTypes)"
					},
					{
						"Type": "RTID(dino_gargantuar@ZombieTypes)"
					}
				]
			}
		},
		{
			"aliases": [
				"Wave5"
			],
			"objclass": "SpawnZombiesJitteredWaveActionProps",
			"objdata": {
				"AdditionalPlantfood": 0,
				"Zombies": [
					{
						"Type": "RTID(disco_mech@ZombieTypes)"
					},
					{
						"Row": "5",
						"Type": "RTID(pirate_captain@ZombieTypes)"
					},
					{
						"Row": "4",
						"Type": "RTID(pirate_captain@ZombieTypes)"
					},
					{
						"Row": "3",
						"Type": "RTID(pirate_captain@ZombieTypes)"
					},
					{
						"Row": "2",
						"Type": "RTID(pirate_captain@ZombieTypes)"
					},
					{
						"Row": "1",
						"Type": "RTID(pirate_captain@ZombieTypes)"
					},
					{
						"Type": "RTID(dino_gargantuar@ZombieTypes)"
					}
				]
			}
		},
		{
			"aliases": [
				"Wave6"
			],
			"objclass": "SpawnZombiesJitteredWaveActionProps",
			"objdata": {
				"AdditionalPlantfood": 0,
				"Zombies": [
					{
						"Type": "RTID(modern_allstar@ZombieTypes)"
					},
					{
						"Type": "RTID(modern_allstar@ZombieTypes)"
					},
					{
						"Row": "5",
						"Type": "RTID(mech_cone@ZombieTypes)"
					},
					{
						"Row": "4",
						"Type": "RTID(mech_cone@ZombieTypes)"
					},
					{
						"Row": "3",
						"Type": "RTID(mech_cone@ZombieTypes)"
					},
					{
						"Row": "2",
						"Type": "RTID(mech_cone@ZombieTypes)"
					},
					{
						"Row": "1",
						"Type": "RTID(mech_cone@ZombieTypes)"
					},
					{
						"Type": "RTID(dino_gargantuar@ZombieTypes)"
					}
				]
			}
		},
		{
			"aliases": [
				"Wave7"
			],
			"objclass": "SpawnZombiesJitteredWaveActionProps",
			"objdata": {
				"AdditionalPlantfood": 0,
				"Zombies": [
					{
						"Row": "4",
						"Type": "RTID(disco_mech@ZombieTypes)"
					},
					{
						"Row": "2",
						"Type": "RTID(disco_mech@ZombieTypes)"
					},
					{
						"Row": "1",
						"Type": "RTID(pirate_captain@ZombieTypes)"
					},
					{
						"Row": "3",
						"Type": "RTID(pirate_captain@ZombieTypes)"
					},
					{
						"Row": "5",
						"Type": "RTID(pirate_captain@ZombieTypes)"
					}
				]
			}
		},
		{
			"aliases": [
				"Wave8"
			],
			"objclass": "SpawnZombiesJitteredWaveActionProps",
			"objdata": {
				"AdditionalPlantfood": 0,
				"Zombies": [
					{
						"Type": "RTID(pirate_captain@ZombieTypes)"
					},
					{
						"Type": "RTID(modern_allstar@ZombieTypes)"
					},
					{
						"Type": "RTID(mech_cone@ZombieTypes)"
					},
					{
						"Row": "1",
						"Type": "RTID(dino_gargantuar@ZombieTypes)"
					},
					{
						"Row": "3",
						"Type": "RTID(dino_gargantuar@ZombieTypes)"
					},
					{
						"Row": "5",
						"Type": "RTID(dino_gargantuar@ZombieTypes)"
					}
				]
			}
		},
		{
			"aliases": [
				"Wave9"
			],
			"objclass": "SpawnZombiesJitteredWaveActionProps",
			"objdata": {
				"AdditionalPlantfood": 0,
				"Zombies": [
					{
						"Type": "RTID(modern_allstar@ZombieTypes)"
					},
					{
						"Type": "RTID(modern_allstar@ZombieTypes)"
					},
					{
						"Row": "5",
						"Type": "RTID(mech_cone@ZombieTypes)"
					},
					{
						"Row": "4",
						"Type": "RTID(mech_cone@ZombieTypes)"
					},
					{
						"Row": "3",
						"Type": "RTID(mech_cone@ZombieTypes)"
					},
					{
						"Row": "2",
						"Type": "RTID(mech_cone@ZombieTypes)"
					},
					{
						"Row": "1",
						"Type": "RTID(mech_cone@ZombieTypes)"
					}
				]
			}
		},
		{
			"aliases": [
				"Wave10"
			],
			"objclass": "SpawnZombiesJitteredWaveActionProps",
			"objdata": {
				"AdditionalPlantfood": 0,
				"Zombies": [
					{
						"Type": "RTID(disco_mech@ZombieTypes)"
					},
					{
						"Row": "2",
						"Type": "RTID(modern_newspaper@ZombieTypes)"
					},
					{
						"Row": "4",
						"Type": "RTID(modern_newspaper@ZombieTypes)"
					},
					{
						"Row": "5",
						"Type": "RTID(pirate_captain@ZombieTypes)"
					},
					{
						"Row": "3",
						"Type": "RTID(pirate_captain@ZombieTypes)"
					},
					{
						"Row": "1",
						"Type": "RTID(pirate_captain@ZombieTypes)"
					}
				]
			}
		},
		{
			"aliases": [
				"Wave11"
			],
			"objclass": "SpawnZombiesJitteredWaveActionProps",
			"objdata": {
				"AdditionalPlantfood": 0,
				"Zombies": [
					{
						"Row": "3",
						"Type": "RTID(modern_newspaper@ZombieTypes)"
					},
					{
						"Row": "4",
						"Type": "RTID(mech_cone@ZombieTypes)"
					},
					{
						"Row": "2",
						"Type": "RTID(mech_cone@ZombieTypes)"
					},
					{
						"Row": "5",
						"Type": "RTID(modern_newspaper@ZombieTypes)"
					},
					{
						"Row": "1",
						"Type": "RTID(modern_newspaper@ZombieTypes)"
					},
					{
						"Row": "3",
						"Type": "RTID(dino_gargantuar@ZombieTypes)"
					},
					{
						"Type": "RTID(pirate_captain@ZombieTypes)"
					},
					{
						"Type": "RTID(pirate_captain@ZombieTypes)"
					},
					{
						"Type": "RTID(pirate_captain@ZombieTypes)"
					},
					{
						"Type": "RTID(disco_mech@ZombieTypes)"
					}
				]
			}
		},
		{
			"aliases": [
				"Wave12"
			],
			"objclass": "SpawnZombiesJitteredWaveActionProps",
			"objdata": {
				"AdditionalPlantfood": 0,
				"Zombies": [
					{
						"Type": "RTID(modern_allstar@ZombieTypes)"
					},
					{
						"Type": "RTID(modern_allstar@ZombieTypes)"
					},
					{
						"Type": "RTID(modern_allstar@ZombieTypes)"
					},
					{
						"Type": "RTID(mech_cone@ZombieTypes)"
					},
					{
						"Type": "RTID(mech_cone@ZombieTypes)"
					},
					{
						"Row": "5",
						"Type": "RTID(dino_gargantuar@ZombieTypes)"
					},
					{
						"Row": "4",
						"Type": "RTID(dino_gargantuar@ZombieTypes)"
					},
					{
						"Row": "3",
						"Type": "RTID(disco_mech@ZombieTypes)"
					},
					{
						"Row": "2",
						"Type": "RTID(dino_gargantuar@ZombieTypes)"
					},
					{
						"Row": "1",
						"Type": "RTID(dino_gargantuar@ZombieTypes)"
					},
					{
						"Type": "RTID(pirate_captain@ZombieTypes)"
					},
					{
						"Type": "RTID(pirate_captain@ZombieTypes)"
					}
				]
			}
		},
		{
			"aliases": [
				"Gravestones"
			],
			"objclass": "GravestoneProperties",
			"objdata": {}
		},
		{
			"aliases": [
				"NewWaves"
			],
			"objclass": "WaveManagerModuleProperties",
			"objdata": {
				"DynamicZombies": [
					{},
					{},
					{},
					{},
					{},
					{},
					{}
				]
			}
		},
		{
			"aliases": [
				"ConveyorBelt"
			],
			"objclass": "ConveyorSeedBankProperties",
			"objdata": {
				"DropDelayConditions": [
					{
						"Delay": 3,
						"MaxPackets": 0
					},
					{
						"Delay": 6,
						"MaxPackets": 2
					},
					{
						"Delay": 9,
						"MaxPackets": 4
					},
					{
						"Delay": 12,
						"MaxPackets": 8
					}
				],
				"InitialPlantList": [
					{
						"PlantType": "powerlily",
						"Weight": 40
					},
					{
						"MaxCount": 5,
						"MaxWeightFactor": 0,
						"MinCount": 3,
						"MinWeightFactor": 12,
						"PlantType": "witchhazel",
						"Weight": 5
					}
				],
				"SpeedConditions": [
					{
						"MaxPackets": 0,
						"Speed": 100
					}
				]
			}
		},
		{
			"aliases": [
				"Wave4ModConveyor0"
			],
			"objclass": "ModifyConveyorWaveActionProps",
			"objdata": {
				"Add": [
					{
						"MaxDelivered": 4,
						"Type": "RTID(blover@PlantTypes)",
						"Weight": 4
					},
					{
						"MaxDelivered": 2,
						"Type": "RTID(powerplant@PlantTypes)",
						"Weight": 30
					}
				],
				"Remove": []
			}
		},
		{
			"aliases": [
				"Wave6DinoTimeEvent0"
			],
			"objclass": "DinoWaveActionProps",
			"objdata": {
				"DinoRow": 1,
				"DinoType": "raptor",
				"DinoWaveDuration": 6
			}
		},
		{
			"aliases": [
				"Wave6DinoTimeEvent1"
			],
			"objclass": "DinoWaveActionProps",
			"objdata": {
				"DinoRow": 3,
				"DinoType": "raptor",
				"DinoWaveDuration": 6
			}
		},
		{
			"aliases": [
				"Wave9DinoTimeEvent0"
			],
			"objclass": "DinoWaveActionProps",
			"objdata": {
				"DinoRow": 0,
				"DinoType": "raptor",
				"DinoWaveDuration": 3
			}
		},
		{
			"aliases": [
				"Wave9DinoTimeEvent1"
			],
			"objclass": "DinoWaveActionProps",
			"objdata": {
				"DinoRow": 2,
				"DinoType": "raptor",
				"DinoWaveDuration": 3
			}
		},
		{
			"aliases": [
				"Wave9DinoTimeEvent2"
			],
			"objclass": "DinoWaveActionProps",
			"objdata": {
				"DinoRow": 4,
				"DinoType": "raptor",
				"DinoWaveDuration": 3
			}
		}
	],
	"version": 1
}