{
	"#comment": "Level Of The Day Test 1",
	"objects": [
		{
			"objclass": "LevelDefinition",
			"objdata": {
				"Description": "[PLAYERS_TRIP_TO_LOD]",
				"DraperPromo": "snowpea",
				"IsLevelOfTheDay": true,
				"Loot": "RTID(DefaultLoot@LevelModules)",
				"Modules": [
					"RTID(LevelOfTheDayIntro@LevelModules)",
					"RTID(LevelOfTheDayModule@CurrentLevel)",
					"RTID(FrontLawnMowers@LevelModules)",
					"RTID(NewWaves@CurrentLevel)",
					"RTID(DefaultZombieWinCondition@LevelModules)",
					"RTID(FutureLinkedTileGroups@CurrentLevel)",
					"RTID(Gravestones@CurrentLevel)",
					"RTID(CowboyRails@CurrentLevel)",
					"RTID(ConveyorBelt@CurrentLevel)",
					"RTID(ZombiesDeadWinCon@LevelModules)"
				],
				"Name": "[LOD_LEVEL_NAME]",
				"NormalPresentTable": "egypt_normal_01",
				"ShinyPresentTable": "egypt_shiny_01",
				"StageModule": "RTID(FrontLawnStage@LevelModules)",
				"VictoryModule": "RTID(LevelOfTheDayOutro@LevelModules)"
			}
		},
		{
			"aliases": [
				"CowboyRails"
			],
			"objclass": "RailcartProperties",
			"objdata": {
				"Railcarts": [],
				"Rails": []
			}
		},
		{
			"aliases": [
				"FutureLinkedTileGroups"
			],
			"objclass": "PowerTileProperties",
			"objdata": {
				"LinkedTiles": [
					{
						"Group": "beta",
						"Location": {
							"mX": 0,
							"mY": 0
						},
						"PropagationDelay": 0.2,
						"PropagationInitialDelay": 2
					},
					{
						"Group": "beta",
						"Location": {
							"mX": 0,
							"mY": 2
						},
						"PropagationDelay": 0.2,
						"PropagationInitialDelay": 2
					},
					{
						"Group": "beta",
						"Location": {
							"mX": 0,
							"mY": 4
						},
						"PropagationDelay": 0.2,
						"PropagationInitialDelay": 2
					},
					{
						"Group": "gamma",
						"Location": {
							"mX": 1,
							"mY": 1
						},
						"PropagationDelay": 0.2,
						"PropagationInitialDelay": 2
					},
					{
						"Group": "gamma",
						"Location": {
							"mX": 1,
							"mY": 3
						},
						"PropagationDelay": 0.2,
						"PropagationInitialDelay": 2
					}
				]
			}
		},
		{
			"aliases": [
				"WaveManagerProps"
			],
			"objclass": "WaveManagerProperties",
			"objdata": {
				"MaxNextWaveHealthPercentage": 0.9,
				"MinNextWaveHealthPercentage": 0.8,
				"Waves": [
					[
						"RTID(Wave1@CurrentLevel)"
					],
					[
						"RTID(Wave2@CurrentLevel)"
					],
					[
						"RTID(Wave3@CurrentLevel)",
						"RTID(Wave3SpiderRainEvent0@CurrentLevel)"
					],
					[
						"RTID(Wave4@CurrentLevel)"
					],
					[
						"RTID(Wave5@CurrentLevel)",
						"RTID(Wave5SpiderRainEvent0@CurrentLevel)"
					],
					[
						"RTID(Wave6@CurrentLevel)",
						"RTID(Wave6ModConveyor@CurrentLevel)"
					],
					[
						"RTID(Wave7@CurrentLevel)",
						"RTID(Wave7SpiderRainEvent0@CurrentLevel)"
					],
					[
						"RTID(Wave8@CurrentLevel)"
					],
					[
						"RTID(Wave9@CurrentLevel)",
						"RTID(Wave9SpiderRainEvent0@CurrentLevel)"
					]
				]
			}
		},
		{
			"aliases": [
				"Wave1"
			],
			"objclass": "SpawnZombiesJitteredWaveActionProps",
			"objdata": {
				"Zombies": [
					{
						"Type": "RTID(tutorial@ZombieTypes)"
					}
				]
			}
		},
		{
			"aliases": [
				"Wave2"
			],
			"objclass": "SpawnZombiesJitteredWaveActionProps",
			"objdata": {
				"Zombies": [
					{
						"Type": "RTID(tutorial@ZombieTypes)"
					}
				]
			}
		},
		{
			"aliases": [
				"Wave3"
			],
			"objclass": "SpawnZombiesJitteredWaveActionProps",
			"objdata": {
				"Zombies": [
					{
						"Type": "RTID(tutorial@ZombieTypes)"
					}
				]
			}
		},
		{
			"aliases": [
				"Wave4"
			],
			"objclass": "SpawnZombiesJitteredWaveActionProps",
			"objdata": {
				"Zombies": [
					{
						"Type": "RTID(tutorial@ZombieTypes)"
					}
				]
			}
		},
		{
			"aliases": [
				"Wave5"
			],
			"objclass": "SpawnZombiesJitteredWaveActionProps",
			"objdata": {
				"Zombies": [
					{
						"Type": "RTID(tutorial@ZombieTypes)"
					}
				]
			}
		},
		{
			"aliases": [
				"Wave6"
			],
			"objclass": "SpawnZombiesJitteredWaveActionProps",
			"objdata": {
				"Zombies": [
					{
						"Type": "RTID(tutorial@ZombieTypes)"
					}
				]
			}
		},
		{
			"aliases": [
				"Wave7"
			],
			"objclass": "SpawnZombiesJitteredWaveActionProps",
			"objdata": {
				"Zombies": [
					{
						"Row": "3",
						"Type": "RTID(football_mech@ZombieTypes)"
					}
				]
			}
		},
		{
			"aliases": [
				"Wave8"
			],
			"objclass": "SpawnZombiesJitteredWaveActionProps",
			"objdata": {
				"Zombies": [
					{
						"Row": "2",
						"Type": "RTID(football_mech@ZombieTypes)"
					},
					{
						"Row": "4",
						"Type": "RTID(football_mech@ZombieTypes)"
					}
				]
			}
		},
		{
			"aliases": [
				"Wave9"
			],
			"objclass": "SpawnZombiesJitteredWaveActionProps",
			"objdata": {
				"Zombies": [
					{
						"Row": "5",
						"Type": "RTID(football_mech@ZombieTypes)"
					},
					{
						"Row": "3",
						"Type": "RTID(football_mech@ZombieTypes)"
					},
					{
						"Row": "1",
						"Type": "RTID(football_mech@ZombieTypes)"
					}
				]
			}
		},
		{
			"aliases": [
				"LevelOfTheDayModule"
			],
			"objclass": "LevelOfTheDayModuleProperties",
			"objdata": {
				"FlagCount": 3,
				"PlantfoodToSpawnCount": 6,
				"PointIncrementPerWave": 250,
				"StartingPoints": 200,
				"WaveManagerProps": "RTID(WaveManagerProps@CurrentLevel)",
				"WavesPerFlag": 3,
				"ZombiePool": [
					"RTID(tutorial_armor1@ZombieTypes)",
					"RTID(tutorial_armor2@ZombieTypes)",
					"RTID(mech_cone@ZombieTypes)"
				]
			}
		},
		{
			"aliases": [
				"Gravestones"
			],
			"objclass": "GravestoneProperties",
			"objdata": {}
		},
		{
			"aliases": [
				"NewWaves"
			],
			"objclass": "WaveManagerModuleProperties",
			"objdata": {}
		},
		{
			"aliases": [
				"ConveyorBelt"
			],
			"objclass": "ConveyorSeedBankProperties",
			"objdata": {
				"DropDelayConditions": [
					{
						"Delay": 3,
						"MaxPackets": 0
					},
					{
						"Delay": 6,
						"MaxPackets": 2
					},
					{
						"Delay": 9,
						"MaxPackets": 4
					},
					{
						"Delay": 12,
						"MaxPackets": 8
					}
				],
				"InitialPlantList": [
					{
						"MaxCount": 10,
						"MaxWeightFactor": 0,
						"PlantType": "citron",
						"Weight": 100
					},
					{
						"MaxCount": 10,
						"MaxWeightFactor": 0.2,
						"PlantType": "lightningreed",
						"Weight": 100
					},
					{
						"MaxCount": 5,
						"MaxWeightFactor": 0,
						"MinCount": 2,
						"MinWeightFactor": 2,
						"PlantType": "potatomine",
						"Weight": 25
					},
					{
						"MaxCount": 5,
						"MaxWeightFactor": 0.1,
						"PlantType": "snowpea",
						"Weight": 100
					}
				],
				"SpeedConditions": [
					{
						"MaxPackets": 0,
						"Speed": 100
					}
				]
			}
		},
		{
			"aliases": [
				"Wave6ModConveyor"
			],
			"objclass": "ModifyConveyorWaveActionProps",
			"objdata": {
				"Add": [
					{
						"MaxWeightFactor": 10.0,
						"MinWeightFactor": 0.1,
						"Type": "RTID(empea@PlantTypes)",
						"Weight": 75
					}
				],
				"Remove": []
			}
		},
		{
			"aliases": [
				"Wave9SpiderRainEvent0"
			],
			"objclass": "SpiderRainZombieSpawnerProps",
			"objdata": {
				"ColumnEnd": "8",
				"ColumnStart": "4",
				"GroupSize": 3,
				"SpiderCount": 12,
				"SpiderZombieName": "future_imp",
				"TimeBeforeFullSpawn": 1,
				"TimeBetweenGroups": 0.2,
				"WaveStartMessage": "[WARNING_LEPRACHAUNS]",
				"ZombieFallTime": "1.5"
			}
		},
		{
			"aliases": [
				"Wave7SpiderRainEvent0"
			],
			"objclass": "SpiderRainZombieSpawnerProps",
			"objdata": {
				"ColumnEnd": "8",
				"ColumnStart": "4",
				"GroupSize": 3,
				"SpiderCount": 8,
				"SpiderZombieName": "future_imp",
				"TimeBeforeFullSpawn": "1",
				"TimeBetweenGroups": "0.2",
				"WaveStartMessage": "[WARNING_LEPRACHAUNS]",
				"ZombieFallTime": "1.5"
			}
		},
		{
			"aliases": [
				"Wave5SpiderRainEvent0"
			],
			"objclass": "SpiderRainZombieSpawnerProps",
			"objdata": {
				"ColumnEnd": "8",
				"ColumnStart": "4",
				"GroupSize": 3,
				"SpiderCount": 6,
				"SpiderZombieName": "future_imp",
				"TimeBeforeFullSpawn": "1",
				"TimeBetweenGroups": "0.2",
				"WaveStartMessage": "[WARNING_LEPRACHAUNS]",
				"ZombieFallTime": "1.5"
			}
		},
		{
			"aliases": [
				"Wave3SpiderRainEvent0"
			],
			"objclass": "SpiderRainZombieSpawnerProps",
			"objdata": {
				"ColumnEnd": "8",
				"ColumnStart": "4",
				"GroupSize": 3,
				"SpiderCount": 3,
				"SpiderZombieName": "future_imp",
				"TimeBeforeFullSpawn": "1",
				"TimeBetweenGroups": "0.2",
				"WaveStartMessage": "[WARNING_LEPRACHAUNS]",
				"ZombieFallTime": "1.5"
			}
		}
	],
	"version": 1
}