{
	"#comment": "LOD 154",
	"objects": [
		{
			"objclass": "LevelDefinition",
			"objdata": {
				"Description": "[PLAYERS_TRIP_TO_LOD]",
				"IsLevelOfTheDay": true,
				"Loot": "RTID(DefaultLoot@LevelModules)",
				"Modules": [
					"RTID(LevelOfTheDayIntro@LevelModules)",
					"RTID(LevelOfTheDayModule@CurrentLevel)",
					"RTID(FrontLawnMowers@LevelModules)",
					"RTID(NewWaves@CurrentLevel)",
					"RTID(DefaultZombieWinCondition@LevelModules)",
					"RTID(Gravestones@CurrentLevel)",
					"RTID(ConveyorBelt@CurrentLevel)",
					"RTID(ZombiesDeadWinCon@LevelModules)",
					"RTID(FrozenPlantPlacement@CurrentLevel)"
				],
				"Name": "[LOD_LEVEL_NAME]",
				"NormalPresentTable": "egypt_normal_01",
				"ShinyPresentTable": "egypt_shiny_01",
				"StageModule": "RTID(FrontLawnStage@LevelModules)",
				"VictoryModule": "RTID(LevelOfTheDayOutro@LevelModules)"
			}
		},
		{
			"aliases": [
				"FrozenPlantPlacement"
			],
			"objclass": "InitialPlantProperties",
			"objdata": {
				"InitialPlantPlacements": [
					{
						"GridX": 8,
						"GridY": 0,
						"TypeName": "spikeweed"
					},
					{
						"GridX": 8,
						"GridY": 1,
						"TypeName": "spikeweed"
					},
					{
						"GridX": 8,
						"GridY": 2,
						"TypeName": "spikeweed"
					},
					{
						"GridX": 8,
						"GridY": 3,
						"TypeName": "spikeweed"
					},
					{
						"GridX": 8,
						"GridY": 4,
						"TypeName": "spikeweed"
					}
				]
			}
		},
		{
			"aliases": [
				"LevelOfTheDayModule"
			],
			"objclass": "LevelOfTheDayModuleProperties",
			"objdata": {
				"FlagCount": 3,
				"PlantfoodToSpawnCount": 3,
				"PointIncrementPerWave": 50,
				"StartingPoints": 0,
				"WaveManagerProps": "RTID(WaveManagerProps@CurrentLevel)",
				"WavesPerFlag": 5,
				"ZombiePool": [
					"RTID(iceage_weaselhoarder@ZombieTypes)",
					"RTID(tutorial_armor1@ZombieTypes)",
					"RTID(tutorial@ZombieTypes)"
				]
			}
		},
		{
			"aliases": [
				"WaveManagerProps"
			],
			"objclass": "WaveManagerProperties",
			"objdata": {
				"MaxNextWaveHealthPercentage": 0.9,
				"MinNextWaveHealthPercentage": 0.8,
				"Waves": [
					[
						"RTID(Wave1@CurrentLevel)"
					],
					[
						"RTID(Wave2@CurrentLevel)"
					],
					[
						"RTID(Wave3@CurrentLevel)"
					],
					[
						"RTID(Wave4@CurrentLevel)"
					],
					[
						"RTID(Wave5@CurrentLevel)",
						"RTID(Wave5StormEvent0@CurrentLevel)"
					],
					[
						"RTID(Wave6@CurrentLevel)",
						"RTID(Wave6ModConveyor0@CurrentLevel)"
					],
					[
						"RTID(Wave7@CurrentLevel)"
					],
					[
						"RTID(Wave8@CurrentLevel)",
						"RTID(Wave8ModConveyor0@CurrentLevel)"
					],
					[
						"RTID(Wave9@CurrentLevel)"
					],
					[
						"RTID(Wave10@CurrentLevel)",
						"RTID(Wave10StormEvent0@CurrentLevel)"
					],
					[
						"RTID(Wave11@CurrentLevel)"
					],
					[
						"RTID(Wave12@CurrentLevel)"
					],
					[
						"RTID(Wave13@CurrentLevel)"
					],
					[
						"RTID(Wave14@CurrentLevel)"
					],
					[
						"RTID(Wave15@CurrentLevel)",
						"RTID(Wave15StormEvent0@CurrentLevel)"
					]
				]
			}
		},
		{
			"aliases": [
				"Wave1"
			],
			"objclass": "SpawnZombiesJitteredWaveActionProps",
			"objdata": {
				"Zombies": [
					{
						"Type": "RTID(tutorial@ZombieTypes)"
					},
					{
						"Type": "RTID(tutorial@ZombieTypes)"
					}
				]
			}
		},
		{
			"aliases": [
				"Wave2"
			],
			"objclass": "SpawnZombiesJitteredWaveActionProps",
			"objdata": {
				"Zombies": [
					{
						"Type": "RTID(tutorial@ZombieTypes)"
					},
					{
						"Type": "RTID(tutorial@ZombieTypes)"
					}
				]
			}
		},
		{
			"aliases": [
				"Wave3"
			],
			"objclass": "SpawnZombiesJitteredWaveActionProps",
			"objdata": {
				"Zombies": [
					{
						"Type": "RTID(iceage_weaselhoarder@ZombieTypes)"
					}
				]
			}
		},
		{
			"aliases": [
				"Wave4"
			],
			"objclass": "SpawnZombiesJitteredWaveActionProps",
			"objdata": {
				"Zombies": [
					{
						"Type": "RTID(iceage_weaselhoarder@ZombieTypes)"
					}
				]
			}
		},
		{
			"aliases": [
				"Wave5"
			],
			"objclass": "SpawnZombiesJitteredWaveActionProps",
			"objdata": {
				"Zombies": [
					{
						"Row": "4",
						"Type": "RTID(iceage_weaselhoarder@ZombieTypes)"
					},
					{
						"Row": "2",
						"Type": "RTID(iceage_weaselhoarder@ZombieTypes)"
					}
				]
			}
		},
		{
			"aliases": [
				"Wave6"
			],
			"objclass": "SpawnZombiesJitteredWaveActionProps",
			"objdata": {
				"Zombies": [
					{
						"Type": "RTID(iceage_weaselhoarder@ZombieTypes)"
					},
					{
						"Type": "RTID(iceage_weaselhoarder@ZombieTypes)"
					}
				]
			}
		},
		{
			"aliases": [
				"Wave7"
			],
			"objclass": "SpawnZombiesJitteredWaveActionProps",
			"objdata": {
				"Zombies": [
					{
						"Type": "RTID(iceage_weaselhoarder@ZombieTypes)"
					}
				]
			}
		},
		{
			"aliases": [
				"Wave8"
			],
			"objclass": "SpawnZombiesJitteredWaveActionProps",
			"objdata": {
				"Zombies": [
					{
						"Type": "RTID(iceage_weaselhoarder@ZombieTypes)"
					}
				]
			}
		},
		{
			"aliases": [
				"Wave9"
			],
			"objclass": "SpawnZombiesJitteredWaveActionProps",
			"objdata": {
				"Zombies": [
					{
						"Type": "RTID(iceage_weaselhoarder@ZombieTypes)"
					}
				]
			}
		},
		{
			"aliases": [
				"Gravestones"
			],
			"objclass": "GravestoneProperties",
			"objdata": {}
		},
		{
			"aliases": [
				"NewWaves"
			],
			"objclass": "WaveManagerModuleProperties",
			"objdata": {}
		},
		{
			"aliases": [
				"ConveyorBelt"
			],
			"objclass": "ConveyorSeedBankProperties",
			"objdata": {
				"DropDelayConditions": [
					{
						"Delay": 3,
						"MaxPackets": 0
					},
					{
						"Delay": 6,
						"MaxPackets": 2
					},
					{
						"Delay": 9,
						"MaxPackets": 4
					},
					{
						"Delay": 12,
						"MaxPackets": 8
					}
				],
				"InitialPlantList": [
					{
						"PlantType": "peapod",
						"Weight": 80
					}
				],
				"SpeedConditions": [
					{
						"MaxPackets": 0,
						"Speed": 100
					}
				]
			}
		},
		{
			"aliases": [
				"Wave10"
			],
			"objclass": "SpawnZombiesJitteredWaveActionProps",
			"objdata": {
				"Zombies": [
					{
						"Row": "5",
						"Type": "RTID(iceage_weaselhoarder@ZombieTypes)"
					},
					{
						"Row": "3",
						"Type": "RTID(iceage_weaselhoarder@ZombieTypes)"
					},
					{
						"Row": "1",
						"Type": "RTID(iceage_weaselhoarder@ZombieTypes)"
					}
				]
			}
		},
		{
			"aliases": [
				"Wave11"
			],
			"objclass": "SpawnZombiesJitteredWaveActionProps",
			"objdata": {
				"Zombies": [
					{
						"Type": "RTID(iceage_weaselhoarder@ZombieTypes)"
					},
					{
						"Type": "RTID(iceage_weaselhoarder@ZombieTypes)"
					}
				]
			}
		},
		{
			"aliases": [
				"Wave12"
			],
			"objclass": "SpawnZombiesJitteredWaveActionProps",
			"objdata": {
				"Zombies": [
					{
						"Type": "RTID(iceage_weaselhoarder@ZombieTypes)"
					}
				]
			}
		},
		{
			"aliases": [
				"Wave13"
			],
			"objclass": "SpawnZombiesJitteredWaveActionProps",
			"objdata": {
				"Zombies": [
					{
						"Type": "RTID(iceage_weaselhoarder@ZombieTypes)"
					}
				]
			}
		},
		{
			"aliases": [
				"Wave14"
			],
			"objclass": "SpawnZombiesJitteredWaveActionProps",
			"objdata": {
				"Zombies": [
					{
						"Type": "RTID(iceage_weaselhoarder@ZombieTypes)"
					}
				]
			}
		},
		{
			"aliases": [
				"Wave15"
			],
			"objclass": "SpawnZombiesJitteredWaveActionProps",
			"objdata": {
				"Zombies": [
					{
						"Row": "5",
						"Type": "RTID(iceage_weaselhoarder@ZombieTypes)"
					},
					{
						"Row": "4",
						"Type": "RTID(iceage_weaselhoarder@ZombieTypes)"
					},
					{
						"Row": "3",
						"Type": "RTID(iceage_weaselhoarder@ZombieTypes)"
					},
					{
						"Row": "2",
						"Type": "RTID(iceage_weaselhoarder@ZombieTypes)"
					},
					{
						"Row": "1",
						"Type": "RTID(iceage_weaselhoarder@ZombieTypes)"
					}
				]
			}
		},
		{
			"aliases": [
				"Wave15StormEvent0"
			],
			"objclass": "StormZombieSpawnerProps",
			"objdata": {
				"ColumnEnd": 6,
				"ColumnStart": 6,
				"GroupSize": 3,
				"TimeBetweenGroups": "3",
				"Type": "sandstorm",
				"Zombies": [
					{
						"Type": "RTID(future_protector@ZombieTypes)"
					},
					{
						"Type": "RTID(future_protector@ZombieTypes)"
					},
					{
						"Type": "RTID(future_protector@ZombieTypes)"
					}
				]
			}
		},
		{
			"aliases": [
				"Wave5StormEvent0"
			],
			"objclass": "StormZombieSpawnerProps",
			"objdata": {
				"ColumnEnd": 6,
				"ColumnStart": 6,
				"GroupSize": 1,
				"TimeBetweenGroups": "3",
				"Type": "sandstorm",
				"Zombies": [
					{
						"Type": "RTID(future_protector@ZombieTypes)"
					}
				]
			}
		},
		{
			"aliases": [
				"Wave10StormEvent0"
			],
			"objclass": "StormZombieSpawnerProps",
			"objdata": {
				"ColumnEnd": 6,
				"ColumnStart": 6,
				"GroupSize": 2,
				"TimeBetweenGroups": "3",
				"Type": "sandstorm",
				"Zombies": [
					{
						"Type": "RTID(future_protector@ZombieTypes)"
					},
					{
						"Type": "RTID(future_protector@ZombieTypes)"
					}
				]
			}
		},
		{
			"aliases": [
				"Wave8ModConveyor0"
			],
			"objclass": "ModifyConveyorWaveActionProps",
			"objdata": {
				"Add": [
					{
						"MaxWeightFactor": 10,
						"MinWeightFactor": 0.1,
						"Type": "RTID(threepeater@PlantTypes)",
						"Weight": 20
					}
				],
				"Remove": []
			}
		},
		{
			"aliases": [
				"Wave6ModConveyor0"
			],
			"objclass": "ModifyConveyorWaveActionProps",
			"objdata": {
				"Add": [
					{
						"MaxCount": 1,
						"MaxCountCooldownSeconds": 20,
						"MaxWeightFactor": 1,
						"MinWeightFactor": 0.1,
						"Type": "RTID(wallnut@PlantTypes)",
						"Weight": 80
					}
				],
				"Remove": []
			}
		}
	],
	"version": 1
}