{
	"#comment": "Level Of The Day",
	"objects": [
		{
			"objclass": "LevelDefinition",
			"objdata": {
				"Description": "[PLAYERS_TRIP_TO_LOD]",
				"DraperPromo": "sapfling",
				"IsLevelOfTheDay": true,
				"Loot": "RTID(DefaultLoot@LevelModules)",
				"Modules": [
					"RTID(LevelOfTheDayIntro@LevelModules)",
					"RTID(LevelOfTheDayModule@CurrentLevel)",
					"RTID(FrontLawnMowers@LevelModules)",
					"RTID(NewWaves@CurrentLevel)",
					"RTID(DefaultZombieWinCondition@LevelModules)",
					"RTID(Gravestones@CurrentLevel)",
					"RTID(ConveyorBelt@CurrentLevel)",
					"RTID(ZombiesDeadWinCon@LevelModules)"
				],
				"Name": "[LOD_LEVEL_NAME]",
				"NormalPresentTable": "egypt_normal_01",
				"ShinyPresentTable": "egypt_shiny_01",
				"StageModule": "RTID(FrontLawnStage@LevelModules)",
				"VictoryModule": "RTID(LevelOfTheDayOutro@LevelModules)"
			}
		},
		{
			"aliases": [
				"WaveManagerProps"
			],
			"objclass": "WaveManagerProperties",
			"objdata": {
				"MaxNextWaveHealthPercentage": 0.9,
				"MinNextWaveHealthPercentage": 0.8,
				"Waves": [
					[
						"RTID(Wave1@CurrentLevel)"
					],
					[
						"RTID(Wave2@CurrentLevel)"
					],
					[
						"RTID(Wave3@CurrentLevel)"
					],
					[
						"RTID(Wave4@CurrentLevel)"
					],
					[
						"RTID(Wave5@CurrentLevel)"
					],
					[
						"RTID(Wave6@CurrentLevel)"
					],
					[
						"RTID(Wave7@CurrentLevel)"
					],
					[
						"RTID(Wave8@CurrentLevel)"
					],
					[
						"RTID(Wave9@CurrentLevel)"
					]
				]
			}
		},
		{
			"aliases": [
				"Wave1"
			],
			"objclass": "SpawnZombiesJitteredWaveActionProps",
			"objdata": {
				"AdditionalPlantfood": 0,
				"Zombies": [
					{
						"Row": "5",
						"Type": "RTID(tutorial_armor1@ZombieTypes)"
					}
				]
			}
		},
		{
			"aliases": [
				"Wave2"
			],
			"objclass": "SpawnZombiesJitteredWaveActionProps",
			"objdata": {
				"AdditionalPlantfood": 1,
				"Zombies": [
					{
						"Row": "3",
						"Type": "RTID(cannon@ZombieTypes)"
					}
				]
			}
		},
		{
			"aliases": [
				"Wave3"
			],
			"objclass": "SpawnZombiesJitteredWaveActionProps",
			"objdata": {
				"Zombies": [
					{
						"Row": "5",
						"Type": "RTID(tomb_raiser@ZombieTypes)"
					},
					{
						"Row": "3",
						"Type": "RTID(beach_octopus@ZombieTypes)"
					},
					{
						"Row": "1",
						"Type": "RTID(tomb_raiser@ZombieTypes)"
					}
				]
			}
		},
		{
			"aliases": [
				"Wave4"
			],
			"objclass": "SpawnZombiesJitteredWaveActionProps",
			"objdata": {
				"Zombies": [
					{
						"Row": "4",
						"Type": "RTID(cannon@ZombieTypes)"
					},
					{
						"Row": "2",
						"Type": "RTID(cannon@ZombieTypes)"
					}
				]
			}
		},
		{
			"aliases": [
				"Wave5"
			],
			"objclass": "SpawnZombiesJitteredWaveActionProps",
			"objdata": {
				"AdditionalPlantfood": 1,
				"Zombies": [
					{
						"Row": "5",
						"Type": "RTID(tutorial_armor1@ZombieTypes)"
					},
					{
						"Row": "4",
						"Type": "RTID(tutorial@ZombieTypes)"
					},
					{
						"Row": "3",
						"Type": "RTID(tutorial_armor1@ZombieTypes)"
					},
					{
						"Row": "2",
						"Type": "RTID(tutorial@ZombieTypes)"
					},
					{
						"Row": "1",
						"Type": "RTID(tutorial_armor1@ZombieTypes)"
					}
				]
			}
		},
		{
			"aliases": [
				"Wave6"
			],
			"objclass": "SpawnZombiesJitteredWaveActionProps",
			"objdata": {
				"AdditionalPlantfood": 1,
				"Zombies": [
					{
						"Row": "5",
						"Type": "RTID(cannon@ZombieTypes)"
					},
					{
						"Row": "3",
						"Type": "RTID(cannon@ZombieTypes)"
					},
					{
						"Row": "1",
						"Type": "RTID(cannon@ZombieTypes)"
					}
				]
			}
		},
		{
			"aliases": [
				"Wave7"
			],
			"objclass": "SpawnZombiesJitteredWaveActionProps",
			"objdata": {
				"Zombies": [
					{
						"Row": "5",
						"Type": "RTID(tomb_raiser@ZombieTypes)"
					},
					{
						"Row": "1",
						"Type": "RTID(tomb_raiser@ZombieTypes)"
					},
					{
						"Row": "3",
						"Type": "RTID(tomb_raiser@ZombieTypes)"
					},
					{
						"Row": "2",
						"Type": "RTID(beach_octopus@ZombieTypes)"
					},
					{
						"Row": "4",
						"Type": "RTID(beach_octopus@ZombieTypes)"
					}
				]
			}
		},
		{
			"aliases": [
				"Wave8"
			],
			"objclass": "SpawnZombiesJitteredWaveActionProps",
			"objdata": {
				"AdditionalPlantfood": 1,
				"Zombies": [
					{
						"Row": "5",
						"Type": "RTID(cannon@ZombieTypes)"
					},
					{
						"Row": "4",
						"Type": "RTID(cannon@ZombieTypes)"
					},
					{
						"Row": "3",
						"Type": "RTID(cannon@ZombieTypes)"
					},
					{
						"Row": "2",
						"Type": "RTID(cannon@ZombieTypes)"
					},
					{
						"Row": "1",
						"Type": "RTID(cannon@ZombieTypes)"
					}
				]
			}
		},
		{
			"aliases": [
				"Wave9"
			],
			"objclass": "SpawnZombiesJitteredWaveActionProps",
			"objdata": {
				"AdditionalPlantfood": 1,
				"Zombies": [
					{
						"Row": "1",
						"Type": "RTID(beach_octopus@ZombieTypes)"
					},
					{
						"Row": "2",
						"Type": "RTID(tomb_raiser@ZombieTypes)"
					},
					{
						"Row": "4",
						"Type": "RTID(tomb_raiser@ZombieTypes)"
					},
					{
						"Row": "3",
						"Type": "RTID(beach_octopus@ZombieTypes)"
					},
					{
						"Row": "5",
						"Type": "RTID(beach_octopus@ZombieTypes)"
					}
				]
			}
		},
		{
			"aliases": [
				"LevelOfTheDayModule"
			],
			"objclass": "LevelOfTheDayModuleProperties",
			"objdata": {
				"FlagCount": 3,
				"PlantfoodToSpawnCount": 0,
				"PointIncrementPerWave": 150,
				"StartingPoints": 200,
				"WaveManagerProps": "RTID(WaveManagerProps@CurrentLevel)",
				"WavesPerFlag": 3,
				"ZombiePool": [
					"RTID(tutorial_armor2@ZombieTypes)",
					"RTID(tutorial@ZombieTypes)",
					"RTID(swashbuckler@ZombieTypes)",
					"RTID(tutorial_armor1@ZombieTypes)"
				]
			}
		},
		{
			"aliases": [
				"Gravestones"
			],
			"objclass": "GravestoneProperties",
			"objdata": {
				"ForceSpawnData": [
					{
						"GridX": 8,
						"GridY": 0
					},
					{
						"GridX": 2,
						"GridY": 0
					},
					{
						"GridX": 5,
						"GridY": 0
					},
					{
						"GridX": 7,
						"GridY": 1
					},
					{
						"GridX": 4,
						"GridY": 1
					},
					{
						"GridX": 7,
						"GridY": 2
					},
					{
						"GridX": 4,
						"GridY": 2
					},
					{
						"GridX": 7,
						"GridY": 3
					},
					{
						"GridX": 4,
						"GridY": 3
					},
					{
						"GridX": 8,
						"GridY": 4
					},
					{
						"GridX": 2,
						"GridY": 4
					},
					{
						"GridX": 5,
						"GridY": 4
					}
				]
			}
		},
		{
			"aliases": [
				"NewWaves"
			],
			"objclass": "WaveManagerModuleProperties",
			"objdata": {}
		},
		{
			"aliases": [
				"ConveyorBelt"
			],
			"objclass": "ConveyorSeedBankProperties",
			"objdata": {
				"DropDelayConditions": [
					{
						"Delay": 3,
						"MaxPackets": 0
					},
					{
						"Delay": 6,
						"MaxPackets": 2
					},
					{
						"Delay": 9,
						"MaxPackets": 4
					},
					{
						"Delay": 12,
						"MaxPackets": 8
					}
				],
				"InitialPlantList": [
					{
						"MaxCount": 10,
						"MaxWeightFactor": 0,
						"MinCount": 5,
						"MinWeightFactor": 1.5,
						"PlantType": "bowlingbulb",
						"Weight": 15
					},
					{
						"MaxCount": 10,
						"MaxWeightFactor": 0,
						"MinCount": 5,
						"MinWeightFactor": 2,
						"PlantType": "laser_bean",
						"Weight": 15
					},
					{
						"MaxCount": 5,
						"MaxWeightFactor": 0,
						"MinCount": 3,
						"MinWeightFactor": 2,
						"PlantType": "sapfling",
						"Weight": 20
					}
				],
				"SpeedConditions": [
					{
						"MaxPackets": 0,
						"Speed": 100
					}
				]
			}
		}
	],
	"version": 1
}