{
	"#comment": "Lost City 23",
	"objects": [
		{
			"objclass": "LevelDefinition",
			"objdata": {
				"Description": "[PLAYERS_TRIP_TO_LOSTCITY]",
				"FirstRewardType": "pinata",
				"FirstRewardParam": "spine_lostcity",
				"LevelNumber": 23,
				"Loot": "RTID(DefaultLoot@LevelModules)",
				"Modules": [
					"RTID(StandardIntro@LevelModules)",
					"RTID(DefaultSunDropper@LevelModules)",
					"RTID(LostCityMowers@LevelModules)",
					"RTID(DefaultZombieWinCondition@LevelModules)",
					"RTID(ZombiesDeadWinCon@LevelModules)",
					"RTID(GoldTiles@CurrentLevel)",
					"RTID(SeedBank@CurrentLevel)",
					"RTID(NewWaves@CurrentLevel)"
				],
				"Name": "[LOSTCITY_LEVEL_NAME]",
				"NormalPresentTable": "lostcity_normal_01",
				"ShinyPresentTable": "lostcity_shiny_01",
				"StageModule": "RTID(LostCityStage@LevelModules)"
			}
		},
		{
			"aliases": [
				"SeedBank"
			],
			"objclass": "SeedBankProperties",
			"objdata": {
				"SelectionMethod": "chooser"
			}
		},
		{
			"aliases": [
				"GoldTiles"
			],
			"objclass": "InitialGridItemProperties",
			"objdata": {
				"InitialGridItemPlacements": [
					{
						"GridX": 6,
						"GridY": 0,
						"TypeName": "goldtile"
					},
					{
						"GridX": 0,
						"GridY": 2,
						"TypeName": "goldtile"
					},
					{
						"GridX": 1,
						"GridY": 2,
						"TypeName": "goldtile"
					},
					{
						"GridX": 2,
						"GridY": 2,
						"TypeName": "goldtile"
					},
					{
						"GridX": 6,
						"GridY": 2,
						"TypeName": "goldtile"
					},
					{
						"GridX": 3,
						"GridY": 2,
						"TypeName": "goldtile"
					},
					{
						"GridX": 6,
						"GridY": 4,
						"TypeName": "goldtile"
					}
				]
			}
		},
		{
			"aliases": [
				"NewWaves"
			],
			"objclass": "WaveManagerModuleProperties",
			"objdata": {
				"DynamicZombies": [
					{
						"PointIncrementPerWave": -40,
						"StartingPoints": -100,
						"StartingWave": 3,
						"ZombiePool": [
							"RTID(lostcity@ZombieTypes)",
							"RTID(lostcity_armor1@ZombieTypes)",
							"RTID(lostcity_armor2@ZombieTypes)"
						]
					},
					{
						"PointIncrementPerWave": -25,
						"StartingPoints": -100,
						"StartingWave": 4,
						"ZombiePool": [
							"RTID(lostcity@ZombieTypes)",
							"RTID(lostcity_armor1@ZombieTypes)",
							"RTID(lostcity_armor2@ZombieTypes)"
						]
					},
					{
						"PointIncrementPerWave": -10,
						"StartingPoints": -100,
						"StartingWave": 5,
						"ZombiePool": [
							"RTID(lostcity@ZombieTypes)",
							"RTID(lostcity_armor1@ZombieTypes)",
							"RTID(lostcity_armor2@ZombieTypes)"
						]
					},
					{},
					{
						"PointIncrementPerWave": 20,
						"StartingPoints": 100,
						"StartingWave": 5,
						"ZombiePool": [
							"RTID(lostcity@ZombieTypes)",
							"RTID(lostcity_armor1@ZombieTypes)",
							"RTID(lostcity_armor2@ZombieTypes)"
						]
					},
					{
						"PointIncrementPerWave": 40,
						"StartingPoints": 200,
						"StartingWave": 4,
						"ZombiePool": [
							"RTID(lostcity@ZombieTypes)",
							"RTID(lostcity_armor1@ZombieTypes)",
							"RTID(lostcity_armor2@ZombieTypes)"
						]
					},
					{
						"PointIncrementPerWave": 60,
						"StartingPoints": 400,
						"StartingWave": 3,
						"ZombiePool": [
							"RTID(lostcity@ZombieTypes)",
							"RTID(lostcity_armor2@ZombieTypes)"
						]
					}
				],
				"WaveManagerProps": "RTID(WaveManagerProps@CurrentLevel)"
			}
		},
		{
			"aliases": [
				"WaveManagerProps"
			],
			"objclass": "WaveManagerProperties",
			"objdata": {
				"FlagWaveInterval": 4,
				"WaveCount": 12,
				"WaveSpendingPointIncrement": 100,
				"WaveSpendingPoints": 100,
				"Waves": [
					[
						"RTID(Wave1@CurrentLevel)"
					],
					[
						"RTID(Wave2@CurrentLevel)"
					],
					[
						"RTID(Wave3@CurrentLevel)"
					],
					[
						"RTID(Wave4@CurrentLevel)"
					],
					[
						"RTID(Wave5@CurrentLevel)"
					],
					[
						"RTID(Wave6@CurrentLevel)"
					],
					[
						"RTID(Wave7@CurrentLevel)"
					],
					[
						"RTID(Wave8@CurrentLevel)"
					],
					[
						"RTID(Wave9@CurrentLevel)"
					],
					[
						"RTID(Wave10@CurrentLevel)"
					],
					[
						"RTID(Wave11@CurrentLevel)"
					],
					[
						"RTID(Wave12@CurrentLevel)"
					]
				]
			}
		},
		{
			"aliases": [
				"Wave1"
			],
			"objclass": "SpawnZombiesJitteredWaveActionProps",
			"objdata": {
				"Zombies": [
					{
						"Row": "3",
						"Type": "RTID(lostcity@ZombieTypes)"
					}
				]
			}
		},
		{
			"aliases": [
				"Wave2"
			],
			"objclass": "SpawnZombiesJitteredWaveActionProps",
			"objdata": {
				"Zombies": [
					{
						"Row": "3",
						"Type": "RTID(lostcity_relichunter@ZombieTypes)"
					}
				]
			}
		},
		{
			"aliases": [
				"Wave3"
			],
			"objclass": "SpawnZombiesJitteredWaveActionProps",
			"objdata": {
				"Zombies": [
					{
						"Row": "4",
						"Type": "RTID(lostcity@ZombieTypes)"
					},
					{
						"Row": "3",
						"Type": "RTID(lostcity_jane@ZombieTypes)"
					},
					{
						"Row": "2",
						"Type": "RTID(lostcity@ZombieTypes)"
					}
				]
			}
		},
		{
			"aliases": [
				"Wave4"
			],
			"objclass": "SpawnZombiesJitteredWaveActionProps",
			"objdata": {
				"AdditionalPlantfood": 1,
				"Zombies": [
					{
						"Row": "5",
						"Type": "RTID(lostcity_relichunter@ZombieTypes)"
					},
					{
						"Row": "3",
						"Type": "RTID(lostcity_gargantuar@ZombieTypes)"
					},
					{
						"Row": "3",
						"Type": "RTID(lostcity_impporter@ZombieTypes)"
					},
					{
						"Row": "1",
						"Type": "RTID(lostcity_relichunter@ZombieTypes)"
					}
				]
			}
		},
		{
			"aliases": [
				"Wave5"
			],
			"objclass": "SpawnZombiesJitteredWaveActionProps",
			"objdata": {
				"Zombies": [
					{
						"Row": "4",
						"Type": "RTID(lostcity_relichunter@ZombieTypes)"
					},
					{
						"Row": "2",
						"Type": "RTID(lostcity_relichunter@ZombieTypes)"
					}
				]
			}
		},
		{
			"aliases": [
				"Wave6"
			],
			"objclass": "SpawnZombiesJitteredWaveActionProps",
			"objdata": {
				"Zombies": [
					{
						"Row": "5",
						"Type": "RTID(lostcity_relichunter@ZombieTypes)"
					},
					{
						"Row": "3",
						"Type": "RTID(lostcity@ZombieTypes)"
					},
					{
						"Row": "3",
						"Type": "RTID(lostcity_armor1@ZombieTypes)"
					},
					{
						"Row": "1",
						"Type": "RTID(lostcity_relichunter@ZombieTypes)"
					}
				]
			}
		},
		{
			"aliases": [
				"Wave7"
			],
			"objclass": "SpawnZombiesJitteredWaveActionProps",
			"objdata": {
				"Zombies": [
					{
						"Row": "5",
						"Type": "RTID(lostcity@ZombieTypes)"
					},
					{
						"Row": "5",
						"Type": "RTID(lostcity_impporter@ZombieTypes)"
					},
					{
						"Row": "4",
						"Type": "RTID(lostcity_bug_armor1@ZombieTypes)"
					},
					{
						"Row": "2",
						"Type": "RTID(lostcity_bug_armor1@ZombieTypes)"
					},
					{
						"Row": "1",
						"Type": "RTID(lostcity@ZombieTypes)"
					},
					{
						"Row": "1",
						"Type": "RTID(lostcity_impporter@ZombieTypes)"
					}
				]
			}
		},
		{
			"aliases": [
				"Wave8"
			],
			"objclass": "SpawnZombiesJitteredWaveActionProps",
			"objdata": {
				"AdditionalPlantfood": 1,
				"Zombies": [
					{
						"Row": "5",
						"Type": "RTID(lostcity_relichunter@ZombieTypes)"
					},
					{
						"Row": "4",
						"Type": "RTID(lostcity_relichunter@ZombieTypes)"
					},
					{
						"Row": "3",
						"Type": "RTID(lostcity_armor1@ZombieTypes)"
					},
					{
						"Row": "3",
						"Type": "RTID(lostcity_armor2@ZombieTypes)"
					},
					{
						"Row": "2",
						"Type": "RTID(lostcity_relichunter@ZombieTypes)"
					},
					{
						"Row": "1",
						"Type": "RTID(lostcity_relichunter@ZombieTypes)"
					}
				]
			}
		},
		{
			"aliases": [
				"Wave9"
			],
			"objclass": "SpawnZombiesJitteredWaveActionProps",
			"objdata": {
				"Zombies": [
					{
						"Row": "5",
						"Type": "RTID(lostcity_armor1@ZombieTypes)"
					},
					{
						"Row": "4",
						"Type": "RTID(lostcity@ZombieTypes)"
					},
					{
						"Row": "3",
						"Type": "RTID(lostcity_excavator@ZombieTypes)"
					},
					{
						"Row": "3",
						"Type": "RTID(lostcity_impporter@ZombieTypes)"
					},
					{
						"Row": "2",
						"Type": "RTID(lostcity@ZombieTypes)"
					},
					{
						"Row": "1",
						"Type": "RTID(lostcity_armor1@ZombieTypes)"
					}
				]
			}
		},
		{
			"aliases": [
				"Wave10"
			],
			"objclass": "SpawnZombiesJitteredWaveActionProps",
			"objdata": {
				"Zombies": [
					{
						"Row": "5",
						"Type": "RTID(lostcity_relichunter@ZombieTypes)"
					},
					{
						"Row": "4",
						"Type": "RTID(lostcity_bug_armor1@ZombieTypes)"
					},
					{
						"Row": "3",
						"Type": "RTID(lostcity_relichunter@ZombieTypes)"
					},
					{
						"Row": "2",
						"Type": "RTID(lostcity_bug_armor1@ZombieTypes)"
					},
					{
						"Row": "1",
						"Type": "RTID(lostcity_relichunter@ZombieTypes)"
					}
				]
			}
		},
		{
			"aliases": [
				"Wave11"
			],
			"objclass": "SpawnZombiesJitteredWaveActionProps",
			"objdata": {
				"AdditionalPlantfood": 0,
				"Zombies": [
					{
						"Row": "5",
						"Type": "RTID(lostcity_relichunter@ZombieTypes)"
					},
					{
						"Row": "5",
						"Type": "RTID(lostcity@ZombieTypes)"
					},
					{
						"Row": "4",
						"Type": "RTID(lostcity_relichunter@ZombieTypes)"
					},
					{
						"Row": "4",
						"Type": "RTID(lostcity_excavator@ZombieTypes)"
					},
					{
						"Row": "3",
						"Type": "RTID(lostcity_relichunter@ZombieTypes)"
					},
					{
						"Row": "3",
						"Type": "RTID(lostcity@ZombieTypes)"
					},
					{
						"Row": "2",
						"Type": "RTID(lostcity_relichunter@ZombieTypes)"
					},
					{
						"Row": "2",
						"Type": "RTID(lostcity_excavator@ZombieTypes)"
					},
					{
						"Row": "1",
						"Type": "RTID(lostcity_relichunter@ZombieTypes)"
					},
					{
						"Row": "1",
						"Type": "RTID(lostcity@ZombieTypes)"
					}
				]
			}
		},
		{
			"aliases": [
				"Wave12"
			],
			"objclass": "SpawnZombiesJitteredWaveActionProps",
			"objdata": {
				"AdditionalPlantfood": 0,
				"Zombies": [
					{
						"Row": "1",
						"Type": "RTID(lostcity_armor1@ZombieTypes)"
					},
					{
						"Row": "1",
						"Type": "RTID(lostcity_jane@ZombieTypes)"
					},
					{
						"Row": "2",
						"Type": "RTID(lostcity_armor2@ZombieTypes)"
					},
					{
						"Row": "2",
						"Type": "RTID(lostcity_jane@ZombieTypes)"
					},
					{
						"Row": "3",
						"Type": "RTID(lostcity_armor2@ZombieTypes)"
					},
					{
						"Row": "3",
						"Type": "RTID(lostcity_jane@ZombieTypes)"
					},
					{
						"Row": "4",
						"Type": "RTID(lostcity_armor2@ZombieTypes)"
					},
					{
						"Row": "4",
						"Type": "RTID(lostcity_jane@ZombieTypes)"
					},
					{
						"Row": "5",
						"Type": "RTID(lostcity_armor1@ZombieTypes)"
					},
					{
						"Row": "5",
						"Type": "RTID(lostcity_jane@ZombieTypes)"
					},
					{
						"Row": "1",
						"Type": "RTID(lostcity_relichunter@ZombieTypes)"
					},
					{
						"Row": "2",
						"Type": "RTID(lostcity_relichunter@ZombieTypes)"
					},
					{
						"Row": "3",
						"Type": "RTID(lostcity_relichunter@ZombieTypes)"
					},
					{
						"Row": "4",
						"Type": "RTID(lostcity_relichunter@ZombieTypes)"
					},
					{
						"Row": "5",
						"Type": "RTID(lostcity_relichunter@ZombieTypes)"
					}
				]
			}
		}
	],
	"version": 1
}