{
	"#comment": "Modern 36",
	"objects": [
		{
			"objclass": "LevelDefinition",
			"objdata": {
				"Description": "[EPIC_QUEST_MODERN_NEW_TITLE]",
				"LevelNumber": 2,
				"Loot": "RTID(DefaultLoot@LevelModules)",
				"Modules": [
					"RTID(StandardIntro@LevelModules)",
					"RTID(DefaultSunDropper@LevelModules)",
					"RTID(ZombiesDeadWinCon@LevelModules)",
					"RTID(ModernMowers@LevelModules)",
					"RTID(SeedBank@CurrentLevel)",
					"RTID(ChallengeModule@CurrentLevel)",
					"RTID(DefaultZombieWinCondition@LevelModules)",
					"RTID(NewWaves@CurrentLevel)"
				],
				"Name": "[EPIC_QUEST_MODERN_NEW_TITLE]",
				"NormalPresentTable": "egypt_normal_01",
				"ShinyPresentTable": "egypt_shiny_01",
				"ForceToWorldMap": true,
				"RepeatPlayForceToWorldMap": true,
				"StageModule": "RTID(ModernStage@LevelModules)"
			}
		},
		{
			"aliases": [
				"SeedBank"
			],
			"objclass": "SeedBankProperties",
			"objdata": {
				"SelectionMethod": "chooser"
			}
		},
		{
			"aliases": [
				"ChallengeModule"
			],
			"objclass": "StarChallengeModuleProperties",
			"objdata": {
				"Challenges": [
					[
						"RTID(DoNotPlantBeforeLine@CurrentLevel)"
					]
				],
				"ChallengesAlwaysAvailable": true
			}
		},
		{
			"aliases": [
				"DoNotPlantBeforeLine"
			],
			"objclass": "MoldColonyChallengeProps",
			"objdata": {
				"Locations": "RTID(Column0_To_Column2@BoardGridMaps)"
			}
		},
		{
			"aliases": [
				"NewWaves"
			],
			"objclass": "WaveManagerModuleProperties",
			"objdata": {
				"DynamicZombies": [
					{
						"PointIncrementPerWave": -10,
						"StartingPoints": -100,
						"StartingWave": 3,
						"ZombiePool": [
							"RTID(modern_newspaper@ZombieTypes)",
							"RTID(tutorial@ZombieTypes)",
							"RTID(tutorial_armor1@ZombieTypes)",
							"RTID(tutorial_armor2@ZombieTypes)"
						]
					},
					{
						"PointIncrementPerWave": -10,
						"StartingPoints": -50,
						"StartingWave": 4,
						"ZombiePool": [
							"RTID(modern_newspaper@ZombieTypes)",
							"RTID(tutorial@ZombieTypes)",
							"RTID(tutorial_armor1@ZombieTypes)",
							"RTID(tutorial_armor2@ZombieTypes)"
						]
					},
					{
						"PointIncrementPerWave": -10,
						"StartingPoints": -1,
						"StartingWave": 5,
						"ZombiePool": [
							"RTID(modern_newspaper@ZombieTypes)",
							"RTID(tutorial@ZombieTypes)",
							"RTID(tutorial_armor1@ZombieTypes)",
							"RTID(tutorial_armor2@ZombieTypes)"
						]
					},
					{},
					{
						"PointIncrementPerWave": 20,
						"StartingPoints": 200,
						"StartingWave": 5,
						"ZombiePool": [
							"RTID(modern_newspaper@ZombieTypes)",
							"RTID(tutorial@ZombieTypes)",
							"RTID(tutorial_armor1@ZombieTypes)",
							"RTID(tutorial_armor2@ZombieTypes)"
						]
					},
					{
						"PointIncrementPerWave": 40,
						"StartingPoints": 300,
						"StartingWave": 4,
						"ZombiePool": [
							"RTID(modern_newspaper@ZombieTypes)",
							"RTID(tutorial_armor1@ZombieTypes)",
							"RTID(tutorial_armor2@ZombieTypes)"
						]
					},
					{
						"PointIncrementPerWave": 60,
						"StartingPoints": 500,
						"StartingWave": 3,
						"ZombiePool": [
							"RTID(modern_newspaper@ZombieTypes)",
							"RTID(tutorial_armor2@ZombieTypes)"
						]
					}
				],
				"WaveManagerProps": "RTID(WaveManagerProps@CurrentLevel)"
			}
		},
		{
			"aliases": [
				"WaveManagerProps"
			],
			"objclass": "WaveManagerProperties",
			"objdata": {
				"FlagWaveInterval": 2,
				"FlagWaveVeteranOverrideTypes": [
					1,
					1,
					1
				],
				"WaveCount": 6,
				"WaveSpendingPointIncrement": 100,
				"WaveSpendingPoints": 100,
				"Waves": [
					[
						"RTID(Wave1@CurrentLevel)"
					],
					[
						"RTID(Wave2@CurrentLevel)"
					],
					[
						"RTID(Wave3@CurrentLevel)"
					],
					[
						"RTID(Wave4@CurrentLevel)"
					],
					[
						"RTID(Wave5@CurrentLevel)"
					],
					[
						"RTID(Wave6@CurrentLevel)"
					]
				]
			}
		},
		{
			"aliases": [
				"Wave1"
			],
			"objclass": "SpawnZombiesJitteredWaveActionProps",
			"objdata": {
				"AdditionalPlantfood": 0,
				"Zombies": [
					{
						"Row": "4",
						"Type": "RTID(cannon@ZombieTypes)"
					},
					{
						"Row": "2",
						"Type": "RTID(cannon@ZombieTypes)"
					}
				]
			}
		},
		{
			"aliases": [
				"Wave2"
			],
			"objclass": "SpawnZombiesJitteredWaveActionProps",
			"objdata": {
				"DynamicPlantfood": [
					1,
					0,
					0,
					0,
					0,
					0,
					0
				],
				"Zombies": [
					{
						"Type": "RTID(modern_newspaper@ZombieTypes)"
					},
					{
						"Type": "RTID(modern_newspaper@ZombieTypes)"
					},
					{
						"Row": "4",
						"Type": "RTID(dark_wizard@ZombieTypes)"
					},
					{
						"Row": "2",
						"Type": "RTID(dark_wizard@ZombieTypes)"
					}
				]
			}
		},
		{
			"aliases": [
				"Wave3"
			],
			"objclass": "SpawnZombiesJitteredWaveActionProps",
			"objdata": {
				"AdditionalPlantfood": 1,
				"Zombies": [
					{
						"Row": "4",
						"Type": "RTID(tutorial_armor2@ZombieTypes)"
					},
					{
						"Row": "2",
						"Type": "RTID(tutorial_armor2@ZombieTypes)"
					},
					{
						"Type": "RTID(tutorial_armor2@ZombieTypes)"
					},
					{
						"Type": "RTID(tutorial_armor1@ZombieTypes)"
					},
					{
						"Type": "RTID(tutorial_armor2@ZombieTypes)"
					},
					{
						"Type": "RTID(tutorial_armor1@ZombieTypes)"
					}
				]
			}
		},
		{
			"aliases": [
				"Wave4"
			],
			"objclass": "SpawnZombiesJitteredWaveActionProps",
			"objdata": {
				"AdditionalPlantfood": 0,
				"Zombies": [
					{
						"Type": "RTID(tutorial_armor1@ZombieTypes)"
					},
					{
						"Type": "RTID(tutorial_armor2@ZombieTypes)"
					},
					{
						"Type": "RTID(tutorial_armor1@ZombieTypes)"
					},
					{
						"Row": "5",
						"Type": "RTID(dark_wizard@ZombieTypes)"
					},
					{
						"Row": "3",
						"Type": "RTID(dark_wizard@ZombieTypes)"
					},
					{
						"Row": "1",
						"Type": "RTID(dark_wizard@ZombieTypes)"
					},
					{
						"Row": "1",
						"Type": "RTID(cannon@ZombieTypes)"
					},
					{
						"Row": "5",
						"Type": "RTID(cannon@ZombieTypes)"
					}
				]
			}
		},
		{
			"aliases": [
				"Wave5"
			],
			"objclass": "SpawnZombiesJitteredWaveActionProps",
			"objdata": {
				"AdditionalPlantfood": 0,
				"DynamicPlantfood": [
					1,
					1,
					1,
					1,
					1,
					0,
					0
				],
				"Zombies": [
					{
						"Row": "1",
						"Type": "RTID(modern_newspaper@ZombieTypes)"
					},
					{
						"Row": "5",
						"Type": "RTID(modern_newspaper@ZombieTypes)"
					},
					{
						"Type": "RTID(tutorial_armor1@ZombieTypes)"
					},
					{
						"Type": "RTID(tutorial_armor1@ZombieTypes)"
					},
					{
						"Type": "RTID(tutorial_armor2@ZombieTypes)"
					},
					{
						"Type": "RTID(tutorial_armor1@ZombieTypes)"
					},
					{
						"Type": "RTID(tutorial_armor2@ZombieTypes)"
					}
				]
			}
		},
		{
			"aliases": [
				"Wave6"
			],
			"objclass": "SpawnZombiesJitteredWaveActionProps",
			"objdata": {
				"AdditionalPlantfood": 0,
				"Zombies": [
					{
						"Type": "RTID(tutorial_armor2@ZombieTypes)"
					},
					{
						"Type": "RTID(tutorial_armor1@ZombieTypes)"
					},
					{
						"Type": "RTID(tutorial_armor2@ZombieTypes)"
					},
					{
						"Row": "4",
						"Type": "RTID(modern_newspaper@ZombieTypes)"
					},
					{
						"Row": "3",
						"Type": "RTID(modern_newspaper@ZombieTypes)"
					},
					{
						"Row": "2",
						"Type": "RTID(modern_newspaper@ZombieTypes)"
					},
					{
						"Row": "4",
						"Type": "RTID(dark_wizard@ZombieTypes)"
					},
					{
						"Row": "2",
						"Type": "RTID(dark_wizard@ZombieTypes)"
					}
				]
			}
		}
	],
	"version": 1
}