{
	"#comment": "Zombie Scaling Epic Quest 2b - Level 18",
	"objects": [
		{
			"objclass": "LevelDefinition",
			"objdata": {
				"Description": "[PLAYERS_EPIC_QUEST_ZOMBIESCALING_2]",
				"DisablePlantBoosts": true,
				"FirstRewardParam": "free_pinata_elder_expansion_levels",
				"FirstRewardType": "pinata",
				"LevelNumber": 18,
				"Loot": "RTID(DefaultLoot@LevelModules)",
				"Modules": [
					"RTID(StandardIntro@LevelModules)",
					"RTID(DefaultSecurityGourds@LevelModules)",
					"RTID(DefaultSunDropper@LevelModules)",
					"RTID(ZombiesDeadWinCon@LevelModules)",
					"RTID(SeedBank@CurrentLevel)",
					"RTID(DefaultZombieWinCondition@LevelModules)",
					"RTID(NewWaves@CurrentLevel)",
					"RTID(SliderPlacement@CurrentLevel)",
					"RTID(FrozenPlantPlacement@CurrentLevel)"
				],
				"Name": "[EPIC_QUEST_ZOMBIESCALING_LEVELNAME]",
				"NormalPresentTable": "egypt_normal_01",
				"ShinyPresentTable": "egypt_shiny_01",
				"StageModule": "RTID(IceageStageNoPowerUps@LevelModules)",
				"SuppressAccountUpgrades": true,
				"SuppressPlantfoodPurchase": true,
				"ZombieLevel": 18,
				"GridItemLevel": 18
			}
		},
		{
			"aliases": [
				"SliderPlacement"
			],
			"objclass": "InitialGridItemProperties",
			"objdata": {
				"InitialGridItemPlacements": [
					{
						"GridX": 4,
						"GridY": 0,
						"TypeName": "slider_down"
					},
					{
						"GridX": 6,
						"GridY": 0,
						"TypeName": "slider_down"
					},
					{
						"GridX": 7,
						"GridY": 1,
						"TypeName": "slider_up"
					},
					{
						"GridX": 3,
						"GridY": 1,
						"TypeName": "slider_up"
					},
					{
						"GridX": 5,
						"GridY": 1,
						"TypeName": "slider_up"
					},
					{
						"GridX": 7,
						"GridY": 3,
						"TypeName": "slider_down"
					},
					{
						"GridX": 3,
						"GridY": 3,
						"TypeName": "slider_down"
					},
					{
						"GridX": 5,
						"GridY": 3,
						"TypeName": "slider_down"
					},
					{
						"GridX": 4,
						"GridY": 4,
						"TypeName": "slider_up"
					},
					{
						"GridX": 6,
						"GridY": 4,
						"TypeName": "slider_up"
					}
				]
			}
		},
		{
			"aliases": [
				"FrozenPlantPlacement"
			],
			"objclass": "InitialPlantProperties",
			"objdata": {
				"InitialPlantPlacements": [
					{
						"Condition": "icecubed",
						"GridX": 2,
						"GridY": 0,
						"Level": "-1",
						"TypeName": "powerplant"
					},
					{
						"Condition": "icecubed",
						"GridX": 2,
						"GridY": 2,
						"Level": "-1",
						"TypeName": "powerplant"
					},
					{
						"Condition": "icecubed",
						"GridX": 2,
						"GridY": 4,
						"Level": "-1",
						"TypeName": "powerplant"
					}
				]
			}
		},
		{
			"aliases": [
				"SeedBank"
			],
			"objclass": "SeedBankProperties",
			"objdata": {
				"PresetPlantList": [],
				"SelectionMethod": "chooser"
			}
		},
		{
			"aliases": [
				"NewWaves"
			],
			"objclass": "WaveManagerModuleProperties",
			"objdata": {
				"DynamicZombies": [
					{
						"PointIncrementPerWave": -40,
						"StartingPoints": -100,
						"StartingWave": 3,
						"ZombiePool": [
							"RTID(iceage@ZombieTypes)",
							"RTID(iceage_armor1@ZombieTypes)",
							"RTID(iceage_armor2@ZombieTypes)"
						]
					},
					{
						"PointIncrementPerWave": -25,
						"StartingPoints": -100,
						"StartingWave": 4,
						"ZombiePool": [
							"RTID(iceage@ZombieTypes)",
							"RTID(iceage_armor1@ZombieTypes)",
							"RTID(iceage_armor2@ZombieTypes)"
						]
					},
					{
						"PointIncrementPerWave": -10,
						"StartingPoints": -100,
						"StartingWave": 5,
						"ZombiePool": [
							"RTID(iceage@ZombieTypes)",
							"RTID(iceage_armor1@ZombieTypes)",
							"RTID(iceage_armor2@ZombieTypes)"
						]
					},
					{},
					{
						"PointIncrementPerWave": 20,
						"StartingPoints": 100,
						"StartingWave": 5,
						"ZombiePool": [
							"RTID(iceage@ZombieTypes)",
							"RTID(iceage_armor1@ZombieTypes)",
							"RTID(iceage_armor2@ZombieTypes)"
						]
					},
					{
						"PointIncrementPerWave": 40,
						"StartingPoints": 200,
						"StartingWave": 4,
						"ZombiePool": [
							"RTID(iceage_armor1@ZombieTypes)",
							"RTID(iceage_armor2@ZombieTypes)"
						]
					},
					{
						"PointIncrementPerWave": 60,
						"StartingPoints": 400,
						"StartingWave": 3,
						"ZombiePool": [
							"RTID(iceage_armor2@ZombieTypes)"
						]
					}
				],
				"WaveManagerProps": "RTID(WaveManagerProps@CurrentLevel)"
			}
		},
		{
			"aliases": [
				"WaveManagerProps"
			],
			"objclass": "WaveManagerProperties",
			"objdata": {
				"FlagWaveInterval": 3,
				"WaveCount": 6,
				"WaveSpendingPointIncrement": 150,
				"WaveSpendingPoints": 100,
				"Waves": [
					[
						"RTID(Wave1@CurrentLevel)"
					],
					[
						"RTID(Wave2@CurrentLevel)"
					],
					[
						"RTID(Wave3@CurrentLevel)"
					],
					[
						"RTID(Wave4@CurrentLevel)"
					],
					[
						"RTID(Wave5@CurrentLevel)"
					],
					[
						"RTID(Wave6@CurrentLevel)"
					]
				]
			}
		},
		{
			"aliases": [
				"Wave1"
			],
			"objclass": "SpawnZombiesJitteredWaveActionProps",
			"objdata": {
				"AdditionalPlantfood": 0,
				"Zombies": [
					{
						"Type": "RTID(iceage@ZombieTypes)"
					}
				]
			}
		},
		{
			"aliases": [
				"Wave2"
			],
			"objclass": "SpawnZombiesJitteredWaveActionProps",
			"objdata": {
				"AdditionalPlantfood": 1,
				"Zombies": [
					{
						"Type": "RTID(iceage_armor1@ZombieTypes)"
					},
					{
						"Type": "RTID(iceage@ZombieTypes)"
					}
				]
			}
		},
		{
			"aliases": [
				"Wave3"
			],
			"objclass": "SpawnZombiesJitteredWaveActionProps",
			"objdata": {
				"AdditionalPlantfood": 0,
				"DynamicPlantfood": [
					1,
					1,
					1,
					1,
					0,
					0,
					0
				],
				"Zombies": [
					{
						"Row": "3",
						"Type": "RTID(iceage_troglobite@ZombieTypes)"
					},
					{
						"Row": "1",
						"Type": "RTID(iceage_weaselhoarder@ZombieTypes)"
					},
					{
						"Row": "5",
						"Type": "RTID(iceage_weaselhoarder@ZombieTypes)"
					}
				]
			}
		},
		{
			"aliases": [
				"Wave4"
			],
			"objclass": "SpawnZombiesJitteredWaveActionProps",
			"objdata": {
				"AdditionalPlantfood": 0,
				"Zombies": [
					{
						"Type": "RTID(iceage_armor1@ZombieTypes)"
					},
					{
						"Type": "RTID(iceage_armor1@ZombieTypes)"
					},
					{
						"Type": "RTID(iceage_armor1@ZombieTypes)"
					}
				]
			}
		},
		{
			"aliases": [
				"Wave5"
			],
			"objclass": "SpawnZombiesJitteredWaveActionProps",
			"objdata": {
				"AdditionalPlantfood": 1,
				"DynamicPlantfood": [
					1,
					1,
					1,
					1,
					1,
					1,
					1
				],
				"Zombies": [
					{
						"Type": "RTID(iceage_armor2@ZombieTypes)"
					},
					{
						"Type": "RTID(iceage_armor1@ZombieTypes)"
					},
					{
						"Type": "RTID(iceage_weaselhoarder@ZombieTypes)"
					},
					{
						"Type": "RTID(iceage@ZombieTypes)"
					}
				]
			}
		},
		{
			"aliases": [
				"Wave6"
			],
			"objclass": "SpawnZombiesJitteredWaveActionProps",
			"objdata": {
				"AdditionalPlantfood": 0,
				"Zombies": [
					{
						"Type": "RTID(iceage_armor2@ZombieTypes)"
					},
					{
						"Row": "3",
						"Type": "RTID(iceage_troglobite@ZombieTypes)"
					},
					{
						"Row": "4",
						"Type": "RTID(iceage_weaselhoarder@ZombieTypes)"
					},
					{
						"Row": "2",
						"Type": "RTID(iceage_weaselhoarder@ZombieTypes)"
					},
					{
						"Row": "5",
						"Type": "RTID(iceage_weaselhoarder@ZombieTypes)"
					},
					{
						"Row": "1",
						"Type": "RTID(iceage_weaselhoarder@ZombieTypes)"
					}
				]
			}
		}
	],
	"version": 1
}