{
	"#comment": "Rift Template",
	"objects": [
		{
			"objclass": "LevelDefinition",
			"objdata": {
				"Description": "[PLAYERS_TRIP_TO_RIFT]",
				"DisablePlantBoosts": false,
				"LevelMutator": "RTID(LevelMutator@CurrentLevel)",
				"LevelNumber": "",
				"Loot": "",
				"Modules": [
					"RTID(DefaultSunDropper@LevelModules)",
					"RTID(StandardRiftIntro@LevelModules)",
					"RTID(ZombiesDeadWinCon@LevelModules)",
					"RTID(LostCityMowers@LevelModules)",
					"RTID(SeedBank@CurrentLevel)",
					"RTID(DefaultZombieWinCondition@LevelModules)",
					"RTID(NewWaves@CurrentLevel)",
					"RTID(PerkActivator@CurrentLevel)",
					"RTID(GoldTiles@CurrentLevel)",
					"RTID(LevelDifficultyScaling@CurrentLevel)"
				],
				"MusicType": "MiniGame_A",
				"Name": "[RIFT_LEVEL_NAME]",
				"NormalPresentTable": "egypt_normal_01",
				"PerksDisabledInLevel": [
					"moarscore",
					"bossbustercannon"
				],
				"PerksDisabledPerDifficulty": [
					[],
					[],
					[]
				],
				"ShinyPresentTable": "egypt_shiny_01",
				"StageModule": "RTID(LostCityStage@LevelModules)",
				"VictoryModule": "RTID(RiftOutro@LevelModules)"
			}
		},
		{
			"aliases": [
				"GoldTiles"
			],
			"objclass": "InitialGridItemProperties",
			"objdata": {
				"InitialGridItemPlacements": [
					{
						"GridX": 0,
						"GridY": 0,
						"TypeName": "goldtile"
					},
					{
						"GridX": 1,
						"GridY": 0,
						"TypeName": "goldtile"
					},
					{
						"GridX": 2,
						"GridY": 0,
						"TypeName": "goldtile"
					},
					{
						"GridX": 3,
						"GridY": 0,
						"TypeName": "goldtile"
					},
					{
						"GridX": 4,
						"GridY": 0,
						"TypeName": "flame_spreader_trap"
					},
					{
						"GridX": 0,
						"GridY": 1,
						"TypeName": "goldtile"
					},
					{
						"GridX": 1,
						"GridY": 1,
						"TypeName": "goldtile"
					},
					{
						"GridX": 2,
						"GridY": 1,
						"TypeName": "goldtile"
					},
					{
						"GridX": 3,
						"GridY": 1,
						"TypeName": "goldtile"
					},
					{
						"GridX": 4,
						"GridY": 1,
						"TypeName": "flame_spreader_trap"
					},
					{
						"GridX": 0,
						"GridY": 2,
						"TypeName": "goldtile"
					},
					{
						"GridX": 1,
						"GridY": 2,
						"TypeName": "goldtile"
					},
					{
						"GridX": 2,
						"GridY": 2,
						"TypeName": "goldtile"
					},
					{
						"GridX": 3,
						"GridY": 2,
						"TypeName": "goldtile"
					},
					{
						"GridX": 4,
						"GridY": 2,
						"TypeName": "flame_spreader_trap"
					},
					{
						"GridX": 0,
						"GridY": 3,
						"TypeName": "goldtile"
					},
					{
						"GridX": 1,
						"GridY": 3,
						"TypeName": "goldtile"
					},
					{
						"GridX": 2,
						"GridY": 3,
						"TypeName": "goldtile"
					},
					{
						"GridX": 3,
						"GridY": 3,
						"TypeName": "goldtile"
					},
					{
						"GridX": 4,
						"GridY": 3,
						"TypeName": "flame_spreader_trap"
					},
					{
						"GridX": 0,
						"GridY": 4,
						"TypeName": "goldtile"
					},
					{
						"GridX": 1,
						"GridY": 4,
						"TypeName": "goldtile"
					},
					{
						"GridX": 2,
						"GridY": 4,
						"TypeName": "goldtile"
					},
					{
						"GridX": 3,
						"GridY": 4,
						"TypeName": "goldtile"
					},
					{
						"GridX": 4,
						"GridY": 4,
						"TypeName": "flame_spreader_trap"
					}
				]
			}
		},
		{
			"aliases": [
				"PerkActivator"
			],
			"objclass": "PerkHandlerModuleProperties",
			"objdata": {}
		},
		{
			"aliases": [
				"LevelMutator"
			],
			"objclass": "LevelMutatorModuleProperties",
			"objdata": {
				"MutatorTables": [
					"RTID(MutatorPropsRiftNormal@LevelMutatorTables)",
					"RTID(LocalChallengeMutator@CurrentLevel)",
					"RTID(LocalMainChallengeMutator@CurrentLevel)",
					"RTID(MutatorGridRiftGoldTiles2@LevelMutatorTables)"
				]
			}
		},
		{
			"aliases": [
				"LocalMainChallengeMutator"
			],
			"objclass": "LevelMutatorTableProps",
			"objdata": {
				"Tables": [
					{
						"Level": 0,
						"ModuleType": "mainchallenge",
						"Modules": [
							"RTID(BeatTheLevel@CurrentLevel)"
						]
					},
					{
						"Level": 1,
						"ModuleType": "mainchallenge",
						"Modules": [
							"RTID(BeatTheLevel@CurrentLevel)"
						]
					},
					{
						"Level": 2,
						"ModuleType": "mainchallenge",
						"Modules": [
							"RTID(BeatTheLevel@CurrentLevel)"
						]
					}
				]
			}
		},
		{
			"aliases": [
				"BeatTheLevel"
			],
			"objclass": "StarChallengeBeatTheLevelProps",
			"objdata": {
				"Description": "[STARCHALLENGE_RIFT_NORMAL]",
				"DescriptiveName": "[STARCHALLENGE_RIFT_NORMAL_NAME]"
			}
		},
		{
			"aliases": [
				"LocalChallengeMutator"
			],
			"objclass": "LevelMutatorTableProps",
			"objdata": {
				"Tables": [
					{
						"Level": 0,
						"ModuleType": "bonuschallenge",
						"Modules": [
							"RTID(SunProduced1@CurrentLevel)"
						]
					},
					{
						"Level": 1,
						"ModuleType": "bonuschallenge",
						"Modules": [
							"RTID(SunProduced2@CurrentLevel)",
							"RTID(ApplyZombieConditions2@CurrentLevel)"
						]
					},
					{
						"Level": 2,
						"ModuleType": "bonuschallenge",
						"Modules": [
							"RTID(SunProduced3@CurrentLevel)",
							"RTID(ApplyZombieConditions3@CurrentLevel)"
						]
					}
				]
			}
		},
		{
			"aliases": [
				"SunProduced1"
			],
			"objclass": "StarChallengeSunProducedProps",
			"objdata": {
				"TargetSun": 15000
			}
		},
		{
			"aliases": [
				"SunProduced2"
			],
			"objclass": "StarChallengeSunProducedProps",
			"objdata": {
				"TargetSun": 30000
			}
		},
		{
			"aliases": [
				"SunProduced3"
			],
			"objclass": "StarChallengeSunProducedProps",
			"objdata": {
				"TargetSun": 50000
			}
		},
		{
			"aliases": [
				"ApplyZombieConditions2"
			],
			"objclass": "ApplyZombieConditionsChallengeProps",
			"objdata": {
				"ConditionToInflict": [
					"stun",
					"dazeystunned"
				],
				"NumZombieConditionsToApply": 75
			}
		},
		{
			"aliases": [
				"ApplyZombieConditions3"
			],
			"objclass": "ApplyZombieConditionsChallengeProps",
			"objdata": {
				"ConditionToInflict": [
					"stun",
					"dazeystunned"
				],
				"NumZombieConditionsToApply": 125
			}
		},
		{
			"aliases": [
				"SeedBank"
			],
			"objclass": "SeedBankProperties",
			"objdata": {
				"ExcludeListSunProducers": false,
				"PlantExcludeList": [],
				"SelectionMethod": "chooser"
			}
		},
		{
			"aliases": [
				"LevelDifficultyScaling"
			],
			"objclass": "LevelDifficultyScalingModuleProperties",
			"objdata": {
				"DifficultyRulesType": "RiftDifficulty",
				"ZombieLevelSwaps": [
					{
						"Level": 0,
						"Swaps": [
							{
								"From": "RTID(lostcity@ZombieTypes)",
								"To": [
									"RTID(roman@ZombieTypes)",
									"RTID(lostcity@ZombieTypes)"
								]
							}
						]
					},
					{
						"Level": 4,
						"Swaps": [
							{
								"From": "RTID(lostcity@ZombieTypes)",
								"To": [
									"RTID(roman_armor1@ZombieTypes)",
									"RTID(lostcity_armor1@ZombieTypes)",
									"RTID(lostcity_bug@ZombieTypes)"
								]
							}
						]
					},
					{
						"Level": 7,
						"Swaps": [
							{
								"From": "RTID(lostcity@ZombieTypes)",
								"To": [
									"RTID(roman_shield_triad@ZombieTypes)",
									"RTID(lostcity_armor1@ZombieTypes)",
									"RTID(lostcity_bug_armor1@ZombieTypes)"
								]
							}
						]
					}
				]
			}
		},
		{
			"aliases": [
				"NewWaves"
			],
			"objclass": "WaveManagerModuleProperties",
			"objdata": {
				"DynamicZombies": [
					{
						"PointIncrementPerWave": 0,
						"StartingPoints": 0,
						"StartingWave": 0,
						"ZombiePool": [
							"RTID(roman_medusa@ZombieTypes)"
						]
					},
					{
						"PointIncrementPerWave": 0,
						"StartingPoints": 0,
						"StartingWave": 0,
						"ZombiePool": [
							"RTID(roman_medusa@ZombieTypes)"
						]
					},
					{
						"PointIncrementPerWave": 0,
						"StartingPoints": 0,
						"StartingWave": 0,
						"ZombiePool": [
							"RTID(roman_medusa@ZombieTypes)"
						]
					},
					{
						"MaxPoints": 1000,
						"PointIncrementPerWave": 0,
						"StartingPoints": 1000,
						"StartingWave": 8,
						"ZombiePool": [
							"RTID(roman_medusa@ZombieTypes)"
						]
					},
					{
						"PointIncrementPerWave": 0,
						"StartingPoints": 0,
						"StartingWave": 0,
						"ZombiePool": [
							"RTID(roman_medusa@ZombieTypes)"
						]
					},
					{
						"PointIncrementPerWave": 0,
						"StartingPoints": 0,
						"StartingWave": 0,
						"ZombiePool": [
							"RTID(roman_medusa@ZombieTypes)"
						]
					},
					{
						"PointIncrementPerWave": 0,
						"StartingPoints": 0,
						"StartingWave": 0,
						"ZombiePool": [
							"RTID(roman_medusa@ZombieTypes)"
						]
					}
				],
				"WaveManagerProps": "RTID(WaveManagerProps@CurrentLevel)"
			}
		},
		{
			"aliases": [
				"WaveManagerProps"
			],
			"objclass": "WaveManagerProperties",
			"objdata": {
				"FlagWaveInterval": 4,
				"WaveCount": 12,
				"WaveSpendingPointIncrement": 100,
				"WaveSpendingPoints": 150,
				"Waves": [
					[
						"RTID(Wave1@CurrentLevel)"
					],
					[
						"RTID(Wave2@CurrentLevel)"
					],
					[
						"RTID(Wave3@CurrentLevel)"
					],
					[
						"RTID(Wave4@CurrentLevel)"
					],
					[
						"RTID(Wave5@CurrentLevel)"
					],
					[
						"RTID(Wave6@CurrentLevel)"
					],
					[
						"RTID(Wave7@CurrentLevel)"
					],
					[
						"RTID(Wave8@CurrentLevel)"
					],
					[
						"RTID(Wave9@CurrentLevel)"
					],
					[
						"RTID(Wave10@CurrentLevel)"
					],
					[
						"RTID(Wave11@CurrentLevel)"
					],
					[
						"RTID(Wave12@CurrentLevel)"
					]
				],
				"WavesAlwaysRandomized": true
			}
		},
		{
			"aliases": [
				"Wave1"
			],
			"objclass": "SpawnZombiesJitteredWaveActionProps",
			"objdata": {
				"Zombies": [
					{
						"Type": "RTID(lostcity_armor1@ZombieTypes)"
					}
				]
			}
		},
		{
			"aliases": [
				"Wave2"
			],
			"objclass": "SpawnZombiesJitteredWaveActionProps",
			"objdata": {
				"Zombies": [
					{
						"Type": "RTID(lostcity_imp@ZombieTypes)"
					},
					{
						"Type": "RTID(lostcity_imp@ZombieTypes)"
					},
					{
						"Type": "RTID(lostcity_imp@ZombieTypes)"
					},
					{
						"Type": "RTID(lostcity_imp@ZombieTypes)"
					}
				]
			}
		},
		{
			"aliases": [
				"Wave3"
			],
			"objclass": "SpawnZombiesJitteredWaveActionProps",
			"objdata": {
				"Zombies": [
					{
						"Row": "1",
						"Type": "RTID(lostcity_bug@ZombieTypes)"
					},
					{
						"Row": "5",
						"Type": "RTID(lostcity_bug@ZombieTypes)"
					},
					{
						"Row": "3",
						"Type": "RTID(lostcity_jane@ZombieTypes)"
					}
				]
			}
		},
		{
			"aliases": [
				"Wave4"
			],
			"objclass": "SpawnZombiesJitteredWaveActionProps",
			"objdata": {
				"AdditionalPlantfood": 1,
				"Zombies": [
					{
						"Type": "RTID(lostcity_excavator@ZombieTypes)"
					},
					{
						"Type": "RTID(lostcity@ZombieTypes)"
					},
					{
						"Type": "RTID(lostcity_excavator@ZombieTypes)"
					},
					{
						"Type": "RTID(lostcity_armor1@ZombieTypes)"
					}
				]
			}
		},
		{
			"aliases": [
				"Wave5"
			],
			"objclass": "SpawnZombiesJitteredWaveActionProps",
			"objdata": {
				"Zombies": [
					{
						"Type": "RTID(lostcity@ZombieTypes)"
					},
					{
						"Type": "RTID(lostcity_bug@ZombieTypes)"
					},
					{
						"Type": "RTID(lostcity_bug@ZombieTypes)"
					}
				]
			}
		},
		{
			"aliases": [
				"Wave6"
			],
			"objclass": "SpawnZombiesJitteredWaveActionProps",
			"objdata": {
				"Zombies": [
					{
						"Type": "RTID(lostcity@ZombieTypes)"
					},
					{
						"Type": "RTID(lostcity_gargantuar@ZombieTypes)"
					},
					{
						"Type": "RTID(lostcity_jane@ZombieTypes)"
					}
				]
			}
		},
		{
			"aliases": [
				"Wave7"
			],
			"objclass": "SpawnZombiesJitteredWaveActionProps",
			"objdata": {
				"AdditionalPlantfood": 1,
				"Zombies": [
					{
						"Type": "RTID(lostcity@ZombieTypes)"
					},
					{
						"Type": "RTID(lostcity_jane@ZombieTypes)"
					},
					{
						"Type": "RTID(lostcity_jane@ZombieTypes)"
					},
					{
						"Type": "RTID(lostcity_jane@ZombieTypes)"
					}
				]
			}
		},
		{
			"aliases": [
				"Wave8"
			],
			"objclass": "SpawnZombiesJitteredWaveActionProps",
			"objdata": {
				"Zombies": [
					{
						"Type": "RTID(lostcity_excavator@ZombieTypes)"
					},
					{
						"Type": "RTID(lostcity_bug@ZombieTypes)"
					},
					{
						"Type": "RTID(lostcity_bug_armor1@ZombieTypes)"
					},
					{
						"Row": "3",
						"Type": "RTID(lostcity_jane@ZombieTypes)"
					},
					{
						"Type": "RTID(lostcity@ZombieTypes)"
					},
					{
						"Type": "RTID(lostcity_armor1@ZombieTypes)"
					}
				]
			}
		},
		{
			"aliases": [
				"Wave9"
			],
			"objclass": "SpawnZombiesJitteredWaveActionProps",
			"objdata": {
				"Zombies": [
					{
						"Type": "RTID(lostcity_excavator@ZombieTypes)"
					},
					{
						"Type": "RTID(lostcity@ZombieTypes)"
					},
					{
						"Type": "RTID(lostcity_armor2@ZombieTypes)"
					}
				]
			}
		},
		{
			"aliases": [
				"Wave10"
			],
			"objclass": "SpawnZombiesJitteredWaveActionProps",
			"objdata": {
				"Zombies": [
					{
						"Type": "RTID(lostcity_jane@ZombieTypes)"
					},
					{
						"Type": "RTID(lostcity_armor1@ZombieTypes)"
					}
				]
			}
		},
		{
			"aliases": [
				"Wave11"
			],
			"objclass": "SpawnZombiesJitteredWaveActionProps",
			"objdata": {
				"AdditionalPlantfood": 1,
				"Zombies": [
					{
						"Type": "RTID(lostcity_armor2@ZombieTypes)"
					}
				]
			}
		},
		{
			"aliases": [
				"Wave12"
			],
			"objclass": "SpawnZombiesJitteredWaveActionProps",
			"objdata": {
				"AdditionalPlantfood": 0,
				"Zombies": [
					{
						"Type": "RTID(lostcity_gargantuar@ZombieTypes)"
					},
					{
						"Type": "RTID(lostcity_gargantuar@ZombieTypes)"
					},
					{
						"Type": "RTID(lostcity_excavator@ZombieTypes)"
					}
				]
			}
		}
	],
	"version": 1
}