{
	"#comment": "Rift 3 node 4 - Eighties 24 v1",
	"objects": [
		{
			"objclass": "LevelDefinition",
			"objdata": {
				"Description": "[PLAYERS_TRIP_TO_RIFT]",
				"LevelNumber": "",
				"DisablePlantBoosts": false,
				"Loot": "",
				"DoMusicChanges": false,
				"Modules": [
					"RTID(ZombiesDeadWinCon@LevelModules)",
					"RTID(EightiesMowers@LevelModules)",
					"RTID(SeedBank@CurrentLevel)",
					"RTID(DefaultZombieWinCondition@LevelModules)",
					"RTID(NewWaves@CurrentLevel)",
					"RTID(LastStand@CurrentLevel)",
					"RTID(PerkActivator@CurrentLevel)",
					"RTID(LevelDifficultyScaling@CurrentLevel)",
					"RTID(TreadmillGeneralZombie90sModule@LevelModules)"
				],
				"MusicType": "MiniGame_A",
				"Name": "[RIFT_LEVEL_NAME]",
				"NormalPresentTable": "egypt_normal_01",
				"ShinyPresentTable": "egypt_shiny_01",
				"VictoryModule": "RTID(RiftOutro@LevelModules)",
				"StageModule": "RTID(EightiesStage@LevelModules)",
				"LevelMutator": "RTID(LevelMutator@CurrentLevel)",
				"PerksDisabledInLevel": [
					"moarscore",
					"zombieinhibitorballista"
				],
				"PerksDisabledPerDifficulty": [
					[],
					[],
					[]
				]
			}
		},
		{
			"aliases": [
				"SeedBank"
			],
			"objclass": "SeedBankProperties",
			"objdata": {
				"PresetPlantList": [],
				"ExcludeListSunProducers": true,
				"PlantExcludeList": [
					"iceburg",
					"puffshroom",
					"melonpult",
					"toadstool",
					"goldleaf",
					"stallia",
					"spearmint",
					"peppermint",
					"appeasemint",
					"enforcemint",
					"concealmint",
					"filamint",
					"wintermint",
					"bombardmint",
					"armamint",
					"ailmint",
					"reinforcemint",
					"containmint",
					"enchantmint"
				],
				"SelectionMethod": "chooser"
			}
		},
		{
			"aliases": [
				"LastStand"
			],
			"objclass": "LastStandMinigameProperties",
			"objdata": {
				"StartingPlantfood": 0,
				"StartingSun": 2000,
				"PreSeedchooserFlow": "rift"
			}
		},
		{
			"aliases": [
				"PerkActivator"
			],
			"objclass": "PerkHandlerModuleProperties",
			"objdata": {}
		},
		{
			"aliases": [
				"LevelMutator"
			],
			"objclass": "LevelMutatorModuleProperties",
			"objdata": {
				"MutatorTables": [
					"RTID(MutatorPropsRiftLastStand@LevelMutatorTables)",
					"RTID(LocalChallengeMutator@CurrentLevel)",
					"RTID(LocalMainChallengeMutator@CurrentLevel)"
				]
			}
		},
		{
			"aliases": [
				"LocalMainChallengeMutator"
			],
			"objclass": "LevelMutatorTableProps",
			"objdata": {
				"Tables": [
					{
						"Level": 0,
						"Modules": [
							"RTID(BeatTheLevel@CurrentLevel)"
						],
						"ModuleType": "mainchallenge"
					},
					{
						"Level": 1,
						"Modules": [
							"RTID(BeatTheLevel@CurrentLevel)"
						],
						"ModuleType": "mainchallenge"
					},
					{
						"Level": 2,
						"Modules": [
							"RTID(BeatTheLevel@CurrentLevel)"
						],
						"ModuleType": "mainchallenge"
					}
				]
			}
		},
		{
			"aliases": [
				"BeatTheLevel"
			],
			"objclass": "StarChallengeBeatTheLevelProps",
			"objdata": {
				"Description": "[STARCHALLENGE_LASTSTAND_MINIGAME]",
				"DescriptiveName": "[STARCHALLENGE_LASTSTAND_MINIGAME_NAME]"
			}
		},
		{
			"aliases": [
				"LocalChallengeMutator"
			],
			"objclass": "LevelMutatorTableProps",
			"objdata": {
				"Tables": [
					{
						"Level": 0,
						"ModuleType": "bonuschallenge",
						"Modules": [
							"RTID(SimultaneousPlants@CurrentLevel)"
						]
					},
					{
						"Level": 1,
						"ModuleType": "bonuschallenge",
						"Modules": [
							"RTID(SimultaneousPlants@CurrentLevel)",
							"RTID(DefeatGeneralPhases2@CurrentLevel)"
						]
					},
					{
						"Level": 2,
						"ModuleType": "bonuschallenge",
						"Modules": [
							"RTID(SimultaneousPlants@CurrentLevel)",
							"RTID(DefeatGeneralPhases3@CurrentLevel)"
						]
					}
				]
			}
		},
		{
			"aliases": [
				"SimultaneousPlants"
			],
			"objclass": "StarChallengeSimultaneousPlantsProps",
			"objdata": {
				"MaximumPlants": 11
			}
		},
		{
			"aliases": [
				"DefeatGeneralPhases2"
			],
			"objclass": "DefeatGeneralPhasesChallengeProps",
			"objdata": {
				"Description": "[DEFEAT_CARDIO_X_TIMES]",
				"NumPhasesToKill": 1
			}
		},
		{
			"aliases": [
				"DefeatGeneralPhases3"
			],
			"objclass": "DefeatGeneralPhasesChallengeProps",
			"objdata": {
				"Description": "[DEFEAT_CARDIO_X_TIMES]",
				"NumPhasesToKill": 2
			}
		},
		{
			"aliases": [
				"LevelDifficultyScaling"
			],
			"objclass": "LevelDifficultyScalingModuleProperties",
			"objdata": {
				"DifficultyRulesType": "RiftDifficulty",
				"ZombieLevelSwaps": [
					{
						"Level": 0,
						"Swaps": [
							{
								"From": "RTID(eighties@ZombieTypes)",
								"To": [
									"RTID(spring@ZombieTypes)",
									"RTID(roman@ZombieTypes)",
									"RTID(roman_imp@ZombieTypes)",
									"RTID(spring_imp@ZombieTypes)"
								]
							},
							{
								"From": "RTID(eighties_armor1@ZombieTypes)",
								"To": [
									"RTID(roman_armor1@ZombieTypes)",
									"RTID(spring_armor1@ZombieTypes)",
									"RTID(eighties@ZombieTypes)",
									"RTID(roman@ZombieTypes)"
								]
							},
							{
								"From": "RTID(eighties_armor2@ZombieTypes)",
								"To": [
									"RTID(spring_armor1@ZombieTypes)",
									"RTID(spring_armor2@ZombieTypes)",
									"RTID(roman_shield_triad@ZombieTypes)",
									"RTID(roman_armor1@ZombieTypes)",
									"RTID(roman_armor2@ZombieTypes)"
								]
							},
							{
								"From": "RTID(eighties_gargantuar@ZombieTypes)",
								"To": [
									"RTID(spring_gargantuar@ZombieTypes)",
									"RTID(eighties_arcade@ZombieTypes)",
									"RTID(eighties_arcade@ZombieTypes)"
								]
							}
						]
					},
					{
						"Level": 4,
						"Swaps": [
							{
								"From": "RTID(eighties@ZombieTypes)",
								"To": [
									"RTID(spring@ZombieTypes)",
									"RTID(roman@ZombieTypes)",
									"RTID(roman_imp@ZombieTypes)",
									"RTID(spring_imp@ZombieTypes)",
									"RTID(spring_armor1@ZombieTypes)",
									"RTID(roman_armor1@ZombieTypes)"
								]
							},
							{
								"From": "RTID(eighties_armor1@ZombieTypes)",
								"To": [
									"RTID(roman_armor1@ZombieTypes)",
									"RTID(spring_armor1@ZombieTypes)",
									"RTID(spring@ZombieTypes)",
									"RTID(roman@ZombieTypes)",
									"RTID(spring_armor2@ZombieTypes)",
									"RTID(roman_armor2@ZombieTypes)"
								]
							},
							{
								"From": "RTID(eighties_armor2@ZombieTypes)",
								"To": [
									"RTID(spring_armor2@ZombieTypes)",
									"RTID(eighties_punk@ZombieTypes)",
									"RTID(roman_shield_triad@ZombieTypes)",
									"RTID(roman_armor1@ZombieTypes)",
									"RTID(roman_armor2@ZombieTypes)"
								]
							},
							{
								"From": "RTID(eighties_gargantuar@ZombieTypes)",
								"To": [
									"RTID(spring_gargantuar@ZombieTypes)",
									"RTID(roman_gargantuar@ZombieTypes)",
									"RTID(eighties_arcade@ZombieTypes)"
								]
							}
						]
					},
					{
						"Level": 7,
						"Swaps": [
							{
								"From": "RTID(eighties@ZombieTypes)",
								"To": [
									"RTID(spring_armor1@ZombieTypes)",
									"RTID(roman_armor1@ZombieTypes)"
								]
							},
							{
								"From": "RTID(eighties_armor1@ZombieTypes)",
								"To": [
									"RTID(roman_armor2@ZombieTypes)",
									"RTID(spring_armor2@ZombieTypes)",
									"RTID(roman_shield_triad@ZombieTypes)"
								]
							},
							{
								"From": "RTID(eighties_armor2@ZombieTypes)",
								"To": [
									"RTID(eighties_arcade@ZombieTypes)",
									"RTID(roman_shield_triad@ZombieTypes)",
									"RTID(eighties_punk@ZombieTypes)"
								]
							},
							{
								"From": "RTID(eighties_gargantuar@ZombieTypes)",
								"To": [
									"RTID(spring_gargantuar@ZombieTypes)",
									"RTID(roman_gargantuar@ZombieTypes)"
								]
							}
						]
					}
				]
			}
		},
		{
			"aliases": [
				"NewWaves"
			],
			"objclass": "WaveManagerModuleProperties",
			"objdata": {
				"ManualStartup": true,
				"DynamicZombies": [
					{
						"PointIncrementPerWave": 0,
						"StartingPoints": 0,
						"StartingWave": 0,
						"ZombiePool": []
					},
					{
						"PointIncrementPerWave": 0,
						"StartingPoints": 0,
						"StartingWave": 0,
						"ZombiePool": []
					},
					{
						"PointIncrementPerWave": 0,
						"StartingPoints": 0,
						"StartingWave": 0,
						"ZombiePool": []
					},
					{
						"MaxPoints": 710,
						"PointIncrementPerWave": 0,
						"StartingPoints": 700,
						"StartingWave": 3,
						"ZombiePool": [
							"RTID(roman_healer@ZombieTypes)",
							"RTID(spring@ZombieTypes)",
							"RTID(spring_armor1@ZombieTypes)",
							"RTID(roman_armor2@ZombieTypes)",
							"RTID(spring_camel_manyhump@ZombieTypes)"
						]
					},
					{
						"PointIncrementPerWave": 0,
						"StartingPoints": 0,
						"StartingWave": 0,
						"ZombiePool": []
					},
					{
						"PointIncrementPerWave": 0,
						"StartingPoints": 0,
						"StartingWave": 0,
						"ZombiePool": []
					},
					{
						"PointIncrementPerWave": 0,
						"StartingPoints": 0,
						"StartingWave": 0,
						"ZombiePool": []
					}
				],
				"WaveManagerProps": "RTID(WaveManagerProps@CurrentLevel)"
			}
		},
		{
			"aliases": [
				"WaveManagerProps"
			],
			"objclass": "WaveManagerProperties",
			"objdata": {
				"FlagWaveInterval": 4,
				"WaveCount": 12,
				"WaveSpendingPointIncrement": 150,
				"WaveSpendingPoints": 300,
				"Waves": [
					[
						"RTID(Wave1@CurrentLevel)"
					],
					[
						"RTID(Wave2@CurrentLevel)"
					],
					[
						"RTID(Wave3@CurrentLevel)"
					],
					[
						"RTID(Wave4@CurrentLevel)"
					],
					[
						"RTID(Wave5@CurrentLevel)"
					],
					[
						"RTID(Wave6@CurrentLevel)"
					],
					[
						"RTID(Wave7@CurrentLevel)"
					],
					[
						"RTID(Wave8@CurrentLevel)"
					],
					[
						"RTID(Wave9@CurrentLevel)"
					],
					[
						"RTID(Wave10@CurrentLevel)"
					],
					[
						"RTID(Wave11@CurrentLevel)"
					],
					[
						"RTID(Wave12@CurrentLevel)"
					]
				]
			}
		},
		{
			"aliases": [
				"Wave1"
			],
			"objclass": "SpawnZombiesJitteredWaveActionProps",
			"objdata": {
				"NotificationEvents": [
					"jam_punk"
				],
				"Zombies": [
					{
						"Row": "4",
						"Type": "RTID(eighties_punk@ZombieTypes)"
					},
					{
						"Row": "3",
						"Type": "RTID(eighties_punk@ZombieTypes)"
					},
					{
						"Row": "2",
						"Type": "RTID(eighties_punk@ZombieTypes)"
					}
				]
			}
		},
		{
			"aliases": [
				"Wave2"
			],
			"objclass": "SpawnZombiesJitteredWaveActionProps",
			"objdata": {
				"Zombies": [
					{
						"Row": "4",
						"Type": "RTID(eighties_armor1@ZombieTypes)"
					},
					{
						"Row": "3",
						"Type": "RTID(eighties_armor1@ZombieTypes)"
					},
					{
						"Row": "2",
						"Type": "RTID(eighties_armor1@ZombieTypes)"
					},
					{
						"Row": "5",
						"Type": "RTID(eighties_punk@ZombieTypes)"
					},
					{
						"Row": "1",
						"Type": "RTID(eighties_punk@ZombieTypes)"
					}
				]
			}
		},
		{
			"aliases": [
				"Wave3"
			],
			"objclass": "SpawnZombiesJitteredWaveActionProps",
			"objdata": {
				"AdditionalPlantfood": 1,
				"NotificationEvents": [
					"jam_rap"
				],
				"Zombies": [
					{
						"Row": "5",
						"Type": "RTID(eighties@ZombieTypes)"
					},
					{
						"Row": "4",
						"Type": "RTID(eighties_arcade@ZombieTypes)"
					},
					{
						"Row": "3",
						"Type": "RTID(eighties@ZombieTypes)"
					},
					{
						"Row": "2",
						"Type": "RTID(eighties_arcade@ZombieTypes)"
					},
					{
						"Row": "1",
						"Type": "RTID(eighties@ZombieTypes)"
					}
				]
			}
		},
		{
			"aliases": [
				"Wave4"
			],
			"objclass": "SpawnZombiesJitteredWaveActionProps",
			"objdata": {
				"Zombies": [
					{
						"Row": "2",
						"Type": "RTID(eighties_breakdancer@ZombieTypes)"
					},
					{
						"Row": "2",
						"Type": "RTID(eighties_breakdancer@ZombieTypes)"
					},
					{
						"Row": "4",
						"Type": "RTID(eighties_breakdancer@ZombieTypes)"
					},
					{
						"Row": "4",
						"Type": "RTID(eighties_breakdancer@ZombieTypes)"
					},
					{
						"Row": "3",
						"Type": "RTID(eighties_arcade@ZombieTypes)"
					},
					{
						"Row": "5",
						"Type": "RTID(eighties_arcade@ZombieTypes)"
					},
					{
						"Row": "1",
						"Type": "RTID(eighties_arcade@ZombieTypes)"
					}
				]
			}
		},
		{
			"aliases": [
				"Wave5"
			],
			"objclass": "SpawnZombiesJitteredWaveActionProps",
			"objdata": {
				"NotificationEvents": [
					"jam_8bit"
				],
				"Zombies": [
					{
						"Row": "5",
						"Type": "RTID(eighties_imp@ZombieTypes)"
					},
					{
						"Row": "4",
						"Type": "RTID(eighties_imp@ZombieTypes)"
					},
					{
						"Row": "3",
						"Type": "RTID(eighties_imp@ZombieTypes)"
					},
					{
						"Row": "2",
						"Type": "RTID(eighties_imp@ZombieTypes)"
					},
					{
						"Row": "1",
						"Type": "RTID(eighties_imp@ZombieTypes)"
					}
				]
			}
		},
		{
			"aliases": [
				"Wave6"
			],
			"objclass": "SpawnZombiesJitteredWaveActionProps",
			"objdata": {
				"AdditionalPlantfood": 1,
				"Zombies": [
					{
						"Row": "5",
						"Type": "RTID(eighties_glitter@ZombieTypes)"
					},
					{
						"Row": "5",
						"Type": "RTID(eighties_armor1@ZombieTypes)"
					},
					{
						"Row": "3",
						"Type": "RTID(eighties_glitter@ZombieTypes)"
					},
					{
						"Row": "3",
						"Type": "RTID(eighties_armor1@ZombieTypes)"
					},
					{
						"Row": "1",
						"Type": "RTID(eighties_glitter@ZombieTypes)"
					},
					{
						"Row": "1",
						"Type": "RTID(eighties_armor1@ZombieTypes)"
					}
				]
			}
		},
		{
			"aliases": [
				"Wave7"
			],
			"objclass": "SpawnZombiesJitteredWaveActionProps",
			"objdata": {
				"NotificationEvents": [
					"jam_pop"
				],
				"Zombies": [
					{
						"Row": "5",
						"Type": "RTID(eighties_mc@ZombieTypes)"
					},
					{
						"Row": "3",
						"Type": "RTID(eighties_mc@ZombieTypes)"
					},
					{
						"Row": "1",
						"Type": "RTID(eighties_mc@ZombieTypes)"
					},
					{
						"Row": "2",
						"Type": "RTID(eighties_armor2@ZombieTypes)"
					},
					{
						"Row": "4",
						"Type": "RTID(eighties_armor2@ZombieTypes)"
					}
				]
			}
		},
		{
			"aliases": [
				"Wave8"
			],
			"objclass": "SpawnZombiesJitteredWaveActionProps",
			"objdata": {
				"NotificationEvents": [
					"jam_rap"
				],
				"Zombies": [
					{
						"Row": "5",
						"Type": "RTID(eighties_breakdancer@ZombieTypes)"
					},
					{
						"Row": "3",
						"Type": "RTID(eighties_breakdancer@ZombieTypes)"
					},
					{
						"Row": "1",
						"Type": "RTID(eighties_breakdancer@ZombieTypes)"
					},
					{
						"Row": "2",
						"Type": "RTID(eighties_gargantuar@ZombieTypes)"
					},
					{
						"Row": "2",
						"Type": "RTID(eighties_breakdancer@ZombieTypes)"
					},
					{
						"Row": "2",
						"Type": "RTID(eighties_armor2@ZombieTypes)"
					},
					{
						"Row": "1",
						"Type": "RTID(eighties_armor2@ZombieTypes)"
					}
				]
			}
		},
		{
			"aliases": [
				"Wave9"
			],
			"objclass": "SpawnZombiesJitteredWaveActionProps",
			"objdata": {
				"Zombies": [
					{
						"Row": "5",
						"Type": "RTID(eighties_mc@ZombieTypes)"
					},
					{
						"Row": "4",
						"Type": "RTID(eighties_mc@ZombieTypes)"
					},
					{
						"Row": "3",
						"Type": "RTID(eighties_mc@ZombieTypes)"
					},
					{
						"Row": "5",
						"Type": "RTID(eighties_arcade@ZombieTypes)"
					},
					{
						"Row": "4",
						"Type": "RTID(eighties_arcade@ZombieTypes)"
					},
					{
						"Row": "3",
						"Type": "RTID(eighties_arcade@ZombieTypes)"
					}
				]
			}
		},
		{
			"aliases": [
				"Wave10"
			],
			"objclass": "SpawnZombiesJitteredWaveActionProps",
			"objdata": {
				"AdditionalPlantfood": 1,
				"NotificationEvents": [
					"jam_8bit"
				],
				"Zombies": [
					{
						"Row": "5",
						"Type": "RTID(eighties_punk@ZombieTypes)"
					},
					{
						"Row": "4",
						"Type": "RTID(eighties_punk@ZombieTypes)"
					},
					{
						"Row": "3",
						"Type": "RTID(eighties_punk@ZombieTypes)"
					},
					{
						"Row": "2",
						"Type": "RTID(eighties_punk@ZombieTypes)"
					},
					{
						"Row": "1",
						"Type": "RTID(eighties_punk@ZombieTypes)"
					}
				]
			}
		},
		{
			"aliases": [
				"Wave11"
			],
			"objclass": "SpawnZombiesJitteredWaveActionProps",
			"objdata": {
				"Zombies": [
					{
						"Row": "2",
						"Type": "RTID(eighties_arcade@ZombieTypes)"
					},
					{
						"Row": "1",
						"Type": "RTID(eighties_arcade@ZombieTypes)"
					},
					{
						"Row": "5",
						"Type": "RTID(eighties_armor2@ZombieTypes)"
					},
					{
						"Row": "4",
						"Type": "RTID(eighties_armor2@ZombieTypes)"
					},
					{
						"Row": "3",
						"Type": "RTID(eighties_armor2@ZombieTypes)"
					}
				]
			}
		},
		{
			"aliases": [
				"Wave12"
			],
			"objclass": "SpawnZombiesJitteredWaveActionProps",
			"objdata": {
				"NotificationEvents": [
					"jam_metal"
				],
				"Zombies": [
					{
						"Row": "5",
						"Type": "RTID(eighties_gargantuar@ZombieTypes)"
					},
					{
						"Row": "1",
						"Type": "RTID(eighties_gargantuar@ZombieTypes)"
					},
					{
						"Row": "4",
						"Type": "RTID(eighties_imp@ZombieTypes)"
					},
					{
						"Row": "3",
						"Type": "RTID(eighties_imp@ZombieTypes)"
					},
					{
						"Row": "2",
						"Type": "RTID(eighties_imp@ZombieTypes)"
					}
				]
			}
		}
	],
	"version": 1
}