{
	"#comment": "Vasebreaker test in Rift",
	"objects": [
		{
			"objclass": "LevelDefinition",
			"objdata": {
				"Description": "[PLAYERS_TRIP_TO_RIFT]",
				"IsVasebreaker": true,
				"LevelMutator": "RTID(LevelMutator@CurrentLevel)",
				"LevelNumber": "",
				"Loot": "",
				"LevelPowerupSet": "",
				"Modules": [
					"RTID(ZombiesDeadWinCon@LevelModules)",
					"RTID(Gravestones@CurrentLevel)",
					"RTID(DefaultZombieWinCondition@LevelModules)",
					"RTID(PerkActivator@CurrentLevel)",
					"RTID(VaseBreakerProps@.)"
				],
				"MusicType": "MiniGame_B",
				"Name": "[RIFT_LEVEL_NAME]",
				"NormalPresentTable": "egypt_normal_01",
				"ShinyPresentTable": "egypt_shiny_01",
				"StageModule": "RTID(RiftStage@LevelModules)",
				"VictoryModule": "RTID(RiftOutro@LevelModules)",
				"PerksDisabledInLevel": [
					"sunbreak",
					"moarscore",
					"bossbustercannon",
					"sunbank",
					"trafficjam",
					"quickdelivery",
					"applyconditionsuncarrier50",
					"zombieinhibitorballista",
					"zombieinhibitorgargantuar"
				],
				"PerksDisabledPerDifficulty": [
					[],
					[],
					[]
				]
			}
		},
		{
			"aliases": [
				"PerkActivator"
			],
			"objclass": "PerkHandlerModuleProperties",
			"objdata": {}
		},
		{
			"aliases": [
				"LevelMutator"
			],
			"objclass": "LevelMutatorModuleProperties",
			"objdata": {
				"MutatorTables": [
					"RTID(MutatorPropsVasebreaker@LevelMutatorTables)",
					"RTID(LocalChallengeMutator@CurrentLevel)",
					"RTID(LocalMainChallengeMutator@CurrentLevel)"
				]
			}
		},
		{
			"aliases": [
				"LocalMainChallengeMutator"
			],
			"objclass": "LevelMutatorTableProps",
			"objdata": {
				"Tables": [
					{
						"Level": 0,
						"Modules": [
							"RTID(BeatTheLevel@CurrentLevel)"
						],
						"ModuleType": "mainchallenge"
					},
					{
						"Level": 1,
						"Modules": [
							"RTID(BeatTheLevel@CurrentLevel)"
						],
						"ModuleType": "mainchallenge"
					},
					{
						"Level": 2,
						"Modules": [
							"RTID(BeatTheLevel@CurrentLevel)"
						],
						"ModuleType": "mainchallenge"
					}
				]
			}
		},
		{
			"aliases": [
				"LevelDifficultyScaling"
			],
			"objclass": "LevelDifficultyScalingModuleProperties",
			"objdata": {
				"DifficultyRulesType": "RiftDifficulty",
				"ZombieLevelSwaps": [
					{
						"Level": 0,
						"Swaps": []
					},
					{
						"Level": 3,
						"Swaps": []
					},
					{
						"Level": 6,
						"Swaps": []
					}
				]
			}
		},
		{
			"aliases": [
				"BeatTheLevel"
			],
			"objclass": "StarChallengeBeatTheLevelProps",
			"objdata": {
				"Description": "[STARCHALLENGE_RIFT_VASEBREAKER]",
				"DescriptiveName": "[STARCHALLENGE_RIFT_VASEBREAKER_NAME]"
			}
		},
		{
			"aliases": [
				"LocalChallengeMutator"
			],
			"objclass": "LevelMutatorTableProps",
			"objdata": {
				"Tables": [
					{
						"Level": 0,
						"ModuleType": "bonuschallenge",
						"Modules": [
							"RTID(DestroyGridItems1@CurrentLevel)"
						]
					},
					{
						"Level": 1,
						"ModuleType": "bonuschallenge",
						"Modules": [
							"RTID(DestroyGridItems2@CurrentLevel)",
							"RTID(PlantsLost2@CurrentLevel)"
						]
					},
					{
						"Level": 2,
						"ModuleType": "bonuschallenge",
						"Modules": [
							"RTID(DestroyGridItems3@CurrentLevel)",
							"RTID(PlantsLost3@CurrentLevel)"
						]
					}
				]
			}
		},
		{
			"aliases": [
				"PlantsLost2"
			],
			"objclass": "StarChallengePlantsLostProps",
			"objdata": {
				"MaximumPlantsLost": 1
			}
		},
		{
			"aliases": [
				"PlantsLost3"
			],
			"objclass": "StarChallengePlantsLostProps",
			"objdata": {
				"MaximumPlantsLost": 0
			}
		},
		{
			"aliases": [
				"DestroyGridItems1"
			],
			"objclass": "DestroyGridItemsChallengeProps",
			"objdata": {
				"GridItemType": "gravestone",
				"GridItemsToDestroy": 3,
				"ChallengeDescription": "[CHALLENGE_DESTROY_GRAVESTONES]"
			}
		},
		{
			"aliases": [
				"DestroyGridItems2"
			],
			"objclass": "DestroyGridItemsChallengeProps",
			"objdata": {
				"GridItemType": "gravestone",
				"GridItemsToDestroy": 4,
				"ChallengeDescription": "[CHALLENGE_DESTROY_GRAVESTONES]"
			}
		},
		{
			"aliases": [
				"DestroyGridItems3"
			],
			"objclass": "DestroyGridItemsChallengeProps",
			"objdata": {
				"GridItemType": "gravestone",
				"GridItemsToDestroy": 5,
				"ChallengeDescription": "[CHALLENGE_DESTROY_GRAVESTONES]"
			}
		},
		{
			"aliases": [
				"Gravestones"
			],
			"objclass": "GravestoneProperties",
			"objdata": {
				"ForceSpawnData": [
					{
						"GridX": 3,
						"GridY": 0,
						"TypeName": "gravestone_dark"
					},
					{
						"GridX": 3,
						"GridY": 1,
						"TypeName": "gravestone_dark"
					},
					{
						"GridX": 3,
						"GridY": 2,
						"TypeName": "gravestonePlantfoodOnDestruction"
					},
					{
						"GridX": 3,
						"GridY": 3,
						"TypeName": "gravestone_dark"
					},
					{
						"GridX": 3,
						"GridY": 4,
						"TypeName": "gravestone_dark"
					}
				]
			}
		},
		{
			"objclass": "VaseBreakerPresetProperties",
			"aliases": [
				"VaseBreakerProps"
			],
			"objdata": {
				"MinColumnIndex": 2,
				"MaxColumnIndex": 8,
				"GridSquareExcludelist": [
					{
						"mX": 3,
						"mY": 0
					},
					{
						"mX": 3,
						"mY": 1
					},
					{
						"mX": 3,
						"mY": 2
					},
					{
						"mX": 3,
						"mY": 3
					},
					{
						"mX": 3,
						"mY": 4
					}
				],
				"Vases": [
					{
						"ZombieTypeName": "dark",
						"Count": 10
					},
					{
						"ZombieTypeName": "dark_armor1",
						"Count": 2
					},
					{
						"ZombieTypeName": "dark_armor2",
						"Count": 1
					},
					{
						"PlantTypeName": "fumeshroom",
						"Count": 8
					},
					{
						"PlantTypeName": "hypnoshroom",
						"Count": 4
					},
					{
						"PlantTypeName": "peanut",
						"Count": 5
					},
					{
						"CollectableTypeName": "plantfood",
						"Count": 0
					}
				],
				"NumColoredPlantVases": 5,
				"NumColoredZombieVases": 0
			}
		}
	],
	"version": 1
}