{
	"#comment": "Modern 4",
	"objects": [
		{
			"objclass": "LevelDefinition",
			"objdata": {
				"Description": "[EPIC_QUEST_ELECTRICCURRANT_SCHEDULED_60_TITLE]",
				"FirstIntroNarrative": "EPIC_QUEST_ELECTRICCURRANT_6_INTRO",
				"LevelNumber": 5,
				"Loot": "RTID(DefaultLoot@LevelModules)",
				"Modules": [
					"RTID(StandardIntro@LevelModules)",
					"RTID(DefaultSunDropper@LevelModules)",
					"RTID(SeedBank@CurrentLevel)",
					"RTID(ZombiesDeadWinCon@LevelModules)",
					"RTID(FrozenPlantPlacement@CurrentLevel)",
					"RTID(ModernMowers@LevelModules)",
					"RTID(DefaultZombieWinCondition@LevelModules)",
					"RTID(NewWaves@CurrentLevel)"
				],
				"Name": "[EPIC_QUEST_ELECTRICCURRANT_SCHEDULED_60_TITLE]",
				"NormalPresentTable": "egypt_normal_01",
				"ShinyPresentTable": "egypt_shiny_01",
				"StageModule": "RTID(ModernStage@LevelModules)"
			}
		},
		{
			"aliases": [
				"SeedBank"
			],
			"objclass": "SeedBankProperties",
			"objdata": {
				"PresetPlantList": [
					{
						"PlantType": "electriccurrant",
						"Level": -1
					},
					{
						"PlantType": "magnetshroom",
						"Level": -1
					},
					{
						"PlantType": "garlic",
						"Level": -1
					}
				],
				"SelectionMethod": "chooser"
			}
		},
		{
			"aliases": [
				"FrozenPlantPlacement"
			],
			"objclass": "InitialPlantProperties",
			"objdata": {
				"InitialPlantPlacements": [
					{
						"GridX": 6,
						"GridY": 4,
						"TypeName": "garlic"
					},
					{
						"GridX": 6,
						"GridY": 0,
						"TypeName": "garlic"
					}
				]
			}
		},
		{
			"aliases": [
				"NewWaves"
			],
			"objclass": "WaveManagerModuleProperties",
			"objdata": {
				"DynamicZombies": [
					{
						"PointIncrementPerWave": -40,
						"StartingPoints": -100,
						"StartingWave": 3,
						"ZombiePool": [
							"RTID(tutorial@ZombieTypes)",
							"RTID(tutorial_armor2@ZombieTypes)"
						]
					},
					{
						"PointIncrementPerWave": -25,
						"StartingPoints": -100,
						"StartingWave": 4,
						"ZombiePool": [
							"RTID(tutorial@ZombieTypes)",
							"RTID(tutorial_armor2@ZombieTypes)"
						]
					},
					{
						"PointIncrementPerWave": -10,
						"StartingPoints": -100,
						"StartingWave": 5,
						"ZombiePool": [
							"RTID(tutorial@ZombieTypes)",
							"RTID(tutorial_armor2@ZombieTypes)"
						]
					},
					{},
					{
						"PointIncrementPerWave": 20,
						"StartingPoints": 100,
						"StartingWave": 5,
						"ZombiePool": [
							"RTID(tutorial@ZombieTypes)",
							"RTID(tutorial_armor2@ZombieTypes)"
						]
					},
					{
						"PointIncrementPerWave": 40,
						"StartingPoints": 200,
						"StartingWave": 4,
						"ZombiePool": [
							"RTID(tutorial_armor2@ZombieTypes)"
						]
					},
					{
						"PointIncrementPerWave": 60,
						"StartingPoints": 400,
						"StartingWave": 3,
						"ZombiePool": [
							"RTID(tutorial_armor2@ZombieTypes)"
						]
					}
				],
				"WaveManagerProps": "RTID(WaveManagerProps@CurrentLevel)"
			}
		},
		{
			"aliases": [
				"WaveManagerProps"
			],
			"objclass": "WaveManagerProperties",
			"objdata": {
				"FlagWaveInterval": 4,
				"LevelJam": "jam_pop",
				"WaveCount": 12,
				"WaveSpendingPointIncrement": 200,
				"WaveSpendingPoints": 100,
				"Waves": [
					[
						"RTID(Wave1@CurrentLevel)"
					],
					[
						"RTID(Wave2@CurrentLevel)"
					],
					[
						"RTID(Wave3@CurrentLevel)"
					],
					[
						"RTID(Wave4@CurrentLevel)"
					],
					[
						"RTID(Wave5@CurrentLevel)"
					],
					[
						"RTID(Wave6@CurrentLevel)"
					],
					[
						"RTID(Wave7@CurrentLevel)"
					],
					[
						"RTID(Wave8@CurrentLevel)"
					],
					[
						"RTID(Wave9@CurrentLevel)"
					],
					[
						"RTID(Wave10@CurrentLevel)"
					],
					[
						"RTID(Wave11@CurrentLevel)"
					],
					[
						"RTID(Wave12@CurrentLevel)"
					]
				]
			}
		},
		{
			"aliases": [
				"Wave1"
			],
			"objclass": "SpawnZombiesJitteredWaveActionProps",
			"objdata": {
				"AdditionalPlantfood": 0,
				"NotificationEvents": [
					"jam_pop"
				],
				"Zombies": [
					{
						"Row": "4",
						"Type": "RTID(beach_armor2@ZombieTypes)"
					}
				]
			}
		},
		{
			"aliases": [
				"Wave2"
			],
			"objclass": "SpawnZombiesJitteredWaveActionProps",
			"objdata": {
				"Zombies": [
					{
						"Row": "3",
						"Type": "RTID(beach_fem_armor2@ZombieTypes)"
					}
				]
			}
		},
		{
			"aliases": [
				"Wave3"
			],
			"objclass": "SpawnZombiesJitteredWaveActionProps",
			"objdata": {
				"AdditionalPlantfood": 0,
				"Zombies": [
					{
						"Row": "4",
						"Type": "RTID(mummy_armor2@ZombieTypes)"
					},
					{
						"Row": "1",
						"Type": "RTID(eighties_armor2@ZombieTypes)"
					}
				]
			}
		},
		{
			"aliases": [
				"Wave4"
			],
			"objclass": "SpawnZombiesJitteredWaveActionProps",
			"objdata": {
				"AdditionalPlantfood": 1,
				"Zombies": [
					{
						"Row": "1",
						"Type": "RTID(future_armor2@ZombieTypes)"
					},
					{
						"Row": "2",
						"Type": "RTID(beach_fem_armor2@ZombieTypes)"
					},
					{
						"Row": "3",
						"Type": "RTID(dark_armor3@ZombieTypes)"
					},
					{
						"Row": "4",
						"Type": "RTID(tutorial_armor2@ZombieTypes)"
					},
					{
						"Row": "5",
						"Type": "RTID(lostcity_armor2@ZombieTypes)"
					}
				]
			}
		},
		{
			"aliases": [
				"Wave5"
			],
			"objclass": "SpawnZombiesJitteredWaveActionProps",
			"objdata": {
				"AdditionalPlantfood": 0,
				"Zombies": [
					{
						"Row": "3",
						"Type": "RTID(iceage_imp@ZombieTypes)"
					},
					{
						"Row": "3",
						"Type": "RTID(iceage_imp@ZombieTypes)"
					},
					{
						"Row": "2",
						"Type": "RTID(dark_imp_dragon@ZombieTypes)"
					},
					{
						"Row": "2",
						"Type": "RTID(dark_imp_dragon@ZombieTypes)"
					}
				]
			}
		},
		{
			"aliases": [
				"Wave6"
			],
			"objclass": "SpawnZombiesJitteredWaveActionProps",
			"objdata": {
				"AdditionalPlantfood": 1,
				"Zombies": [
					{
						"Row": "5",
						"Type": "RTID(future_imp@ZombieTypes)"
					},
					{
						"Row": "4",
						"Type": "RTID(tutorial_armor2@ZombieTypes)"
					},
					{
						"Row": "3",
						"Type": "RTID(future_imp@ZombieTypes)"
					},
					{
						"Row": "2",
						"Type": "RTID(tutorial_armor2@ZombieTypes)"
					},
					{
						"Row": "1",
						"Type": "RTID(future_imp@ZombieTypes)"
					},
					{
						"Row": "5",
						"Type": "RTID(future_imp@ZombieTypes)"
					},
					{
						"Row": "3",
						"Type": "RTID(future_imp@ZombieTypes)"
					},
					{
						"Row": "1",
						"Type": "RTID(future_imp@ZombieTypes)"
					}
				]
			}
		},
		{
			"aliases": [
				"Wave7"
			],
			"objclass": "SpawnZombiesJitteredWaveActionProps",
			"objdata": {
				"Zombies": [
					{
						"Row": "4",
						"Type": "RTID(beach_armor2@ZombieTypes)"
					},
					{
						"Row": "3",
						"Type": "RTID(beach_armor2@ZombieTypes)"
					},
					{
						"Row": "2",
						"Type": "RTID(beach_armor2@ZombieTypes)"
					}
				]
			}
		},
		{
			"aliases": [
				"Wave8"
			],
			"objclass": "SpawnZombiesJitteredWaveActionProps",
			"objdata": {
				"AdditionalPlantfood": 0,
				"Zombies": [
					{
						"Row": "1",
						"Type": "RTID(tutorial_armor2@ZombieTypes)"
					},
					{
						"Row": "1",
						"Type": "RTID(eighties_imp@ZombieTypes)"
					},
					{
						"Row": "1",
						"Type": "RTID(eighties_imp@ZombieTypes)"
					},
					{
						"Row": "2",
						"Type": "RTID(tutorial_armor2@ZombieTypes)"
					},
					{
						"Row": "2",
						"Type": "RTID(eighties_imp@ZombieTypes)"
					},
					{
						"Row": "2",
						"Type": "RTID(eighties_imp@ZombieTypes)"
					},
					{
						"Row": "4",
						"Type": "RTID(tutorial_armor2@ZombieTypes)"
					},
					{
						"Row": "4",
						"Type": "RTID(eighties_imp@ZombieTypes)"
					},
					{
						"Row": "4",
						"Type": "RTID(eighties_imp@ZombieTypes)"
					},
					{
						"Row": "5",
						"Type": "RTID(tutorial_armor2@ZombieTypes)"
					},
					{
						"Row": "5",
						"Type": "RTID(eighties_imp@ZombieTypes)"
					},
					{
						"Row": "5",
						"Type": "RTID(eighties_imp@ZombieTypes)"
					}
				]
			}
		},
		{
			"aliases": [
				"Wave9"
			],
			"objclass": "SpawnZombiesJitteredWaveActionProps",
			"objdata": {
				"AdditionalPlantfood": 1,
				"Zombies": [
					{
						"Row": "1",
						"Type": "RTID(tutorial_armor2@ZombieTypes)"
					},
					{
						"Row": "2",
						"Type": "RTID(lostcity_armor2@ZombieTypes)"
					},
					{
						"Row": "3",
						"Type": "RTID(mummy_armor2@ZombieTypes)"
					},
					{
						"Row": "4",
						"Type": "RTID(eighties_armor2@ZombieTypes)"
					},
					{
						"Row": "5",
						"Type": "RTID(future_armor2@ZombieTypes)"
					}
				]
			}
		},
		{
			"aliases": [
				"Wave10"
			],
			"objclass": "SpawnZombiesJitteredWaveActionProps",
			"objdata": {
				"AdditionalPlantfood": 0,
				"Zombies": [
					{
						"Row": "5",
						"Type": "RTID(dark_armor3@ZombieTypes)"
					},
					{
						"Row": "1",
						"Type": "RTID(dino_imp@ZombieTypes)"
					},
					{
						"Row": "2",
						"Type": "RTID(mummy_armor2@ZombieTypes)"
					},
					{
						"Row": "3",
						"Type": "RTID(dino_imp@ZombieTypes)"
					},
					{
						"Row": "4",
						"Type": "RTID(mummy_armor2@ZombieTypes)"
					},
					{
						"Row": "5",
						"Type": "RTID(dark_armor3@ZombieTypes)"
					}
				]
			}
		},
		{
			"aliases": [
				"Wave11"
			],
			"objclass": "SpawnZombiesJitteredWaveActionProps",
			"objdata": {
				"AdditionalPlantfood": 0,
				"Zombies": [
					{
						"Row": "1",
						"Type": "RTID(eighties_imp@ZombieTypes)"
					},
					{
						"Row": "1",
						"Type": "RTID(eighties_imp@ZombieTypes)"
					},
					{
						"Row": "1",
						"Type": "RTID(eighties_imp@ZombieTypes)"
					},
					{
						"Row": "5",
						"Type": "RTID(eighties_imp@ZombieTypes)"
					},
					{
						"Row": "5",
						"Type": "RTID(eighties_imp@ZombieTypes)"
					},
					{
						"Row": "5",
						"Type": "RTID(eighties_imp@ZombieTypes)"
					},
					{
						"Row": "5",
						"Type": "RTID(beach_armor2@ZombieTypes)"
					},
					{
						"Row": "5",
						"Type": "RTID(beach_fem_armor2@ZombieTypes)"
					},
					{
						"Row": "4",
						"Type": "RTID(beach_fem_armor2@ZombieTypes)"
					},
					{
						"Row": "3",
						"Type": "RTID(beach_fem_armor2@ZombieTypes)"
					},
					{
						"Row": "2",
						"Type": "RTID(beach_fem_armor2@ZombieTypes)"
					},
					{
						"Row": "1",
						"Type": "RTID(beach_armor2@ZombieTypes)"
					},
					{
						"Row": "1",
						"Type": "RTID(beach_fem_armor2@ZombieTypes)"
					}
				]
			}
		},
		{
			"aliases": [
				"Wave12"
			],
			"objclass": "SpawnZombiesJitteredWaveActionProps",
			"objdata": {
				"AdditionalPlantfood": 0,
				"Zombies": [
					{
						"Row": "3",
						"Type": "RTID(future_gargantuar@ZombieTypes)"
					},
					{
						"Row": "5",
						"Type": "RTID(tutorial_armor2@ZombieTypes)"
					},
					{
						"Row": "1",
						"Type": "RTID(tutorial_armor2@ZombieTypes)"
					},
					{
						"Row": "4",
						"Type": "RTID(future_gargantuar@ZombieTypes)"
					},
					{
						"Row": "2",
						"Type": "RTID(future_gargantuar@ZombieTypes)"
					},
					{
						"Row": "5",
						"Type": "RTID(iceage_imp@ZombieTypes)"
					},
					{
						"Row": "4",
						"Type": "RTID(dark_imp_dragon@ZombieTypes)"
					},
					{
						"Row": "3",
						"Type": "RTID(beach_imp@ZombieTypes)"
					},
					{
						"Row": "2",
						"Type": "RTID(lostcity_imp@ZombieTypes)"
					},
					{
						"Row": "1",
						"Type": "RTID(dark_imp@ZombieTypes)"
					}
				]
			}
		}
	],
	"version": 1
}