{
	"#comment": "LOD template level. Delete unnecessary Modules (e.g. Challenge, Frozen)",
	"objects": [
		{
			"objclass": "LevelDefinition",
			"objdata": {
				"Description": "[PREMIUM_PLANT_QUEST_LOD_DESC]",
				"Loot": "RTID(DefaultLoot@LevelModules)",
				"Modules": [
					"RTID(StandardIntro@LevelModules)",
					"RTID(LevelEscalationModule@CurrentLevel)",
					"RTID(DarkMowers@LevelModules)",
					"RTID(NewWaves@CurrentLevel)",
					"RTID(DefaultZombieWinCondition@LevelModules)",
					"RTID(Gravestones@CurrentLevel)",
					"RTID(DoNotPlantBeforeLine@CurrentLevel)",
					"RTID(ConveyorBelt@CurrentLevel)",
					"RTID(ZombiesDeadWinCon@LevelModules)",
					"RTID(ZombiePotions@CurrentLevel)"
				],
				"Name": "[PREMIUM_PLANT_QUEST_LOD_NAME]",
				"NormalPresentTable": "egypt_normal_01",
				"ShinyPresentTable": "egypt_shiny_01",
				"ForceToWorldMap": true,
				"RepeatPlayForceToWorldMap": true,
				"StageModule": "RTID(DarkStage@LevelModules)",
				"SuppressSunSpawn": true
			}
		},
		{
			"aliases": [
				"LevelEscalationModule"
			],
			"objclass": "LevelEscalationModuleProperties",
			"objdata": {
				"FlagCount": 3,
				"PlantfoodToSpawnCount": 3,
				"PointIncrementPerWave": 10,
				"StartingPoints": 100,
				"WaveManagerProps": "RTID(WaveManagerProps@CurrentLevel)",
				"WavesPerFlag": 4,
				"ZombiePool": [
					"RTID(lostcity_crystalskull@ZombieTypes)",
					"RTID(dark_king@ZombieTypes)",
					"RTID(barrelroller@ZombieTypes)",
					"RTID(pirate_captain@ZombieTypes)",
					"RTID(dark_wizard@ZombieTypes)",
					"RTID(dark_armor3@ZombieTypes)",
					"RTID(dark_imp@ZombieTypes)",
					"RTID(dark_imp_dragon@ZombieTypes)",
					"RTID(dark_gargantuar@ZombieTypes)",
					"RTID(dark@ZombieTypes)",
					"RTID(modern_allstar@ZombieTypes)",
					"RTID(dark_armor2@ZombieTypes)",
					"RTID(dark_armor1@ZombieTypes)"
				]
			}
		},
		{
			"aliases": [
				"DoNotPlantBeforeLine"
			],
			"objclass": "MoldColonyChallengeProps",
			"objdata": {
				"Locations": "RTID(Column0_To_Column1@BoardGridMaps)"
			}
		},
		{
			"aliases": [
				"ZombiePotions"
			],
			"objclass": "ZombiePotionModuleProperties",
			"objdata": {
				"InitialPotionCount": 3,
				"MaxPotionCount": 12,
				"PotionSpawnTimer": {
					"Max": 6,
					"Min": 2
				},
				"PotionTypes": [
					"zombiepotion_toughness",
					"zombiepotion_speed"
				]
			}
		},
		{
			"aliases": [
				"WaveManagerProps"
			],
			"objclass": "WaveManagerProperties",
			"objdata": {
				"FlagWaveInterval": 4,
				"LevelJam": "jam_rap",
				"WaveCount": 12,
				"WaveSpendingPointIncrement": 200,
				"WaveSpendingPoints": 200,
				"Waves": [
					[
						"RTID(Wave1@CurrentLevel)"
					],
					[
						"RTID(Wave2@CurrentLevel)"
					],
					[
						"RTID(Wave3@CurrentLevel)",
						"RTID(Wave3ModConveyor0@CurrentLevel)"
					],
					[
						"RTID(Wave4@CurrentLevel)"
					],
					[
						"RTID(Wave5@CurrentLevel)"
					],
					[
						"RTID(Wave6@CurrentLevel)",
						"RTID(Wave6ModConveyor0@CurrentLevel)"
					],
					[
						"RTID(Wave7@CurrentLevel)"
					],
					[
						"RTID(Wave8@CurrentLevel)"
					],
					[
						"RTID(Wave9@CurrentLevel)"
					],
					[
						"RTID(Wave10@CurrentLevel)"
					],
					[
						"RTID(Wave11@CurrentLevel)"
					],
					[
						"RTID(Wave12@CurrentLevel)"
					]
				]
			}
		},
		{
			"aliases": [
				"Wave1"
			],
			"objclass": "SpawnZombiesJitteredWaveActionProps",
			"objdata": {
				"AdditionalPlantfood": 0,
				"Zombies": [
					{
						"Row": "3",
						"Type": "RTID(dark@ZombieTypes)"
					},
					{
						"Row": "2",
						"Type": "RTID(dark@ZombieTypes)"
					},
					{
						"Row": "4",
						"Type": "RTID(barrelroller@ZombieTypes)"
					}
				]
			}
		},
		{
			"aliases": [
				"Wave2"
			],
			"objclass": "SpawnZombiesJitteredWaveActionProps",
			"objdata": {
				"AdditionalPlantfood": 0,
				"Zombies": [
					{
						"Row": "4",
						"Type": "RTID(dark_armor1@ZombieTypes)"
					},
					{
						"Row": "1",
						"Type": "RTID(dark@ZombieTypes)"
					},
					{
						"Row": "5",
						"Type": "RTID(dark@ZombieTypes)"
					},
					{
						"Row": "3",
						"Type": "RTID(barrelroller@ZombieTypes)"
					}
				]
			}
		},
		{
			"aliases": [
				"Wave3"
			],
			"objclass": "SpawnZombiesJitteredWaveActionProps",
			"objdata": {
				"AdditionalPlantfood": 1,
				"Zombies": [
					{
						"Type": "RTID(dark_armor1@ZombieTypes)"
					},
					{
						"Row": "3",
						"Type": "RTID(dark_armor2@ZombieTypes)"
					},
					{
						"Type": "RTID(dark_armor1@ZombieTypes)"
					},
					{
						"Row": "2",
						"Type": "RTID(modern_allstar@ZombieTypes)"
					}
				]
			}
		},
		{
			"aliases": [
				"Wave4"
			],
			"objclass": "SpawnZombiesJitteredWaveActionProps",
			"objdata": {
				"AdditionalPlantfood": 0,
				"Zombies": [
					{
						"Type": "RTID(dark@ZombieTypes)"
					},
					{
						"Type": "RTID(dark@ZombieTypes)"
					},
					{
						"Type": "RTID(dark@ZombieTypes)"
					},
					{
						"Type": "RTID(dark@ZombieTypes)"
					},
					{
						"Type": "RTID(dark@ZombieTypes)"
					},
					{
						"Row": "2",
						"Type": "RTID(dark_king@ZombieTypes)"
					},
					{
						"Row": "4",
						"Type": "RTID(dark_king@ZombieTypes)"
					},
					{
						"Row": "3",
						"Type": "RTID(dark_wizard@ZombieTypes)"
					}
				]
			}
		},
		{
			"aliases": [
				"Wave5"
			],
			"objclass": "SpawnZombiesJitteredWaveActionProps",
			"objdata": {
				"AdditionalPlantfood": 0,
				"Zombies": [
					{
						"Type": "RTID(dark@ZombieTypes)"
					},
					{
						"Type": "RTID(dark@ZombieTypes)"
					},
					{
						"Row": "1",
						"Type": "RTID(barrelroller@ZombieTypes)"
					},
					{
						"Row": "5",
						"Type": "RTID(barrelroller@ZombieTypes)"
					},
					{
						"Row": "3",
						"Type": "RTID(modern_allstar@ZombieTypes)"
					}
				]
			}
		},
		{
			"aliases": [
				"Wave6"
			],
			"objclass": "SpawnZombiesJitteredWaveActionProps",
			"objdata": {
				"AdditionalPlantfood": 0,
				"Zombies": [
					{
						"Row": "4",
						"Type": "RTID(dark@ZombieTypes)"
					},
					{
						"Row": "3",
						"Type": "RTID(dark@ZombieTypes)"
					},
					{
						"Row": "2",
						"Type": "RTID(dark@ZombieTypes)"
					},
					{
						"Row": "4",
						"Type": "RTID(dark_armor2@ZombieTypes)"
					},
					{
						"Row": "2",
						"Type": "RTID(dark_armor1@ZombieTypes)"
					},
					{
						"Type": "RTID(pirate_captain@ZombieTypes)"
					},
					{
						"Type": "RTID(pirate_captain@ZombieTypes)"
					}
				]
			}
		},
		{
			"aliases": [
				"Wave7"
			],
			"objclass": "SpawnZombiesJitteredWaveActionProps",
			"objdata": {
				"AdditionalPlantfood": 1,
				"Zombies": [
					{
						"Row": "1",
						"Type": "RTID(dark_imp_dragon@ZombieTypes)"
					},
					{
						"Row": "5",
						"Type": "RTID(dark_imp_dragon@ZombieTypes)"
					},
					{
						"Row": "4",
						"Type": "RTID(lostcity_crystalskull@ZombieTypes)"
					},
					{
						"Row": "3",
						"Type": "RTID(lostcity_crystalskull@ZombieTypes)"
					},
					{
						"Row": "2",
						"Type": "RTID(lostcity_crystalskull@ZombieTypes)"
					}
				]
			}
		},
		{
			"aliases": [
				"Wave8"
			],
			"objclass": "SpawnZombiesJitteredWaveActionProps",
			"objdata": {
				"AdditionalPlantfood": 0,
				"Zombies": [
					{
						"Type": "RTID(dark@ZombieTypes)"
					},
					{
						"Type": "RTID(dark@ZombieTypes)"
					},
					{
						"Type": "RTID(dark@ZombieTypes)"
					},
					{
						"Type": "RTID(dark@ZombieTypes)"
					},
					{
						"Type": "RTID(dark@ZombieTypes)"
					},
					{
						"Type": "RTID(dark@ZombieTypes)"
					},
					{
						"Type": "RTID(dark@ZombieTypes)"
					},
					{
						"Type": "RTID(dark@ZombieTypes)"
					},
					{
						"Row": "4",
						"Type": "RTID(modern_allstar@ZombieTypes)"
					},
					{
						"Row": "2",
						"Type": "RTID(modern_allstar@ZombieTypes)"
					},
					{
						"Row": "3",
						"Type": "RTID(pirate_captain@ZombieTypes)"
					},
					{
						"Row": "3",
						"Type": "RTID(dark_king@ZombieTypes)"
					}
				]
			}
		},
		{
			"aliases": [
				"Wave9"
			],
			"objclass": "SpawnZombiesJitteredWaveActionProps",
			"objdata": {
				"AdditionalPlantfood": 0,
				"Zombies": [
					{
						"Row": "5",
						"Type": "RTID(dark_imp_dragon@ZombieTypes)"
					},
					{
						"Row": "4",
						"Type": "RTID(dark_imp_dragon@ZombieTypes)"
					},
					{
						"Row": "3",
						"Type": "RTID(dark_imp_dragon@ZombieTypes)"
					},
					{
						"Row": "2",
						"Type": "RTID(dark_imp_dragon@ZombieTypes)"
					},
					{
						"Row": "1",
						"Type": "RTID(dark_imp_dragon@ZombieTypes)"
					},
					{
						"Type": "RTID(dark_imp_dragon@ZombieTypes)"
					},
					{
						"Type": "RTID(dark_imp_dragon@ZombieTypes)"
					},
					{
						"Type": "RTID(dark_imp_dragon@ZombieTypes)"
					},
					{
						"Type": "RTID(dark_imp_dragon@ZombieTypes)"
					},
					{
						"Type": "RTID(dark_imp_dragon@ZombieTypes)"
					},
					{
						"Type": "RTID(dark_imp_dragon@ZombieTypes)"
					},
					{
						"Row": "2",
						"Type": "RTID(lostcity_crystalskull@ZombieTypes)"
					},
					{
						"Row": "4",
						"Type": "RTID(lostcity_crystalskull@ZombieTypes)"
					}
				]
			}
		},
		{
			"aliases": [
				"Wave10"
			],
			"objclass": "SpawnZombiesJitteredWaveActionProps",
			"objdata": {
				"AdditionalPlantfood": 0,
				"Zombies": [
					{
						"Row": "4",
						"Type": "RTID(dark_armor1@ZombieTypes)"
					},
					{
						"Row": "2",
						"Type": "RTID(dark_armor1@ZombieTypes)"
					},
					{
						"Row": "3",
						"Type": "RTID(barrelroller@ZombieTypes)"
					},
					{
						"Row": "4",
						"Type": "RTID(dark_wizard@ZombieTypes)"
					},
					{
						"Row": "2",
						"Type": "RTID(dark_wizard@ZombieTypes)"
					},
					{
						"Row": "5",
						"Type": "RTID(lostcity_crystalskull@ZombieTypes)"
					},
					{
						"Row": "3",
						"Type": "RTID(lostcity_crystalskull@ZombieTypes)"
					},
					{
						"Row": "1",
						"Type": "RTID(lostcity_crystalskull@ZombieTypes)"
					}
				]
			}
		},
		{
			"aliases": [
				"Wave11"
			],
			"objclass": "SpawnZombiesJitteredWaveActionProps",
			"objdata": {
				"AdditionalPlantfood": 1,
				"Zombies": [
					{
						"Row": "5",
						"Type": "RTID(modern_allstar@ZombieTypes)"
					},
					{
						"Row": "1",
						"Type": "RTID(modern_allstar@ZombieTypes)"
					},
					{
						"Row": "3",
						"Type": "RTID(pirate_captain@ZombieTypes)"
					}
				]
			}
		},
		{
			"aliases": [
				"Wave12"
			],
			"objclass": "SpawnZombiesJitteredWaveActionProps",
			"objdata": {
				"AdditionalPlantfood": 0,
				"Zombies": [
					{
						"Row": "4",
						"Type": "RTID(lostcity_crystalskull@ZombieTypes)"
					},
					{
						"Row": "2",
						"Type": "RTID(lostcity_crystalskull@ZombieTypes)"
					},
					{
						"Type": "RTID(dark_gargantuar@ZombieTypes)"
					},
					{
						"Type": "RTID(dark_gargantuar@ZombieTypes)"
					},
					{
						"Row": "4",
						"Type": "RTID(dark_wizard@ZombieTypes)"
					},
					{
						"Row": "2",
						"Type": "RTID(dark_wizard@ZombieTypes)"
					},
					{
						"Row": "3",
						"Type": "RTID(dark_wizard@ZombieTypes)"
					}
				]
			}
		},
		{
			"aliases": [
				"Gravestones"
			],
			"objclass": "GravestoneProperties",
			"objdata": {
				"ForceSpawnData": [
					{
						"GridX": 7,
						"GridY": 0,
						"TypeName": "gravestone_dark"
					},
					{
						"GridX": 5,
						"GridY": 0,
						"TypeName": "gravestone_dark"
					},
					{
						"GridX": 6,
						"GridY": 0,
						"TypeName": "gravestone_dark"
					},
					{
						"GridX": 8,
						"GridY": 1,
						"TypeName": "gravestone_dark"
					},
					{
						"GridX": 4,
						"GridY": 1,
						"TypeName": "gravestone_dark"
					},
					{
						"GridX": 6,
						"GridY": 1,
						"TypeName": "gravestone_dark"
					},
					{
						"GridX": 8,
						"GridY": 2,
						"TypeName": "gravestone_dark"
					},
					{
						"GridX": 4,
						"GridY": 2,
						"TypeName": "gravestone_dark"
					},
					{
						"GridX": 6,
						"GridY": 2,
						"TypeName": "gravestone_dark"
					},
					{
						"GridX": 7,
						"GridY": 3,
						"TypeName": "gravestone_dark"
					},
					{
						"GridX": 8,
						"GridY": 3,
						"TypeName": "gravestone_dark"
					},
					{
						"GridX": 4,
						"GridY": 3,
						"TypeName": "gravestone_dark"
					},
					{
						"GridX": 5,
						"GridY": 3,
						"TypeName": "gravestone_dark"
					},
					{
						"GridX": 6,
						"GridY": 3,
						"TypeName": "gravestone_dark"
					},
					{
						"GridX": 8,
						"GridY": 4,
						"TypeName": "gravestone_dark"
					},
					{
						"GridX": 4,
						"GridY": 4,
						"TypeName": "gravestone_dark"
					},
					{
						"GridX": 6,
						"GridY": 4,
						"TypeName": "gravestone_dark"
					}
				]
			}
		},
		{
			"aliases": [
				"NewWaves"
			],
			"objclass": "WaveManagerModuleProperties",
			"objdata": {
				"DynamicZombies": [
					{},
					{},
					{},
					{},
					{},
					{},
					{}
				]
			}
		},
		{
			"aliases": [
				"ConveyorBelt"
			],
			"objclass": "ConveyorSeedBankProperties",
			"objdata": {
				"DropDelayConditions": [
					{
						"Delay": 3,
						"MaxPackets": 0
					},
					{
						"Delay": 6,
						"MaxPackets": 2
					},
					{
						"Delay": 9,
						"MaxPackets": 4
					},
					{
						"Delay": 12,
						"MaxPackets": 8
					}
				],
				"InitialPlantList": [
					{
						"PlantType": "jackolantern",
						"Weight": 50
					}
				],
				"SpeedConditions": [
					{
						"MaxPackets": 0,
						"Speed": 100
					}
				]
			}
		},
		{
			"aliases": [
				"Wave3ModConveyor0"
			],
			"objclass": "ModifyConveyorWaveActionProps",
			"objdata": {
				"Add": [
					{
						"MaxCount": 3,
						"MaxCountCooldownSeconds": 45,
						"MaxWeightFactor": 0,
						"Type": "RTID(witchhazel@PlantTypes)",
						"Weight": 50
					}
				],
				"Remove": []
			}
		},
		{
			"aliases": [
				"Wave6ModConveyor0"
			],
			"objclass": "ModifyConveyorWaveActionProps",
			"objdata": {
				"Add": [
					{
						"Type": "RTID(ghostpepper@PlantTypes)",
						"Weight": 50
					}
				],
				"Remove": []
			}
		}
	],
	"version": 1
}