{
	"#comment": "Level Of The Day Birthday",
	"objects": [
		{
			"objclass": "LevelDefinition",
			"objdata": {
				"Description": "[PREMIUM_PLANT_QUEST_LOD_DESC]",
				"Loot": "RTID(DefaultLoot@LevelModules)",
				"Modules": [
					"RTID(StandardIntro@LevelModules)",
					"RTID(LevelEscalationModule@CurrentLevel)",
					"RTID(FrontLawnMowers@LevelModules)",
					"RTID(NewWaves@CurrentLevel)",
					"RTID(DefaultZombieWinCondition@LevelModules)",
					"RTID(Gravestones@CurrentLevel)",
					"RTID(ConveyorBelt@CurrentLevel)",
					"RTID(ZombiesDeadWinCon@LevelModules)"
				],
				"Name": "[PREMIUM_PLANT_QUEST_LOD_NAME]",
				"NormalPresentTable": "egypt_normal_01",
				"ShinyPresentTable": "egypt_shiny_01",
				"ForceToWorldMap": true,
				"RepeatPlayForceToWorldMap": true,
				"StageModule": "RTID(FrontLawnStage@LevelModules)"
			}
		},
		{
			"aliases": [
				"WaveManagerProps"
			],
			"objclass": "WaveManagerProperties",
			"objdata": {
				"MaxNextWaveHealthPercentage": 0.9,
				"MinNextWaveHealthPercentage": 0.8,
				"Waves": [
					[
						"RTID(Wave1@CurrentLevel)"
					],
					[
						"RTID(Wave2@CurrentLevel)"
					],
					[
						"RTID(Wave3@CurrentLevel)",
						"RTID(Wave3SandstormEvent0@CurrentLevel)"
					],
					[
						"RTID(Wave4@CurrentLevel)"
					],
					[
						"RTID(Wave5@CurrentLevel)"
					],
					[
						"RTID(Wave6@CurrentLevel)",
						"RTID(Wave6SandstormEvent0@CurrentLevel)"
					],
					[
						"RTID(Wave7@CurrentLevel)"
					],
					[
						"RTID(Wave8@CurrentLevel)"
					],
					[
						"RTID(Wave9@CurrentLevel)",
						"RTID(Wave9SandstormEvent0@CurrentLevel)"
					]
				]
			}
		},
		{
			"aliases": [
				"Wave1"
			],
			"objclass": "SpawnZombiesJitteredWaveActionProps",
			"objdata": {
				"Zombies": [
					{
						"Type": "RTID(tutorial@ZombieTypes)"
					}
				]
			}
		},
		{
			"aliases": [
				"Wave2"
			],
			"objclass": "SpawnZombiesJitteredWaveActionProps",
			"objdata": {
				"Zombies": [
					{
						"Row": "3",
						"Type": "RTID(cannon@ZombieTypes)"
					}
				]
			}
		},
		{
			"aliases": [
				"Wave3"
			],
			"objclass": "SpawnZombiesJitteredWaveActionProps",
			"objdata": {
				"Zombies": []
			}
		},
		{
			"aliases": [
				"Wave4"
			],
			"objclass": "SpawnZombiesJitteredWaveActionProps",
			"objdata": {
				"Zombies": [
					{
						"Type": "RTID(tutorial@ZombieTypes)"
					}
				]
			}
		},
		{
			"aliases": [
				"Wave5"
			],
			"objclass": "SpawnZombiesJitteredWaveActionProps",
			"objdata": {
				"Zombies": [
					{
						"Row": "2",
						"Type": "RTID(cannon@ZombieTypes)"
					},
					{
						"Row": "4",
						"Type": "RTID(cannon@ZombieTypes)"
					}
				]
			}
		},
		{
			"aliases": [
				"Wave6"
			],
			"objclass": "SpawnZombiesJitteredWaveActionProps",
			"objdata": {
				"Zombies": []
			}
		},
		{
			"aliases": [
				"Wave7"
			],
			"objclass": "SpawnZombiesJitteredWaveActionProps",
			"objdata": {
				"Zombies": [
					{
						"Row": "2",
						"Type": "RTID(future_jetpack@ZombieTypes)"
					},
					{
						"Row": "4",
						"Type": "RTID(future_jetpack@ZombieTypes)"
					}
				]
			}
		},
		{
			"aliases": [
				"Wave8"
			],
			"objclass": "SpawnZombiesJitteredWaveActionProps",
			"objdata": {
				"Zombies": [
					{
						"Row": "1",
						"Type": "RTID(cannon@ZombieTypes)"
					},
					{
						"Row": "3",
						"Type": "RTID(cannon@ZombieTypes)"
					},
					{
						"Row": "5",
						"Type": "RTID(cannon@ZombieTypes)"
					}
				]
			}
		},
		{
			"aliases": [
				"Wave9"
			],
			"objclass": "SpawnZombiesJitteredWaveActionProps",
			"objdata": {
				"Zombies": []
			}
		},
		{
			"aliases": [
				"LevelEscalationModule"
			],
			"objclass": "LevelEscalationModuleProperties",
			"objdata": {
				"FlagCount": 3,
				"PlantfoodToSpawnCount": 7,
				"PointIncrementPerWave": 150,
				"StartingPoints": 200,
				"WaveManagerProps": "RTID(WaveManagerProps@CurrentLevel)",
				"WavesPerFlag": 3,
				"ZombiePool": [
					"RTID(future_jetpack@ZombieTypes)",
					"RTID(tutorial_armor1@ZombieTypes)",
					"RTID(tutorial_armor2@ZombieTypes)",
					"RTID(tutorial@ZombieTypes)",
					"RTID(future@ZombieTypes)",
					"RTID(future_armor1@ZombieTypes)"
				]
			}
		},
		{
			"aliases": [
				"Gravestones"
			],
			"objclass": "GravestoneProperties",
			"objdata": {
				"ForceSpawnData": [
					{
						"GridX": 7,
						"GridY": 0
					},
					{
						"GridX": 5,
						"GridY": 0
					},
					{
						"GridX": 6,
						"GridY": 0
					},
					{
						"GridX": 7,
						"GridY": 1
					},
					{
						"GridX": 5,
						"GridY": 1
					},
					{
						"GridX": 6,
						"GridY": 1
					},
					{
						"GridX": 7,
						"GridY": 2
					},
					{
						"GridX": 5,
						"GridY": 2
					},
					{
						"GridX": 6,
						"GridY": 2
					},
					{
						"GridX": 7,
						"GridY": 3
					},
					{
						"GridX": 5,
						"GridY": 3
					},
					{
						"GridX": 6,
						"GridY": 3
					},
					{
						"GridX": 7,
						"GridY": 4
					},
					{
						"GridX": 5,
						"GridY": 4
					},
					{
						"GridX": 6,
						"GridY": 4
					}
				]
			}
		},
		{
			"aliases": [
				"NewWaves"
			],
			"objclass": "WaveManagerModuleProperties",
			"objdata": {}
		},
		{
			"aliases": [
				"ConveyorBelt"
			],
			"objclass": "ConveyorSeedBankProperties",
			"objdata": {
				"DropDelayConditions": [
					{
						"Delay": 3,
						"MaxPackets": 0
					},
					{
						"Delay": 6,
						"MaxPackets": 2
					},
					{
						"Delay": 9,
						"MaxPackets": 4
					},
					{
						"Delay": 12,
						"MaxPackets": 8
					}
				],
				"InitialPlantList": [
					{
						"MaxCount": 1,
						"MaxWeightFactor": 0,
						"PlantType": "iceburg",
						"Weight": 5
					},
					{
						"MaxCount": 15,
						"MaxWeightFactor": 0,
						"MinCount": 5,
						"MinWeightFactor": 2,
						"PlantType": "snowpea",
						"Weight": 15
					},
					{
						"MaxCount": 20,
						"MaxWeightFactor": 0,
						"PlantType": "spikeweed",
						"Weight": 10
					}
				],
				"SpeedConditions": [
					{
						"MaxPackets": 0,
						"Speed": 100
					}
				]
			}
		},
		{
			"aliases": [
				"Wave3SandstormEvent0"
			],
			"objclass": "StormZombieSpawnerProps",
			"objdata": {
				"ColumnEnd": 7,
				"ColumnStart": 5,
				"GroupSize": 1,
				"TimeBetweenGroups": 0.5,
				"Type": "sandstorm",
				"Zombies": [
					{
						"Type": "RTID(tutorial_armor1@ZombieTypes)"
					},
					{
						"Type": "RTID(tutorial_armor1@ZombieTypes)"
					}
				]
			}
		},
		{
			"aliases": [
				"Wave6SandstormEvent0"
			],
			"objclass": "StormZombieSpawnerProps",
			"objdata": {
				"ColumnEnd": 6,
				"ColumnStart": 4,
				"GroupSize": 1,
				"TimeBetweenGroups": 0.5,
				"Type": "sandstorm",
				"Zombies": [
					{
						"Type": "RTID(tutorial_armor1@ZombieTypes)"
					},
					{
						"Type": "RTID(tutorial_armor1@ZombieTypes)"
					},
					{
						"Type": "RTID(tutorial_armor1@ZombieTypes)"
					},
					{
						"Type": "RTID(tutorial_armor1@ZombieTypes)"
					}
				]
			}
		},
		{
			"aliases": [
				"Wave9SandstormEvent0"
			],
			"objclass": "StormZombieSpawnerProps",
			"objdata": {
				"ColumnEnd": 5,
				"ColumnStart": 4,
				"GroupSize": 1,
				"TimeBetweenGroups": 0.5,
				"Type": "sandstorm",
				"Zombies": [
					{
						"Type": "RTID(tutorial_armor1@ZombieTypes)"
					},
					{
						"Type": "RTID(tutorial_armor1@ZombieTypes)"
					},
					{
						"Type": "RTID(tutorial_armor1@ZombieTypes)"
					},
					{
						"Type": "RTID(tutorial_armor1@ZombieTypes)"
					},
					{
						"Type": "RTID(tutorial_armor1@ZombieTypes)"
					},
					{
						"Type": "RTID(tutorial_armor1@ZombieTypes)"
					}
				]
			}
		}
	],
	"version": 1
}