{
	"#comment": "Fire Peashooter + Repeater + Peapod vs. Freezing",
	"objects": [
		{
			"objclass": "LevelDefinition",
			"objdata": {
				"Description": "[PREMIUM_PLANT_QUEST_LOD_DESC]",
				"DraperPromo": "gloomvine",
				"ForceToWorldMap": true,
				"Loot": "RTID(DefaultLoot@LevelModules)",
				"Modules": [
					"RTID(StandardIntro@LevelModules)",
					"RTID(LevelEscalationModule@CurrentLevel)",
					"RTID(DarkMowers@LevelModules)",
					"RTID(NewWaves@CurrentLevel)",
					"RTID(DefaultZombieWinCondition@LevelModules)",
					"RTID(ConveyorBelt@CurrentLevel)",
					"RTID(ZombiesDeadWinCon@LevelModules)"
				],
				"Name": "[PREMIUM_PLANT_QUEST_LOD_NAME]",
				"NormalPresentTable": "egypt_normal_01",
				"RepeatPlayForceToWorldMap": true,
				"ShinyPresentTable": "egypt_shiny_01",
				"StageModule": "RTID(DarkStage@LevelModules)"
			}
		},
		{
			"aliases": [
				"LevelEscalationModule"
			],
			"objclass": "LevelEscalationModuleProperties",
			"objdata": {
				"FlagCount": 4,
				"PlantfoodToSpawnCount": 1,
				"PointIncrementPerWave": 200,
				"StartingPoints": 200,
				"WaveManagerProps": "RTID(WaveManagerProps@CurrentLevel)",
				"WavesPerFlag": 3,
				"ZombiePool": [
					"RTID(dark_armor2@ZombieTypes)",
					"RTID(dark_armor1@ZombieTypes)",
					"RTID(dark@ZombieTypes)"
				]
			}
		},
		{
			"aliases": [
				"NewWaves"
			],
			"objclass": "WaveManagerModuleProperties",
			"objdata": {}
		},
		{
			"aliases": [
				"ConveyorBelt"
			],
			"objclass": "ConveyorSeedBankProperties",
			"objdata": {
				"DropDelayConditions": [
					{
						"Delay": 6,
						"MaxPackets": 0
					},
					{
						"Delay": 8,
						"MaxPackets": 2
					},
					{
						"Delay": 10,
						"MaxPackets": 4
					},
					{
						"Delay": 12,
						"MaxPackets": 8
					}
				],
				"InitialPlantList": [
					{
						"PlantType": "dartichoke",
						"Weight": 30
					},
					{
						"PlantType": "gloomvine",
						"Weight": 50
					},
					{
						"PlantType": "magnetshroom",
						"Weight": 15
					},
					{
						"MaxCount": 2,
						"MaxCountCooldownSeconds": 20,
						"MaxWeightFactor": 0,
						"MinCount": 2,
						"MinWeightFactor": 2,
						"PlantType": "pokra",
						"Weight": 20
					}
				],
				"SpeedConditions": [
					{
						"MaxPackets": 0,
						"Speed": 100
					}
				]
			}
		},
		{
			"aliases": [
				"WaveManagerProps"
			],
			"objclass": "WaveManagerProperties",
			"objdata": {
				"FlagWaveInterval": 3,
				"MaxNextWaveHealthPercentage": 0.9,
				"MinNextWaveHealthPercentage": 0.8,
				"WaveCount": 12,
				"WaveSpendingPointIncrement": 100,
				"WaveSpendingPoints": 0,
				"Waves": [
					[
						"RTID(Wave1@CurrentLevel)"
					],
					[
						"RTID(Wave2@CurrentLevel)"
					],
					[
						"RTID(Wave3@CurrentLevel)",
						"RTID(Wave3GravestoneEvent0@CurrentLevel)"
					],
					[
						"RTID(Wave4@CurrentLevel)"
					],
					[
						"RTID(Wave5@CurrentLevel)"
					],
					[
						"RTID(Wave6@CurrentLevel)",
						"RTID(Wave6GravestoneEvent0@CurrentLevel)"
					],
					[
						"RTID(Wave7@CurrentLevel)",
						"RTID(Wave7ModConveyor0@CurrentLevel)"
					],
					[
						"RTID(Wave8@CurrentLevel)"
					],
					[
						"RTID(Wave9@CurrentLevel)",
						"RTID(Wave9GravestoneEvent0@CurrentLevel)"
					],
					[
						"RTID(Wave10@CurrentLevel)",
						"RTID(Wave10GraveSpawnEvent0@CurrentLevel)"
					],
					[
						"RTID(Wave11@CurrentLevel)",
						"RTID(Wave11GraveSpawnEvent0@CurrentLevel)"
					],
					[
						"RTID(Wave12@CurrentLevel)",
						"RTID(Wave12GravestoneEvent0@CurrentLevel)"
					]
				]
			}
		},
		{
			"aliases": [
				"Wave1"
			],
			"objclass": "SpawnZombiesJitteredWaveActionProps",
			"objdata": {
				"AdditionalPlantfood": 0,
				"Zombies": [
					{
						"Type": "RTID(dark@ZombieTypes)"
					}
				]
			}
		},
		{
			"aliases": [
				"Wave2"
			],
			"objclass": "SpawnZombiesJitteredWaveActionProps",
			"objdata": {
				"AdditionalPlantfood": 0,
				"Zombies": [
					{
						"Type": "RTID(dark@ZombieTypes)"
					},
					{
						"Type": "RTID(dark_imp@ZombieTypes)"
					}
				]
			}
		},
		{
			"aliases": [
				"Wave3"
			],
			"objclass": "SpawnZombiesJitteredWaveActionProps",
			"objdata": {
				"AdditionalPlantfood": 1,
				"Zombies": [
					{
						"Type": "RTID(dark@ZombieTypes)"
					},
					{
						"Type": "RTID(dark_armor1@ZombieTypes)"
					},
					{
						"Type": "RTID(dark@ZombieTypes)"
					},
					{
						"Type": "RTID(dark_armor1@ZombieTypes)"
					},
					{
						"Type": "RTID(dark@ZombieTypes)"
					},
					{
						"Type": "RTID(dark@ZombieTypes)"
					}
				]
			}
		},
		{
			"aliases": [
				"Wave4"
			],
			"objclass": "SpawnZombiesJitteredWaveActionProps",
			"objdata": {
				"AdditionalPlantfood": 0,
				"Zombies": [
					{
						"Type": "RTID(dark_armor2@ZombieTypes)"
					}
				]
			}
		},
		{
			"aliases": [
				"Wave5"
			],
			"objclass": "SpawnZombiesJitteredWaveActionProps",
			"objdata": {
				"AdditionalPlantfood": 0,
				"Zombies": [
					{
						"Type": "RTID(dark_king@ZombieTypes)"
					}
				]
			}
		},
		{
			"aliases": [
				"Wave6"
			],
			"objclass": "SpawnZombiesJitteredWaveActionProps",
			"objdata": {
				"AdditionalPlantfood": 1,
				"Zombies": [
					{
						"Row": "3",
						"Type": "RTID(dark_armor2@ZombieTypes)"
					},
					{
						"Type": "RTID(dark_wizard@ZombieTypes)"
					},
					{
						"Row": "3",
						"Type": "RTID(prospector@ZombieTypes)"
					}
				]
			}
		},
		{
			"aliases": [
				"Wave7"
			],
			"objclass": "SpawnZombiesJitteredWaveActionProps",
			"objdata": {
				"AdditionalPlantfood": 0,
				"Zombies": [
					{
						"Type": "RTID(dark_king@ZombieTypes)"
					}
				]
			}
		},
		{
			"aliases": [
				"Wave8"
			],
			"objclass": "SpawnZombiesJitteredWaveActionProps",
			"objdata": {
				"AdditionalPlantfood": 1,
				"Zombies": [
					{
						"Row": "3",
						"Type": "RTID(dark_armor3@ZombieTypes)"
					},
					{
						"Type": "RTID(prospector@ZombieTypes)"
					}
				]
			}
		},
		{
			"aliases": [
				"Wave9"
			],
			"objclass": "SpawnZombiesJitteredWaveActionProps",
			"objdata": {
				"AdditionalPlantfood": 0,
				"Zombies": [
					{
						"Type": "RTID(dark_wizard@ZombieTypes)"
					},
					{
						"Type": "RTID(dark_wizard@ZombieTypes)"
					},
					{
						"Type": "RTID(dark_imp@ZombieTypes)"
					},
					{
						"Type": "RTID(dark_imp@ZombieTypes)"
					},
					{
						"Row": "3",
						"Type": "RTID(dark_armor3@ZombieTypes)"
					}
				]
			}
		},
		{
			"aliases": [
				"Wave10"
			],
			"objclass": "SpawnZombiesJitteredWaveActionProps",
			"objdata": {
				"AdditionalPlantfood": 1,
				"Zombies": [
					{
						"Type": "RTID(prospector@ZombieTypes)"
					},
					{
						"Type": "RTID(dark_king@ZombieTypes)"
					}
				]
			}
		},
		{
			"aliases": [
				"Wave11"
			],
			"objclass": "SpawnZombiesJitteredWaveActionProps",
			"objdata": {
				"AdditionalPlantfood": 0,
				"Zombies": [
					{
						"Row": "3",
						"Type": "RTID(prospector@ZombieTypes)"
					}
				]
			}
		},
		{
			"aliases": [
				"Wave12"
			],
			"objclass": "SpawnZombiesJitteredWaveActionProps",
			"objdata": {
				"Zombies": [
					{
						"Row": "1",
						"Type": "RTID(dark_armor2@ZombieTypes)"
					},
					{
						"Type": "RTID(beach_gargantuar@ZombieTypes)"
					},
					{
						"Row": "2",
						"Type": "RTID(dark_armor2@ZombieTypes)"
					},
					{
						"Row": "4",
						"Type": "RTID(dark_armor2@ZombieTypes)"
					},
					{
						"Row": "5",
						"Type": "RTID(dark_armor2@ZombieTypes)"
					}
				]
			}
		},
		{
			"aliases": [
				"Wave7ModConveyor0"
			],
			"objclass": "ModifyConveyorWaveActionProps",
			"objdata": {
				"Add": [
					{
						"MaxCount": 1,
						"MaxCountCooldownSeconds": 23,
						"MaxDelivered": 5,
						"MaxWeightFactor": 0,
						"MinCount": 1,
						"MinWeightFactor": 2,
						"Type": "RTID(concealmint@PlantTypes)",
						"Weight": 20
					}
				],
				"Remove": []
			}
		},
		{
			"aliases": [
				"Wave3GravestoneEvent0"
			],
			"objclass": "SpawnGravestonesWaveActionProps",
			"objdata": {
				"GravestonePool": [
					{
						"Count": 5,
						"Type": "RTID(gravestone_dark@GridItemTypes)"
					},
					{
						"Count": 0,
						"Type": "RTID(gravestoneSunOnDestruction@GridItemTypes)"
					},
					{
						"Count": 0,
						"Type": "RTID(gravestonePlantfoodOnDestruction@GridItemTypes)"
					}
				],
				"SpawnEffectAnimID": "POPANIM_EFFECTS_TOMBSTONE_DARK_SPAWN_EFFECT",
				"SpawnPositionsPool": [
					{
						"mX": 5,
						"mY": 0
					},
					{
						"mX": 5,
						"mY": 1
					},
					{
						"mX": 5,
						"mY": 2
					},
					{
						"mX": 5,
						"mY": 3
					},
					{
						"mX": 5,
						"mY": 4
					},
					{
						"mX": 6,
						"mY": 0
					},
					{
						"mX": 6,
						"mY": 1
					},
					{
						"mX": 6,
						"mY": 2
					},
					{
						"mX": 6,
						"mY": 3
					},
					{
						"mX": 6,
						"mY": 4
					},
					{
						"mX": 7,
						"mY": 0
					},
					{
						"mX": 7,
						"mY": 1
					},
					{
						"mX": 7,
						"mY": 2
					},
					{
						"mX": 7,
						"mY": 3
					},
					{
						"mX": 7,
						"mY": 4
					},
					{
						"mX": 8,
						"mY": 0
					},
					{
						"mX": 8,
						"mY": 1
					},
					{
						"mX": 8,
						"mY": 2
					},
					{
						"mX": 8,
						"mY": 3
					},
					{
						"mX": 8,
						"mY": 4
					}
				],
				"SpawnSoundID": "Play_Zomb_Egypt_TombRaiser_Grave_Rise"
			}
		},
		{
			"aliases": [
				"Wave6GravestoneEvent0"
			],
			"objclass": "SpawnGravestonesWaveActionProps",
			"objdata": {
				"GravestonePool": [
					{
						"Count": 6,
						"Type": "RTID(gravestone_dark@GridItemTypes)"
					},
					{
						"Count": 0,
						"Type": "RTID(gravestoneSunOnDestruction@GridItemTypes)"
					},
					{
						"Count": 0,
						"Type": "RTID(gravestonePlantfoodOnDestruction@GridItemTypes)"
					}
				],
				"SpawnEffectAnimID": "POPANIM_EFFECTS_TOMBSTONE_DARK_SPAWN_EFFECT",
				"SpawnPositionsPool": [
					{
						"mX": 4,
						"mY": 0
					},
					{
						"mX": 4,
						"mY": 1
					},
					{
						"mX": 4,
						"mY": 2
					},
					{
						"mX": 4,
						"mY": 3
					},
					{
						"mX": 4,
						"mY": 4
					},
					{
						"mX": 5,
						"mY": 0
					},
					{
						"mX": 5,
						"mY": 1
					},
					{
						"mX": 5,
						"mY": 2
					},
					{
						"mX": 5,
						"mY": 3
					},
					{
						"mX": 5,
						"mY": 4
					},
					{
						"mX": 6,
						"mY": 0
					},
					{
						"mX": 6,
						"mY": 1
					},
					{
						"mX": 6,
						"mY": 2
					},
					{
						"mX": 6,
						"mY": 3
					},
					{
						"mX": 6,
						"mY": 4
					},
					{
						"mX": 7,
						"mY": 0
					},
					{
						"mX": 7,
						"mY": 1
					},
					{
						"mX": 7,
						"mY": 2
					},
					{
						"mX": 7,
						"mY": 3
					},
					{
						"mX": 7,
						"mY": 4
					},
					{
						"mX": 8,
						"mY": 0
					},
					{
						"mX": 8,
						"mY": 1
					},
					{
						"mX": 8,
						"mY": 2
					},
					{
						"mX": 8,
						"mY": 3
					},
					{
						"mX": 8,
						"mY": 4
					}
				],
				"SpawnSoundID": "Play_Zomb_Egypt_TombRaiser_Grave_Rise"
			}
		},
		{
			"aliases": [
				"Wave9GravestoneEvent0"
			],
			"objclass": "SpawnGravestonesWaveActionProps",
			"objdata": {
				"GravestonePool": [
					{
						"Count": 7,
						"Type": "RTID(gravestone_dark@GridItemTypes)"
					},
					{
						"Count": 0,
						"Type": "RTID(gravestoneSunOnDestruction@GridItemTypes)"
					},
					{
						"Count": 0,
						"Type": "RTID(gravestonePlantfoodOnDestruction@GridItemTypes)"
					}
				],
				"SpawnEffectAnimID": "POPANIM_EFFECTS_TOMBSTONE_DARK_SPAWN_EFFECT",
				"SpawnPositionsPool": [
					{
						"mX": 3,
						"mY": 0
					},
					{
						"mX": 3,
						"mY": 1
					},
					{
						"mX": 3,
						"mY": 2
					},
					{
						"mX": 3,
						"mY": 3
					},
					{
						"mX": 3,
						"mY": 4
					},
					{
						"mX": 4,
						"mY": 0
					},
					{
						"mX": 4,
						"mY": 1
					},
					{
						"mX": 4,
						"mY": 2
					},
					{
						"mX": 4,
						"mY": 3
					},
					{
						"mX": 4,
						"mY": 4
					},
					{
						"mX": 5,
						"mY": 0
					},
					{
						"mX": 5,
						"mY": 1
					},
					{
						"mX": 5,
						"mY": 2
					},
					{
						"mX": 5,
						"mY": 3
					},
					{
						"mX": 5,
						"mY": 4
					},
					{
						"mX": 6,
						"mY": 0
					},
					{
						"mX": 6,
						"mY": 1
					},
					{
						"mX": 6,
						"mY": 2
					},
					{
						"mX": 6,
						"mY": 3
					},
					{
						"mX": 6,
						"mY": 4
					},
					{
						"mX": 7,
						"mY": 0
					},
					{
						"mX": 7,
						"mY": 1
					},
					{
						"mX": 7,
						"mY": 2
					},
					{
						"mX": 7,
						"mY": 3
					},
					{
						"mX": 7,
						"mY": 4
					},
					{
						"mX": 8,
						"mY": 0
					},
					{
						"mX": 8,
						"mY": 1
					},
					{
						"mX": 8,
						"mY": 2
					},
					{
						"mX": 8,
						"mY": 3
					},
					{
						"mX": 8,
						"mY": 4
					}
				],
				"SpawnSoundID": "Play_Zomb_Egypt_TombRaiser_Grave_Rise"
			}
		},
		{
			"aliases": [
				"Wave12GravestoneEvent0"
			],
			"objclass": "SpawnGravestonesWaveActionProps",
			"objdata": {
				"GravestonePool": [
					{
						"Count": 9,
						"Type": "RTID(gravestone_dark@GridItemTypes)"
					},
					{
						"Count": 0,
						"Type": "RTID(gravestoneSunOnDestruction@GridItemTypes)"
					},
					{
						"Count": 0,
						"Type": "RTID(gravestonePlantfoodOnDestruction@GridItemTypes)"
					}
				],
				"SpawnEffectAnimID": "POPANIM_EFFECTS_TOMBSTONE_DARK_SPAWN_EFFECT",
				"SpawnPositionsPool": [
					{
						"mX": 3,
						"mY": 0
					},
					{
						"mX": 3,
						"mY": 1
					},
					{
						"mX": 3,
						"mY": 2
					},
					{
						"mX": 3,
						"mY": 3
					},
					{
						"mX": 3,
						"mY": 4
					},
					{
						"mX": 4,
						"mY": 0
					},
					{
						"mX": 4,
						"mY": 1
					},
					{
						"mX": 4,
						"mY": 2
					},
					{
						"mX": 4,
						"mY": 3
					},
					{
						"mX": 4,
						"mY": 4
					},
					{
						"mX": 5,
						"mY": 0
					},
					{
						"mX": 5,
						"mY": 1
					},
					{
						"mX": 5,
						"mY": 2
					},
					{
						"mX": 5,
						"mY": 3
					},
					{
						"mX": 5,
						"mY": 4
					},
					{
						"mX": 6,
						"mY": 0
					},
					{
						"mX": 6,
						"mY": 1
					},
					{
						"mX": 6,
						"mY": 2
					},
					{
						"mX": 6,
						"mY": 3
					},
					{
						"mX": 6,
						"mY": 4
					},
					{
						"mX": 7,
						"mY": 0
					},
					{
						"mX": 7,
						"mY": 1
					},
					{
						"mX": 7,
						"mY": 2
					},
					{
						"mX": 7,
						"mY": 3
					},
					{
						"mX": 7,
						"mY": 4
					},
					{
						"mX": 8,
						"mY": 0
					},
					{
						"mX": 8,
						"mY": 1
					},
					{
						"mX": 8,
						"mY": 2
					},
					{
						"mX": 8,
						"mY": 3
					},
					{
						"mX": 8,
						"mY": 4
					}
				],
				"SpawnSoundID": "Play_Zomb_Egypt_TombRaiser_Grave_Rise"
			}
		},
		{
			"aliases": [
				"Wave10GraveSpawnEvent0"
			],
			"objclass": "SpawnZombiesFromGridItemSpawnerProps",
			"objdata": {
				"AdditionalPlantfood": "0",
				"GridTypes": [
					"RTID(gravestone_dark@GridItemTypes)",
					"RTID(gravestoneSunOnDestruction@GridItemTypes)",
					"RTID(gravestonePlantfoodOnDestruction@GridItemTypes)"
				],
				"WaveStartMessage": "[WARNING_GRAVESTONE_SPAWN]",
				"ZombieSpawnWaitTime": "1",
				"Zombies": [
					{
						"Type": "RTID(dark_wizard@ZombieTypes)"
					},
					{
						"Type": "RTID(dark_wizard@ZombieTypes)"
					},
					{
						"Type": "RTID(dark_wizard@ZombieTypes)"
					}
				]
			}
		},
		{
			"aliases": [
				"Wave11GraveSpawnEvent0"
			],
			"objclass": "SpawnZombiesFromGridItemSpawnerProps",
			"objdata": {
				"AdditionalPlantfood": "0",
				"GridTypes": [
					"RTID(gravestone_dark@GridItemTypes)",
					"RTID(gravestoneSunOnDestruction@GridItemTypes)",
					"RTID(gravestonePlantfoodOnDestruction@GridItemTypes)"
				],
				"WaveStartMessage": "[WARNING_GRAVESTONE_SPAWN]",
				"ZombieSpawnWaitTime": "1",
				"Zombies": [
					{
						"Type": "RTID(beach_octopus@ZombieTypes)"
					},
					{
						"Type": "RTID(beach_octopus@ZombieTypes)"
					},
					{
						"Type": "RTID(beach_octopus@ZombieTypes)"
					}
				]
			}
		}
	],
	"version": 1
}