{
	"#comment": "LOD template level. Delete unnecessary Modules (e.g. Challenge, Frozen)",
	"objects": [
		{
			"objclass": "LevelDefinition",
			"objdata": {
				"Description": "[PREMIUM_PLANT_QUEST_LOD_DESC]",
				"Loot": "RTID(DefaultLoot@LevelModules)",
				"Modules": [
					"RTID(StandardIntro@LevelModules)",
					"RTID(LevelEscalationModule@CurrentLevel)",
					"RTID(FrontLawnMowers@LevelModules)",
					"RTID(NewWaves@CurrentLevel)",
					"RTID(DefaultZombieWinCondition@LevelModules)",
					"RTID(Gravestones@CurrentLevel)",
					"RTID(ConveyorBelt@CurrentLevel)",
					"RTID(ZombiesDeadWinCon@LevelModules)"
				],
				"Name": "[PREMIUM_PLANT_QUEST_LOD_NAME]",
				"NormalPresentTable": "egypt_normal_01",
				"ShinyPresentTable": "egypt_shiny_01",
				"ForceToWorldMap": true,
				"RepeatPlayForceToWorldMap": true,
				"StageModule": "RTID(FrontLawnStage@LevelModules)"
			}
		},
		{
			"aliases": [
				"LevelEscalationModule"
			],
			"objclass": "LevelEscalationModuleProperties",
			"objdata": {
				"FlagCount": 3,
				"PlantfoodToSpawnCount": 3,
				"PointIncrementPerWave": 10,
				"StartingPoints": 100,
				"WaveManagerProps": "RTID(WaveManagerProps@CurrentLevel)",
				"WavesPerFlag": 4,
				"ZombiePool": [
					"RTID(pirate_gargantuar@ZombieTypes)",
					"RTID(eighties_gargantuar@ZombieTypes)",
					"RTID(lostcity_gargantuar@ZombieTypes)",
					"RTID(dino_gargantuar@ZombieTypes)",
					"RTID(cowboy_gargantuar@ZombieTypes)",
					"RTID(football_mech@ZombieTypes)",
					"RTID(egypt_gargantuar@ZombieTypes)",
					"RTID(beach_gargantuar@ZombieTypes)",
					"RTID(iceage_gargantuar@ZombieTypes)",
					"RTID(tutorial_gargantuar@ZombieTypes)",
					"RTID(future_gargantuar@ZombieTypes)"
				]
			}
		},
		{
			"aliases": [
				"WaveManagerProps"
			],
			"objclass": "WaveManagerProperties",
			"objdata": {
				"FlagWaveInterval": 4,
				"LevelJam": "jam_metal",
				"WaveCount": 12,
				"WaveSpendingPointIncrement": 50,
				"WaveSpendingPoints": 100,
				"Waves": [
					[
						"RTID(Wave1@CurrentLevel)"
					],
					[
						"RTID(Wave2@CurrentLevel)",
						"RTID(Wave2ModConveyor0@CurrentLevel)"
					],
					[
						"RTID(Wave3@CurrentLevel)"
					],
					[
						"RTID(Wave4@CurrentLevel)"
					],
					[
						"RTID(Wave5@CurrentLevel)"
					],
					[
						"RTID(Wave6@CurrentLevel)"
					],
					[
						"RTID(Wave7@CurrentLevel)",
						"RTID(Wave7ModConveyor0@CurrentLevel)"
					],
					[
						"RTID(Wave8@CurrentLevel)"
					],
					[
						"RTID(Wave9@CurrentLevel)"
					],
					[
						"RTID(Wave10@CurrentLevel)"
					],
					[
						"RTID(Wave11@CurrentLevel)"
					],
					[
						"RTID(Wave12@CurrentLevel)"
					]
				]
			}
		},
		{
			"aliases": [
				"Wave1"
			],
			"objclass": "SpawnZombiesJitteredWaveActionProps",
			"objdata": {
				"Zombies": [
					{
						"Row": "5",
						"Type": "RTID(egypt_gargantuar@ZombieTypes)"
					}
				]
			}
		},
		{
			"aliases": [
				"Wave2"
			],
			"objclass": "SpawnZombiesJitteredWaveActionProps",
			"objdata": {
				"AdditionalPlantfood": 1,
				"DynamicPlantfood": [
					1,
					1,
					1,
					1,
					1,
					1,
					1
				],
				"Zombies": [
					{
						"Row": "4",
						"Type": "RTID(cowboy_gargantuar@ZombieTypes)"
					},
					{
						"Row": "2",
						"Type": "RTID(cowboy_gargantuar@ZombieTypes)"
					}
				]
			}
		},
		{
			"aliases": [
				"Wave3"
			],
			"objclass": "SpawnZombiesJitteredWaveActionProps",
			"objdata": {
				"AdditionalPlantfood": 0,
				"DynamicPlantfood": [
					1,
					1,
					1,
					0,
					0,
					0,
					0
				],
				"Zombies": [
					{
						"Row": "5",
						"Type": "RTID(dino_gargantuar@ZombieTypes)"
					},
					{
						"Type": "RTID(football_mech@ZombieTypes)"
					},
					{
						"Row": "3",
						"Type": "RTID(dino_gargantuar@ZombieTypes)"
					}
				]
			}
		},
		{
			"aliases": [
				"Wave4"
			],
			"objclass": "SpawnZombiesJitteredWaveActionProps",
			"objdata": {
				"AdditionalPlantfood": 1,
				"DynamicPlantfood": [
					1,
					1,
					1,
					0,
					0,
					0,
					0
				],
				"Zombies": [
					{
						"Row": "4",
						"Type": "RTID(beach_gargantuar@ZombieTypes)"
					},
					{
						"Row": "2",
						"Type": "RTID(eighties_gargantuar@ZombieTypes)"
					},
					{
						"Row": "1",
						"Type": "RTID(egypt_gargantuar@ZombieTypes)"
					}
				]
			}
		},
		{
			"aliases": [
				"Wave5"
			],
			"objclass": "SpawnZombiesJitteredWaveActionProps",
			"objdata": {
				"Zombies": [
					{
						"Row": "5",
						"Type": "RTID(iceage_gargantuar@ZombieTypes)"
					},
					{
						"Row": "3",
						"Type": "RTID(iceage_gargantuar@ZombieTypes)"
					}
				]
			}
		},
		{
			"aliases": [
				"Wave6"
			],
			"objclass": "SpawnZombiesJitteredWaveActionProps",
			"objdata": {
				"AdditionalPlantfood": 1,
				"DynamicPlantfood": [
					1,
					1,
					1,
					1,
					0,
					0,
					0
				],
				"Zombies": [
					{
						"Type": "RTID(football_mech@ZombieTypes)"
					},
					{
						"Row": "2",
						"Type": "RTID(pirate_gargantuar@ZombieTypes)"
					},
					{
						"Type": "RTID(football_mech@ZombieTypes)"
					}
				]
			}
		},
		{
			"aliases": [
				"Wave7"
			],
			"objclass": "SpawnZombiesJitteredWaveActionProps",
			"objdata": {
				"AdditionalPlantfood": 0,
				"DynamicPlantfood": [
					1,
					1,
					1,
					1,
					1,
					0,
					0
				],
				"Zombies": [
					{
						"Row": "4",
						"Type": "RTID(lostcity_gargantuar@ZombieTypes)"
					},
					{
						"Row": "4",
						"Type": "RTID(lostcity_gargantuar@ZombieTypes)"
					}
				]
			}
		},
		{
			"aliases": [
				"Wave8"
			],
			"objclass": "SpawnZombiesJitteredWaveActionProps",
			"objdata": {
				"AdditionalPlantfood": 0,
				"Zombies": [
					{
						"Row": "3",
						"Type": "RTID(dino_gargantuar@ZombieTypes)"
					},
					{
						"Row": "2",
						"Type": "RTID(dino_gargantuar@ZombieTypes)"
					},
					{
						"Row": "5",
						"Type": "RTID(beach_gargantuar@ZombieTypes)"
					},
					{
						"Row": "1",
						"Type": "RTID(beach_gargantuar@ZombieTypes)"
					}
				]
			}
		},
		{
			"aliases": [
				"Wave9"
			],
			"objclass": "SpawnZombiesJitteredWaveActionProps",
			"objdata": {
				"AdditionalPlantfood": 1,
				"DynamicPlantfood": [
					1,
					1,
					1,
					0,
					0,
					0,
					0
				],
				"Zombies": [
					{
						"Row": "4",
						"Type": "RTID(tutorial_gargantuar@ZombieTypes)"
					}
				]
			}
		},
		{
			"aliases": [
				"Wave10"
			],
			"objclass": "SpawnZombiesJitteredWaveActionProps",
			"objdata": {
				"Zombies": [
					{
						"Row": "3",
						"Type": "RTID(future_gargantuar@ZombieTypes)"
					},
					{
						"Row": "1",
						"Type": "RTID(future_gargantuar@ZombieTypes)"
					}
				]
			}
		},
		{
			"aliases": [
				"Wave11"
			],
			"objclass": "SpawnZombiesJitteredWaveActionProps",
			"objdata": {
				"AdditionalPlantfood": 1,
				"DynamicPlantfood": [
					1,
					1,
					1,
					1,
					1,
					1,
					1
				],
				"Zombies": [
					{
						"Row": "5",
						"Type": "RTID(eighties_gargantuar@ZombieTypes)"
					},
					{
						"Row": "4",
						"Type": "RTID(eighties_gargantuar@ZombieTypes)"
					}
				]
			}
		},
		{
			"aliases": [
				"Wave12"
			],
			"objclass": "SpawnZombiesJitteredWaveActionProps",
			"objdata": {
				"AdditionalPlantfood": 0,
				"Zombies": [
					{
						"Row": "5",
						"Type": "RTID(beach_gargantuar@ZombieTypes)"
					},
					{
						"Row": "4",
						"Type": "RTID(egypt_gargantuar@ZombieTypes)"
					},
					{
						"Row": "3",
						"Type": "RTID(future_gargantuar@ZombieTypes)"
					},
					{
						"Row": "2",
						"Type": "RTID(iceage_gargantuar@ZombieTypes)"
					},
					{
						"Row": "1",
						"Type": "RTID(lostcity_gargantuar@ZombieTypes)"
					}
				]
			}
		},
		{
			"aliases": [
				"Gravestones"
			],
			"objclass": "GravestoneProperties",
			"objdata": {}
		},
		{
			"aliases": [
				"NewWaves"
			],
			"objclass": "WaveManagerModuleProperties",
			"objdata": {
				"DynamicZombies": [
					{},
					{},
					{},
					{},
					{},
					{},
					{}
				]
			}
		},
		{
			"aliases": [
				"ConveyorBelt"
			],
			"objclass": "ConveyorSeedBankProperties",
			"objdata": {
				"DropDelayConditions": [
					{
						"Delay": 3,
						"MaxPackets": 0
					},
					{
						"Delay": 6,
						"MaxPackets": 2
					},
					{
						"Delay": 9,
						"MaxPackets": 4
					},
					{
						"Delay": 12,
						"MaxPackets": 8
					}
				],
				"InitialPlantList": [
					{
						"PlantType": "applemortar",
						"Weight": 10
					},
					{
						"PlantType": "iceburg",
						"Weight": 10
					}
				],
				"SpeedConditions": [
					{
						"MaxPackets": 0,
						"Speed": 100
					}
				]
			}
		},
		{
			"aliases": [
				"Wave2ModConveyor0"
			],
			"objclass": "ModifyConveyorWaveActionProps",
			"objdata": {
				"Add": [
					{
						"Type": "RTID(snapdragon@PlantTypes)",
						"Weight": 10
					},
					{
						"Type": "RTID(primalwallnut@PlantTypes)",
						"Weight": 5
					}
				],
				"Remove": []
			}
		},
		{
			"aliases": [
				"Wave7ModConveyor0"
			],
			"objclass": "ModifyConveyorWaveActionProps",
			"objdata": {
				"Add": [
					{
						"Type": "RTID(chardguard@PlantTypes)",
						"Weight": 5
					}
				],
				"Remove": []
			}
		}
	],
	"version": 1
}