{
	"#comment": "LOD template level. Delete unnecessary Modules (e.g. Challenge, Frozen)",
	"objects": [
		{
			"objclass": "LevelDefinition",
			"objdata": {
				"Description": "[PREMIUM_PLANT_QUEST_LOD_DESC]",
				"Loot": "RTID(DefaultLoot@LevelModules)",
				"Modules": [
					"RTID(StandardIntro@LevelModules)",
					"RTID(LevelEscalationModule@CurrentLevel)",
					"RTID(FrontLawnMowers@LevelModules)",
					"RTID(NewWaves@CurrentLevel)",
					"RTID(DefaultZombieWinCondition@LevelModules)",
					"RTID(Gravestones@CurrentLevel)",
					"RTID(ConveyorBelt@CurrentLevel)",
					"RTID(ZombiesDeadWinCon@LevelModules)"
				],
				"Name": "[PREMIUM_PLANT_QUEST_LOD_NAME]",
				"NormalPresentTable": "egypt_normal_01",
				"ShinyPresentTable": "egypt_shiny_01",
				"ForceToWorldMap": true,
				"RepeatPlayForceToWorldMap": true,
				"StageModule": "RTID(FrontLawnStage@LevelModules)",
				"SuppressSunSpawn": true
			}
		},
		{
			"aliases": [
				"LevelEscalationModule"
			],
			"objclass": "LevelEscalationModuleProperties",
			"objdata": {
				"FlagCount": 3,
				"PlantfoodToSpawnCount": 3,
				"PointIncrementPerWave": 10,
				"StartingPoints": 100,
				"WaveManagerProps": "RTID(WaveManagerProps@CurrentLevel)",
				"WavesPerFlag": 4,
				"ZombiePool": [
					"RTID(future_jetpack@ZombieTypes)",
					"RTID(lostcity_crystalskull@ZombieTypes)",
					"RTID(football_mech@ZombieTypes)",
					"RTID(dark_armor2@ZombieTypes)",
					"RTID(dark_armor1@ZombieTypes)",
					"RTID(dark@ZombieTypes)",
					"RTID(dark_armor3@ZombieTypes)",
					"RTID(barrelroller@ZombieTypes)",
					"RTID(dark_king@ZombieTypes)"
				]
			}
		},
		{
			"aliases": [
				"WaveManagerProps"
			],
			"objclass": "WaveManagerProperties",
			"objdata": {
				"FlagWaveInterval": 4,
				"LevelJam": "jam_rap",
				"WaveCount": 12,
				"WaveSpendingPointIncrement": 200,
				"WaveSpendingPoints": 200,
				"Waves": [
					[
						"RTID(Wave1@CurrentLevel)"
					],
					[
						"RTID(Wave2@CurrentLevel)"
					],
					[
						"RTID(Wave3@CurrentLevel)"
					],
					[
						"RTID(Wave4@CurrentLevel)"
					],
					[
						"RTID(Wave5@CurrentLevel)",
						"RTID(Wave5ModConveyor0@CurrentLevel)"
					],
					[
						"RTID(Wave6@CurrentLevel)"
					],
					[
						"RTID(Wave7@CurrentLevel)"
					],
					[
						"RTID(Wave8@CurrentLevel)"
					],
					[
						"RTID(Wave9@CurrentLevel)"
					],
					[
						"RTID(Wave10@CurrentLevel)"
					],
					[
						"RTID(Wave11@CurrentLevel)"
					],
					[
						"RTID(Wave12@CurrentLevel)"
					]
				]
			}
		},
		{
			"aliases": [
				"Wave1"
			],
			"objclass": "SpawnZombiesJitteredWaveActionProps",
			"objdata": {
				"AdditionalPlantfood": 0,
				"Zombies": [
					{
						"Type": "RTID(football_mech@ZombieTypes)"
					}
				]
			}
		},
		{
			"aliases": [
				"Wave2"
			],
			"objclass": "SpawnZombiesJitteredWaveActionProps",
			"objdata": {
				"AdditionalPlantfood": 0,
				"Zombies": [
					{
						"Type": "RTID(dark@ZombieTypes)"
					},
					{
						"Type": "RTID(dark_armor1@ZombieTypes)"
					},
					{
						"Row": "3",
						"Type": "RTID(dark_king@ZombieTypes)"
					}
				]
			}
		},
		{
			"aliases": [
				"Wave3"
			],
			"objclass": "SpawnZombiesJitteredWaveActionProps",
			"objdata": {
				"AdditionalPlantfood": 1,
				"Zombies": [
					{
						"Type": "RTID(dark_armor2@ZombieTypes)"
					},
					{
						"Type": "RTID(dark_armor3@ZombieTypes)"
					}
				]
			}
		},
		{
			"aliases": [
				"Wave4"
			],
			"objclass": "SpawnZombiesJitteredWaveActionProps",
			"objdata": {
				"Zombies": [
					{
						"Type": "RTID(dark@ZombieTypes)"
					},
					{
						"Type": "RTID(dark@ZombieTypes)"
					},
					{
						"Type": "RTID(dark@ZombieTypes)"
					},
					{
						"Type": "RTID(dark@ZombieTypes)"
					},
					{
						"Type": "RTID(dark@ZombieTypes)"
					},
					{
						"Type": "RTID(dark@ZombieTypes)"
					},
					{
						"Row": "4",
						"Type": "RTID(football_mech@ZombieTypes)"
					},
					{
						"Row": "2",
						"Type": "RTID(football_mech@ZombieTypes)"
					},
					{
						"Row": "5",
						"Type": "RTID(dark_king@ZombieTypes)"
					},
					{
						"Row": "3",
						"Type": "RTID(dark_king@ZombieTypes)"
					},
					{
						"Row": "1",
						"Type": "RTID(dark_king@ZombieTypes)"
					}
				]
			}
		},
		{
			"aliases": [
				"Wave5"
			],
			"objclass": "SpawnZombiesJitteredWaveActionProps",
			"objdata": {
				"AdditionalPlantfood": 0,
				"Zombies": [
					{
						"Type": "RTID(dark@ZombieTypes)"
					},
					{
						"Type": "RTID(dark@ZombieTypes)"
					},
					{
						"Type": "RTID(dark@ZombieTypes)"
					},
					{
						"Row": "3",
						"Type": "RTID(future_jetpack@ZombieTypes)"
					},
					{
						"Row": "4",
						"Type": "RTID(barrelroller@ZombieTypes)"
					},
					{
						"Row": "2",
						"Type": "RTID(barrelroller@ZombieTypes)"
					}
				]
			}
		},
		{
			"aliases": [
				"Wave6"
			],
			"objclass": "SpawnZombiesJitteredWaveActionProps",
			"objdata": {
				"AdditionalPlantfood": 0,
				"Zombies": [
					{
						"Type": "RTID(dark@ZombieTypes)"
					},
					{
						"Type": "RTID(dark@ZombieTypes)"
					},
					{
						"Type": "RTID(dark@ZombieTypes)"
					},
					{
						"Type": "RTID(dark@ZombieTypes)"
					},
					{
						"Type": "RTID(dark@ZombieTypes)"
					},
					{
						"Row": "4",
						"Type": "RTID(future_jetpack@ZombieTypes)"
					},
					{
						"Row": "2",
						"Type": "RTID(future_jetpack@ZombieTypes)"
					},
					{
						"Row": "1",
						"Type": "RTID(barrelroller@ZombieTypes)"
					},
					{
						"Row": "5",
						"Type": "RTID(barrelroller@ZombieTypes)"
					},
					{
						"Row": "3",
						"Type": "RTID(lostcity_crystalskull@ZombieTypes)"
					},
					{
						"Row": "5",
						"Type": "RTID(dark_king@ZombieTypes)"
					}
				]
			}
		},
		{
			"aliases": [
				"Wave7"
			],
			"objclass": "SpawnZombiesJitteredWaveActionProps",
			"objdata": {
				"AdditionalPlantfood": 1,
				"Zombies": [
					{
						"Type": "RTID(dark@ZombieTypes)"
					},
					{
						"Type": "RTID(dark@ZombieTypes)"
					},
					{
						"Type": "RTID(dark@ZombieTypes)"
					},
					{
						"Row": "2",
						"Type": "RTID(football_mech@ZombieTypes)"
					},
					{
						"Type": "RTID(dark@ZombieTypes)"
					},
					{
						"Row": "5",
						"Type": "RTID(football_mech@ZombieTypes)"
					},
					{
						"Row": "3",
						"Type": "RTID(barrelroller@ZombieTypes)"
					},
					{
						"Row": "2",
						"Type": "RTID(lostcity_crystalskull@ZombieTypes)"
					},
					{
						"Row": "4",
						"Type": "RTID(lostcity_crystalskull@ZombieTypes)"
					},
					{
						"Row": "1",
						"Type": "RTID(dark_king@ZombieTypes)"
					}
				]
			}
		},
		{
			"aliases": [
				"Wave8"
			],
			"objclass": "SpawnZombiesJitteredWaveActionProps",
			"objdata": {
				"AdditionalPlantfood": 0,
				"Zombies": [
					{
						"Type": "RTID(dark@ZombieTypes)"
					},
					{
						"Type": "RTID(dark@ZombieTypes)"
					},
					{
						"Type": "RTID(dark@ZombieTypes)"
					},
					{
						"Type": "RTID(dark@ZombieTypes)"
					},
					{
						"Type": "RTID(dark@ZombieTypes)"
					},
					{
						"Type": "RTID(dark@ZombieTypes)"
					},
					{
						"Row": "1",
						"Type": "RTID(football_mech@ZombieTypes)"
					},
					{
						"Row": "5",
						"Type": "RTID(football_mech@ZombieTypes)"
					},
					{
						"Row": "4",
						"Type": "RTID(dark_king@ZombieTypes)"
					},
					{
						"Row": "3",
						"Type": "RTID(dark_king@ZombieTypes)"
					},
					{
						"Row": "2",
						"Type": "RTID(dark_king@ZombieTypes)"
					},
					{
						"Row": "5",
						"Type": "RTID(future_jetpack@ZombieTypes)"
					},
					{
						"Row": "4",
						"Type": "RTID(future_jetpack@ZombieTypes)"
					},
					{
						"Row": "3",
						"Type": "RTID(future_jetpack@ZombieTypes)"
					},
					{
						"Row": "2",
						"Type": "RTID(future_jetpack@ZombieTypes)"
					},
					{
						"Row": "1",
						"Type": "RTID(future_jetpack@ZombieTypes)"
					},
					{
						"Row": "3",
						"Type": "RTID(lostcity_crystalskull@ZombieTypes)"
					}
				]
			}
		},
		{
			"aliases": [
				"Wave9"
			],
			"objclass": "SpawnZombiesJitteredWaveActionProps",
			"objdata": {
				"AdditionalPlantfood": 0,
				"Zombies": [
					{
						"Type": "RTID(dark@ZombieTypes)"
					},
					{
						"Type": "RTID(dark@ZombieTypes)"
					},
					{
						"Type": "RTID(dark@ZombieTypes)"
					},
					{
						"Type": "RTID(dark@ZombieTypes)"
					},
					{
						"Type": "RTID(dark_armor3@ZombieTypes)"
					},
					{
						"Type": "RTID(dark_armor3@ZombieTypes)"
					},
					{
						"Row": "4",
						"Type": "RTID(future_jetpack@ZombieTypes)"
					},
					{
						"Row": "2",
						"Type": "RTID(future_jetpack@ZombieTypes)"
					},
					{
						"Row": "5",
						"Type": "RTID(barrelroller@ZombieTypes)"
					},
					{
						"Row": "3",
						"Type": "RTID(barrelroller@ZombieTypes)"
					},
					{
						"Row": "1",
						"Type": "RTID(barrelroller@ZombieTypes)"
					}
				]
			}
		},
		{
			"aliases": [
				"Wave10"
			],
			"objclass": "SpawnZombiesJitteredWaveActionProps",
			"objdata": {
				"AdditionalPlantfood": 1,
				"Zombies": [
					{
						"Type": "RTID(dark@ZombieTypes)"
					},
					{
						"Type": "RTID(dark@ZombieTypes)"
					},
					{
						"Type": "RTID(dark@ZombieTypes)"
					},
					{
						"Row": "5",
						"Type": "RTID(future_jetpack@ZombieTypes)"
					},
					{
						"Row": "3",
						"Type": "RTID(future_jetpack@ZombieTypes)"
					},
					{
						"Row": "1",
						"Type": "RTID(future_jetpack@ZombieTypes)"
					},
					{
						"Row": "4",
						"Type": "RTID(football_mech@ZombieTypes)"
					},
					{
						"Row": "2",
						"Type": "RTID(football_mech@ZombieTypes)"
					}
				]
			}
		},
		{
			"aliases": [
				"Wave11"
			],
			"objclass": "SpawnZombiesJitteredWaveActionProps",
			"objdata": {
				"AdditionalPlantfood": 0,
				"Zombies": [
					{
						"Type": "RTID(dark@ZombieTypes)"
					},
					{
						"Type": "RTID(dark@ZombieTypes)"
					},
					{
						"Type": "RTID(dark@ZombieTypes)"
					},
					{
						"Type": "RTID(dark@ZombieTypes)"
					},
					{
						"Type": "RTID(dark@ZombieTypes)"
					},
					{
						"Row": "3",
						"Type": "RTID(football_mech@ZombieTypes)"
					},
					{
						"Row": "5",
						"Type": "RTID(future_jetpack@ZombieTypes)"
					},
					{
						"Row": "4",
						"Type": "RTID(future_jetpack@ZombieTypes)"
					},
					{
						"Row": "3",
						"Type": "RTID(future_jetpack@ZombieTypes)"
					},
					{
						"Row": "2",
						"Type": "RTID(future_jetpack@ZombieTypes)"
					},
					{
						"Row": "1",
						"Type": "RTID(future_jetpack@ZombieTypes)"
					},
					{
						"Row": "5",
						"Type": "RTID(barrelroller@ZombieTypes)"
					},
					{
						"Row": "4",
						"Type": "RTID(barrelroller@ZombieTypes)"
					},
					{
						"Row": "3",
						"Type": "RTID(barrelroller@ZombieTypes)"
					},
					{
						"Row": "2",
						"Type": "RTID(barrelroller@ZombieTypes)"
					},
					{
						"Row": "1",
						"Type": "RTID(barrelroller@ZombieTypes)"
					},
					{
						"Row": "4",
						"Type": "RTID(lostcity_crystalskull@ZombieTypes)"
					},
					{
						"Row": "2",
						"Type": "RTID(lostcity_crystalskull@ZombieTypes)"
					}
				]
			}
		},
		{
			"aliases": [
				"Wave12"
			],
			"objclass": "SpawnZombiesJitteredWaveActionProps",
			"objdata": {
				"AdditionalPlantfood": 0,
				"Zombies": [
					{
						"Type": "RTID(dark@ZombieTypes)"
					},
					{
						"Type": "RTID(dark@ZombieTypes)"
					},
					{
						"Type": "RTID(dark@ZombieTypes)"
					},
					{
						"Type": "RTID(dark@ZombieTypes)"
					},
					{
						"Type": "RTID(dark@ZombieTypes)"
					},
					{
						"Type": "RTID(dark@ZombieTypes)"
					},
					{
						"Type": "RTID(dark@ZombieTypes)"
					},
					{
						"Type": "RTID(dark@ZombieTypes)"
					},
					{
						"Type": "RTID(dark@ZombieTypes)"
					},
					{
						"Row": "5",
						"Type": "RTID(football_mech@ZombieTypes)"
					},
					{
						"Row": "4",
						"Type": "RTID(football_mech@ZombieTypes)"
					},
					{
						"Row": "3",
						"Type": "RTID(football_mech@ZombieTypes)"
					},
					{
						"Row": "2",
						"Type": "RTID(football_mech@ZombieTypes)"
					},
					{
						"Row": "1",
						"Type": "RTID(football_mech@ZombieTypes)"
					},
					{
						"Row": "4",
						"Type": "RTID(lostcity_crystalskull@ZombieTypes)"
					},
					{
						"Row": "2",
						"Type": "RTID(lostcity_crystalskull@ZombieTypes)"
					},
					{
						"Row": "5",
						"Type": "RTID(dark_king@ZombieTypes)"
					},
					{
						"Row": "4",
						"Type": "RTID(dark_king@ZombieTypes)"
					},
					{
						"Row": "3",
						"Type": "RTID(dark_king@ZombieTypes)"
					},
					{
						"Row": "2",
						"Type": "RTID(dark_king@ZombieTypes)"
					},
					{
						"Row": "1",
						"Type": "RTID(dark_king@ZombieTypes)"
					}
				]
			}
		},
		{
			"aliases": [
				"Gravestones"
			],
			"objclass": "GravestoneProperties",
			"objdata": {}
		},
		{
			"aliases": [
				"NewWaves"
			],
			"objclass": "WaveManagerModuleProperties",
			"objdata": {
				"DynamicZombies": [
					{},
					{},
					{},
					{},
					{},
					{},
					{}
				]
			}
		},
		{
			"aliases": [
				"ConveyorBelt"
			],
			"objclass": "ConveyorSeedBankProperties",
			"objdata": {
				"DropDelayConditions": [
					{
						"Delay": 3,
						"MaxPackets": 0
					},
					{
						"Delay": 6,
						"MaxPackets": 2
					},
					{
						"Delay": 9,
						"MaxPackets": 4
					},
					{
						"Delay": 12,
						"MaxPackets": 8
					}
				],
				"InitialPlantList": [
					{
						"MaxCount": 10,
						"MaxWeightFactor": 0,
						"PlantType": "spikeweed",
						"Weight": 50
					},
					{
						"MaxCount": 7,
						"MaxWeightFactor": 0,
						"MinCount": 2,
						"MinWeightFactor": 6,
						"PlantType": "witchhazel",
						"Weight": 50
					}
				],
				"SpeedConditions": [
					{
						"MaxPackets": 0,
						"Speed": 100
					}
				]
			}
		},
		{
			"aliases": [
				"Wave5ModConveyor0"
			],
			"objclass": "ModifyConveyorWaveActionProps",
			"objdata": {
				"Add": [
					{
						"MaxDelivered": 3,
						"Type": "RTID(thymewarp@PlantTypes)",
						"Weight": 5
					},
					{
						"Type": "RTID(iceburg@PlantTypes)",
						"Weight": 15
					}
				],
				"Remove": []
			}
		}
	],
	"version": 1
}