{
	"#comment": "Level Of The Day Birthday",
	"objects": [
		{
			"objclass": "LevelDefinition",
			"objdata": {
				"Description": "[PREMIUM_PLANT_QUEST_LOD_DESC]",
				"DraperPromo": "chomper",
				"ForceToWorldMap": true,
				"Loot": "RTID(DefaultLoot@LevelModules)",
				"Modules": [
					"RTID(StandardIntro@LevelModules)",
					"RTID(LevelEscalationModule@CurrentLevel)",
					"RTID(FrontLawnMowers@LevelModules)",
					"RTID(NewWaves@CurrentLevel)",
					"RTID(DefaultZombieWinCondition@LevelModules)",
					"RTID(ConveyorBelt@CurrentLevel)",
					"RTID(Gravestones@CurrentLevel)",
					"RTID(ZombiesDeadWinCon@LevelModules)"
				],
				"Name": "[PREMIUM_PLANT_QUEST_LOD_NAME]",
				"NormalPresentTable": "egypt_normal_01",
				"RepeatPlayForceToWorldMap": true,
				"ShinyPresentTable": "egypt_shiny_01",
				"StageModule": "RTID(FrontLawnStage@LevelModules)"
			}
		},
		{
			"aliases": [
				"Gravestones"
			],
			"objclass": "GravestoneProperties",
			"objdata": {}
		},
		{
			"aliases": [
				"WaveManagerProps"
			],
			"objclass": "WaveManagerProperties",
			"objdata": {
				"FlagWaveInterval": 5,
				"MaxNextWaveHealthPercentage": 0.9,
				"MinNextWaveHealthPercentage": 0.8,
				"WaveCount": 10,
				"WaveSpendingPointIncrement": 100,
				"WaveSpendingPoints": 0,
				"Waves": [
					[
						"RTID(Wave1@CurrentLevel)",
						"RTID(Wave1ModConveyor0@CurrentLevel)"
					],
					[
						"RTID(Wave2@CurrentLevel)"
					],
					[
						"RTID(Wave3@CurrentLevel)"
					],
					[
						"RTID(Wave4@CurrentLevel)"
					],
					[
						"RTID(Wave5@CurrentLevel)",
						"RTID(Wave5ModConveyor0@CurrentLevel)"
					],
					[
						"RTID(Wave6@CurrentLevel)",
						"RTID(Wave6SpiderRainEvent0@CurrentLevel)"
					],
					[
						"RTID(Wave7@CurrentLevel)"
					],
					[
						"RTID(Wave8@CurrentLevel)",
						"RTID(Wave8SpiderRainEvent0@CurrentLevel)"
					],
					[
						"RTID(Wave9@CurrentLevel)"
					],
					[
						"RTID(Wave10@CurrentLevel)"
					]
				]
			}
		},
		{
			"aliases": [
				"Wave1"
			],
			"objclass": "SpawnZombiesJitteredWaveActionProps",
			"objdata": {
				"AdditionalPlantfood": 0,
				"Zombies": [
					{
						"Type": "RTID(dino_imp@ZombieTypes)"
					},
					{
						"Type": "RTID(dino_imp@ZombieTypes)"
					},
					{
						"Type": "RTID(dino_imp@ZombieTypes)"
					}
				]
			}
		},
		{
			"aliases": [
				"Wave2"
			],
			"objclass": "SpawnZombiesJitteredWaveActionProps",
			"objdata": {
				"AdditionalPlantfood": 1,
				"Zombies": [
					{
						"Type": "RTID(eighties_imp@ZombieTypes)"
					},
					{
						"Type": "RTID(eighties_imp@ZombieTypes)"
					},
					{
						"Type": "RTID(eighties_imp@ZombieTypes)"
					},
					{
						"Type": "RTID(eighties_imp@ZombieTypes)"
					},
					{
						"Type": "RTID(tutorial_armor1@ZombieTypes)"
					}
				]
			}
		},
		{
			"aliases": [
				"Wave3"
			],
			"objclass": "SpawnZombiesJitteredWaveActionProps",
			"objdata": {
				"AdditionalPlantfood": 0,
				"Zombies": [
					{
						"Type": "RTID(dark_imp_dragon@ZombieTypes)"
					},
					{
						"Type": "RTID(dark_imp_dragon@ZombieTypes)"
					},
					{
						"Row": "5",
						"Type": "RTID(future_imp@ZombieTypes)"
					},
					{
						"Row": "4",
						"Type": "RTID(dark_imp@ZombieTypes)"
					},
					{
						"Row": "4",
						"Type": "RTID(dark_imp@ZombieTypes)"
					},
					{
						"Row": "3",
						"Type": "RTID(future_imp@ZombieTypes)"
					},
					{
						"Row": "2",
						"Type": "RTID(dark_imp@ZombieTypes)"
					},
					{
						"Row": "1",
						"Type": "RTID(future_imp@ZombieTypes)"
					}
				]
			}
		},
		{
			"aliases": [
				"Wave4"
			],
			"objclass": "SpawnZombiesJitteredWaveActionProps",
			"objdata": {
				"AdditionalPlantfood": 1,
				"Zombies": [
					{
						"Row": "3",
						"Type": "RTID(tutorial_armor1@ZombieTypes)"
					},
					{
						"Row": "3",
						"Type": "RTID(lostcity_imp@ZombieTypes)"
					},
					{
						"Row": "3",
						"Type": "RTID(lostcity_imp@ZombieTypes)"
					},
					{
						"Row": "3",
						"Type": "RTID(lostcity_imp@ZombieTypes)"
					}
				]
			}
		},
		{
			"aliases": [
				"Wave5"
			],
			"objclass": "SpawnZombiesJitteredWaveActionProps",
			"objdata": {
				"AdditionalPlantfood": 0,
				"Zombies": [
					{
						"Type": "RTID(barrelroller@ZombieTypes)"
					},
					{
						"Row": "5",
						"Type": "RTID(barrelroller@ZombieTypes)"
					},
					{
						"Row": "5",
						"Type": "RTID(barrelroller@ZombieTypes)"
					}
				]
			}
		},
		{
			"aliases": [
				"Wave6"
			],
			"objclass": "SpawnZombiesJitteredWaveActionProps",
			"objdata": {
				"AdditionalPlantfood": 0,
				"Zombies": [
					{
						"Type": "RTID(iceage_imp@ZombieTypes)"
					},
					{
						"Type": "RTID(iceage_imp@ZombieTypes)"
					},
					{
						"Type": "RTID(iceage_imp@ZombieTypes)"
					}
				]
			}
		},
		{
			"aliases": [
				"Wave7"
			],
			"objclass": "SpawnZombiesJitteredWaveActionProps",
			"objdata": {
				"AdditionalPlantfood": 1,
				"Zombies": [
					{
						"Row": "2",
						"Type": "RTID(beach_imp@ZombieTypes)"
					},
					{
						"Row": "2",
						"Type": "RTID(beach_imp@ZombieTypes)"
					},
					{
						"Row": "2",
						"Type": "RTID(beach_imp@ZombieTypes)"
					},
					{
						"Row": "3",
						"Type": "RTID(beach_imp@ZombieTypes)"
					},
					{
						"Type": "RTID(barrelroller@ZombieTypes)"
					},
					{
						"Type": "RTID(tutorial_armor1@ZombieTypes)"
					}
				]
			}
		},
		{
			"aliases": [
				"LevelEscalationModule"
			],
			"objclass": "LevelEscalationModuleProperties",
			"objdata": {
				"FlagCount": 2,
				"PlantfoodToSpawnCount": 0,
				"PointIncrementPerWave": 100,
				"StartingPoints": 100,
				"WaveManagerProps": "RTID(WaveManagerProps@CurrentLevel)",
				"WavesPerFlag": 5,
				"ZombiePool": [
					"RTID(tutorial_armor1@ZombieTypes)"
				]
			}
		},
		{
			"aliases": [
				"NewWaves"
			],
			"objclass": "WaveManagerModuleProperties",
			"objdata": {}
		},
		{
			"aliases": [
				"ConveyorBelt"
			],
			"objclass": "ConveyorSeedBankProperties",
			"objdata": {
				"DropDelayConditions": [
					{
						"Delay": 4,
						"MaxPackets": 0
					},
					{
						"Delay": 6,
						"MaxPackets": 2
					},
					{
						"Delay": 9,
						"MaxPackets": 4
					},
					{
						"Delay": 12,
						"MaxPackets": 8
					}
				],
				"InitialPlantList": [
					{
						"MaxCount": 1,
						"MaxCountCooldownSeconds": 25,
						"PlantType": "icebloom",
						"Weight": 25
					}
				],
				"SpeedConditions": [
					{
						"MaxPackets": 0,
						"Speed": 100
					}
				]
			}
		},
		{
			"aliases": [
				"Wave8"
			],
			"objclass": "SpawnZombiesJitteredWaveActionProps",
			"objdata": {
				"AdditionalPlantfood": 0,
				"Zombies": [
					{
						"Type": "RTID(dark_imp_dragon@ZombieTypes)"
					},
					{
						"Type": "RTID(dark_imp_dragon@ZombieTypes)"
					},
					{
						"Row": "4",
						"Type": "RTID(tutorial_armor1@ZombieTypes)"
					},
					{
						"Row": "2",
						"Type": "RTID(tutorial_armor1@ZombieTypes)"
					}
				]
			}
		},
		{
			"aliases": [
				"Wave9"
			],
			"objclass": "SpawnZombiesJitteredWaveActionProps",
			"objdata": {
				"AdditionalPlantfood": 0,
				"Zombies": [
					{
						"Row": "5",
						"Type": "RTID(west_bull@ZombieTypes)"
					},
					{
						"Row": "5",
						"Type": "RTID(modern_superfanimp@ZombieTypes)"
					},
					{
						"Row": "4",
						"Type": "RTID(modern_superfanimp@ZombieTypes)"
					},
					{
						"Row": "3",
						"Type": "RTID(west_bull@ZombieTypes)"
					},
					{
						"Row": "3",
						"Type": "RTID(modern_superfanimp@ZombieTypes)"
					},
					{
						"Row": "2",
						"Type": "RTID(modern_superfanimp@ZombieTypes)"
					},
					{
						"Row": "1",
						"Type": "RTID(west_bull@ZombieTypes)"
					},
					{
						"Row": "1",
						"Type": "RTID(modern_superfanimp@ZombieTypes)"
					}
				]
			}
		},
		{
			"aliases": [
				"Wave10"
			],
			"objclass": "SpawnZombiesJitteredWaveActionProps",
			"objdata": {
				"AdditionalPlantfood": 0,
				"Zombies": [
					{
						"Row": "5",
						"Type": "RTID(beach_gargantuar@ZombieTypes)"
					},
					{
						"Row": "1",
						"Type": "RTID(beach_gargantuar@ZombieTypes)"
					}
				]
			}
		},
		{
			"aliases": [
				"Wave6SpiderRainEvent0"
			],
			"objclass": "SpiderRainZombieSpawnerProps",
			"objdata": {
				"ColumnEnd": 7,
				"ColumnStart": 3,
				"GroupSize": "2",
				"SpiderCount": 4,
				"SpiderZombieName": "future_imp",
				"TimeBeforeFullSpawn": "1",
				"TimeBetweenGroups": "0.2",
				"WaveStartMessage": "[WARNING_SPIDERRAIN]",
				"ZombieFallTime": "1.5"
			}
		},
		{
			"aliases": [
				"Wave8SpiderRainEvent0"
			],
			"objclass": "SpiderRainZombieSpawnerProps",
			"objdata": {
				"ColumnEnd": 7,
				"ColumnStart": 3,
				"GroupSize": "2",
				"SpiderCount": 6,
				"SpiderZombieName": "future_imp",
				"TimeBeforeFullSpawn": "1",
				"TimeBetweenGroups": "0.2",
				"WaveStartMessage": "[WARNING_SPIDERRAIN]",
				"ZombieFallTime": "1.5"
			}
		},
		{
			"aliases": [
				"Wave1ModConveyor0"
			],
			"objclass": "ModifyConveyorWaveActionProps",
			"objdata": {
				"Add": [
					{
						"Type": "RTID(peapod@PlantTypes)",
						"Weight": 15
					}
				],
				"Remove": []
			}
		},
		{
			"aliases": [
				"Wave5ModConveyor0"
			],
			"objclass": "ModifyConveyorWaveActionProps",
			"objdata": {
				"Add": [
					{
						"MaxCount": 5,
						"MaxWeightFactor": 0.1,
						"Type": "RTID(akee@PlantTypes)",
						"Weight": 10
					}
				],
				"Remove": []
			}
		}
	],
	"version": 1
}