{
	"#comment": "Level Of The Day Test 1",
	"objects": [
		{
			"objclass": "LevelDefinition",
			"objdata": {
				"Description": "[PREMIUM_PLANT_QUEST_LOD_DESC]",
				"Loot": "RTID(DefaultLoot@LevelModules)",
				"Modules": [
					"RTID(StandardIntro@LevelModules)",
					"RTID(LevelEscalationModule@CurrentLevel)",
					"RTID(FrontLawnMowers@LevelModules)",
					"RTID(NewWaves@CurrentLevel)",
					"RTID(DefaultZombieWinCondition@LevelModules)",
					"RTID(Gravestones@CurrentLevel)",
					"RTID(ConveyorBelt@CurrentLevel)",
					"RTID(ChallengeModule@CurrentLevel)",
					"RTID(ZombiesDeadWinCon@LevelModules)"
				],
				"Name": "[PREMIUM_PLANT_QUEST_LOD_NAME]",
				"NormalPresentTable": "egypt_normal_01",
				"ShinyPresentTable": "egypt_shiny_01",
				"StageModule": "RTID(DarkStage@LevelModules)"
			}
		},
		{
			"aliases": [
				"ChallengeModule"
			],
			"objclass": "StarChallengeModuleProperties",
			"objdata": {
				"Challenges": [
					[
						"RTID(DoNotPlantBeforeLine@CurrentLevel)",
						"RTID(ZombieDistance@CurrentLevel)"
					]
				],
				"ChallengesAlwaysAvailable": true
			}
		},
		{
			"aliases": [
				"DoNotPlantBeforeLine"
			],
			"objclass": "MoldColonyChallengeProps",
			"objdata": {
				"Locations": "RTID(Column0_To_Column2@BoardGridMaps)"
			}
		},
		{
			"aliases": [
				"ZombieDistance"
			],
			"objclass": "StarChallengeZombieDistanceProps",
			"objdata": {
				"TargetDistance": 6
			}
		},
		{
			"aliases": [
				"WaveManagerProps"
			],
			"objclass": "WaveManagerProperties",
			"objdata": {
				"FlagWaveInterval": 3,
				"MaxNextWaveHealthPercentage": 0.9,
				"MinNextWaveHealthPercentage": 0.8,
				"WaveCount": 12,
				"WaveSpendingPointIncrement": 200,
				"WaveSpendingPoints": 150,
				"Waves": [
					[
						"RTID(Wave1@CurrentLevel)"
					],
					[
						"RTID(Wave2@CurrentLevel)"
					],
					[
						"RTID(Wave3@CurrentLevel)"
					],
					[
						"RTID(Wave4@CurrentLevel)"
					],
					[
						"RTID(Wave5@CurrentLevel)"
					],
					[
						"RTID(Wave6@CurrentLevel)"
					],
					[
						"RTID(Wave7@CurrentLevel)"
					],
					[
						"RTID(Wave8@CurrentLevel)"
					],
					[
						"RTID(Wave9@CurrentLevel)"
					],
					[
						"RTID(Wave10@CurrentLevel)"
					],
					[
						"RTID(Wave11@CurrentLevel)"
					],
					[
						"RTID(Wave12@CurrentLevel)"
					]
				]
			}
		},
		{
			"aliases": [
				"Wave1"
			],
			"objclass": "SpawnZombiesJitteredWaveActionProps",
			"objdata": {
				"AdditionalPlantfood": 1,
				"Zombies": [
					{
						"Row": "3",
						"Type": "RTID(dark@ZombieTypes)"
					}
				]
			}
		},
		{
			"aliases": [
				"Wave2"
			],
			"objclass": "SpawnZombiesJitteredWaveActionProps",
			"objdata": {
				"AdditionalPlantfood": 0,
				"Zombies": [
					{
						"Type": "RTID(seagull@ZombieTypes)"
					},
					{
						"Type": "RTID(dark@ZombieTypes)"
					}
				]
			}
		},
		{
			"aliases": [
				"Wave3"
			],
			"objclass": "SpawnZombiesJitteredWaveActionProps",
			"objdata": {
				"AdditionalPlantfood": 1,
				"Zombies": [
					{
						"Type": "RTID(seagull@ZombieTypes)"
					},
					{
						"Type": "RTID(dark@ZombieTypes)"
					},
					{
						"Type": "RTID(seagull@ZombieTypes)"
					},
					{
						"Type": "RTID(dark@ZombieTypes)"
					}
				]
			}
		},
		{
			"aliases": [
				"Wave4"
			],
			"objclass": "SpawnZombiesJitteredWaveActionProps",
			"objdata": {
				"AdditionalPlantfood": 0,
				"Zombies": [
					{
						"Type": "RTID(dark@ZombieTypes)"
					},
					{
						"Type": "RTID(seagull@ZombieTypes)"
					}
				]
			}
		},
		{
			"aliases": [
				"Wave5"
			],
			"objclass": "SpawnZombiesJitteredWaveActionProps",
			"objdata": {
				"Zombies": [
					{
						"Type": "RTID(seagull@ZombieTypes)"
					},
					{
						"Type": "RTID(seagull@ZombieTypes)"
					},
					{
						"Type": "RTID(dark@ZombieTypes)"
					}
				]
			}
		},
		{
			"aliases": [
				"Wave6"
			],
			"objclass": "SpawnZombiesJitteredWaveActionProps",
			"objdata": {
				"AdditionalPlantfood": 1,
				"Zombies": [
					{
						"Type": "RTID(dark_wizard@ZombieTypes)"
					},
					{
						"Type": "RTID(seagull@ZombieTypes)"
					},
					{
						"Type": "RTID(seagull@ZombieTypes)"
					},
					{
						"Type": "RTID(seagull@ZombieTypes)"
					},
					{
						"Type": "RTID(seagull@ZombieTypes)"
					},
					{
						"Type": "RTID(dark@ZombieTypes)"
					}
				]
			}
		},
		{
			"aliases": [
				"Wave7"
			],
			"objclass": "SpawnZombiesJitteredWaveActionProps",
			"objdata": {
				"Zombies": [
					{
						"Type": "RTID(dark@ZombieTypes)"
					},
					{
						"Type": "RTID(seagull@ZombieTypes)"
					},
					{
						"Type": "RTID(seagull@ZombieTypes)"
					},
					{
						"Type": "RTID(seagull@ZombieTypes)"
					}
				]
			}
		},
		{
			"aliases": [
				"Wave8"
			],
			"objclass": "SpawnZombiesJitteredWaveActionProps",
			"objdata": {
				"AdditionalPlantfood": 0,
				"Zombies": [
					{
						"Type": "RTID(seagull@ZombieTypes)"
					},
					{
						"Type": "RTID(dark@ZombieTypes)"
					},
					{
						"Type": "RTID(seagull@ZombieTypes)"
					},
					{
						"Type": "RTID(seagull@ZombieTypes)"
					},
					{
						"Type": "RTID(seagull@ZombieTypes)"
					}
				]
			}
		},
		{
			"aliases": [
				"Wave9"
			],
			"objclass": "SpawnZombiesJitteredWaveActionProps",
			"objdata": {
				"AdditionalPlantfood": 1,
				"Zombies": [
					{
						"Type": "RTID(seagull@ZombieTypes)"
					},
					{
						"Type": "RTID(seagull@ZombieTypes)"
					},
					{
						"Type": "RTID(dark@ZombieTypes)"
					},
					{
						"Type": "RTID(dark@ZombieTypes)"
					},
					{
						"Type": "RTID(dark_wizard@ZombieTypes)"
					},
					{
						"Type": "RTID(treasureyeti@ZombieTypes)"
					},
					{
						"Type": "RTID(chicken_farmer@ZombieTypes)"
					},
					{
						"Type": "RTID(chicken_farmer@ZombieTypes)"
					}
				]
			}
		},
		{
			"aliases": [
				"LevelEscalationModule"
			],
			"objclass": "LevelEscalationModuleProperties",
			"objdata": {
				"FlagCount": 3,
				"PlantfoodToSpawnCount": 5,
				"PointIncrementPerWave": 200,
				"StartingPoints": 150,
				"WaveManagerProps": "RTID(WaveManagerProps@CurrentLevel)",
				"WavesPerFlag": 3,
				"ZombiePool": []
			}
		},
		{
			"aliases": [
				"Gravestones"
			],
			"objclass": "GravestoneProperties",
			"objdata": {
				"ForceSpawnData": [
					{
						"GridX": 7,
						"GridY": 2
					}
				]
			}
		},
		{
			"aliases": [
				"NewWaves"
			],
			"objclass": "WaveManagerModuleProperties",
			"objdata": {}
		},
		{
			"aliases": [
				"ConveyorBelt"
			],
			"objclass": "ConveyorSeedBankProperties",
			"objdata": {
				"DropDelayConditions": [
					{
						"Delay": 5.5,
						"MaxPackets": 0
					},
					{
						"Delay": 8,
						"MaxPackets": 2
					},
					{
						"Delay": 10,
						"MaxPackets": 4
					},
					{
						"Delay": 12,
						"MaxPackets": 8
					}
				],
				"InitialPlantList": [
					{
						"PlantType": "bombegranate",
						"Weight": 15
					},
					{
						"MaxCount": 6,
						"MinCount": 2,
						"PlantType": "threepeater",
						"Weight": 60
					},
					{
						"MaxCount": 5,
						"MinCount": 4,
						"PlantType": "torchwood",
						"Weight": 5
					},
					{
						"MaxCount": 5,
						"MinCount": 2,
						"PlantType": "wallnut",
						"Weight": 25
					}
				],
				"SpeedConditions": [
					{
						"MaxPackets": 0,
						"Speed": 100
					}
				]
			}
		},
		{
			"aliases": [
				"Wave10"
			],
			"objclass": "SpawnZombiesJitteredWaveActionProps",
			"objdata": {
				"Zombies": [
					{
						"Type": "RTID(dark@ZombieTypes)"
					},
					{
						"Type": "RTID(seagull@ZombieTypes)"
					},
					{
						"Type": "RTID(dark@ZombieTypes)"
					},
					{
						"Type": "RTID(seagull@ZombieTypes)"
					},
					{
						"Type": "RTID(dark@ZombieTypes)"
					}
				]
			}
		},
		{
			"aliases": [
				"Wave11"
			],
			"objclass": "SpawnZombiesJitteredWaveActionProps",
			"objdata": {
				"Zombies": [
					{
						"Type": "RTID(dark@ZombieTypes)"
					},
					{
						"Type": "RTID(seagull@ZombieTypes)"
					},
					{
						"Type": "RTID(dark@ZombieTypes)"
					},
					{
						"Type": "RTID(seagull@ZombieTypes)"
					},
					{
						"Type": "RTID(dark@ZombieTypes)"
					},
					{
						"Type": "RTID(dark@ZombieTypes)"
					},
					{
						"Type": "RTID(dark@ZombieTypes)"
					}
				]
			}
		},
		{
			"aliases": [
				"Wave12"
			],
			"objclass": "SpawnZombiesJitteredWaveActionProps",
			"objdata": {
				"AdditionalPlantfood": 1,
				"Zombies": [
					{
						"Type": "RTID(dark@ZombieTypes)"
					},
					{
						"Type": "RTID(dark@ZombieTypes)"
					},
					{
						"Type": "RTID(seagull@ZombieTypes)"
					},
					{
						"Type": "RTID(seagull@ZombieTypes)"
					},
					{
						"Type": "RTID(chicken_farmer@ZombieTypes)"
					},
					{
						"Type": "RTID(chicken_farmer@ZombieTypes)"
					},
					{
						"Type": "RTID(chicken_farmer@ZombieTypes)"
					},
					{
						"Type": "RTID(dark_wizard@ZombieTypes)"
					}
				]
			}
		}
	],
	"version": 1
}