{
	"#comment": "Dino 30",
	"objects": [ {
			"objclass": "LevelDefinition",
			"objdata": {
				"Description": "[PLAYERS_TRIP_TO_RIFT]",
				"LevelMutator": "RTID(LevelMutator@CurrentLevel)",
				"LevelNumber": "",
				"Loot": "RTID(DefaultLoot@LevelModules)",
				"Modules": [ "RTID(DefaultSunDropper@LevelModules)", "RTID(ZombiesDeadWinCon@LevelModules)", "RTID(DinoMowers@LevelModules)", "RTID(SeedBank@CurrentLevel)", "RTID(DefaultZombieWinCondition@LevelModules)", "RTID(NewWaves@CurrentLevel)", "RTID(StandardRiftIntro@LevelModules)", "RTID(PerkActivator@CurrentLevel)", "RTID(LevelDifficultyScaling@CurrentLevel)" ],
				"Name": "[RIFT_LEVEL_NAME]",
				"NormalPresentTable": "egypt_normal_01",
				"PerksDisabledInLevel": [],
				"PerksDisabledPerDifficulty": [ [], [], [] ],
				"ShinyPresentTable": "egypt_shiny_01",
				"StageModule": "RTID(DinoStage@LevelModules)",
				"VictoryModule": "RTID(RiftOutro@LevelModules)"
			}
		}, {
			"aliases": [ "SeedBank" ],
			"objclass": "SeedBankProperties",
			"objdata": {
				"SelectionMethod": "chooser"
			}
		}, {
			"aliases": [ "WaveManagerProps" ],
			"objclass": "WaveManagerProperties",
			"objdata": {
				"FlagWaveInterval": 3,
				"WaveCount": 12,
				"WaveSpendingPointIncrement": 200,
				"WaveSpendingPoints": 100,
				"Waves": [ [ "RTID(Wave1@CurrentLevel)" ], [ "RTID(Wave2@CurrentLevel)" ], [ "RTID(Wave3@CurrentLevel)", "RTID(Wave3DinoTimeEvent0@CurrentLevel)" ], [ "RTID(Wave4@CurrentLevel)" ], [ "RTID(Wave5@CurrentLevel)" ], [ "RTID(Wave6@CurrentLevel)", "RTID(Wave6DinoTimeEvent0@CurrentLevel)" ], [ "RTID(Wave7@CurrentLevel)", "RTID(Wave7DinoTimeEvent0@CurrentLevel)" ], [ "RTID(Wave8@CurrentLevel)" ], [ "RTID(Wave9@CurrentLevel)", "RTID(Wave9DinoTimeEvent0@CurrentLevel)" ], [ "RTID(Wave10@CurrentLevel)" ], [ "RTID(Wave11@CurrentLevel)", "RTID(Wave11DinoTimeEvent0@CurrentLevel)" ], [ "RTID(Wave12@CurrentLevel)", "RTID(Wave12DinoTimeEvent0@CurrentLevel)" ] ]
			}
		}, {
			"aliases": [ "Wave1" ],
			"objclass": "SpawnZombiesJitteredWaveActionProps",
			"objdata": {
				"AdditionalPlantfood": 0,
				"Zombies": [ {
						"Row": "3",
						"Type": "RTID(dino_imp@ZombieTypes)"
					} ]
			}
		}, {
			"aliases": [ "Wave2" ],
			"objclass": "SpawnZombiesJitteredWaveActionProps",
			"objdata": {
				"AdditionalPlantfood": 1,
				"Zombies": [ {
						"Row": "3",
						"Type": "RTID(dino_armor1@ZombieTypes)"
					}, {
						"Row": "3",
						"Type": "RTID(dino@ZombieTypes)"
					}, {
						"Row": "2",
						"Type": "RTID(dino_imp@ZombieTypes)"
					}, {
						"Row": "4",
						"Type": "RTID(dino_imp@ZombieTypes)"
					} ]
			}
		}, {
			"aliases": [ "Wave3" ],
			"objclass": "SpawnZombiesJitteredWaveActionProps",
			"objdata": {
				"AdditionalPlantfood": 0,
				"Zombies": [ {
						"Row": "3",
						"Type": "RTID(dino_bully@ZombieTypes)"
					}, {
						"Row": "3",
						"Type": "RTID(dino_imp@ZombieTypes)"
					}, {
						"Row": "2",
						"Type": "RTID(dino_imp@ZombieTypes)"
					}, {
						"Row": "1",
						"Type": "RTID(dino@ZombieTypes)"
					}, {
						"Row": "5",
						"Type": "RTID(dino@ZombieTypes)"
					}, {
						"Row": "4",
						"Type": "RTID(dino_imp@ZombieTypes)"
					}, {
						"Row": "3",
						"Type": "RTID(dino_armor2@ZombieTypes)"
					}, {
						"Row": "3",
						"Type": "RTID(dino@ZombieTypes)"
					} ]
			}
		}, {
			"aliases": [ "Wave4" ],
			"objclass": "SpawnZombiesJitteredWaveActionProps",
			"objdata": {
				"Zombies": [ {
						"Row": "5",
						"Type": "RTID(dino_imp@ZombieTypes)"
					}, {
						"Row": "4",
						"Type": "RTID(dino_armor1@ZombieTypes)"
					}, {
						"Row": "3",
						"Type": "RTID(dino_armor1@ZombieTypes)"
					}, {
						"Row": "2",
						"Type": "RTID(dino_armor1@ZombieTypes)"
					}, {
						"Row": "1",
						"Type": "RTID(dino_imp@ZombieTypes)"
					} ]
			}
		}, {
			"aliases": [ "Wave5" ],
			"objclass": "SpawnZombiesJitteredWaveActionProps",
			"objdata": {
				"AdditionalPlantfood": 1,
				"Zombies": [ {
						"Row": "1",
						"Type": "RTID(dino_armor2@ZombieTypes)"
					}, {
						"Row": "5",
						"Type": "RTID(dino_armor2@ZombieTypes)"
					} ]
			}
		}, {
			"aliases": [ "Wave6" ],
			"objclass": "SpawnZombiesJitteredWaveActionProps",
			"objdata": {
				"Zombies": [ {
						"Row": "2",
						"Type": "RTID(dino_gargantuar@ZombieTypes)"
					}, {
						"Row": "2",
						"Type": "RTID(dino_imp@ZombieTypes)"
					}, {
						"Row": "2",
						"Type": "RTID(dino_imp@ZombieTypes)"
					}, {
						"Row": "2",
						"Type": "RTID(dino_imp@ZombieTypes)"
					}, {
						"Row": "3",
						"Type": "RTID(dino_bully@ZombieTypes)"
					}, {
						"Row": "4",
						"Type": "RTID(dino_bully@ZombieTypes)"
					}, {
						"Row": "4",
						"Type": "RTID(dino@ZombieTypes)"
					}, {
						"Row": "4",
						"Type": "RTID(dino@ZombieTypes)"
					} ]
			}
		}, {
			"aliases": [ "Wave7" ],
			"objclass": "SpawnZombiesJitteredWaveActionProps",
			"objdata": {
				"Zombies": [ {
						"Row": "4",
						"Type": "RTID(dino_armor3@ZombieTypes)"
					}, {
						"Row": "5",
						"Type": "RTID(dino_bully@ZombieTypes)"
					}, {
						"Row": "5",
						"Type": "RTID(dino_imp@ZombieTypes)"
					}, {
						"Row": "3",
						"Type": "RTID(dino_imp@ZombieTypes)"
					}, {
						"Row": "2",
						"Type": "RTID(dino_imp@ZombieTypes)"
					}, {
						"Row": "1",
						"Type": "RTID(dino_bully@ZombieTypes)"
					}, {
						"Row": "1",
						"Type": "RTID(dino_imp@ZombieTypes)"
					} ]
			}
		}, {
			"aliases": [ "Wave8" ],
			"objclass": "SpawnZombiesJitteredWaveActionProps",
			"objdata": {
				"AdditionalPlantfood": 1,
				"Zombies": [ {
						"Row": "3",
						"Type": "RTID(dino_armor2@ZombieTypes)"
					}, {
						"Row": "4",
						"Type": "RTID(dino_bully@ZombieTypes)"
					}, {
						"Row": "4",
						"Type": "RTID(dino_imp@ZombieTypes)"
					}, {
						"Row": "2",
						"Type": "RTID(dino_bully@ZombieTypes)"
					}, {
						"Row": "2",
						"Type": "RTID(dino_imp@ZombieTypes)"
					}, {
						"Row": "5",
						"Type": "RTID(dino@ZombieTypes)"
					}, {
						"Row": "1",
						"Type": "RTID(dino@ZombieTypes)"
					}, {
						"Row": "4",
						"Type": "RTID(dino_armor1@ZombieTypes)"
					}, {
						"Row": "3",
						"Type": "RTID(dino_armor1@ZombieTypes)"
					}, {
						"Row": "2",
						"Type": "RTID(dino_armor1@ZombieTypes)"
					} ]
			}
		}, {
			"aliases": [ "Wave9" ],
			"objclass": "SpawnZombiesJitteredWaveActionProps",
			"objdata": {
				"AdditionalPlantfood": 0,
				"Zombies": [ {
						"Row": "1",
						"Type": "RTID(dino_bully@ZombieTypes)"
					}, {
						"Row": "1",
						"Type": "RTID(dino_gargantuar@ZombieTypes)"
					}, {
						"Row": "5",
						"Type": "RTID(dino_armor1@ZombieTypes)"
					}, {
						"Row": "4",
						"Type": "RTID(dino_armor3@ZombieTypes)"
					}, {
						"Row": "4",
						"Type": "RTID(dino_bully@ZombieTypes)"
					}, {
						"Row": "3",
						"Type": "RTID(dino_armor1@ZombieTypes)"
					}, {
						"Row": "2",
						"Type": "RTID(dino_armor3@ZombieTypes)"
					}, {
						"Row": "2",
						"Type": "RTID(dino_bully@ZombieTypes)"
					} ]
			}
		}, {
			"aliases": [ "Wave10" ],
			"objclass": "SpawnZombiesJitteredWaveActionProps",
			"objdata": {
				"Zombies": [ {
						"Row": "5",
						"Type": "RTID(dino_imp@ZombieTypes)"
					}, {
						"Row": "4",
						"Type": "RTID(dino_armor1@ZombieTypes)"
					}, {
						"Row": "3",
						"Type": "RTID(dino_bully@ZombieTypes)"
					}, {
						"Row": "3",
						"Type": "RTID(dino_imp@ZombieTypes)"
					}, {
						"Row": "2",
						"Type": "RTID(dino_armor1@ZombieTypes)"
					}, {
						"Row": "1",
						"Type": "RTID(dino_imp@ZombieTypes)"
					}, {
						"Row": "4",
						"Type": "RTID(dino_armor2@ZombieTypes)"
					}, {
						"Row": "3",
						"Type": "RTID(dino_bully@ZombieTypes)"
					} ]
			}
		}, {
			"aliases": [ "Wave11" ],
			"objclass": "SpawnZombiesJitteredWaveActionProps",
			"objdata": {
				"AdditionalPlantfood": 1,
				"Zombies": [ {
						"Row": "1",
						"Type": "RTID(dino_bully@ZombieTypes)"
					}, {
						"Row": "1",
						"Type": "RTID(dino_armor1@ZombieTypes)"
					}, {
						"Row": "1",
						"Type": "RTID(dino_imp@ZombieTypes)"
					}, {
						"Row": "1",
						"Type": "RTID(dino_imp@ZombieTypes)"
					}, {
						"Row": "1",
						"Type": "RTID(dino_armor2@ZombieTypes)"
					}, {
						"Row": "2",
						"Type": "RTID(dino_bully@ZombieTypes)"
					}, {
						"Row": "2",
						"Type": "RTID(dino_armor1@ZombieTypes)"
					}, {
						"Row": "2",
						"Type": "RTID(dino_imp@ZombieTypes)"
					}, {
						"Row": "2",
						"Type": "RTID(dino_imp@ZombieTypes)"
					} ]
			}
		}, {
			"aliases": [ "Wave12" ],
			"objclass": "SpawnZombiesJitteredWaveActionProps",
			"objdata": {
				"AdditionalPlantfood": 0,
				"Zombies": [ {
						"Row": "5",
						"Type": "RTID(dino_bully@ZombieTypes)"
					}, {
						"Row": "4",
						"Type": "RTID(dino_bully@ZombieTypes)"
					}, {
						"Row": "3",
						"Type": "RTID(dino_bully@ZombieTypes)"
					}, {
						"Row": "2",
						"Type": "RTID(dino_bully@ZombieTypes)"
					}, {
						"Row": "1",
						"Type": "RTID(dino_bully@ZombieTypes)"
					}, {
						"Row": "5",
						"Type": "RTID(dino_imp@ZombieTypes)"
					}, {
						"Row": "4",
						"Type": "RTID(dino_imp@ZombieTypes)"
					}, {
						"Row": "3",
						"Type": "RTID(dino_gargantuar@ZombieTypes)"
					}, {
						"Row": "2",
						"Type": "RTID(dino_imp@ZombieTypes)"
					}, {
						"Row": "1",
						"Type": "RTID(dino_imp@ZombieTypes)"
					}, {
						"Row": "5",
						"Type": "RTID(dino_armor1@ZombieTypes)"
					}, {
						"Row": "4",
						"Type": "RTID(dino_armor1@ZombieTypes)"
					}, {
						"Row": "3",
						"Type": "RTID(dino_armor1@ZombieTypes)"
					}, {
						"Row": "2",
						"Type": "RTID(dino_armor1@ZombieTypes)"
					}, {
						"Row": "1",
						"Type": "RTID(dino_armor1@ZombieTypes)"
					} ]
			}
		}, {
			"aliases": [ "Wave3DinoTimeEvent0" ],
			"objclass": "DinoWaveActionProps",
			"objdata": {
				"DinoRow": "2",
				"DinoType": "ptero",
				"DinoWaveDuration": 3
			}
		}, {
			"aliases": [ "Wave6DinoTimeEvent0" ],
			"objclass": "DinoWaveActionProps",
			"objdata": {
				"DinoRow": 3,
				"DinoType": "raptor",
				"DinoWaveDuration": 3
			}
		}, {
			"aliases": [ "Wave7DinoTimeEvent0" ],
			"objclass": "DinoWaveActionProps",
			"objdata": {
				"DinoRow": 1,
				"DinoType": "tyranno",
				"DinoWaveDuration": "0"
			}
		}, {
			"aliases": [ "Wave9DinoTimeEvent0" ],
			"objclass": "DinoWaveActionProps",
			"objdata": {
				"DinoRow": 0,
				"DinoType": "raptor",
				"DinoWaveDuration": 3
			}
		}, {
			"aliases": [ "Wave11DinoTimeEvent0" ],
			"objclass": "DinoWaveActionProps",
			"objdata": {
				"DinoRow": 1,
				"DinoType": "raptor",
				"DinoWaveDuration": "0"
			}
		}, {
			"aliases": [ "Wave12DinoTimeEvent0" ],
			"objclass": "DinoWaveActionProps",
			"objdata": {
				"DinoRow": "2",
				"DinoType": "tyranno",
				"DinoWaveDuration": "0"
			}
		}, {
			"aliases": [ "PerkActivator" ],
			"objclass": "PerkHandlerModuleProperties",
			"objdata": {}
		}, {
			"aliases": [ "LevelMutator" ],
			"objclass": "LevelMutatorModuleProperties",
			"objdata": {
				"MutatorTables": [ "RTID(MutatorPropsRift_Worlds@LevelMutatorTables)", "RTID(LocalChallengeMutator@CurrentLevel)", "RTID(LocalMainChallengeMutator@CurrentLevel)" ]
			}
		}, {
			"aliases": [ "LocalMainChallengeMutator" ],
			"objclass": "LevelMutatorTableProps",
			"objdata": {
				"Tables": [ {
						"Level": 0,
						"ModuleType": "mainchallenge",
						"Modules": [ "RTID(RiftBeatTheLevelChallenge@LevelModules)" ]
					}, {
						"Level": 1,
						"ModuleType": "mainchallenge",
						"Modules": [ "RTID(RiftBeatTheLevelChallenge@LevelModules)" ]
					}, {
						"Level": 2,
						"ModuleType": "mainchallenge",
						"Modules": [ "RTID(RiftBeatTheLevelChallenge@LevelModules)" ]
					} ]
			}
		}, {
			"aliases": [ "LocalChallengeMutator" ],
			"objclass": "LevelMutatorTableProps",
			"objdata": {
				"Tables": [ {
						"Level": 0,
						"ModuleType": "bonuschallenge",
						"Modules": [ "RTID(ZombieDistance1@CurrentLevel)" ]
					}, {
						"Level": 1,
						"ModuleType": "bonuschallenge",
						"Modules": [ "RTID(ZombieDistance2@CurrentLevel)", "RTID(KillZombies1@CurrentLevel)" ]
					}, {
						"Level": 2,
						"ModuleType": "bonuschallenge",
						"Modules": [ "RTID(ZombieDistance3@CurrentLevel)", "RTID(KillZombies2@CurrentLevel)" ]
					} ]
			}
		}, {
			"aliases": [ "ZombieDistance1" ],
			"objclass": "StarChallengeZombieDistanceProps",
			"objdata": {
				"TargetDistance": 4
			}
		}, {
			"aliases": [ "ZombieDistance2" ],
			"objclass": "StarChallengeZombieDistanceProps",
			"objdata": {
				"TargetDistance": 5
			}
		}, {
			"aliases": [ "ZombieDistance3" ],
			"objclass": "StarChallengeZombieDistanceProps",
			"objdata": {
				"TargetDistance": 5.5
			}
		}, {
			"aliases": [ "KillZombies1" ],
			"objclass": "StarChallengeKillZombiesInTimeProps",
			"objdata": {
				"Time": 60,
				"ZombiesToKill": 40
			}
		}, {
			"aliases": [ "KillZombies2" ],
			"objclass": "StarChallengeKillZombiesInTimeProps",
			"objdata": {
				"Time": 60,
				"ZombiesToKill": 50
			}
		}, {
			"aliases": [ "NewWaves" ],
			"objclass": "WaveManagerModuleProperties",
			"objdata": {
				"DynamicZombies": [ {}, {}, {}, {
						"PointIncrementPerWave": 25,
						"StartingPoints": 0,
						"StartingWave": 0,
						"ZombiePool": [ "RTID(dino@ZombieTypes)", "RTID(dino_armor1@ZombieTypes)", "RTID(dino_armor2@ZombieTypes)" ]
					}, {}, {}, {} ],
				"WaveManagerProps": "RTID(WaveManagerProps@CurrentLevel)"
			}
		}, {
			"aliases": [ "LevelDifficultyScaling" ],
			"objclass": "LevelDifficultyScalingModuleProperties",
			"objdata": {
				"DifficultyRulesType": "RiftDifficulty",
				"ZombieLevelSwaps": [ {
						"Level": 4,
						"Swaps": [ {
								"From": "RTID(dino@ZombieTypes)",
								"To": [ "RTID(dino@ZombieTypes)" ]
							}, {
								"From": "RTID(dino_armor1@ZombieTypes)",
								"To": [ "RTID(dino_armor1@ZombieTypes)", "RTID(dino@ZombieTypes)" ]
							}, {
								"From": "RTID(dino_armor2@ZombieTypes)",
								"To": [ "RTID(dino_armor2@ZombieTypes)", "RTID(dino_armor1@ZombieTypes)" ]
							}, {
								"From": "RTID(dino_armor3@ZombieTypes)",
								"To": [ "RTID(dino_armor2@ZombieTypes)", "RTID(dino_armor3@ZombieTypes)" ]
							}, {
								"From": "RTID(dino_armor4@ZombieTypes)",
								"To": [ "RTID(dino_armor4@ZombieTypes)", "RTID(dino_armor3@ZombieTypes)" ]
							}, {
								"From": "RTID(dino_bully@ZombieTypes)",
								"To": [ "RTID(dino_bully@ZombieTypes)", "RTID(dino_armor3@ZombieTypes)" ]
							} ]
					}, {
						"Level": 7,
						"Swaps": [ {
								"From": "RTID(dino@ZombieTypes)",
								"To": [ "RTID(dino@ZombieTypes)", "RTID(dino_armor1@ZombieTypes)" ]
							}, {
								"From": "RTID(dino_armor1@ZombieTypes)",
								"To": [ "RTID(dino_armor1@ZombieTypes)", "RTID(dino_armor2@ZombieTypes)" ]
							}, {
								"From": "RTID(dino_armor2@ZombieTypes)",
								"To": [ "RTID(dino_armor2@ZombieTypes)", "RTID(dino_armor3@ZombieTypes)" ]
							}, {
								"From": "RTID(dino_armor3@ZombieTypes)",
								"To": [ "RTID(dino_armor3@ZombieTypes)", "RTID(dino_armor4@ZombieTypes)" ]
							}, {
								"From": "RTID(dino_armor4@ZombieTypes)",
								"To": [ "RTID(dino_armor4@ZombieTypes)" ]
							}, {
								"From": "RTID(dino_bully@ZombieTypes)",
								"To": [ "RTID(dino_bully@ZombieTypes)", "RTID(dino_bully_veteran@ZombieTypes)" ]
							} ]
					}, {
						"Level": 10,
						"Swaps": [ {
								"From": "RTID(dino@ZombieTypes)",
								"To": [ "RTID(dino_armor1@ZombieTypes)", "RTID(dino_armor2@ZombieTypes)" ]
							}, {
								"From": "RTID(dino_armor1@ZombieTypes)",
								"To": [ "RTID(dino_armor2@ZombieTypes)", "RTID(dino_armor3@ZombieTypes)" ]
							}, {
								"From": "RTID(dino_armor2@ZombieTypes)",
								"To": [ "RTID(dino_armor3@ZombieTypes)", "RTID(dino_armor4@ZombieTypes)" ]
							}, {
								"From": "RTID(dino_armor3@ZombieTypes)",
								"To": [ "RTID(dino_armor4@ZombieTypes)" ]
							}, {
								"From": "RTID(dino_armor4@ZombieTypes)",
								"To": [ "RTID(dino_armor4@ZombieTypes)" ]
							}, {
								"From": "RTID(dino_bully@ZombieTypes)",
								"To": [ "RTID(dino_bully@ZombieTypes)", "RTID(dino_bully_veteran@ZombieTypes)" ]
							} ]
					} ]
			}
		} ],
	"version": 1
}