{
	"objects": [
		{
			"objclass": "WorldData",
			"objdata": {
				"m_boundingRect": {
					"mHeight": 1000,
					"mWidth": 6825,
					"mX": -150,
					"mY": -100
				},
				"m_creationTime": 0,
				"m_eventList": [
					{
						"m_completedNarrationID": "",
						"m_cost": 0,
						"m_dataString": "rifts/rift_Future/rift_future01",
						"m_displayText": "1",
						"m_drawLayer": 0,
						"m_eventId": "1",
						"m_eventSubType": "normal",
						"m_eventType": "level",
						"m_filter": 0,
						"m_imageID": 0,
						"m_inheritAssetFilter": "true",
						"m_isArtFlipped": "false",
						"m_isChallengeType": "FALSE",
						"m_levelNodeType": "",
						"m_name": "rifts/rift_Future/rift_future01",
						"m_parallaxLayer": 0,
						"m_parentEvent": "",
						"m_position": {
							"x": 100,
							"y": 350
						},
						"m_rotationAngle": 0,
						"m_rotationRate": 0,
						"m_scaleX": 1,
						"m_scaleY": 1,
						"m_toggleName": "",
						"m_unlockedFrom": "",
						"m_unlockedNarrationID": "",
						"m_visibleFrom": "",
						"m_worldMapTutorial": "",
						"m_worldMapTutorialVisibleWhen": ""
					},
					{
						"m_completedNarrationID": "",
						"m_cost": 0,
						"m_dataString": "rifts/rift_Future/rift_future02",
						"m_displayText": "2",
						"m_drawLayer": 0,
						"m_eventId": "2",
						"m_eventSubType": "normal",
						"m_eventType": "level",
						"m_filter": 0,
						"m_imageID": 0,
						"m_inheritAssetFilter": "true",
						"m_isArtFlipped": "false",
						"m_isChallengeType": "FALSE",
						"m_levelNodeType": "",
						"m_name": "rifts/rift_Future/rift_future02",
						"m_parallaxLayer": 0,
						"m_parentEvent": "rifts/rift_Future/rift_future01",
						"m_position": {
							"x": 375,
							"y": 320
						},
						"m_rotationAngle": 0,
						"m_rotationRate": 0,
						"m_scaleX": 1,
						"m_scaleY": 1,
						"m_toggleName": "",
						"m_unlockedFrom": "",
						"m_unlockedNarrationID": "",
						"m_visibleFrom": "",
						"m_worldMapTutorial": "",
						"m_worldMapTutorialVisibleWhen": ""
					},
					{
						"m_completedNarrationID": "",
						"m_cost": 0,
						"m_dataString": "rifts/rift_Future/rift_future03",
						"m_displayText": "3",
						"m_drawLayer": 0,
						"m_eventId": "3",
						"m_eventSubType": "normal",
						"m_eventType": "level",
						"m_filter": 0,
						"m_imageID": 0,
						"m_inheritAssetFilter": "true",
						"m_isArtFlipped": "false",
						"m_isChallengeType": "FALSE",
						"m_levelNodeType": "",
						"m_name": "rifts/rift_Future/rift_future03",
						"m_parallaxLayer": 0,
						"m_parentEvent": "rifts/rift_Future/rift_future02",
						"m_position": {
							"x": 650,
							"y": 310
						},
						"m_rotationAngle": 0,
						"m_rotationRate": 0,
						"m_scaleX": 1,
						"m_scaleY": 1,
						"m_toggleName": "",
						"m_unlockedFrom": "",
						"m_unlockedNarrationID": "",
						"m_visibleFrom": "",
						"m_worldMapTutorial": "",
						"m_worldMapTutorialVisibleWhen": ""
					},
					{
						"m_completedNarrationID": "",
						"m_cost": 0,
						"m_dataString": "rifts/rift_Future/rift_future04",
						"m_displayText": "4",
						"m_drawLayer": 0,
						"m_eventId": "4",
						"m_eventSubType": "minigame",
						"m_eventType": "level",
						"m_filter": 0,
						"m_imageID": 0,
						"m_inheritAssetFilter": "true",
						"m_isArtFlipped": "false",
						"m_isChallengeType": "FALSE",
						"m_levelNodeType": "",
						"m_name": "rifts/rift_Future/rift_future04",
						"m_parallaxLayer": 0,
						"m_parentEvent": "rifts/rift_Future/rift_future03",
						"m_position": {
							"x": 925,
							"y": 320
						},
						"m_rotationAngle": 0,
						"m_rotationRate": 0,
						"m_scaleX": 1,
						"m_scaleY": 1,
						"m_toggleName": "",
						"m_unlockedFrom": "",
						"m_unlockedNarrationID": "",
						"m_visibleFrom": "",
						"m_worldMapTutorial": "",
						"m_worldMapTutorialVisibleWhen": ""
					},
					{
						"m_completedNarrationID": "",
						"m_cost": 0,
						"m_dataString": "rifts/rift_Future/rift_future05",
						"m_displayText": "5",
						"m_drawLayer": 0,
						"m_eventId": "5",
						"m_eventSubType": "normal",
						"m_eventType": "level",
						"m_filter": 0,
						"m_imageID": 0,
						"m_inheritAssetFilter": "true",
						"m_isArtFlipped": "false",
						"m_isChallengeType": "FALSE",
						"m_levelNodeType": "",
						"m_name": "rifts/rift_Future/rift_future05",
						"m_parallaxLayer": 0,
						"m_parentEvent": "rifts/rift_Future/rift_future04",
						"m_position": {
							"x": 1200,
							"y": 320
						},
						"m_rotationAngle": 0,
						"m_rotationRate": 0,
						"m_scaleX": 1,
						"m_scaleY": 1,
						"m_toggleName": "",
						"m_unlockedFrom": "",
						"m_unlockedNarrationID": "",
						"m_visibleFrom": "",
						"m_worldMapTutorial": "",
						"m_worldMapTutorialVisibleWhen": ""
					},
					{
						"m_completedNarrationID": "",
						"m_cost": 0,
						"m_dataString": "rifts/rift_Future/rift_future06",
						"m_displayText": "6",
						"m_drawLayer": 0,
						"m_eventId": "6",
						"m_eventSubType": "normal",
						"m_eventType": "level",
						"m_filter": 0,
						"m_imageID": 0,
						"m_inheritAssetFilter": "true",
						"m_isArtFlipped": "false",
						"m_isChallengeType": "FALSE",
						"m_levelNodeType": "",
						"m_name": "rifts/rift_Future/rift_future06",
						"m_parallaxLayer": 0,
						"m_parentEvent": "rifts/rift_Future/rift_future05",
						"m_position": {
							"x": 1475,
							"y": 320
						},
						"m_rotationAngle": 0,
						"m_rotationRate": 0,
						"m_scaleX": 1,
						"m_scaleY": 1,
						"m_toggleName": "",
						"m_unlockedFrom": "",
						"m_unlockedNarrationID": "",
						"m_visibleFrom": "",
						"m_worldMapTutorial": "",
						"m_worldMapTutorialVisibleWhen": ""
					},
					{
						"m_completedNarrationID": "",
						"m_cost": 0,
						"m_dataString": "rifts/rift_Future/rift_future07",
						"m_displayText": "7",
						"m_drawLayer": 0,
						"m_eventId": "7",
						"m_eventSubType": "normal",
						"m_eventType": "level",
						"m_filter": 0,
						"m_imageID": 0,
						"m_inheritAssetFilter": "true",
						"m_isArtFlipped": "false",
						"m_isChallengeType": "FALSE",
						"m_levelNodeType": "",
						"m_name": "rifts/rift_Future/rift_future07",
						"m_parallaxLayer": 0,
						"m_parentEvent": "rifts/rift_Future/rift_future06",
						"m_position": {
							"x": 1750,
							"y": 310
						},
						"m_rotationAngle": 0,
						"m_rotationRate": 0,
						"m_scaleX": 1,
						"m_scaleY": 1,
						"m_toggleName": "",
						"m_unlockedFrom": "",
						"m_unlockedNarrationID": "",
						"m_visibleFrom": "",
						"m_worldMapTutorial": "",
						"m_worldMapTutorialVisibleWhen": ""
					},
					{
						"m_completedNarrationID": "",
						"m_cost": 0,
						"m_dataString": "rifts/rift_Future/rift_future08",
						"m_displayText": "8",
						"m_drawLayer": 0,
						"m_eventId": "8",
						"m_eventSubType": "normal",
						"m_eventType": "level",
						"m_filter": 0,
						"m_imageID": 0,
						"m_inheritAssetFilter": "true",
						"m_isArtFlipped": "false",
						"m_isChallengeType": "FALSE",
						"m_levelNodeType": "",
						"m_name": "rifts/rift_Future/rift_future08",
						"m_parallaxLayer": 0,
						"m_parentEvent": "rifts/rift_Future/rift_future07",
						"m_position": {
							"x": 2025,
							"y": 320
						},
						"m_rotationAngle": 0,
						"m_rotationRate": 0,
						"m_scaleX": 1,
						"m_scaleY": 1,
						"m_toggleName": "",
						"m_unlockedFrom": "",
						"m_unlockedNarrationID": "",
						"m_visibleFrom": "",
						"m_worldMapTutorial": "",
						"m_worldMapTutorialVisibleWhen": ""
					},
					{
						"m_completedNarrationID": "",
						"m_cost": 0,
						"m_dataString": "rifts/rift_Future/rift_future09",
						"m_displayText": "9",
						"m_drawLayer": 0,
						"m_eventId": "9",
						"m_eventSubType": "normal",
						"m_eventType": "level",
						"m_filter": 0,
						"m_imageID": 0,
						"m_inheritAssetFilter": "true",
						"m_isArtFlipped": "false",
						"m_isChallengeType": "FALSE",
						"m_levelNodeType": "",
						"m_name": "rifts/rift_Future/rift_future09",
						"m_parallaxLayer": 0,
						"m_parentEvent": "rifts/rift_Future/rift_future08",
						"m_position": {
							"x": 2300,
							"y": 320
						},
						"m_rotationAngle": 0,
						"m_rotationRate": 0,
						"m_scaleX": 1,
						"m_scaleY": 1,
						"m_toggleName": "",
						"m_unlockedFrom": "",
						"m_unlockedNarrationID": "",
						"m_visibleFrom": "",
						"m_worldMapTutorial": "",
						"m_worldMapTutorialVisibleWhen": ""
					},
					{
						"m_completedNarrationID": "",
						"m_cost": 0,
						"m_dataString": "rifts/rift_Future/rift_future10",
						"m_displayText": "10",
						"m_drawLayer": 0,
						"m_eventId": "10",
						"m_eventSubType": "normal",
						"m_eventType": "level",
						"m_filter": 0,
						"m_imageID": 0,
						"m_inheritAssetFilter": "true",
						"m_isArtFlipped": "false",
						"m_isChallengeType": "FALSE",
						"m_levelNodeType": "",
						"m_name": "rifts/rift_Future/rift_future10",
						"m_parallaxLayer": 0,
						"m_parentEvent": "rifts/rift_Future/rift_future09",
						"m_position": {
							"x": 2575,
							"y": 320
						},
						"m_rotationAngle": 0,
						"m_rotationRate": 0,
						"m_scaleX": 1,
						"m_scaleY": 1,
						"m_toggleName": "",
						"m_unlockedFrom": "",
						"m_unlockedNarrationID": "",
						"m_visibleFrom": "",
						"m_worldMapTutorial": "",
						"m_worldMapTutorialVisibleWhen": ""
					},
					{
						"m_completedNarrationID": "",
						"m_cost": 0,
						"m_dataString": "rifts/rift_Future/rift_future11",
						"m_displayText": "11",
						"m_drawLayer": 0,
						"m_eventId": "11",
						"m_eventSubType": "normal",
						"m_eventType": "level",
						"m_filter": 0,
						"m_imageID": 0,
						"m_inheritAssetFilter": "true",
						"m_isArtFlipped": "false",
						"m_isChallengeType": "FALSE",
						"m_levelNodeType": "",
						"m_name": "rifts/rift_Future/rift_future11",
						"m_parallaxLayer": 0,
						"m_parentEvent": "rifts/rift_Future/rift_future10",
						"m_position": {
							"x": 2850,
							"y": 310
						},
						"m_rotationAngle": 0,
						"m_rotationRate": 0,
						"m_scaleX": 1,
						"m_scaleY": 1,
						"m_toggleName": "",
						"m_unlockedFrom": "",
						"m_unlockedNarrationID": "",
						"m_visibleFrom": "",
						"m_worldMapTutorial": "",
						"m_worldMapTutorialVisibleWhen": ""
					},
					{
						"m_completedNarrationID": "",
						"m_cost": 0,
						"m_dataString": "rifts/rift_Future/rift_future12",
						"m_displayText": "12",
						"m_drawLayer": 0,
						"m_eventId": "12",
						"m_eventSubType": "normal",
						"m_eventType": "level",
						"m_filter": 0,
						"m_imageID": 0,
						"m_inheritAssetFilter": "true",
						"m_isArtFlipped": "false",
						"m_isChallengeType": "FALSE",
						"m_levelNodeType": "",
						"m_name": "rifts/rift_Future/rift_future12",
						"m_parallaxLayer": 0,
						"m_parentEvent": "rifts/rift_Future/rift_future11",
						"m_position": {
							"x": 3125,
							"y": 320
						},
						"m_rotationAngle": 0,
						"m_rotationRate": 0,
						"m_scaleX": 1,
						"m_scaleY": 1,
						"m_toggleName": "",
						"m_unlockedFrom": "",
						"m_unlockedNarrationID": "",
						"m_visibleFrom": "",
						"m_worldMapTutorial": "",
						"m_worldMapTutorialVisibleWhen": ""
					},
					{
						"m_completedNarrationID": "",
						"m_cost": 0,
						"m_dataString": "rifts/rift_Future/rift_future13",
						"m_displayText": "13",
						"m_drawLayer": 0,
						"m_eventId": "13",
						"m_eventSubType": "normal",
						"m_eventType": "level",
						"m_filter": 0,
						"m_imageID": 0,
						"m_inheritAssetFilter": "true",
						"m_isArtFlipped": "false",
						"m_isChallengeType": "FALSE",
						"m_levelNodeType": "",
						"m_name": "rifts/rift_Future/rift_future13",
						"m_parallaxLayer": 0,
						"m_parentEvent": "rifts/rift_Future/rift_future12",
						"m_position": {
							"x": 3400,
							"y": 320
						},
						"m_rotationAngle": 0,
						"m_rotationRate": 0,
						"m_scaleX": 1,
						"m_scaleY": 1,
						"m_toggleName": "",
						"m_unlockedFrom": "",
						"m_unlockedNarrationID": "",
						"m_visibleFrom": "",
						"m_worldMapTutorial": "",
						"m_worldMapTutorialVisibleWhen": ""
					},
					{
						"m_completedNarrationID": "",
						"m_cost": 0,
						"m_dataString": "rifts/rift_Future/rift_future14",
						"m_displayText": "14",
						"m_drawLayer": 0,
						"m_eventId": "14",
						"m_eventSubType": "normal",
						"m_eventType": "level",
						"m_filter": 0,
						"m_imageID": 0,
						"m_inheritAssetFilter": "true",
						"m_isArtFlipped": "false",
						"m_isChallengeType": "FALSE",
						"m_levelNodeType": "",
						"m_name": "rifts/rift_Future/rift_future14",
						"m_parallaxLayer": 0,
						"m_parentEvent": "rifts/rift_Future/rift_future13",
						"m_position": {
							"x": 3675,
							"y": 320
						},
						"m_rotationAngle": 0,
						"m_rotationRate": 0,
						"m_scaleX": 1,
						"m_scaleY": 1,
						"m_toggleName": "",
						"m_unlockedFrom": "",
						"m_unlockedNarrationID": "",
						"m_visibleFrom": "",
						"m_worldMapTutorial": "",
						"m_worldMapTutorialVisibleWhen": ""
					},
					{
						"m_completedNarrationID": "",
						"m_cost": 0,
						"m_dataString": "rifts/rift_Future/rift_future15",
						"m_displayText": "15",
						"m_drawLayer": 0,
						"m_eventId": "15",
						"m_eventSubType": "normal",
						"m_eventType": "level",
						"m_filter": 0,
						"m_imageID": 0,
						"m_inheritAssetFilter": "true",
						"m_isArtFlipped": "false",
						"m_isChallengeType": "FALSE",
						"m_levelNodeType": "",
						"m_name": "rifts/rift_Future/rift_future15",
						"m_parallaxLayer": 0,
						"m_parentEvent": "rifts/rift_Future/rift_future14",
						"m_position": {
							"x": 3950,
							"y": 310
						},
						"m_rotationAngle": 0,
						"m_rotationRate": 0,
						"m_scaleX": 1,
						"m_scaleY": 1,
						"m_toggleName": "",
						"m_unlockedFrom": "",
						"m_unlockedNarrationID": "",
						"m_visibleFrom": "",
						"m_worldMapTutorial": "",
						"m_worldMapTutorialVisibleWhen": ""
					},
					{
						"m_completedNarrationID": "",
						"m_cost": 0,
						"m_dataString": "rifts/rift_Future/rift_future16",
						"m_displayText": "16",
						"m_drawLayer": 0,
						"m_eventId": "16",
						"m_eventSubType": "normal",
						"m_eventType": "level",
						"m_filter": 0,
						"m_imageID": 0,
						"m_inheritAssetFilter": "true",
						"m_isArtFlipped": "false",
						"m_isChallengeType": "FALSE",
						"m_levelNodeType": "",
						"m_name": "rifts/rift_Future/rift_future16",
						"m_parallaxLayer": 0,
						"m_parentEvent": "rifts/rift_Future/rift_future15",
						"m_position": {
							"x": 4225,
							"y": 320
						},
						"m_rotationAngle": 0,
						"m_rotationRate": 0,
						"m_scaleX": 1,
						"m_scaleY": 1,
						"m_toggleName": "",
						"m_unlockedFrom": "",
						"m_unlockedNarrationID": "",
						"m_visibleFrom": "",
						"m_worldMapTutorial": "",
						"m_worldMapTutorialVisibleWhen": ""
					},
					{
						"m_completedNarrationID": "",
						"m_cost": 0,
						"m_dataString": "rifts/rift_Future/rift_future17",
						"m_displayText": "17",
						"m_drawLayer": 0,
						"m_eventId": "17",
						"m_eventSubType": "normal",
						"m_eventType": "level",
						"m_filter": 0,
						"m_imageID": 0,
						"m_inheritAssetFilter": "true",
						"m_isArtFlipped": "false",
						"m_isChallengeType": "FALSE",
						"m_levelNodeType": "",
						"m_name": "rifts/rift_Future/rift_future17",
						"m_parallaxLayer": 0,
						"m_parentEvent": "rifts/rift_Future/rift_future16",
						"m_position": {
							"x": 4500,
							"y": 320
						},
						"m_rotationAngle": 0,
						"m_rotationRate": 0,
						"m_scaleX": 1,
						"m_scaleY": 1,
						"m_toggleName": "",
						"m_unlockedFrom": "",
						"m_unlockedNarrationID": "",
						"m_visibleFrom": "",
						"m_worldMapTutorial": "",
						"m_worldMapTutorialVisibleWhen": ""
					},
					{
						"m_completedNarrationID": "",
						"m_cost": 0,
						"m_dataString": "rifts/rift_Future/rift_future18",
						"m_displayText": "18",
						"m_drawLayer": 0,
						"m_eventId": "18",
						"m_eventSubType": "normal",
						"m_eventType": "level",
						"m_filter": 0,
						"m_imageID": 0,
						"m_inheritAssetFilter": "true",
						"m_isArtFlipped": "false",
						"m_isChallengeType": "FALSE",
						"m_levelNodeType": "",
						"m_name": "rifts/rift_Future/rift_future18",
						"m_parallaxLayer": 0,
						"m_parentEvent": "rifts/rift_Future/rift_future17",
						"m_position": {
							"x": 4775,
							"y": 320
						},
						"m_rotationAngle": 0,
						"m_rotationRate": 0,
						"m_scaleX": 1,
						"m_scaleY": 1,
						"m_toggleName": "",
						"m_unlockedFrom": "",
						"m_unlockedNarrationID": "",
						"m_visibleFrom": "",
						"m_worldMapTutorial": "",
						"m_worldMapTutorialVisibleWhen": ""
					},
					{
						"m_completedNarrationID": "",
						"m_cost": 0,
						"m_dataString": "rifts/rift_Future/rift_future19",
						"m_displayText": "19",
						"m_drawLayer": 0,
						"m_eventId": "19",
						"m_eventSubType": "minigame",
						"m_eventType": "level",
						"m_filter": 0,
						"m_imageID": 0,
						"m_inheritAssetFilter": "true",
						"m_isArtFlipped": "false",
						"m_isChallengeType": "FALSE",
						"m_levelNodeType": "",
						"m_name": "rifts/rift_Future/rift_future19",
						"m_parallaxLayer": 0,
						"m_parentEvent": "rifts/rift_Future/rift_future18",
						"m_position": {
							"x": 5050,
							"y": 310
						},
						"m_rotationAngle": 0,
						"m_rotationRate": 0,
						"m_scaleX": 1,
						"m_scaleY": 1,
						"m_toggleName": "",
						"m_unlockedFrom": "",
						"m_unlockedNarrationID": "",
						"m_visibleFrom": "",
						"m_worldMapTutorial": "",
						"m_worldMapTutorialVisibleWhen": ""
					},
					{
						"m_completedNarrationID": "",
						"m_cost": 0,
						"m_dataString": "rifts/rift_Future/rift_future20",
						"m_displayText": "20",
						"m_drawLayer": 0,
						"m_eventId": "20",
						"m_eventSubType": "normal",
						"m_eventType": "level",
						"m_filter": 0,
						"m_imageID": 0,
						"m_inheritAssetFilter": "true",
						"m_isArtFlipped": "false",
						"m_isChallengeType": "FALSE",
						"m_levelNodeType": "",
						"m_name": "rifts/rift_Future/rift_future20",
						"m_parallaxLayer": 0,
						"m_parentEvent": "rifts/rift_Future/rift_future19",
						"m_position": {
							"x": 5325,
							"y": 320
						},
						"m_rotationAngle": 0,
						"m_rotationRate": 0,
						"m_scaleX": 1,
						"m_scaleY": 1,
						"m_toggleName": "",
						"m_unlockedFrom": "",
						"m_unlockedNarrationID": "",
						"m_visibleFrom": "",
						"m_worldMapTutorial": "",
						"m_worldMapTutorialVisibleWhen": ""
					},
					{
						"m_completedNarrationID": "",
						"m_cost": 0,
						"m_dataString": "rifts/rift_Future/rift_future21",
						"m_displayText": "21",
						"m_drawLayer": 0,
						"m_eventId": "21",
						"m_eventSubType": "normal",
						"m_eventType": "level",
						"m_filter": 0,
						"m_imageID": 0,
						"m_inheritAssetFilter": "true",
						"m_isArtFlipped": "false",
						"m_isChallengeType": "FALSE",
						"m_levelNodeType": "",
						"m_name": "rifts/rift_Future/rift_future21",
						"m_parallaxLayer": 0,
						"m_parentEvent": "rifts/rift_Future/rift_future20",
						"m_position": {
							"x": 5600,
							"y": 320
						},
						"m_rotationAngle": 0,
						"m_rotationRate": 0,
						"m_scaleX": 1,
						"m_scaleY": 1,
						"m_toggleName": "",
						"m_unlockedFrom": "",
						"m_unlockedNarrationID": "",
						"m_visibleFrom": "",
						"m_worldMapTutorial": "",
						"m_worldMapTutorialVisibleWhen": ""
					},
					{
						"m_completedNarrationID": "",
						"m_cost": 0,
						"m_dataString": "rifts/rift_Future/rift_future22",
						"m_displayText": "22",
						"m_drawLayer": 0,
						"m_eventId": "22",
						"m_eventSubType": "normal",
						"m_eventType": "level",
						"m_filter": 0,
						"m_imageID": 0,
						"m_inheritAssetFilter": "true",
						"m_isArtFlipped": "false",
						"m_isChallengeType": "FALSE",
						"m_levelNodeType": "",
						"m_name": "rifts/rift_Future/rift_future22",
						"m_parallaxLayer": 0,
						"m_parentEvent": "rifts/rift_Future/rift_future21",
						"m_position": {
							"x": 5875,
							"y": 320
						},
						"m_rotationAngle": 0,
						"m_rotationRate": 0,
						"m_scaleX": 1,
						"m_scaleY": 1,
						"m_toggleName": "",
						"m_unlockedFrom": "",
						"m_unlockedNarrationID": "",
						"m_visibleFrom": "",
						"m_worldMapTutorial": "",
						"m_worldMapTutorialVisibleWhen": ""
					},
					{
						"m_completedNarrationID": "",
						"m_cost": 0,
						"m_dataString": "rifts/rift_Future/rift_future23",
						"m_displayText": "23",
						"m_drawLayer": 0,
						"m_eventId": "23",
						"m_eventSubType": "normal",
						"m_eventType": "level",
						"m_filter": 0,
						"m_imageID": 0,
						"m_inheritAssetFilter": "true",
						"m_isArtFlipped": "false",
						"m_isChallengeType": "FALSE",
						"m_levelNodeType": "",
						"m_name": "rifts/rift_Future/rift_future23",
						"m_parallaxLayer": 0,
						"m_parentEvent": "rifts/rift_Future/rift_future22",
						"m_position": {
							"x": 6150,
							"y": 310
						},
						"m_rotationAngle": 0,
						"m_rotationRate": 0,
						"m_scaleX": 1,
						"m_scaleY": 1,
						"m_toggleName": "",
						"m_unlockedFrom": "",
						"m_unlockedNarrationID": "",
						"m_visibleFrom": "",
						"m_worldMapTutorial": "",
						"m_worldMapTutorialVisibleWhen": ""
					},
					{
						"m_completedNarrationID": "",
						"m_cost": 0,
						"m_dataString": "rifts/rift_Future/rift_future24",
						"m_displayText": "24",
						"m_drawLayer": 0,
						"m_eventId": "24",
						"m_eventSubType": "minigame",
						"m_eventType": "level",
						"m_filter": 0,
						"m_imageID": 0,
						"m_inheritAssetFilter": "true",
						"m_isArtFlipped": "false",
						"m_isChallengeType": "FALSE",
						"m_levelNodeType": "",
						"m_name": "rifts/rift_Future/rift_future24",
						"m_parallaxLayer": 0,
						"m_parentEvent": "rifts/rift_Future/rift_future23",
						"m_position": {
							"x": 6425,
							"y": 320
						},
						"m_rotationAngle": 0,
						"m_rotationRate": 0,
						"m_scaleX": 1,
						"m_scaleY": 1,
						"m_toggleName": "",
						"m_unlockedFrom": "",
						"m_unlockedNarrationID": "",
						"m_visibleFrom": "",
						"m_worldMapTutorial": "",
						"m_worldMapTutorialVisibleWhen": ""
					}
				],
				"m_mapPieces": [
					{
						"m_completedNarrationID": "",
						"m_cost": 0,
						"m_dataString": "",
						"m_displayText": "",
						"m_drawLayer": -1,
						"m_eventId": "",
						"m_eventSubType": "",
						"m_eventType": "island",
						"m_filter": 0,
						"m_imageID": 107,
						"m_inheritAssetFilter": "true",
						"m_isArtFlipped": "",
						"m_isChallengeType": "false",
						"m_levelNodeType": "",
						"m_name": "",
						"m_parallaxLayer": 0,
						"m_parentEvent": "",
						"m_position": {
							"x": 93,
							"y": 445
						},
						"m_rotationAngle": 0,
						"m_rotationRate": 0,
						"m_scaleX": 1.2,
						"m_scaleY": 1.2,
						"m_toggleName": "",
						"m_unlockedFrom": "",
						"m_unlockedNarrationID": "",
						"m_visibleFrom": "",
						"m_worldMapTutorial": "",
						"m_worldMapTutorialVisibleWhen": ""
					},
					{
						"m_completedNarrationID": "",
						"m_cost": 0,
						"m_dataString": "",
						"m_displayText": "",
						"m_drawLayer": 0,
						"m_eventId": "",
						"m_eventSubType": "",
						"m_eventType": "island",
						"m_filter": 0,
						"m_imageID": 12,
						"m_inheritAssetFilter": "true",
						"m_isArtFlipped": "",
						"m_isChallengeType": "false",
						"m_levelNodeType": "",
						"m_name": "",
						"m_parallaxLayer": 0,
						"m_parentEvent": "",
						"m_position": {
							"x": 100,
							"y": 307
						},
						"m_rotationAngle": 0,
						"m_rotationRate": 0,
						"m_scaleX": 1,
						"m_scaleY": 1,
						"m_toggleName": "",
						"m_unlockedFrom": "",
						"m_unlockedNarrationID": "",
						"m_visibleFrom": "",
						"m_worldMapTutorial": "",
						"m_worldMapTutorialVisibleWhen": ""
					},
					{
						"m_completedNarrationID": "",
						"m_cost": 0,
						"m_dataString": "",
						"m_displayText": "",
						"m_drawLayer": -1,
						"m_eventId": "",
						"m_eventSubType": "",
						"m_eventType": "island",
						"m_filter": 0,
						"m_imageID": 107,
						"m_inheritAssetFilter": "true",
						"m_isArtFlipped": "",
						"m_isChallengeType": "false",
						"m_levelNodeType": "",
						"m_name": "",
						"m_parallaxLayer": 0,
						"m_parentEvent": "",
						"m_position": {
							"x": 368,
							"y": 415
						},
						"m_rotationAngle": 0,
						"m_rotationRate": 0,
						"m_scaleX": 1.2,
						"m_scaleY": 1.2,
						"m_toggleName": "",
						"m_unlockedFrom": "",
						"m_unlockedNarrationID": "",
						"m_visibleFrom": "",
						"m_worldMapTutorial": "",
						"m_worldMapTutorialVisibleWhen": ""
					},
					{
						"m_completedNarrationID": "",
						"m_cost": 0,
						"m_dataString": "",
						"m_displayText": "",
						"m_drawLayer": 0,
						"m_eventId": "",
						"m_eventSubType": "",
						"m_eventType": "island",
						"m_filter": 0,
						"m_imageID": 12,
						"m_inheritAssetFilter": "true",
						"m_isArtFlipped": "",
						"m_isChallengeType": "false",
						"m_levelNodeType": "",
						"m_name": "",
						"m_parallaxLayer": 0,
						"m_parentEvent": "",
						"m_position": {
							"x": 375,
							"y": 277
						},
						"m_rotationAngle": 0,
						"m_rotationRate": 0,
						"m_scaleX": 1,
						"m_scaleY": 1,
						"m_toggleName": "",
						"m_unlockedFrom": "",
						"m_unlockedNarrationID": "",
						"m_visibleFrom": "",
						"m_worldMapTutorial": "",
						"m_worldMapTutorialVisibleWhen": ""
					},
					{
						"m_completedNarrationID": "",
						"m_cost": 0,
						"m_dataString": "",
						"m_displayText": "",
						"m_drawLayer": -1,
						"m_eventId": "",
						"m_eventSubType": "",
						"m_eventType": "island",
						"m_filter": 0,
						"m_imageID": 107,
						"m_inheritAssetFilter": "true",
						"m_isArtFlipped": "",
						"m_isChallengeType": "false",
						"m_levelNodeType": "",
						"m_name": "",
						"m_parallaxLayer": 0,
						"m_parentEvent": "",
						"m_position": {
							"x": 643,
							"y": 405
						},
						"m_rotationAngle": 0,
						"m_rotationRate": 0,
						"m_scaleX": 1.2,
						"m_scaleY": 1.2,
						"m_toggleName": "",
						"m_unlockedFrom": "",
						"m_unlockedNarrationID": "",
						"m_visibleFrom": "",
						"m_worldMapTutorial": "",
						"m_worldMapTutorialVisibleWhen": ""
					},
					{
						"m_completedNarrationID": "",
						"m_cost": 0,
						"m_dataString": "",
						"m_displayText": "",
						"m_drawLayer": 0,
						"m_eventId": "",
						"m_eventSubType": "",
						"m_eventType": "island",
						"m_filter": 0,
						"m_imageID": 12,
						"m_inheritAssetFilter": "true",
						"m_isArtFlipped": "",
						"m_isChallengeType": "false",
						"m_levelNodeType": "",
						"m_name": "",
						"m_parallaxLayer": 0,
						"m_parentEvent": "",
						"m_position": {
							"x": 650,
							"y": 267
						},
						"m_rotationAngle": 0,
						"m_rotationRate": 0,
						"m_scaleX": 1,
						"m_scaleY": 1,
						"m_toggleName": "",
						"m_unlockedFrom": "",
						"m_unlockedNarrationID": "",
						"m_visibleFrom": "",
						"m_worldMapTutorial": "",
						"m_worldMapTutorialVisibleWhen": ""
					},
					{
						"m_completedNarrationID": "",
						"m_cost": 0,
						"m_dataString": "",
						"m_displayText": "",
						"m_drawLayer": -1,
						"m_eventId": "",
						"m_eventSubType": "",
						"m_eventType": "island",
						"m_filter": 0,
						"m_imageID": 107,
						"m_inheritAssetFilter": "true",
						"m_isArtFlipped": "",
						"m_isChallengeType": "false",
						"m_levelNodeType": "",
						"m_name": "",
						"m_parallaxLayer": 0,
						"m_parentEvent": "",
						"m_position": {
							"x": 918,
							"y": 415
						},
						"m_rotationAngle": 0,
						"m_rotationRate": 0,
						"m_scaleX": 1.2,
						"m_scaleY": 1.2,
						"m_toggleName": "",
						"m_unlockedFrom": "",
						"m_unlockedNarrationID": "",
						"m_visibleFrom": "",
						"m_worldMapTutorial": "",
						"m_worldMapTutorialVisibleWhen": ""
					},
					{
						"m_completedNarrationID": "",
						"m_cost": 0,
						"m_dataString": "",
						"m_displayText": "",
						"m_drawLayer": 0,
						"m_eventId": "",
						"m_eventSubType": "",
						"m_eventType": "island",
						"m_filter": 0,
						"m_imageID": 12,
						"m_inheritAssetFilter": "true",
						"m_isArtFlipped": "",
						"m_isChallengeType": "false",
						"m_levelNodeType": "",
						"m_name": "",
						"m_parallaxLayer": 0,
						"m_parentEvent": "",
						"m_position": {
							"x": 925,
							"y": 277
						},
						"m_rotationAngle": 0,
						"m_rotationRate": 0,
						"m_scaleX": 1,
						"m_scaleY": 1,
						"m_toggleName": "",
						"m_unlockedFrom": "",
						"m_unlockedNarrationID": "",
						"m_visibleFrom": "",
						"m_worldMapTutorial": "",
						"m_worldMapTutorialVisibleWhen": ""
					},
					{
						"m_completedNarrationID": "",
						"m_cost": 0,
						"m_dataString": "",
						"m_displayText": "",
						"m_drawLayer": -1,
						"m_eventId": "",
						"m_eventSubType": "",
						"m_eventType": "island",
						"m_filter": 0,
						"m_imageID": 107,
						"m_inheritAssetFilter": "true",
						"m_isArtFlipped": "",
						"m_isChallengeType": "false",
						"m_levelNodeType": "",
						"m_name": "",
						"m_parallaxLayer": 0,
						"m_parentEvent": "",
						"m_position": {
							"x": 1193,
							"y": 415
						},
						"m_rotationAngle": 0,
						"m_rotationRate": 0,
						"m_scaleX": 1.2,
						"m_scaleY": 1.2,
						"m_toggleName": "",
						"m_unlockedFrom": "",
						"m_unlockedNarrationID": "",
						"m_visibleFrom": "",
						"m_worldMapTutorial": "",
						"m_worldMapTutorialVisibleWhen": ""
					},
					{
						"m_completedNarrationID": "",
						"m_cost": 0,
						"m_dataString": "",
						"m_displayText": "",
						"m_drawLayer": 0,
						"m_eventId": "",
						"m_eventSubType": "",
						"m_eventType": "island",
						"m_filter": 0,
						"m_imageID": 12,
						"m_inheritAssetFilter": "true",
						"m_isArtFlipped": "",
						"m_isChallengeType": "false",
						"m_levelNodeType": "",
						"m_name": "",
						"m_parallaxLayer": 0,
						"m_parentEvent": "",
						"m_position": {
							"x": 1200,
							"y": 277
						},
						"m_rotationAngle": 0,
						"m_rotationRate": 0,
						"m_scaleX": 1,
						"m_scaleY": 1,
						"m_toggleName": "",
						"m_unlockedFrom": "",
						"m_unlockedNarrationID": "",
						"m_visibleFrom": "",
						"m_worldMapTutorial": "",
						"m_worldMapTutorialVisibleWhen": ""
					},
					{
						"m_completedNarrationID": "",
						"m_cost": 0,
						"m_dataString": "",
						"m_displayText": "",
						"m_drawLayer": -1,
						"m_eventId": "",
						"m_eventSubType": "",
						"m_eventType": "island",
						"m_filter": 0,
						"m_imageID": 107,
						"m_inheritAssetFilter": "true",
						"m_isArtFlipped": "",
						"m_isChallengeType": "false",
						"m_levelNodeType": "",
						"m_name": "",
						"m_parallaxLayer": 0,
						"m_parentEvent": "",
						"m_position": {
							"x": 1468,
							"y": 415
						},
						"m_rotationAngle": 0,
						"m_rotationRate": 0,
						"m_scaleX": 1.2,
						"m_scaleY": 1.2,
						"m_toggleName": "",
						"m_unlockedFrom": "",
						"m_unlockedNarrationID": "",
						"m_visibleFrom": "",
						"m_worldMapTutorial": "",
						"m_worldMapTutorialVisibleWhen": ""
					},
					{
						"m_completedNarrationID": "",
						"m_cost": 0,
						"m_dataString": "",
						"m_displayText": "",
						"m_drawLayer": 0,
						"m_eventId": "",
						"m_eventSubType": "",
						"m_eventType": "island",
						"m_filter": 0,
						"m_imageID": 12,
						"m_inheritAssetFilter": "true",
						"m_isArtFlipped": "",
						"m_isChallengeType": "false",
						"m_levelNodeType": "",
						"m_name": "",
						"m_parallaxLayer": 0,
						"m_parentEvent": "",
						"m_position": {
							"x": 1475,
							"y": 277
						},
						"m_rotationAngle": 0,
						"m_rotationRate": 0,
						"m_scaleX": 1,
						"m_scaleY": 1,
						"m_toggleName": "",
						"m_unlockedFrom": "",
						"m_unlockedNarrationID": "",
						"m_visibleFrom": "",
						"m_worldMapTutorial": "",
						"m_worldMapTutorialVisibleWhen": ""
					},
					{
						"m_completedNarrationID": "",
						"m_cost": 0,
						"m_dataString": "",
						"m_displayText": "",
						"m_drawLayer": -1,
						"m_eventId": "",
						"m_eventSubType": "",
						"m_eventType": "island",
						"m_filter": 0,
						"m_imageID": 107,
						"m_inheritAssetFilter": "true",
						"m_isArtFlipped": "",
						"m_isChallengeType": "false",
						"m_levelNodeType": "",
						"m_name": "",
						"m_parallaxLayer": 0,
						"m_parentEvent": "",
						"m_position": {
							"x": 1743,
							"y": 405
						},
						"m_rotationAngle": 0,
						"m_rotationRate": 0,
						"m_scaleX": 1.2,
						"m_scaleY": 1.2,
						"m_toggleName": "",
						"m_unlockedFrom": "",
						"m_unlockedNarrationID": "",
						"m_visibleFrom": "",
						"m_worldMapTutorial": "",
						"m_worldMapTutorialVisibleWhen": ""
					},
					{
						"m_completedNarrationID": "",
						"m_cost": 0,
						"m_dataString": "",
						"m_displayText": "",
						"m_drawLayer": 0,
						"m_eventId": "",
						"m_eventSubType": "",
						"m_eventType": "island",
						"m_filter": 0,
						"m_imageID": 12,
						"m_inheritAssetFilter": "true",
						"m_isArtFlipped": "",
						"m_isChallengeType": "false",
						"m_levelNodeType": "",
						"m_name": "",
						"m_parallaxLayer": 0,
						"m_parentEvent": "",
						"m_position": {
							"x": 1750,
							"y": 267
						},
						"m_rotationAngle": 0,
						"m_rotationRate": 0,
						"m_scaleX": 1,
						"m_scaleY": 1,
						"m_toggleName": "",
						"m_unlockedFrom": "",
						"m_unlockedNarrationID": "",
						"m_visibleFrom": "",
						"m_worldMapTutorial": "",
						"m_worldMapTutorialVisibleWhen": ""
					},
					{
						"m_completedNarrationID": "",
						"m_cost": 0,
						"m_dataString": "",
						"m_displayText": "",
						"m_drawLayer": -1,
						"m_eventId": "",
						"m_eventSubType": "",
						"m_eventType": "island",
						"m_filter": 0,
						"m_imageID": 107,
						"m_inheritAssetFilter": "true",
						"m_isArtFlipped": "",
						"m_isChallengeType": "false",
						"m_levelNodeType": "",
						"m_name": "",
						"m_parallaxLayer": 0,
						"m_parentEvent": "",
						"m_position": {
							"x": 2018,
							"y": 415
						},
						"m_rotationAngle": 0,
						"m_rotationRate": 0,
						"m_scaleX": 1.2,
						"m_scaleY": 1.2,
						"m_toggleName": "",
						"m_unlockedFrom": "",
						"m_unlockedNarrationID": "",
						"m_visibleFrom": "",
						"m_worldMapTutorial": "",
						"m_worldMapTutorialVisibleWhen": ""
					},
					{
						"m_completedNarrationID": "",
						"m_cost": 0,
						"m_dataString": "",
						"m_displayText": "",
						"m_drawLayer": 0,
						"m_eventId": "",
						"m_eventSubType": "",
						"m_eventType": "island",
						"m_filter": 0,
						"m_imageID": 12,
						"m_inheritAssetFilter": "true",
						"m_isArtFlipped": "",
						"m_isChallengeType": "false",
						"m_levelNodeType": "",
						"m_name": "",
						"m_parallaxLayer": 0,
						"m_parentEvent": "",
						"m_position": {
							"x": 2025,
							"y": 277
						},
						"m_rotationAngle": 0,
						"m_rotationRate": 0,
						"m_scaleX": 1,
						"m_scaleY": 1,
						"m_toggleName": "",
						"m_unlockedFrom": "",
						"m_unlockedNarrationID": "",
						"m_visibleFrom": "",
						"m_worldMapTutorial": "",
						"m_worldMapTutorialVisibleWhen": ""
					},
					{
						"m_completedNarrationID": "",
						"m_cost": 0,
						"m_dataString": "",
						"m_displayText": "",
						"m_drawLayer": -1,
						"m_eventId": "",
						"m_eventSubType": "",
						"m_eventType": "island",
						"m_filter": 0,
						"m_imageID": 107,
						"m_inheritAssetFilter": "true",
						"m_isArtFlipped": "",
						"m_isChallengeType": "false",
						"m_levelNodeType": "",
						"m_name": "",
						"m_parallaxLayer": 0,
						"m_parentEvent": "",
						"m_position": {
							"x": 2293,
							"y": 415
						},
						"m_rotationAngle": 0,
						"m_rotationRate": 0,
						"m_scaleX": 1.2,
						"m_scaleY": 1.2,
						"m_toggleName": "",
						"m_unlockedFrom": "",
						"m_unlockedNarrationID": "",
						"m_visibleFrom": "",
						"m_worldMapTutorial": "",
						"m_worldMapTutorialVisibleWhen": ""
					},
					{
						"m_completedNarrationID": "",
						"m_cost": 0,
						"m_dataString": "",
						"m_displayText": "",
						"m_drawLayer": 0,
						"m_eventId": "",
						"m_eventSubType": "",
						"m_eventType": "island",
						"m_filter": 0,
						"m_imageID": 12,
						"m_inheritAssetFilter": "true",
						"m_isArtFlipped": "",
						"m_isChallengeType": "false",
						"m_levelNodeType": "",
						"m_name": "",
						"m_parallaxLayer": 0,
						"m_parentEvent": "",
						"m_position": {
							"x": 2300,
							"y": 277
						},
						"m_rotationAngle": 0,
						"m_rotationRate": 0,
						"m_scaleX": 1,
						"m_scaleY": 1,
						"m_toggleName": "",
						"m_unlockedFrom": "",
						"m_unlockedNarrationID": "",
						"m_visibleFrom": "",
						"m_worldMapTutorial": "",
						"m_worldMapTutorialVisibleWhen": ""
					},
					{
						"m_completedNarrationID": "",
						"m_cost": 0,
						"m_dataString": "",
						"m_displayText": "",
						"m_drawLayer": -1,
						"m_eventId": "",
						"m_eventSubType": "",
						"m_eventType": "island",
						"m_filter": 0,
						"m_imageID": 107,
						"m_inheritAssetFilter": "true",
						"m_isArtFlipped": "",
						"m_isChallengeType": "false",
						"m_levelNodeType": "",
						"m_name": "",
						"m_parallaxLayer": 0,
						"m_parentEvent": "",
						"m_position": {
							"x": 2568,
							"y": 415
						},
						"m_rotationAngle": 0,
						"m_rotationRate": 0,
						"m_scaleX": 1.2,
						"m_scaleY": 1.2,
						"m_toggleName": "",
						"m_unlockedFrom": "",
						"m_unlockedNarrationID": "",
						"m_visibleFrom": "",
						"m_worldMapTutorial": "",
						"m_worldMapTutorialVisibleWhen": ""
					},
					{
						"m_completedNarrationID": "",
						"m_cost": 0,
						"m_dataString": "",
						"m_displayText": "",
						"m_drawLayer": 0,
						"m_eventId": "",
						"m_eventSubType": "",
						"m_eventType": "island",
						"m_filter": 0,
						"m_imageID": 12,
						"m_inheritAssetFilter": "true",
						"m_isArtFlipped": "",
						"m_isChallengeType": "false",
						"m_levelNodeType": "",
						"m_name": "",
						"m_parallaxLayer": 0,
						"m_parentEvent": "",
						"m_position": {
							"x": 2575,
							"y": 277
						},
						"m_rotationAngle": 0,
						"m_rotationRate": 0,
						"m_scaleX": 1,
						"m_scaleY": 1,
						"m_toggleName": "",
						"m_unlockedFrom": "",
						"m_unlockedNarrationID": "",
						"m_visibleFrom": "",
						"m_worldMapTutorial": "",
						"m_worldMapTutorialVisibleWhen": ""
					},
					{
						"m_completedNarrationID": "",
						"m_cost": 0,
						"m_dataString": "",
						"m_displayText": "",
						"m_drawLayer": -1,
						"m_eventId": "",
						"m_eventSubType": "",
						"m_eventType": "island",
						"m_filter": 0,
						"m_imageID": 107,
						"m_inheritAssetFilter": "true",
						"m_isArtFlipped": "",
						"m_isChallengeType": "false",
						"m_levelNodeType": "",
						"m_name": "",
						"m_parallaxLayer": 0,
						"m_parentEvent": "",
						"m_position": {
							"x": 2843,
							"y": 405
						},
						"m_rotationAngle": 0,
						"m_rotationRate": 0,
						"m_scaleX": 1.2,
						"m_scaleY": 1.2,
						"m_toggleName": "",
						"m_unlockedFrom": "",
						"m_unlockedNarrationID": "",
						"m_visibleFrom": "",
						"m_worldMapTutorial": "",
						"m_worldMapTutorialVisibleWhen": ""
					},
					{
						"m_completedNarrationID": "",
						"m_cost": 0,
						"m_dataString": "",
						"m_displayText": "",
						"m_drawLayer": 0,
						"m_eventId": "",
						"m_eventSubType": "",
						"m_eventType": "island",
						"m_filter": 0,
						"m_imageID": 12,
						"m_inheritAssetFilter": "true",
						"m_isArtFlipped": "",
						"m_isChallengeType": "false",
						"m_levelNodeType": "",
						"m_name": "",
						"m_parallaxLayer": 0,
						"m_parentEvent": "",
						"m_position": {
							"x": 2850,
							"y": 267
						},
						"m_rotationAngle": 0,
						"m_rotationRate": 0,
						"m_scaleX": 1,
						"m_scaleY": 1,
						"m_toggleName": "",
						"m_unlockedFrom": "",
						"m_unlockedNarrationID": "",
						"m_visibleFrom": "",
						"m_worldMapTutorial": "",
						"m_worldMapTutorialVisibleWhen": ""
					},
					{
						"m_completedNarrationID": "",
						"m_cost": 0,
						"m_dataString": "",
						"m_displayText": "",
						"m_drawLayer": -1,
						"m_eventId": "",
						"m_eventSubType": "",
						"m_eventType": "island",
						"m_filter": 0,
						"m_imageID": 107,
						"m_inheritAssetFilter": "true",
						"m_isArtFlipped": "",
						"m_isChallengeType": "false",
						"m_levelNodeType": "",
						"m_name": "",
						"m_parallaxLayer": 0,
						"m_parentEvent": "",
						"m_position": {
							"x": 3118,
							"y": 415
						},
						"m_rotationAngle": 0,
						"m_rotationRate": 0,
						"m_scaleX": 1.2,
						"m_scaleY": 1.2,
						"m_toggleName": "",
						"m_unlockedFrom": "",
						"m_unlockedNarrationID": "",
						"m_visibleFrom": "",
						"m_worldMapTutorial": "",
						"m_worldMapTutorialVisibleWhen": ""
					},
					{
						"m_completedNarrationID": "",
						"m_cost": 0,
						"m_dataString": "",
						"m_displayText": "",
						"m_drawLayer": 0,
						"m_eventId": "",
						"m_eventSubType": "",
						"m_eventType": "island",
						"m_filter": 0,
						"m_imageID": 12,
						"m_inheritAssetFilter": "true",
						"m_isArtFlipped": "",
						"m_isChallengeType": "false",
						"m_levelNodeType": "",
						"m_name": "",
						"m_parallaxLayer": 0,
						"m_parentEvent": "",
						"m_position": {
							"x": 3125,
							"y": 277
						},
						"m_rotationAngle": 0,
						"m_rotationRate": 0,
						"m_scaleX": 1,
						"m_scaleY": 1,
						"m_toggleName": "",
						"m_unlockedFrom": "",
						"m_unlockedNarrationID": "",
						"m_visibleFrom": "",
						"m_worldMapTutorial": "",
						"m_worldMapTutorialVisibleWhen": ""
					},
					{
						"m_completedNarrationID": "",
						"m_cost": 0,
						"m_dataString": "",
						"m_displayText": "",
						"m_drawLayer": -1,
						"m_eventId": "",
						"m_eventSubType": "",
						"m_eventType": "island",
						"m_filter": 0,
						"m_imageID": 107,
						"m_inheritAssetFilter": "true",
						"m_isArtFlipped": "",
						"m_isChallengeType": "false",
						"m_levelNodeType": "",
						"m_name": "",
						"m_parallaxLayer": 0,
						"m_parentEvent": "",
						"m_position": {
							"x": 3393,
							"y": 415
						},
						"m_rotationAngle": 0,
						"m_rotationRate": 0,
						"m_scaleX": 1.2,
						"m_scaleY": 1.2,
						"m_toggleName": "",
						"m_unlockedFrom": "",
						"m_unlockedNarrationID": "",
						"m_visibleFrom": "",
						"m_worldMapTutorial": "",
						"m_worldMapTutorialVisibleWhen": ""
					},
					{
						"m_completedNarrationID": "",
						"m_cost": 0,
						"m_dataString": "",
						"m_displayText": "",
						"m_drawLayer": 0,
						"m_eventId": "",
						"m_eventSubType": "",
						"m_eventType": "island",
						"m_filter": 0,
						"m_imageID": 12,
						"m_inheritAssetFilter": "true",
						"m_isArtFlipped": "",
						"m_isChallengeType": "false",
						"m_levelNodeType": "",
						"m_name": "",
						"m_parallaxLayer": 0,
						"m_parentEvent": "",
						"m_position": {
							"x": 3400,
							"y": 277
						},
						"m_rotationAngle": 0,
						"m_rotationRate": 0,
						"m_scaleX": 1,
						"m_scaleY": 1,
						"m_toggleName": "",
						"m_unlockedFrom": "",
						"m_unlockedNarrationID": "",
						"m_visibleFrom": "",
						"m_worldMapTutorial": "",
						"m_worldMapTutorialVisibleWhen": ""
					},
					{
						"m_completedNarrationID": "",
						"m_cost": 0,
						"m_dataString": "",
						"m_displayText": "",
						"m_drawLayer": -1,
						"m_eventId": "",
						"m_eventSubType": "",
						"m_eventType": "island",
						"m_filter": 0,
						"m_imageID": 107,
						"m_inheritAssetFilter": "true",
						"m_isArtFlipped": "",
						"m_isChallengeType": "false",
						"m_levelNodeType": "",
						"m_name": "",
						"m_parallaxLayer": 0,
						"m_parentEvent": "",
						"m_position": {
							"x": 3668,
							"y": 415
						},
						"m_rotationAngle": 0,
						"m_rotationRate": 0,
						"m_scaleX": 1.2,
						"m_scaleY": 1.2,
						"m_toggleName": "",
						"m_unlockedFrom": "",
						"m_unlockedNarrationID": "",
						"m_visibleFrom": "",
						"m_worldMapTutorial": "",
						"m_worldMapTutorialVisibleWhen": ""
					},
					{
						"m_completedNarrationID": "",
						"m_cost": 0,
						"m_dataString": "",
						"m_displayText": "",
						"m_drawLayer": 0,
						"m_eventId": "",
						"m_eventSubType": "",
						"m_eventType": "island",
						"m_filter": 0,
						"m_imageID": 12,
						"m_inheritAssetFilter": "true",
						"m_isArtFlipped": "",
						"m_isChallengeType": "false",
						"m_levelNodeType": "",
						"m_name": "",
						"m_parallaxLayer": 0,
						"m_parentEvent": "",
						"m_position": {
							"x": 3675,
							"y": 277
						},
						"m_rotationAngle": 0,
						"m_rotationRate": 0,
						"m_scaleX": 1,
						"m_scaleY": 1,
						"m_toggleName": "",
						"m_unlockedFrom": "",
						"m_unlockedNarrationID": "",
						"m_visibleFrom": "",
						"m_worldMapTutorial": "",
						"m_worldMapTutorialVisibleWhen": ""
					},
					{
						"m_completedNarrationID": "",
						"m_cost": 0,
						"m_dataString": "",
						"m_displayText": "",
						"m_drawLayer": -1,
						"m_eventId": "",
						"m_eventSubType": "",
						"m_eventType": "island",
						"m_filter": 0,
						"m_imageID": 107,
						"m_inheritAssetFilter": "true",
						"m_isArtFlipped": "",
						"m_isChallengeType": "false",
						"m_levelNodeType": "",
						"m_name": "",
						"m_parallaxLayer": 0,
						"m_parentEvent": "",
						"m_position": {
							"x": 3943,
							"y": 405
						},
						"m_rotationAngle": 0,
						"m_rotationRate": 0,
						"m_scaleX": 1.2,
						"m_scaleY": 1.2,
						"m_toggleName": "",
						"m_unlockedFrom": "",
						"m_unlockedNarrationID": "",
						"m_visibleFrom": "",
						"m_worldMapTutorial": "",
						"m_worldMapTutorialVisibleWhen": ""
					},
					{
						"m_completedNarrationID": "",
						"m_cost": 0,
						"m_dataString": "",
						"m_displayText": "",
						"m_drawLayer": 0,
						"m_eventId": "",
						"m_eventSubType": "",
						"m_eventType": "island",
						"m_filter": 0,
						"m_imageID": 12,
						"m_inheritAssetFilter": "true",
						"m_isArtFlipped": "",
						"m_isChallengeType": "false",
						"m_levelNodeType": "",
						"m_name": "",
						"m_parallaxLayer": 0,
						"m_parentEvent": "",
						"m_position": {
							"x": 3950,
							"y": 267
						},
						"m_rotationAngle": 0,
						"m_rotationRate": 0,
						"m_scaleX": 1,
						"m_scaleY": 1,
						"m_toggleName": "",
						"m_unlockedFrom": "",
						"m_unlockedNarrationID": "",
						"m_visibleFrom": "",
						"m_worldMapTutorial": "",
						"m_worldMapTutorialVisibleWhen": ""
					},
					{
						"m_completedNarrationID": "",
						"m_cost": 0,
						"m_dataString": "",
						"m_displayText": "",
						"m_drawLayer": -1,
						"m_eventId": "",
						"m_eventSubType": "",
						"m_eventType": "island",
						"m_filter": 0,
						"m_imageID": 107,
						"m_inheritAssetFilter": "true",
						"m_isArtFlipped": "",
						"m_isChallengeType": "false",
						"m_levelNodeType": "",
						"m_name": "",
						"m_parallaxLayer": 0,
						"m_parentEvent": "",
						"m_position": {
							"x": 4218,
							"y": 415
						},
						"m_rotationAngle": 0,
						"m_rotationRate": 0,
						"m_scaleX": 1.2,
						"m_scaleY": 1.2,
						"m_toggleName": "",
						"m_unlockedFrom": "",
						"m_unlockedNarrationID": "",
						"m_visibleFrom": "",
						"m_worldMapTutorial": "",
						"m_worldMapTutorialVisibleWhen": ""
					},
					{
						"m_completedNarrationID": "",
						"m_cost": 0,
						"m_dataString": "",
						"m_displayText": "",
						"m_drawLayer": 0,
						"m_eventId": "",
						"m_eventSubType": "",
						"m_eventType": "island",
						"m_filter": 0,
						"m_imageID": 12,
						"m_inheritAssetFilter": "true",
						"m_isArtFlipped": "",
						"m_isChallengeType": "false",
						"m_levelNodeType": "",
						"m_name": "",
						"m_parallaxLayer": 0,
						"m_parentEvent": "",
						"m_position": {
							"x": 4225,
							"y": 277
						},
						"m_rotationAngle": 0,
						"m_rotationRate": 0,
						"m_scaleX": 1,
						"m_scaleY": 1,
						"m_toggleName": "",
						"m_unlockedFrom": "",
						"m_unlockedNarrationID": "",
						"m_visibleFrom": "",
						"m_worldMapTutorial": "",
						"m_worldMapTutorialVisibleWhen": ""
					},
					{
						"m_completedNarrationID": "",
						"m_cost": 0,
						"m_dataString": "",
						"m_displayText": "",
						"m_drawLayer": -1,
						"m_eventId": "",
						"m_eventSubType": "",
						"m_eventType": "island",
						"m_filter": 0,
						"m_imageID": 107,
						"m_inheritAssetFilter": "true",
						"m_isArtFlipped": "",
						"m_isChallengeType": "false",
						"m_levelNodeType": "",
						"m_name": "",
						"m_parallaxLayer": 0,
						"m_parentEvent": "",
						"m_position": {
							"x": 4493,
							"y": 415
						},
						"m_rotationAngle": 0,
						"m_rotationRate": 0,
						"m_scaleX": 1.2,
						"m_scaleY": 1.2,
						"m_toggleName": "",
						"m_unlockedFrom": "",
						"m_unlockedNarrationID": "",
						"m_visibleFrom": "",
						"m_worldMapTutorial": "",
						"m_worldMapTutorialVisibleWhen": ""
					},
					{
						"m_completedNarrationID": "",
						"m_cost": 0,
						"m_dataString": "",
						"m_displayText": "",
						"m_drawLayer": 0,
						"m_eventId": "",
						"m_eventSubType": "",
						"m_eventType": "island",
						"m_filter": 0,
						"m_imageID": 12,
						"m_inheritAssetFilter": "true",
						"m_isArtFlipped": "",
						"m_isChallengeType": "false",
						"m_levelNodeType": "",
						"m_name": "",
						"m_parallaxLayer": 0,
						"m_parentEvent": "",
						"m_position": {
							"x": 4500,
							"y": 277
						},
						"m_rotationAngle": 0,
						"m_rotationRate": 0,
						"m_scaleX": 1,
						"m_scaleY": 1,
						"m_toggleName": "",
						"m_unlockedFrom": "",
						"m_unlockedNarrationID": "",
						"m_visibleFrom": "",
						"m_worldMapTutorial": "",
						"m_worldMapTutorialVisibleWhen": ""
					},
					{
						"m_completedNarrationID": "",
						"m_cost": 0,
						"m_dataString": "",
						"m_displayText": "",
						"m_drawLayer": -1,
						"m_eventId": "",
						"m_eventSubType": "",
						"m_eventType": "island",
						"m_filter": 0,
						"m_imageID": 107,
						"m_inheritAssetFilter": "true",
						"m_isArtFlipped": "",
						"m_isChallengeType": "false",
						"m_levelNodeType": "",
						"m_name": "",
						"m_parallaxLayer": 0,
						"m_parentEvent": "",
						"m_position": {
							"x": 4768,
							"y": 415
						},
						"m_rotationAngle": 0,
						"m_rotationRate": 0,
						"m_scaleX": 1.2,
						"m_scaleY": 1.2,
						"m_toggleName": "",
						"m_unlockedFrom": "",
						"m_unlockedNarrationID": "",
						"m_visibleFrom": "",
						"m_worldMapTutorial": "",
						"m_worldMapTutorialVisibleWhen": ""
					},
					{
						"m_completedNarrationID": "",
						"m_cost": 0,
						"m_dataString": "",
						"m_displayText": "",
						"m_drawLayer": 0,
						"m_eventId": "",
						"m_eventSubType": "",
						"m_eventType": "island",
						"m_filter": 0,
						"m_imageID": 12,
						"m_inheritAssetFilter": "true",
						"m_isArtFlipped": "",
						"m_isChallengeType": "false",
						"m_levelNodeType": "",
						"m_name": "",
						"m_parallaxLayer": 0,
						"m_parentEvent": "",
						"m_position": {
							"x": 4775,
							"y": 277
						},
						"m_rotationAngle": 0,
						"m_rotationRate": 0,
						"m_scaleX": 1,
						"m_scaleY": 1,
						"m_toggleName": "",
						"m_unlockedFrom": "",
						"m_unlockedNarrationID": "",
						"m_visibleFrom": "",
						"m_worldMapTutorial": "",
						"m_worldMapTutorialVisibleWhen": ""
					},
					{
						"m_completedNarrationID": "",
						"m_cost": 0,
						"m_dataString": "",
						"m_displayText": "",
						"m_drawLayer": -1,
						"m_eventId": "",
						"m_eventSubType": "",
						"m_eventType": "island",
						"m_filter": 0,
						"m_imageID": 107,
						"m_inheritAssetFilter": "true",
						"m_isArtFlipped": "",
						"m_isChallengeType": "false",
						"m_levelNodeType": "",
						"m_name": "",
						"m_parallaxLayer": 0,
						"m_parentEvent": "",
						"m_position": {
							"x": 5043,
							"y": 405
						},
						"m_rotationAngle": 0,
						"m_rotationRate": 0,
						"m_scaleX": 1.2,
						"m_scaleY": 1.2,
						"m_toggleName": "",
						"m_unlockedFrom": "",
						"m_unlockedNarrationID": "",
						"m_visibleFrom": "",
						"m_worldMapTutorial": "",
						"m_worldMapTutorialVisibleWhen": ""
					},
					{
						"m_completedNarrationID": "",
						"m_cost": 0,
						"m_dataString": "",
						"m_displayText": "",
						"m_drawLayer": 0,
						"m_eventId": "",
						"m_eventSubType": "",
						"m_eventType": "island",
						"m_filter": 0,
						"m_imageID": 12,
						"m_inheritAssetFilter": "true",
						"m_isArtFlipped": "",
						"m_isChallengeType": "false",
						"m_levelNodeType": "",
						"m_name": "",
						"m_parallaxLayer": 0,
						"m_parentEvent": "",
						"m_position": {
							"x": 5050,
							"y": 267
						},
						"m_rotationAngle": 0,
						"m_rotationRate": 0,
						"m_scaleX": 1,
						"m_scaleY": 1,
						"m_toggleName": "",
						"m_unlockedFrom": "",
						"m_unlockedNarrationID": "",
						"m_visibleFrom": "",
						"m_worldMapTutorial": "",
						"m_worldMapTutorialVisibleWhen": ""
					},
					{
						"m_completedNarrationID": "",
						"m_cost": 0,
						"m_dataString": "",
						"m_displayText": "",
						"m_drawLayer": -1,
						"m_eventId": "",
						"m_eventSubType": "",
						"m_eventType": "island",
						"m_filter": 0,
						"m_imageID": 107,
						"m_inheritAssetFilter": "true",
						"m_isArtFlipped": "",
						"m_isChallengeType": "false",
						"m_levelNodeType": "",
						"m_name": "",
						"m_parallaxLayer": 0,
						"m_parentEvent": "",
						"m_position": {
							"x": 5318,
							"y": 415
						},
						"m_rotationAngle": 0,
						"m_rotationRate": 0,
						"m_scaleX": 1.2,
						"m_scaleY": 1.2,
						"m_toggleName": "",
						"m_unlockedFrom": "",
						"m_unlockedNarrationID": "",
						"m_visibleFrom": "",
						"m_worldMapTutorial": "",
						"m_worldMapTutorialVisibleWhen": ""
					},
					{
						"m_completedNarrationID": "",
						"m_cost": 0,
						"m_dataString": "",
						"m_displayText": "",
						"m_drawLayer": 0,
						"m_eventId": "",
						"m_eventSubType": "",
						"m_eventType": "island",
						"m_filter": 0,
						"m_imageID": 12,
						"m_inheritAssetFilter": "true",
						"m_isArtFlipped": "",
						"m_isChallengeType": "false",
						"m_levelNodeType": "",
						"m_name": "",
						"m_parallaxLayer": 0,
						"m_parentEvent": "",
						"m_position": {
							"x": 5325,
							"y": 277
						},
						"m_rotationAngle": 0,
						"m_rotationRate": 0,
						"m_scaleX": 1,
						"m_scaleY": 1,
						"m_toggleName": "",
						"m_unlockedFrom": "",
						"m_unlockedNarrationID": "",
						"m_visibleFrom": "",
						"m_worldMapTutorial": "",
						"m_worldMapTutorialVisibleWhen": ""
					},
					{
						"m_completedNarrationID": "",
						"m_cost": 0,
						"m_dataString": "",
						"m_displayText": "",
						"m_drawLayer": -1,
						"m_eventId": "",
						"m_eventSubType": "",
						"m_eventType": "island",
						"m_filter": 0,
						"m_imageID": 107,
						"m_inheritAssetFilter": "true",
						"m_isArtFlipped": "",
						"m_isChallengeType": "false",
						"m_levelNodeType": "",
						"m_name": "",
						"m_parallaxLayer": 0,
						"m_parentEvent": "",
						"m_position": {
							"x": 5593,
							"y": 415
						},
						"m_rotationAngle": 0,
						"m_rotationRate": 0,
						"m_scaleX": 1.2,
						"m_scaleY": 1.2,
						"m_toggleName": "",
						"m_unlockedFrom": "",
						"m_unlockedNarrationID": "",
						"m_visibleFrom": "",
						"m_worldMapTutorial": "",
						"m_worldMapTutorialVisibleWhen": ""
					},
					{
						"m_completedNarrationID": "",
						"m_cost": 0,
						"m_dataString": "",
						"m_displayText": "",
						"m_drawLayer": 0,
						"m_eventId": "",
						"m_eventSubType": "",
						"m_eventType": "island",
						"m_filter": 0,
						"m_imageID": 12,
						"m_inheritAssetFilter": "true",
						"m_isArtFlipped": "",
						"m_isChallengeType": "false",
						"m_levelNodeType": "",
						"m_name": "",
						"m_parallaxLayer": 0,
						"m_parentEvent": "",
						"m_position": {
							"x": 5600,
							"y": 277
						},
						"m_rotationAngle": 0,
						"m_rotationRate": 0,
						"m_scaleX": 1,
						"m_scaleY": 1,
						"m_toggleName": "",
						"m_unlockedFrom": "",
						"m_unlockedNarrationID": "",
						"m_visibleFrom": "",
						"m_worldMapTutorial": "",
						"m_worldMapTutorialVisibleWhen": ""
					},
					{
						"m_completedNarrationID": "",
						"m_cost": 0,
						"m_dataString": "",
						"m_displayText": "",
						"m_drawLayer": -1,
						"m_eventId": "",
						"m_eventSubType": "",
						"m_eventType": "island",
						"m_filter": 0,
						"m_imageID": 107,
						"m_inheritAssetFilter": "true",
						"m_isArtFlipped": "",
						"m_isChallengeType": "false",
						"m_levelNodeType": "",
						"m_name": "",
						"m_parallaxLayer": 0,
						"m_parentEvent": "",
						"m_position": {
							"x": 5868,
							"y": 415
						},
						"m_rotationAngle": 0,
						"m_rotationRate": 0,
						"m_scaleX": 1.2,
						"m_scaleY": 1.2,
						"m_toggleName": "",
						"m_unlockedFrom": "",
						"m_unlockedNarrationID": "",
						"m_visibleFrom": "",
						"m_worldMapTutorial": "",
						"m_worldMapTutorialVisibleWhen": ""
					},
					{
						"m_completedNarrationID": "",
						"m_cost": 0,
						"m_dataString": "",
						"m_displayText": "",
						"m_drawLayer": 0,
						"m_eventId": "",
						"m_eventSubType": "",
						"m_eventType": "island",
						"m_filter": 0,
						"m_imageID": 12,
						"m_inheritAssetFilter": "true",
						"m_isArtFlipped": "",
						"m_isChallengeType": "false",
						"m_levelNodeType": "",
						"m_name": "",
						"m_parallaxLayer": 0,
						"m_parentEvent": "",
						"m_position": {
							"x": 5875,
							"y": 277
						},
						"m_rotationAngle": 0,
						"m_rotationRate": 0,
						"m_scaleX": 1,
						"m_scaleY": 1,
						"m_toggleName": "",
						"m_unlockedFrom": "",
						"m_unlockedNarrationID": "",
						"m_visibleFrom": "",
						"m_worldMapTutorial": "",
						"m_worldMapTutorialVisibleWhen": ""
					},
					{
						"m_completedNarrationID": "",
						"m_cost": 0,
						"m_dataString": "",
						"m_displayText": "",
						"m_drawLayer": -1,
						"m_eventId": "",
						"m_eventSubType": "",
						"m_eventType": "island",
						"m_filter": 0,
						"m_imageID": 107,
						"m_inheritAssetFilter": "true",
						"m_isArtFlipped": "",
						"m_isChallengeType": "false",
						"m_levelNodeType": "",
						"m_name": "",
						"m_parallaxLayer": 0,
						"m_parentEvent": "",
						"m_position": {
							"x": 6143,
							"y": 405
						},
						"m_rotationAngle": 0,
						"m_rotationRate": 0,
						"m_scaleX": 1.2,
						"m_scaleY": 1.2,
						"m_toggleName": "",
						"m_unlockedFrom": "",
						"m_unlockedNarrationID": "",
						"m_visibleFrom": "",
						"m_worldMapTutorial": "",
						"m_worldMapTutorialVisibleWhen": ""
					},
					{
						"m_completedNarrationID": "",
						"m_cost": 0,
						"m_dataString": "",
						"m_displayText": "",
						"m_drawLayer": 0,
						"m_eventId": "",
						"m_eventSubType": "",
						"m_eventType": "island",
						"m_filter": 0,
						"m_imageID": 12,
						"m_inheritAssetFilter": "true",
						"m_isArtFlipped": "",
						"m_isChallengeType": "false",
						"m_levelNodeType": "",
						"m_name": "",
						"m_parallaxLayer": 0,
						"m_parentEvent": "",
						"m_position": {
							"x": 6150,
							"y": 267
						},
						"m_rotationAngle": 0,
						"m_rotationRate": 0,
						"m_scaleX": 1,
						"m_scaleY": 1,
						"m_toggleName": "",
						"m_unlockedFrom": "",
						"m_unlockedNarrationID": "",
						"m_visibleFrom": "",
						"m_worldMapTutorial": "",
						"m_worldMapTutorialVisibleWhen": ""
					},
					{
						"m_completedNarrationID": "",
						"m_cost": 0,
						"m_dataString": "",
						"m_displayText": "",
						"m_drawLayer": -1,
						"m_eventId": "",
						"m_eventSubType": "",
						"m_eventType": "island",
						"m_filter": 0,
						"m_imageID": 107,
						"m_inheritAssetFilter": "true",
						"m_isArtFlipped": "",
						"m_isChallengeType": "false",
						"m_levelNodeType": "",
						"m_name": "",
						"m_parallaxLayer": 0,
						"m_parentEvent": "",
						"m_position": {
							"x": 6418,
							"y": 415
						},
						"m_rotationAngle": 0,
						"m_rotationRate": 0,
						"m_scaleX": 1.2,
						"m_scaleY": 1.2,
						"m_toggleName": "",
						"m_unlockedFrom": "",
						"m_unlockedNarrationID": "",
						"m_visibleFrom": "",
						"m_worldMapTutorial": "",
						"m_worldMapTutorialVisibleWhen": ""
					},
					{
						"m_completedNarrationID": "",
						"m_cost": 0,
						"m_dataString": "",
						"m_displayText": "",
						"m_drawLayer": 0,
						"m_eventId": "",
						"m_eventSubType": "",
						"m_eventType": "island",
						"m_filter": 0,
						"m_imageID": 12,
						"m_inheritAssetFilter": "true",
						"m_isArtFlipped": "",
						"m_isChallengeType": "false",
						"m_levelNodeType": "",
						"m_name": "",
						"m_parallaxLayer": 0,
						"m_parentEvent": "",
						"m_position": {
							"x": 6425,
							"y": 277
						},
						"m_rotationAngle": 0,
						"m_rotationRate": 0,
						"m_scaleX": 1,
						"m_scaleY": 1,
						"m_toggleName": "",
						"m_unlockedFrom": "",
						"m_unlockedNarrationID": "",
						"m_visibleFrom": "",
						"m_worldMapTutorial": "",
						"m_worldMapTutorialVisibleWhen": ""
					},
					{
						"m_completedNarrationID": "",
						"m_cost": 0,
						"m_dataString": "",
						"m_displayText": "0",
						"m_drawLayer": 0,
						"m_eventId": "0",
						"m_eventSubType": "",
						"m_eventType": "island",
						"m_filter": 0,
						"m_imageID": 75,
						"m_inheritAssetFilter": "true",
						"m_isArtFlipped": "",
						"m_isChallengeType": "FALSE",
						"m_levelNodeType": "",
						"m_name": "",
						"m_parallaxLayer": 10,
						"m_parentEvent": "",
						"m_position": {
							"x": 260,
							"y": 115
						},
						"m_rotationAngle": 0,
						"m_rotationRate": 0,
						"m_scaleX": 1,
						"m_scaleY": 1,
						"m_toggleName": "",
						"m_unlockedFrom": "",
						"m_unlockedNarrationID": "",
						"m_visibleFrom": "",
						"m_worldMapTutorial": "",
						"m_worldMapTutorialVisibleWhen": ""
					},
					{
						"m_completedNarrationID": "",
						"m_cost": 0,
						"m_dataString": "",
						"m_displayText": "0",
						"m_drawLayer": 1,
						"m_eventId": "0",
						"m_eventSubType": "",
						"m_eventType": "island",
						"m_filter": 0,
						"m_imageID": 110,
						"m_inheritAssetFilter": "true",
						"m_isArtFlipped": "",
						"m_isChallengeType": "FALSE",
						"m_levelNodeType": "",
						"m_name": "",
						"m_parallaxLayer": 10,
						"m_parentEvent": "",
						"m_position": {
							"x": 257,
							"y": 340
						},
						"m_rotationAngle": 0,
						"m_rotationRate": 0,
						"m_scaleX": 0.5,
						"m_scaleY": 0.5,
						"m_toggleName": "",
						"m_unlockedFrom": "",
						"m_unlockedNarrationID": "",
						"m_visibleFrom": "",
						"m_worldMapTutorial": "",
						"m_worldMapTutorialVisibleWhen": ""
					}
				],
				"m_resGroupID": 24,
				"m_version": 1,
				"m_worldId": 24,
				"m_worldName": "riftfuture"
			},
			"uid": "1.0.0"
		}
	],
	"version": 1
}