{
	"#comment": "Level Of The Day Default",
	"objects": [ {
			"objclass": "LevelDefinition",
			"objdata": {
				"Description": "[PLAYERS_TRIP_TO_RIFT]",
				"LevelMutator": "RTID(LevelMutator@CurrentLevel)",
				"LevelNumber": "",
				"Loot": "RTID(DefaultLoot@LevelModules)",
				"Modules": [ "RTID(FrontLawnMowers@LevelModules)", "RTID(NewWaves@CurrentLevel)", "RTID(DefaultZombieWinCondition@LevelModules)", "RTID(Gravestones@CurrentLevel)", "RTID(ConveyorBelt@CurrentLevel)", "RTID(ZombiesDeadWinCon@LevelModules)", "RTID(StandardRiftIntro@LevelModules)", "RTID(PerkActivator@CurrentLevel)", "RTID(LevelDifficultyScaling@CurrentLevel)" ],
				"Name": "[RIFT_LEVEL_NAME]",
				"NormalPresentTable": "egypt_normal_01",
				"PerksDisabledInLevel": [ "moarscore", "bossbustercannon", "sunbreak", "applyconditionsuncarrier50", "zombieinhibitorballista", "zombieinhibitorgargantuar", "sunbank" ],
				"PerksDisabledPerDifficulty": [ [], [], [] ],
				"RepeatPlayForceToWorldMap": true,
				"ShinyPresentTable": "egypt_shiny_01",
				"StageModule": "RTID(FrontLawnStage@LevelModules)",
				"VictoryModule": "RTID(RiftOutro@LevelModules)"
			}
		}, {
			"aliases": [ "WaveManagerProps" ],
			"objclass": "WaveManagerProperties",
			"objdata": {
				"MaxNextWaveHealthPercentage": 0.9,
				"MinNextWaveHealthPercentage": 0.8,
				"Waves": [ [ "RTID(Wave1@CurrentLevel)" ], [ "RTID(Wave2@CurrentLevel)" ], [ "RTID(Wave3@CurrentLevel)" ], [ "RTID(Wave4@CurrentLevel)" ], [ "RTID(Wave5@CurrentLevel)" ], [ "RTID(Wave6@CurrentLevel)" ], [ "RTID(Wave7@CurrentLevel)" ], [ "RTID(Wave8@CurrentLevel)" ], [ "RTID(Wave9@CurrentLevel)" ] ]
			}
		}, {
			"aliases": [ "Wave1" ],
			"objclass": "SpawnZombiesJitteredWaveActionProps",
			"objdata": {
				"Zombies": [ {
						"Type": "RTID(camel_onehump@ZombieTypes)"
					} ]
			}
		}, {
			"aliases": [ "Wave2" ],
			"objclass": "SpawnZombiesJitteredWaveActionProps",
			"objdata": {
				"AdditionalPlantfood": 1,
				"Zombies": [ {
						"Type": "RTID(camel_onehump@ZombieTypes)"
					} ]
			}
		}, {
			"aliases": [ "Wave3" ],
			"objclass": "SpawnZombiesJitteredWaveActionProps",
			"objdata": {
				"Zombies": [ {
						"Type": "RTID(camel_onehump@ZombieTypes)"
					} ]
			}
		}, {
			"aliases": [ "Wave4" ],
			"objclass": "SpawnZombiesJitteredWaveActionProps",
			"objdata": {
				"AdditionalPlantfood": 1,
				"Zombies": [ {
						"Type": "RTID(zcorp_gargantuar@ZombieTypes)"
					} ]
			}
		}, {
			"aliases": [ "Wave5" ],
			"objclass": "SpawnZombiesJitteredWaveActionProps",
			"objdata": {
				"Zombies": [ {
						"Type": "RTID(camel_onehump@ZombieTypes)"
					} ]
			}
		}, {
			"aliases": [ "Wave6" ],
			"objclass": "SpawnZombiesJitteredWaveActionProps",
			"objdata": {
				"AdditionalPlantfood": 2,
				"Zombies": [ {
						"Type": "RTID(camel_onehump@ZombieTypes)"
					} ]
			}
		}, {
			"aliases": [ "Wave7" ],
			"objclass": "SpawnZombiesJitteredWaveActionProps",
			"objdata": {
				"Zombies": [ {
						"Type": "RTID(camel_onehump@ZombieTypes)"
					} ]
			}
		}, {
			"aliases": [ "Wave8" ],
			"objclass": "SpawnZombiesJitteredWaveActionProps",
			"objdata": {
				"AdditionalPlantfood": 1,
				"Zombies": [ {
						"Type": "RTID(camel_onehump@ZombieTypes)"
					} ]
			}
		}, {
			"aliases": [ "Wave9" ],
			"objclass": "SpawnZombiesJitteredWaveActionProps",
			"objdata": {
				"Zombies": [ {
						"Row": "1",
						"Type": "RTID(zcorp_gargantuar@ZombieTypes)"
					}, {
						"Row": "4",
						"Type": "RTID(zcorp_gargantuar@ZombieTypes)"
					} ]
			}
		}, {
			"aliases": [ "Gravestones" ],
			"objclass": "GravestoneProperties",
			"objdata": {
				"ForceSpawnData": [ {
						"GridX": 7,
						"GridY": 0
					}, {
						"GridX": 5,
						"GridY": 0
					}, {
						"GridX": 7,
						"GridY": 1
					}, {
						"GridX": 5,
						"GridY": 2
					}, {
						"GridX": 7,
						"GridY": 2
					}, {
						"GridX": 6,
						"GridY": 2
					}, {
						"GridX": 5,
						"GridY": 3
					}, {
						"GridX": 8,
						"GridY": 4
					}, {
						"GridX": 4,
						"GridY": 4
					} ]
			}
		}, {
			"aliases": [ "NewWaves" ],
			"objclass": "WaveManagerModuleProperties",
			"objdata": {
				"WaveManagerProps": "RTID(WaveManagerProps@CurrentLevel)",
				"DynamicZombies": [ {}, {}, {}, {
						"PointIncrementPerWave": 300,
						"StartingPoints": 600,
						"StartingWave": 1,
						"ZombiePool": [ "RTID(tomb_raiser@ZombieTypes)", "RTID(tomb_raiser@ZombieTypes)", "RTID(zcorp@ZombieTypes)", "RTID(zcorp_fem@ZombieTypes)", "RTID(zcorp_armor1@ZombieTypes)", "RTID(zcorp_fem_armor1@ZombieTypes)", "RTID(zcorp_armor2@ZombieTypes)", "RTID(zcorp_fem_armor2@ZombieTypes)" ]
					}, {}, {}, {} ]
			}
		}, {
			"aliases": [ "ConveyorBelt" ],
			"objclass": "ConveyorSeedBankProperties",
			"objdata": {
				"DropDelayConditions": [ {
						"Delay": 3,
						"MaxPackets": 0
					}, {
						"Delay": 6,
						"MaxPackets": 2
					}, {
						"Delay": 9,
						"MaxPackets": 4
					}, {
						"Delay": 12,
						"MaxPackets": 8
					} ],
				"InitialPlantList": [ {
						"PlantType": "repeater",
						"Weight": 100
					}, {
						"MaxCount": 6,
						"MaxWeightFactor": 0.1,
						"MinCount": 3,
						"MinWeightFactor": 3,
						"PlantType": "threepeater",
						"Weight": 30
					}, {
						"MaxCount": 6,
						"MaxWeightFactor": 0,
						"MinCount": 6,
						"MinWeightFactor": 2,
						"PlantType": "torchwood",
						"Weight": 50
					} ],
				"SpeedConditions": [ {
						"MaxPackets": 0,
						"Speed": 100
					} ]
			}
		}, {
			"aliases": [ "PerkActivator" ],
			"objclass": "PerkHandlerModuleProperties",
			"objdata": {}
		}, {
			"aliases": [ "LevelMutator" ],
			"objclass": "LevelMutatorModuleProperties",
			"objdata": {
				"MutatorTables": [ "RTID(MutatorPropsRiftConveyor@LevelMutatorTables)", "RTID(LocalChallengeMutator@CurrentLevel)", "RTID(LocalMainChallengeMutator@CurrentLevel)" ]
			}
		}, {
			"aliases": [ "LocalMainChallengeMutator" ],
			"objclass": "LevelMutatorTableProps",
			"objdata": {
				"Tables": [ {
						"Level": 0,
						"ModuleType": "mainchallenge",
						"Modules": [ "RTID(RiftBeatTheLevelChallenge@LevelModules)" ]
					}, {
						"Level": 1,
						"ModuleType": "mainchallenge",
						"Modules": [ "RTID(RiftBeatTheLevelChallenge@LevelModules)" ]
					}, {
						"Level": 2,
						"ModuleType": "mainchallenge",
						"Modules": [ "RTID(RiftBeatTheLevelChallenge@LevelModules)" ]
					} ]
			}
		}, {
			"aliases": [ "LocalChallengeMutator" ],
			"objclass": "LevelMutatorTableProps",
			"objdata": {
				"Tables": [ {
						"Level": 0,
						"ModuleType": "bonuschallenge",
						"Modules": [ "RTID(ProtectThePlant@CurrentLevel)" ]
					}, {
						"Level": 1,
						"ModuleType": "bonuschallenge",
						"Modules": [ "RTID(ProtectThePlant@CurrentLevel)", "RTID(DestroyGridItems2@CurrentLevel)" ]
					}, {
						"Level": 2,
						"ModuleType": "bonuschallenge",
						"Modules": [ "RTID(ProtectThePlant@CurrentLevel)", "RTID(DestroyGridItems3@CurrentLevel)" ]
					} ]
			}
		}, {
			"aliases": [ "ProtectThePlant" ],
			"objclass": "ProtectThePlantChallengeProperties",
			"objdata": {
				"MustProtectCount": 1,
				"Plants": [ {
						"GridX": 4,
						"GridY": 2,
						"PlantType": "torchwood"
					} ]
			}
		}, {
			"aliases": [ "DestroyGridItems2" ],
			"objclass": "DestroyGridItemsChallengeProps",
			"objdata": {
				"GridItemType": "gravestone",
				"GridItemsToDestroy": 10,
				"ChallengeDescription": "[CHALLENGE_DESTROY_GRAVESTONES]"
			}
		}, {
			"aliases": [ "DestroyGridItems3" ],
			"objclass": "DestroyGridItemsChallengeProps",
			"objdata": {
				"GridItemType": "gravestone",
				"GridItemsToDestroy": 15,
				"ChallengeDescription": "[CHALLENGE_DESTROY_GRAVESTONES]"
			}
		}, {
			"aliases": [ "LevelDifficultyScaling" ],
			"objclass": "LevelDifficultyScalingModuleProperties",
			"objdata": {
				"DifficultyRulesType": "RiftDifficulty",
				"ZombieLevelSwaps": [ {
						"Level": 4,
						"Swaps": [ {
								"From": "RTID(zcorp@ZombieTypes)",
								"To": [ "RTID(zcorp@ZombieTypes)", "RTID(zcorp_fem@ZombieTypes)" ]
							}, {
								"From": "RTID(zcorp_armor1@ZombieTypes)",
								"To": [ "RTID(zcorp_armor1@ZombieTypes)", "RTID(zcorp_fem_armor1@ZombieTypes)" ]
							}, {
								"From": "RTID(zcorp_armor2@ZombieTypes)",
								"To": [ "RTID(zcorp_armor2@ZombieTypes)", "RTID(zcorp_fem_armor2@ZombieTypes)" ]
							} ]
					}, {
						"Level": 7,
						"Swaps": [ {
								"From": "RTID(zcorp@ZombieTypes)",
								"To": [ "RTID(zcorp_armor1@ZombieTypes)", "RTID(zcorp_fem_armor1@ZombieTypes)" ]
							}, {
								"From": "RTID(zcorp_armor1@ZombieTypes)",
								"To": [ "RTID(zcorp_armor2@ZombieTypes)", "RTID(zcorp_fem_armor2@ZombieTypes)" ]
							}, {
								"From": "RTID(zcorp_armor2@ZombieTypes)",
								"To": [ "RTID(zcorp_armor2@ZombieTypes)", "RTID(zcorp_fem_armor2@ZombieTypes)" ]
							} ]
					}, {
						"Level": 10,
						"Swaps": [ {
								"From": "RTID(tutorial@ZombieTypes)",
								"To": [ "RTID(zcorp_armor2@ZombieTypes)", "RTID(zcorp_fem_armor2@ZombieTypes)" ]
							}, {
								"From": "RTID(tutorial_armor1@ZombieTypes)",
								"To": [ "RTID(zcorp_armor2@ZombieTypes)", "RTID(zcorp_fem_armor2@ZombieTypes)" ]
							}, {
								"From": "RTID(tutorial_armor2@ZombieTypes)",
								"To": [ "RTID(zcorp_armor2@ZombieTypes)", "RTID(zcorp_fem_armor2@ZombieTypes)" ]
							} ]
					} ]
			}
		} ],
	"version": 1
}