{
	"#comment": "LOD 050 v1",
	"objects": [ {
			"objclass": "LevelDefinition",
			"objdata": {
				"Description": "[PLAYERS_TRIP_TO_RIFT]",
				"DisablePlantBoosts": false,
				"LevelMutator": "RTID(LevelMutator@CurrentLevel)",
				"LevelNumber": "",
				"DoMusicChanges": false,
				"Loot": "",
				"Modules": [ "RTID(EightiesMowers@LevelModules)", "RTID(NewWaves@CurrentLevel)", "RTID(DefaultZombieWinCondition@LevelModules)", "RTID(Gravestones@CurrentLevel)", "RTID(SeedBank@CurrentLevel)", "RTID(ZombiesDeadWinCon@LevelModules)", "RTID(LastStand@CurrentLevel)", "RTID(PerkActivator@CurrentLevel)", "RTID(LevelDifficultyScaling@CurrentLevel)" ],
				"Name": "[RIFT_LEVEL_NAME]",
				"NormalPresentTable": "egypt_normal_01",
				"PerksDisabledInLevel": [ "moarscore", "bossbustercannon" ],
				"PerksDisabledPerDifficulty": [ [], [], [] ],
				"ShinyPresentTable": "egypt_shiny_01",
				"StageModule": "RTID(EightiesStage@LevelModules)",
				"VictoryModule": "RTID(RiftOutro@LevelModules)"
			}
		}, {
			"aliases": [ "LastStand" ],
			"objclass": "LastStandMinigameProperties",
			"objdata": {
				"PreSeedchooserFlow": "rift",
				"StartingPlantfood": 0,
				"StartingSun": 2000
			}
		}, {
			"aliases": [ "SeedBank" ],
			"objclass": "SeedBankProperties",
			"objdata": {
				"ExcludeListSunProducers": true,
				"PlantExcludeList": [ "iceburg", "imppear", "puffshroom", "toadstool", "goldleaf", "stallia", "blover", "spearmint", "peppermint", "appeasemint", "enforcemint", "concealmint", "filamint", "wintermint", "bombardmint", "armamint", "ailmint", "reinforcemint", "containmint", "enchantmint" ],
				"SelectionMethod": "chooser"
			}
		}, {
			"aliases": [ "Gravestones" ],
			"objclass": "GravestoneProperties",
			"objdata": {
				"ForceSpawnData": [ {
						"GridX": 8,
						"GridY": 0
					}, {
						"GridX": 4,
						"GridY": 0
					}, {
						"GridX": 5,
						"GridY": 0
					}, {
						"GridX": 8,
						"GridY": 1
					}, {
						"GridX": 4,
						"GridY": 1
					}, {
						"GridX": 5,
						"GridY": 1
					}, {
						"GridX": 8,
						"GridY": 2
					}, {
						"GridX": 4,
						"GridY": 2
					}, {
						"GridX": 5,
						"GridY": 2
					}, {
						"GridX": 8,
						"GridY": 3
					}, {
						"GridX": 4,
						"GridY": 3
					}, {
						"GridX": 5,
						"GridY": 3
					}, {
						"GridX": 8,
						"GridY": 4
					}, {
						"GridX": 4,
						"GridY": 4
					}, {
						"GridX": 5,
						"GridY": 4
					} ]
			}
		}, {
			"aliases": [ "NewWaves" ],
			"objclass": "WaveManagerModuleProperties",
			"objdata": {
				"DynamicZombies": [ {
						"PointIncrementPerWave": 200,
						"StartingPoints": 100,
						"StartingWave": 0,
						"ZombiePool": [ "RTID(beach_fem@ZombieTypes)", "RTID(iceage_weaselhoarder@ZombieTypes)", "RTID(lostcity_jane@ZombieTypes)", "RTID(zcorp_fem@ZombieTypes)" ]
					}, {
						"PointIncrementPerWave": 200,
						"StartingPoints": 100,
						"StartingWave": 0,
						"ZombiePool": [ "RTID(beach_fem@ZombieTypes)", "RTID(iceage_weaselhoarder@ZombieTypes)", "RTID(lostcity_jane@ZombieTypes)", "RTID(zcorp_fem@ZombieTypes)" ]
					}, {
						"PointIncrementPerWave": 200,
						"StartingPoints": 100,
						"StartingWave": 0,
						"ZombiePool": [ "RTID(beach_fem@ZombieTypes)", "RTID(iceage_weaselhoarder@ZombieTypes)", "RTID(lostcity_jane@ZombieTypes)", "RTID(zcorp_fem@ZombieTypes)" ]
					}, {
						"MaxPoints": 3000,
						"PointIncrementPerWave": 200,
						"StartingPoints": 1000,
						"StartingWave": 0,
						"ZombiePool": [ "RTID(beach_fem@ZombieTypes)", "RTID(iceage_weaselhoarder@ZombieTypes)", "RTID(lostcity_jane@ZombieTypes)", "RTID(zcorp_fem@ZombieTypes)" ]
					}, {
						"PointIncrementPerWave": 200,
						"StartingPoints": 100,
						"StartingWave": 0,
						"ZombiePool": [ "RTID(beach_fem@ZombieTypes)", "RTID(iceage_weaselhoarder@ZombieTypes)", "RTID(lostcity_jane@ZombieTypes)", "RTID(zcorp_fem@ZombieTypes)" ]
					}, {
						"PointIncrementPerWave": 200,
						"StartingPoints": 100,
						"StartingWave": 0,
						"ZombiePool": [ "RTID(iceage_weaselhoarder@ZombieTypes)", "RTID(lostcity_jane@ZombieTypes)", "RTID(zcorp_fem@ZombieTypes)" ]
					}, {
						"PointIncrementPerWave": 200,
						"StartingPoints": 100,
						"StartingWave": 0,
						"ZombiePool": [ "RTID(iceage_weaselhoarder@ZombieTypes)", "RTID(lostcity_jane@ZombieTypes)", "RTID(zcorp_fem@ZombieTypes)" ]
					} ],
				"ManualStartup": true,
				"WaveManagerProps": "RTID(WaveManagerProps@CurrentLevel)"
			}
		}, {
			"aliases": [ "PerkActivator" ],
			"objclass": "PerkHandlerModuleProperties",
			"objdata": {}
		}, {
			"aliases": [ "LevelMutator" ],
			"objclass": "LevelMutatorModuleProperties",
			"objdata": {
				"MutatorTables": [ "RTID(MutatorPropsRiftLastStand@LevelMutatorTables)", "RTID(MutatorGridRiftMold9@LevelMutatorTables)", "RTID(LocalChallengeMutator@CurrentLevel)", "RTID(LocalMainChallengeMutator@CurrentLevel)" ]
			}
		}, {
			"aliases": [ "LocalMainChallengeMutator" ],
			"objclass": "LevelMutatorTableProps",
			"objdata": {
				"Tables": [ {
						"Level": 0,
						"ModuleType": "mainchallenge",
						"Modules": [ "RTID(RiftBeatTheLevelChallenge@LevelModules)" ]
					}, {
						"Level": 1,
						"ModuleType": "mainchallenge",
						"Modules": [ "RTID(RiftBeatTheLevelChallenge@LevelModules)" ]
					}, {
						"Level": 2,
						"ModuleType": "mainchallenge",
						"Modules": [ "RTID(RiftBeatTheLevelChallenge@LevelModules)" ]
					} ]
			}
		}, {
			"aliases": [ "LocalChallengeMutator" ],
			"objclass": "LevelMutatorTableProps",
			"objdata": {
				"Tables": [ {
						"Level": 0,
						"ModuleType": "bonuschallenge",
						"Modules": [ "RTID(PlantsLost1@CurrentLevel)" ]
					}, {
						"Level": 1,
						"ModuleType": "bonuschallenge",
						"Modules": [ "RTID(PlantsLost2@CurrentLevel)", "RTID(SimultaneousPlants2@CurrentLevel)" ]
					}, {
						"Level": 2,
						"ModuleType": "bonuschallenge",
						"Modules": [ "RTID(PlantsLost3@CurrentLevel)", "RTID(SimultaneousPlants3@CurrentLevel)" ]
					} ]
			}
		}, {
			"aliases": [ "PlantsLost1" ],
			"objclass": "StarChallengePlantsLostProps",
			"objdata": {
				"MaximumPlantsLost": 4
			}
		}, {
			"aliases": [ "PlantsLost2" ],
			"objclass": "StarChallengePlantsLostProps",
			"objdata": {
				"MaximumPlantsLost": 2
			}
		}, {
			"aliases": [ "PlantsLost3" ],
			"objclass": "StarChallengePlantsLostProps",
			"objdata": {
				"MaximumPlantsLost": 1
			}
		}, {
			"aliases": [ "SimultaneousPlants2" ],
			"objclass": "StarChallengeSimultaneousPlantsProps",
			"objdata": {
				"MaximumPlants": 18
			}
		}, {
			"aliases": [ "SimultaneousPlants3" ],
			"objclass": "StarChallengeSimultaneousPlantsProps",
			"objdata": {
				"MaximumPlants": 15
			}
		}, {
			"aliases": [ "LevelDifficultyScaling" ],
			"objclass": "LevelDifficultyScalingModuleProperties",
			"objdata": {
				"DifficultyRulesType": "RiftDifficulty",
				"ZombieLevelSwaps": [ {
						"Level": 0,
						"Swaps": [ {
								"From": "RTID(zcorp_fem@ZombieTypes)",
								"To": [ "RTID(zcorp_fem@ZombieTypes)", "RTID(zcorp_fem@ZombieTypes)", "RTID(zcorp_fem_armor1@ZombieTypes)", "RTID(zcorp_fem_armor1@ZombieTypes)", "RTID(zcorp_fem_armor2@ZombieTypes)" ]
							}, {
								"From": "RTID(beach_fem@ZombieTypes)",
								"To": [ "RTID(beach_fem@ZombieTypes)", "RTID(beach_fem@ZombieTypes)", "RTID(beach_fem_armor1@ZombieTypes)", "RTID(beach_fem_armor1@ZombieTypes)", "RTID(beach_fem_armor2@ZombieTypes)" ]
							} ]
					}, {
						"Level": 4,
						"Swaps": [ {
								"From": "RTID(zcorp_fem@ZombieTypes)",
								"To": [ "RTID(zcorp_fem@ZombieTypes)", "RTID(zcorp_fem_armor1@ZombieTypes)", "RTID(zcorp_fem_armor1@ZombieTypes)", "RTID(zcorp_fem_armor2@ZombieTypes)" ]
							}, {
								"From": "RTID(beach_fem@ZombieTypes)",
								"To": [ "RTID(beach_fem@ZombieTypes)", "RTID(beach_fem_armor1@ZombieTypes)", "RTID(beach_fem_armor1@ZombieTypes)", "RTID(beach_fem_armor2@ZombieTypes)" ]
							} ]
					}, {
						"Level": 7,
						"Swaps": [ {
								"From": "RTID(zcorp_fem@ZombieTypes)",
								"To": [ "RTID(zcorp_fem@ZombieTypes)", "RTID(zcorp_fem_armor1@ZombieTypes)", "RTID(zcorp_fem_armor2@ZombieTypes)", "RTID(zcorp_fem_armor2@ZombieTypes)" ]
							}, {
								"From": "RTID(beach_fem@ZombieTypes)",
								"To": [ "RTID(beach_fem@ZombieTypes)", "RTID(beach_fem_armor1@ZombieTypes)", "RTID(beach_fem_armor2@ZombieTypes)", "RTID(beach_fem_armor2@ZombieTypes)" ]
							} ]
					} ]
			}
		}, {
			"aliases": [ "WaveManagerProps" ],
			"objclass": "WaveManagerProperties",
			"objdata": {
				"FlagWaveInterval": 3,
				"LevelJam": "jam_pop",
				"WaveCount": 9,
				"WaveSpendingPointIncrement": 200,
				"WaveSpendingPoints": 150,
				"Waves": [ [ "RTID(Wave1@CurrentLevel)" ], [ "RTID(Wave2@CurrentLevel)" ], [ "RTID(Wave3@CurrentLevel)", "RTID(Wave3StormEvent0@CurrentLevel)" ], [ "RTID(Wave4@CurrentLevel)" ], [ "RTID(Wave5@CurrentLevel)" ], [ "RTID(Wave6@CurrentLevel)", "RTID(Wave6StormEvent0@CurrentLevel)" ], [ "RTID(Wave7@CurrentLevel)" ], [ "RTID(Wave8@CurrentLevel)", "RTID(Wave8StormEvent0@CurrentLevel)" ], [ "RTID(Wave9@CurrentLevel)", "RTID(Wave9StormEvent0@CurrentLevel)" ] ]
			}
		}, {
			"aliases": [ "Wave1" ],
			"objclass": "SpawnZombiesJitteredWaveActionProps",
			"objdata": {
				"AdditionalPlantfood": 1,
				"NotificationEvents": [ "jam_pop" ],
				"Zombies": [ {
						"Type": "RTID(zcorp_fem@ZombieTypes)"
					} ]
			}
		}, {
			"aliases": [ "Wave2" ],
			"objclass": "SpawnZombiesJitteredWaveActionProps",
			"objdata": {
				"AdditionalPlantfood": 0,
				"Zombies": [ {
						"Row": "2",
						"Type": "RTID(eighties_glitter@ZombieTypes)"
					}, {
						"Row": "4",
						"Type": "RTID(eighties_glitter@ZombieTypes)"
					} ]
			}
		}, {
			"aliases": [ "Wave3" ],
			"objclass": "SpawnZombiesJitteredWaveActionProps",
			"objdata": {
				"Zombies": [ {
						"Row": "1",
						"Type": "RTID(eighties_glitter@ZombieTypes)"
					}, {
						"Row": "3",
						"Type": "RTID(eighties_glitter@ZombieTypes)"
					}, {
						"Row": "5",
						"Type": "RTID(eighties_glitter@ZombieTypes)"
					} ]
			}
		}, {
			"aliases": [ "Wave4" ],
			"objclass": "SpawnZombiesJitteredWaveActionProps",
			"objdata": {
				"AdditionalPlantfood": 0,
				"Zombies": [ {
						"Row": "2",
						"Type": "RTID(roman_medusa@ZombieTypes)"
					}, {
						"Row": "4",
						"Type": "RTID(roman_medusa@ZombieTypes)"
					} ]
			}
		}, {
			"aliases": [ "Wave5" ],
			"objclass": "SpawnZombiesJitteredWaveActionProps",
			"objdata": {
				"Zombies": [ {
						"Row": "2",
						"Type": "RTID(eighties_glitter@ZombieTypes)"
					}, {
						"Row": "3",
						"Type": "RTID(eighties_glitter@ZombieTypes)"
					}, {
						"Row": "4",
						"Type": "RTID(eighties_glitter@ZombieTypes)"
					} ]
			}
		}, {
			"aliases": [ "Wave6" ],
			"objclass": "SpawnZombiesJitteredWaveActionProps",
			"objdata": {
				"AdditionalPlantfood": 1,
				"Zombies": [ {
						"Row": "4",
						"Type": "RTID(roman_medusa@ZombieTypes)"
					}, {
						"Row": "2",
						"Type": "RTID(roman_medusa@ZombieTypes)"
					}, {
						"Row": "1",
						"Type": "RTID(eighties_glitter@ZombieTypes)"
					}, {
						"Row": "3",
						"Type": "RTID(eighties_glitter@ZombieTypes)"
					}, {
						"Row": "5",
						"Type": "RTID(eighties_glitter@ZombieTypes)"
					} ]
			}
		}, {
			"aliases": [ "Wave7" ],
			"objclass": "SpawnZombiesJitteredWaveActionProps",
			"objdata": {
				"AdditionalPlantfood": 0,
				"Zombies": [ {
						"Row": "5",
						"Type": "RTID(roman_medusa@ZombieTypes)"
					}, {
						"Row": "1",
						"Type": "RTID(roman_medusa@ZombieTypes)"
					}, {
						"Row": "3",
						"Type": "RTID(roman_medusa@ZombieTypes)"
					} ]
			}
		}, {
			"aliases": [ "Wave8" ],
			"objclass": "SpawnZombiesJitteredWaveActionProps",
			"objdata": {
				"AdditionalPlantfood": 1,
				"Zombies": [ {
						"Row": "2",
						"Type": "RTID(eighties_glitter@ZombieTypes)"
					}, {
						"Row": "3",
						"Type": "RTID(eighties_glitter@ZombieTypes)"
					}, {
						"Row": "3",
						"Type": "RTID(roman_medusa@ZombieTypes)"
					}, {
						"Row": "4",
						"Type": "RTID(eighties_glitter@ZombieTypes)"
					} ]
			}
		}, {
			"aliases": [ "Wave9" ],
			"objclass": "SpawnZombiesJitteredWaveActionProps",
			"objdata": {
				"AdditionalPlantfood": 0,
				"Zombies": [ {
						"Row": "3",
						"Type": "RTID(eighties_glitter@ZombieTypes)"
					}, {
						"Row": "2",
						"Type": "RTID(eighties_glitter@ZombieTypes)"
					}, {
						"Row": "4",
						"Type": "RTID(eighties_glitter@ZombieTypes)"
					}, {
						"Row": "1",
						"Type": "RTID(eighties_glitter@ZombieTypes)"
					}, {
						"Row": "5",
						"Type": "RTID(eighties_glitter@ZombieTypes)"
					}, {
						"Row": "1",
						"Type": "RTID(roman_medusa@ZombieTypes)"
					}, {
						"Row": "5",
						"Type": "RTID(roman_medusa@ZombieTypes)"
					}, {
						"Type": "RTID(zcorp_fem@ZombieTypes)"
					}, {
						"Type": "RTID(zcorp_fem@ZombieTypes)"
					}, {
						"Type": "RTID(zcorp_fem@ZombieTypes)"
					}, {
						"Type": "RTID(zcorp_fem@ZombieTypes)"
					}, {
						"Type": "RTID(zcorp_fem@ZombieTypes)"
					}, {
						"Type": "RTID(zcorp_fem@ZombieTypes)"
					}, {
						"Type": "RTID(zcorp_fem@ZombieTypes)"
					} ]
			}
		}, {
			"aliases": [ "Wave3StormEvent0" ],
			"objclass": "StormZombieSpawnerProps",
			"objdata": {
				"ColumnEnd": 5,
				"ColumnStart": 5,
				"GroupSize": 1,
				"TimeBetweenGroups": 2,
				"Type": "sandstorm",
				"Zombies": [ {
						"Type": "RTID(zcorp_consultant@ZombieTypes)"
					}, {
						"Type": "RTID(zcorp_consultant@ZombieTypes)"
					}, {
						"Type": "RTID(zcorp_consultant@ZombieTypes)"
					} ]
			}
		}, {
			"aliases": [ "Wave6StormEvent0" ],
			"objclass": "StormZombieSpawnerProps",
			"objdata": {
				"ColumnEnd": 5,
				"ColumnStart": 5,
				"GroupSize": 1,
				"TimeBetweenGroups": 2,
				"Type": "sandstorm",
				"Zombies": [ {
						"Type": "RTID(zcorp_consultant@ZombieTypes)"
					}, {
						"Type": "RTID(zcorp_consultant@ZombieTypes)"
					}, {
						"Type": "RTID(zcorp_consultant@ZombieTypes)"
					}, {
						"Type": "RTID(zcorp_consultant@ZombieTypes)"
					} ]
			}
		}, {
			"aliases": [ "Wave8StormEvent0" ],
			"objclass": "StormZombieSpawnerProps",
			"objdata": {
				"ColumnEnd": 5,
				"ColumnStart": 5,
				"GroupSize": 1,
				"TimeBetweenGroups": 2,
				"Type": "sandstorm",
				"Zombies": [ {
						"Type": "RTID(zcorp_consultant@ZombieTypes)"
					}, {
						"Type": "RTID(zcorp_consultant@ZombieTypes)"
					}, {
						"Type": "RTID(zcorp_consultant@ZombieTypes)"
					}, {
						"Type": "RTID(zcorp_consultant@ZombieTypes)"
					} ]
			}
		}, {
			"aliases": [ "Wave9StormEvent0" ],
			"objclass": "StormZombieSpawnerProps",
			"objdata": {
				"ColumnEnd": 5,
				"ColumnStart": 5,
				"GroupSize": 1,
				"TimeBetweenGroups": 1,
				"Type": "sandstorm",
				"Zombies": [ {
						"Type": "RTID(zcorp_consultant@ZombieTypes)"
					}, {
						"Type": "RTID(zcorp_consultant@ZombieTypes)"
					}, {
						"Type": "RTID(zcorp_consultant@ZombieTypes)"
					}, {
						"Type": "RTID(zcorp_consultant@ZombieTypes)"
					} ]
			}
		} ],
	"version": 1
}