{
	"#comment": "LOD 045 v1",
	"objects": [ {
			"objclass": "LevelDefinition",
			"objdata": {
				"Description": "[PLAYERS_TRIP_TO_RIFT]",
				"DisablePlantBoosts": false,
				"LevelMutator": "RTID(LevelMutator@CurrentLevel)",
				"LevelNumber": "",
				"Loot": "",
				"Modules": [ "RTID(DefaultSunDropper@LevelModules)", "RTID(FutureMowers@LevelModules)", "RTID(NewWaves@CurrentLevel)", "RTID(DefaultZombieWinCondition@LevelModules)", "RTID(FutureLinkedTileGroups@CurrentLevel)", "RTID(Gravestones@CurrentLevel)", "RTID(SeedBank@CurrentLevel)", "RTID(ZombiesDeadWinCon@LevelModules)", "RTID(StandardRiftIntro@LevelModules)", "RTID(PerkActivator@CurrentLevel)", "RTID(LevelDifficultyScaling@CurrentLevel)" ],
				"Name": "[RIFT_LEVEL_NAME]",
				"NormalPresentTable": "egypt_normal_01",
				"PerksDisabledInLevel": [ "moarscore", "bossbustercannon" ],
				"PerksDisabledPerDifficulty": [ [], [], [] ],
				"ShinyPresentTable": "egypt_shiny_01",
				"StageModule": "RTID(RiftStageZcorp@LevelModules)",
				"VictoryModule": "RTID(RiftOutro@LevelModules)"
			}
		}, {
			"aliases": [ "Gravestones" ],
			"objclass": "GravestoneProperties",
			"objdata": {}
		}, {
			"aliases": [ "NewWaves" ],
			"objclass": "WaveManagerModuleProperties",
			"objdata": {
				"DynamicZombies": [ {
						"PointIncrementPerWave": 0,
						"StartingPoints": 0,
						"StartingWave": 0,
						"ZombiePool": [ "RTID(zcorp_consultant@ZombieTypes)", "RTID(zcorp_imp@ZombieTypes)" ]
					}, {
						"PointIncrementPerWave": 0,
						"StartingPoints": 0,
						"StartingWave": 0,
						"ZombiePool": [ "RTID(zcorp_consultant@ZombieTypes)", "RTID(zcorp_imp@ZombieTypes)" ]
					}, {
						"PointIncrementPerWave": 0,
						"StartingPoints": 0,
						"StartingWave": 0,
						"ZombiePool": [ "RTID(zcorp_consultant@ZombieTypes)", "RTID(zcorp_imp@ZombieTypes)" ]
					}, {
						"MaxPoints": 1000,
						"PointIncrementPerWave": 50,
						"StartingPoints": 0,
						"StartingWave": 0,
						"ZombiePool": [ "RTID(zcorp_consultant@ZombieTypes)", "RTID(zcorp_imp@ZombieTypes)" ]
					}, {
						"PointIncrementPerWave": 0,
						"StartingPoints": 0,
						"StartingWave": 0,
						"ZombiePool": [ "RTID(zcorp_consultant@ZombieTypes)", "RTID(zcorp_imp@ZombieTypes)" ]
					}, {
						"PointIncrementPerWave": 0,
						"StartingPoints": 0,
						"StartingWave": 0,
						"ZombiePool": [ "RTID(zcorp_consultant@ZombieTypes)", "RTID(zcorp_imp@ZombieTypes)" ]
					}, {
						"PointIncrementPerWave": 0,
						"StartingPoints": 0,
						"StartingWave": 0,
						"ZombiePool": [ "RTID(zcorp_consultant@ZombieTypes)", "RTID(zcorp_imp@ZombieTypes)" ]
					} ],
				"WaveManagerProps": "RTID(WaveManagerProps@CurrentLevel)"
			}
		}, {
			"aliases": [ "SeedBank" ],
			"objclass": "SeedBankProperties",
			"objdata": {
				"ExcludeListSunProducers": false,
				"PlantExcludeList": [],
				"SelectionMethod": "chooser"
			}
		}, {
			"aliases": [ "PerkActivator" ],
			"objclass": "PerkHandlerModuleProperties",
			"objdata": {}
		}, {
			"aliases": [ "LevelMutator" ],
			"objclass": "LevelMutatorModuleProperties",
			"objdata": {
				"MutatorTables": [ "RTID(MutatorPropsRiftNormal@LevelMutatorTables)", "RTID(LocalChallengeMutator@CurrentLevel)", "RTID(LocalMainChallengeMutator@CurrentLevel)" ]
			}
		}, {
			"aliases": [ "LocalMainChallengeMutator" ],
			"objclass": "LevelMutatorTableProps",
			"objdata": {
				"Tables": [ {
						"Level": 0,
						"ModuleType": "mainchallenge",
						"Modules": [ "RTID(RiftBeatTheLevelChallenge@LevelModules)" ]
					}, {
						"Level": 1,
						"ModuleType": "mainchallenge",
						"Modules": [ "RTID(RiftBeatTheLevelChallenge@LevelModules)" ]
					}, {
						"Level": 2,
						"ModuleType": "mainchallenge",
						"Modules": [ "RTID(RiftBeatTheLevelChallenge@LevelModules)" ]
					} ]
			}
		}, {
			"aliases": [ "LocalChallengeMutator" ],
			"objclass": "LevelMutatorTableProps",
			"objdata": {
				"Tables": [ {
						"Level": 0,
						"ModuleType": "bonuschallenge",
						"Modules": [ "RTID(ZombieDistance1@CurrentLevel)" ]
					}, {
						"Level": 1,
						"ModuleType": "bonuschallenge",
						"Modules": [ "RTID(ZombieDistance2@CurrentLevel)", "RTID(SunUsed1@CurrentLevel)" ]
					}, {
						"Level": 2,
						"ModuleType": "bonuschallenge",
						"Modules": [ "RTID(ZombieDistance3@CurrentLevel)", "RTID(SunUsed2@CurrentLevel)" ]
					} ]
			}
		}, {
			"aliases": [ "ZombieDistance1" ],
			"objclass": "StarChallengeZombieDistanceProps",
			"objdata": {
				"TargetDistance": 3
			}
		}, {
			"aliases": [ "ZombieDistance2" ],
			"objclass": "StarChallengeZombieDistanceProps",
			"objdata": {
				"TargetDistance": 3.5
			}
		}, {
			"aliases": [ "ZombieDistance3" ],
			"objclass": "StarChallengeZombieDistanceProps",
			"objdata": {
				"TargetDistance": 4
			}
		}, {
			"aliases": [ "SunUsed1" ],
			"objclass": "StarChallengeSunUsedProps",
			"objdata": {
				"MaximumSun": 3500
			}
		}, {
			"aliases": [ "SunUsed2" ],
			"objclass": "StarChallengeSunUsedProps",
			"objdata": {
				"MaximumSun": 4500
			}
		}, {
			"aliases": [ "LevelDifficultyScaling" ],
			"objclass": "LevelDifficultyScalingModuleProperties",
			"objdata": {
				"DifficultyRulesType": "RiftDifficulty",
				"ZombieLevelSwaps": [ {
						"Level": 0,
						"Swaps": [ {
								"From": "RTID(zcorp@ZombieTypes)",
								"To": [ "RTID(zcorp@ZombieTypes)", "RTID(zcorp_fem@ZombieTypes)" ]
							}, {
								"From": "RTID(zcorp_armor1@ZombieTypes)",
								"To": [ "RTID(zcorp_armor1@ZombieTypes)", "RTID(zcorp_fem_armor1@ZombieTypes)", "RTID(zcorp@ZombieTypes)", "RTID(zcorp_fem@ZombieTypes)" ]
							}, {
								"From": "RTID(zcorp_armor2@ZombieTypes)",
								"To": [ "RTID(zcorp_armor2@ZombieTypes)", "RTID(zcorp_fem_armor2@ZombieTypes)", "RTID(zcorp_armor1@ZombieTypes)", "RTID(zcorp_fem_armor1@ZombieTypes)" ]
							} ]
					}, {
						"Level": 4,
						"Swaps": [ {
								"From": "RTID(zcorp@ZombieTypes)",
								"To": [ "RTID(zcorp@ZombieTypes)", "RTID(zcorp_fem@ZombieTypes)" ]
							}, {
								"From": "RTID(zcorp_armor1@ZombieTypes)",
								"To": [ "RTID(zcorp_armor1@ZombieTypes)", "RTID(zcorp_fem_armor1@ZombieTypes)" ]
							}, {
								"From": "RTID(zcorp_armor2@ZombieTypes)",
								"To": [ "RTID(zcorp_armor2@ZombieTypes)", "RTID(zcorp_fem_armor2@ZombieTypes)" ]
							} ]
					}, {
						"Level": 7,
						"Swaps": [ {
								"From": "RTID(zcorp@ZombieTypes)",
								"To": [ "RTID(zcorp_armor1@ZombieTypes)", "RTID(zcorp_fem_armor1@ZombieTypes)", "RTID(zcorp@ZombieTypes)", "RTID(zcorp_fem@ZombieTypes)" ]
							}, {
								"From": "RTID(zcorp_armor1@ZombieTypes)",
								"To": [ "RTID(zcorp_armor2@ZombieTypes)", "RTID(zcorp_fem_armor2@ZombieTypes)", "RTID(zcorp_armor1@ZombieTypes)", "RTID(zcorp_fem_armor1@ZombieTypes)" ]
							}, {
								"From": "RTID(zcorp_armor2@ZombieTypes)",
								"To": [ "RTID(zcorp_armor2@ZombieTypes)", "RTID(zcorp_fem_armor2@ZombieTypes)" ]
							} ]
					} ]
			}
		}, {
			"aliases": [ "FutureLinkedTileGroups" ],
			"objclass": "PowerTileProperties",
			"objdata": {
				"LinkedTiles": [ {
						"Group": "alpha",
						"Location": {
							"mX": 4,
							"mY": 0
						},
						"PropagationDelay": 0.2,
						"PropagationInitialDelay": 2
					}, {
						"Group": "alpha",
						"Location": {
							"mX": 4,
							"mY": 4
						},
						"PropagationDelay": 0.2,
						"PropagationInitialDelay": 2
					}, {
						"Group": "alpha",
						"Location": {
							"mX": 5,
							"mY": 2
						},
						"PropagationDelay": 0.2,
						"PropagationInitialDelay": 2
					} ]
			}
		}, {
			"aliases": [ "WaveManagerProps" ],
			"objclass": "WaveManagerProperties",
			"objdata": {
				"FlagWaveInterval": 3,
				"WaveCount": 9,
				"WaveSpendingPointIncrement": 100,
				"WaveSpendingPoints": 150,
				"Waves": [ [ "RTID(Wave1@CurrentLevel)" ], [ "RTID(Wave2@CurrentLevel)" ], [ "RTID(Wave3@CurrentLevel)" ], [ "RTID(Wave4@CurrentLevel)" ], [ "RTID(Wave5@CurrentLevel)" ], [ "RTID(Wave6@CurrentLevel)" ], [ "RTID(Wave7@CurrentLevel)" ], [ "RTID(Wave8@CurrentLevel)" ], [ "RTID(Wave9@CurrentLevel)" ] ]
			}
		}, {
			"aliases": [ "Wave1" ],
			"objclass": "SpawnZombiesJitteredWaveActionProps",
			"objdata": {
				"AdditionalPlantfood": 1,
				"Zombies": [ {
						"Row": "2",
						"Type": "RTID(zcorp@ZombieTypes)"
					} ]
			}
		}, {
			"aliases": [ "Wave2" ],
			"objclass": "SpawnZombiesJitteredWaveActionProps",
			"objdata": {
				"AdditionalPlantfood": 0,
				"Zombies": [ {
						"Row": "4",
						"Type": "RTID(zcorp_racer_chair@ZombieTypes)"
					}, {
						"Row": "2",
						"Type": "RTID(zcorp_racer@ZombieTypes)"
					} ]
			}
		}, {
			"aliases": [ "Wave3" ],
			"objclass": "SpawnZombiesJitteredWaveActionProps",
			"objdata": {
				"Zombies": [ {
						"Row": "3",
						"Type": "RTID(football_mech@ZombieTypes)"
					} ]
			}
		}, {
			"aliases": [ "Wave4" ],
			"objclass": "SpawnZombiesJitteredWaveActionProps",
			"objdata": {
				"AdditionalPlantfood": 0,
				"Zombies": [ {
						"Row": "2",
						"Type": "RTID(zcorp_racer_chair@ZombieTypes)"
					}, {
						"Row": "3",
						"Type": "RTID(zcorp@ZombieTypes)"
					} ]
			}
		}, {
			"aliases": [ "Wave5" ],
			"objclass": "SpawnZombiesJitteredWaveActionProps",
			"objdata": {
				"AdditionalPlantfood": 1,
				"Zombies": [ {
						"Row": "3",
						"Type": "RTID(zcorp_racer_chair@ZombieTypes)"
					}, {
						"Row": "0",
						"Type": "RTID(zcorp_racer_chair@ZombieTypes)"
					}, {
						"Row": "2",
						"Type": "RTID(zcorp@ZombieTypes)"
					} ]
			}
		}, {
			"aliases": [ "Wave6" ],
			"objclass": "SpawnZombiesJitteredWaveActionProps",
			"objdata": {
				"AdditionalPlantfood": 0,
				"Zombies": [ {
						"Row": "0",
						"Type": "RTID(zcorp_racer_chair@ZombieTypes)"
					}, {
						"Row": "1",
						"Type": "RTID(football_mech@ZombieTypes)"
					} ]
			}
		}, {
			"aliases": [ "Wave7" ],
			"objclass": "SpawnZombiesJitteredWaveActionProps",
			"objdata": {
				"Zombies": [ {
						"Row": "2",
						"Type": "RTID(zcorp_racer_chair@ZombieTypes)"
					}, {
						"Row": "4",
						"Type": "RTID(zcorp_armor1@ZombieTypes)"
					}, {
						"Row": "2",
						"Type": "RTID(zcorp@ZombieTypes)"
					} ]
			}
		}, {
			"aliases": [ "Wave8" ],
			"objclass": "SpawnZombiesJitteredWaveActionProps",
			"objdata": {
				"AdditionalPlantfood": 0,
				"Zombies": [ {
						"Row": "0",
						"Type": "RTID(zcorp_racer_chair@ZombieTypes)"
					} ]
			}
		}, {
			"aliases": [ "Wave9" ],
			"objclass": "SpawnZombiesJitteredWaveActionProps",
			"objdata": {
				"AdditionalPlantfood": 0,
				"Zombies": [ {
						"Row": "1",
						"Type": "RTID(zcorp_racer_chair@ZombieTypes)"
					}, {
						"Row": "5",
						"Type": "RTID(zcorp@ZombieTypes)"
					}, {
						"Row": "4",
						"Type": "RTID(zcorp@ZombieTypes)"
					}, {
						"Row": "2",
						"Type": "RTID(zcorp_consultant@ZombieTypes)"
					}, {
						"Row": "4",
						"Type": "RTID(zcorp_consultant@ZombieTypes)"
					}, {
						"Row": "5",
						"Type": "RTID(zcorp_racer_chair@ZombieTypes)"
					}, {
						"Row": "4",
						"Type": "RTID(zcorp@ZombieTypes)"
					}, {
						"Row": "3",
						"Type": "RTID(zcorp@ZombieTypes)"
					}, {
						"Row": "2",
						"Type": "RTID(zcorp@ZombieTypes)"
					}, {
						"Row": "1",
						"Type": "RTID(zcorp_armor2@ZombieTypes)"
					} ]
			}
		} ],
	"version": 1
}