{
	"#comment": "LOD 157 - Toadstool",
	"objects": [ {
			"objclass": "LevelDefinition",
			"objdata": {
				"Description": "[PLAYERS_TRIP_TO_RIFT]",
				"LevelNumber": "",
				"LevelMutator": "RTID(LevelMutator@CurrentLevel)",
				"Loot": "RTID(DefaultLoot@LevelModules)",
				"Modules": [ "RTID(LevelEscalationModule@CurrentLevel)", "RTID(FrontLawnMowers@LevelModules)", "RTID(NewWaves@CurrentLevel)", "RTID(DefaultZombieWinCondition@LevelModules)", "RTID(Gravestones@CurrentLevel)", "RTID(SeedBank@CurrentLevel)", "RTID(ZombiesDeadWinCon@LevelModules)", "RTID(FrozenPlantPlacement@CurrentLevel)", "RTID(GoldTiles@CurrentLevel)", "RTID(StandardRiftIntro@LevelModules)", "RTID(PerkActivator@CurrentLevel)", "RTID(LevelDifficultyScaling@CurrentLevel)" ],
				"Name": "[RIFT_LEVEL_NAME]",
				"NormalPresentTable": "egypt_normal_01",
				"PerksDisabledInLevel": [ "moarscore", "bossbustercannon", "zombieinhibitorgargantuar", "zombieinhibitorballista", "utilitybelt_hypnoshroom", "utilitybelt_cherrybomb", "quickdelivery" ],
				"PerksDisabledPerDifficulty": [ [], [], [] ],
				"ShinyPresentTable": "egypt_shiny_01",
				"StageModule": "RTID(RiftStage@LevelModules)",
				"VictoryModule": "RTID(RiftOutro@LevelModules)"
			}
		}, {
			"aliases": [ "FrozenPlantPlacement" ],
			"objclass": "InitialPlantProperties",
			"objdata": {
				"InitialPlantPlacements": [ {
						"GridX": 0,
						"GridY": 0,
						"Level": "-1",
						"TypeName": "sunshroom"
					}, {
						"GridX": 0,
						"GridY": 1,
						"Level": "-1",
						"TypeName": "sunshroom"
					}, {
						"GridX": 0,
						"GridY": 2,
						"Level": "-1",
						"TypeName": "sunshroom"
					}, {
						"GridX": 0,
						"GridY": 3,
						"Level": "-1",
						"TypeName": "sunshroom"
					}, {
						"GridX": 0,
						"GridY": 4,
						"Level": "-1",
						"TypeName": "sunshroom"
					}, {
						"GridX": 1,
						"GridY": 0,
						"Level": "-1",
						"TypeName": "sunshroom"
					}, {
						"GridX": 1,
						"GridY": 1,
						"Level": "-1",
						"TypeName": "sunshroom"
					}, {
						"GridX": 1,
						"GridY": 2,
						"Level": "-1",
						"TypeName": "sunshroom"
					}, {
						"GridX": 1,
						"GridY": 3,
						"Level": "-1",
						"TypeName": "sunshroom"
					}, {
						"GridX": 1,
						"GridY": 4,
						"Level": "-1",
						"TypeName": "sunshroom"
					} ]
			}
		}, {
			"aliases": [ "GoldTiles" ],
			"objclass": "InitialGridItemProperties",
			"objdata": {}
		}, {
			"aliases": [ "SeedBank" ],
			"objclass": "SeedBankProperties",
			"objdata": {
				"PresetPlantList": [ {
						"Level": -1,
						"PlantType": "toadstool"
					}, {
						"Level": -1,
						"PlantType": "coconutcannon"
					}, {
						"Level": -1,
						"PlantType": "wintermelon"
					}, {
						"Level": -1,
						"PlantType": "banana"
					} ],
				"SelectionMethod": "preset"
			}
		}, {
			"aliases": [ "LevelEscalationModule" ],
			"objclass": "LevelEscalationModuleProperties",
			"objdata": {
				"FlagCount": 1,
				"PlantfoodToSpawnCount": 0,
				"PointIncrementPerWave": 0,
				"StartingPoints": 0,
				"WaveManagerProps": "RTID(WaveManagerProps@CurrentLevel)",
				"WavesPerFlag": 12,
				"ZombiePool": []
			}
		}, {
			"aliases": [ "WaveManagerProps" ],
			"objclass": "WaveManagerProperties",
			"objdata": {
				"FlagWaveInterval": 12,
				"MaxNextWaveHealthPercentage": 0.9,
				"MinNextWaveHealthPercentage": 0.8,
				"WaveCount": 12,
				"WaveSpendingPointIncrement": 200,
				"WaveSpendingPoints": 50,
				"Waves": [ [ "RTID(Wave1@CurrentLevel)" ], [ "RTID(Wave2@CurrentLevel)" ], [ "RTID(Wave3@CurrentLevel)" ], [ "RTID(Wave4@CurrentLevel)" ], [ "RTID(Wave5@CurrentLevel)", "RTID(Wave5ParachuteRainEvent0@CurrentLevel)" ], [ "RTID(Wave6@CurrentLevel)" ], [ "RTID(Wave7@CurrentLevel)" ], [ "RTID(Wave8@CurrentLevel)" ], [ "RTID(Wave9@CurrentLevel)" ], [ "RTID(Wave10@CurrentLevel)" ], [ "RTID(Wave11@CurrentLevel)" ], [ "RTID(Wave12@CurrentLevel)", "RTID(Wave12ParachuteRainEvent0@CurrentLevel)" ] ]
			}
		}, {
			"aliases": [ "Wave1" ],
			"objclass": "SpawnZombiesJitteredWaveActionProps",
			"objdata": {
				"AdditionalPlantfood": 1,
				"Zombies": [ {
						"Type": "RTID(zcorp@ZombieTypes)"
					} ]
			}
		}, {
			"aliases": [ "Wave2" ],
			"objclass": "SpawnZombiesJitteredWaveActionProps",
			"objdata": {
				"AdditionalPlantfood": 1,
				"Zombies": [ {
						"Type": "RTID(zcorp@ZombieTypes)"
					}, {
						"Type": "RTID(zcorp@ZombieTypes)"
					} ]
			}
		}, {
			"aliases": [ "Wave3" ],
			"objclass": "SpawnZombiesJitteredWaveActionProps",
			"objdata": {
				"AdditionalPlantfood": 0,
				"Zombies": [ {
						"Type": "RTID(zcorp@ZombieTypes)"
					}, {
						"Type": "RTID(zcorp@ZombieTypes)"
					}, {
						"Type": "RTID(zcorp@ZombieTypes)"
					} ]
			}
		}, {
			"aliases": [ "Wave4" ],
			"objclass": "SpawnZombiesJitteredWaveActionProps",
			"objdata": {
				"Zombies": [ {
						"Type": "RTID(swashbuckler@ZombieTypes)"
					}, {
						"Type": "RTID(swashbuckler@ZombieTypes)"
					}, {
						"Type": "RTID(swashbuckler@ZombieTypes)"
					} ]
			}
		}, {
			"aliases": [ "Wave5" ],
			"objclass": "SpawnZombiesJitteredWaveActionProps",
			"objdata": {
				"AdditionalPlantfood": 1,
				"Zombies": [ {
						"Type": "RTID(zcorp@ZombieTypes)"
					} ]
			}
		}, {
			"aliases": [ "Wave6" ],
			"objclass": "SpawnZombiesJitteredWaveActionProps",
			"objdata": {
				"AdditionalPlantfood": 1,
				"Zombies": [ {
						"Type": "RTID(lostcity_bug@ZombieTypes)"
					}, {
						"Type": "RTID(lostcity_bug@ZombieTypes)"
					} ]
			}
		}, {
			"aliases": [ "Wave7" ],
			"objclass": "SpawnZombiesJitteredWaveActionProps",
			"objdata": {
				"AdditionalPlantfood": 0,
				"Zombies": [ {
						"Type": "RTID(zcorp@ZombieTypes)"
					} ]
			}
		}, {
			"aliases": [ "Wave8" ],
			"objclass": "SpawnZombiesJitteredWaveActionProps",
			"objdata": {
				"Zombies": [ {
						"Type": "RTID(swashbuckler@ZombieTypes)"
					}, {
						"Type": "RTID(swashbuckler@ZombieTypes)"
					}, {
						"Type": "RTID(swashbuckler@ZombieTypes)"
					}, {
						"Type": "RTID(zcorp@ZombieTypes)"
					} ]
			}
		}, {
			"aliases": [ "Wave9" ],
			"objclass": "SpawnZombiesJitteredWaveActionProps",
			"objdata": {
				"Zombies": [ {
						"Type": "RTID(disco_mech@ZombieTypes)"
					} ]
			}
		}, {
			"aliases": [ "Wave10" ],
			"objclass": "SpawnZombiesJitteredWaveActionProps",
			"objdata": {
				"AdditionalPlantfood": 1,
				"Zombies": [ {
						"Row": "1",
						"Type": "RTID(lostcity_bug@ZombieTypes)"
					}, {
						"Row": "2",
						"Type": "RTID(lostcity_bug@ZombieTypes)"
					}, {
						"Row": "3",
						"Type": "RTID(lostcity_bug@ZombieTypes)"
					}, {
						"Row": "4",
						"Type": "RTID(lostcity_bug@ZombieTypes)"
					}, {
						"Row": "5",
						"Type": "RTID(lostcity_bug@ZombieTypes)"
					} ]
			}
		}, {
			"aliases": [ "Gravestones" ],
			"objclass": "GravestoneProperties",
			"objdata": {}
		}, {
			"aliases": [ "NewWaves" ],
			"objclass": "WaveManagerModuleProperties",
			"objdata": {
				"DynamicZombies": [ {}, {}, {}, {}, {}, {}, {} ]
			}
		}, {
			"aliases": [ "Wave11" ],
			"objclass": "SpawnZombiesJitteredWaveActionProps",
			"objdata": {
				"Zombies": [ {
						"Type": "RTID(disco_mech@ZombieTypes)"
					} ]
			}
		}, {
			"aliases": [ "Wave12" ],
			"objclass": "SpawnZombiesJitteredWaveActionProps",
			"objdata": {
				"Zombies": [ {
						"Type": "RTID(football_mech@ZombieTypes)"
					} ]
			}
		}, {
			"aliases": [ "Wave5ParachuteRainEvent0" ],
			"objclass": "ParachuteRainZombieSpawnerProps",
			"objdata": {
				"ColumnEnd": "8",
				"ColumnStart": "4",
				"GroupSize": "2",
				"SpiderCount": "4",
				"SpiderZombieName": "lostcity_lostpilot",
				"TimeBeforeFullSpawn": "1",
				"TimeBetweenGroups": "0.2",
				"WaveStartMessage": "[WARNING_PARACHUTERAIN]",
				"ZombieFallTime": "1.5"
			}
		}, {
			"aliases": [ "Wave12ParachuteRainEvent0" ],
			"objclass": "ParachuteRainZombieSpawnerProps",
			"objdata": {
				"ColumnEnd": "8",
				"ColumnStart": "4",
				"GroupSize": "2",
				"SpiderCount": "4",
				"SpiderZombieName": "lostcity_lostpilot",
				"TimeBeforeFullSpawn": "1",
				"TimeBetweenGroups": "0.2",
				"WaveStartMessage": "[WARNING_PARACHUTERAIN]",
				"ZombieFallTime": "1.5"
			}
		}, {
			"aliases": [ "PerkActivator" ],
			"objclass": "PerkHandlerModuleProperties",
			"objdata": {}
		}, {
			"aliases": [ "LevelMutator" ],
			"objclass": "LevelMutatorModuleProperties",
			"objdata": {
				"MutatorTables": [ "RTID(MutatorPropsRiftPresetPlants@LevelMutatorTables)", "RTID(LocalChallengeMutator@CurrentLevel)", "RTID(LocalMainChallengeMutator@CurrentLevel)" ]
			}
		}, {
			"aliases": [ "LocalMainChallengeMutator" ],
			"objclass": "LevelMutatorTableProps",
			"objdata": {
				"Tables": [ {
						"Level": 0,
						"ModuleType": "mainchallenge",
						"Modules": [ "RTID(RiftBeatTheLevelChallenge@LevelModules)" ]
					}, {
						"Level": 1,
						"ModuleType": "mainchallenge",
						"Modules": [ "RTID(RiftBeatTheLevelChallenge@LevelModules)" ]
					}, {
						"Level": 2,
						"ModuleType": "mainchallenge",
						"Modules": [ "RTID(RiftBeatTheLevelChallenge@LevelModules)" ]
					} ]
			}
		}, {
			"aliases": [ "LocalChallengeMutator" ],
			"objclass": "LevelMutatorTableProps",
			"objdata": {
				"Tables": [ {
						"Level": 0,
						"ModuleType": "bonuschallenge",
						"Modules": [ "RTID(SunProduced1@CurrentLevel)" ]
					}, {
						"Level": 1,
						"ModuleType": "bonuschallenge",
						"Modules": [ "RTID(SunProduced2@CurrentLevel)", "RTID(ApplyZombieConditions2@CurrentLevel)" ]
					}, {
						"Level": 2,
						"ModuleType": "bonuschallenge",
						"Modules": [ "RTID(SunProduced3@CurrentLevel)", "RTID(ApplyZombieConditions3@CurrentLevel)" ]
					} ]
			}
		}, {
			"aliases": [ "SunProduced1" ],
			"objclass": "StarChallengeSunProducedProps",
			"objdata": {
				"TargetSun": 5000
			}
		}, {
			"aliases": [ "SunProduced2" ],
			"objclass": "StarChallengeSunProducedProps",
			"objdata": {
				"TargetSun": 7500
			}
		}, {
			"aliases": [ "SunProduced3" ],
			"objclass": "StarChallengeSunProducedProps",
			"objdata": {
				"TargetSun": 10000
			}
		}, {
			"aliases": [ "ApplyZombieConditions2" ],
			"objclass": "ApplyZombieConditionsChallengeProps",
			"objdata": {
				"ConditionToInflict": [ "chill" ],
				"NumZombieConditionsToApply": 50
			}
		}, {
			"aliases": [ "ApplyZombieConditions3" ],
			"objclass": "ApplyZombieConditionsChallengeProps",
			"objdata": {
				"ConditionToInflict": [ "chill" ],
				"NumZombieConditionsToApply": 80
			}
		}, {
			"aliases": [ "LevelDifficultyScaling" ],
			"objclass": "LevelDifficultyScalingModuleProperties",
			"objdata": {
				"DifficultyRulesType": "RiftDifficulty",
				"ZombieLevelSwaps": [ {
						"Level": 4,
						"Swaps": [ {
								"From": "RTID(zcorp@ZombieTypes)",
								"To": [ "RTID(zcorp@ZombieTypes)", "RTID(zcorp_fem@ZombieTypes)" ]
							}, {
								"From": "RTID(zcorp_armor1@ZombieTypes)",
								"To": [ "RTID(zcorp_armor1@ZombieTypes)", "RTID(zcorp_fem_armor1@ZombieTypes)" ]
							}, {
								"From": "RTID(zcorp_armor2@ZombieTypes)",
								"To": [ "RTID(zcorp_armor2@ZombieTypes)", "RTID(zcorp_fem_armor2@ZombieTypes)" ]
							} ]
					}, {
						"Level": 7,
						"Swaps": [ {
								"From": "RTID(zcorp@ZombieTypes)",
								"To": [ "RTID(zcorp_armor1@ZombieTypes)", "RTID(zcorp_fem_armor1@ZombieTypes)" ]
							}, {
								"From": "RTID(zcorp_armor1@ZombieTypes)",
								"To": [ "RTID(zcorp_armor2@ZombieTypes)", "RTID(zcorp_fem_armor2@ZombieTypes)" ]
							}, {
								"From": "RTID(zcorp_armor2@ZombieTypes)",
								"To": [ "RTID(zcorp_armor2@ZombieTypes)", "RTID(zcorp_fem_armor2@ZombieTypes)" ]
							} ]
					}, {
						"Level": 10,
						"Swaps": [ {
								"From": "RTID(zcorp@ZombieTypes)",
								"To": [ "RTID(zcorp_armor2@ZombieTypes)", "RTID(zcorp_fem_armor2@ZombieTypes)", "RTID(zcorp_armor2@ZombieTypes)", "RTID(zcorp_fem_armor2@ZombieTypes)", "RTID(football_mech@ZombieTypes)" ]
							}, {
								"From": "RTID(zcorp_armor1@ZombieTypes)",
								"To": [ "RTID(zcorp_armor2@ZombieTypes)", "RTID(zcorp_fem_armor2@ZombieTypes)" ]
							}, {
								"From": "RTID(zcorp_armor2@ZombieTypes)",
								"To": [ "RTID(zcorp_armor2@ZombieTypes)", "RTID(zcorp_fem_armor2@ZombieTypes)" ]
							} ]
					} ]
			}
		} ],
	"version": 1
}