{
	"#comment": "rift pirate 11 v2",
	"objects": [ {
			"objclass": "LevelDefinition",
			"objdata": {
				"Description": "[PLAYERS_TRIP_TO_RIFT]",
				"DisablePlantBoosts": true,
				"LevelMutator": "RTID(LevelMutator@CurrentLevel)",
				"LevelNumber": "",
				"Loot": "",
				"Modules": [ "RTID(CannonMinigame@CurrentLevel)", "RTID(PirateCannonTutorial@CurrentLevel)", "RTID(ZombiesDeadWinCon@LevelModules)", "RTID(ConveyorBelt@CurrentLevel)", "RTID(DefaultZombieWinCondition@LevelModules)", "RTID(NewWaves@CurrentLevel)", "RTID(PerkActivator@CurrentLevel)", "RTID(LevelDifficultyScaling@CurrentLevel)", "RTID(LevelScoring@CurrentLevel)" ],
				"MusicType": "MiniGame_A",
				"Name": "[RIFT_LEVEL_NAME]",
				"NormalPresentTable": "egypt_normal_01",
				"PerksDisabledInLevel": [ "bossbustercannon", "sunbreak", "sunbank", "pennyshield", "utilitybelt_hypnoshroom" ],
				"PerksDisabledPerDifficulty": [ [], [], [] ],
				"ShinyPresentTable": "egypt_shiny_01",
				"StageModule": "RTID(RiftStage@LevelModules)",
				"VictoryModule": "RTID(RiftOutro@LevelModules)"
			}
		}, {
			"aliases": [ "PerkActivator" ],
			"objclass": "PerkHandlerModuleProperties",
			"objdata": {}
		}, {
			"aliases": [ "LevelMutator" ],
			"objclass": "LevelMutatorModuleProperties",
			"objdata": {
				"MutatorTables": [ "RTID(MutatorPropsRiftCannonMinigame@LevelMutatorTables)", "RTID(LocalChallengeMutator@CurrentLevel)", "RTID(LocalMainChallengeMutator@CurrentLevel)" ]
			}
		}, {
			"aliases": [ "NewWaves" ],
			"objclass": "WaveManagerModuleProperties",
			"objdata": {
				"DynamicZombies": [ {
						"PointIncrementPerWave": -1,
						"StartingPoints": -1,
						"StartingWave": 1,
						"ZombiePool": [ "RTID(future_jetpack_veteran@ZombieTypes)", "RTID(roman_healer@ZombieTypes)", "RTID(zcorp@ZombieTypes)", "RTID(zcorp_fem@ZombieTypes)" ]
					}, {
						"PointIncrementPerWave": -1,
						"StartingPoints": -1,
						"StartingWave": 1,
						"ZombiePool": [ "RTID(future_jetpack_veteran@ZombieTypes)", "RTID(roman_healer@ZombieTypes)", "RTID(zcorp@ZombieTypes)", "RTID(zcorp_fem@ZombieTypes)" ]
					}, {
						"PointIncrementPerWave": -1,
						"StartingPoints": -1,
						"StartingWave": 1,
						"ZombiePool": [ "RTID(future_jetpack_veteran@ZombieTypes)", "RTID(roman_healer@ZombieTypes)", "RTID(zcorp@ZombieTypes)", "RTID(zcorp_fem@ZombieTypes)" ]
					}, {
						"MaxPoints": 1500,
						"PointIncrementPerWave": 150,
						"StartingPoints": 450,
						"StartingWave": 3,
						"ZombiePool": [ "RTID(future_jetpack_veteran@ZombieTypes)", "RTID(roman_healer@ZombieTypes)", "RTID(zcorp@ZombieTypes)", "RTID(zcorp_fem@ZombieTypes)" ]
					}, {
						"PointIncrementPerWave": 1,
						"StartingPoints": 1,
						"StartingWave": 1,
						"ZombiePool": [ "RTID(future_jetpack_veteran@ZombieTypes)", "RTID(roman_healer@ZombieTypes)", "RTID(zcorp@ZombieTypes)", "RTID(zcorp_fem@ZombieTypes)" ]
					}, {
						"PointIncrementPerWave": 1,
						"StartingPoints": 1,
						"StartingWave": 1,
						"ZombiePool": [ "RTID(future_jetpack_veteran@ZombieTypes)", "RTID(roman_healer@ZombieTypes)", "RTID(zcorp@ZombieTypes)", "RTID(zcorp_fem@ZombieTypes)" ]
					}, {
						"PointIncrementPerWave": 1,
						"StartingPoints": 1,
						"StartingWave": 1,
						"ZombiePool": [ "RTID(future_jetpack_veteran@ZombieTypes)", "RTID(roman_healer@ZombieTypes)", "RTID(zcorp@ZombieTypes)", "RTID(zcorp_fem@ZombieTypes)" ]
					} ],
				"WaveManagerProps": "RTID(WaveManagerProps@CurrentLevel)"
			}
		}, {
			"aliases": [ "PirateCannonTutorial" ],
			"objclass": "PirateCannonTutorialProperties",
			"objdata": {
				"PreSeedchooserFlow": "rift",
				"ResourceGroupNames": [],
				"ShowTutorial": false
			}
		}, {
			"aliases": [ "LocalMainChallengeMutator" ],
			"objclass": "LevelMutatorTableProps",
			"objdata": {
				"Tables": [ {
						"Level": 0,
						"ModuleType": "mainchallenge",
						"Modules": [ "RTID(BeatTheScore@CurrentLevel)" ]
					}, {
						"Level": 1,
						"ModuleType": "mainchallenge",
						"Modules": [ "RTID(BeatTheScore@CurrentLevel)" ]
					}, {
						"Level": 2,
						"ModuleType": "mainchallenge",
						"Modules": [ "RTID(BeatTheScore@CurrentLevel)" ]
					} ]
			}
		}, {
			"aliases": [ "BeatTheScore" ],
			"objclass": "StarChallengeCannonMinigameProps",
			"objdata": {
				"Description": "[STARCHALLENGE_SCORE_TO_BEAT]",
				"DescriptionFailure": "[STARCHALLENGE_TARGET_SCORE_FAILURE]",
				"DescriptiveName": "[STARCHALLENGE_TARGET_SCORE_NAME]"
			}
		}, {
			"aliases": [ "LocalChallengeMutator" ],
			"objclass": "LevelMutatorTableProps",
			"objdata": {
				"Tables": [ {
						"Level": 0,
						"ModuleType": "bonuschallenge",
						"Modules": [ "RTID(ReachTheScore1@CurrentLevel)" ]
					}, {
						"Level": 1,
						"ModuleType": "bonuschallenge",
						"Modules": [ "RTID(ReachTheScore2@CurrentLevel)", "RTID(DefeatZombiesOfType1@CurrentLevel)" ]
					}, {
						"Level": 2,
						"ModuleType": "bonuschallenge",
						"Modules": [ "RTID(ReachTheScore3@CurrentLevel)", "RTID(DefeatZombiesOfType2@CurrentLevel)" ]
					} ]
			}
		}, {
			"aliases": [ "ReachTheScore1" ],
			"objclass": "StarChallengeTargetScoreProps",
			"objdata": {
				"Description": "[STARCHALLENGE_SCORE_TO_BEAT]",
				"DescriptionFailure": "[STARCHALLENGE_TARGET_SCORE_FAILURE]",
				"DescriptiveName": "[STARCHALLENGE_TARGET_SCORE_NAME]",
				"TargetScore": 350000
			}
		}, {
			"aliases": [ "ReachTheScore2" ],
			"objclass": "StarChallengeTargetScoreProps",
			"objdata": {
				"Description": "[STARCHALLENGE_SCORE_TO_BEAT]",
				"DescriptionFailure": "[STARCHALLENGE_TARGET_SCORE_FAILURE]",
				"DescriptiveName": "[STARCHALLENGE_TARGET_SCORE_NAME]",
				"TargetScore": 750000
			}
		}, {
			"aliases": [ "ReachTheScore3" ],
			"objclass": "StarChallengeTargetScoreProps",
			"objdata": {
				"Description": "[STARCHALLENGE_SCORE_TO_BEAT]",
				"DescriptionFailure": "[STARCHALLENGE_TARGET_SCORE_FAILURE]",
				"DescriptiveName": "[STARCHALLENGE_TARGET_SCORE_NAME]",
				"TargetScore": 1500000
			}
		}, {
			"aliases": [ "DefeatZombiesOfType1" ],
			"objclass": "DefeatZombiesOfTypeChallengeProps",
			"objdata": {
				"Description": "[DEFEAT_X_ZCORPS]",
				"NumZombiesToKill": 10,
				"TypesToKill": {
					"List": [ "zcorp", "zcorp_armor1", "zcorp_armor2", "zcorp_fem", "zcorp_fem_armor1", "zcorp_fem_armor2" ],
					"ListType": "includelist"
				}
			}
		}, {
			"aliases": [ "DefeatZombiesOfType2" ],
			"objclass": "DefeatZombiesOfTypeChallengeProps",
			"objdata": {
				"Description": "[DEFEAT_X_ZCORPS]",
				"NumZombiesToKill": 15,
				"TypesToKill": {
					"List": [ "zcorp", "zcorp_armor1", "zcorp_armor2", "zcorp_fem", "zcorp_fem_armor1", "zcorp_fem_armor2" ],
					"ListType": "includelist"
				}
			}
		}, {
			"aliases": [ "CannonMinigame" ],
			"objclass": "CannonMinigameProperties",
			"objdata": {
				"BaseMovementRate": 100,
				"BaseZombieKillScore": 100,
				"BufferDistance": 50,
				"ComboBrackets": [ {
						"AudioCue": "Play_CrazyDave_Short",
						"Exclamations": [ "[DAVE_CANNONMINIGAME_3_KILLED_1]", "[DAVE_CANNONMINIGAME_3_KILLED_2]", "[DAVE_CANNONMINIGAME_3_KILLED_3]" ],
						"MessageColor": {
							"mAlpha": 255,
							"mBlue": 220,
							"mGreen": 255,
							"mRed": 220
						},
						"ScoreMultiplier": 2,
						"ZombiesKilled": 3
					}, {
						"AudioCue": "Play_CrazyDave_Scream",
						"Exclamations": [ "[DAVE_CANNONMINIGAME_5_KILLED_1]", "[DAVE_CANNONMINIGAME_5_KILLED_2]", "[DAVE_CANNONMINIGAME_5_KILLED_3]" ],
						"MessageColor": {
							"mAlpha": 255,
							"mBlue": 255,
							"mGreen": 220,
							"mRed": 220
						},
						"ScoreMultiplier": 3,
						"ZombiesKilled": 5
					}, {
						"AudioCue": "Play_CrazyDave_Scream2",
						"Exclamations": [ "[DAVE_CANNONMINIGAME_8_KILLED_1]", "[DAVE_CANNONMINIGAME_8_KILLED_2]", "[DAVE_CANNONMINIGAME_8_KILLED_3]" ],
						"MessageColor": {
							"mAlpha": 255,
							"mBlue": 220,
							"mGreen": 240,
							"mRed": 255
						},
						"ScoreMultiplier": 4,
						"ZombiesKilled": 8
					}, {
						"AudioCue": "Play_CrazyDave_Crazy",
						"Exclamations": [ "[DAVE_CANNONMINIGAME_12_KILLED_1]", "[DAVE_CANNONMINIGAME_12_KILLED_2]", "[DAVE_CANNONMINIGAME_12_KILLED_3]" ],
						"MessageColor": {
							"mAlpha": 255,
							"mBlue": 200,
							"mGreen": 200,
							"mRed": 255
						},
						"ScoreMultiplier": 5,
						"ZombiesKilled": 12
					} ],
				"Lanes": [ {
						"SplinePoints": [ {
								"x": 799,
								"y": 95
							}, {
								"x": 552,
								"y": 119
							}, {
								"x": 461,
								"y": 163
							}, {
								"x": 609,
								"y": 200
							}, {
								"x": 453,
								"y": 234
							}, {
								"x": 602,
								"y": 271
							}, {
								"x": 452,
								"y": 317
							}, {
								"x": 596,
								"y": 353
							}, {
								"x": 457,
								"y": 389
							}, {
								"x": 605,
								"y": 426
							}, {
								"x": 460,
								"y": 463
							}, {
								"x": 604,
								"y": 504
							}, {
								"x": 453,
								"y": 539
							}, {
								"x": 799,
								"y": 589
							} ]
					}, {
						"SplinePoints": [ {
								"x": 797,
								"y": 593
							}, {
								"x": 444,
								"y": 535
							}, {
								"x": 597,
								"y": 503
							}, {
								"x": 461,
								"y": 462
							}, {
								"x": 589,
								"y": 427
							}, {
								"x": 463,
								"y": 385
							}, {
								"x": 598,
								"y": 347
							}, {
								"x": 457,
								"y": 323
							}, {
								"x": 606,
								"y": 275
							}, {
								"x": 471,
								"y": 225
							}, {
								"x": 609,
								"y": 192
							}, {
								"x": 468,
								"y": 146
							}, {
								"x": 799,
								"y": 86
							} ]
					}, {
						"SplinePoints": [ {
								"x": 799,
								"y": 338
							}, {
								"x": 507,
								"y": 342
							}, {
								"x": 397,
								"y": 306
							}, {
								"x": 397,
								"y": 207
							}, {
								"x": 428,
								"y": 153
							}, {
								"x": 449,
								"y": 542
							}, {
								"x": 487,
								"y": 157
							}, {
								"x": 521,
								"y": 535
							}, {
								"x": 535,
								"y": 0
							} ]
					}, {
						"SplinePoints": [ {
								"x": 799,
								"y": 341
							}, {
								"x": 482,
								"y": 342
							}, {
								"x": 400,
								"y": 385
							}, {
								"x": 395,
								"y": 470
							}, {
								"x": 417,
								"y": 531
							}, {
								"x": 450,
								"y": 164
							}, {
								"x": 484,
								"y": 530
							}, {
								"x": 518,
								"y": 162
							}, {
								"x": 557,
								"y": 595
							} ]
					}, {
						"SplinePoints": [ {
								"x": 799,
								"y": 0
							}, {
								"x": 542,
								"y": 82
							}, {
								"x": 392,
								"y": 340
							}, {
								"x": 503,
								"y": 534
							}, {
								"x": 617,
								"y": 362
							}, {
								"x": 525,
								"y": 150
							}, {
								"x": 431,
								"y": 350
							}, {
								"x": 507,
								"y": 498
							}, {
								"x": 571,
								"y": 359
							}, {
								"x": 471,
								"y": 0
							} ]
					} ],
				"MaxRewardGold": 50,
				"MinRewardGold": 0,
				"MinScore": 250000,
				"ResourceGroupNames": [],
				"RowHasCannon": [ 1, 1, 1, 1, 1 ],
				"SlowdownMovementRate": 60,
				"UseLevelScoringModule": true
			}
		}, {
			"aliases": [ "WaveManagerProps" ],
			"objclass": "WaveManagerProperties",
			"objdata": {
				"FlagWaveInterval": 13,
				"SuppressFlagZombie": true,
				"WaveCount": 12,
				"WaveSpendingPointIncrement": 60,
				"WaveSpendingPoints": 600,
				"Waves": [ [ "RTID(Wave1@CurrentLevel)" ], [ "RTID(Wave2@CurrentLevel)" ], [ "RTID(Wave3@CurrentLevel)" ], [ "RTID(Wave4@CurrentLevel)" ], [ "RTID(Wave5@CurrentLevel)" ], [ "RTID(Wave6@CurrentLevel)" ], [ "RTID(Wave7@CurrentLevel)" ], [ "RTID(Wave8@CurrentLevel)" ], [ "RTID(Wave9@CurrentLevel)" ], [ "RTID(Wave10@CurrentLevel)" ], [ "RTID(Wave11@CurrentLevel)" ], [ "RTID(Wave12@CurrentLevel)" ] ]
			}
		}, {
			"aliases": [ "Wave1" ],
			"objclass": "SpawnZombiesJitteredWaveActionProps",
			"objdata": {
				"Zombies": [ {
						"Row": "1",
						"Type": "RTID(future_jetpack@ZombieTypes)"
					}, {
						"Row": "1",
						"Type": "RTID(future_jetpack@ZombieTypes)"
					}, {
						"Row": "1",
						"Type": "RTID(future_jetpack@ZombieTypes)"
					} ]
			}
		}, {
			"aliases": [ "Wave2" ],
			"objclass": "SpawnZombiesJitteredWaveActionProps",
			"objdata": {
				"Zombies": [ {
						"Row": "2",
						"Type": "RTID(future_jetpack@ZombieTypes)"
					}, {
						"Row": "2",
						"Type": "RTID(future_jetpack@ZombieTypes)"
					}, {
						"Row": "2",
						"Type": "RTID(future_jetpack@ZombieTypes)"
					}, {
						"Row": "2",
						"Type": "RTID(future_jetpack@ZombieTypes)"
					} ]
			}
		}, {
			"aliases": [ "Wave3" ],
			"objclass": "SpawnZombiesJitteredWaveActionProps",
			"objdata": {
				"Zombies": [ {
						"Row": "1",
						"Type": "RTID(future_jetpack@ZombieTypes)"
					}, {
						"Row": "1",
						"Type": "RTID(future_jetpack@ZombieTypes)"
					}, {
						"Row": "1",
						"Type": "RTID(future_jetpack@ZombieTypes)"
					}, {
						"Row": "1",
						"Type": "RTID(future_jetpack@ZombieTypes)"
					}, {
						"Row": "1",
						"Type": "RTID(future_jetpack@ZombieTypes)"
					}, {
						"Row": "2",
						"Type": "RTID(future_jetpack@ZombieTypes)"
					}, {
						"Row": "2",
						"Type": "RTID(future_jetpack@ZombieTypes)"
					}, {
						"Row": "2",
						"Type": "RTID(future_jetpack@ZombieTypes)"
					}, {
						"Row": "2",
						"Type": "RTID(future_jetpack@ZombieTypes)"
					}, {
						"Row": "2",
						"Type": "RTID(future_jetpack@ZombieTypes)"
					} ]
			}
		}, {
			"aliases": [ "Wave4" ],
			"objclass": "SpawnZombiesJitteredWaveActionProps",
			"objdata": {
				"Zombies": [ {
						"Row": "3",
						"Type": "RTID(future_jetpack@ZombieTypes)"
					}, {
						"Row": "3",
						"Type": "RTID(future_jetpack@ZombieTypes)"
					}, {
						"Row": "3",
						"Type": "RTID(future_jetpack@ZombieTypes)"
					}, {
						"Row": "3",
						"Type": "RTID(future_jetpack@ZombieTypes)"
					} ]
			}
		}, {
			"aliases": [ "Wave5" ],
			"objclass": "SpawnZombiesJitteredWaveActionProps",
			"objdata": {
				"Zombies": [ {
						"Row": "4",
						"Type": "RTID(future_jetpack@ZombieTypes)"
					}, {
						"Row": "4",
						"Type": "RTID(future_jetpack@ZombieTypes)"
					}, {
						"Row": "4",
						"Type": "RTID(future_jetpack@ZombieTypes)"
					}, {
						"Row": "4",
						"Type": "RTID(future_jetpack@ZombieTypes)"
					}, {
						"Row": "4",
						"Type": "RTID(future_jetpack@ZombieTypes)"
					} ]
			}
		}, {
			"aliases": [ "Wave6" ],
			"objclass": "SpawnZombiesJitteredWaveActionProps",
			"objdata": {
				"Zombies": [ {
						"Row": "3",
						"Type": "RTID(future_jetpack@ZombieTypes)"
					}, {
						"Row": "3",
						"Type": "RTID(future_jetpack@ZombieTypes)"
					}, {
						"Row": "3",
						"Type": "RTID(future_jetpack@ZombieTypes)"
					}, {
						"Row": "3",
						"Type": "RTID(future_jetpack@ZombieTypes)"
					}, {
						"Row": "3",
						"Type": "RTID(future_jetpack@ZombieTypes)"
					}, {
						"Row": "3",
						"Type": "RTID(future_jetpack@ZombieTypes)"
					}, {
						"Row": "4",
						"Type": "RTID(future_jetpack@ZombieTypes)"
					}, {
						"Row": "4",
						"Type": "RTID(future_jetpack@ZombieTypes)"
					}, {
						"Row": "4",
						"Type": "RTID(future_jetpack@ZombieTypes)"
					}, {
						"Row": "4",
						"Type": "RTID(future_jetpack@ZombieTypes)"
					}, {
						"Row": "4",
						"Type": "RTID(future_jetpack@ZombieTypes)"
					}, {
						"Row": "4",
						"Type": "RTID(future_jetpack@ZombieTypes)"
					} ]
			}
		}, {
			"aliases": [ "Wave7" ],
			"objclass": "SpawnZombiesJitteredWaveActionProps",
			"objdata": {
				"Zombies": [ {
						"Row": "5",
						"Type": "RTID(future_jetpack@ZombieTypes)"
					}, {
						"Row": "5",
						"Type": "RTID(future_jetpack@ZombieTypes)"
					}, {
						"Row": "5",
						"Type": "RTID(future_jetpack@ZombieTypes)"
					}, {
						"Row": "5",
						"Type": "RTID(future_jetpack@ZombieTypes)"
					}, {
						"Row": "5",
						"Type": "RTID(zcorp@ZombieTypes)"
					}, {
						"Row": "5",
						"Type": "RTID(future_jetpack@ZombieTypes)"
					}, {
						"Row": "5",
						"Type": "RTID(future_jetpack@ZombieTypes)"
					}, {
						"Row": "5",
						"Type": "RTID(future_jetpack@ZombieTypes)"
					} ]
			}
		}, {
			"aliases": [ "Wave8" ],
			"objclass": "SpawnZombiesJitteredWaveActionProps",
			"objdata": {
				"Zombies": [ {
						"Row": "5",
						"Type": "RTID(future_jetpack@ZombieTypes)"
					}, {
						"Row": "5",
						"Type": "RTID(future_jetpack@ZombieTypes)"
					}, {
						"Row": "5",
						"Type": "RTID(future_jetpack@ZombieTypes)"
					}, {
						"Row": "5",
						"Type": "RTID(future_jetpack@ZombieTypes)"
					}, {
						"Row": "5",
						"Type": "RTID(future_jetpack@ZombieTypes)"
					}, {
						"Row": "5",
						"Type": "RTID(future_jetpack@ZombieTypes)"
					}, {
						"Row": "5",
						"Type": "RTID(future_jetpack@ZombieTypes)"
					}, {
						"Row": "1",
						"Type": "RTID(zcorp@ZombieTypes)"
					}, {
						"Row": "1",
						"Type": "RTID(future_jetpack@ZombieTypes)"
					}, {
						"Row": "1",
						"Type": "RTID(future_jetpack@ZombieTypes)"
					}, {
						"Row": "1",
						"Type": "RTID(future_jetpack@ZombieTypes)"
					}, {
						"Row": "1",
						"Type": "RTID(future_jetpack@ZombieTypes)"
					}, {
						"Row": "1",
						"Type": "RTID(future_jetpack@ZombieTypes)"
					}, {
						"Row": "1",
						"Type": "RTID(future_jetpack@ZombieTypes)"
					} ]
			}
		}, {
			"aliases": [ "Wave9" ],
			"objclass": "SpawnZombiesJitteredWaveActionProps",
			"objdata": {
				"Zombies": [ {
						"Row": "5",
						"Type": "RTID(zcorp@ZombieTypes)"
					}, {
						"Row": "5",
						"Type": "RTID(future_jetpack@ZombieTypes)"
					}, {
						"Row": "5",
						"Type": "RTID(future_jetpack@ZombieTypes)"
					}, {
						"Row": "5",
						"Type": "RTID(future_jetpack@ZombieTypes)"
					}, {
						"Row": "5",
						"Type": "RTID(future_jetpack@ZombieTypes)"
					}, {
						"Row": "5",
						"Type": "RTID(future_jetpack@ZombieTypes)"
					}, {
						"Row": "5",
						"Type": "RTID(future_jetpack@ZombieTypes)"
					}, {
						"Row": "5",
						"Type": "RTID(future_jetpack@ZombieTypes)"
					}, {
						"Row": "5",
						"Type": "RTID(future_jetpack@ZombieTypes)"
					}, {
						"Row": "3",
						"Type": "RTID(future_jetpack@ZombieTypes)"
					}, {
						"Row": "3",
						"Type": "RTID(future_jetpack@ZombieTypes)"
					}, {
						"Row": "3",
						"Type": "RTID(future_jetpack@ZombieTypes)"
					}, {
						"Row": "3",
						"Type": "RTID(future_jetpack@ZombieTypes)"
					}, {
						"Row": "3",
						"Type": "RTID(future_jetpack@ZombieTypes)"
					}, {
						"Row": "3",
						"Type": "RTID(future_jetpack@ZombieTypes)"
					}, {
						"Row": "3",
						"Type": "RTID(zcorp@ZombieTypes)"
					}, {
						"Row": "3",
						"Type": "RTID(future_jetpack@ZombieTypes)"
					}, {
						"Row": "3",
						"Type": "RTID(future_jetpack@ZombieTypes)"
					} ]
			}
		}, {
			"aliases": [ "Wave10" ],
			"objclass": "SpawnZombiesJitteredWaveActionProps",
			"objdata": {
				"Zombies": [ {
						"Row": "4",
						"Type": "RTID(future_jetpack@ZombieTypes)"
					}, {
						"Row": "4",
						"Type": "RTID(future_jetpack@ZombieTypes)"
					}, {
						"Row": "4",
						"Type": "RTID(future_jetpack@ZombieTypes)"
					}, {
						"Row": "4",
						"Type": "RTID(future_jetpack@ZombieTypes)"
					}, {
						"Row": "4",
						"Type": "RTID(zcorp@ZombieTypes)"
					}, {
						"Row": "4",
						"Type": "RTID(future_jetpack@ZombieTypes)"
					}, {
						"Row": "4",
						"Type": "RTID(future_jetpack@ZombieTypes)"
					}, {
						"Row": "4",
						"Type": "RTID(future_jetpack@ZombieTypes)"
					}, {
						"Row": "4",
						"Type": "RTID(future_jetpack@ZombieTypes)"
					}, {
						"Row": "2",
						"Type": "RTID(future_jetpack@ZombieTypes)"
					}, {
						"Row": "2",
						"Type": "RTID(future_jetpack@ZombieTypes)"
					}, {
						"Row": "2",
						"Type": "RTID(future_jetpack@ZombieTypes)"
					}, {
						"Row": "2",
						"Type": "RTID(future_jetpack@ZombieTypes)"
					}, {
						"Row": "2",
						"Type": "RTID(zcorp@ZombieTypes)"
					}, {
						"Row": "2",
						"Type": "RTID(future_jetpack@ZombieTypes)"
					}, {
						"Row": "2",
						"Type": "RTID(future_jetpack@ZombieTypes)"
					}, {
						"Row": "2",
						"Type": "RTID(future_jetpack@ZombieTypes)"
					}, {
						"Row": "2",
						"Type": "RTID(future_jetpack@ZombieTypes)"
					} ]
			}
		}, {
			"aliases": [ "Wave11" ],
			"objclass": "SpawnZombiesJitteredWaveActionProps",
			"objdata": {
				"Zombies": [ {
						"Row": "4",
						"Type": "RTID(future_jetpack@ZombieTypes)"
					}, {
						"Row": "4",
						"Type": "RTID(future_jetpack@ZombieTypes)"
					}, {
						"Row": "4",
						"Type": "RTID(future_jetpack@ZombieTypes)"
					}, {
						"Row": "4",
						"Type": "RTID(future_jetpack@ZombieTypes)"
					}, {
						"Row": "4",
						"Type": "RTID(future_jetpack@ZombieTypes)"
					}, {
						"Row": "4",
						"Type": "RTID(future_jetpack@ZombieTypes)"
					}, {
						"Row": "4",
						"Type": "RTID(future_jetpack@ZombieTypes)"
					}, {
						"Row": "4",
						"Type": "RTID(future_jetpack@ZombieTypes)"
					}, {
						"Row": "4",
						"Type": "RTID(future_jetpack@ZombieTypes)"
					}, {
						"Row": "4",
						"Type": "RTID(future_jetpack@ZombieTypes)"
					}, {
						"Row": "3",
						"Type": "RTID(future_jetpack@ZombieTypes)"
					}, {
						"Row": "3",
						"Type": "RTID(future_jetpack@ZombieTypes)"
					}, {
						"Row": "3",
						"Type": "RTID(zcorp@ZombieTypes)"
					}, {
						"Row": "3",
						"Type": "RTID(future_jetpack@ZombieTypes)"
					}, {
						"Row": "3",
						"Type": "RTID(future_jetpack@ZombieTypes)"
					}, {
						"Row": "3",
						"Type": "RTID(future_jetpack@ZombieTypes)"
					}, {
						"Row": "3",
						"Type": "RTID(zcorp@ZombieTypes)"
					}, {
						"Row": "3",
						"Type": "RTID(future_jetpack@ZombieTypes)"
					}, {
						"Row": "3",
						"Type": "RTID(future_jetpack@ZombieTypes)"
					}, {
						"Row": "3",
						"Type": "RTID(future_jetpack@ZombieTypes)"
					} ]
			}
		}, {
			"aliases": [ "Wave12" ],
			"objclass": "SpawnZombiesJitteredWaveActionProps",
			"objdata": {
				"Zombies": [ {
						"Row": "1",
						"Type": "RTID(future_jetpack@ZombieTypes)"
					}, {
						"Row": "2",
						"Type": "RTID(future_jetpack@ZombieTypes)"
					}, {
						"Row": "3",
						"Type": "RTID(future_jetpack@ZombieTypes)"
					}, {
						"Row": "4",
						"Type": "RTID(future_jetpack@ZombieTypes)"
					}, {
						"Row": "5",
						"Type": "RTID(zcorp@ZombieTypes)"
					}, {
						"Row": "5",
						"Type": "RTID(future_jetpack@ZombieTypes)"
					}, {
						"Row": "5",
						"Type": "RTID(future_jetpack@ZombieTypes)"
					}, {
						"Row": "5",
						"Type": "RTID(future_jetpack@ZombieTypes)"
					}, {
						"Row": "5",
						"Type": "RTID(future_jetpack@ZombieTypes)"
					}, {
						"Row": "5",
						"Type": "RTID(future_jetpack@ZombieTypes)"
					}, {
						"Row": "4",
						"Type": "RTID(future_jetpack@ZombieTypes)"
					}, {
						"Row": "4",
						"Type": "RTID(zcorp@ZombieTypes)"
					}, {
						"Row": "4",
						"Type": "RTID(future_jetpack@ZombieTypes)"
					}, {
						"Row": "4",
						"Type": "RTID(future_jetpack@ZombieTypes)"
					}, {
						"Row": "4",
						"Type": "RTID(future_jetpack@ZombieTypes)"
					}, {
						"Row": "3",
						"Type": "RTID(future_jetpack@ZombieTypes)"
					}, {
						"Row": "3",
						"Type": "RTID(future_jetpack@ZombieTypes)"
					}, {
						"Row": "3",
						"Type": "RTID(future_jetpack@ZombieTypes)"
					}, {
						"Row": "3",
						"Type": "RTID(zcorp@ZombieTypes)"
					}, {
						"Row": "3",
						"Type": "RTID(future_jetpack@ZombieTypes)"
					}, {
						"Row": "2",
						"Type": "RTID(future_jetpack@ZombieTypes)"
					}, {
						"Row": "2",
						"Type": "RTID(future_jetpack@ZombieTypes)"
					}, {
						"Row": "2",
						"Type": "RTID(future_jetpack@ZombieTypes)"
					}, {
						"Row": "2",
						"Type": "RTID(future_jetpack@ZombieTypes)"
					}, {
						"Row": "2",
						"Type": "RTID(future_jetpack@ZombieTypes)"
					}, {
						"Row": "1",
						"Type": "RTID(zcorp@ZombieTypes)"
					}, {
						"Row": "1",
						"Type": "RTID(future_jetpack@ZombieTypes)"
					}, {
						"Row": "1",
						"Type": "RTID(future_jetpack@ZombieTypes)"
					}, {
						"Row": "1",
						"Type": "RTID(future_jetpack@ZombieTypes)"
					}, {
						"Row": "1",
						"Type": "RTID(future_jetpack@ZombieTypes)"
					} ]
			}
		}, {
			"aliases": [ "ConveyorBelt" ],
			"objclass": "ConveyorSeedBankProperties",
			"objdata": {
				"DropDelayConditions": [ {
						"Delay": 3,
						"MaxPackets": 0
					}, {
						"Delay": 6,
						"MaxPackets": 2
					}, {
						"Delay": 9,
						"MaxPackets": 4
					}, {
						"Delay": 12,
						"MaxPackets": 8
					} ],
				"InitialPlantList": [ {
						"MaxCount": 1,
						"MaxCountCooldownSeconds": 60,
						"MaxDelivered": 1,
						"MaxWeightFactor": 0,
						"PlantType": "armamint",
						"Weight": 100
					}, {
						"MaxCount": 10,
						"MaxCountCooldownSeconds": 60,
						"MaxWeightFactor": 0,
						"PlantType": "coconutcannon",
						"Weight": 20
					}, {
						"MaxCount": 10,
						"MaxCountCooldownSeconds": 60,
						"MaxWeightFactor": 0,
						"PlantType": "homingthistle",
						"Weight": 30
					}, {
						"MaxCount": 1,
						"MaxCountCooldownSeconds": 10,
						"MaxWeightFactor": 0,
						"PlantType": "tool_projectile_bowlingbulb_explode",
						"Weight": 30
					}, {
						"MaxCount": 1,
						"MaxCountCooldownSeconds": 5,
						"MaxWeightFactor": 0,
						"PlantType": "tumbleweed",
						"Weight": 30
					} ],
				"SpeedConditions": [ {
						"MaxPackets": 0,
						"Speed": 100
					} ]
			}
		}, {
			"aliases": [ "LevelScoring" ],
			"objclass": "LevelScoringModuleProperties",
			"objdata": {
				"PlantBonusMultiplier": 0,
				"PlantBonuses": [],
				"ScoringRulesType": "Rift_CannonMinigame",
				"StartingPlantfood": 0
			}
		}, {
			"aliases": [ "LevelDifficultyScaling" ],
			"objclass": "LevelDifficultyScalingModuleProperties",
			"objdata": {
				"DifficultyRulesType": "RiftDifficulty",
				"ZombieLevelSwaps": [ {
						"Level": 0,
						"Swaps": [ {
								"From": "RTID(zcorp@ZombieTypes)",
								"To": [ "RTID(zcorp@ZombieTypes)", "RTID(zcorp_fem@ZombieTypes)" ]
							}, {
								"From": "RTID(zcorp_fem@ZombieTypes)",
								"To": [ "RTID(zcorp@ZombieTypes)", "RTID(zcorp_fem@ZombieTypes)" ]
							}, {
								"From": "RTID(future_jetpack@ZombieTypes)",
								"To": [ "RTID(future_jetpack@ZombieTypes)" ]
							}, {
								"From": "RTID(future_jetpack_veteran@ZombieTypes)",
								"To": [ "RTID(future_jetpack@ZombieTypes)" ]
							} ]
					}, {
						"Level": 4,
						"Swaps": [ {
								"From": "RTID(zcorp@ZombieTypes)",
								"To": [ "RTID(zcorp_armor1@ZombieTypes)", "RTID(zcorp_fem_armor1@ZombieTypes)", "RTID(zcorp_fem_armor2@ZombieTypes)" ]
							}, {
								"From": "RTID(zcorp_fem@ZombieTypes)",
								"To": [ "RTID(zcorp_armor1@ZombieTypes)", "RTID(zcorp_fem_armor1@ZombieTypes)", "RTID(zcorp_fem_armor2@ZombieTypes)" ]
							}, {
								"From": "RTID(future_jetpack@ZombieTypes)",
								"To": [ "RTID(future_jetpack@ZombieTypes)", "RTID(future_jetpack_veteran@ZombieTypes)" ]
							}, {
								"From": "RTID(future_jetpack_veteran@ZombieTypes)",
								"To": [ "RTID(future_jetpack@ZombieTypes)", "RTID(future_jetpack_veteran@ZombieTypes)" ]
							} ]
					}, {
						"Level": 7,
						"Swaps": [ {
								"From": "RTID(zcorp@ZombieTypes)",
								"To": [ "RTID(zcorp_armor2@ZombieTypes)", "RTID(zcorp_fem_armor2@ZombieTypes)", "RTID(zcorp_fem_armor1@ZombieTypes)" ]
							}, {
								"From": "RTID(zcorp_fem@ZombieTypes)",
								"To": [ "RTID(zcorp_armor2@ZombieTypes)", "RTID(zcorp_fem_armor2@ZombieTypes)", "RTID(zcorp_fem_armor1@ZombieTypes)" ]
							}, {
								"From": "RTID(future_jetpack@ZombieTypes)",
								"To": [ "RTID(future_jetpack_veteran@ZombieTypes)" ]
							}, {
								"From": "RTID(future_jetpack_veteran@ZombieTypes)",
								"To": [ "RTID(future_jetpack_veteran@ZombieTypes)" ]
							} ]
					} ]
			}
		} ],
	"version": 1
}