{
	"objects": [
		{
			"aliases": [
				"CalendarSchedule"
			],
			"objclass": "CalendarSchedule",
			"objdata": {
				"CalendarBaseStartDate": 1546300800,
				"Calendars": [
					{
						"Category": "weekly",
						"EndDateTime": 1646956800,
						"LoginType": "streak",
						"Name": "[CALENDAR_TITLE_WEEKLY_STREAK]",
						"Rewards": [
							{
								"Award": "coins",
								"AwardParam": "",
								"AwardQuantity": 500
							},
							{
								"Award": "tickets",
								"AwardParam": "",
								"AwardQuantity": 2
							},
							{
								"Award": "pinata",
								"AwardParam": "egypt_streak_10",
								"AwardQuantity": 2
							},
							{
								"Award": "gems",
								"AwardParam": "",
								"AwardQuantity": 10
							},
							{
								"Award": "coins",
								"AwardParam": "",
								"AwardQuantity": 2000
							},
							{
								"Award": "fuel",
								"AwardParam": "",
								"AwardQuantity": 10
							},
							{
								"Award": "pinata",
								"AwardParam": "free_joust_pinata_10",
								"AwardQuantity": 5
							}
						],
						"ShowTimer": false,
						"StartDateTime": 1546300800,
						"Theme": "",
						"UniqueID": 1
					},
					{
						"Category": "weekly",
						"EndDateTime": 1613520000,
						"LoginType": "cumulative",
						"Name": "[EVENT_VALENBRAINZ]",
						"Rewards": [
							{
								"Award": "plantXP",
								"AwardParam": "hotdate",
								"AwardQuantity": 5
							},
							{
								"Award": "plantXP",
								"AwardParam": "bloominghearts",
								"AwardQuantity": 5
							},
							{
								"Award": "plantXP",
								"AwardParam": "dazeychain",
								"AwardQuantity": 5
							},
							{
								"Award": "plantXP",
								"AwardParam": "pyrevine",
								"AwardQuantity": 5
							},
							{
								"Award": "plantXP",
								"AwardParam": "hotdate",
								"AwardQuantity": 5
							},
							{
								"Award": "plantXP",
								"AwardParam": "bloominghearts",
								"AwardQuantity": 5
							},
							{
								"Award": "plantXP",
								"AwardParam": "dazeychain",
								"AwardQuantity": 10
							}
						],
						"ShowTimer": true,
						"StartDateTime": 1612742400,
						"Theme": "",
						"UniqueID": 4
					},
					{
						"Category": "event14",
						"EndDateTime": 1621382400,
						"LoginType": "cumulative",
						"Name": "[EVENT_BIRTHDAYZ_2]",
						"Rewards": [
							{
								"Award": "plantXP",
								"AwardParam": "sunflower",
								"AwardQuantity": 6
							},
							{
								"Award": "plantXP",
								"AwardParam": "peashooter",
								"AwardQuantity": 6
							},
							{
								"Award": "plantXP",
								"AwardParam": "wallnut",
								"AwardQuantity": 6
							},
							{
								"Award": "plantXP",
								"AwardParam": "potatomine",
								"AwardQuantity": 6
							},
							{
								"Award": "plantXP",
								"AwardParam": "cherry_bomb",
								"AwardQuantity": 6
							},
							{
								"Award": "plantXP",
								"AwardParam": "cabbagepult",
								"AwardQuantity": 6
							},
							{
								"Award": "plantXP",
								"AwardParam": "sunflower",
								"AwardQuantity": 6
							},
							{
								"Award": "plantXP",
								"AwardParam": "peashooter",
								"AwardQuantity": 6
							},
							{
								"Award": "plantXP",
								"AwardParam": "wallnut",
								"AwardQuantity": 6
							},
							{
								"Award": "plantXP",
								"AwardParam": "potatomine",
								"AwardQuantity": 6
							},
							{
								"Award": "plantXP",
								"AwardParam": "cherry_bomb",
								"AwardQuantity": 6
							},
							{
								"Award": "plantXP",
								"AwardParam": "cabbagepult",
								"AwardQuantity": 6
							},
							{
								"Award": "pinata",
								"AwardParam": "free_birthdayz_pinata_4",
								"AwardQuantity": 6
							},
							{
								"Award": "pinata",
								"AwardParam": "free_birthdayz_pinata_4",
								"AwardQuantity": 6
							}
						],
						"ShowTimer": true,
						"StartDateTime": 1620172800,
						"Theme": "",
						"UniqueID": 5
					},
					{
						"Category": "weekly",
						"EndDateTime": 1622617199,
						"LoginType": "cumulative",
						"Name": "[EVENT_IMPROVEMINT]",
						"Rewards": [
							{
								"Award": "mints",
								"AwardParam": "",
								"AwardQuantity": 3
							},
							{
								"Award": "mints",
								"AwardParam": "",
								"AwardQuantity": 3
							},
							{
								"Award": "mints",
								"AwardParam": "",
								"AwardQuantity": 3
							},
							{
								"Award": "mints",
								"AwardParam": "",
								"AwardQuantity": 3
							},
							{
								"Award": "mints",
								"AwardParam": "",
								"AwardQuantity": 3
							},
							{
								"Award": "mints",
								"AwardParam": "",
								"AwardQuantity": 3
							},
							{
								"Award": "mints",
								"AwardParam": "",
								"AwardQuantity": 10
							}
						],
						"ShowTimer": true,
						"StartDateTime": 1621839599,
						"Theme": "",
						"UniqueID": 6
					},
					{
						"Category": "weekly",
						"EndDateTime": 1646956800,
						"LoginType": "cumulative",
						"Name": "[CALENDAR_TITLE_WEEKLY_WELCOME]",
						"Rewards": [
							{
								"Award": "coins",
								"AwardParam": "",
								"AwardQuantity": 1000
							},
							{
								"Award": "pinata",
								"AwardParam": "egypt_streak_10",
								"AwardQuantity": 1
							},
							{
								"Award": "gems",
								"AwardParam": "",
								"AwardQuantity": 5
							},
							{
								"Award": "plantXP",
								"AwardParam": "torchwood",
								"AwardQuantity": 25
							},
							{
								"Award": "coins",
								"AwardParam": "",
								"AwardQuantity": 2000
							},
							{
								"Award": "pinata",
								"AwardParam": "pirate_streak_10",
								"AwardQuantity": 2
							},
							{
								"Award": "plantXP",
								"AwardParam": "torchwood",
								"AwardQuantity": 75
							}
						],
						"ShowTimer": false,
						"StartDateTime": 1546300800,
						"Theme": "",
						"UniqueID": 2
					},
					{
						"Category": "weekly",
						"EndDateTime": 1625813999,
						"LoginType": "cumulative",
						"Name": "[EVENT_SUMMERNIGHTS]",
						"Rewards": [
							{
								"Award": "plantXP",
								"AwardParam": "jalapeno",
								"AwardQuantity": 5
							},
							{
								"Award": "plantXP",
								"AwardParam": "firepeashooter",
								"AwardQuantity": 5
							},
							{
								"Award": "plantXP",
								"AwardParam": "lavaguava",
								"AwardQuantity": 5
							},
							{
								"Award": "plantXP",
								"AwardParam": "strawburst",
								"AwardQuantity": 5
							},
							{
								"Award": "plantXP",
								"AwardParam": "pyrevine",
								"AwardQuantity": 5
							},
							{
								"Award": "plantXP",
								"AwardParam": "inferno",
								"AwardQuantity": 10
							},
							{
								"Award": "pinata",
								"AwardParam": "free_summernights_pinata_15",
								"AwardQuantity": 1
							}
						],
						"ShowTimer": true,
						"StartDateTime": 1625036399,
						"Theme": "SummerNights",
						"UniqueID": 7
					},
					{
						"Category": "monthly",
						"EndDateTime": 1630454400,
						"LoginType": "cumulative",
						"Name": "[EVENT_CALENDAR_AUGUST]",
						"Rewards": [
							{
								"Award": "gems",
								"AwardParam": "",
								"AwardQuantity": 20
							},
							{
								"Award": "gems",
								"AwardParam": "",
								"AwardQuantity": 20
							},
							{
								"Award": "tickets",
								"AwardParam": "",
								"AwardQuantity": 2
							},
							{
								"Award": "fuel",
								"AwardParam": "",
								"AwardQuantity": 5
							},
							{
								"Award": "coins",
								"AwardParam": "",
								"AwardQuantity": 200
							},
							{
								"Award": "gems",
								"AwardParam": "",
								"AwardQuantity": 5
							},
							{
								"Award": "pinata",
								"AwardParam": "free_joust_pinata_10",
								"AwardQuantity": 1
							},
							{
								"Award": "coins",
								"AwardParam": "",
								"AwardQuantity": 250
							},
							{
								"Award": "tickets",
								"AwardParam": "",
								"AwardQuantity": 2
							},
							{
								"Award": "gems",
								"AwardParam": "",
								"AwardQuantity": 5
							},
							{
								"Award": "fuel",
								"AwardParam": "",
								"AwardQuantity": 5
							},
							{
								"Award": "coins",
								"AwardParam": "",
								"AwardQuantity": 250
							},
							{
								"Award": "gems",
								"AwardParam": "",
								"AwardQuantity": 5
							},
							{
								"Award": "pinata",
								"AwardParam": "cold",
								"AwardQuantity": 1
							},
							{
								"Award": "coins",
								"AwardParam": "",
								"AwardQuantity": 300
							},
							{
								"Award": "tickets",
								"AwardParam": "",
								"AwardQuantity": 2
							},
							{
								"Award": "gems",
								"AwardParam": "",
								"AwardQuantity": 8
							},
							{
								"Award": "fuel",
								"AwardParam": "",
								"AwardQuantity": 5
							},
							{
								"Award": "coins",
								"AwardParam": "",
								"AwardQuantity": 300
							},
							{
								"Award": "gems",
								"AwardParam": "",
								"AwardQuantity": 8
							},
							{
								"Award": "pinata",
								"AwardParam": "greens",
								"AwardQuantity": 1
							},
							{
								"Award": "coins",
								"AwardParam": "",
								"AwardQuantity": 400
							},
							{
								"Award": "tickets",
								"AwardParam": "",
								"AwardQuantity": 2
							},
							{
								"Award": "gems",
								"AwardParam": "",
								"AwardQuantity": 10
							},
							{
								"Award": "fuel",
								"AwardParam": "",
								"AwardQuantity": 5
							},
							{
								"Award": "coins",
								"AwardParam": "",
								"AwardQuantity": 400
							},
							{
								"Award": "coins",
								"AwardParam": "",
								"AwardQuantity": 1000
							},
							{
								"Award": "pinata",
								"AwardParam": "electricity",
								"AwardQuantity": 1
							},
							{
								"Award": "coins",
								"AwardParam": "",
								"AwardQuantity": 500
							},
							{
								"Award": "coins",
								"AwardParam": "",
								"AwardQuantity": 500
							},
							{
								"Award": "gems",
								"AwardParam": "",
								"AwardQuantity": 20
							}
						],
						"ShowTimer": false,
						"StartDateTime": 1627776000,
						"Theme": "",
						"UniqueID": 8
					},
					{
						"Category": "event",
						"EndDateTime": 1602374400,
						"LoginType": "cumulative",
						"Name": "Test Addition",
						"Rewards": [
							{
								"Award": "coins",
								"AwardParam": "",
								"AwardQuantity": 1000
							},
							{
								"Award": "pinata",
								"AwardParam": "egypt_streak_10",
								"AwardQuantity": 3
							},
							{
								"Award": "gems",
								"AwardParam": "",
								"AwardQuantity": 5
							},
							{
								"Award": "plantXP",
								"AwardParam": "torchwood",
								"AwardQuantity": 25
							},
							{
								"Award": "coins",
								"AwardParam": "",
								"AwardQuantity": 2000
							},
							{
								"Award": "pinata",
								"AwardParam": "pirate_streak_10",
								"AwardQuantity": 3
							},
							{
								"Award": "plantXP",
								"AwardParam": "torchwood",
								"AwardQuantity": 75
							},
							{
								"Award": "coins",
								"AwardParam": "",
								"AwardQuantity": 500
							},
							{
								"Award": "gems",
								"AwardParam": "",
								"AwardQuantity": 10
							},
							{
								"Award": "tickets",
								"AwardParam": "",
								"AwardQuantity": 2
							}
						],
						"ShowTimer": false,
						"StartDateTime": 1601510400,
						"Theme": "Test",
						"UniqueID": 3
					}
				]
			}
		}
	],
	"version": 1
}