{
	"#comment": "Rift 3 Pirate Zomboss - joust80 v2",
	"objects": [
		{
			"objclass": "LevelDefinition",
			"objdata": {
				"Description": "[PLAYERS_TRIP_TO_RIFT]",
				"DisablePlantBoosts": false,
				"LevelPowerupSet": "",
				"GridItemLevel": 1,
				"LevelNumber": "",
				"Loot": "RTID(NoLoot@LevelModules)",
				"Modules": [
					"RTID(DefaultSunDropper@LevelModules)",
					"RTID(PirateMowers@LevelModules)",
					"RTID(SeedBank@CurrentLevel)",
					"RTID(DefaultZombieWinCondition@LevelModules)",
					"RTID(NewWaves@CurrentLevel)",
					"RTID(LastStand@CurrentLevel)",
					"RTID(LevelDifficultyScaling@CurrentLevel)",
					"RTID(SeedPacketHalfTimeModule@LevelModules)",
					"RTID(ZombossBattle@CurrentLevel)",
					"RTID(WaveDuplicator@CurrentLevel)",
					"RTID(PerkActivator@CurrentLevel)",
					"RTID(DefaultZombossRiftPointOfLoss@LevelModules)"
				],
				"Name": "",
				"NormalPresentTable": "dark_normal_01",
				"ShinyPresentTable": "dark_shiny_01",
				"VictoryModule": "RTID(RiftOutro@LevelModules)",
				"LossModule": "RTID(RiftOutro@LevelModules)",
				"StageModule": "RTID(RiftStage@LevelModules)",
				"LevelMutator": "RTID(LevelMutator@CurrentLevel)",
				"SuppressAccountUpgrades": true,
				"SuppressDynamicTutorial": true,
				"SuppressPlantfoodPurchase": false,
				"PerksDisabledInLevel": [
					"moarscore"
				],
				"PerksDisabledPerDifficulty": [
					[],
					[],
					[]
				]
			}
		},
		{
			"aliases": [
				"PerkActivator"
			],
			"objclass": "PerkHandlerModuleProperties",
			"objdata": {}
		},
		{
			"aliases": [
				"LevelMutator"
			],
			"objclass": "LevelMutatorModuleProperties",
			"objdata": {
				"MutatorTables": [
					"RTID(MutatorPropsRiftZomboss_Pirate@LevelMutatorTables)",
					"RTID(MutatorRiftZombossBattery1@LevelMutatorTables)",
					"RTID(MutatorGridRiftMold4@LevelMutatorTables)"
				]
			}
		},
		{
			"aliases": [
				"WaveDuplicator"
			],
			"objclass": "WaveDuplicatorModuleProperties",
			"objdata": {
				"PeriodOfWavesToLoop": 6,
				"WaveSetsToAppend": 20
			}
		},
		{
			"aliases": [
				"ZombossBattle"
			],
			"objclass": "ZombossRiftBattleModuleProperties",
			"objdata": {
				"ReservedColumnCount": 2,
				"ShowInStreetView": true,
				"SlideInStreetView": false,
				"ZombossDeathColumn": 5,
				"ZombossDeathRow": 3,
				"ZombossMechType": "zombossmech_pirate_rift",
				"ZombossSpawnGridPosition": {
					"mX": 6,
					"mY": 3
				},
				"ZombossPhases": 3
			}
		},
		{
			"aliases": [
				"SeedBank"
			],
			"objclass": "SeedBankProperties",
			"objdata": {
				"PlantExcludeList": [],
				"PresetPlantList": [
					{
						"Level": -1,
						"PlantType": "starfruit"
					}
				],
				"SelectionMethod": "chooser"
			}
		},
		{
			"aliases": [
				"LastStand"
			],
			"objclass": "LastStandMinigameProperties",
			"objdata": {
				"StartingPlantfood": 0,
				"StartingSun": 2000,
				"PreSeedchooserFlow": "rift"
			}
		},
		{
			"aliases": [
				"LevelDifficultyScaling"
			],
			"objclass": "LevelDifficultyScalingModuleProperties",
			"objdata": {
				"DifficultyRulesType": "RiftDifficulty",
				"ZombieLevelSwaps": [
					{
						"Level": 0,
						"Swaps": [
							{
								"From": "RTID(tomb_raiser@ZombieTypes)",
								"To": [
									"RTID(tomb_raiser@ZombieTypes)",
									"RTID(zcorp_fem_armor1@ZombieTypes)",
									"RTID(lostcity_crystalskull@ZombieTypes)"
								]
							},
							{
								"From": "RTID(zcorp_consultant@ZombieTypes)",
								"To": [
									"RTID(zcorp_fem_armor2@ZombieTypes)",
									"RTID(zcorp_consultant@ZombieTypes)",
									"RTID(zcorp_fem_armor2@ZombieTypes)"
								]
							},
							{
								"From": "RTID(roman_shield_triad@ZombieTypes)",
								"To": [
									"RTID(roman_shield_triad@ZombieTypes)",
									"RTID(zcorp_fem_armor2@ZombieTypes)"
								]
							},
							{
								"From": "RTID(zcorp_gargantuar@ZombieTypes)",
								"To": [
									"RTID(zcorp_gargantuar@ZombieTypes)",
									"RTID(zcorp_consultant@ZombieTypes)"
								]
							},
							{
								"From": "RTID(zcorp_fem_armor2@ZombieTypes)",
								"To": [
									"RTID(zcorp_armor1@ZombieTypes)",
									"RTID(zcorp_fem_armor2@ZombieTypes)",
									"RTID(zcorp_armor2@ZombieTypes)"
								]
							},
							{
								"From": "RTID(zcorp_fem_armor1@ZombieTypes)",
								"To": [
									"RTID(zcorp@ZombieTypes)",
									"RTID(zcorp_fem_armor1@ZombieTypes)"
								]
							}
						]
					},
					{
						"Level": 4,
						"Swaps": [
							{
								"From": "RTID(tomb_raiser@ZombieTypes)",
								"To": [
									"RTID(tomb_raiser@ZombieTypes)",
									"RTID(lostcity_crystalskull@ZombieTypes)",
									"RTID(zcorp_fem_armor1@ZombieTypes)"
								]
							},
							{
								"From": "RTID(zcorp_consultant@ZombieTypes)",
								"To": [
									"RTID(zcorp_consultant@ZombieTypes)",
									"RTID(iceage_troglobite_2block@ZombieTypes)",
									"RTID(zcorp_fem_armor2@ZombieTypes)",
									"RTID(lostcity_crystalskull@ZombieTypes)"
								]
							},
							{
								"From": "RTID(roman_shield_triad@ZombieTypes)",
								"To": [
									"RTID(zcorp_consultant@ZombieTypes)",
									"RTID(roman_shield_triad@ZombieTypes)",
									"RTID(zcorp_fem_armor2@ZombieTypes)",
									"RTID(lostcity_crystalskull@ZombieTypes)"
								]
							},
							{
								"From": "RTID(zcorp_gargantuar@ZombieTypes)",
								"To": [
									"RTID(zcorp_gargantuar@ZombieTypes)",
									"RTID(zcorp_gargantuar@ZombieTypes)",
									"RTID(roman_gargantuar@ZombieTypes)"
								]
							},
							{
								"From": "RTID(zcorp_fem_armor2@ZombieTypes)",
								"To": [
									"RTID(roman_armor3@ZombieTypes)",
									"RTID(zcorp_armor2@ZombieTypes)",
									"RTID(zcorp_armor1@ZombieTypes)"
								]
							},
							{
								"From": "RTID(zcorp_fem_armor1@ZombieTypes)",
								"To": [
									"RTID(zcorp@ZombieTypes)",
									"RTID(zcorp_armor2@ZombieTypes)",
									"RTID(zcorp_fem_armor1@ZombieTypes)"
								]
							},
							{
								"From": "RTID(zcorp@ZombieTypes)",
								"To": [
									"RTID(zcorp@ZombieTypes)",
									"RTID(zcorp_fem_armor1@ZombieTypes)"
								]
							}
						]
					},
					{
						"Level": 7,
						"Swaps": [
							{
								"From": "RTID(tomb_raiser@ZombieTypes)",
								"To": [
									"RTID(lostcity_crystalskull@ZombieTypes)",
									"RTID(zcorp_fem_armor2@ZombieTypes)"
								]
							},
							{
								"From": "RTID(zcorp_consultant@ZombieTypes)",
								"To": [
									"RTID(iceage_troglobite_2block@ZombieTypes)",
									"RTID(lostcity_crystalskull@ZombieTypes)"
								]
							},
							{
								"From": "RTID(roman_shield_triad@ZombieTypes)",
								"To": [
									"RTID(lostcity_crystalskull@ZombieTypes)",
									"RTID(zcorp_consultant@ZombieTypes)",
									"RTID(zcorp_fem_armor2@ZombieTypes)"
								]
							},
							{
								"From": "RTID(zcorp_gargantuar@ZombieTypes)",
								"To": [
									"RTID(roman_gargantuar@ZombieTypes)"
								]
							},
							{
								"From": "RTID(zcorp_fem_armor2@ZombieTypes)",
								"To": [
									"RTID(roman_armor3@ZombieTypes)",
									"RTID(zcorp_armor2@ZombieTypes)"
								]
							},
							{
								"From": "RTID(zcorp_fem_armor1@ZombieTypes)",
								"To": [
									"RTID(zcorp_armor2@ZombieTypes)",
									"RTID(zcorp_fem_armor1@ZombieTypes)"
								]
							},
							{
								"From": "RTID(zcorp@ZombieTypes)",
								"To": [
									"RTID(zcorp_armor2@ZombieTypes)",
									"RTID(zcorp_fem_armor1@ZombieTypes)"
								]
							}
						]
					}
				]
			}
		},
		{
			"aliases": [
				"NewWaves"
			],
			"objclass": "WaveManagerModuleProperties",
			"objdata": {
				"ManualStartup": true,
				"DynamicZombies": [
					{
						"PointIncrementPerWave": -1,
						"StartingPoints": -1,
						"StartingWave": 3,
						"ZombiePool": [
							"RTID(roman_ballista@ZombieTypes)",
							"RTID(pharaoh@ZombieTypes)",
							"RTID(zcorp_fem_armor2@ZombieTypes)",
							"RTID(zcorp_fem_armor1@ZombieTypes)",
							"RTID(zcorp@ZombieTypes)",
							"RTID(zcorp_armor2@ZombieTypes)"
						]
					},
					{
						"PointIncrementPerWave": -1,
						"StartingPoints": -1,
						"StartingWave": 4,
						"ZombiePool": [
							"RTID(roman_ballista@ZombieTypes)",
							"RTID(pharaoh@ZombieTypes)",
							"RTID(zcorp_fem_armor2@ZombieTypes)",
							"RTID(zcorp_fem_armor1@ZombieTypes)",
							"RTID(zcorp@ZombieTypes)",
							"RTID(zcorp_armor2@ZombieTypes)"
						]
					},
					{
						"PointIncrementPerWave": -1,
						"StartingPoints": -1,
						"StartingWave": 5,
						"ZombiePool": [
							"RTID(roman_ballista@ZombieTypes)",
							"RTID(pharaoh@ZombieTypes)",
							"RTID(zcorp_fem_armor2@ZombieTypes)",
							"RTID(zcorp_fem_armor1@ZombieTypes)",
							"RTID(zcorp@ZombieTypes)",
							"RTID(zcorp_armor2@ZombieTypes)"
						]
					},
					{
						"MaxPoints": 3000,
						"PointIncrementPerWave": 150,
						"StartingPoints": 1200,
						"StartingWave": 0,
						"ZombiePool": [
							"RTID(roman_ballista@ZombieTypes)",
							"RTID(pharaoh@ZombieTypes)",
							"RTID(zcorp_fem_armor2@ZombieTypes)",
							"RTID(zcorp_fem_armor1@ZombieTypes)",
							"RTID(zcorp@ZombieTypes)",
							"RTID(zcorp_armor2@ZombieTypes)"
						]
					},
					{
						"PointIncrementPerWave": 1,
						"StartingPoints": 1,
						"StartingWave": 5,
						"ZombiePool": [
							"RTID(roman_ballista@ZombieTypes)",
							"RTID(pharaoh@ZombieTypes)",
							"RTID(zcorp_fem_armor2@ZombieTypes)",
							"RTID(zcorp_fem_armor1@ZombieTypes)",
							"RTID(zcorp@ZombieTypes)",
							"RTID(zcorp_armor2@ZombieTypes)"
						]
					},
					{
						"PointIncrementPerWave": 1,
						"StartingPoints": 1,
						"StartingWave": 4,
						"ZombiePool": [
							"RTID(roman_ballista@ZombieTypes)",
							"RTID(pharaoh@ZombieTypes)",
							"RTID(zcorp_fem_armor2@ZombieTypes)",
							"RTID(zcorp_fem_armor1@ZombieTypes)",
							"RTID(zcorp@ZombieTypes)",
							"RTID(zcorp_armor2@ZombieTypes)"
						]
					},
					{
						"PointIncrementPerWave": 1,
						"StartingPoints": 1,
						"StartingWave": 3,
						"ZombiePool": [
							"RTID(roman_ballista@ZombieTypes)",
							"RTID(pharaoh@ZombieTypes)",
							"RTID(zcorp_fem_armor2@ZombieTypes)",
							"RTID(zcorp_fem_armor1@ZombieTypes)",
							"RTID(zcorp@ZombieTypes)",
							"RTID(zcorp_armor2@ZombieTypes)"
						]
					}
				],
				"WaveManagerProps": "RTID(WaveManagerProps@CurrentLevel)"
			}
		},
		{
			"aliases": [
				"WaveManagerProps"
			],
			"objclass": "WaveManagerProperties",
			"objdata": {
				"FlagWaveInterval": 10000,
				"WaveCount": 1000,
				"WaveSpendingPointIncrement": 200,
				"WaveSpendingPoints": 100,
				"Waves": [
					[
						"RTID(Wave1@CurrentLevel)"
					],
					[
						"RTID(Wave2@CurrentLevel)",
						"RTID(Wave2SunDropperEvent0@CurrentLevel)"
					],
					[
						"RTID(Wave3@CurrentLevel)"
					],
					[
						"RTID(Wave4@CurrentLevel)",
						"RTID(Wave4SunDropperEvent0@CurrentLevel)"
					],
					[
						"RTID(Wave5@CurrentLevel)"
					],
					[
						"RTID(Wave6@CurrentLevel)",
						"RTID(Wave6SunDropperEvent0@CurrentLevel)"
					],
					[
						"RTID(Wave7@CurrentLevel)",
						"RTID(Wave7RaidingPartyEvent0@CurrentLevel)"
					],
					[
						"RTID(Wave8@CurrentLevel)",
						"RTID(Wave8SunDropperEvent0@CurrentLevel)"
					],
					[
						"RTID(Wave9@CurrentLevel)"
					],
					[
						"RTID(Wave10@CurrentLevel)",
						"RTID(Wave10SunDropperEvent0@CurrentLevel)"
					]
				],
				"WavesAlwaysRandomized": true
			}
		},
		{
			"aliases": [
				"Wave1"
			],
			"objclass": "SpawnZombiesJitteredWaveActionProps",
			"objdata": {
				"Zombies": [
					{
						"Type": "RTID(tomb_raiser@ZombieTypes)"
					},
					{
						"Type": "RTID(zcorp_consultant@ZombieTypes)"
					}
				]
			}
		},
		{
			"aliases": [
				"Wave2"
			],
			"objclass": "SpawnZombiesJitteredWaveActionProps",
			"objdata": {
				"Zombies": [
					{
						"Type": "RTID(tomb_raiser@ZombieTypes)"
					},
					{
						"Type": "RTID(tomb_raiser@ZombieTypes)"
					},
					{
						"Type": "RTID(zcorp_consultant@ZombieTypes)"
					}
				]
			}
		},
		{
			"aliases": [
				"Wave3"
			],
			"objclass": "SpawnZombiesJitteredWaveActionProps",
			"objdata": {
				"Zombies": [
					{
						"Type": "RTID(tomb_raiser@ZombieTypes)"
					},
					{
						"Type": "RTID(zcorp_consultant@ZombieTypes)"
					},
					{
						"Type": "RTID(zcorp_consultant@ZombieTypes)"
					}
				]
			}
		},
		{
			"aliases": [
				"Wave4"
			],
			"objclass": "SpawnZombiesJitteredWaveActionProps",
			"objdata": {
				"Zombies": [
					{
						"Type": "RTID(tomb_raiser@ZombieTypes)"
					},
					{
						"Type": "RTID(tomb_raiser@ZombieTypes)"
					},
					{
						"Type": "RTID(zcorp_consultant@ZombieTypes)"
					}
				]
			}
		},
		{
			"aliases": [
				"Wave5"
			],
			"objclass": "SpawnZombiesJitteredWaveActionProps",
			"objdata": {
				"Zombies": [
					{
						"Type": "RTID(zcorp_gargantuar@ZombieTypes)"
					}
				]
			}
		},
		{
			"aliases": [
				"Wave6"
			],
			"objclass": "SpawnZombiesJitteredWaveActionProps",
			"objdata": {
				"AdditionalPlantfood": 1,
				"ForcedCondition": {
					"Condition": "speedup4",
					"Duration": 10
				},
				"Zombies": [
					{
						"Row": "1",
						"Type": "RTID(roman_shield_triad@ZombieTypes)"
					},
					{
						"Row": "2",
						"Type": "RTID(roman_shield_triad@ZombieTypes)"
					},
					{
						"Row": "3",
						"Type": "RTID(roman_shield_triad@ZombieTypes)"
					},
					{
						"Row": "4",
						"Type": "RTID(roman_shield_triad@ZombieTypes)"
					},
					{
						"Row": "5",
						"Type": "RTID(roman_shield_triad@ZombieTypes)"
					}
				]
			}
		},
		{
			"aliases": [
				"Wave7"
			],
			"objclass": "SpawnZombiesJitteredWaveActionProps",
			"objdata": {
				"ForcedCondition": {
					"Condition": "speedup4",
					"Duration": 5
				}
			}
		},
		{
			"aliases": [
				"Wave8"
			],
			"objclass": "SpawnZombiesJitteredWaveActionProps",
			"objdata": {
				"ForcedCondition": {
					"Condition": "speedup4",
					"Duration": 15
				},
				"Zombies": [
					{
						"Row": "1",
						"Type": "RTID(zcorp_consultant@ZombieTypes)"
					},
					{
						"Row": "2",
						"Type": "RTID(zcorp_consultant@ZombieTypes)"
					},
					{
						"Row": "3",
						"Type": "RTID(zcorp_consultant@ZombieTypes)"
					},
					{
						"Row": "4",
						"Type": "RTID(zcorp_consultant@ZombieTypes)"
					},
					{
						"Row": "5",
						"Type": "RTID(zcorp_consultant@ZombieTypes)"
					}
				]
			}
		},
		{
			"aliases": [
				"Wave9"
			],
			"objclass": "SpawnZombiesJitteredWaveActionProps",
			"objdata": {
				"ForcedCondition": {
					"Condition": "speedup4",
					"Duration": 12
				},
				"Zombies": [
					{
						"Row": "1",
						"Type": "RTID(tomb_raiser@ZombieTypes)"
					},
					{
						"Row": "2",
						"Type": "RTID(tomb_raiser@ZombieTypes)"
					},
					{
						"Row": "3",
						"Type": "RTID(tomb_raiser@ZombieTypes)"
					},
					{
						"Row": "4",
						"Type": "RTID(tomb_raiser@ZombieTypes)"
					},
					{
						"Row": "5",
						"Type": "RTID(tomb_raiser@ZombieTypes)"
					},
					{
						"Row": "5",
						"Type": "RTID(tomb_raiser@ZombieTypes)"
					},
					{
						"Row": "4",
						"Type": "RTID(tomb_raiser@ZombieTypes)"
					},
					{
						"Row": "3",
						"Type": "RTID(tomb_raiser@ZombieTypes)"
					},
					{
						"Row": "2",
						"Type": "RTID(tomb_raiser@ZombieTypes)"
					},
					{
						"Row": "1",
						"Type": "RTID(tomb_raiser@ZombieTypes)"
					}
				]
			}
		},
		{
			"aliases": [
				"Wave10"
			],
			"objclass": "SpawnZombiesJitteredWaveActionProps",
			"objdata": {
				"ForcedCondition": {
					"Condition": "speedup4",
					"Duration": 8
				},
				"Zombies": [
					{
						"Type": "RTID(zcorp_gargantuar@ZombieTypes)"
					}
				]
			}
		},
		{
			"aliases": [
				"Wave2SunDropperEvent0"
			],
			"objclass": "SunDropperWaveActionProps",
			"objdata": {
				"SunAmountToDrop": 150
			}
		},
		{
			"aliases": [
				"Wave4SunDropperEvent0"
			],
			"objclass": "SunDropperWaveActionProps",
			"objdata": {
				"SunAmountToDrop": 150
			}
		},
		{
			"aliases": [
				"Wave6SunDropperEvent0"
			],
			"objclass": "SunDropperWaveActionProps",
			"objdata": {
				"SunAmountToDrop": 150
			}
		},
		{
			"aliases": [
				"Wave8SunDropperEvent0"
			],
			"objclass": "SunDropperWaveActionProps",
			"objdata": {
				"SunAmountToDrop": 150
			}
		},
		{
			"aliases": [
				"Wave10SunDropperEvent0"
			],
			"objclass": "SunDropperWaveActionProps",
			"objdata": {
				"SunAmountToDrop": 150
			}
		},
		{
			"aliases": [
				"Wave7RaidingPartyEvent0"
			],
			"objclass": "RaidingPartyZombieSpawnerProps",
			"objdata": {
				"GroupSize": "1",
				"SwashbucklerCount": 10,
				"TimeBetweenGroups": 1
			}
		}
	],
	"version": 1
}