{
	"#comment": "Rift 166 v1",
	"objects": [
		{
			"objclass": "LevelDefinition",
			"objdata": {
				"Description": "[PLAYERS_TRIP_TO_RIFT]",
				"IsVasebreaker": true,
				"LevelMutator": "RTID(LevelMutator@CurrentLevel)",
				"LevelNumber": "",
				"Loot": "",
				"LevelPowerupSet": "",
				"Modules": [
					"RTID(ZombiesDeadWinCon@LevelModules)",
					"RTID(DefaultZombieWinCondition@LevelModules)",
					"RTID(PerkActivator@CurrentLevel)",
					"RTID(Rails@CurrentLevel)",
					"RTID(VaseBreakerProps@.)"
				],
				"MusicType": "MiniGame_B",
				"Name": "[RIFT_LEVEL_NAME]",
				"NormalPresentTable": "egypt_normal_01",
				"ShinyPresentTable": "egypt_shiny_01",
				"StageModule": "RTID(RiftStage@LevelModules)",
				"VictoryModule": "RTID(RiftOutro@LevelModules)",
				"SuppressSunSpawn": true,
				"PerksDisabledInLevel": [
					"sunbreak",
					"moarscore",
					"bossbustercannon",
					"sunbank",
					"trafficjam",
					"quickdelivery",
					"applyconditionsuncarrier50",
					"zombieinhibitorballista",
					"zombieinhibitorgargantuar",
					"utilitybelt_cherrybomb",
					"utilitybelt_hurrikale",
					"utilitybelt_imppear",
					"utilitybelt_hypnoshroom",
					"utilitybelt_icebloom",
					"utilitybelt_puffball",
					"heavywatering"
				],
				"PerksDisabledPerDifficulty": [
					[],
					[],
					[]
				]
			}
		},
		{
			"aliases": [
				"Rails"
			],
			"objclass": "RailcartProperties",
			"objdata": {
				"RailcartType": "railcart_cowboy",
				"Railcarts": [
					{
						"Column": 1,
						"Row": 2
					}
				],
				"Rails": [
					{
						"Column": 1,
						"RowEnd": 3,
						"RowStart": 1
					}
				]
			}
		},
		{
			"aliases": [
				"PerkActivator"
			],
			"objclass": "PerkHandlerModuleProperties",
			"objdata": {}
		},
		{
			"aliases": [
				"LevelMutator"
			],
			"objclass": "LevelMutatorModuleProperties",
			"objdata": {
				"MutatorTables": [
					"RTID(MutatorPropsVasebreaker@LevelMutatorTables)",
					"RTID(LocalChallengeMutator@CurrentLevel)",
					"RTID(LocalMainChallengeMutator@CurrentLevel)"
				]
			}
		},
		{
			"aliases": [
				"LocalMainChallengeMutator"
			],
			"objclass": "LevelMutatorTableProps",
			"objdata": {
				"Tables": [
					{
						"Level": 0,
						"Modules": [
							"RTID(BeatTheLevel@CurrentLevel)"
						],
						"ModuleType": "mainchallenge"
					},
					{
						"Level": 1,
						"Modules": [
							"RTID(BeatTheLevel@CurrentLevel)"
						],
						"ModuleType": "mainchallenge"
					},
					{
						"Level": 2,
						"Modules": [
							"RTID(BeatTheLevel@CurrentLevel)"
						],
						"ModuleType": "mainchallenge"
					}
				]
			}
		},
		{
			"aliases": [
				"LevelDifficultyScaling"
			],
			"objclass": "LevelDifficultyScalingModuleProperties",
			"objdata": {
				"DifficultyRulesType": "RiftDifficulty",
				"ZombieLevelSwaps": [
					{
						"Level": 0,
						"Swaps": []
					},
					{
						"Level": 3,
						"Swaps": []
					},
					{
						"Level": 6,
						"Swaps": []
					}
				]
			}
		},
		{
			"aliases": [
				"BeatTheLevel"
			],
			"objclass": "StarChallengeBeatTheLevelProps",
			"objdata": {
				"Description": "[STARCHALLENGE_RIFT_VASEBREAKER]",
				"DescriptiveName": "[STARCHALLENGE_RIFT_VASEBREAKER_NAME]"
			}
		},
		{
			"aliases": [
				"LocalChallengeMutator"
			],
			"objclass": "LevelMutatorTableProps",
			"objdata": {
				"Tables": [
					{
						"Level": 0,
						"ModuleType": "bonuschallenge",
						"Modules": [
							"RTID(ApplyZombieConditions1@CurrentLevel)"
						]
					},
					{
						"Level": 1,
						"ModuleType": "bonuschallenge",
						"Modules": [
							"RTID(ApplyZombieConditions2@CurrentLevel)",
							"RTID(ZombieDistance@CurrentLevel)"
						]
					},
					{
						"Level": 2,
						"ModuleType": "bonuschallenge",
						"Modules": [
							"RTID(ApplyZombieConditions3@CurrentLevel)",
							"RTID(ZombieDistance2@CurrentLevel)"
						]
					}
				]
			}
		},
		{
			"aliases": [
				"ZombieDistance"
			],
			"objclass": "StarChallengeZombieDistanceProps",
			"objdata": {
				"TargetDistance": 1
			}
		},
		{
			"aliases": [
				"ZombieDistance2"
			],
			"objclass": "StarChallengeZombieDistanceProps",
			"objdata": {
				"TargetDistance": 2
			}
		},
		{
			"aliases": [
				"ApplyZombieConditions1"
			],
			"objclass": "ApplyZombieConditionsChallengeProps",
			"objdata": {
				"ConditionToInflict": [
					"iceblocked"
				],
				"NumZombieConditionsToApply": 3
			}
		},
		{
			"aliases": [
				"ApplyZombieConditions2"
			],
			"objclass": "ApplyZombieConditionsChallengeProps",
			"objdata": {
				"ConditionToInflict": [
					"iceblocked"
				],
				"NumZombieConditionsToApply": 5
			}
		},
		{
			"aliases": [
				"ApplyZombieConditions3"
			],
			"objclass": "ApplyZombieConditionsChallengeProps",
			"objdata": {
				"ConditionToInflict": [
					"iceblocked"
				],
				"NumZombieConditionsToApply": 6
			}
		},
		{
			"objclass": "VaseBreakerPresetProperties",
			"aliases": [
				"VaseBreakerProps"
			],
			"objdata": {
				"MinColumnIndex": 3,
				"MaxColumnIndex": 8,
				"GridSquareExcludelist": [],
				"Vases": [
					{
						"ZombieTypeName": "zcorp",
						"Count": 5
					},
					{
						"ZombieTypeName": "zcorp_fem",
						"Count": 6
					},
					{
						"ZombieTypeName": "zcorp_armor1",
						"Count": 1
					},
					{
						"ZombieTypeName": "zcorp_fem_armor2",
						"Count": 1
					},
					{
						"ZombieTypeName": "zcorp_consultant",
						"Count": 1
					},
					{
						"PlantTypeName": "murkadamia",
						"Count": 7,
						"Level": -1
					},
					{
						"PlantTypeName": "moonflower",
						"Count": 3
					},
					{
						"PlantTypeName": "icebloom",
						"Count": 4
					},
					{
						"PlantTypeName": "shadowshroom",
						"Count": 2
					},
					{
						"CollectableTypeName": "plantfood",
						"Count": 0
					}
				],
				"NumColoredPlantVases": 5,
				"NumColoredZombieVases": 3
			}
		}
	],
	"version": 1
}