{
	"#comment": "joust112 v1",
	"objects": [
		{
			"objclass": "LevelDefinition",
			"objdata": {
				"CompletionAchievement": "",
				"Description": "[PLAYERS_TRIP_TO_RIFT]",
				"DisablePlantBoosts": false,
				"GridItemLevel": 1,
				"LevelNumber": "",
				"Loot": "",
				"Modules": [
					"RTID(ZombiesDeadWinCon@LevelModules)",
					"RTID(StandardRiftIntro@LevelModules)",
					"RTID(DefaultZombieWinCondition@LevelModules)",
					"RTID(DarkMowers@LevelModules)",
					"RTID(ConveyorBelt@CurrentLevel)",
					"RTID(NewWaves@CurrentLevel)",
					"RTID(PerkActivator@CurrentLevel)",
					"RTID(LevelDifficultyScaling@CurrentLevel)",
					"RTID(LevelScoring@CurrentLevel)",
					"RTID(ScoreTiles@CurrentLevel)",
					"RTID(WaveDuplicator@CurrentLevel)",
					"RTID(FrozenPlantPlacement@CurrentLevel)"
				],
				"MusicType": "MiniGame_A",
				"Name": "[RIFT_LEVEL_NAME]",
				"NormalPresentTable": "egypt_normal_01",
				"ShinyPresentTable": "egypt_shiny_01",
				"VictoryModule": "RTID(RiftOutro@LevelModules)",
				"StageModule": "RTID(JoustStage@LevelModules)",
				"SuppressAccountUpgrades": true,
				"SuppressDynamicTutorial": true,
				"SuppressPlantfoodPurchase": false,
				"LevelMutator": "RTID(LevelMutator@CurrentLevel)",
				"PerksDisabledInLevel": [
					"bossbustercannon",
					"heavywatering",
					"sunbreak",
					"sunbank",
					"applyconditionsuncarrier50"
				],
				"PerksDisabledPerDifficulty": [
					[],
					[],
					[]
				]
			}
		},
		{
			"aliases": [
				"FrozenPlantPlacement"
			],
			"objclass": "InitialPlantProperties",
			"objdata": {
				"InitialPlantPlacements": [
					{
						"GridX": 0,
						"GridY": 0,
						"Level": -1,
						"TypeName": "blastberry"
					},
					{
						"GridX": 0,
						"GridY": 1,
						"Level": -1,
						"TypeName": "blastberry"
					},
					{
						"GridX": 0,
						"GridY": 2,
						"Level": -1,
						"TypeName": "blastberry"
					},
					{
						"GridX": 0,
						"GridY": 3,
						"Level": -1,
						"TypeName": "blastberry"
					},
					{
						"GridX": 0,
						"GridY": 4,
						"Level": -1,
						"TypeName": "blastberry"
					}
				]
			}
		},
		{
			"aliases": [
				"WaveDuplicator"
			],
			"objclass": "WaveDuplicatorModuleProperties",
			"objdata": {
				"PeriodOfWavesToLoop": 4,
				"WaveSetsToAppend": 20
			}
		},
		{
			"aliases": [
				"PerkActivator"
			],
			"objclass": "PerkHandlerModuleProperties",
			"objdata": {}
		},
		{
			"aliases": [
				"LevelMutator"
			],
			"objclass": "LevelMutatorModuleProperties",
			"objdata": {
				"MutatorTables": [
					"RTID(MutatorPropsRiftConveyor@LevelMutatorTables)",
					"RTID(LocalChallengeMutator@CurrentLevel)",
					"RTID(LocalMainChallengeMutator@CurrentLevel)"
				]
			}
		},
		{
			"aliases": [
				"LocalMainChallengeMutator"
			],
			"objclass": "LevelMutatorTableProps",
			"objdata": {
				"Tables": [
					{
						"Level": 0,
						"ModuleType": "mainchallenge",
						"Modules": [
							"RTID(LevelTimer@CurrentLevel)"
						]
					},
					{
						"Level": 1,
						"ModuleType": "mainchallenge",
						"Modules": [
							"RTID(LevelTimer@CurrentLevel)"
						]
					},
					{
						"Level": 2,
						"ModuleType": "mainchallenge",
						"Modules": [
							"RTID(LevelTimer@CurrentLevel)"
						]
					}
				]
			}
		},
		{
			"aliases": [
				"LevelTimer"
			],
			"objclass": "StarChallengeLevelTimerProperties",
			"objdata": {
				"TimeLimit": 150
			}
		},
		{
			"aliases": [
				"LocalChallengeMutator"
			],
			"objclass": "LevelMutatorTableProps",
			"objdata": {
				"Tables": [
					{
						"Level": 0,
						"ModuleType": "bonuschallenge",
						"Modules": [
							"RTID(ReachTheScore1@CurrentLevel)"
						]
					},
					{
						"Level": 1,
						"ModuleType": "bonuschallenge",
						"Modules": [
							"RTID(ReachTheScore2@CurrentLevel)",
							"RTID(ProtectThePlant2@CurrentLevel)"
						]
					},
					{
						"Level": 2,
						"ModuleType": "bonuschallenge",
						"Modules": [
							"RTID(ReachTheScore3@CurrentLevel)",
							"RTID(ProtectThePlant3@CurrentLevel)"
						]
					}
				]
			}
		},
		{
			"aliases": [
				"ReachTheScore1"
			],
			"objclass": "StarChallengeTargetScoreProps",
			"objdata": {
				"Description": "[STARCHALLENGE_SCORE_TO_BEAT]",
				"DescriptionFailure": "[STARCHALLENGE_TARGET_SCORE_FAILURE]",
				"DescriptiveName": "[STARCHALLENGE_TARGET_SCORE_NAME]",
				"TargetScore": 2500000
			}
		},
		{
			"aliases": [
				"ReachTheScore2"
			],
			"objclass": "StarChallengeTargetScoreProps",
			"objdata": {
				"Description": "[STARCHALLENGE_SCORE_TO_BEAT]",
				"DescriptionFailure": "[STARCHALLENGE_TARGET_SCORE_FAILURE]",
				"DescriptiveName": "[STARCHALLENGE_TARGET_SCORE_NAME]",
				"TargetScore": 4500000
			}
		},
		{
			"aliases": [
				"ReachTheScore3"
			],
			"objclass": "StarChallengeTargetScoreProps",
			"objdata": {
				"Description": "[STARCHALLENGE_SCORE_TO_BEAT]",
				"DescriptionFailure": "[STARCHALLENGE_TARGET_SCORE_FAILURE]",
				"DescriptiveName": "[STARCHALLENGE_TARGET_SCORE_NAME]",
				"TargetScore": 10000000
			}
		},
		{
			"aliases": [
				"ProtectThePlant2"
			],
			"objclass": "ProtectThePlantChallengeProperties",
			"objdata": {
				"MustProtectCount": 5,
				"Plants": [
					{
						"GridX": 0,
						"GridY": 0,
						"Level": -1,
						"PlantType": "coconutcannon"
					},
					{
						"GridX": 0,
						"GridY": 1,
						"Level": -1,
						"PlantType": "coconutcannon"
					},
					{
						"GridX": 0,
						"GridY": 2,
						"Level": -1,
						"PlantType": "coconutcannon"
					},
					{
						"GridX": 0,
						"GridY": 3,
						"Level": -1,
						"PlantType": "coconutcannon"
					},
					{
						"GridX": 0,
						"GridY": 4,
						"Level": -1,
						"PlantType": "coconutcannon"
					}
				]
			}
		},
		{
			"aliases": [
				"ProtectThePlant3"
			],
			"objclass": "ProtectThePlantChallengeProperties",
			"objdata": {
				"MustProtectCount": 5,
				"Plants": [
					{
						"GridX": 0,
						"GridY": 0,
						"Level": -1,
						"PlantType": "coconutcannon"
					},
					{
						"GridX": 0,
						"GridY": 1,
						"Level": -1,
						"PlantType": "coconutcannon"
					},
					{
						"GridX": 0,
						"GridY": 2,
						"Level": -1,
						"PlantType": "coconutcannon"
					},
					{
						"GridX": 0,
						"GridY": 3,
						"Level": -1,
						"PlantType": "coconutcannon"
					},
					{
						"GridX": 0,
						"GridY": 4,
						"Level": -1,
						"PlantType": "coconutcannon"
					}
				]
			}
		},
		{
			"aliases": [
				"LevelDifficultyScaling"
			],
			"objclass": "LevelDifficultyScalingModuleProperties",
			"objdata": {
				"DifficultyRulesType": "RiftDifficulty",
				"ZombieLevelSwaps": [
					{
						"Level": 0,
						"Swaps": [
							{
								"From": "RTID(beach_surfer@ZombieTypes)",
								"To": [
									"RTID(beach_surfer@ZombieTypes)"
								]
							},
							{
								"From": "RTID(dino_imp@ZombieTypes)",
								"To": [
									"RTID(dino_imp@ZombieTypes)",
									"RTID(dark_imp_dragon@ZombieTypes)"
								]
							},
							{
								"From": "RTID(lostcity_bug@ZombieTypes)",
								"To": [
									"RTID(lostcity_bug@ZombieTypes)",
									"RTID(lostcity_bug_armor1@ZombieTypes)"
								]
							}
						]
					},
					{
						"Level": 4,
						"Swaps": [
							{
								"From": "RTID(beach_surfer@ZombieTypes)",
								"To": [
									"RTID(eighties_punk@ZombieTypes)",
									"RTID(beach_surfer@ZombieTypes)"
								]
							},
							{
								"From": "RTID(dino_imp@ZombieTypes)",
								"To": [
									"RTID(dino_imp@ZombieTypes)",
									"RTID(dark_imp_dragon@ZombieTypes)",
									"RTID(barrelroller@ZombieTypes)"
								]
							},
							{
								"From": "RTID(lostcity_bug@ZombieTypes)",
								"To": [
									"RTID(lostcity_bug@ZombieTypes)",
									"RTID(lostcity_bug_armor1@ZombieTypes)",
									"RTID(lostcity_bug_armor2@ZombieTypes)"
								]
							}
						]
					},
					{
						"Level": 7,
						"Swaps": [
							{
								"From": "RTID(beach_surfer@ZombieTypes)",
								"To": [
									"RTID(eighties_punk@ZombieTypes)",
									"RTID(beach_surfer@ZombieTypes)",
									"RTID(eighties_breakdancer@ZombieTypes)"
								]
							},
							{
								"From": "RTID(dino_imp@ZombieTypes)",
								"To": [
									"RTID(dino_imp@ZombieTypes)",
									"RTID(dark_imp_dragon@ZombieTypes)",
									"RTID(barrelroller@ZombieTypes)",
									"RTID(cannon@ZombieTypes)"
								]
							},
							{
								"From": "RTID(lostcity_bug@ZombieTypes)",
								"To": [
									"RTID(lostcity_bug_armor1@ZombieTypes)",
									"RTID(lostcity_bug_armor2@ZombieTypes)"
								]
							}
						]
					}
				]
			}
		},
		{
			"aliases": [
				"ConveyorBelt"
			],
			"objclass": "ConveyorSeedBankProperties",
			"objdata": {
				"DropDelayConditions": [
					{
						"Delay": 3,
						"MaxPackets": 0
					},
					{
						"Delay": 6,
						"MaxPackets": 2
					},
					{
						"Delay": 9,
						"MaxPackets": 4
					},
					{
						"Delay": 12,
						"MaxPackets": 8
					}
				],
				"InitialPlantList": [
					{
						"MaxCount": 4,
						"MaxWeightFactor": 0,
						"MinCount": 3,
						"MinWeightFactor": 3,
						"PlantType": "stickybombrice",
						"Weight": 25
					},
					{
						"MaxCount": 2,
						"MaxWeightFactor": 0,
						"MinCount": 2,
						"MinWeightFactor": 3,
						"PlantType": "zoybeanpod",
						"Weight": 20
					},
					{
						"MaxCount": 5,
						"MaxWeightFactor": 0,
						"MaxCountCooldownSeconds": 15,
						"MinCount": 0,
						"MinWeightFactor": 3,
						"PlantType": "tallnut",
						"Weight": 45
					},
					{
						"PlantType": "blastberry",
						"Weight": 45
					},
					{
						"PlantType": "ultomato",
						"Weight": 45
					}
				],
				"SpeedConditions": [
					{
						"MaxPackets": 0,
						"Speed": 100
					}
				]
			}
		},
		{
			"aliases": [
				"LevelScoring"
			],
			"objclass": "LevelScoringModuleProperties",
			"objdata": {
				"PlantBonusMultiplier": 0.1,
				"PlantBonuses": [],
				"ScoringRulesType": "Rift",
				"StartingPlantfood": 0
			}
		},
		{
			"aliases": [
				"ScoreTiles"
			],
			"objclass": "InitialGridItemProperties",
			"objdata": {
				"InitialGridItemPlacements": [
					{
						"GridX": 8,
						"GridY": 0,
						"TypeName": "score_5x_tile"
					},
					{
						"GridX": 8,
						"GridY": 1,
						"TypeName": "score_5x_tile"
					},
					{
						"GridX": 8,
						"GridY": 2,
						"TypeName": "score_5x_tile"
					},
					{
						"GridX": 8,
						"GridY": 3,
						"TypeName": "score_5x_tile"
					},
					{
						"GridX": 8,
						"GridY": 4,
						"TypeName": "score_5x_tile"
					},
					{
						"GridX": 7,
						"GridY": 0,
						"TypeName": "score_5x_tile"
					},
					{
						"GridX": 7,
						"GridY": 1,
						"TypeName": "score_5x_tile"
					},
					{
						"GridX": 7,
						"GridY": 2,
						"TypeName": "score_5x_tile"
					},
					{
						"GridX": 7,
						"GridY": 3,
						"TypeName": "score_5x_tile"
					},
					{
						"GridX": 7,
						"GridY": 4,
						"TypeName": "score_5x_tile"
					},
					{
						"GridX": 6,
						"GridY": 0,
						"TypeName": "score_3x_tile"
					},
					{
						"GridX": 6,
						"GridY": 1,
						"TypeName": "score_3x_tile"
					},
					{
						"GridX": 6,
						"GridY": 2,
						"TypeName": "score_3x_tile"
					},
					{
						"GridX": 6,
						"GridY": 3,
						"TypeName": "score_3x_tile"
					},
					{
						"GridX": 6,
						"GridY": 4,
						"TypeName": "score_3x_tile"
					},
					{
						"GridX": 5,
						"GridY": 0,
						"TypeName": "score_3x_tile"
					},
					{
						"GridX": 5,
						"GridY": 1,
						"TypeName": "score_3x_tile"
					},
					{
						"GridX": 5,
						"GridY": 2,
						"TypeName": "score_3x_tile"
					},
					{
						"GridX": 5,
						"GridY": 3,
						"TypeName": "score_3x_tile"
					},
					{
						"GridX": 5,
						"GridY": 4,
						"TypeName": "score_3x_tile"
					},
					{
						"GridX": 4,
						"GridY": 0,
						"TypeName": "score_2x_tile"
					},
					{
						"GridX": 4,
						"GridY": 1,
						"TypeName": "score_2x_tile"
					},
					{
						"GridX": 4,
						"GridY": 2,
						"TypeName": "score_2x_tile"
					},
					{
						"GridX": 4,
						"GridY": 3,
						"TypeName": "score_2x_tile"
					},
					{
						"GridX": 4,
						"GridY": 4,
						"TypeName": "score_2x_tile"
					},
					{
						"GridX": 3,
						"GridY": 0,
						"TypeName": "score_2x_tile"
					},
					{
						"GridX": 3,
						"GridY": 1,
						"TypeName": "score_2x_tile"
					},
					{
						"GridX": 3,
						"GridY": 2,
						"TypeName": "score_2x_tile"
					},
					{
						"GridX": 3,
						"GridY": 3,
						"TypeName": "score_2x_tile"
					},
					{
						"GridX": 3,
						"GridY": 4,
						"TypeName": "score_2x_tile"
					}
				]
			}
		},
		{
			"aliases": [
				"NewWaves"
			],
			"objclass": "WaveManagerModuleProperties",
			"objdata": {
				"DynamicZombies": [
					{},
					{},
					{},
					{
						"MaxPoints": 2250,
						"PointIncrementPerWave": 225,
						"StartingPoints": 1500,
						"StartingWave": 0,
						"ZombiePool": [
							"RTID(dino_imp@ZombieTypes)",
							"RTID(lostcity_bug@ZombieTypes)",
							"RTID(barrelroller@ZombieTypes)"
						]
					},
					{},
					{},
					{}
				],
				"WaveManagerProps": "RTID(WaveManagerProps@CurrentLevel)"
			}
		},
		{
			"aliases": [
				"WaveManagerProps"
			],
			"objclass": "WaveManagerProperties",
			"objdata": {
				"FlagWaveInterval": 100,
				"WaveCount": 100,
				"WaveSpendingPointIncrement": 150,
				"WaveSpendingPoints": 0,
				"Waves": [
					[
						"RTID(Wave1@CurrentLevel)"
					],
					[
						"RTID(Wave2@CurrentLevel)"
					],
					[
						"RTID(Wave3@CurrentLevel)",
						"RTID(Wave3SpiderRainEvent0@CurrentLevel)"
					],
					[
						"RTID(Wave4@CurrentLevel)",
						"RTID(Wave4StormEvent0@CurrentLevel)"
					],
					[
						"RTID(Wave5@CurrentLevel)",
						"RTID(Wave5SpiderRainEvent0@CurrentLevel)"
					],
					[
						"RTID(Wave6@CurrentLevel)",
						"RTID(Wave6StormEvent0@CurrentLevel)",
						"RTID(Wave6ModConveyor0@CurrentLevel)"
					],
					[
						"RTID(Wave7@CurrentLevel)",
						"RTID(Wave7SpiderRainEvent0@CurrentLevel)"
					],
					[
						"RTID(Wave8@CurrentLevel)",
						"RTID(Wave8StormEvent0@CurrentLevel)"
					],
					[
						"RTID(Wave9@CurrentLevel)",
						"RTID(Wave9SpiderRainEvent0@CurrentLevel)"
					],
					[
						"RTID(Wave10@CurrentLevel)",
						"RTID(Wave10StormEvent0@CurrentLevel)"
					]
				],
				"WavesAlwaysRandomized": true
			}
		},
		{
			"aliases": [
				"Wave1"
			],
			"objclass": "SpawnZombiesJitteredWaveActionProps",
			"objdata": {}
		},
		{
			"aliases": [
				"Wave2"
			],
			"objclass": "SpawnZombiesJitteredWaveActionProps",
			"objdata": {}
		},
		{
			"aliases": [
				"Wave3"
			],
			"objclass": "SpawnZombiesJitteredWaveActionProps",
			"objdata": {
				"AdditionalPlantfood": 0,
				"Zombies": [
					{
						"Type": "RTID(cannon@ZombieTypes)"
					}
				]
			}
		},
		{
			"aliases": [
				"Wave4"
			],
			"objclass": "SpawnZombiesJitteredWaveActionProps",
			"objdata": {
				"AdditionalPlantfood": 1,
				"Zombies": []
			}
		},
		{
			"aliases": [
				"Wave5"
			],
			"objclass": "SpawnZombiesJitteredWaveActionProps",
			"objdata": {}
		},
		{
			"aliases": [
				"Wave6"
			],
			"objclass": "SpawnZombiesJitteredWaveActionProps",
			"objdata": {
				"AdditionalPlantfood": 0,
				"Zombies": []
			}
		},
		{
			"aliases": [
				"Wave7"
			],
			"objclass": "SpawnZombiesJitteredWaveActionProps",
			"objdata": {
				"AdditionalPlantfood": 0,
				"Zombies": [
					{
						"Type": "RTID(cannon@ZombieTypes)"
					}
				]
			}
		},
		{
			"aliases": [
				"Wave8"
			],
			"objclass": "SpawnZombiesJitteredWaveActionProps",
			"objdata": {
				"AdditionalPlantfood": 1,
				"Zombies": []
			}
		},
		{
			"aliases": [
				"Wave9"
			],
			"objclass": "SpawnZombiesJitteredWaveActionProps",
			"objdata": {
				"AdditionalPlantfood": 0,
				"Zombies": [
					{
						"Type": "RTID(cannon@ZombieTypes)"
					}
				]
			}
		},
		{
			"aliases": [
				"Wave10"
			],
			"objclass": "SpawnZombiesJitteredWaveActionProps",
			"objdata": {
				"Zombies": []
			}
		},
		{
			"aliases": [
				"Wave3SpiderRainEvent0"
			],
			"objclass": "SpiderRainZombieSpawnerProps",
			"objdata": {
				"ColumnEnd": "7",
				"ColumnStart": "4",
				"GroupSize": 1,
				"SpiderCount": 1,
				"SpiderZombieName": "future_imp",
				"TimeBeforeFullSpawn": "1",
				"TimeBetweenGroups": "0.2",
				"WaveStartMessage": "[WARNING_SPIDERRAIN]",
				"ZombieFallTime": "1.5"
			}
		},
		{
			"aliases": [
				"Wave5SpiderRainEvent0"
			],
			"objclass": "SpiderRainZombieSpawnerProps",
			"objdata": {
				"ColumnEnd": "6",
				"ColumnStart": "4",
				"GroupSize": "2",
				"SpiderCount": 2,
				"SpiderZombieName": "future_imp",
				"TimeBeforeFullSpawn": "1",
				"TimeBetweenGroups": "0.2",
				"WaveStartMessage": "[WARNING_SPIDERRAIN]",
				"ZombieFallTime": "1.5"
			}
		},
		{
			"aliases": [
				"Wave7SpiderRainEvent0"
			],
			"objclass": "SpiderRainZombieSpawnerProps",
			"objdata": {
				"ColumnEnd": "6",
				"ColumnStart": "4",
				"GroupSize": "3",
				"SpiderCount": 3,
				"SpiderZombieName": "future_imp",
				"TimeBeforeFullSpawn": "1",
				"TimeBetweenGroups": "0.2",
				"WaveStartMessage": "[WARNING_SPIDERRAIN]",
				"ZombieFallTime": "1.5"
			}
		},
		{
			"aliases": [
				"Wave9SpiderRainEvent0"
			],
			"objclass": "SpiderRainZombieSpawnerProps",
			"objdata": {
				"ColumnEnd": "6",
				"ColumnStart": "4",
				"GroupSize": "3",
				"SpiderCount": 3,
				"SpiderZombieName": "future_imp",
				"TimeBeforeFullSpawn": "1",
				"TimeBetweenGroups": "0.2",
				"WaveStartMessage": "[WARNING_SPIDERRAIN]",
				"ZombieFallTime": "1.5"
			}
		},
		{
			"aliases": [
				"Wave4StormEvent0"
			],
			"objclass": "StormZombieSpawnerProps",
			"objdata": {
				"ColumnEnd": 7,
				"ColumnStart": 6,
				"GroupSize": 1,
				"TimeBetweenGroups": "3",
				"Type": "sandstorm",
				"Zombies": [
					{
						"Type": "RTID(beach_surfer@ZombieTypes)"
					}
				]
			}
		},
		{
			"aliases": [
				"Wave6StormEvent0"
			],
			"objclass": "StormZombieSpawnerProps",
			"objdata": {
				"ColumnEnd": 7,
				"ColumnStart": 6,
				"GroupSize": 1,
				"TimeBetweenGroups": "3",
				"Type": "sandstorm",
				"Zombies": [
					{
						"Type": "RTID(beach_surfer@ZombieTypes)"
					}
				]
			}
		},
		{
			"aliases": [
				"Wave8StormEvent0"
			],
			"objclass": "StormZombieSpawnerProps",
			"objdata": {
				"ColumnEnd": 6,
				"ColumnStart": 6,
				"GroupSize": 1,
				"TimeBetweenGroups": "3",
				"Type": "sandstorm",
				"Zombies": [
					{
						"Type": "RTID(beach_surfer@ZombieTypes)"
					}
				]
			}
		},
		{
			"aliases": [
				"Wave10StormEvent0"
			],
			"objclass": "StormZombieSpawnerProps",
			"objdata": {
				"ColumnEnd": 6,
				"ColumnStart": 6,
				"GroupSize": 1,
				"TimeBetweenGroups": "3",
				"Type": "snowstorm",
				"Zombies": [
					{
						"Type": "RTID(eighties_gargantuar@ZombieTypes)"
					}
				]
			}
		},
		{
			"aliases": [
				"Wave6ModConveyor0"
			],
			"objclass": "ModifyConveyorWaveActionProps",
			"objdata": {
				"Add": [
					{
						"MaxCount": 1,
						"MaxWeightFactor": 0,
						"MaxCountCooldownSeconds": 25,
						"Type": "RTID(shrinkingviolet@PlantTypes)",
						"Weight": 20
					},
					{
						"MaxCount": 1,
						"MaxWeightFactor": 0,
						"MaxCountCooldownSeconds": 35,
						"Type": "RTID(powerlily@PlantTypes)",
						"Weight": 25
					}
				],
				"Remove": []
			}
		}
	],
	"version": 1
}