{
	"#comment": "Level Of The Day",
	"objects": [
		{
			"objclass": "LevelDefinition",
			"objdata": {
				"Description": "[PLAYERS_TRIP_TO_RIFT]",
				"DraperPromo": "hurrikale",
				"IsLevelOfTheDay": "true",
				"LevelMutator": "RTID(LevelMutator@CurrentLevel)",
				"LevelNumber": "",
				"Loot": "RTID(DefaultLoot@LevelModules)",
				"Modules": [
					"RTID(FrontLawnMowers@LevelModules)",
					"RTID(NewWaves@CurrentLevel)",
					"RTID(DefaultZombieWinCondition@LevelModules)",
					"RTID(Gravestones@CurrentLevel)",
					"RTID(Rails@CurrentLevel)",
					"RTID(ConveyorBelt@CurrentLevel)",
					"RTID(ZombiesDeadWinCon@LevelModules)",
					"RTID(StandardRiftIntro@LevelModules)",
					"RTID(PerkActivator@CurrentLevel)",
					"RTID(LevelDifficultyScaling@CurrentLevel)"
				],
				"Name": "[RIFT_LEVEL_NAME]",
				"PerksDisabledInLevel": [
					"moarscore",
					"bossbustercannon",
					"heavywatering",
					"sunbreak",
					"applyconditionsuncarrier50",
					"zombieinhibitorballista",
					"sunbank"
				],
				"PerksDisabledPerDifficulty": [
					[],
					[],
					[]
				],
				"StageModule": "RTID(FrontLawnStage@LevelModules)",
				"VictoryModule": "RTID(RiftOutro@LevelModules)"
			}
		},
		{
			"aliases": [
				"Rails"
			],
			"objclass": "RailcartProperties",
			"objdata": {
				"RailcartType": "railcart_cowboy",
				"Railcarts": [
					{
						"Column": 0,
						"Row": 2
					},
					{
						"Column": 1,
						"Row": 3
					},
					{
						"Column": 2,
						"Row": 2
					},
					{
						"Column": 3,
						"Row": 1
					},
					{
						"Column": 4,
						"Row": 2
					},
					{
						"Column": 5,
						"Row": 0
					},
					{
						"Column": 5,
						"Row": 3
					},
					{
						"Column": 6,
						"Row": 1
					}
				],
				"Rails": [
					{
						"Column": 0,
						"RowEnd": 4,
						"RowStart": 0
					},
					{
						"Column": 1,
						"RowEnd": 3,
						"RowStart": 1
					},
					{
						"Column": 2,
						"RowEnd": 4,
						"RowStart": 2
					},
					{
						"Column": 3,
						"RowEnd": 4,
						"RowStart": 1
					},
					{
						"Column": 4,
						"RowEnd": 2,
						"RowStart": 0
					},
					{
						"Column": 5,
						"RowEnd": 1,
						"RowStart": 0
					},
					{
						"Column": 5,
						"RowEnd": 4,
						"RowStart": 3
					},
					{
						"Column": 6,
						"RowEnd": 4,
						"RowStart": 0
					}
				]
			}
		},
		{
			"aliases": [
				"WaveManagerProps"
			],
			"objclass": "WaveManagerProperties",
			"objdata": {
				"FlagWaveInterval": 7,
				"MaxNextWaveHealthPercentage": 0.9,
				"MinNextWaveHealthPercentage": 0.8,
				"WaveCount": 14,
				"WaveSpendingPointIncrement": 250,
				"WaveSpendingPoints": 200,
				"Waves": [
					[
						"RTID(Wave1@CurrentLevel)"
					],
					[
						"RTID(Wave2@CurrentLevel)"
					],
					[
						"RTID(Wave3@CurrentLevel)",
						"RTID(Wave3ModConveyor0@CurrentLevel)"
					],
					[
						"RTID(Wave4@CurrentLevel)"
					],
					[
						"RTID(Wave5@CurrentLevel)",
						"RTID(Wave5ModConveyor0@CurrentLevel)"
					],
					[
						"RTID(Wave6@CurrentLevel)"
					],
					[
						"RTID(Wave7@CurrentLevel)"
					],
					[
						"RTID(Wave8@CurrentLevel)"
					],
					[
						"RTID(Wave9@CurrentLevel)"
					],
					[
						"RTID(Wave10@CurrentLevel)"
					],
					[
						"RTID(Wave11@CurrentLevel)"
					],
					[
						"RTID(Wave12@CurrentLevel)"
					],
					[
						"RTID(Wave13@CurrentLevel)"
					],
					[
						"RTID(Wave14@CurrentLevel)"
					]
				]
			}
		},
		{
			"aliases": [
				"Wave1"
			],
			"objclass": "SpawnZombiesJitteredWaveActionProps",
			"objdata": {
				"AdditionalPlantfood": 0,
				"Zombies": [
					{
						"Type": "RTID(tutorial@ZombieTypes)"
					}
				]
			}
		},
		{
			"aliases": [
				"Wave2"
			],
			"objclass": "SpawnZombiesJitteredWaveActionProps",
			"objdata": {
				"AdditionalPlantfood": 1,
				"Zombies": [
					{
						"Type": "RTID(tutorial@ZombieTypes)"
					}
				]
			}
		},
		{
			"aliases": [
				"Wave3"
			],
			"objclass": "SpawnZombiesJitteredWaveActionProps",
			"objdata": {
				"Zombies": [
					{
						"Type": "RTID(tutorial_armor1@ZombieTypes)"
					}
				]
			}
		},
		{
			"aliases": [
				"Wave4"
			],
			"objclass": "SpawnZombiesJitteredWaveActionProps",
			"objdata": {
				"Zombies": [
					{
						"Type": "RTID(tutorial_armor1@ZombieTypes)"
					}
				]
			}
		},
		{
			"aliases": [
				"Wave5"
			],
			"objclass": "SpawnZombiesJitteredWaveActionProps",
			"objdata": {
				"AdditionalPlantfood": 1,
				"Zombies": [
					{
						"Type": "RTID(tutorial_armor2@ZombieTypes)"
					}
				]
			}
		},
		{
			"aliases": [
				"Wave6"
			],
			"objclass": "SpawnZombiesJitteredWaveActionProps",
			"objdata": {
				"AdditionalPlantfood": 1,
				"Zombies": [
					{
						"Type": "RTID(tutorial_armor2@ZombieTypes)"
					}
				]
			}
		},
		{
			"aliases": [
				"Wave7"
			],
			"objclass": "SpawnZombiesJitteredWaveActionProps",
			"objdata": {
				"Zombies": [
					{
						"Type": "RTID(disco_mech@ZombieTypes)"
					}
				]
			}
		},
		{
			"aliases": [
				"Wave8"
			],
			"objclass": "SpawnZombiesJitteredWaveActionProps",
			"objdata": {
				"AdditionalPlantfood": 1,
				"Zombies": [
					{
						"Type": "RTID(west_bull@ZombieTypes)"
					}
				]
			}
		},
		{
			"aliases": [
				"Wave9"
			],
			"objclass": "SpawnZombiesJitteredWaveActionProps",
			"objdata": {
				"Zombies": [
					{
						"Type": "RTID(west_bull@ZombieTypes)"
					}
				]
			}
		},
		{
			"aliases": [
				"Gravestones"
			],
			"objclass": "GravestoneProperties",
			"objdata": {
				"ForceSpawnData": [
					{
						"GridX": 7,
						"GridY": 0
					},
					{
						"GridX": 8,
						"GridY": 0
					},
					{
						"GridX": 1,
						"GridY": 0
					},
					{
						"GridX": 2,
						"GridY": 0
					},
					{
						"GridX": 3,
						"GridY": 0
					},
					{
						"GridX": 7,
						"GridY": 1
					},
					{
						"GridX": 8,
						"GridY": 1
					},
					{
						"GridX": 2,
						"GridY": 1
					},
					{
						"GridX": 7,
						"GridY": 2
					},
					{
						"GridX": 8,
						"GridY": 2
					},
					{
						"GridX": 5,
						"GridY": 2
					},
					{
						"GridX": 7,
						"GridY": 3
					},
					{
						"GridX": 8,
						"GridY": 3
					},
					{
						"GridX": 4,
						"GridY": 3
					},
					{
						"GridX": 7,
						"GridY": 4
					},
					{
						"GridX": 8,
						"GridY": 4
					},
					{
						"GridX": 1,
						"GridY": 4
					},
					{
						"GridX": 4,
						"GridY": 4
					}
				]
			}
		},
		{
			"aliases": [
				"NewWaves"
			],
			"objclass": "WaveManagerModuleProperties",
			"objdata": {
				"DynamicZombies": [
					{},
					{},
					{},
					{
						"PointIncrementPerWave": 250,
						"StartingPoints": 200,
						"StartingWave": 1,
						"ZombiePool": [
							"RTID(future_imp@ZombieTypes)",
							"RTID(mech_cone@ZombieTypes)",
							"RTID(zcorp@ZombieTypes)",
							"RTID(zcorp_armor1@ZombieTypes)",
							"RTID(zcorp_armor2@ZombieTypes)"
						]
					},
					{},
					{},
					{}
				],
				"WaveManagerProps": "RTID(WaveManagerProps@CurrentLevel)"
			}
		},
		{
			"aliases": [
				"ConveyorBelt"
			],
			"objclass": "ConveyorSeedBankProperties",
			"objdata": {
				"DropDelayConditions": [
					{
						"Delay": 2.5,
						"MaxPackets": 0
					},
					{
						"Delay": 4,
						"MaxPackets": 2
					},
					{
						"Delay": 6,
						"MaxPackets": 4
					},
					{
						"Delay": 12,
						"MaxPackets": 8
					}
				],
				"InitialPlantList": [
					{
						"MaxCount": 1,
						"MaxCountCooldownSeconds": 35,
						"MaxWeightFactor": 0,
						"PlantType": "cherry_bomb",
						"Weight": 5
					},
					{
						"MaxCount": 2,
						"MaxCountCooldownSeconds": 5,
						"MaxWeightFactor": 0,
						"PlantType": "hurrikale",
						"Weight": 25
					},
					{
						"MaxCount": 2,
						"MaxCountCooldownSeconds": 15,
						"MaxWeightFactor": 0,
						"PlantType": "melonpult",
						"Weight": 30
					},
					{
						"PlantType": "peapod",
						"Weight": 15
					},
					{
						"MaxCount": 2,
						"MaxCountCooldownSeconds": 15,
						"MaxWeightFactor": 0,
						"PlantType": "wallnut",
						"Weight": 15
					}
				],
				"SpeedConditions": [
					{
						"MaxPackets": 0,
						"Speed": 100
					}
				]
			}
		},
		{
			"aliases": [
				"Wave10"
			],
			"objclass": "SpawnZombiesJitteredWaveActionProps",
			"objdata": {
				"AdditionalPlantfood": 1,
				"Zombies": [
					{
						"Type": "RTID(beach_octopus@ZombieTypes)"
					}
				]
			}
		},
		{
			"aliases": [
				"Wave11"
			],
			"objclass": "SpawnZombiesJitteredWaveActionProps",
			"objdata": {
				"Zombies": [
					{
						"Type": "RTID(west_bull@ZombieTypes)"
					}
				]
			}
		},
		{
			"aliases": [
				"Wave12"
			],
			"objclass": "SpawnZombiesJitteredWaveActionProps",
			"objdata": {
				"Zombies": [
					{
						"Type": "RTID(west_bull@ZombieTypes)"
					}
				]
			}
		},
		{
			"aliases": [
				"Wave13"
			],
			"objclass": "SpawnZombiesJitteredWaveActionProps",
			"objdata": {
				"AdditionalPlantfood": 1,
				"Zombies": [
					{
						"Type": "RTID(beach_octopus@ZombieTypes)"
					}
				]
			}
		},
		{
			"aliases": [
				"Wave14"
			],
			"objclass": "SpawnZombiesJitteredWaveActionProps",
			"objdata": {
				"Zombies": [
					{
						"Type": "RTID(disco_mech@ZombieTypes)"
					}
				]
			}
		},
		{
			"aliases": [
				"PerkActivator"
			],
			"objclass": "PerkHandlerModuleProperties",
			"objdata": {}
		},
		{
			"aliases": [
				"LevelMutator"
			],
			"objclass": "LevelMutatorModuleProperties",
			"objdata": {
				"MutatorTables": [
					"RTID(MutatorPropsRiftConveyor@LevelMutatorTables)",
					"RTID(LocalChallengeMutator@CurrentLevel)",
					"RTID(LocalMainChallengeMutator@CurrentLevel)"
				]
			}
		},
		{
			"aliases": [
				"LocalMainChallengeMutator"
			],
			"objclass": "LevelMutatorTableProps",
			"objdata": {
				"Tables": [
					{
						"Level": 0,
						"ModuleType": "mainchallenge",
						"Modules": [
							"RTID(RiftBeatTheLevelChallenge@LevelModules)"
						]
					},
					{
						"Level": 1,
						"ModuleType": "mainchallenge",
						"Modules": [
							"RTID(RiftBeatTheLevelChallenge@LevelModules)"
						]
					},
					{
						"Level": 2,
						"ModuleType": "mainchallenge",
						"Modules": [
							"RTID(RiftBeatTheLevelChallenge@LevelModules)"
						]
					}
				]
			}
		},
		{
			"aliases": [
				"LocalChallengeMutator"
			],
			"objclass": "LevelMutatorTableProps",
			"objdata": {
				"Tables": [
					{
						"Level": 0,
						"ModuleType": "bonuschallenge",
						"Modules": [
							"RTID(PlantFullRowChallenge@CurrentLevel)"
						]
					},
					{
						"Level": 1,
						"ModuleType": "bonuschallenge",
						"Modules": [
							"RTID(ZombieDistance2@CurrentLevel)",
							"RTID(PlantFullRowChallenge@CurrentLevel)"
						]
					},
					{
						"Level": 2,
						"ModuleType": "bonuschallenge",
						"Modules": [
							"RTID(ZombieDistance3@CurrentLevel)",
							"RTID(PlantFullRowChallenge@CurrentLevel)"
						]
					}
				]
			}
		},
		{
			"aliases": [
				"ZombieDistance2"
			],
			"objclass": "StarChallengeZombieDistanceProps",
			"objdata": {
				"TargetDistance": 3
			}
		},
		{
			"aliases": [
				"ZombieDistance3"
			],
			"objclass": "StarChallengeZombieDistanceProps",
			"objdata": {
				"TargetDistance": 5
			}
		},
		{
			"aliases": [
				"PlantFullRowChallenge"
			],
			"objclass": "PlantFullRowChallengeProps",
			"objdata": {
				"NumPlantsInRowNeeded": 9
			}
		},
		{
			"aliases": [
				"LevelDifficultyScaling"
			],
			"objclass": "LevelDifficultyScalingModuleProperties",
			"objdata": {
				"DifficultyRulesType": "RiftDifficulty",
				"ZombieLevelSwaps": [
					{
						"Level": 0,
						"Swaps": [
							{
								"From": "RTID(cowboy@ZombieTypes)",
								"To": [
									"RTID(cowboy@ZombieTypes)"
								]
							},
							{
								"From": "RTID(cowboy_armor1@ZombieTypes)",
								"To": [
									"RTID(cowboy_armor1@ZombieTypes)"
								]
							},
							{
								"From": "RTID(cowboy_armor2@ZombieTypes)",
								"To": [
									"RTID(cowboy_armor2@ZombieTypes)"
								]
							}
						]
					},
					{
						"Level": 4,
						"Swaps": [
							{
								"From": "RTID(cowboy@ZombieTypes)",
								"To": [
									"RTID(cowboy@ZombieTypes)",
									"RTID(cowboy_armor1@ZombieTypes)"
								]
							},
							{
								"From": "RTID(cowboy_armor1@ZombieTypes)",
								"To": [
									"RTID(cowboy_armor1@ZombieTypes)",
									"RTID(cowboy_armor2@ZombieTypes)"
								]
							},
							{
								"From": "RTID(cowboy_armor2@ZombieTypes)",
								"To": [
									"RTID(cowboy_armor2@ZombieTypes)",
									"RTID(cowboy_armor4@ZombieTypes)"
								]
							}
						]
					},
					{
						"Level": 7,
						"Swaps": [
							{
								"From": "RTID(cowboy@ZombieTypes)",
								"To": [
									"RTID(cowboy_armor1@ZombieTypes)",
									"RTID(cowboy_armor2@ZombieTypes)"
								]
							},
							{
								"From": "RTID(cowboy_armor1@ZombieTypes)",
								"To": [
									"RTID(cowboy_armor2@ZombieTypes)",
									"RTID(cowboy_armor4@ZombieTypes)"
								]
							},
							{
								"From": "RTID(cowboy_armor2@ZombieTypes)",
								"To": [
									"RTID(cowboy_armor4@ZombieTypes)"
								]
							}
						]
					}
				]
			}
		},
		{
			"aliases": [
				"Wave3ModConveyor0"
			],
			"objclass": "ModifyConveyorWaveActionProps",
			"objdata": {
				"Add": [
					{
						"MaxCount": 1,
						"MaxCountCooldownSeconds": 55,
						"Type": "RTID(appeasemint@PlantTypes)",
						"Weight": 100
					}
				],
				"Remove": []
			}
		},
		{
			"aliases": [
				"Wave5ModConveyor0"
			],
			"objclass": "ModifyConveyorWaveActionProps",
			"objdata": {
				"Add": [
					{
						"MaxCount": 1,
						"MaxCountCooldownSeconds": 45,
						"Type": "RTID(armamint@PlantTypes)",
						"Weight": 100
					}
				],
				"Remove": []
			}
		}
	],
	"version": 1
}