{
	"#comment": "rift template",
	"objects": [
		{
			"objclass": "LevelDefinition",
			"objdata": {
				"Description": "[PLAYERS_TRIP_TO_RIFT]",
				"DisablePlantBoosts": false,
				"LevelMutator": "RTID(LevelMutator@CurrentLevel)",
				"LevelNumber": "",
				"Loot": "",
				"Modules": [
					"RTID(DefaultSunDropper@LevelModules)",
					"RTID(StandardRiftIntro@LevelModules)",
					"RTID(ZombiesDeadWinCon@LevelModules)",
					"RTID(PirateMowers@LevelModules)",
					"RTID(SeedBank@CurrentLevel)",
					"RTID(DefaultZombieWinCondition@LevelModules)",
					"RTID(NewWaves@CurrentLevel)",
					"RTID(PerkActivator@CurrentLevel)",
					"RTID(WaveDuplicator@CurrentLevel)",
					"RTID(LevelDifficultyScaling@CurrentLevel)",
					"RTID(PiratePlanks@CurrentLevel)"
				],
				"MusicType": "MiniGame_A",
				"Name": "[RIFT_LEVEL_NAME]",
				"NormalPresentTable": "egypt_normal_01",
				"PerksDisabledInLevel": [
					"quickdelivery",
					"zombieinhibitorgargantuar",
					"utilitybelt_cherrybomb",
					"utilitybelt_hypnoshroom"
				],
				"PerksDisabledPerDifficulty": [
					[],
					[],
					[]
				],
				"ShinyPresentTable": "egypt_shiny_01",
				"StageModule": "RTID(PirateStage@LevelModules)",
				"VictoryModule": "RTID(RiftOutro@LevelModules)"
			}
		},
		{
			"aliases": [
				"PiratePlanks"
			],
			"objclass": "PiratePlankProperties",
			"objdata": {
				"PlankRows": [
					0,
					4
				]
			}
		},
		{
			"aliases": [
				"WaveDuplicator"
			],
			"objclass": "WaveDuplicatorModuleProperties",
			"objdata": {
				"PeriodOfWavesToLoop": 4,
				"WaveSetsToAppend": 20
			}
		},
		{
			"aliases": [
				"PerkActivator"
			],
			"objclass": "PerkHandlerModuleProperties",
			"objdata": {}
		},
		{
			"aliases": [
				"LevelMutator"
			],
			"objclass": "LevelMutatorModuleProperties",
			"objdata": {
				"MutatorTables": [
					"RTID(MutatorPropsRiftNormal@LevelMutatorTables)",
					"RTID(LocalChallengeMutator@CurrentLevel)",
					"RTID(LocalMainChallengeMutator@CurrentLevel)"
				]
			}
		},
		{
			"aliases": [
				"LocalMainChallengeMutator"
			],
			"objclass": "LevelMutatorTableProps",
			"objdata": {
				"Tables": [
					{
						"Level": 0,
						"ModuleType": "mainchallenge",
						"Modules": [
							"RTID(LevelTimer1@CurrentLevel)"
						]
					},
					{
						"Level": 1,
						"ModuleType": "mainchallenge",
						"Modules": [
							"RTID(LevelTimer2@CurrentLevel)"
						]
					},
					{
						"Level": 2,
						"ModuleType": "mainchallenge",
						"Modules": [
							"RTID(LevelTimer3@CurrentLevel)"
						]
					}
				]
			}
		},
		{
			"aliases": [
				"LevelTimer1"
			],
			"objclass": "StarChallengeLevelTimerProperties",
			"objdata": {
				"TimeLimit": 120
			}
		},
		{
			"aliases": [
				"LevelTimer2"
			],
			"objclass": "StarChallengeLevelTimerProperties",
			"objdata": {
				"TimeLimit": 150
			}
		},
		{
			"aliases": [
				"LevelTimer3"
			],
			"objclass": "StarChallengeLevelTimerProperties",
			"objdata": {
				"TimeLimit": 180
			}
		},
		{
			"aliases": [
				"LocalChallengeMutator"
			],
			"objclass": "LevelMutatorTableProps",
			"objdata": {
				"Tables": [
					{
						"Level": 0,
						"ModuleType": "bonuschallenge",
						"Modules": [
							"RTID(ProtectThePlant1@CurrentLevel)"
						]
					},
					{
						"Level": 1,
						"ModuleType": "bonuschallenge",
						"Modules": [
							"RTID(PlantFullRowChallenge@CurrentLevel)",
							"RTID(ProtectThePlant2@CurrentLevel)"
						]
					},
					{
						"Level": 2,
						"ModuleType": "bonuschallenge",
						"Modules": [
							"RTID(PlantFullRowChallenge@CurrentLevel)",
							"RTID(ProtectThePlant3@CurrentLevel)"
						]
					}
				]
			}
		},
		{
			"aliases": [
				"PlantFullRowChallenge"
			],
			"objclass": "PlantFullRowChallengeProps",
			"objdata": {
				"NumPlantsInRowNeeded": 9
			}
		},
		{
			"aliases": [
				"ProtectThePlant1"
			],
			"objclass": "ProtectThePlantChallengeProperties",
			"objdata": {
				"MustProtectCount": 4,
				"Plants": [
					{
						"GridX": 3,
						"GridY": 0,
						"PlantType": "hocus"
					},
					{
						"GridX": 3,
						"GridY": 4,
						"PlantType": "hocus"
					},
					{
						"GridX": 2,
						"GridY": 0,
						"PlantType": "boomflower"
					},
					{
						"GridX": 2,
						"GridY": 4,
						"PlantType": "boomflower"
					}
				]
			}
		},
		{
			"aliases": [
				"ProtectThePlant2"
			],
			"objclass": "ProtectThePlantChallengeProperties",
			"objdata": {
				"MustProtectCount": 4,
				"Plants": [
					{
						"GridX": 4,
						"GridY": 0,
						"PlantType": "hocus"
					},
					{
						"GridX": 4,
						"GridY": 4,
						"PlantType": "hocus"
					},
					{
						"GridX": 3,
						"GridY": 1,
						"PlantType": "boomflower"
					},
					{
						"GridX": 3,
						"GridY": 3,
						"PlantType": "boomflower"
					}
				]
			}
		},
		{
			"aliases": [
				"ProtectThePlant3"
			],
			"objclass": "ProtectThePlantChallengeProperties",
			"objdata": {
				"MustProtectCount": 4,
				"Plants": [
					{
						"GridX": 5,
						"GridY": 0,
						"PlantType": "hocus"
					},
					{
						"GridX": 5,
						"GridY": 4,
						"PlantType": "hocus"
					},
					{
						"GridX": 2,
						"GridY": 2,
						"PlantType": "boomflower"
					},
					{
						"GridX": 3,
						"GridY": 2,
						"PlantType": "boomflower"
					}
				]
			}
		},
		{
			"aliases": [
				"WaveDistributor"
			],
			"objclass": "WaveDistributorModuleProperties",
			"objdata": {
				"Count": 32,
				"Pattern": "even",
				"WavesToDistribute": [
					"RTID(DynamicGravestone@CurrentLevel)"
				]
			}
		},
		{
			"aliases": [
				"SeedBank"
			],
			"objclass": "SeedBankProperties",
			"objdata": {
				"PlantExcludeList": [
					"blover"
				],
				"SelectionMethod": "chooser"
			}
		},
		{
			"aliases": [
				"LevelDifficultyScaling"
			],
			"objclass": "LevelDifficultyScalingModuleProperties",
			"objdata": {
				"DifficultyRulesType": "RiftDifficulty",
				"ZombieLevelSwaps": [
					{
						"Level": 0,
						"Swaps": [
							{
								"From": "RTID(zcorp@ZombieTypes)",
								"To": [
									"RTID(zcorp@ZombieTypes)",
									"RTID(zcorp_armor1@ZombieTypes)",
									"RTID(zcorp_fem@ZombieTypes)",
									"RTID(zcorp_fem_armor1@ZombieTypes)"
								]
							}
						]
					},
					{
						"Level": 4,
						"Swaps": [
							{
								"From": "RTID(zcorp@ZombieTypes)",
								"To": [
									"RTID(zcorp@ZombieTypes)",
									"RTID(zcorp_armor1@ZombieTypes)",
									"RTID(zcorp_fem@ZombieTypes)",
									"RTID(zcorp_fem_armor1@ZombieTypes)",
									"RTID(zcorp_armor2@ZombieTypes)",
									"RTID(zcorp_fem_armor2@ZombieTypes)"
								]
							},
							{
								"From": "RTID(dark_juggler@ZombieTypes)",
								"To": [
									"RTID(dark_juggler@ZombieTypes)",
									"RTID(dark_juggler@ZombieTypes)",
									"RTID(zcorp_consultant@ZombieTypes)"
								]
							}
						]
					},
					{
						"Level": 7,
						"Swaps": [
							{
								"From": "RTID(zcorp@ZombieTypes)",
								"To": [
									"RTID(zcorp_armor1@ZombieTypes)",
									"RTID(zcorp_armor2@ZombieTypes)",
									"RTID(zcorp_fem_armor2@ZombieTypes)",
									"RTID(zcorp_fem_armor1@ZombieTypes)"
								]
							},
							{
								"From": "RTID(dark_juggler@ZombieTypes)",
								"To": [
									"RTID(dark_juggler@ZombieTypes)",
									"RTID(zcorp_consultant@ZombieTypes)"
								]
							}
						]
					}
				]
			}
		},
		{
			"aliases": [
				"NewWaves"
			],
			"objclass": "WaveManagerModuleProperties",
			"objdata": {
				"DynamicZombies": [
					{},
					{},
					{},
					{
						"MaxPoints": 2000,
						"PointIncrementPerWave": 150,
						"StartingPoints": 200,
						"StartingWave": 0,
						"ZombiePool": [
							"RTID(dark_juggler@ZombieTypes)",
							"RTID(modern_balloon@ZombieTypes)",
							"RTID(zcorp@ZombieTypes)"
						]
					},
					{},
					{},
					{}
				],
				"WaveManagerProps": "RTID(WaveManagerProps@CurrentLevel)"
			}
		},
		{
			"aliases": [
				"WaveManagerProps"
			],
			"objclass": "WaveManagerProperties",
			"objdata": {
				"FlagWaveInterval": 4,
				"WaveCount": 12,
				"WaveSpendingPointIncrement": 100,
				"WaveSpendingPoints": 150,
				"Waves": [
					[
						"RTID(Wave1@CurrentLevel)"
					],
					[
						"RTID(Wave2@CurrentLevel)"
					],
					[
						"RTID(Wave3@CurrentLevel)"
					],
					[
						"RTID(Wave4@CurrentLevel)",
						"RTID(Wave4DinoTimeEvent0@CurrentLevel)"
					],
					[
						"RTID(Wave5@CurrentLevel)"
					],
					[
						"RTID(Wave6@CurrentLevel)"
					],
					[
						"RTID(Wave7@CurrentLevel)"
					],
					[
						"RTID(Wave8@CurrentLevel)",
						"RTID(Wave8DinoTimeEvent0@CurrentLevel)"
					],
					[
						"RTID(Wave9@CurrentLevel)"
					],
					[
						"RTID(Wave10@CurrentLevel)"
					],
					[
						"RTID(Wave11@CurrentLevel)"
					],
					[
						"RTID(Wave12@CurrentLevel)",
						"RTID(Wave12DinoTimeEvent0@CurrentLevel)",
						"RTID(Wave12DinoTimeEvent1@CurrentLevel)"
					]
				]
			}
		},
		{
			"aliases": [
				"Wave1"
			],
			"objclass": "SpawnZombiesJitteredWaveActionProps",
			"objdata": {
				"Zombies": [
					{
						"Row": "3",
						"Type": "RTID(swashbuckler@ZombieTypes)"
					}
				]
			}
		},
		{
			"aliases": [
				"Wave2"
			],
			"objclass": "SpawnZombiesJitteredWaveActionProps",
			"objdata": {
				"Zombies": [
					{
						"Row": "2",
						"Type": "RTID(swashbuckler@ZombieTypes)"
					}
				]
			}
		},
		{
			"aliases": [
				"Wave3"
			],
			"objclass": "SpawnZombiesJitteredWaveActionProps",
			"objdata": {
				"Zombies": [
					{
						"Row": "3",
						"Type": "RTID(swashbuckler@ZombieTypes)"
					}
				]
			}
		},
		{
			"aliases": [
				"Wave4"
			],
			"objclass": "SpawnZombiesJitteredWaveActionProps",
			"objdata": {
				"Zombies": [
					{
						"Row": "2",
						"Type": "RTID(cannon@ZombieTypes)"
					},
					{
						"Row": "4",
						"Type": "RTID(swashbuckler@ZombieTypes)"
					}
				]
			}
		},
		{
			"aliases": [
				"Wave5"
			],
			"objclass": "SpawnZombiesJitteredWaveActionProps",
			"objdata": {
				"Zombies": [
					{
						"Row": "3",
						"Type": "RTID(swashbuckler@ZombieTypes)"
					},
					{
						"Row": "3",
						"Type": "RTID(swashbuckler@ZombieTypes)"
					}
				]
			}
		},
		{
			"aliases": [
				"Wave6"
			],
			"objclass": "SpawnZombiesJitteredWaveActionProps",
			"objdata": {
				"Zombies": [
					{
						"Row": "2",
						"Type": "RTID(swashbuckler@ZombieTypes)"
					},
					{
						"Row": "4",
						"Type": "RTID(cannon@ZombieTypes)"
					}
				]
			}
		},
		{
			"aliases": [
				"Wave7"
			],
			"objclass": "SpawnZombiesJitteredWaveActionProps",
			"objdata": {
				"Zombies": [
					{
						"Row": "3",
						"Type": "RTID(cannon@ZombieTypes)"
					},
					{
						"Row": "4",
						"Type": "RTID(swashbuckler@ZombieTypes)"
					}
				]
			}
		},
		{
			"aliases": [
				"Wave8"
			],
			"objclass": "SpawnZombiesJitteredWaveActionProps",
			"objdata": {
				"Zombies": [
					{
						"Row": "3",
						"Type": "RTID(swashbuckler@ZombieTypes)"
					},
					{
						"Row": "2",
						"Type": "RTID(swashbuckler@ZombieTypes)"
					}
				]
			}
		},
		{
			"aliases": [
				"Wave9"
			],
			"objclass": "SpawnZombiesJitteredWaveActionProps",
			"objdata": {
				"Zombies": [
					{
						"Row": "4",
						"Type": "RTID(lostcity_relichunter@ZombieTypes)"
					},
					{
						"Row": "4",
						"Type": "RTID(lostcity_relichunter@ZombieTypes)"
					}
				]
			}
		},
		{
			"aliases": [
				"Wave10"
			],
			"objclass": "SpawnZombiesJitteredWaveActionProps",
			"objdata": {
				"Zombies": [
					{
						"Row": "2",
						"Type": "RTID(lostcity_relichunter@ZombieTypes)"
					},
					{
						"Row": "3",
						"Type": "RTID(cannon@ZombieTypes)"
					}
				]
			}
		},
		{
			"aliases": [
				"Wave11"
			],
			"objclass": "SpawnZombiesJitteredWaveActionProps",
			"objdata": {
				"Zombies": [
					{
						"Row": "4",
						"Type": "RTID(cannon@ZombieTypes)"
					},
					{
						"Row": "2",
						"Type": "RTID(cannon@ZombieTypes)"
					},
					{
						"Row": "3",
						"Type": "RTID(lostcity_relichunter@ZombieTypes)"
					}
				]
			}
		},
		{
			"aliases": [
				"Wave12"
			],
			"objclass": "SpawnZombiesJitteredWaveActionProps",
			"objdata": {
				"Zombies": [
					{
						"Row": "3",
						"Type": "RTID(lostcity_relichunter@ZombieTypes)"
					},
					{
						"Row": "4",
						"Type": "RTID(lostcity_relichunter@ZombieTypes)"
					},
					{
						"Row": "2",
						"Type": "RTID(lostcity_relichunter@ZombieTypes)"
					}
				]
			}
		},
		{
			"aliases": [
				"Wave4DinoTimeEvent0"
			],
			"objclass": "DinoWaveActionProps",
			"objdata": {
				"DinoRow": 0,
				"DinoType": "stego",
				"DinoWaveDuration": "0"
			}
		},
		{
			"aliases": [
				"Wave8DinoTimeEvent0"
			],
			"objclass": "DinoWaveActionProps",
			"objdata": {
				"DinoRow": 4,
				"DinoType": "stego",
				"DinoWaveDuration": "0"
			}
		},
		{
			"aliases": [
				"Wave12DinoTimeEvent0"
			],
			"objclass": "DinoWaveActionProps",
			"objdata": {
				"DinoRow": 0,
				"DinoType": "stego",
				"DinoWaveDuration": 0
			}
		},
		{
			"aliases": [
				"Wave12DinoTimeEvent1"
			],
			"objclass": "DinoWaveActionProps",
			"objdata": {
				"DinoRow": 4,
				"DinoType": "stego",
				"DinoWaveDuration": "0"
			}
		}
	],
	"version": 1
}