{
	"#comment": "Beach 16",
	"objects": [ {
			"objclass": "LevelDefinition",
			"objdata": {
				"CompletionAchievement": "big_kahunka",
				"Description": "[PLAYERS_TRIP_TO_BEACH]",
				"FirstIntroNarrative": "BEACH_INTRO_GARGANTUAR_ALT",
				"FirstRewardType": "pinata",
				"FirstRewardParam": "spine_beach",
				"ForceToWorldMap": true,
				"LevelNumber": 16,
				"Loot": "RTID(DefaultLoot@LevelModules)",
				"Modules": [ "RTID(StandardIntro@LevelModules)", "RTID(ConveyorBelt@CurrentLevel)", "RTID(ZombiesDeadWinCon@LevelModules)", "RTID(DefaultZombieWinCondition@LevelModules)", "RTID(ChallengeModule@CurrentLevel)", "RTID(NewWaves@CurrentLevel)", "RTID(LilypadPlacement@CurrentLevel)", "RTID(Tide@CurrentLevel)" ],
				"MusicType": "MiniGame_A",
				"Name": "[BEACH_LEVEL_NAME]",
				"NormalPresentTable": "egypt_normal_01",
				"ShinyPresentTable": "egypt_shiny_01",
				"StageModule": "RTID(BeachStage@LevelModules)"
			}
		}, {
			"aliases": [ "Tide" ],
			"objclass": "TideProperties",
			"objdata": {
				"StartingWaveLocation": 6
			}
		}, {
			"aliases": [ "ConveyorBelt" ],
			"objclass": "ConveyorSeedBankProperties",
			"objdata": {
				"DropDelayConditions": [ {
						"Delay": 3,
						"MaxPackets": 0
					}, {
						"Delay": 6,
						"MaxPackets": 2
					}, {
						"Delay": 9,
						"MaxPackets": 4
					}, {
						"Delay": 12,
						"MaxPackets": 8
					} ],
				"InitialPlantList": [ {
						"MaxCount": 15,
						"MaxWeightFactor": 0,
						"MinCount": 5,
						"MinWeightFactor": 2,
						"PlantType": "bowlingbulb",
						"Weight": 30
					}, {
						"MaxCount": 6,
						"MaxWeightFactor": 0,
						"MinCount": 4,
						"MinWeightFactor": 3,
						"PlantType": "chomper",
						"Weight": 5
					}, {
						"MaxCount": 12,
						"MaxWeightFactor": 0,
						"MinCount": 5,
						"MinWeightFactor": 2,
						"PlantType": "lilypad",
						"Weight": 20
					}, {
						"MaxCount": 2,
						"MaxCountCooldownSeconds": 6,
						"MaxWeightFactor": 0,
						"MinCount": 1,
						"MinWeightFactor": 1.5,
						"PlantType": "tanglekelp",
						"Weight": 10
					}, {
						"MaxCount": 5,
						"MaxWeightFactor": 0,
						"MinCount": 4,
						"MinWeightFactor": 1.5,
						"PlantType": "wallnut",
						"Weight": 10
					} ],
				"SpeedConditions": [ {
						"MaxPackets": 0,
						"Speed": 100
					} ]
			}
		}, {
			"aliases": [ "ChallengeModule" ],
			"objclass": "StarChallengeModuleProperties",
			"objdata": {
				"Challenges": [ [ "RTID(BeatTheLevel@CurrentLevel)", "RTID(SaveMowers@LevelModules)" ] ],
				"ChallengesAlwaysAvailable": true
			}
		}, {
			"aliases": [ "BeatTheLevel" ],
			"objclass": "StarChallengeBeatTheLevelProps",
			"objdata": {
				"Description": "[STARCHALLENGE_BEACH_FINALE]",
				"DescriptiveName": "[STARCHALLENGE_EGYPT_FINALE_NAME]"
			}
		}, {
			"aliases": [ "LilypadPlacement" ],
			"objclass": "InitialGridItemProperties",
			"objdata": {
				"InitialGridItemPlacements": [ {
						"GridX": 2,
						"GridY": 0,
						"TypeName": "lilypad"
					}, {
						"GridX": 3,
						"GridY": 1,
						"TypeName": "lilypad"
					}, {
						"GridX": 2,
						"GridY": 2,
						"TypeName": "lilypad"
					}, {
						"GridX": 2,
						"GridY": 3,
						"TypeName": "lilypad"
					}, {
						"GridX": 3,
						"GridY": 3,
						"TypeName": "lilypad"
					}, {
						"GridX": 2,
						"GridY": 4,
						"TypeName": "lilypad"
					} ]
			}
		}, {
			"aliases": [ "NewWaves" ],
			"objclass": "WaveManagerModuleProperties",
			"objdata": {
				"DynamicZombies": [ {
						"PointIncrementPerWave": -40,
						"StartingPoints": -100,
						"StartingWave": 3,
						"ZombiePool": [ "RTID(beach_armor2@ZombieTypes)", "RTID(beach_fem_armor1@ZombieTypes)", "RTID(beach_imp@ZombieTypes)", "RTID(beach_snorkel@ZombieTypes)", "RTID(beach_surfer@ZombieTypes)" ]
					}, {
						"PointIncrementPerWave": -25,
						"StartingPoints": -100,
						"StartingWave": 4,
						"ZombiePool": [ "RTID(beach_armor2@ZombieTypes)", "RTID(beach_fem_armor1@ZombieTypes)", "RTID(beach_imp@ZombieTypes)", "RTID(beach_snorkel@ZombieTypes)", "RTID(beach_surfer@ZombieTypes)" ]
					}, {
						"PointIncrementPerWave": -10,
						"StartingPoints": -100,
						"StartingWave": 5,
						"ZombiePool": [ "RTID(beach_armor2@ZombieTypes)", "RTID(beach_fem_armor1@ZombieTypes)", "RTID(beach_imp@ZombieTypes)", "RTID(beach_snorkel@ZombieTypes)", "RTID(beach_surfer@ZombieTypes)" ]
					}, {}, {
						"PointIncrementPerWave": 20,
						"StartingPoints": 100,
						"StartingWave": 5,
						"ZombiePool": [ "RTID(beach_armor2@ZombieTypes)", "RTID(beach_fem_armor1@ZombieTypes)", "RTID(beach_imp@ZombieTypes)", "RTID(beach_snorkel@ZombieTypes)", "RTID(beach_surfer@ZombieTypes)" ]
					}, {
						"PointIncrementPerWave": 40,
						"StartingPoints": 200,
						"StartingWave": 4,
						"ZombiePool": [ "RTID(beach_armor2@ZombieTypes)", "RTID(beach_fem_armor1@ZombieTypes)", "RTID(beach_imp@ZombieTypes)", "RTID(beach_snorkel@ZombieTypes)", "RTID(beach_surfer@ZombieTypes)" ]
					}, {
						"PointIncrementPerWave": 60,
						"StartingPoints": 400,
						"StartingWave": 3,
						"ZombiePool": [ "RTID(beach_armor2@ZombieTypes)", "RTID(beach_imp@ZombieTypes)", "RTID(beach_snorkel@ZombieTypes)", "RTID(beach_surfer@ZombieTypes)" ]
					} ],
				"WaveManagerProps": "RTID(WaveManagerProps@CurrentLevel)"
			}
		}, {
			"aliases": [ "WaveManagerProps" ],
			"objclass": "WaveManagerProperties",
			"objdata": {
				"FlagWaveInterval": 9,
				"SpawnColEnd": 9,
				"SpawnColStart": 2,
				"SuppressedDynamicZombieWaves": [ 10, 17 ],
				"WaveCount": 18,
				"WaveSpendingPointIncrement": 100,
				"WaveSpendingPoints": 200,
				"Waves": [ [ "RTID(Wave1@CurrentLevel)" ], [ "RTID(Wave2@CurrentLevel)" ], [ "RTID(Wave3@CurrentLevel)", "RTID(Wave3TidalChangeEvent0@CurrentLevel)" ], [ "RTID(Wave4@CurrentLevel)" ], [ "RTID(Wave5@CurrentLevel)", "RTID(Wave5TidalChangeEvent0@CurrentLevel)" ], [ "RTID(Wave6@CurrentLevel)" ], [ "RTID(Wave7@CurrentLevel)", "RTID(Wave7LowTideEvent0@CurrentLevel)", "RTID(Wave7LowTideEvent1@CurrentLevel)", "RTID(Wave7TidalChangeEvent0@CurrentLevel)" ], [ "RTID(Wave8@CurrentLevel)", "RTID(Wave8TidalChangeEvent0@CurrentLevel)" ], [ "RTID(Wave9@CurrentLevel)", "RTID(Wave9TidalChangeEvent0@CurrentLevel)" ], [ "RTID(Wave10@CurrentLevel)" ], [ "RTID(Wave11@CurrentLevel)" ], [ "RTID(Wave12@CurrentLevel)" ], [ "RTID(Wave13@CurrentLevel)" ], [ "RTID(Wave14@CurrentLevel)", "RTID(Wave14LowTideEvent0@CurrentLevel)", "RTID(Wave14LowTideEvent1@CurrentLevel)", "RTID(Wave14LowTideEvent2@CurrentLevel)", "RTID(Wave14TidalChangeEvent0@CurrentLevel)" ], [ "RTID(Wave15@CurrentLevel)", "RTID(Wave15TidalChangeEvent0@CurrentLevel)" ], [ "RTID(Wave16@CurrentLevel)", "RTID(Wave16TidalChangeEvent0@CurrentLevel)" ], [ "RTID(Wave17@CurrentLevel)" ], [ "RTID(Wave18@CurrentLevel)" ] ]
			}
		}, {
			"aliases": [ "Wave1" ],
			"objclass": "SpawnZombiesJitteredWaveActionProps",
			"objdata": {
				"AdditionalPlantfood": 0,
				"Zombies": [ {
						"Type": "RTID(beach_armor1@ZombieTypes)"
					}, {
						"Type": "RTID(beach_imp@ZombieTypes)"
					}, {
						"Type": "RTID(beach_imp@ZombieTypes)"
					} ]
			}
		}, {
			"aliases": [ "Wave2" ],
			"objclass": "SpawnZombiesJitteredWaveActionProps",
			"objdata": {
				"AdditionalPlantfood": 0,
				"DynamicPlantfood": [ 1, 1, 1, 1, 0, 0, 0 ],
				"Zombies": [ {
						"Type": "RTID(beach@ZombieTypes)"
					}, {
						"Type": "RTID(beach@ZombieTypes)"
					}, {
						"Type": "RTID(beach_armor2@ZombieTypes)"
					} ]
			}
		}, {
			"aliases": [ "Wave3" ],
			"objclass": "SpawnZombiesJitteredWaveActionProps",
			"objdata": {
				"Zombies": [ {
						"Type": "RTID(beach_fem_armor1@ZombieTypes)"
					}, {
						"Row": "3",
						"Type": "RTID(beach_surfer@ZombieTypes)"
					} ]
			}
		}, {
			"aliases": [ "Wave4" ],
			"objclass": "SpawnZombiesJitteredWaveActionProps",
			"objdata": {
				"DynamicPlantfood": [ 1, 1, 1, 1, 1, 1, 1 ],
				"Zombies": [ {
						"Row": "2",
						"Type": "RTID(beach_armor2@ZombieTypes)"
					}, {
						"Row": "4",
						"Type": "RTID(beach_armor2@ZombieTypes)"
					}, {
						"Type": "RTID(beach_imp@ZombieTypes)"
					}, {
						"Type": "RTID(beach_imp@ZombieTypes)"
					}, {
						"Type": "RTID(beach_imp@ZombieTypes)"
					}, {
						"Type": "RTID(beach_imp@ZombieTypes)"
					} ]
			}
		}, {
			"aliases": [ "Wave5" ],
			"objclass": "SpawnZombiesJitteredWaveActionProps",
			"objdata": {
				"AdditionalPlantfood": 0,
				"Zombies": [ {
						"Type": "RTID(beach_snorkel@ZombieTypes)"
					}, {
						"Type": "RTID(beach_snorkel@ZombieTypes)"
					}, {
						"Type": "RTID(beach_snorkel@ZombieTypes)"
					}, {
						"Type": "RTID(beach_snorkel@ZombieTypes)"
					} ]
			}
		}, {
			"aliases": [ "Wave6" ],
			"objclass": "SpawnZombiesJitteredWaveActionProps",
			"objdata": {
				"Zombies": [ {
						"Row": "2",
						"Type": "RTID(beach_surfer@ZombieTypes)"
					}, {
						"Row": "4",
						"Type": "RTID(beach_surfer@ZombieTypes)"
					} ]
			}
		}, {
			"aliases": [ "Wave7" ],
			"objclass": "SpawnZombiesJitteredWaveActionProps",
			"objdata": {
				"Zombies": [ {
						"Row": "3",
						"Type": "RTID(beach_fem_armor2@ZombieTypes)"
					}, {
						"Type": "RTID(beach_fem_armor1@ZombieTypes)"
					} ]
			}
		}, {
			"aliases": [ "Wave8" ],
			"objclass": "SpawnZombiesJitteredWaveActionProps",
			"objdata": {
				"AdditionalPlantfood": 0,
				"DynamicPlantfood": [ 1, 1, 1, 1, 1, 1, 0 ],
				"Zombies": [ {
						"Type": "RTID(beach_armor2@ZombieTypes)"
					}, {
						"Type": "RTID(beach_armor2@ZombieTypes)"
					}, {
						"Type": "RTID(beach_armor1@ZombieTypes)"
					} ]
			}
		}, {
			"aliases": [ "Wave9" ],
			"objclass": "SpawnZombiesJitteredWaveActionProps",
			"objdata": {
				"Zombies": [ {
						"Row": "5",
						"Type": "RTID(beach_snorkel@ZombieTypes)"
					}, {
						"Row": "4",
						"Type": "RTID(beach_snorkel@ZombieTypes)"
					}, {
						"Row": "2",
						"Type": "RTID(beach_snorkel@ZombieTypes)"
					}, {
						"Row": "3",
						"Type": "RTID(beach_snorkel@ZombieTypes)"
					}, {
						"Row": "1",
						"Type": "RTID(beach_snorkel@ZombieTypes)"
					}, {
						"Type": "RTID(beach_surfer@ZombieTypes)"
					}, {
						"Type": "RTID(beach_surfer@ZombieTypes)"
					}, {
						"Type": "RTID(beach_fem_armor1@ZombieTypes)"
					}, {
						"Row": "5",
						"Type": "RTID(beach_armor2@ZombieTypes)"
					}, {
						"Row": "4",
						"Type": "RTID(beach_armor1@ZombieTypes)"
					}, {
						"Row": "3",
						"Type": "RTID(beach_armor2@ZombieTypes)"
					}, {
						"Row": "2",
						"Type": "RTID(beach_armor1@ZombieTypes)"
					}, {
						"Row": "1",
						"Type": "RTID(beach_armor2@ZombieTypes)"
					} ]
			}
		}, {
			"aliases": [ "Wave10" ],
			"objclass": "SpawnZombiesJitteredWaveActionProps",
			"objdata": {
				"DynamicPlantfood": [ 1, 1, 1, 1, 1, 1, 1 ],
				"Zombies": [ {
						"Row": "5",
						"Type": "RTID(beach_surfer@ZombieTypes)"
					}, {
						"Row": "1",
						"Type": "RTID(beach_surfer@ZombieTypes)"
					}, {
						"Row": "2",
						"Type": "RTID(beach_imp@ZombieTypes)"
					}, {
						"Row": "3",
						"Type": "RTID(beach_imp@ZombieTypes)"
					}, {
						"Row": "4",
						"Type": "RTID(beach_imp@ZombieTypes)"
					}, {
						"Type": "RTID(beach_armor1@ZombieTypes)"
					}, {
						"Row": "3",
						"Type": "RTID(beach_surfer@ZombieTypes)"
					} ]
			}
		}, {
			"aliases": [ "Wave11" ],
			"objclass": "SpawnZombiesJitteredWaveActionProps",
			"objdata": {
				"Zombies": [ {
						"Row": "3",
						"Type": "RTID(beach_gargantuar@ZombieTypes)"
					} ]
			}
		}, {
			"aliases": [ "Wave12" ],
			"objclass": "SpawnZombiesJitteredWaveActionProps",
			"objdata": {
				"AdditionalPlantfood": 0,
				"Zombies": [ {
						"Row": "2",
						"Type": "RTID(beach_surfer@ZombieTypes)"
					}, {
						"Row": "4",
						"Type": "RTID(beach_surfer@ZombieTypes)"
					}, {
						"Type": "RTID(beach_fem_armor2@ZombieTypes)"
					}, {
						"Type": "RTID(beach_fem_armor2@ZombieTypes)"
					}, {
						"Type": "RTID(beach_fem_armor2@ZombieTypes)"
					} ]
			}
		}, {
			"aliases": [ "Wave13" ],
			"objclass": "SpawnZombiesJitteredWaveActionProps",
			"objdata": {
				"AdditionalPlantfood": 0,
				"DynamicPlantfood": [ 1, 1, 1, 1, 1, 0, 0 ],
				"Zombies": [ {
						"Row": "3",
						"Type": "RTID(beach_snorkel@ZombieTypes)"
					}, {
						"Row": "1",
						"Type": "RTID(beach_snorkel@ZombieTypes)"
					}, {
						"Row": "5",
						"Type": "RTID(beach_snorkel@ZombieTypes)"
					}, {
						"Type": "RTID(beach_armor2@ZombieTypes)"
					}, {
						"Type": "RTID(beach_armor2@ZombieTypes)"
					} ]
			}
		}, {
			"aliases": [ "Wave14" ],
			"objclass": "SpawnZombiesJitteredWaveActionProps",
			"objdata": {
				"AdditionalPlantfood": 0,
				"Zombies": [ {
						"Type": "RTID(beach_armor2@ZombieTypes)"
					} ]
			}
		}, {
			"aliases": [ "Wave15" ],
			"objclass": "SpawnZombiesJitteredWaveActionProps",
			"objdata": {
				"AdditionalPlantfood": 0,
				"Zombies": [ {
						"Type": "RTID(beach_armor2@ZombieTypes)"
					}, {
						"Type": "RTID(beach_armor1@ZombieTypes)"
					}, {
						"Type": "RTID(beach_armor2@ZombieTypes)"
					}, {
						"Type": "RTID(beach_armor2@ZombieTypes)"
					}, {
						"Type": "RTID(beach_armor1@ZombieTypes)"
					}, {
						"Type": "RTID(beach_armor2@ZombieTypes)"
					} ]
			}
		}, {
			"aliases": [ "Wave16" ],
			"objclass": "SpawnZombiesJitteredWaveActionProps",
			"objdata": {
				"Zombies": [ {
						"Row": "3",
						"Type": "RTID(beach_surfer@ZombieTypes)"
					}, {
						"Row": "2",
						"Type": "RTID(beach_snorkel@ZombieTypes)"
					}, {
						"Row": "2",
						"Type": "RTID(beach_snorkel@ZombieTypes)"
					}, {
						"Row": "2",
						"Type": "RTID(beach_snorkel@ZombieTypes)"
					}, {
						"Row": "4",
						"Type": "RTID(beach_snorkel@ZombieTypes)"
					}, {
						"Row": "4",
						"Type": "RTID(beach_snorkel@ZombieTypes)"
					}, {
						"Row": "4",
						"Type": "RTID(beach_snorkel@ZombieTypes)"
					}, {
						"Row": "1",
						"Type": "RTID(beach_surfer@ZombieTypes)"
					}, {
						"Row": "5",
						"Type": "RTID(beach_surfer@ZombieTypes)"
					} ]
			}
		}, {
			"aliases": [ "Wave17" ],
			"objclass": "SpawnZombiesJitteredWaveActionProps",
			"objdata": {
				"AdditionalPlantfood": 0,
				"DynamicPlantfood": [ 1, 1, 1, 1, 1, 1, 1 ],
				"Zombies": [ {
						"Row": "4",
						"Type": "RTID(beach@ZombieTypes)"
					}, {
						"Row": "2",
						"Type": "RTID(beach@ZombieTypes)"
					}, {
						"Row": "1",
						"Type": "RTID(beach_fem_armor2@ZombieTypes)"
					}, {
						"Row": "3",
						"Type": "RTID(beach_fem_armor2@ZombieTypes)"
					}, {
						"Row": "5",
						"Type": "RTID(beach_fem_armor2@ZombieTypes)"
					}, {
						"Row": "2",
						"Type": "RTID(beach_surfer@ZombieTypes)"
					}, {
						"Type": "RTID(beach_imp@ZombieTypes)"
					}, {
						"Type": "RTID(beach_imp@ZombieTypes)"
					}, {
						"Type": "RTID(beach_imp@ZombieTypes)"
					}, {
						"Row": "4",
						"Type": "RTID(beach_surfer@ZombieTypes)"
					} ]
			}
		}, {
			"aliases": [ "Wave18" ],
			"objclass": "SpawnZombiesJitteredWaveActionProps",
			"objdata": {
				"AdditionalPlantfood": 0,
				"Zombies": [ {
						"Row": "2",
						"Type": "RTID(beach_gargantuar@ZombieTypes)"
					}, {
						"Row": "5",
						"Type": "RTID(beach_gargantuar@ZombieTypes)"
					}, {
						"Row": "2",
						"Type": "RTID(beach_surfer@ZombieTypes)"
					}, {
						"Row": "5",
						"Type": "RTID(beach_surfer@ZombieTypes)"
					} ]
			}
		}, {
			"aliases": [ "Wave3TidalChangeEvent0" ],
			"objclass": "TidalChangeWaveActionProps",
			"objdata": {
				"TidalChange": {
					"ChangeAmount": 6,
					"ChangeType": "absolute"
				}
			}
		}, {
			"aliases": [ "Wave5TidalChangeEvent0" ],
			"objclass": "TidalChangeWaveActionProps",
			"objdata": {
				"TidalChange": {
					"ChangeAmount": 7,
					"ChangeType": "absolute"
				}
			}
		}, {
			"aliases": [ "Wave9TidalChangeEvent0" ],
			"objclass": "TidalChangeWaveActionProps",
			"objdata": {
				"TidalChange": {
					"ChangeAmount": 7,
					"ChangeType": "absolute"
				}
			}
		}, {
			"aliases": [ "Wave7TidalChangeEvent0" ],
			"objclass": "TidalChangeWaveActionProps",
			"objdata": {
				"TidalChange": {
					"ChangeAmount": 5,
					"ChangeType": "absolute"
				}
			}
		}, {
			"aliases": [ "Wave7LowTideEvent0" ],
			"objclass": "BeachStageEventZombieSpawnerProps",
			"objdata": {
				"ColumnEnd": 6,
				"ColumnStart": "4",
				"GroupSize": 6,
				"TimeBeforeFullSpawn": "0.5",
				"TimeBetweenGroups": "0.25",
				"WaveStartMessage": "[WARNING_LOW_TIDE]",
				"ZombieCount": 6,
				"ZombieName": "beach_imp"
			}
		}, {
			"aliases": [ "Wave7LowTideEvent1" ],
			"objclass": "BeachStageEventZombieSpawnerProps",
			"objdata": {
				"ColumnEnd": 6,
				"ColumnStart": "4",
				"GroupSize": 2,
				"TimeBeforeFullSpawn": "0.5",
				"TimeBetweenGroups": "0.25",
				"WaveStartMessage": "[WARNING_LOW_TIDE]",
				"ZombieCount": 2,
				"ZombieName": "beach_armor2"
			}
		}, {
			"aliases": [ "Wave14LowTideEvent0" ],
			"objclass": "BeachStageEventZombieSpawnerProps",
			"objdata": {
				"ColumnEnd": 6,
				"ColumnStart": 4,
				"GroupSize": 6,
				"TimeBeforeFullSpawn": "0.5",
				"TimeBetweenGroups": "0.25",
				"WaveStartMessage": "[WARNING_LOW_TIDE]",
				"ZombieCount": 6,
				"ZombieName": "beach_imp"
			}
		}, {
			"aliases": [ "Wave14LowTideEvent1" ],
			"objclass": "BeachStageEventZombieSpawnerProps",
			"objdata": {
				"ColumnEnd": 6,
				"ColumnStart": "4",
				"GroupSize": 3,
				"TimeBeforeFullSpawn": "0.5",
				"TimeBetweenGroups": "0.25",
				"WaveStartMessage": "[WARNING_LOW_TIDE]",
				"ZombieCount": 3,
				"ZombieName": "beach_armor2"
			}
		}, {
			"aliases": [ "Wave14TidalChangeEvent0" ],
			"objclass": "TidalChangeWaveActionProps",
			"objdata": {
				"TidalChange": {
					"ChangeAmount": 5,
					"ChangeType": "absolute"
				}
			}
		}, {
			"aliases": [ "Wave16TidalChangeEvent0" ],
			"objclass": "TidalChangeWaveActionProps",
			"objdata": {
				"TidalChange": {
					"ChangeAmount": 7,
					"ChangeType": "absolute"
				}
			}
		}, {
			"aliases": [ "Wave8TidalChangeEvent0" ],
			"objclass": "TidalChangeWaveActionProps",
			"objdata": {
				"TidalChange": {
					"ChangeAmount": 6,
					"ChangeType": "absolute"
				}
			}
		}, {
			"aliases": [ "Wave15TidalChangeEvent0" ],
			"objclass": "TidalChangeWaveActionProps",
			"objdata": {
				"TidalChange": {
					"ChangeAmount": 6,
					"ChangeType": "absolute"
				}
			}
		}, {
			"aliases": [ "Wave14LowTideEvent2" ],
			"objclass": "BeachStageEventZombieSpawnerProps",
			"objdata": {
				"ColumnEnd": 6,
				"ColumnStart": "4",
				"GroupSize": 3,
				"TimeBeforeFullSpawn": "0.5",
				"TimeBetweenGroups": "0.25",
				"WaveStartMessage": "[WARNING_LOW_TIDE]",
				"ZombieCount": 3,
				"ZombieName": "beach_fem_armor2"
			}
		} ],
	"version": 1
}