{
	"#comment": "Beach 23",
	"objects": [ {
			"objclass": "LevelDefinition",
			"objdata": {
				"Description": "[PLAYERS_TRIP_TO_BEACH]",
				"FirstIntroNarrative": "BEACH_INTRO_BANANA",
				"LevelNumber": 23,
				"Loot": "RTID(DefaultLoot@LevelModules)",
				"Modules": [ "RTID(DefaultSunDropper@LevelModules)", "RTID(ZombiesDeadWinCon@LevelModules)", "RTID(BeachMowers@LevelModules)", "RTID(SeedBank@CurrentLevel)", "RTID(ProtectThePlant@CurrentLevel)", "RTID(ChallengeModule@CurrentLevel)", "RTID(BananaTutorial@CurrentLevel)", "RTID(DefaultZombieWinCondition@LevelModules)", "RTID(LilypadPlacement@CurrentLevel)", "RTID(NewWaves@CurrentLevel)", "RTID(Tide@CurrentLevel)" ],
				"Name": "[BEACH_LEVEL_NAME]",
				"NormalPresentTable": "egypt_normal_01",
				"ShinyPresentTable": "egypt_shiny_01",
				"StageModule": "RTID(BeachStage@LevelModules)"
			}
		}, {
			"aliases": [ "BananaTutorial" ],
			"objclass": "BananaTutorialProperties",
			"objdata": {}
		}, {
			"aliases": [ "Tide" ],
			"objclass": "TideProperties",
			"objdata": {
				"StartingWaveLocation": 6
			}
		}, {
			"aliases": [ "SeedBank" ],
			"objclass": "SeedBankProperties",
			"objdata": {
				"PlantExcludeList": [ "banana" ],
				"SelectionMethod": "chooser"
			}
		}, {
			"aliases": [ "ProtectThePlant" ],
			"objclass": "ProtectThePlantChallengeProperties",
			"objdata": {
				"MustProtectCount": 3,
				"Plants": [ {
						"GridX": 1,
						"GridY": 1,
						"PlantType": "banana"
					}, {
						"GridX": 1,
						"GridY": 2,
						"PlantType": "banana"
					}, {
						"GridX": 1,
						"GridY": 3,
						"PlantType": "banana"
					} ]
			}
		}, {
			"aliases": [ "ChallengeModule" ],
			"objclass": "StarChallengeModuleProperties",
			"objdata": {
				"Challenges": [ [ "RTID(BeatTheLevel@CurrentLevel)" ] ],
				"ChallengesAlwaysAvailable": true
			}
		}, {
			"aliases": [ "BeatTheLevel" ],
			"objclass": "StarChallengeBeatTheLevelProps",
			"objdata": {
				"Description": "[STARCHALLENGE_PROTECT_THE_PLANT]",
				"DescriptiveName": "[STARCHALLENGE_PROTECT_THE_PLANT_NAME]"
			}
		}, {
			"aliases": [ "LilypadPlacement" ],
			"objclass": "InitialGridItemProperties",
			"objdata": {
				"InitialGridItemPlacements": [ {
						"GridX": 5,
						"GridY": 0,
						"TypeName": "lilypad"
					}, {
						"GridX": 6,
						"GridY": 1,
						"TypeName": "lilypad"
					}, {
						"GridX": 4,
						"GridY": 2,
						"TypeName": "lilypad"
					}, {
						"GridX": 6,
						"GridY": 3,
						"TypeName": "lilypad"
					}, {
						"GridX": 5,
						"GridY": 4,
						"TypeName": "lilypad"
					} ]
			}
		}, {
			"aliases": [ "NewWaves" ],
			"objclass": "WaveManagerModuleProperties",
			"objdata": {
				"DynamicZombies": [ {
						"PointIncrementPerWave": -40,
						"StartingPoints": -100,
						"StartingWave": 3,
						"ZombiePool": [ "RTID(beach@ZombieTypes)", "RTID(beach_armor2@ZombieTypes)", "RTID(beach_fem_armor1@ZombieTypes)", "RTID(beach_fisherman@ZombieTypes)", "RTID(beach_octopus@ZombieTypes)", "RTID(beach_snorkel@ZombieTypes)", "RTID(beach_surfer@ZombieTypes)" ]
					}, {
						"PointIncrementPerWave": -25,
						"StartingPoints": -100,
						"StartingWave": 4,
						"ZombiePool": [ "RTID(beach@ZombieTypes)", "RTID(beach_armor2@ZombieTypes)", "RTID(beach_fem_armor1@ZombieTypes)", "RTID(beach_fisherman@ZombieTypes)", "RTID(beach_octopus@ZombieTypes)", "RTID(beach_snorkel@ZombieTypes)", "RTID(beach_surfer@ZombieTypes)" ]
					}, {
						"PointIncrementPerWave": -10,
						"StartingPoints": -100,
						"StartingWave": 5,
						"ZombiePool": [ "RTID(beach@ZombieTypes)", "RTID(beach_armor2@ZombieTypes)", "RTID(beach_fem_armor1@ZombieTypes)", "RTID(beach_fisherman@ZombieTypes)", "RTID(beach_octopus@ZombieTypes)", "RTID(beach_snorkel@ZombieTypes)", "RTID(beach_surfer@ZombieTypes)" ]
					}, {}, {
						"PointIncrementPerWave": 20,
						"StartingPoints": 100,
						"StartingWave": 5,
						"ZombiePool": [ "RTID(beach@ZombieTypes)", "RTID(beach_armor2@ZombieTypes)", "RTID(beach_fem_armor1@ZombieTypes)", "RTID(beach_fisherman@ZombieTypes)", "RTID(beach_octopus@ZombieTypes)", "RTID(beach_snorkel@ZombieTypes)", "RTID(beach_surfer@ZombieTypes)" ]
					}, {
						"PointIncrementPerWave": 40,
						"StartingPoints": 200,
						"StartingWave": 4,
						"ZombiePool": [ "RTID(beach_armor2@ZombieTypes)", "RTID(beach_fem_armor1@ZombieTypes)", "RTID(beach_fisherman@ZombieTypes)", "RTID(beach_octopus@ZombieTypes)", "RTID(beach_snorkel@ZombieTypes)", "RTID(beach_surfer@ZombieTypes)" ]
					}, {
						"PointIncrementPerWave": 60,
						"StartingPoints": 400,
						"StartingWave": 3,
						"ZombiePool": [ "RTID(beach_armor2@ZombieTypes)", "RTID(beach_fisherman@ZombieTypes)", "RTID(beach_octopus@ZombieTypes)", "RTID(beach_snorkel@ZombieTypes)", "RTID(beach_surfer@ZombieTypes)" ]
					} ],
				"WaveManagerProps": "RTID(WaveManagerProps@CurrentLevel)"
			}
		}, {
			"aliases": [ "WaveManagerProps" ],
			"objclass": "WaveManagerProperties",
			"objdata": {
				"FlagWaveInterval": 4,
				"WaveCount": 16,
				"WaveSpendingPointIncrement": 100,
				"WaveSpendingPoints": 200,
				"Waves": [ [ "RTID(Wave1@CurrentLevel)" ], [ "RTID(Wave2@CurrentLevel)" ], [ "RTID(Wave3@CurrentLevel)" ], [ "RTID(Wave4@CurrentLevel)", "RTID(Wave4LowTideEvent0@CurrentLevel)", "RTID(Wave4LowTideEvent1@CurrentLevel)", "RTID(Wave4LowTideEvent2@CurrentLevel)", "RTID(Wave4TidalChangeEvent0@CurrentLevel)" ], [ "RTID(Wave5@CurrentLevel)" ], [ "RTID(Wave6@CurrentLevel)", "RTID(Wave6TidalChangeEvent0@CurrentLevel)" ], [ "RTID(Wave7@CurrentLevel)", "RTID(Wave7TidalChangeEvent0@CurrentLevel)" ], [ "RTID(Wave8@CurrentLevel)" ], [ "RTID(Wave9@CurrentLevel)" ], [ "RTID(Wave10@CurrentLevel)" ], [ "RTID(Wave11@CurrentLevel)" ], [ "RTID(Wave12@CurrentLevel)", "RTID(Wave12LowTideEvent0@CurrentLevel)", "RTID(Wave12LowTideEvent1@CurrentLevel)", "RTID(Wave12LowTideEvent2@CurrentLevel)", "RTID(Wave12LowTideEvent3@CurrentLevel)", "RTID(Wave12TidalChangeEvent0@CurrentLevel)" ], [ "RTID(Wave13@CurrentLevel)", "RTID(Wave13TidalChangeEvent0@CurrentLevel)" ], [ "RTID(Wave14@CurrentLevel)", "RTID(Wave14TidalChangeEvent0@CurrentLevel)" ], [ "RTID(Wave15@CurrentLevel)", "RTID(Wave15TidalChangeEvent0@CurrentLevel)" ], [ "RTID(Wave16@CurrentLevel)" ] ]
			}
		}, {
			"aliases": [ "Wave1" ],
			"objclass": "SpawnZombiesJitteredWaveActionProps",
			"objdata": {
				"AdditionalPlantfood": 0,
				"Zombies": [ {
						"Row": "1",
						"Type": "RTID(beach_fisherman@ZombieTypes)"
					} ]
			}
		}, {
			"aliases": [ "Wave2" ],
			"objclass": "SpawnZombiesJitteredWaveActionProps",
			"objdata": {
				"Zombies": [ {
						"Row": "2",
						"Type": "RTID(beach@ZombieTypes)"
					}, {
						"Row": "2",
						"Type": "RTID(beach_fem_armor1@ZombieTypes)"
					} ]
			}
		}, {
			"aliases": [ "Wave3" ],
			"objclass": "SpawnZombiesJitteredWaveActionProps",
			"objdata": {
				"AdditionalPlantfood": 1,
				"DynamicPlantfood": [ 1, 1, 1, 1, 1, 1, 1 ],
				"Zombies": [ {
						"Row": "4",
						"Type": "RTID(beach_fem_armor1@ZombieTypes)"
					}, {
						"Row": "4",
						"Type": "RTID(beach_armor1@ZombieTypes)"
					} ]
			}
		}, {
			"aliases": [ "Wave4" ],
			"objclass": "SpawnZombiesJitteredWaveActionProps",
			"objdata": {
				"AdditionalPlantfood": 0,
				"Zombies": [ {
						"Type": "RTID(beach_fem_armor2@ZombieTypes)"
					}, {
						"Type": "RTID(beach_fem_armor1@ZombieTypes)"
					} ]
			}
		}, {
			"aliases": [ "Wave5" ],
			"objclass": "SpawnZombiesJitteredWaveActionProps",
			"objdata": {
				"Zombies": [ {
						"Row": "5",
						"Type": "RTID(beach_fem@ZombieTypes)"
					}, {
						"Row": "2",
						"Type": "RTID(beach_fem@ZombieTypes)"
					}, {
						"Row": "3",
						"Type": "RTID(beach_armor1@ZombieTypes)"
					}, {
						"Row": "1",
						"Type": "RTID(beach@ZombieTypes)"
					} ]
			}
		}, {
			"aliases": [ "Wave6" ],
			"objclass": "SpawnZombiesJitteredWaveActionProps",
			"objdata": {
				"AdditionalPlantfood": 1,
				"DynamicPlantfood": [ 1, 1, 1, 1, 1, 1, 0 ],
				"Zombies": [ {
						"Row": "2",
						"Type": "RTID(beach_fisherman@ZombieTypes)"
					} ]
			}
		}, {
			"aliases": [ "Wave7" ],
			"objclass": "SpawnZombiesJitteredWaveActionProps",
			"objdata": {
				"AdditionalPlantfood": 0,
				"Zombies": [ {
						"Row": "3",
						"Type": "RTID(beach_fisherman@ZombieTypes)"
					} ]
			}
		}, {
			"aliases": [ "Wave8" ],
			"objclass": "SpawnZombiesJitteredWaveActionProps",
			"objdata": {
				"AdditionalPlantfood": 0,
				"Zombies": [ {
						"Type": "RTID(beach_gargantuar@ZombieTypes)"
					}, {
						"Row": "1",
						"Type": "RTID(beach_fisherman@ZombieTypes)"
					}, {
						"Row": "4",
						"Type": "RTID(beach_snorkel@ZombieTypes)"
					}, {
						"Row": "5",
						"Type": "RTID(beach_snorkel@ZombieTypes)"
					}, {
						"Row": "2",
						"Type": "RTID(beach_snorkel@ZombieTypes)"
					} ]
			}
		}, {
			"aliases": [ "Wave9" ],
			"objclass": "SpawnZombiesJitteredWaveActionProps",
			"objdata": {
				"AdditionalPlantfood": 0,
				"Zombies": [ {
						"Type": "RTID(beach_snorkel@ZombieTypes)"
					}, {
						"Type": "RTID(beach_fisherman@ZombieTypes)"
					} ]
			}
		}, {
			"aliases": [ "Wave10" ],
			"objclass": "SpawnZombiesJitteredWaveActionProps",
			"objdata": {
				"AdditionalPlantfood": 1,
				"DynamicPlantfood": [ 1, 1, 1, 1, 0, 0, 0 ],
				"Zombies": [ {
						"Row": "1",
						"Type": "RTID(beach_fem@ZombieTypes)"
					}, {
						"Type": "RTID(beach_fem_armor1@ZombieTypes)"
					}, {
						"Row": "1",
						"Type": "RTID(beach_octopus@ZombieTypes)"
					}, {
						"Type": "RTID(beach_fem@ZombieTypes)"
					} ]
			}
		}, {
			"aliases": [ "Wave11" ],
			"objclass": "SpawnZombiesJitteredWaveActionProps",
			"objdata": {
				"AdditionalPlantfood": 0,
				"Zombies": [ {
						"Type": "RTID(beach_fem@ZombieTypes)"
					}, {
						"Type": "RTID(beach_fisherman@ZombieTypes)"
					}, {
						"Type": "RTID(beach_fem_armor1@ZombieTypes)"
					}, {
						"Type": "RTID(beach@ZombieTypes)"
					}, {
						"Type": "RTID(beach_fem_armor2@ZombieTypes)"
					} ]
			}
		}, {
			"aliases": [ "Wave12" ],
			"objclass": "SpawnZombiesJitteredWaveActionProps",
			"objdata": {
				"AdditionalPlantfood": 0,
				"Zombies": [ {
						"Row": "2",
						"Type": "RTID(beach_gargantuar@ZombieTypes)"
					}, {
						"Row": "4",
						"Type": "RTID(beach_fisherman@ZombieTypes)"
					} ]
			}
		}, {
			"aliases": [ "Wave13" ],
			"objclass": "SpawnZombiesJitteredWaveActionProps",
			"objdata": {
				"AdditionalPlantfood": 0,
				"Zombies": [ {
						"Row": "2",
						"Type": "RTID(beach_fisherman@ZombieTypes)"
					}, {
						"Row": "3",
						"Type": "RTID(beach_fisherman@ZombieTypes)"
					} ]
			}
		}, {
			"aliases": [ "Wave14" ],
			"objclass": "SpawnZombiesJitteredWaveActionProps",
			"objdata": {
				"AdditionalPlantfood": 1,
				"DynamicPlantfood": [ 1, 1, 1, 1, 1, 0, 0 ],
				"Zombies": [ {
						"Type": "RTID(beach_surfer@ZombieTypes)"
					}, {
						"Type": "RTID(beach_fisherman@ZombieTypes)"
					}, {
						"Type": "RTID(beach_surfer@ZombieTypes)"
					} ]
			}
		}, {
			"aliases": [ "Wave15" ],
			"objclass": "SpawnZombiesJitteredWaveActionProps",
			"objdata": {
				"AdditionalPlantfood": 0,
				"Zombies": [ {
						"Type": "RTID(beach_snorkel@ZombieTypes)"
					}, {
						"Type": "RTID(beach_fisherman@ZombieTypes)"
					}, {
						"Type": "RTID(beach_snorkel@ZombieTypes)"
					}, {
						"Type": "RTID(beach_snorkel@ZombieTypes)"
					} ]
			}
		}, {
			"aliases": [ "Wave16" ],
			"objclass": "SpawnZombiesJitteredWaveActionProps",
			"objdata": {
				"AdditionalPlantfood": 0,
				"Zombies": [ {
						"Row": "3",
						"Type": "RTID(beach_armor2@ZombieTypes)"
					}, {
						"Row": "2",
						"Type": "RTID(beach_fisherman@ZombieTypes)"
					}, {
						"Row": "4",
						"Type": "RTID(beach_armor1@ZombieTypes)"
					}, {
						"Row": "5",
						"Type": "RTID(beach_gargantuar@ZombieTypes)"
					}, {
						"Row": "1",
						"Type": "RTID(beach_octopus@ZombieTypes)"
					}, {
						"Row": "3",
						"Type": "RTID(beach_fisherman@ZombieTypes)"
					} ]
			}
		}, {
			"aliases": [ "Wave4TidalChangeEvent0" ],
			"objclass": "TidalChangeWaveActionProps",
			"objdata": {
				"TidalChange": {
					"ChangeAmount": 2,
					"ChangeType": "absolute"
				}
			}
		}, {
			"aliases": [ "Wave6TidalChangeEvent0" ],
			"objclass": "TidalChangeWaveActionProps",
			"objdata": {
				"TidalChange": {
					"ChangeAmount": "3",
					"ChangeType": "absolute"
				}
			}
		}, {
			"aliases": [ "Wave12LowTideEvent0" ],
			"objclass": "BeachStageEventZombieSpawnerProps",
			"objdata": {
				"ColumnEnd": 8,
				"ColumnStart": 4,
				"GroupSize": "4",
				"TimeBeforeFullSpawn": "0.5",
				"TimeBetweenGroups": "0.25",
				"WaveStartMessage": "[WARNING_LOW_TIDE]",
				"ZombieCount": 6,
				"ZombieName": "beach_imp"
			}
		}, {
			"aliases": [ "Wave12LowTideEvent1" ],
			"objclass": "BeachStageEventZombieSpawnerProps",
			"objdata": {
				"ColumnEnd": "8",
				"ColumnStart": "4",
				"GroupSize": "4",
				"TimeBeforeFullSpawn": 1,
				"TimeBetweenGroups": "0.25",
				"WaveStartMessage": "[WARNING_LOW_TIDE]",
				"ZombieCount": 6,
				"ZombieName": "beach_fem"
			}
		}, {
			"aliases": [ "Wave12LowTideEvent2" ],
			"objclass": "BeachStageEventZombieSpawnerProps",
			"objdata": {
				"ColumnEnd": "8",
				"ColumnStart": 4,
				"GroupSize": "4",
				"TimeBeforeFullSpawn": 2,
				"TimeBetweenGroups": "0.25",
				"WaveStartMessage": "[WARNING_LOW_TIDE]",
				"ZombieCount": 2,
				"ZombieName": "beach_armor1"
			}
		}, {
			"aliases": [ "Wave12LowTideEvent3" ],
			"objclass": "BeachStageEventZombieSpawnerProps",
			"objdata": {
				"ColumnEnd": "8",
				"ColumnStart": 4,
				"GroupSize": "4",
				"TimeBeforeFullSpawn": "0.5",
				"TimeBetweenGroups": "0.25",
				"WaveStartMessage": "[WARNING_LOW_TIDE]",
				"ZombieCount": 2,
				"ZombieName": "beach_fem_armor2"
			}
		}, {
			"aliases": [ "Wave12TidalChangeEvent0" ],
			"objclass": "TidalChangeWaveActionProps",
			"objdata": {
				"TidalChange": {
					"ChangeAmount": 1,
					"ChangeType": "absolute"
				}
			}
		}, {
			"aliases": [ "Wave13TidalChangeEvent0" ],
			"objclass": "TidalChangeWaveActionProps",
			"objdata": {
				"TidalChange": {
					"ChangeAmount": 2,
					"ChangeType": "absolute"
				}
			}
		}, {
			"aliases": [ "Wave14TidalChangeEvent0" ],
			"objclass": "TidalChangeWaveActionProps",
			"objdata": {
				"TidalChange": {
					"ChangeAmount": "3",
					"ChangeType": "absolute"
				}
			}
		}, {
			"aliases": [ "Wave15TidalChangeEvent0" ],
			"objclass": "TidalChangeWaveActionProps",
			"objdata": {
				"TidalChange": {
					"ChangeAmount": 5,
					"ChangeType": "absolute"
				}
			}
		}, {
			"aliases": [ "Wave4LowTideEvent0" ],
			"objclass": "BeachStageEventZombieSpawnerProps",
			"objdata": {
				"ColumnEnd": 6,
				"ColumnStart": 4,
				"GroupSize": 4,
				"TimeBeforeFullSpawn": "0.5",
				"TimeBetweenGroups": "0.25",
				"WaveStartMessage": "[WARNING_LOW_TIDE]",
				"ZombieCount": 3,
				"ZombieName": "beach_fem"
			}
		}, {
			"aliases": [ "Wave4LowTideEvent1" ],
			"objclass": "BeachStageEventZombieSpawnerProps",
			"objdata": {
				"ColumnEnd": 6,
				"ColumnStart": 4,
				"GroupSize": "4",
				"TimeBeforeFullSpawn": "0.5",
				"TimeBetweenGroups": "0.25",
				"WaveStartMessage": "[WARNING_LOW_TIDE]",
				"ZombieCount": 2,
				"ZombieName": "beach_fem_armor1"
			}
		}, {
			"aliases": [ "Wave4LowTideEvent2" ],
			"objclass": "BeachStageEventZombieSpawnerProps",
			"objdata": {
				"ColumnEnd": 6,
				"ColumnStart": 6,
				"GroupSize": "4",
				"TimeBeforeFullSpawn": "0.5",
				"TimeBetweenGroups": "0.25",
				"WaveStartMessage": "[WARNING_LOW_TIDE]",
				"ZombieCount": 1,
				"ZombieName": "beach_octopus"
			}
		}, {
			"aliases": [ "Wave7TidalChangeEvent0" ],
			"objclass": "TidalChangeWaveActionProps",
			"objdata": {
				"TidalChange": {
					"ChangeAmount": 6,
					"ChangeType": "absolute"
				}
			}
		} ],
	"version": 1
}