{
	"#comment": "Cowboy 26",
	"objects": [ {
			"objclass": "LevelDefinition",
			"objdata": {
				"Description": "[PLAYERS_TRIP_TO_WEST]",
				"FirstIntroNarrative": "COWBOY_26_INTRO",
				"LevelNumber": 1,
				"Loot": "RTID(DefaultLoot@LevelModules)",
				"Modules": [ "RTID(StandardIntro@LevelModules)", "RTID(DefaultSunDropper@LevelModules)", "RTID(Rails@CurrentLevel)", "RTID(ZombiesDeadWinCon@LevelModules)", "RTID(WestMowers@LevelModules)", "RTID(SeedBank@CurrentLevel)", "RTID(NewWaves@CurrentLevel)", "RTID(DefaultZombieWinCondition@LevelModules)" ],
				"Name": "[WEST_LEVEL_NAME]",
				"NormalPresentTable": "egypt_normal_01",
				"ShinyPresentTable": "egypt_shiny_01",
				"ForceToWorldMap": true,
				"RepeatPlayForceToWorldMap": true,
				"StageModule": "RTID(WestStage@LevelModules)"
			}
		}, {
			"aliases": [ "Rails" ],
			"objclass": "RailcartProperties",
			"objdata": {
				"RailcartType": "railcart_cowboy",
				"Railcarts": [ {
						"Column": 0,
						"Row": 0
					}, {
						"Column": 2,
						"Row": 3
					}, {
						"Column": 7,
						"Row": 0
					} ],
				"Rails": [ {
						"Column": 0,
						"RowEnd": 4,
						"RowStart": 0
					}, {
						"Column": 2,
						"RowEnd": 4,
						"RowStart": 0
					}, {
						"Column": 7,
						"RowEnd": 4,
						"RowStart": 0
					} ]
			}
		}, {
			"aliases": [ "SeedBank" ],
			"objclass": "SeedBankProperties",
			"objdata": {
				"SelectionMethod": "chooser"
			}
		}, {
			"aliases": [ "BeatTheLevel" ],
			"objclass": "StarChallengeBeatTheLevelProps",
			"objdata": {
				"Description": "[STARCHALLENGE_PRESET_PLANTS]",
				"DescriptiveName": "[STARCHALLENGE_PRESET_PLANTS_NAME]"
			}
		}, {
			"aliases": [ "NewWaves" ],
			"objclass": "WaveManagerModuleProperties",
			"objdata": {
				"DynamicZombies": [],
				"WaveManagerProps": "RTID(WaveManagerProps@CurrentLevel)"
			}
		}, {
			"aliases": [ "WaveManagerProps" ],
			"objclass": "WaveManagerProperties",
			"objdata": {
				"FlagWaveInterval": 4,
				"FlagWaveVeteranOverrideTypes": [ 1, 1, 1 ],
				"WaveCount": 12,
				"WaveSpendingPointIncrement": 100,
				"WaveSpendingPoints": 600,
				"Waves": [ [ "RTID(Wave1@CurrentLevel)" ], [ "RTID(Wave2@CurrentLevel)" ], [ "RTID(Wave3@CurrentLevel)" ], [ "RTID(Wave4@CurrentLevel)" ], [ "RTID(Wave5@CurrentLevel)" ], [ "RTID(Wave6@CurrentLevel)" ], [ "RTID(Wave7@CurrentLevel)" ], [ "RTID(Wave8@CurrentLevel)" ], [ "RTID(Wave9@CurrentLevel)" ], [ "RTID(Wave10@CurrentLevel)" ], [ "RTID(Wave11@CurrentLevel)" ], [ "RTID(Wave12@CurrentLevel)" ] ]
			}
		}, {
			"aliases": [ "Wave1" ],
			"objclass": "SpawnZombiesJitteredWaveActionProps",
			"objdata": {
				"AdditionalPlantfood": 0,
				"Zombies": [ {
						"Type": "RTID(cowboy_armor1@ZombieTypes)"
					}, {
						"Type": "RTID(cowboy_armor1@ZombieTypes)"
					}, {
						"Type": "RTID(cowboy_armor1@ZombieTypes)"
					} ]
			}
		}, {
			"aliases": [ "Wave2" ],
			"objclass": "SpawnZombiesJitteredWaveActionProps",
			"objdata": {
				"Zombies": [ {
						"Type": "RTID(cowboy_armor2@ZombieTypes)"
					}, {
						"Type": "RTID(cowboy_armor2@ZombieTypes)"
					} ]
			}
		}, {
			"aliases": [ "Wave3" ],
			"objclass": "SpawnZombiesJitteredWaveActionProps",
			"objdata": {
				"AdditionalPlantfood": 1,
				"Zombies": [ {
						"Type": "RTID(cowboy_armor2@ZombieTypes)"
					}, {
						"Type": "RTID(cowboy_armor2@ZombieTypes)"
					}, {
						"Type": "RTID(cowboy_armor2@ZombieTypes)"
					} ]
			}
		}, {
			"aliases": [ "Wave4" ],
			"objclass": "SpawnZombiesJitteredWaveActionProps",
			"objdata": {
				"AdditionalPlantfood": 0,
				"Zombies": [ {
						"Type": "RTID(cowboy_gargantuar@ZombieTypes)"
					}, {
						"Type": "RTID(chicken_farmer@ZombieTypes)"
					} ]
			}
		}, {
			"aliases": [ "Wave5" ],
			"objclass": "SpawnZombiesJitteredWaveActionProps",
			"objdata": {
				"AdditionalPlantfood": 0,
				"Zombies": [ {
						"Type": "RTID(prospector@ZombieTypes)"
					}, {
						"Type": "RTID(prospector@ZombieTypes)"
					}, {
						"Type": "RTID(prospector@ZombieTypes)"
					}, {
						"Type": "RTID(prospector@ZombieTypes)"
					} ]
			}
		}, {
			"aliases": [ "Wave6" ],
			"objclass": "SpawnZombiesJitteredWaveActionProps",
			"objdata": {
				"AdditionalPlantfood": 0,
				"Zombies": [ {
						"Type": "RTID(west_bull@ZombieTypes)"
					}, {
						"Type": "RTID(poncho@ZombieTypes)"
					}, {
						"Type": "RTID(chicken_farmer@ZombieTypes)"
					}, {
						"Type": "RTID(poncho_plate@ZombieTypes)"
					} ]
			}
		}, {
			"aliases": [ "Wave7" ],
			"objclass": "SpawnZombiesJitteredWaveActionProps",
			"objdata": {
				"Zombies": [ {
						"Type": "RTID(prospector@ZombieTypes)"
					}, {
						"Type": "RTID(prospector@ZombieTypes)"
					}, {
						"Type": "RTID(chicken_farmer@ZombieTypes)"
					}, {
						"Type": "RTID(chicken_farmer@ZombieTypes)"
					}, {
						"Type": "RTID(prospector@ZombieTypes)"
					}, {
						"Type": "RTID(cowboy_armor2@ZombieTypes)"
					} ]
			}
		}, {
			"aliases": [ "Wave8" ],
			"objclass": "SpawnZombiesJitteredWaveActionProps",
			"objdata": {
				"AdditionalPlantfood": 1,
				"Zombies": [ {
						"Type": "RTID(poncho_plate@ZombieTypes)"
					}, {
						"Type": "RTID(poncho_plate@ZombieTypes)"
					}, {
						"Type": "RTID(poncho_plate@ZombieTypes)"
					}, {
						"Type": "RTID(west_bull@ZombieTypes)"
					}, {
						"Type": "RTID(west_bull@ZombieTypes)"
					}, {
						"Type": "RTID(chicken_farmer@ZombieTypes)"
					} ]
			}
		}, {
			"aliases": [ "Wave9" ],
			"objclass": "SpawnZombiesJitteredWaveActionProps",
			"objdata": {
				"AdditionalPlantfood": 0,
				"Zombies": [ {
						"Type": "RTID(prospector@ZombieTypes)"
					}, {
						"Type": "RTID(prospector@ZombieTypes)"
					}, {
						"Row": "5",
						"Type": "RTID(piano@ZombieTypes)"
					}, {
						"Row": "5",
						"Type": "RTID(cowboy_armor2@ZombieTypes)"
					}, {
						"Row": "4",
						"Type": "RTID(cowboy_armor2@ZombieTypes)"
					}, {
						"Type": "RTID(prospector@ZombieTypes)"
					} ]
			}
		}, {
			"aliases": [ "Wave10" ],
			"objclass": "SpawnZombiesJitteredWaveActionProps",
			"objdata": {
				"AdditionalPlantfood": 0,
				"Zombies": [ {
						"Row": "5",
						"Type": "RTID(cowboy_armor1@ZombieTypes)"
					}, {
						"Type": "RTID(cowboy_armor1@ZombieTypes)"
					}, {
						"Row": "3",
						"Type": "RTID(chicken_farmer@ZombieTypes)"
					}, {
						"Row": "5",
						"Type": "RTID(chicken_farmer@ZombieTypes)"
					}, {
						"Row": "4",
						"Type": "RTID(cowboy_armor1@ZombieTypes)"
					}, {
						"Type": "RTID(chicken_farmer@ZombieTypes)"
					} ]
			}
		}, {
			"aliases": [ "Wave11" ],
			"objclass": "SpawnZombiesJitteredWaveActionProps",
			"objdata": {
				"AdditionalPlantfood": 0,
				"Zombies": [ {
						"Type": "RTID(west_bull@ZombieTypes)"
					}, {
						"Type": "RTID(west_bull@ZombieTypes)"
					}, {
						"Type": "RTID(west_bull@ZombieTypes)"
					}, {
						"Type": "RTID(piano@ZombieTypes)"
					} ]
			}
		}, {
			"aliases": [ "Wave12" ],
			"objclass": "SpawnZombiesJitteredWaveActionProps",
			"objdata": {
				"AdditionalPlantfood": 0,
				"Zombies": [ {
						"Row": "1",
						"Type": "RTID(cowboy_gargantuar@ZombieTypes)"
					}, {
						"Row": "1",
						"Type": "RTID(prospector@ZombieTypes)"
					}, {
						"Row": "1",
						"Type": "RTID(prospector@ZombieTypes)"
					}, {
						"Row": "4",
						"Type": "RTID(cowboy_gargantuar@ZombieTypes)"
					}, {
						"Row": "4",
						"Type": "RTID(prospector@ZombieTypes)"
					}, {
						"Row": "4",
						"Type": "RTID(prospector@ZombieTypes)"
					}, {
						"Row": "5",
						"Type": "RTID(west_bull@ZombieTypes)"
					} ]
			}
		} ],
	"version": 1
}