{
	"#comment": "Cowboy 27",
	"objects": [ {
			"objclass": "LevelDefinition",
			"objdata": {
				"Description": "[PLAYERS_TRIP_TO_WEST]",
				"LevelNumber": 2,
				"Loot": "RTID(DefaultLoot@LevelModules)",
				"Modules": [ "RTID(StandardIntro@LevelModules)", "RTID(Rails@CurrentLevel)", "RTID(ZombiesDeadWinCon@LevelModules)", "RTID(WestMowers@LevelModules)", "RTID(ConveyorBelt@CurrentLevel)", "RTID(NewWaves@CurrentLevel)", "RTID(ChallengeModule@CurrentLevel)", "RTID(DefaultZombieWinCondition@LevelModules)" ],
				"Name": "[WEST_LEVEL_NAME]",
				"NormalPresentTable": "egypt_normal_01",
				"ShinyPresentTable": "egypt_shiny_01",
				"ForceToWorldMap": true,
				"RepeatPlayForceToWorldMap": true,
				"StageModule": "RTID(WestStage@LevelModules)"
			}
		}, {
			"aliases": [ "Rails" ],
			"objclass": "RailcartProperties",
			"objdata": {
				"RailcartType": "railcart_cowboy",
				"Railcarts": [ {
						"Column": 0,
						"Row": 2
					}, {
						"Column": 1,
						"Row": 3
					}, {
						"Column": 2,
						"Row": 1
					}, {
						"Column": 4,
						"Row": 1
					}, {
						"Column": 4,
						"Row": 3
					}, {
						"Column": 5,
						"Row": 0
					}, {
						"Column": 5,
						"Row": 4
					} ],
				"Rails": [ {
						"Column": 0,
						"RowEnd": 4,
						"RowStart": 0
					}, {
						"Column": 1,
						"RowEnd": 4,
						"RowStart": 0
					}, {
						"Column": 2,
						"RowEnd": 4,
						"RowStart": 0
					}, {
						"Column": 4,
						"RowEnd": 1,
						"RowStart": 0
					}, {
						"Column": 4,
						"RowEnd": 4,
						"RowStart": 3
					}, {
						"Column": 5,
						"RowEnd": 1,
						"RowStart": 0
					}, {
						"Column": 5,
						"RowEnd": 4,
						"RowStart": 3
					} ]
			}
		}, {
			"aliases": [ "ConveyorBelt" ],
			"objclass": "ConveyorSeedBankProperties",
			"objdata": {
				"DropDelayConditions": [ {
						"Delay": 4.5,
						"MaxPackets": 0
					}, {
						"Delay": 7,
						"MaxPackets": 5
					}, {
						"Delay": 9,
						"MaxPackets": 7
					}, {
						"Delay": 12,
						"MaxPackets": 9
					} ],
				"InitialPlantList": [ {
						"PlantType": "chilibean",
						"Weight": 5
					}, {
						"PlantType": "peapod",
						"Weight": 10
					} ],
				"SpeedConditions": [ {
						"MaxPackets": 0,
						"Speed": 100
					} ]
			}
		}, {
			"aliases": [ "ChallengeModule" ],
			"objclass": "StarChallengeModuleProperties",
			"objdata": {
				"Challenges": [ [ "RTID(ZombieDistance@CurrentLevel)" ] ],
				"ChallengesAlwaysAvailable": true
			}
		}, {
			"aliases": [ "ZombieDistance" ],
			"objclass": "StarChallengeZombieDistanceProps",
			"objdata": {
				"TargetDistance": 5
			}
		}, {
			"aliases": [ "NewWaves" ],
			"objclass": "WaveManagerModuleProperties",
			"objdata": {
				"DynamicZombies": [],
				"WaveManagerProps": "RTID(WaveManagerProps@CurrentLevel)"
			}
		}, {
			"aliases": [ "WaveManagerProps" ],
			"objclass": "WaveManagerProperties",
			"objdata": {
				"FlagWaveInterval": 5,
				"FlagWaveVeteranOverrideTypes": [ 1, 1 ],
				"WaveCount": 10,
				"WaveSpendingPointIncrement": 100,
				"WaveSpendingPoints": 200,
				"Waves": [ [ "RTID(Wave1@CurrentLevel)" ], [ "RTID(Wave2@CurrentLevel)", "RTID(Wave2ModConveyor0@CurrentLevel)" ], [ "RTID(Wave3@CurrentLevel)" ], [ "RTID(Wave4@CurrentLevel)" ], [ "RTID(Wave5@CurrentLevel)" ], [ "RTID(Wave6@CurrentLevel)" ], [ "RTID(Wave7@CurrentLevel)" ], [ "RTID(Wave8@CurrentLevel)" ], [ "RTID(Wave9@CurrentLevel)" ], [ "RTID(Wave10@CurrentLevel)" ] ]
			}
		}, {
			"aliases": [ "Wave1" ],
			"objclass": "SpawnZombiesJitteredWaveActionProps",
			"objdata": {
				"AdditionalPlantfood": 0,
				"Zombies": [ {
						"Type": "RTID(cowboy@ZombieTypes)"
					} ]
			}
		}, {
			"aliases": [ "Wave2" ],
			"objclass": "SpawnZombiesJitteredWaveActionProps",
			"objdata": {
				"Zombies": [ {
						"Type": "RTID(cowboy_armor1@ZombieTypes)"
					}, {
						"Type": "RTID(cowboy_armor1@ZombieTypes)"
					} ]
			}
		}, {
			"aliases": [ "Wave3" ],
			"objclass": "SpawnZombiesJitteredWaveActionProps",
			"objdata": {
				"AdditionalPlantfood": 1,
				"Zombies": [ {
						"Type": "RTID(cowboy_armor2@ZombieTypes)"
					}, {
						"Type": "RTID(cowboy_armor1@ZombieTypes)"
					}, {
						"Type": "RTID(poncho_plate@ZombieTypes)"
					} ]
			}
		}, {
			"aliases": [ "Wave4" ],
			"objclass": "SpawnZombiesJitteredWaveActionProps",
			"objdata": {
				"AdditionalPlantfood": 0,
				"Zombies": [ {
						"Type": "RTID(west_bull@ZombieTypes)"
					}, {
						"Type": "RTID(west_bull@ZombieTypes)"
					} ]
			}
		}, {
			"aliases": [ "Wave5" ],
			"objclass": "SpawnZombiesJitteredWaveActionProps",
			"objdata": {
				"AdditionalPlantfood": 1,
				"Zombies": [ {
						"Type": "RTID(prospector@ZombieTypes)"
					}, {
						"Type": "RTID(prospector@ZombieTypes)"
					}, {
						"Type": "RTID(prospector@ZombieTypes)"
					} ]
			}
		}, {
			"aliases": [ "Wave6" ],
			"objclass": "SpawnZombiesJitteredWaveActionProps",
			"objdata": {
				"AdditionalPlantfood": 0,
				"Zombies": [ {
						"Type": "RTID(piano@ZombieTypes)"
					}, {
						"Type": "RTID(west_bull@ZombieTypes)"
					}, {
						"Type": "RTID(west_bull@ZombieTypes)"
					} ]
			}
		}, {
			"aliases": [ "Wave7" ],
			"objclass": "SpawnZombiesJitteredWaveActionProps",
			"objdata": {
				"Zombies": [ {
						"Row": "1",
						"Type": "RTID(cowboy_armor2@ZombieTypes)"
					}, {
						"Row": "2",
						"Type": "RTID(poncho_plate@ZombieTypes)"
					}, {
						"Row": "3",
						"Type": "RTID(poncho_plate@ZombieTypes)"
					}, {
						"Row": "4",
						"Type": "RTID(cowboy_armor2@ZombieTypes)"
					}, {
						"Row": "5",
						"Type": "RTID(chicken_farmer@ZombieTypes)"
					}, {
						"Type": "RTID(piano@ZombieTypes)"
					} ]
			}
		}, {
			"aliases": [ "Wave8" ],
			"objclass": "SpawnZombiesJitteredWaveActionProps",
			"objdata": {
				"AdditionalPlantfood": 1,
				"Zombies": [ {
						"Row": "5",
						"Type": "RTID(prospector@ZombieTypes)"
					}, {
						"Row": "4",
						"Type": "RTID(prospector@ZombieTypes)"
					} ]
			}
		}, {
			"aliases": [ "Wave9" ],
			"objclass": "SpawnZombiesJitteredWaveActionProps",
			"objdata": {
				"AdditionalPlantfood": 0,
				"Zombies": [ {
						"Type": "RTID(west_bull@ZombieTypes)"
					}, {
						"Row": "5",
						"Type": "RTID(cowboy_armor1@ZombieTypes)"
					}, {
						"Type": "RTID(west_bull@ZombieTypes)"
					} ]
			}
		}, {
			"aliases": [ "Wave10" ],
			"objclass": "SpawnZombiesJitteredWaveActionProps",
			"objdata": {
				"AdditionalPlantfood": 0,
				"Zombies": [ {
						"Row": "2",
						"Type": "RTID(cowboy@ZombieTypes)"
					}, {
						"Row": "4",
						"Type": "RTID(cowboy@ZombieTypes)"
					}, {
						"Row": "3",
						"Type": "RTID(cowboy_gargantuar@ZombieTypes)"
					} ]
			}
		}, {
			"aliases": [ "Wave2ModConveyor0" ],
			"objclass": "ModifyConveyorWaveActionProps",
			"objdata": {
				"Add": [ {
						"MinCount": 5,
						"MinWeightFactor": 3,
						"Type": "RTID(tallnut@PlantTypes)",
						"Weight": 5
					} ],
				"Remove": []
			}
		} ],
	"version": 1
}