{
	"#comment": "Egypt Zomboss 2.0",
	"objects": [ {
			"objclass": "LevelDefinition",
			"objdata": {
				"Description": "[PLAYERS_TRIP_TO_EGYPT]",
				"FirstIntroNarrative": "EGYPT_35_INTRO",
				"FirstOutroNarrative": "EGYPT_35_OUTRO",
				"LevelNumber": 10,
				"LoadDefaultMusic": false,
				"Loot": "RTID(DefaultLoot@LevelModules)",
				"Modules": [ "RTID(ZombossIntro@LevelModules)", "RTID(Gravestones@CurrentLevel)", "RTID(ConveyorBelt@CurrentLevel)", "RTID(ZombossBattle@CurrentLevel)", "RTID(DefaultZombieWinCondition@LevelModules)", "RTID(NewWaves@CurrentLevel)" ],
				"MusicType": "MiniGame_A",
				"Name": "[EGYPT_LEVEL_NAME]",
				"NormalPresentTable": "egypt_normal_01",
				"ForceToWorldMap": true,
				"RepeatPlayForceToWorldMap": true,
				"ShinyPresentTable": "egypt_shiny_01",
				"StageModule": "RTID(EgyptStage@LevelModules)",
				"VictoryModule": "RTID(ZombossVictoryOutro@LevelModules)"
			}
		}, {
			"aliases": [ "ZombossBattle" ],
			"objclass": "ZombossBattleModuleProperties",
			"objdata": {
				"ReservedColumnCount": 2,
				"ZombossDeathColumn": 5,
				"ZombossDeathRow": 3,
				"ZombossMechType": "zombossmech_egypt2",
				"ZombossSpawnGridPosition": {
					"mX": 6,
					"mY": 3
				}
			}
		}, {
			"aliases": [ "ConveyorBelt" ],
			"objclass": "ConveyorSeedBankProperties",
			"objdata": {
				"DropDelayConditions": [ {
						"Delay": 2,
						"MaxPackets": 0
					}, {
						"Delay": 3,
						"MaxPackets": 2
					}, {
						"Delay": 5,
						"MaxPackets": 4
					}, {
						"Delay": 8,
						"MaxPackets": 8
					} ],
				"InitialPlantList": [ {
						"MaxCount": 10,
						"MaxWeightFactor": 0.1,
						"MinCount": 5,
						"MinWeightFactor": 2,
						"PlantType": "bloomerang",
						"Weight": 15
					}, {
						"MaxCount": 10,
						"MaxWeightFactor": 0.1,
						"MinCount": 2,
						"MinWeightFactor": 2,
						"PlantType": "celerystalker",
						"Weight": 15
					}, {
						"MaxCount": 2,
						"MaxWeightFactor": 0,
						"MinCount": 1,
						"MinWeightFactor": 3,
						"PlantType": "gravebuster",
						"Weight": 7
					}, {
						"MaxCount": 2,
						"MaxWeightFactor": 0.1,
						"MinCount": 1,
						"MinWeightFactor": 2,
						"PlantType": "iceburg",
						"Weight": 5
					}, {
						"MaxCount": 5,
						"MaxWeightFactor": 0.1,
						"MinCount": 1,
						"MinWeightFactor": 2,
						"PlantType": "parsnip",
						"Weight": 10
					}, {
						"MaxCount": 10,
						"MaxWeightFactor": 0.1,
						"MinCount": 5,
						"MinWeightFactor": 2,
						"PlantType": "repeater",
						"Weight": 15
					}, {
						"MaxCount": 5,
						"MaxWeightFactor": 0,
						"MinCount": 2,
						"MinWeightFactor": 2,
						"PlantType": "sapfling",
						"Weight": 10
					} ],
				"SpeedConditions": [ {
						"MaxPackets": 0,
						"Speed": 100
					} ]
			}
		}, {
			"aliases": [ "NewWaves" ],
			"objclass": "WaveManagerModuleProperties",
			"objdata": {
				"WaveManagerProps": "RTID(WaveManagerProps@CurrentLevel)"
			}
		}, {
			"aliases": [ "WaveManagerProps" ],
			"objclass": "WaveManagerProperties",
			"objdata": {
				"Waves": []
			}
		}, {
			"aliases": [ "Gravestones" ],
			"objclass": "GravestoneProperties",
			"objdata": {
				"GravestoneCount": 5,
				"SpawnColumnEnd": 6,
				"SpawnColumnStart": 3
			}
		} ],
	"version": 1
}