{
	"#comment": "Egypt 30",
	"objects": [ {
			"objclass": "LevelDefinition",
			"objdata": {
				"Description": "[PLAYERS_TRIP_TO_EGYPT]",
				"LevelNumber": 5,
				"Loot": "RTID(DefaultLoot@LevelModules)",
				"Modules": [ "RTID(StandardIntro@LevelModules)", "RTID(EgyptMowers@LevelModules)", "RTID(NewWaves@CurrentLevel)", "RTID(DefaultSunDropper@LevelModules)", "RTID(DefaultZombieWinCondition@LevelModules)", "RTID(Gravestones@CurrentLevel)", "RTID(ChallengeModule@CurrentLevel)", "RTID(EgyptSeedBank@CurrentLevel)", "RTID(ZombiesDeadWinCon@LevelModules)" ],
				"Name": "[EGYPT_LEVEL_NAME]",
				"NormalPresentTable": "egypt_normal_01",
				"ShinyPresentTable": "egypt_shiny_01",
				"ForceToWorldMap": true,
				"RepeatPlayForceToWorldMap": true,
				"StageModule": "RTID(EgyptStage@LevelModules)"
			}
		}, {
			"aliases": [ "ChallengeModule" ],
			"objclass": "StarChallengeModuleProperties",
			"objdata": {
				"Challenges": [ [ "RTID(DoNotPlantBeforeLine@CurrentLevel)" ] ],
				"ChallengesAlwaysAvailable": true
			}
		}, {
			"aliases": [ "DoNotPlantBeforeLine" ],
			"objclass": "MoldColonyChallengeProps",
			"objdata": {
				"Locations": "RTID(Column1_To_Column5@BoardGridMaps)"
			}
		}, {
			"aliases": [ "Gravestones" ],
			"objclass": "GravestoneProperties",
			"objdata": {}
		}, {
			"aliases": [ "WaveManagerProps" ],
			"objclass": "WaveManagerProperties",
			"objdata": {
				"FlagWaveInterval": 4,
				"FlagWaveVeteranOverrideTypes": [ 0, 1, 1 ],
				"WaveCount": 12,
				"WaveSpendingPointIncrement": 100,
				"WaveSpendingPoints": 200,
				"Waves": [ [ "RTID(Wave1@CurrentLevel)" ], [ "RTID(Wave2@CurrentLevel)" ], [ "RTID(Wave3@CurrentLevel)" ], [ "RTID(Wave4@CurrentLevel)" ], [ "RTID(Wave5@CurrentLevel)" ], [ "RTID(Wave6@CurrentLevel)" ], [ "RTID(Wave7@CurrentLevel)" ], [ "RTID(Wave8@CurrentLevel)" ], [ "RTID(Wave9@CurrentLevel)" ], [ "RTID(Wave10@CurrentLevel)" ], [ "RTID(Wave11@CurrentLevel)" ], [ "RTID(Wave12@CurrentLevel)" ] ]
			}
		}, {
			"aliases": [ "NewWaves" ],
			"objclass": "WaveManagerModuleProperties",
			"objdata": {
				"DynamicZombies": [ {
						"PointIncrementPerWave": -10,
						"StartingPoints": -100,
						"StartingWave": 3,
						"ZombiePool": [ "RTID(explorer@ZombieTypes)", "RTID(mummy@ZombieTypes)", "RTID(mummy_armor1@ZombieTypes)", "RTID(mummy_armor2@ZombieTypes)" ]
					}, {
						"PointIncrementPerWave": -10,
						"StartingPoints": -50,
						"StartingWave": 4,
						"ZombiePool": [ "RTID(explorer@ZombieTypes)", "RTID(mummy@ZombieTypes)", "RTID(mummy_armor1@ZombieTypes)", "RTID(mummy_armor2@ZombieTypes)" ]
					}, {
						"PointIncrementPerWave": -10,
						"StartingPoints": -1,
						"StartingWave": 5,
						"ZombiePool": [ "RTID(explorer@ZombieTypes)", "RTID(mummy@ZombieTypes)", "RTID(mummy_armor1@ZombieTypes)", "RTID(mummy_armor2@ZombieTypes)" ]
					}, {}, {
						"PointIncrementPerWave": 20,
						"StartingPoints": 200,
						"StartingWave": 5,
						"ZombiePool": [ "RTID(explorer@ZombieTypes)", "RTID(mummy@ZombieTypes)", "RTID(mummy_armor1@ZombieTypes)", "RTID(mummy_armor2@ZombieTypes)" ]
					}, {
						"PointIncrementPerWave": 40,
						"StartingPoints": 300,
						"StartingWave": 4,
						"ZombiePool": [ "RTID(explorer@ZombieTypes)", "RTID(mummy_armor1@ZombieTypes)", "RTID(mummy_armor2@ZombieTypes)" ]
					}, {
						"PointIncrementPerWave": 6,
						"StartingPoints": 500,
						"StartingWave": 3,
						"ZombiePool": [ "RTID(explorer@ZombieTypes)", "RTID(mummy_armor2@ZombieTypes)" ]
					} ],
				"WaveManagerProps": "RTID(WaveManagerProps@CurrentLevel)"
			}
		}, {
			"aliases": [ "Wave1" ],
			"objclass": "SpawnZombiesJitteredWaveActionProps",
			"objdata": {
				"Zombies": [ {
						"Row": "5",
						"Type": "RTID(mummy@ZombieTypes)"
					}, {
						"Row": "1",
						"Type": "RTID(mummy@ZombieTypes)"
					} ]
			}
		}, {
			"aliases": [ "Wave2" ],
			"objclass": "SpawnZombiesJitteredWaveActionProps",
			"objdata": {
				"Zombies": [ {
						"Type": "RTID(mummy@ZombieTypes)"
					}, {
						"Type": "RTID(mummy_armor1@ZombieTypes)"
					} ]
			}
		}, {
			"aliases": [ "Wave3" ],
			"objclass": "SpawnZombiesJitteredWaveActionProps",
			"objdata": {
				"AdditionalPlantfood": 1,
				"DynamicPlantfood": [ 1, 1, 1, 1, 1, 1, 0 ],
				"Zombies": [ {
						"Type": "RTID(mummy_armor1@ZombieTypes)"
					}, {
						"Row": "3",
						"Type": "RTID(explorer@ZombieTypes)"
					} ]
			}
		}, {
			"aliases": [ "Wave4" ],
			"objclass": "SpawnZombiesJitteredWaveActionProps",
			"objdata": {
				"Zombies": [ {
						"Row": "1",
						"Type": "RTID(camel_twohump@ZombieTypes)"
					}, {
						"Row": "3",
						"Type": "RTID(camel_twohump@ZombieTypes)"
					}, {
						"Row": "5",
						"Type": "RTID(camel_twohump@ZombieTypes)"
					}, {
						"Type": "RTID(mummy_armor4@ZombieTypes)"
					} ]
			}
		}, {
			"aliases": [ "Wave5" ],
			"objclass": "SpawnZombiesJitteredWaveActionProps",
			"objdata": {
				"Zombies": [ {
						"Row": "4",
						"Type": "RTID(explorer@ZombieTypes)"
					}, {
						"Type": "RTID(mummy@ZombieTypes)"
					}, {
						"Row": "2",
						"Type": "RTID(explorer@ZombieTypes)"
					} ]
			}
		}, {
			"aliases": [ "Wave6" ],
			"objclass": "SpawnZombiesJitteredWaveActionProps",
			"objdata": {
				"AdditionalPlantfood": 1,
				"Zombies": [ {
						"Row": "4",
						"Type": "RTID(camel_manyhump@ZombieTypes)"
					}, {
						"Row": "2",
						"Type": "RTID(camel_manyhump@ZombieTypes)"
					}, {
						"Row": "5",
						"Type": "RTID(mummy_armor2@ZombieTypes)"
					} ]
			}
		}, {
			"aliases": [ "Wave7" ],
			"objclass": "SpawnZombiesJitteredWaveActionProps",
			"objdata": {
				"Zombies": [ {
						"Row": "3",
						"Type": "RTID(pharaoh@ZombieTypes)"
					}, {
						"Row": "2",
						"Type": "RTID(mummy_armor1@ZombieTypes)"
					}, {
						"Row": "4",
						"Type": "RTID(mummy_armor1@ZombieTypes)"
					} ]
			}
		}, {
			"aliases": [ "Wave8" ],
			"objclass": "SpawnZombiesJitteredWaveActionProps",
			"objdata": {
				"Zombies": [ {
						"Type": "RTID(mummy_armor2@ZombieTypes)"
					}, {
						"Type": "RTID(mummy@ZombieTypes)"
					}, {
						"Type": "RTID(mummy_armor4@ZombieTypes)"
					}, {
						"Row": "5",
						"Type": "RTID(pharaoh@ZombieTypes)"
					}, {
						"Row": "4",
						"Type": "RTID(explorer_veteran@ZombieTypes)"
					}, {
						"Row": "2",
						"Type": "RTID(explorer@ZombieTypes)"
					} ]
			}
		}, {
			"aliases": [ "Wave9" ],
			"objclass": "SpawnZombiesJitteredWaveActionProps",
			"objdata": {
				"AdditionalPlantfood": 1,
				"DynamicPlantfood": [ 1, 0, 0, 0, 0, 0, 0 ],
				"Zombies": [ {
						"Type": "RTID(mummy@ZombieTypes)"
					}, {
						"Row": "5",
						"Type": "RTID(explorer@ZombieTypes)"
					}, {
						"Row": "1",
						"Type": "RTID(pharaoh@ZombieTypes)"
					}, {
						"Row": "1",
						"Type": "RTID(explorer@ZombieTypes)"
					} ]
			}
		}, {
			"aliases": [ "Wave10" ],
			"objclass": "SpawnZombiesJitteredWaveActionProps",
			"objdata": {
				"Zombies": [ {
						"Row": "5",
						"Type": "RTID(camel_twohump@ZombieTypes)"
					}, {
						"Row": "4",
						"Type": "RTID(camel_twohump@ZombieTypes)"
					}, {
						"Row": "2",
						"Type": "RTID(camel_twohump@ZombieTypes)"
					}, {
						"Row": "1",
						"Type": "RTID(camel_twohump@ZombieTypes)"
					} ]
			}
		}, {
			"aliases": [ "Wave11" ],
			"objclass": "SpawnZombiesJitteredWaveActionProps",
			"objdata": {
				"Zombies": [ {
						"Row": "4",
						"Type": "RTID(pharaoh@ZombieTypes)"
					}, {
						"Row": "3",
						"Type": "RTID(explorer_veteran@ZombieTypes)"
					}, {
						"Row": "2",
						"Type": "RTID(pharaoh@ZombieTypes)"
					} ]
			}
		}, {
			"aliases": [ "Wave12" ],
			"objclass": "SpawnZombiesJitteredWaveActionProps",
			"objdata": {
				"AdditionalPlantfood": 0,
				"Zombies": [ {
						"Row": "5",
						"Type": "RTID(explorer@ZombieTypes)"
					}, {
						"Row": "4",
						"Type": "RTID(explorer_veteran@ZombieTypes)"
					}, {
						"Row": "3",
						"Type": "RTID(explorer@ZombieTypes)"
					}, {
						"Row": "2",
						"Type": "RTID(explorer_veteran@ZombieTypes)"
					}, {
						"Row": "1",
						"Type": "RTID(explorer@ZombieTypes)"
					}, {
						"Type": "RTID(pharaoh@ZombieTypes)"
					}, {
						"Row": "4",
						"Type": "RTID(camel_onehump@ZombieTypes)"
					}, {
						"Row": "2",
						"Type": "RTID(camel_onehump@ZombieTypes)"
					}, {
						"Type": "RTID(mummy_armor1@ZombieTypes)"
					}, {
						"Type": "RTID(mummy@ZombieTypes)"
					} ]
			}
		}, {
			"aliases": [ "EgyptSeedBank" ],
			"objclass": "SeedBankProperties",
			"objdata": {
				"SelectionMethod": "chooser"
			}
		} ],
	"version": 1
}