{
	"#comment": "Eighties 22",
	"objects": [ {
			"objclass": "LevelDefinition",
			"objdata": {
				"Description": "[PLAYERS_TRIP_TO_EIGHTIES]",
				"FirstIntroNarrative": "EIGHTIES_22_INTRO",
				"LevelNumber": 22,
				"Loot": "RTID(DefaultLoot@LevelModules)",
				"Modules": [ "RTID(StandardIntro@LevelModules)", "RTID(EightiesMowers@LevelModules)", "RTID(DefaultZombieWinCondition@LevelModules)", "RTID(ZombiesDeadWinCon@LevelModules)", "RTID(ConveyorBelt@CurrentLevel)", "RTID(NewWaves@CurrentLevel)" ],
				"Name": "[EIGHTIES_LEVEL_NAME]",
				"NormalPresentTable": "egypt_normal_01",
				"ShinyPresentTable": "egypt_shiny_01",
				"StageModule": "RTID(EightiesStage@LevelModules)"
			}
		}, {
			"aliases": [ "ConveyorBelt" ],
			"objclass": "ConveyorSeedBankProperties",
			"objdata": {
				"DropDelayConditions": [ {
						"Delay": 7,
						"MaxPackets": 0
					}, {
						"Delay": 15,
						"MaxPackets": 5
					}, {
						"Delay": 20,
						"MaxPackets": 7
					}, {
						"Delay": 34,
						"MaxPackets": 9
					} ],
				"InitialPlantList": [ {
						"PlantType": "sporeshroom",
						"Weight": 90
					} ],
				"SpeedConditions": [ {
						"MaxPackets": 0,
						"Speed": 100
					} ]
			}
		}, {
			"aliases": [ "NewWaves" ],
			"objclass": "WaveManagerModuleProperties",
			"objdata": {
				"DynamicZombies": [ {
						"PointIncrementPerWave": -40,
						"StartingPoints": -100,
						"StartingWave": 3,
						"ZombiePool": [ "RTID(eighties@ZombieTypes)", "RTID(eighties_armor1@ZombieTypes)", "RTID(eighties_armor2@ZombieTypes)" ]
					}, {
						"PointIncrementPerWave": -25,
						"StartingPoints": -100,
						"StartingWave": 4,
						"ZombiePool": [ "RTID(eighties@ZombieTypes)", "RTID(eighties_armor1@ZombieTypes)", "RTID(eighties_armor2@ZombieTypes)" ]
					}, {
						"PointIncrementPerWave": -10,
						"StartingPoints": -100,
						"StartingWave": 5,
						"ZombiePool": [ "RTID(eighties@ZombieTypes)", "RTID(eighties_armor1@ZombieTypes)", "RTID(eighties_armor2@ZombieTypes)" ]
					}, {}, {
						"PointIncrementPerWave": 20,
						"StartingPoints": 100,
						"StartingWave": 5,
						"ZombiePool": [ "RTID(eighties@ZombieTypes)", "RTID(eighties_armor1@ZombieTypes)", "RTID(eighties_armor2@ZombieTypes)" ]
					}, {
						"PointIncrementPerWave": 40,
						"StartingPoints": 200,
						"StartingWave": 4,
						"ZombiePool": [ "RTID(eighties@ZombieTypes)", "RTID(eighties_armor1@ZombieTypes)", "RTID(eighties_armor2@ZombieTypes)" ]
					}, {
						"PointIncrementPerWave": 60,
						"StartingPoints": 400,
						"StartingWave": 3,
						"ZombiePool": [ "RTID(eighties@ZombieTypes)", "RTID(eighties_armor2@ZombieTypes)" ]
					} ],
				"WaveManagerProps": "RTID(WaveManagerProps@CurrentLevel)"
			}
		}, {
			"aliases": [ "WaveManagerProps" ],
			"objclass": "WaveManagerProperties",
			"objdata": {
				"FlagWaveInterval": 5,
				"WaveCount": 10,
				"WaveSpendingPointIncrement": 150,
				"WaveSpendingPoints": 200,
				"Waves": [ [ "RTID(Wave1@CurrentLevel)" ], [ "RTID(Wave2@CurrentLevel)" ], [ "RTID(Wave3@CurrentLevel)" ], [ "RTID(Wave4@CurrentLevel)" ], [ "RTID(Wave5@CurrentLevel)", "RTID(Wave5ModConveyor0@CurrentLevel)" ], [ "RTID(Wave6@CurrentLevel)" ], [ "RTID(Wave7@CurrentLevel)" ], [ "RTID(Wave8@CurrentLevel)" ], [ "RTID(Wave9@CurrentLevel)" ], [ "RTID(Wave10@CurrentLevel)" ] ]
			}
		}, {
			"aliases": [ "Wave1" ],
			"objclass": "SpawnZombiesJitteredWaveActionProps",
			"objdata": {
				"NotificationEvents": [ "jam_8bit" ],
				"Zombies": [ {
						"Row": "3",
						"Type": "RTID(eighties_arcade@ZombieTypes)"
					} ]
			}
		}, {
			"aliases": [ "Wave2" ],
			"objclass": "SpawnZombiesJitteredWaveActionProps",
			"objdata": {
				"Zombies": [ {
						"Row": "2",
						"Type": "RTID(eighties_arcade@ZombieTypes)"
					}, {
						"Row": "4",
						"Type": "RTID(eighties_arcade@ZombieTypes)"
					} ]
			}
		}, {
			"aliases": [ "Wave3" ],
			"objclass": "SpawnZombiesJitteredWaveActionProps",
			"objdata": {
				"AdditionalPlantfood": 1,
				"NotificationEvents": [ "jam_rap" ],
				"Zombies": [ {
						"Row": "1",
						"Type": "RTID(eighties_mc@ZombieTypes)"
					}, {
						"Row": "5",
						"Type": "RTID(eighties_mc@ZombieTypes)"
					} ]
			}
		}, {
			"aliases": [ "Wave4" ],
			"objclass": "SpawnZombiesJitteredWaveActionProps",
			"objdata": {
				"AdditionalPlantfood": 1,
				"Zombies": [ {
						"Row": "2",
						"Type": "RTID(eighties_armor1@ZombieTypes)"
					}, {
						"Row": "3",
						"Type": "RTID(eighties_armor1@ZombieTypes)"
					}, {
						"Row": "4",
						"Type": "RTID(eighties_armor1@ZombieTypes)"
					} ]
			}
		}, {
			"aliases": [ "Wave5" ],
			"objclass": "SpawnZombiesJitteredWaveActionProps",
			"objdata": {
				"Zombies": [ {
						"Row": "2",
						"Type": "RTID(eighties_breakdancer@ZombieTypes)"
					}, {
						"Row": "3",
						"Type": "RTID(eighties_breakdancer@ZombieTypes)"
					}, {
						"Row": "4",
						"Type": "RTID(eighties_breakdancer@ZombieTypes)"
					}, {
						"Row": "2",
						"Type": "RTID(eighties_arcade@ZombieTypes)"
					}, {
						"Row": "3",
						"Type": "RTID(eighties_arcade@ZombieTypes)"
					}, {
						"Row": "4",
						"Type": "RTID(eighties_arcade@ZombieTypes)"
					}, {
						"Row": "2",
						"Type": "RTID(eighties_breakdancer@ZombieTypes)"
					}, {
						"Row": "3",
						"Type": "RTID(eighties_breakdancer@ZombieTypes)"
					}, {
						"Row": "4",
						"Type": "RTID(eighties_breakdancer@ZombieTypes)"
					} ]
			}
		}, {
			"aliases": [ "Wave6" ],
			"objclass": "SpawnZombiesJitteredWaveActionProps",
			"objdata": {
				"NotificationEvents": [ "jam_8bit" ],
				"Zombies": [ {
						"Row": "1",
						"Type": "RTID(eighties_armor2@ZombieTypes)"
					}, {
						"Row": "5",
						"Type": "RTID(eighties_armor2@ZombieTypes)"
					} ]
			}
		}, {
			"aliases": [ "Wave7" ],
			"objclass": "SpawnZombiesJitteredWaveActionProps",
			"objdata": {
				"AdditionalPlantfood": 1,
				"Zombies": [ {
						"Row": "1",
						"Type": "RTID(eighties_arcade@ZombieTypes)"
					}, {
						"Row": "5",
						"Type": "RTID(eighties_arcade@ZombieTypes)"
					}, {
						"Row": "3",
						"Type": "RTID(eighties_arcade@ZombieTypes)"
					} ]
			}
		}, {
			"aliases": [ "Wave8" ],
			"objclass": "SpawnZombiesJitteredWaveActionProps",
			"objdata": {
				"Zombies": [ {
						"Row": "1",
						"Type": "RTID(eighties_armor2@ZombieTypes)"
					}, {
						"Row": "1",
						"Type": "RTID(eighties_glitter@ZombieTypes)"
					}, {
						"Row": "4",
						"Type": "RTID(eighties_armor2@ZombieTypes)"
					}, {
						"Row": "4",
						"Type": "RTID(eighties_glitter@ZombieTypes)"
					} ]
			}
		}, {
			"aliases": [ "Wave9" ],
			"objclass": "SpawnZombiesJitteredWaveActionProps",
			"objdata": {
				"NotificationEvents": [ "jam_pop" ],
				"Zombies": [ {
						"Row": "1",
						"Type": "RTID(eighties_arcade@ZombieTypes)"
					}, {
						"Row": "4",
						"Type": "RTID(eighties_arcade@ZombieTypes)"
					}, {
						"Row": "3",
						"Type": "RTID(eighties_glitter@ZombieTypes)"
					}, {
						"Row": "2",
						"Type": "RTID(eighties_glitter@ZombieTypes)"
					}, {
						"Row": "2",
						"Type": "RTID(eighties_arcade@ZombieTypes)"
					}, {
						"Row": "3",
						"Type": "RTID(eighties_arcade@ZombieTypes)"
					} ]
			}
		}, {
			"aliases": [ "Wave10" ],
			"objclass": "SpawnZombiesJitteredWaveActionProps",
			"objdata": {
				"NotificationEvents": [ "jam_8bit" ],
				"Zombies": [ {
						"Row": "5",
						"Type": "RTID(eighties_armor2@ZombieTypes)"
					}, {
						"Row": "5",
						"Type": "RTID(eighties_arcade@ZombieTypes)"
					}, {
						"Row": "4",
						"Type": "RTID(eighties_armor2@ZombieTypes)"
					}, {
						"Row": "4",
						"Type": "RTID(eighties_arcade@ZombieTypes)"
					}, {
						"Row": "3",
						"Type": "RTID(eighties_armor2@ZombieTypes)"
					}, {
						"Row": "3",
						"Type": "RTID(eighties_arcade@ZombieTypes)"
					}, {
						"Row": "2",
						"Type": "RTID(eighties_armor2@ZombieTypes)"
					}, {
						"Row": "2",
						"Type": "RTID(eighties_arcade@ZombieTypes)"
					}, {
						"Row": "1",
						"Type": "RTID(eighties_armor2@ZombieTypes)"
					}, {
						"Row": "1",
						"Type": "RTID(eighties_arcade@ZombieTypes)"
					} ]
			}
		}, {
			"aliases": [ "Wave5ModConveyor0" ],
			"objclass": "ModifyConveyorWaveActionProps",
			"objdata": {
				"Add": [ {
						"MaxWeightFactor": 10.0,
						"MinWeightFactor": 0.1,
						"Type": "RTID(cherry_bomb@PlantTypes)",
						"Weight": 10
					} ],
				"Remove": []
			}
		} ],
	"version": 1
}