{
	"#comment": "Eighties 13",
	"objects": [ {
			"objclass": "LevelDefinition",
			"objdata": {
				"Description": "[PLAYERS_TRIP_TO_EIGHTIES]",
				"LevelNumber": 13,
				"Loot": "RTID(DefaultLoot@LevelModules)",
				"Modules": [ "RTID(EightiesMowers@LevelModules)", "RTID(DefaultZombieWinCondition@LevelModules)", "RTID(ZombiesDeadWinCon@LevelModules)", "RTID(SeedBank@CurrentLevel)", "RTID(NewWaves@CurrentLevel)", "RTID(LastStand@CurrentLevel)", "RTID(ChallengeModule@CurrentLevel)" ],
				"MusicType": "MiniGame_A",
				"Name": "[EIGHTIES_LEVEL_NAME]",
				"NormalPresentTable": "egypt_normal_01",
				"ShinyPresentTable": "egypt_shiny_01",
				"StageModule": "RTID(EightiesStage@LevelModules)"
			}
		}, {
			"aliases": [ "ChallengeModule" ],
			"objclass": "StarChallengeModuleProperties",
			"objdata": {
				"Challenges": [ [ "RTID(BeatTheLevel@CurrentLevel)" ] ],
				"ChallengesAlwaysAvailable": true
			}
		}, {
			"aliases": [ "LastStand" ],
			"objclass": "LastStandMinigameProperties",
			"objdata": {
				"StartingPlantfood": 2,
				"StartingSun": 2000
			}
		}, {
			"aliases": [ "BeatTheLevel" ],
			"objclass": "StarChallengeBeatTheLevelProps",
			"objdata": {
				"Description": "[STARCHALLENGE_LASTSTAND_MINIGAME]",
				"DescriptiveName": "[STARCHALLENGE_LASTSTAND_MINIGAME_NAME]"
			}
		}, {
			"aliases": [ "SeedBank" ],
			"objclass": "SeedBankProperties",
			"objdata": {
				"ExcludeListSunProducers": "true",
				"PlantExcludeList": [ "iceburg", "gravebuster", "puffshroom", "melonpult", "toadstool", "goldleaf", "stallia" ],
				"SelectionMethod": "chooser"
			}
		}, {
			"aliases": [ "NewWaves" ],
			"objclass": "WaveManagerModuleProperties",
			"objdata": {
				"ManualStartup": true,
				"WaveManagerProps": "RTID(WaveManagerProps@CurrentLevel)"
			}
		}, {
			"aliases": [ "WaveManagerProps" ],
			"objclass": "WaveManagerProperties",
			"objdata": {
				"FlagWaveInterval": 5,
				"WaveCount": 10,
				"WaveSpendingPointIncrement": 100,
				"WaveSpendingPoints": 100,
				"Waves": [ [ "RTID(Wave1@CurrentLevel)" ], [ "RTID(Wave2@CurrentLevel)" ], [ "RTID(Wave3@CurrentLevel)" ], [ "RTID(Wave4@CurrentLevel)" ], [ "RTID(Wave5@CurrentLevel)" ], [ "RTID(Wave6@CurrentLevel)" ], [ "RTID(Wave7@CurrentLevel)" ], [ "RTID(Wave8@CurrentLevel)" ], [ "RTID(Wave9@CurrentLevel)" ], [ "RTID(Wave10@CurrentLevel)" ] ]
			}
		}, {
			"aliases": [ "Wave1" ],
			"objclass": "SpawnZombiesJitteredWaveActionProps",
			"objdata": {
				"NotificationEvents": [ "jam_pop" ],
				"Zombies": [ {
						"Row": "1",
						"Type": "RTID(eighties_glitter@ZombieTypes)"
					}, {
						"Row": "2",
						"Type": "RTID(eighties_glitter@ZombieTypes)"
					}, {
						"Row": "3",
						"Type": "RTID(eighties_glitter@ZombieTypes)"
					}, {
						"Row": "4",
						"Type": "RTID(eighties_glitter@ZombieTypes)"
					}, {
						"Row": "5",
						"Type": "RTID(eighties_glitter@ZombieTypes)"
					}, {
						"Row": "1",
						"Type": "RTID(eighties_armor2@ZombieTypes)"
					}, {
						"Row": "2",
						"Type": "RTID(eighties_armor2@ZombieTypes)"
					}, {
						"Row": "3",
						"Type": "RTID(eighties_armor2@ZombieTypes)"
					}, {
						"Row": "4",
						"Type": "RTID(eighties_armor2@ZombieTypes)"
					}, {
						"Row": "5",
						"Type": "RTID(eighties_armor2@ZombieTypes)"
					}, {
						"Row": "1",
						"Type": "RTID(eighties_glitter@ZombieTypes)"
					}, {
						"Row": "2",
						"Type": "RTID(eighties_glitter@ZombieTypes)"
					}, {
						"Row": "3",
						"Type": "RTID(eighties_glitter@ZombieTypes)"
					}, {
						"Row": "4",
						"Type": "RTID(eighties_glitter@ZombieTypes)"
					}, {
						"Row": "5",
						"Type": "RTID(eighties_glitter@ZombieTypes)"
					}, {
						"Row": "1",
						"Type": "RTID(eighties_armor1@ZombieTypes)"
					}, {
						"Row": "2",
						"Type": "RTID(eighties_armor1@ZombieTypes)"
					}, {
						"Row": "3",
						"Type": "RTID(eighties_armor1@ZombieTypes)"
					}, {
						"Row": "4",
						"Type": "RTID(eighties_armor1@ZombieTypes)"
					}, {
						"Row": "5",
						"Type": "RTID(eighties_armor1@ZombieTypes)"
					} ]
			}
		}, {
			"aliases": [ "Wave2" ],
			"objclass": "SpawnZombiesJitteredWaveActionProps",
			"objdata": {
				"Zombies": [ {
						"Row": "1",
						"Type": "RTID(eighties_armor2@ZombieTypes)"
					}, {
						"Row": "2",
						"Type": "RTID(eighties_armor2@ZombieTypes)"
					}, {
						"Row": "3",
						"Type": "RTID(eighties_armor2@ZombieTypes)"
					}, {
						"Row": "4",
						"Type": "RTID(eighties_armor2@ZombieTypes)"
					}, {
						"Row": "5",
						"Type": "RTID(eighties_armor2@ZombieTypes)"
					}, {
						"Row": "1",
						"Type": "RTID(eighties_glitter@ZombieTypes)"
					}, {
						"Row": "2",
						"Type": "RTID(eighties_glitter@ZombieTypes)"
					}, {
						"Row": "3",
						"Type": "RTID(eighties_glitter@ZombieTypes)"
					}, {
						"Row": "4",
						"Type": "RTID(eighties_glitter@ZombieTypes)"
					}, {
						"Row": "5",
						"Type": "RTID(eighties_glitter@ZombieTypes)"
					}, {
						"Row": "1",
						"Type": "RTID(eighties_armor2@ZombieTypes)"
					}, {
						"Row": "2",
						"Type": "RTID(eighties_armor2@ZombieTypes)"
					}, {
						"Row": "3",
						"Type": "RTID(eighties_armor2@ZombieTypes)"
					}, {
						"Row": "4",
						"Type": "RTID(eighties_armor2@ZombieTypes)"
					}, {
						"Row": "5",
						"Type": "RTID(eighties_armor2@ZombieTypes)"
					} ]
			}
		}, {
			"aliases": [ "Wave3" ],
			"objclass": "SpawnZombiesJitteredWaveActionProps",
			"objdata": {
				"Zombies": [ {
						"Row": "1",
						"Type": "RTID(eighties_glitter@ZombieTypes)"
					}, {
						"Row": "2",
						"Type": "RTID(eighties_glitter@ZombieTypes)"
					}, {
						"Row": "3",
						"Type": "RTID(eighties_glitter@ZombieTypes)"
					}, {
						"Row": "4",
						"Type": "RTID(eighties_glitter@ZombieTypes)"
					}, {
						"Row": "5",
						"Type": "RTID(eighties_glitter@ZombieTypes)"
					}, {
						"Row": "5",
						"Type": "RTID(eighties_armor2@ZombieTypes)"
					}, {
						"Row": "5",
						"Type": "RTID(eighties_punk@ZombieTypes)"
					}, {
						"Row": "4",
						"Type": "RTID(eighties_armor2@ZombieTypes)"
					}, {
						"Row": "4",
						"Type": "RTID(eighties_punk@ZombieTypes)"
					}, {
						"Row": "3",
						"Type": "RTID(eighties_armor2@ZombieTypes)"
					}, {
						"Row": "3",
						"Type": "RTID(eighties_punk@ZombieTypes)"
					}, {
						"Row": "2",
						"Type": "RTID(eighties_armor2@ZombieTypes)"
					}, {
						"Row": "2",
						"Type": "RTID(eighties_punk@ZombieTypes)"
					}, {
						"Row": "1",
						"Type": "RTID(eighties_armor2@ZombieTypes)"
					}, {
						"Row": "1",
						"Type": "RTID(eighties_punk@ZombieTypes)"
					} ]
			}
		}, {
			"aliases": [ "Wave4" ],
			"objclass": "SpawnZombiesJitteredWaveActionProps",
			"objdata": {
				"NotificationEvents": [ "jam_punk" ],
				"Zombies": [ {
						"Row": "1",
						"Type": "RTID(eighties_armor2@ZombieTypes)"
					}, {
						"Row": "2",
						"Type": "RTID(eighties_armor2@ZombieTypes)"
					}, {
						"Row": "3",
						"Type": "RTID(eighties_armor2@ZombieTypes)"
					}, {
						"Row": "4",
						"Type": "RTID(eighties_armor2@ZombieTypes)"
					}, {
						"Row": "5",
						"Type": "RTID(eighties_armor2@ZombieTypes)"
					}, {
						"Row": "1",
						"Type": "RTID(eighties_punk@ZombieTypes)"
					}, {
						"Row": "2",
						"Type": "RTID(eighties_punk@ZombieTypes)"
					}, {
						"Row": "3",
						"Type": "RTID(eighties_punk@ZombieTypes)"
					}, {
						"Row": "4",
						"Type": "RTID(eighties_punk@ZombieTypes)"
					}, {
						"Row": "5",
						"Type": "RTID(eighties_punk@ZombieTypes)"
					}, {
						"Row": "1",
						"Type": "RTID(eighties_armor2@ZombieTypes)"
					}, {
						"Row": "1",
						"Type": "RTID(eighties_punk@ZombieTypes)"
					}, {
						"Row": "5",
						"Type": "RTID(eighties_armor2@ZombieTypes)"
					}, {
						"Row": "5",
						"Type": "RTID(eighties_punk@ZombieTypes)"
					} ]
			}
		}, {
			"aliases": [ "Wave5" ],
			"objclass": "SpawnZombiesJitteredWaveActionProps",
			"objdata": {
				"Zombies": [ {
						"Row": "1",
						"Type": "RTID(eighties_armor2@ZombieTypes)"
					}, {
						"Row": "1",
						"Type": "RTID(eighties_armor2@ZombieTypes)"
					}, {
						"Row": "5",
						"Type": "RTID(eighties_armor2@ZombieTypes)"
					}, {
						"Row": "5",
						"Type": "RTID(eighties_armor2@ZombieTypes)"
					}, {
						"Row": "1",
						"Type": "RTID(eighties_punk@ZombieTypes)"
					}, {
						"Row": "1",
						"Type": "RTID(eighties_punk@ZombieTypes)"
					}, {
						"Row": "1",
						"Type": "RTID(eighties_glitter@ZombieTypes)"
					}, {
						"Row": "1",
						"Type": "RTID(eighties_punk@ZombieTypes)"
					}, {
						"Row": "5",
						"Type": "RTID(eighties_punk@ZombieTypes)"
					}, {
						"Row": "5",
						"Type": "RTID(eighties_punk@ZombieTypes)"
					}, {
						"Row": "5",
						"Type": "RTID(eighties_glitter@ZombieTypes)"
					}, {
						"Row": "5",
						"Type": "RTID(eighties_punk@ZombieTypes)"
					} ]
			}
		}, {
			"aliases": [ "Wave6" ],
			"objclass": "SpawnZombiesJitteredWaveActionProps",
			"objdata": {
				"NotificationEvents": [ "jam_pop" ],
				"Zombies": [ {
						"Row": "1",
						"Type": "RTID(eighties_armor2@ZombieTypes)"
					}, {
						"Row": "2",
						"Type": "RTID(eighties_armor2@ZombieTypes)"
					}, {
						"Row": "3",
						"Type": "RTID(eighties_armor2@ZombieTypes)"
					}, {
						"Row": "4",
						"Type": "RTID(eighties_armor2@ZombieTypes)"
					}, {
						"Row": "5",
						"Type": "RTID(eighties_armor2@ZombieTypes)"
					}, {
						"Row": "1",
						"Type": "RTID(eighties_glitter@ZombieTypes)"
					}, {
						"Row": "2",
						"Type": "RTID(eighties_glitter@ZombieTypes)"
					}, {
						"Row": "3",
						"Type": "RTID(eighties_glitter@ZombieTypes)"
					}, {
						"Row": "4",
						"Type": "RTID(eighties_glitter@ZombieTypes)"
					}, {
						"Row": "5",
						"Type": "RTID(eighties_glitter@ZombieTypes)"
					}, {
						"Row": "1",
						"Type": "RTID(eighties_armor2@ZombieTypes)"
					}, {
						"Row": "2",
						"Type": "RTID(eighties_armor2@ZombieTypes)"
					}, {
						"Row": "3",
						"Type": "RTID(eighties_armor2@ZombieTypes)"
					}, {
						"Row": "4",
						"Type": "RTID(eighties_armor2@ZombieTypes)"
					}, {
						"Row": "5",
						"Type": "RTID(eighties_armor2@ZombieTypes)"
					} ]
			}
		}, {
			"aliases": [ "Wave7" ],
			"objclass": "SpawnZombiesJitteredWaveActionProps",
			"objdata": {
				"NotificationEvents": [ "jam_rap" ],
				"Zombies": [ {
						"Row": "1",
						"Type": "RTID(eighties_armor2@ZombieTypes)"
					}, {
						"Row": "2",
						"Type": "RTID(eighties_armor2@ZombieTypes)"
					}, {
						"Row": "3",
						"Type": "RTID(eighties_armor2@ZombieTypes)"
					}, {
						"Row": "4",
						"Type": "RTID(eighties_armor2@ZombieTypes)"
					}, {
						"Row": "5",
						"Type": "RTID(eighties_armor2@ZombieTypes)"
					}, {
						"Row": "1",
						"Type": "RTID(eighties_glitter@ZombieTypes)"
					}, {
						"Row": "2",
						"Type": "RTID(eighties_glitter@ZombieTypes)"
					}, {
						"Row": "3",
						"Type": "RTID(eighties_glitter@ZombieTypes)"
					}, {
						"Row": "4",
						"Type": "RTID(eighties_glitter@ZombieTypes)"
					}, {
						"Row": "5",
						"Type": "RTID(eighties_glitter@ZombieTypes)"
					}, {
						"Row": "1",
						"Type": "RTID(eighties_mc@ZombieTypes)"
					}, {
						"Row": "2",
						"Type": "RTID(eighties_mc@ZombieTypes)"
					}, {
						"Row": "3",
						"Type": "RTID(eighties_mc@ZombieTypes)"
					}, {
						"Row": "4",
						"Type": "RTID(eighties_mc@ZombieTypes)"
					}, {
						"Row": "5",
						"Type": "RTID(eighties_mc@ZombieTypes)"
					}, {
						"Row": "1",
						"Type": "RTID(eighties_mc@ZombieTypes)"
					}, {
						"Row": "2",
						"Type": "RTID(eighties_mc@ZombieTypes)"
					}, {
						"Row": "3",
						"Type": "RTID(eighties_mc@ZombieTypes)"
					}, {
						"Row": "4",
						"Type": "RTID(eighties_mc@ZombieTypes)"
					}, {
						"Row": "5",
						"Type": "RTID(eighties_mc@ZombieTypes)"
					} ]
			}
		}, {
			"aliases": [ "Wave8" ],
			"objclass": "SpawnZombiesJitteredWaveActionProps",
			"objdata": {
				"AdditionalPlantfood": 1,
				"Zombies": [ {
						"Row": "1",
						"Type": "RTID(eighties_armor2@ZombieTypes)"
					}, {
						"Row": "1",
						"Type": "RTID(eighties_mc@ZombieTypes)"
					}, {
						"Row": "1",
						"Type": "RTID(eighties_mc@ZombieTypes)"
					}, {
						"Row": "1",
						"Type": "RTID(eighties_glitter@ZombieTypes)"
					}, {
						"Row": "1",
						"Type": "RTID(eighties_mc@ZombieTypes)"
					}, {
						"Row": "1",
						"Type": "RTID(eighties_mc@ZombieTypes)"
					}, {
						"Row": "5",
						"Type": "RTID(eighties_armor2@ZombieTypes)"
					}, {
						"Row": "5",
						"Type": "RTID(eighties_mc@ZombieTypes)"
					}, {
						"Row": "5",
						"Type": "RTID(eighties_mc@ZombieTypes)"
					}, {
						"Row": "5",
						"Type": "RTID(eighties_glitter@ZombieTypes)"
					}, {
						"Row": "5",
						"Type": "RTID(eighties_mc@ZombieTypes)"
					}, {
						"Row": "5",
						"Type": "RTID(eighties_mc@ZombieTypes)"
					}, {
						"Row": "3",
						"Type": "RTID(eighties_armor2@ZombieTypes)"
					}, {
						"Row": "3",
						"Type": "RTID(eighties_mc@ZombieTypes)"
					}, {
						"Row": "3",
						"Type": "RTID(eighties_mc@ZombieTypes)"
					}, {
						"Row": "3",
						"Type": "RTID(eighties_glitter@ZombieTypes)"
					}, {
						"Row": "3",
						"Type": "RTID(eighties_mc@ZombieTypes)"
					}, {
						"Row": "3",
						"Type": "RTID(eighties_mc@ZombieTypes)"
					} ]
			}
		}, {
			"aliases": [ "Wave9" ],
			"objclass": "SpawnZombiesJitteredWaveActionProps",
			"objdata": {
				"NotificationEvents": [ "jam_pop" ],
				"Zombies": [ {
						"Row": "5",
						"Type": "RTID(eighties_armor2@ZombieTypes)"
					}, {
						"Row": "5",
						"Type": "RTID(eighties_glitter@ZombieTypes)"
					}, {
						"Row": "5",
						"Type": "RTID(eighties_mc@ZombieTypes)"
					}, {
						"Row": "4",
						"Type": "RTID(eighties_armor2@ZombieTypes)"
					}, {
						"Row": "4",
						"Type": "RTID(eighties_glitter@ZombieTypes)"
					}, {
						"Row": "3",
						"Type": "RTID(eighties_armor2@ZombieTypes)"
					}, {
						"Row": "3",
						"Type": "RTID(eighties_glitter@ZombieTypes)"
					}, {
						"Row": "3",
						"Type": "RTID(eighties_mc@ZombieTypes)"
					}, {
						"Row": "2",
						"Type": "RTID(eighties_armor2@ZombieTypes)"
					}, {
						"Row": "2",
						"Type": "RTID(eighties_glitter@ZombieTypes)"
					}, {
						"Row": "2",
						"Type": "RTID(eighties_mc@ZombieTypes)"
					}, {
						"Row": "1",
						"Type": "RTID(eighties_armor2@ZombieTypes)"
					}, {
						"Row": "1",
						"Type": "RTID(eighties_glitter@ZombieTypes)"
					}, {
						"Row": "1",
						"Type": "RTID(eighties_mc@ZombieTypes)"
					} ]
			}
		}, {
			"aliases": [ "Wave10" ],
			"objclass": "SpawnZombiesJitteredWaveActionProps",
			"objdata": {
				"NotificationEvents": [ "jam_rap" ],
				"Zombies": [ {
						"Row": "5",
						"Type": "RTID(eighties_armor2@ZombieTypes)"
					}, {
						"Row": "4",
						"Type": "RTID(eighties_armor2@ZombieTypes)"
					}, {
						"Row": "3",
						"Type": "RTID(eighties_armor2@ZombieTypes)"
					}, {
						"Row": "2",
						"Type": "RTID(eighties_armor2@ZombieTypes)"
					}, {
						"Row": "1",
						"Type": "RTID(eighties_armor2@ZombieTypes)"
					}, {
						"Row": "4",
						"Type": "RTID(eighties_armor2@ZombieTypes)"
					}, {
						"Row": "5",
						"Type": "RTID(eighties_armor2@ZombieTypes)"
					}, {
						"Row": "2",
						"Type": "RTID(eighties_armor2@ZombieTypes)"
					}, {
						"Row": "3",
						"Type": "RTID(eighties_armor2@ZombieTypes)"
					}, {
						"Row": "1",
						"Type": "RTID(eighties_armor2@ZombieTypes)"
					}, {
						"Row": "5",
						"Type": "RTID(eighties_mc@ZombieTypes)"
					}, {
						"Row": "5",
						"Type": "RTID(eighties_mc@ZombieTypes)"
					}, {
						"Row": "5",
						"Type": "RTID(eighties_mc@ZombieTypes)"
					}, {
						"Row": "1",
						"Type": "RTID(eighties_mc@ZombieTypes)"
					}, {
						"Row": "1",
						"Type": "RTID(eighties_mc@ZombieTypes)"
					}, {
						"Row": "1",
						"Type": "RTID(eighties_mc@ZombieTypes)"
					}, {
						"Row": "3",
						"Type": "RTID(eighties_mc@ZombieTypes)"
					}, {
						"Row": "3",
						"Type": "RTID(eighties_mc@ZombieTypes)"
					}, {
						"Row": "3",
						"Type": "RTID(eighties_mc@ZombieTypes)"
					} ]
			}
		} ],
	"version": 1
}