{
	"#comment": "Future 32",
	"objects": [ {
			"objclass": "LevelDefinition",
			"objdata": {
				"Description": "[PLAYERS_TRIP_TO_FUTURE]",
				"LevelNumber": 7,
				"Loot": "RTID(DefaultLoot@LevelModules)",
				"Modules": [ "RTID(StandardIntro@LevelModules)", "RTID(DefaultSunDropper@LevelModules)", "RTID(DefaultZombieWinCondition@LevelModules)", "RTID(ZombiesDeadWinCon@LevelModules)", "RTID(FutureLinkedTileGroups@CurrentLevel)", "RTID(SeedBank@CurrentLevel)", "RTID(NewWaves@CurrentLevel)" ],
				"Name": "[FUTURE_LEVEL_NAME]",
				"NormalPresentTable": "future_normal_01",
				"ShinyPresentTable": "future_shiny_01",
				"ForceToWorldMap": true,
				"RepeatPlayForceToWorldMap": true,
				"StageModule": "RTID(FutureStage@LevelModules)"
			}
		}, {
			"aliases": [ "SeedBank" ],
			"objclass": "SeedBankProperties",
			"objdata": {
				"SelectionMethod": "chooser"
			}
		}, {
			"aliases": [ "FutureLinkedTileGroups" ],
			"objclass": "PowerTileProperties",
			"objdata": {
				"LinkedTiles": [ {
						"Group": "gamma",
						"Location": {
							"mX": 0,
							"mY": 1
						},
						"PropagationDelay": 1.5
					}, {
						"Group": "gamma",
						"Location": {
							"mX": 0,
							"mY": 3
						},
						"PropagationDelay": 1.5
					} ]
			}
		}, {
			"aliases": [ "NewWaves" ],
			"objclass": "WaveManagerModuleProperties",
			"objdata": {
				"DynamicZombies": [ {
						"PointIncrementPerWave": -1,
						"StartingPoints": -1,
						"StartingWave": 3,
						"ZombiePool": [ "RTID(future@ZombieTypes)", "RTID(future_armor1@ZombieTypes)", "RTID(future_armor2@ZombieTypes)", "RTID(future_armor4@ZombieTypes)", "RTID(future_imp@ZombieTypes)" ]
					}, {
						"PointIncrementPerWave": -1,
						"StartingPoints": -1,
						"StartingWave": 4,
						"ZombiePool": [ "RTID(future@ZombieTypes)", "RTID(future_armor1@ZombieTypes)", "RTID(future_armor2@ZombieTypes)", "RTID(future_armor4@ZombieTypes)", "RTID(future_imp@ZombieTypes)" ]
					}, {
						"PointIncrementPerWave": -1,
						"StartingPoints": -1,
						"StartingWave": 5,
						"ZombiePool": [ "RTID(future@ZombieTypes)", "RTID(future_armor1@ZombieTypes)", "RTID(future_armor2@ZombieTypes)", "RTID(future_armor4@ZombieTypes)", "RTID(future_imp@ZombieTypes)" ]
					}, {}, {
						"PointIncrementPerWave": 1,
						"StartingPoints": 1,
						"StartingWave": 5,
						"ZombiePool": [ "RTID(future@ZombieTypes)", "RTID(future_armor1@ZombieTypes)", "RTID(future_armor2@ZombieTypes)", "RTID(future_armor4@ZombieTypes)", "RTID(future_imp@ZombieTypes)" ]
					}, {
						"PointIncrementPerWave": 1,
						"StartingPoints": 1,
						"StartingWave": 4,
						"ZombiePool": [ "RTID(future_armor1@ZombieTypes)", "RTID(future_armor2@ZombieTypes)", "RTID(future_armor4@ZombieTypes)", "RTID(future_imp@ZombieTypes)" ]
					}, {
						"PointIncrementPerWave": 1,
						"StartingPoints": 1,
						"StartingWave": 3,
						"ZombiePool": [ "RTID(future_armor2@ZombieTypes)", "RTID(future_armor4@ZombieTypes)", "RTID(future_imp@ZombieTypes)" ]
					} ],
				"WaveManagerProps": "RTID(WaveManagerProps@CurrentLevel)"
			}
		}, {
			"aliases": [ "WaveManagerProps" ],
			"objclass": "WaveManagerProperties",
			"objdata": {
				"FlagWaveInterval": 4,
				"FlagWaveVeteranOverrideTypes": [ 1, 1, 1 ],
				"WaveCount": 12,
				"WaveSpendingPointIncrement": 300,
				"WaveSpendingPoints": 400,
				"Waves": [ [ "RTID(Wave1@CurrentLevel)" ], [ "RTID(Wave2@CurrentLevel)" ], [ "RTID(Wave3@CurrentLevel)" ], [ "RTID(Wave4@CurrentLevel)", "RTID(Wave4SpiderRainEvent0@CurrentLevel)" ], [ "RTID(Wave5@CurrentLevel)" ], [ "RTID(Wave6@CurrentLevel)" ], [ "RTID(Wave7@CurrentLevel)" ], [ "RTID(Wave8@CurrentLevel)", "RTID(Wave8SpiderRainEvent0@CurrentLevel)" ], [ "RTID(Wave9@CurrentLevel)" ], [ "RTID(Wave10@CurrentLevel)" ], [ "RTID(Wave11@CurrentLevel)" ], [ "RTID(Wave12@CurrentLevel)", "RTID(Wave12SpiderRainEvent0@CurrentLevel)" ] ]
			}
		}, {
			"aliases": [ "Wave1" ],
			"objclass": "SpawnZombiesJitteredWaveActionProps",
			"objdata": {
				"DynamicPlantfood": [ 1, 1, 1, 0, 0, 0, 0 ],
				"Zombies": [ {
						"Type": "RTID(future_imp@ZombieTypes)"
					}, {
						"Row": "5",
						"Type": "RTID(future_imp@ZombieTypes)"
					}, {
						"Row": "2",
						"Type": "RTID(future_armor1@ZombieTypes)"
					} ]
			}
		}, {
			"aliases": [ "Wave2" ],
			"objclass": "SpawnZombiesJitteredWaveActionProps",
			"objdata": {
				"AdditionalPlantfood": 1,
				"Zombies": [ {
						"Type": "RTID(future_armor1@ZombieTypes)"
					}, {
						"Row": "3",
						"Type": "RTID(future_armor2@ZombieTypes)"
					}, {
						"Type": "RTID(future_armor1@ZombieTypes)"
					}, {
						"Type": "RTID(future_armor1@ZombieTypes)"
					} ]
			}
		}, {
			"aliases": [ "Wave3" ],
			"objclass": "SpawnZombiesJitteredWaveActionProps",
			"objdata": {
				"Zombies": [ {
						"Row": "3",
						"Type": "RTID(future_protector@ZombieTypes)"
					}, {
						"Row": "4",
						"Type": "RTID(future_jetpack@ZombieTypes)"
					}, {
						"Row": "2",
						"Type": "RTID(future_jetpack@ZombieTypes)"
					}, {
						"Type": "RTID(future@ZombieTypes)"
					}, {
						"Type": "RTID(future_armor1@ZombieTypes)"
					} ]
			}
		}, {
			"aliases": [ "Wave4" ],
			"objclass": "SpawnZombiesJitteredWaveActionProps",
			"objdata": {
				"AdditionalPlantfood": 0,
				"Zombies": [ {
						"Type": "RTID(future_armor2@ZombieTypes)"
					}, {
						"Type": "RTID(mech_cone@ZombieTypes)"
					} ]
			}
		}, {
			"aliases": [ "Wave5" ],
			"objclass": "SpawnZombiesJitteredWaveActionProps",
			"objdata": {
				"AdditionalPlantfood": 0,
				"Zombies": [ {
						"Row": "4",
						"Type": "RTID(future_armor2@ZombieTypes)"
					}, {
						"Row": "1",
						"Type": "RTID(future_armor4@ZombieTypes)"
					}, {
						"Type": "RTID(future_jetpack_veteran@ZombieTypes)"
					}, {
						"Type": "RTID(future_jetpack_veteran@ZombieTypes)"
					} ]
			}
		}, {
			"aliases": [ "Wave6" ],
			"objclass": "SpawnZombiesJitteredWaveActionProps",
			"objdata": {
				"AdditionalPlantfood": 0,
				"Zombies": [ {
						"Row": "2",
						"Type": "RTID(future_armor4@ZombieTypes)"
					}, {
						"Row": "5",
						"Type": "RTID(future_armor2@ZombieTypes)"
					}, {
						"Row": "3",
						"Type": "RTID(future_armor1@ZombieTypes)"
					}, {
						"Type": "RTID(future_armor4@ZombieTypes)"
					} ]
			}
		}, {
			"aliases": [ "Wave7" ],
			"objclass": "SpawnZombiesJitteredWaveActionProps",
			"objdata": {
				"AdditionalPlantfood": 1,
				"Zombies": [ {
						"Row": "4",
						"Type": "RTID(future_protector@ZombieTypes)"
					}, {
						"Row": "2",
						"Type": "RTID(future_protector@ZombieTypes)"
					}, {
						"Type": "RTID(future_jetpack_veteran@ZombieTypes)"
					}, {
						"Type": "RTID(future_jetpack_veteran@ZombieTypes)"
					}, {
						"Row": "3",
						"Type": "RTID(future_armor4@ZombieTypes)"
					} ]
			}
		}, {
			"aliases": [ "Wave8" ],
			"objclass": "SpawnZombiesJitteredWaveActionProps",
			"objdata": {
				"AdditionalPlantfood": 0,
				"Zombies": [ {
						"Row": "4",
						"Type": "RTID(future_protector@ZombieTypes)"
					}, {
						"Row": "2",
						"Type": "RTID(future_protector@ZombieTypes)"
					}, {
						"Row": "5",
						"Type": "RTID(mech_cone@ZombieTypes)"
					}, {
						"Row": "4",
						"Type": "RTID(mech_cone@ZombieTypes)"
					}, {
						"Row": "3",
						"Type": "RTID(mech_cone@ZombieTypes)"
					}, {
						"Row": "2",
						"Type": "RTID(mech_cone@ZombieTypes)"
					}, {
						"Row": "1",
						"Type": "RTID(mech_cone@ZombieTypes)"
					} ]
			}
		}, {
			"aliases": [ "Wave9" ],
			"objclass": "SpawnZombiesJitteredWaveActionProps",
			"objdata": {
				"AdditionalPlantfood": 0,
				"Zombies": [ {
						"Type": "RTID(future_armor1@ZombieTypes)"
					}, {
						"Type": "RTID(future_armor4@ZombieTypes)"
					}, {
						"Row": "3",
						"Type": "RTID(future_gargantuar@ZombieTypes)"
					} ]
			}
		}, {
			"aliases": [ "Wave10" ],
			"objclass": "SpawnZombiesJitteredWaveActionProps",
			"objdata": {
				"Zombies": [ {
						"Row": "5",
						"Type": "RTID(future_armor4@ZombieTypes)"
					}, {
						"Row": "1",
						"Type": "RTID(future_gargantuar@ZombieTypes)"
					}, {
						"Type": "RTID(future_armor4@ZombieTypes)"
					} ]
			}
		}, {
			"aliases": [ "Wave11" ],
			"objclass": "SpawnZombiesJitteredWaveActionProps",
			"objdata": {
				"AdditionalPlantfood": 1,
				"Zombies": [ {
						"Row": "3",
						"Type": "RTID(future_protector@ZombieTypes)"
					}, {
						"Type": "RTID(future@ZombieTypes)"
					}, {
						"Row": "5",
						"Type": "RTID(mech_cone@ZombieTypes)"
					}, {
						"Row": "4",
						"Type": "RTID(mech_cone@ZombieTypes)"
					}, {
						"Row": "2",
						"Type": "RTID(mech_cone@ZombieTypes)"
					}, {
						"Row": "1",
						"Type": "RTID(mech_cone@ZombieTypes)"
					}, {
						"Type": "RTID(future_armor4@ZombieTypes)"
					} ]
			}
		}, {
			"aliases": [ "Wave12" ],
			"objclass": "SpawnZombiesJitteredWaveActionProps",
			"objdata": {
				"AdditionalPlantfood": 0,
				"Zombies": [ {
						"Row": "5",
						"Type": "RTID(future_gargantuar@ZombieTypes)"
					}, {
						"Row": "3",
						"Type": "RTID(future_gargantuar@ZombieTypes)"
					}, {
						"Row": "2",
						"Type": "RTID(future_gargantuar@ZombieTypes)"
					} ]
			}
		}, {
			"aliases": [ "Wave4SpiderRainEvent0" ],
			"objclass": "SpiderRainZombieSpawnerProps",
			"objdata": {
				"ColumnEnd": 7,
				"ColumnStart": 3,
				"GroupSize": 4,
				"SpiderCount": 24,
				"SpiderZombieName": "future_imp",
				"TimeBeforeFullSpawn": 1,
				"TimeBetweenGroups": 0.2,
				"WaveStartMessage": "[WARNING_SPIDERRAIN]",
				"ZombieFallTime": 1.5
			}
		}, {
			"aliases": [ "Wave8SpiderRainEvent0" ],
			"objclass": "SpiderRainZombieSpawnerProps",
			"objdata": {
				"ColumnEnd": 7,
				"ColumnStart": 3,
				"GroupSize": 4,
				"SpiderCount": 24,
				"SpiderZombieName": "future_imp",
				"TimeBeforeFullSpawn": "1",
				"TimeBetweenGroups": "0.2",
				"WaveStartMessage": "[WARNING_SPIDERRAIN]",
				"ZombieFallTime": "1.5"
			}
		}, {
			"aliases": [ "Wave12SpiderRainEvent0" ],
			"objclass": "SpiderRainZombieSpawnerProps",
			"objdata": {
				"ColumnEnd": 7,
				"ColumnStart": 3,
				"GroupSize": 4,
				"SpiderCount": 24,
				"SpiderZombieName": "future_imp",
				"TimeBeforeFullSpawn": "1",
				"TimeBetweenGroups": "0.2",
				"WaveStartMessage": "[WARNING_SPIDERRAIN]",
				"ZombieFallTime": "1.5"
			}
		} ],
	"version": 1
}