{
	"#comment": "Future Prototype",
	"objects": [ {
			"objclass": "LevelDefinition",
			"objdata": {
				"Description": "[PLAYERS_TRIP_TO_FUTURE]",
				"FirstRewardType": "pinata",
				"FirstRewardParam": "spine_future",
				"LevelNumber": 5,
				"Loot": "RTID(DefaultLoot@LevelModules)",
				"Modules": [ "RTID(StandardIntro@LevelModules)", "RTID(DefaultSunDropper@LevelModules)", "RTID(FutureMowers@LevelModules)", "RTID(DefaultZombieWinCondition@LevelModules)", "RTID(ZombiesDeadWinCon@LevelModules)", "RTID(FutureLinkedTileGroups@CurrentLevel)", "RTID(SeedBank@CurrentLevel)", "RTID(NewWaves@CurrentLevel)" ],
				"Name": "[FUTURE_LEVEL_NAME]",
				"NormalPresentTable": "future_normal_01",
				"ShinyPresentTable": "future_shiny_01",
				"StageModule": "RTID(FutureStage@LevelModules)"
			}
		}, {
			"aliases": [ "SeedBank" ],
			"objclass": "SeedBankProperties",
			"objdata": {
				"SelectionMethod": "chooser"
			}
		}, {
			"aliases": [ "FutureLinkedTileGroups" ],
			"objclass": "PowerTileProperties",
			"objdata": {
				"LinkedTiles": [ {
						"Group": "gamma",
						"Location": {
							"mX": 2,
							"mY": 0
						},
						"PropagationDelay": 0.25
					}, {
						"Group": "alpha",
						"Location": {
							"mX": 0,
							"mY": 1
						},
						"PropagationDelay": 0.25
					}, {
						"Group": "alpha",
						"Location": {
							"mX": 6,
							"mY": 1
						},
						"PropagationDelay": 0.25
					}, {
						"Group": "gamma",
						"Location": {
							"mX": 2,
							"mY": 2
						},
						"PropagationDelay": 0.25
					}, {
						"Group": "beta",
						"Location": {
							"mX": 0,
							"mY": 3
						},
						"PropagationDelay": 0.25
					}, {
						"Group": "beta",
						"Location": {
							"mX": 6,
							"mY": 3
						},
						"PropagationDelay": 0.25
					}, {
						"Group": "gamma",
						"Location": {
							"mX": 2,
							"mY": 4
						},
						"PropagationDelay": 0.25
					} ]
			}
		}, {
			"aliases": [ "ChallengeModule" ],
			"objclass": "StarChallengeModuleProperties",
			"objdata": {
				"Challenges": [ [ "RTID(SimultaneousPlants@CurrentLevel)", "RTID(SaveMowers@LevelModules)" ], [ "RTID(SunUsed@CurrentLevel)", "RTID(KillZombies@CurrentLevel)", "RTID(SaveMowers@LevelModules)" ], [ "RTID(ZombieDistance@CurrentLevel)", "RTID(DoNotPlantBeforeLine@CurrentLevel)", "RTID(SaveMowers@LevelModules)" ] ]
			}
		}, {
			"aliases": [ "SimultaneousPlants" ],
			"objclass": "StarChallengeSimultaneousPlantsProps",
			"objdata": {
				"MaximumPlants": 50
			}
		}, {
			"aliases": [ "SunUsed" ],
			"objclass": "StarChallengeSunUsedProps",
			"objdata": {
				"MaximumSun": 1500
			}
		}, {
			"aliases": [ "KillZombies" ],
			"objclass": "StarChallengeKillZombiesInTimeProps",
			"objdata": {
				"Time": 30,
				"ZombiesToKill": 15
			}
		}, {
			"aliases": [ "ZombieDistance" ],
			"objclass": "StarChallengeZombieDistanceProps",
			"objdata": {
				"TargetDistance": 0.5
			}
		}, {
			"aliases": [ "DoNotPlantBeforeLine" ],
			"objclass": "MoldColonyChallengeProps",
			"objdata": {
				"Locations": "RTID(Column0_To_Column0@BoardGridMaps)"
			}
		}, {
			"aliases": [ "NewWaves" ],
			"objclass": "WaveManagerModuleProperties",
			"objdata": {
				"DynamicZombies": [ {
						"PointIncrementPerWave": -40,
						"StartingPoints": -100,
						"StartingWave": 3,
						"ZombiePool": [ "RTID(future@ZombieTypes)", "RTID(future_armor1@ZombieTypes)", "RTID(future_armor2@ZombieTypes)" ]
					}, {
						"PointIncrementPerWave": -25,
						"StartingPoints": -100,
						"StartingWave": 4,
						"ZombiePool": [ "RTID(future@ZombieTypes)", "RTID(future_armor1@ZombieTypes)", "RTID(future_armor2@ZombieTypes)" ]
					}, {
						"PointIncrementPerWave": -10,
						"StartingPoints": -100,
						"StartingWave": 5,
						"ZombiePool": [ "RTID(future@ZombieTypes)", "RTID(future_armor1@ZombieTypes)", "RTID(future_armor2@ZombieTypes)" ]
					}, {}, {
						"PointIncrementPerWave": 20,
						"StartingPoints": 100,
						"StartingWave": 5,
						"ZombiePool": [ "RTID(future@ZombieTypes)", "RTID(future_armor1@ZombieTypes)", "RTID(future_armor2@ZombieTypes)" ]
					}, {
						"PointIncrementPerWave": 40,
						"StartingPoints": 200,
						"StartingWave": 4,
						"ZombiePool": [ "RTID(future_armor1@ZombieTypes)", "RTID(future_armor2@ZombieTypes)" ]
					}, {
						"PointIncrementPerWave": 60,
						"StartingPoints": 400,
						"StartingWave": 3,
						"ZombiePool": [ "RTID(future_armor2@ZombieTypes)" ]
					} ],
				"WaveManagerProps": "RTID(WaveManagerProps@CurrentLevel)"
			}
		}, {
			"aliases": [ "WaveManagerProps" ],
			"objclass": "WaveManagerProperties",
			"objdata": {
				"FlagWaveInterval": 12,
				"WaveCount": 12,
				"WaveSpendingPointIncrement": 50,
				"WaveSpendingPoints": 100,
				"Waves": [ [ "RTID(Wave1@CurrentLevel)" ], [ "RTID(Wave2@CurrentLevel)" ], [ "RTID(Wave3@CurrentLevel)" ], [ "RTID(Wave4@CurrentLevel)" ], [ "RTID(Wave5@CurrentLevel)" ], [ "RTID(Wave6@CurrentLevel)" ], [ "RTID(Wave7@CurrentLevel)" ], [ "RTID(Wave8@CurrentLevel)" ], [ "RTID(Wave9@CurrentLevel)" ], [ "RTID(Wave10@CurrentLevel)" ], [ "RTID(Wave11@CurrentLevel)" ], [ "RTID(Wave12@CurrentLevel)" ] ]
			}
		}, {
			"aliases": [ "Wave1" ],
			"objclass": "SpawnZombiesJitteredWaveActionProps",
			"objdata": {
				"AdditionalPlantfood": 1,
				"DynamicPlantfood": [ 1, 1, 1, 1, 1, 1, 0 ],
				"Zombies": [ {
						"Type": "RTID(future@ZombieTypes)"
					} ]
			}
		}, {
			"aliases": [ "Wave2" ],
			"objclass": "SpawnZombiesJitteredWaveActionProps",
			"objdata": {
				"Zombies": [ {
						"Type": "RTID(future@ZombieTypes)"
					} ]
			}
		}, {
			"aliases": [ "Wave3" ],
			"objclass": "SpawnZombiesJitteredWaveActionProps",
			"objdata": {
				"Zombies": [ {
						"Type": "RTID(future_armor1@ZombieTypes)"
					}, {
						"Type": "RTID(future@ZombieTypes)"
					} ]
			}
		}, {
			"aliases": [ "Wave4" ],
			"objclass": "SpawnZombiesJitteredWaveActionProps",
			"objdata": {
				"AdditionalPlantfood": 1,
				"DynamicPlantfood": [ 1, 1, 1, 1, 1, 1, 1 ],
				"Zombies": [ {
						"Type": "RTID(future@ZombieTypes)"
					}, {
						"Type": "RTID(future@ZombieTypes)"
					} ]
			}
		}, {
			"aliases": [ "Wave5" ],
			"objclass": "SpawnZombiesJitteredWaveActionProps",
			"objdata": {
				"Zombies": [ {
						"Row": "3",
						"Type": "RTID(future_armor1@ZombieTypes)"
					}, {
						"Row": "1",
						"Type": "RTID(future_armor1@ZombieTypes)"
					}, {
						"Row": "5",
						"Type": "RTID(future_armor1@ZombieTypes)"
					} ]
			}
		}, {
			"aliases": [ "Wave6" ],
			"objclass": "SpawnZombiesJitteredWaveActionProps",
			"objdata": {
				"AdditionalPlantfood": 1,
				"DynamicPlantfood": [ 1, 1, 1, 1, 0, 0, 0 ],
				"Zombies": [ {
						"Type": "RTID(future@ZombieTypes)"
					}, {
						"Type": "RTID(future_armor1@ZombieTypes)"
					}, {
						"Type": "RTID(future@ZombieTypes)"
					} ]
			}
		}, {
			"aliases": [ "Wave7" ],
			"objclass": "SpawnZombiesJitteredWaveActionProps",
			"objdata": {
				"Zombies": [ {
						"Row": "3",
						"Type": "RTID(mech_cone@ZombieTypes)"
					} ]
			}
		}, {
			"aliases": [ "Wave8" ],
			"objclass": "SpawnZombiesJitteredWaveActionProps",
			"objdata": {
				"Zombies": [ {
						"Type": "RTID(future@ZombieTypes)"
					}, {
						"Type": "RTID(future_armor1@ZombieTypes)"
					}, {
						"Type": "RTID(future_armor1@ZombieTypes)"
					} ]
			}
		}, {
			"aliases": [ "Wave9" ],
			"objclass": "SpawnZombiesJitteredWaveActionProps",
			"objdata": {
				"AdditionalPlantfood": 1,
				"DynamicPlantfood": [ 1, 1, 1, 1, 1, 0, 0 ],
				"Zombies": [ {
						"Row": "3",
						"Type": "RTID(future_protector@ZombieTypes)"
					}, {
						"Type": "RTID(future@ZombieTypes)"
					}, {
						"Type": "RTID(future_armor1@ZombieTypes)"
					}, {
						"Type": "RTID(future@ZombieTypes)"
					}, {
						"Type": "RTID(future_armor1@ZombieTypes)"
					} ]
			}
		}, {
			"aliases": [ "Wave10" ],
			"objclass": "SpawnZombiesJitteredWaveActionProps",
			"objdata": {
				"Zombies": [ {
						"Row": "4",
						"Type": "RTID(future@ZombieTypes)"
					}, {
						"Row": "4",
						"Type": "RTID(future@ZombieTypes)"
					}, {
						"Row": "4",
						"Type": "RTID(future_armor1@ZombieTypes)"
					}, {
						"Type": "RTID(future@ZombieTypes)"
					}, {
						"Type": "RTID(future_armor2@ZombieTypes)"
					} ]
			}
		}, {
			"aliases": [ "Wave11" ],
			"objclass": "SpawnZombiesJitteredWaveActionProps",
			"objdata": {
				"AdditionalPlantfood": 1,
				"DynamicPlantfood": [ 1, 1, 1, 1, 1, 1, 1 ],
				"Zombies": [ {
						"Row": "2",
						"Type": "RTID(future@ZombieTypes)"
					}, {
						"Row": "2",
						"Type": "RTID(future@ZombieTypes)"
					}, {
						"Row": "2",
						"Type": "RTID(future_armor1@ZombieTypes)"
					}, {
						"Type": "RTID(future@ZombieTypes)"
					}, {
						"Type": "RTID(future_armor2@ZombieTypes)"
					} ]
			}
		}, {
			"aliases": [ "Wave12" ],
			"objclass": "SpawnZombiesJitteredWaveActionProps",
			"objdata": {
				"AdditionalPlantfood": 0,
				"Zombies": [ {
						"Row": "5",
						"Type": "RTID(mech_cone@ZombieTypes)"
					}, {
						"Row": "3",
						"Type": "RTID(mech_cone@ZombieTypes)"
					}, {
						"Row": "1",
						"Type": "RTID(mech_cone@ZombieTypes)"
					} ]
			}
		} ],
	"version": 1
}