{
	"#comment": "Future 30",
	"objects": [ {
			"objclass": "LevelDefinition",
			"objdata": {
				"Description": "[PLAYERS_TRIP_TO_FUTURE]",
				"LevelNumber": 5,
				"Loot": "RTID(DefaultLoot@LevelModules)",
				"Modules": [ "RTID(StandardIntro@LevelModules)", "RTID(SunDropper@CurrentLevel)", "RTID(FutureMowers@LevelModules)", "RTID(DefaultZombieWinCondition@LevelModules)", "RTID(ZombiesDeadWinCon@LevelModules)", "RTID(FutureLinkedTileGroups@CurrentLevel)", "RTID(SeedBank@CurrentLevel)", "RTID(SunBombs@CurrentLevel)", "RTID(ChallengeModule@CurrentLevel)", "RTID(NewWaves@CurrentLevel)" ],
				"Name": "[FUTURE_LEVEL_NAME]",
				"NormalPresentTable": "future_normal_01",
				"ShinyPresentTable": "future_shiny_01",
				"ForceToWorldMap": true,
				"RepeatPlayForceToWorldMap": true,
				"StageModule": "RTID(FutureStage@LevelModules)"
			}
		}, {
			"aliases": [ "SeedBank" ],
			"objclass": "SeedBankProperties",
			"objdata": {
				"ExcludeListSunProducers": "true",
				"PlantExcludeList": [ "blover", "hurrikale" ],
				"SelectionMethod": "chooser"
			}
		}, {
			"aliases": [ "SunDropper" ],
			"objclass": "SunDropperProperties",
			"objdata": {
				"InitialSunDropDelay": 2,
				"SunCountdownBase": 4,
				"SunCountdownIncreasePerSun": 0,
				"SunCountdownMax": 4,
				"SunCountdownRange": 0
			}
		}, {
			"aliases": [ "FutureLinkedTileGroups" ],
			"objclass": "PowerTileProperties",
			"objdata": {
				"LinkedTiles": []
			}
		}, {
			"aliases": [ "ChallengeModule" ],
			"objclass": "StarChallengeModuleProperties",
			"objdata": {
				"Challenges": [ [ "RTID(BeatTheLevel@CurrentLevel)" ] ],
				"ChallengesAlwaysAvailable": true
			}
		}, {
			"aliases": [ "BeatTheLevel" ],
			"objclass": "StarChallengeBeatTheLevelProps",
			"objdata": {
				"Description": "[STARCHALLENGE_SUNBOMBS]",
				"DescriptiveName": "[STARCHALLENGE_SUNBOMBS_NAME]"
			}
		}, {
			"aliases": [ "SunBombs" ],
			"objclass": "SunBombChallengeProperties",
			"objdata": {
				"PlantBombExplosionRadius": 25,
				"PlantDamage": 1000,
				"ZombieBombExplosionRadius": 80,
				"ZombieDamage": 500
			}
		}, {
			"aliases": [ "NewWaves" ],
			"objclass": "WaveManagerModuleProperties",
			"objdata": {
				"DynamicZombies": [ {
						"PointIncrementPerWave": -1,
						"StartingPoints": -1,
						"StartingWave": 3,
						"ZombiePool": [ "RTID(future_jetpack@ZombieTypes)" ]
					}, {
						"PointIncrementPerWave": -1,
						"StartingPoints": -1,
						"StartingWave": 4,
						"ZombiePool": [ "RTID(future_jetpack@ZombieTypes)" ]
					}, {
						"PointIncrementPerWave": -1,
						"StartingPoints": -1,
						"StartingWave": 5,
						"ZombiePool": [ "RTID(future_jetpack@ZombieTypes)" ]
					}, {}, {
						"PointIncrementPerWave": 1,
						"StartingPoints": 1,
						"StartingWave": 5,
						"ZombiePool": [ "RTID(future_jetpack@ZombieTypes)" ]
					}, {
						"PointIncrementPerWave": 1,
						"StartingPoints": 1,
						"StartingWave": 4,
						"ZombiePool": [ "RTID(future_jetpack@ZombieTypes)" ]
					}, {
						"PointIncrementPerWave": 1,
						"StartingPoints": 1,
						"StartingWave": 3,
						"ZombiePool": [ "RTID(future_jetpack@ZombieTypes)" ]
					} ],
				"WaveManagerProps": "RTID(WaveManagerProps@CurrentLevel)"
			}
		}, {
			"aliases": [ "WaveManagerProps" ],
			"objclass": "WaveManagerProperties",
			"objdata": {
				"FlagWaveInterval": 4,
				"FlagWaveVeteranOverrideTypes": [ 1, 1, 1 ],
				"WaveCount": 12,
				"WaveSpendingPointIncrement": 100,
				"WaveSpendingPoints": 300,
				"Waves": [ [ "RTID(Wave1@CurrentLevel)" ], [ "RTID(Wave2@CurrentLevel)" ], [ "RTID(Wave3@CurrentLevel)", "RTID(Wave3MechSpawnEvent0@CurrentLevel)" ], [ "RTID(Wave4@CurrentLevel)" ], [ "RTID(Wave5@CurrentLevel)" ], [ "RTID(Wave6@CurrentLevel)" ], [ "RTID(Wave7@CurrentLevel)", "RTID(Wave7MechSpawnEvent0@CurrentLevel)" ], [ "RTID(Wave8@CurrentLevel)" ], [ "RTID(Wave9@CurrentLevel)" ], [ "RTID(Wave10@CurrentLevel)" ], [ "RTID(Wave11@CurrentLevel)", "RTID(Wave11MechSpawnEvent0@CurrentLevel)" ], [ "RTID(Wave12@CurrentLevel)" ] ]
			}
		}, {
			"aliases": [ "Wave1" ],
			"objclass": "SpawnZombiesJitteredWaveActionProps",
			"objdata": {
				"Zombies": [ {
						"Type": "RTID(future_jetpack@ZombieTypes)"
					}, {
						"Type": "RTID(future_jetpack@ZombieTypes)"
					} ]
			}
		}, {
			"aliases": [ "Wave2" ],
			"objclass": "SpawnZombiesJitteredWaveActionProps",
			"objdata": {
				"Zombies": [ {
						"Row": "1",
						"Type": "RTID(future_jetpack@ZombieTypes)"
					}, {
						"Row": "3",
						"Type": "RTID(future_jetpack@ZombieTypes)"
					}, {
						"Row": "5",
						"Type": "RTID(future_jetpack@ZombieTypes)"
					} ]
			}
		}, {
			"aliases": [ "Wave3" ],
			"objclass": "SpawnZombiesJitteredWaveActionProps",
			"objdata": {
				"Zombies": [ {
						"Type": "RTID(future_jetpack@ZombieTypes)"
					}, {
						"Type": "RTID(future_jetpack@ZombieTypes)"
					} ]
			}
		}, {
			"aliases": [ "Wave4" ],
			"objclass": "SpawnZombiesJitteredWaveActionProps",
			"objdata": {
				"AdditionalPlantfood": 0,
				"Zombies": [ {
						"Row": "5",
						"Type": "RTID(future_jetpack@ZombieTypes)"
					}, {
						"Row": "4",
						"Type": "RTID(future_jetpack@ZombieTypes)"
					}, {
						"Row": "2",
						"Type": "RTID(future_jetpack@ZombieTypes)"
					}, {
						"Row": "1",
						"Type": "RTID(future_jetpack@ZombieTypes)"
					}, {
						"Type": "RTID(future_jetpack_veteran@ZombieTypes)"
					}, {
						"Type": "RTID(future_jetpack_veteran@ZombieTypes)"
					} ]
			}
		}, {
			"aliases": [ "Wave5" ],
			"objclass": "SpawnZombiesJitteredWaveActionProps",
			"objdata": {
				"AdditionalPlantfood": 0,
				"Zombies": [ {
						"Row": "5",
						"Type": "RTID(future_jetpack@ZombieTypes)"
					}, {
						"Row": "3",
						"Type": "RTID(future_jetpack@ZombieTypes)"
					}, {
						"Row": "1",
						"Type": "RTID(future_jetpack@ZombieTypes)"
					}, {
						"Type": "RTID(future_jetpack@ZombieTypes)"
					}, {
						"Type": "RTID(future_protector@ZombieTypes)"
					} ]
			}
		}, {
			"aliases": [ "Wave6" ],
			"objclass": "SpawnZombiesJitteredWaveActionProps",
			"objdata": {
				"AdditionalPlantfood": 0,
				"Zombies": [ {
						"Row": "4",
						"Type": "RTID(future_jetpack_veteran@ZombieTypes)"
					}, {
						"Row": "2",
						"Type": "RTID(future_jetpack_veteran@ZombieTypes)"
					}, {
						"Type": "RTID(future_jetpack@ZombieTypes)"
					} ]
			}
		}, {
			"aliases": [ "Wave7" ],
			"objclass": "SpawnZombiesJitteredWaveActionProps",
			"objdata": {
				"AdditionalPlantfood": 0,
				"Zombies": [ {
						"Type": "RTID(future_jetpack@ZombieTypes)"
					}, {
						"Type": "RTID(future_jetpack@ZombieTypes)"
					}, {
						"Type": "RTID(future_jetpack_veteran@ZombieTypes)"
					}, {
						"Type": "RTID(future_jetpack@ZombieTypes)"
					} ]
			}
		}, {
			"aliases": [ "Wave8" ],
			"objclass": "SpawnZombiesJitteredWaveActionProps",
			"objdata": {
				"AdditionalPlantfood": 0,
				"Zombies": [ {
						"Row": "5",
						"Type": "RTID(future_jetpack_veteran@ZombieTypes)"
					}, {
						"Row": "4",
						"Type": "RTID(future_jetpack_veteran@ZombieTypes)"
					}, {
						"Row": "4",
						"Type": "RTID(future_jetpack@ZombieTypes)"
					}, {
						"Row": "3",
						"Type": "RTID(future_jetpack_veteran@ZombieTypes)"
					}, {
						"Row": "3",
						"Type": "RTID(future_jetpack@ZombieTypes)"
					}, {
						"Row": "2",
						"Type": "RTID(future_jetpack_veteran@ZombieTypes)"
					}, {
						"Row": "2",
						"Type": "RTID(future_jetpack@ZombieTypes)"
					}, {
						"Row": "1",
						"Type": "RTID(future_jetpack_veteran@ZombieTypes)"
					} ]
			}
		}, {
			"aliases": [ "Wave9" ],
			"objclass": "SpawnZombiesJitteredWaveActionProps",
			"objdata": {
				"AdditionalPlantfood": 0,
				"Zombies": [ {
						"Row": "5",
						"Type": "RTID(future_jetpack_veteran@ZombieTypes)"
					}, {
						"Row": "4",
						"Type": "RTID(future_jetpack@ZombieTypes)"
					}, {
						"Row": "3",
						"Type": "RTID(future_jetpack@ZombieTypes)"
					}, {
						"Row": "2",
						"Type": "RTID(future_jetpack@ZombieTypes)"
					}, {
						"Row": "1",
						"Type": "RTID(future_jetpack_veteran@ZombieTypes)"
					}, {
						"Type": "RTID(future_protector@ZombieTypes)"
					} ]
			}
		}, {
			"aliases": [ "Wave10" ],
			"objclass": "SpawnZombiesJitteredWaveActionProps",
			"objdata": {
				"Zombies": [ {
						"Type": "RTID(future_jetpack_veteran@ZombieTypes)"
					}, {
						"Type": "RTID(future_jetpack_veteran@ZombieTypes)"
					}, {
						"Row": "3",
						"Type": "RTID(future_jetpack@ZombieTypes)"
					}, {
						"Type": "RTID(future_jetpack_veteran@ZombieTypes)"
					}, {
						"Type": "RTID(future_jetpack_veteran@ZombieTypes)"
					} ]
			}
		}, {
			"aliases": [ "Wave11" ],
			"objclass": "SpawnZombiesJitteredWaveActionProps",
			"objdata": {
				"Zombies": [ {
						"Row": "5",
						"Type": "RTID(future_jetpack@ZombieTypes)"
					}, {
						"Row": "4",
						"Type": "RTID(future_jetpack@ZombieTypes)"
					}, {
						"Row": "3",
						"Type": "RTID(future_jetpack@ZombieTypes)"
					}, {
						"Row": "2",
						"Type": "RTID(future_jetpack@ZombieTypes)"
					}, {
						"Row": "1",
						"Type": "RTID(future_jetpack@ZombieTypes)"
					}, {
						"Type": "RTID(future_jetpack_veteran@ZombieTypes)"
					}, {
						"Type": "RTID(future_jetpack_veteran@ZombieTypes)"
					} ]
			}
		}, {
			"aliases": [ "Wave12" ],
			"objclass": "SpawnZombiesJitteredWaveActionProps",
			"objdata": {
				"AdditionalPlantfood": 0,
				"Zombies": [ {
						"Row": "5",
						"Type": "RTID(future_jetpack@ZombieTypes)"
					}, {
						"Row": "4",
						"Type": "RTID(future_jetpack@ZombieTypes)"
					}, {
						"Row": "3",
						"Type": "RTID(future_jetpack@ZombieTypes)"
					}, {
						"Row": "2",
						"Type": "RTID(future_jetpack@ZombieTypes)"
					}, {
						"Row": "1",
						"Type": "RTID(future_jetpack@ZombieTypes)"
					}, {
						"Type": "RTID(future_jetpack_veteran@ZombieTypes)"
					}, {
						"Type": "RTID(future_jetpack_veteran@ZombieTypes)"
					}, {
						"Type": "RTID(future_jetpack_veteran@ZombieTypes)"
					}, {
						"Type": "RTID(future_jetpack_veteran@ZombieTypes)"
					}, {
						"Row": "5",
						"Type": "RTID(future_jetpack@ZombieTypes)"
					}, {
						"Row": "4",
						"Type": "RTID(future_jetpack@ZombieTypes)"
					}, {
						"Row": "3",
						"Type": "RTID(future_jetpack@ZombieTypes)"
					}, {
						"Row": "2",
						"Type": "RTID(future_jetpack@ZombieTypes)"
					}, {
						"Row": "1",
						"Type": "RTID(future_jetpack@ZombieTypes)"
					} ]
			}
		}, {
			"aliases": [ "Wave7MechSpawnEvent0" ],
			"objclass": "SpawnZombiesFromGroundSpawnerProps",
			"objdata": {
				"ColumnEnd": 6,
				"ColumnStart": 4,
				"WaveStartMessage": "[WARNING_MECHRAIN]",
				"Zombies": [ {
						"Type": "RTID(future_protector@ZombieTypes)"
					}, {
						"Type": "RTID(future_protector@ZombieTypes)"
					}, {
						"Type": "RTID(future_protector@ZombieTypes)"
					}, {
						"Type": "RTID(future_protector@ZombieTypes)"
					} ]
			}
		}, {
			"aliases": [ "Wave3MechSpawnEvent0" ],
			"objclass": "SpawnZombiesFromGroundSpawnerProps",
			"objdata": {
				"ColumnEnd": 6,
				"ColumnStart": 4,
				"WaveStartMessage": "[WARNING_MECHRAIN]",
				"Zombies": [ {
						"Type": "RTID(future_protector@ZombieTypes)"
					}, {
						"Type": "RTID(future_protector@ZombieTypes)"
					}, {
						"Type": "RTID(future_protector@ZombieTypes)"
					} ]
			}
		}, {
			"aliases": [ "Wave11MechSpawnEvent0" ],
			"objclass": "SpawnZombiesFromGroundSpawnerProps",
			"objdata": {
				"ColumnEnd": 6,
				"ColumnStart": 4,
				"WaveStartMessage": "[WARNING_MECHRAIN]",
				"Zombies": [ {
						"Type": "RTID(future_protector@ZombieTypes)"
					}, {
						"Type": "RTID(future_protector@ZombieTypes)"
					}, {
						"Type": "RTID(future_protector@ZombieTypes)"
					}, {
						"Type": "RTID(future_protector@ZombieTypes)"
					}, {
						"Type": "RTID(future_protector@ZombieTypes)"
					} ]
			}
		} ],
	"version": 1
}