{
	"#comment": "Iceage 26",
	"objects": [ {
			"objclass": "LevelDefinition",
			"objdata": {
				"Description": "[PLAYERS_TRIP_TO_ICEAGE]",
				"FirstRewardParam": "xshot",
				"FirstRewardType": "unlock_plant",
				"LevelNumber": 26,
				"Loot": "RTID(DefaultLoot@LevelModules)",
				"Modules": [ "RTID(StandardIntro@LevelModules)", "RTID(DefaultSunDropper@LevelModules)", "RTID(ZombiesDeadWinCon@LevelModules)", "RTID(IceageMowers@LevelModules)", "RTID(SeedBank@CurrentLevel)", "RTID(DefaultZombieWinCondition@LevelModules)", "RTID(NewWaves@CurrentLevel)", "RTID(SliderPlacement@CurrentLevel)", "RTID(FrozenPlantPlacement@CurrentLevel)", "RTID(FrozenZombiePlacement@CurrentLevel)" ],
				"Name": "[ICEAGE_LEVEL_NAME]",
				"NormalPresentTable": "egypt_normal_01",
				"ShinyPresentTable": "egypt_shiny_01",
				"StageModule": "RTID(IceageStage@LevelModules)"
			}
		}, {
			"aliases": [ "SliderPlacement" ],
			"objclass": "InitialGridItemProperties",
			"objdata": {
				"InitialGridItemPlacements": [ {
						"GridX": 4,
						"GridY": 0,
						"TypeName": "slider_down"
					}, {
						"GridX": 3,
						"GridY": 1,
						"TypeName": "slider_down"
					}, {
						"GridX": 6,
						"GridY": 1,
						"TypeName": "slider_down"
					}, {
						"GridX": 5,
						"GridY": 2,
						"TypeName": "slider_down"
					} ]
			}
		}, {
			"aliases": [ "FrozenPlantPlacement" ],
			"objclass": "InitialPlantProperties",
			"objdata": {
				"InitialPlantPlacements": [ {
						"Condition": "icecubed",
						"GridX": 0,
						"GridY": 0,
						"TypeName": "sunshroom"
					}, {
						"Condition": "icecubed",
						"GridX": 0,
						"GridY": 1,
						"TypeName": "sunshroom"
					} ]
			}
		}, {
			"aliases": [ "FrozenZombiePlacement" ],
			"objclass": "InitialZombieProperties",
			"objdata": {
				"InitialZombiePlacements": [ {
						"Condition": "icecubed",
						"GridX": 8,
						"GridY": 1,
						"TypeName": "iceage_weaselhoarder"
					}, {
						"Condition": "icecubed",
						"GridX": 7,
						"GridY": 2,
						"TypeName": "iceage_weaselhoarder"
					}, {
						"Condition": "icecubed",
						"GridX": 8,
						"GridY": 3,
						"TypeName": "iceage_weaselhoarder"
					} ]
			}
		}, {
			"aliases": [ "SeedBank" ],
			"objclass": "SeedBankProperties",
			"objdata": {
				"PresetPlantList": [ {
						"PlantType": "xshot",
						"Level": -1
					} ],
				"SelectionMethod": "chooser"
			}
		}, {
			"aliases": [ "NewWaves" ],
			"objclass": "WaveManagerModuleProperties",
			"objdata": {
				"DynamicZombies": [ {
						"PointIncrementPerWave": -40,
						"StartingPoints": -100,
						"StartingWave": 3,
						"ZombiePool": [ "RTID(iceage@ZombieTypes)", "RTID(iceage_armor1@ZombieTypes)", "RTID(iceage_armor2@ZombieTypes)" ]
					}, {
						"PointIncrementPerWave": -25,
						"StartingPoints": -100,
						"StartingWave": 4,
						"ZombiePool": [ "RTID(iceage@ZombieTypes)", "RTID(iceage_armor1@ZombieTypes)", "RTID(iceage_armor2@ZombieTypes)" ]
					}, {
						"PointIncrementPerWave": -10,
						"StartingPoints": -100,
						"StartingWave": 5,
						"ZombiePool": [ "RTID(iceage@ZombieTypes)", "RTID(iceage_armor1@ZombieTypes)", "RTID(iceage_armor2@ZombieTypes)" ]
					}, {}, {
						"PointIncrementPerWave": 20,
						"StartingPoints": 100,
						"StartingWave": 5,
						"ZombiePool": [ "RTID(iceage@ZombieTypes)", "RTID(iceage_armor1@ZombieTypes)", "RTID(iceage_armor2@ZombieTypes)" ]
					}, {
						"PointIncrementPerWave": 40,
						"StartingPoints": 200,
						"StartingWave": 4,
						"ZombiePool": [ "RTID(iceage_armor1@ZombieTypes)", "RTID(iceage_armor2@ZombieTypes)" ]
					}, {
						"PointIncrementPerWave": 60,
						"StartingPoints": 400,
						"StartingWave": 3,
						"ZombiePool": [ "RTID(iceage_armor2@ZombieTypes)" ]
					} ],
				"WaveManagerProps": "RTID(WaveManagerProps@CurrentLevel)"
			}
		}, {
			"aliases": [ "WaveManagerProps" ],
			"objclass": "WaveManagerProperties",
			"objdata": {
				"FlagWaveInterval": 3,
				"WaveCount": 12,
				"WaveSpendingPointIncrement": 100,
				"WaveSpendingPoints": 100,
				"Waves": [ [ "RTID(Wave1@CurrentLevel)", "RTID(Wave1FrostWindEvent0@CurrentLevel)" ], [ "RTID(Wave2@CurrentLevel)" ], [ "RTID(Wave3@CurrentLevel)", "RTID(Wave3StormEvent0@CurrentLevel)", "RTID(Wave3FrostWindEvent0@CurrentLevel)" ], [ "RTID(Wave4@CurrentLevel)" ], [ "RTID(Wave5@CurrentLevel)", "RTID(Wave5FrostWindEvent0@CurrentLevel)" ], [ "RTID(Wave6@CurrentLevel)" ], [ "RTID(Wave7@CurrentLevel)", "RTID(Wave7FrostWindEvent0@CurrentLevel)" ], [ "RTID(Wave8@CurrentLevel)" ], [ "RTID(Wave9@CurrentLevel)", "RTID(Wave9FrostWindEvent0@CurrentLevel)" ], [ "RTID(Wave10@CurrentLevel)" ], [ "RTID(Wave11@CurrentLevel)", "RTID(Wave11FrostWindEvent0@CurrentLevel)" ], [ "RTID(Wave12@CurrentLevel)", "RTID(Wave12StormEvent0@CurrentLevel)" ] ]
			}
		}, {
			"aliases": [ "Wave1" ],
			"objclass": "SpawnZombiesJitteredWaveActionProps",
			"objdata": {
				"Zombies": [ {
						"Row": "1",
						"Type": "RTID(iceage@ZombieTypes)"
					} ]
			}
		}, {
			"aliases": [ "Wave2" ],
			"objclass": "SpawnZombiesJitteredWaveActionProps",
			"objdata": {
				"AdditionalPlantfood": 1,
				"DynamicPlantfood": [ 1, 1, 1, 1, 0, 0, 0 ],
				"Zombies": [ {
						"Row": "5",
						"Type": "RTID(iceage@ZombieTypes)"
					}, {
						"Row": "2",
						"Type": "RTID(iceage@ZombieTypes)"
					}, {
						"Row": "1",
						"Type": "RTID(iceage@ZombieTypes)"
					} ]
			}
		}, {
			"aliases": [ "Wave3" ],
			"objclass": "SpawnZombiesJitteredWaveActionProps",
			"objdata": {
				"AdditionalPlantfood": 0,
				"Zombies": [ {
						"Row": "5",
						"Type": "RTID(iceage_weaselhoarder@ZombieTypes)"
					}, {
						"Row": "2",
						"Type": "RTID(iceage_armor1@ZombieTypes)"
					}, {
						"Row": "1",
						"Type": "RTID(iceage_armor1@ZombieTypes)"
					} ]
			}
		}, {
			"aliases": [ "Wave4" ],
			"objclass": "SpawnZombiesJitteredWaveActionProps",
			"objdata": {
				"AdditionalPlantfood": 1,
				"DynamicPlantfood": [ 1, 1, 1, 1, 1, 1, 0 ],
				"Zombies": [ {
						"Row": "5",
						"Type": "RTID(iceage@ZombieTypes)"
					}, {
						"Row": "2",
						"Type": "RTID(iceage@ZombieTypes)"
					}, {
						"Row": "1",
						"Type": "RTID(iceage_armor1@ZombieTypes)"
					}, {
						"Row": "1",
						"Type": "RTID(iceage@ZombieTypes)"
					} ]
			}
		}, {
			"aliases": [ "Wave5" ],
			"objclass": "SpawnZombiesJitteredWaveActionProps",
			"objdata": {
				"Zombies": [ {
						"Row": "4",
						"Type": "RTID(iceage_armor1@ZombieTypes)"
					}, {
						"Row": "2",
						"Type": "RTID(iceage@ZombieTypes)"
					}, {
						"Row": "1",
						"Type": "RTID(iceage_dodo@ZombieTypes)"
					}, {
						"Row": "1",
						"Type": "RTID(iceage_dodo@ZombieTypes)"
					} ]
			}
		}, {
			"aliases": [ "Wave6" ],
			"objclass": "SpawnZombiesJitteredWaveActionProps",
			"objdata": {
				"AdditionalPlantfood": 0,
				"Zombies": [ {
						"Row": "5",
						"Type": "RTID(iceage_weaselhoarder@ZombieTypes)"
					}, {
						"Row": "4",
						"Type": "RTID(iceage_weaselhoarder@ZombieTypes)"
					}, {
						"Row": "2",
						"Type": "RTID(iceage_armor1@ZombieTypes)"
					}, {
						"Row": "1",
						"Type": "RTID(iceage@ZombieTypes)"
					}, {
						"Row": "1",
						"Type": "RTID(iceage_armor1@ZombieTypes)"
					}, {
						"Row": "1",
						"Type": "RTID(iceage_armor1@ZombieTypes)"
					} ]
			}
		}, {
			"aliases": [ "Wave7" ],
			"objclass": "SpawnZombiesJitteredWaveActionProps",
			"objdata": {
				"AdditionalPlantfood": 1,
				"DynamicPlantfood": [ 1, 1, 1, 1, 1, 1, 1 ],
				"Zombies": [ {
						"Row": "5",
						"Type": "RTID(iceage_troglobite@ZombieTypes)"
					}, {
						"Row": "2",
						"Type": "RTID(iceage@ZombieTypes)"
					}, {
						"Row": "1",
						"Type": "RTID(iceage_armor1@ZombieTypes)"
					}, {
						"Row": "1",
						"Type": "RTID(iceage@ZombieTypes)"
					} ]
			}
		}, {
			"aliases": [ "Wave8" ],
			"objclass": "SpawnZombiesJitteredWaveActionProps",
			"objdata": {
				"AdditionalPlantfood": 0,
				"Zombies": [ {
						"Row": "2",
						"Type": "RTID(iceage_dodo@ZombieTypes)"
					}, {
						"Row": "1",
						"Type": "RTID(iceage_dodo@ZombieTypes)"
					}, {
						"Row": "1",
						"Type": "RTID(iceage_armor1@ZombieTypes)"
					}, {
						"Row": "1",
						"Type": "RTID(iceage@ZombieTypes)"
					} ]
			}
		}, {
			"aliases": [ "Wave9" ],
			"objclass": "SpawnZombiesJitteredWaveActionProps",
			"objdata": {
				"AdditionalPlantfood": 1,
				"DynamicPlantfood": [ 1, 1, 1, 1, 1, 1, 1 ],
				"Zombies": [ {
						"Row": "5",
						"Type": "RTID(iceage_weaselhoarder@ZombieTypes)"
					}, {
						"Row": "4",
						"Type": "RTID(iceage_weaselhoarder@ZombieTypes)"
					}, {
						"Row": "4",
						"Type": "RTID(iceage_armor1@ZombieTypes)"
					}, {
						"Row": "2",
						"Type": "RTID(iceage_dodo@ZombieTypes)"
					}, {
						"Row": "1",
						"Type": "RTID(iceage_armor2@ZombieTypes)"
					}, {
						"Row": "1",
						"Type": "RTID(iceage_armor1@ZombieTypes)"
					}, {
						"Row": "1",
						"Type": "RTID(iceage@ZombieTypes)"
					} ]
			}
		}, {
			"aliases": [ "Wave10" ],
			"objclass": "SpawnZombiesJitteredWaveActionProps",
			"objdata": {
				"AdditionalPlantfood": 0,
				"Zombies": [ {
						"Row": "5",
						"Type": "RTID(iceage_armor2@ZombieTypes)"
					}, {
						"Row": "2",
						"Type": "RTID(iceage_armor1@ZombieTypes)"
					}, {
						"Row": "1",
						"Type": "RTID(iceage_armor1@ZombieTypes)"
					}, {
						"Row": "1",
						"Type": "RTID(iceage@ZombieTypes)"
					} ]
			}
		}, {
			"aliases": [ "Wave11" ],
			"objclass": "SpawnZombiesJitteredWaveActionProps",
			"objdata": {
				"AdditionalPlantfood": 1,
				"DynamicPlantfood": [ 1, 1, 1, 1, 1, 0, 0 ],
				"Zombies": [ {
						"Row": "2",
						"Type": "RTID(iceage_armor1@ZombieTypes)"
					}, {
						"Row": "1",
						"Type": "RTID(iceage_dodo@ZombieTypes)"
					}, {
						"Row": "1",
						"Type": "RTID(iceage_armor1@ZombieTypes)"
					}, {
						"Row": "1",
						"Type": "RTID(iceage@ZombieTypes)"
					} ]
			}
		}, {
			"aliases": [ "Wave11FrostWindEvent0" ],
			"objclass": "FrostWindWaveActionProps",
			"objdata": {
				"Winds": [ {
						"Direction": "right",
						"Row": "0"
					}, {
						"Direction": "right",
						"Row": 1
					}, {
						"Direction": "right",
						"Row": 3
					}, {
						"Direction": "right",
						"Row": 4
					} ]
			}
		}, {
			"aliases": [ "Wave12" ],
			"objclass": "SpawnZombiesJitteredWaveActionProps",
			"objdata": {
				"AdditionalPlantfood": 0,
				"Zombies": [ {
						"Row": "5",
						"Type": "RTID(iceage_armor1@ZombieTypes)"
					}, {
						"Row": "4",
						"Type": "RTID(iceage@ZombieTypes)"
					}, {
						"Row": "2",
						"Type": "RTID(iceage@ZombieTypes)"
					}, {
						"Row": "2",
						"Type": "RTID(iceage_armor1@ZombieTypes)"
					}, {
						"Row": "1",
						"Type": "RTID(iceage@ZombieTypes)"
					}, {
						"Row": "1",
						"Type": "RTID(iceage_armor1@ZombieTypes)"
					} ]
			}
		}, {
			"aliases": [ "Wave7FrostWindEvent0" ],
			"objclass": "FrostWindWaveActionProps",
			"objdata": {
				"Winds": [ {
						"Direction": "right",
						"Row": 0
					}, {
						"Direction": "right",
						"Row": 1
					}, {
						"Direction": "right",
						"Row": 2
					} ]
			}
		}, {
			"aliases": [ "Wave1FrostWindEvent0" ],
			"objclass": "FrostWindWaveActionProps",
			"objdata": {
				"Winds": [ {
						"Direction": "right",
						"Row": 0
					}, {
						"Direction": "right",
						"Row": 1
					} ]
			}
		}, {
			"aliases": [ "Wave9FrostWindEvent0" ],
			"objclass": "FrostWindWaveActionProps",
			"objdata": {
				"Winds": [ {
						"Direction": "right",
						"Row": "0"
					}, {
						"Direction": "right",
						"Row": 1
					} ]
			}
		}, {
			"aliases": [ "Wave12StormEvent0" ],
			"objclass": "StormZombieSpawnerProps",
			"objdata": {
				"ColumnEnd": 7,
				"ColumnStart": 5,
				"GroupSize": 3,
				"TimeBetweenGroups": "3",
				"Type": "snowstorm",
				"Zombies": [ {
						"Type": "RTID(iceage_armor3@ZombieTypes)"
					}, {
						"Type": "RTID(iceage_armor3@ZombieTypes)"
					}, {
						"Type": "RTID(iceage_armor3@ZombieTypes)"
					} ]
			}
		}, {
			"aliases": [ "Wave3FrostWindEvent0" ],
			"objclass": "FrostWindWaveActionProps",
			"objdata": {
				"Winds": [ {
						"Direction": "right",
						"Row": "0"
					}, {
						"Direction": "right",
						"Row": 1
					}, {
						"Direction": "right",
						"Row": 2
					} ]
			}
		}, {
			"aliases": [ "Wave5FrostWindEvent0" ],
			"objclass": "FrostWindWaveActionProps",
			"objdata": {
				"Winds": [ {
						"Direction": "right",
						"Row": "0"
					}, {
						"Direction": "right",
						"Row": 1
					}, {
						"Direction": "right",
						"Row": 3
					}, {
						"Direction": "right",
						"Row": 4
					} ]
			}
		}, {
			"aliases": [ "Wave3StormEvent0" ],
			"objclass": "StormZombieSpawnerProps",
			"objdata": {
				"ColumnEnd": 6,
				"ColumnStart": 5,
				"GroupSize": 3,
				"TimeBetweenGroups": "3",
				"Type": "snowstorm",
				"Zombies": [ {
						"Type": "RTID(iceage@ZombieTypes)"
					}, {
						"Type": "RTID(iceage@ZombieTypes)"
					}, {
						"Type": "RTID(iceage@ZombieTypes)"
					} ]
			}
		} ],
	"version": 1
}