{
	"#comment": "LOD template level. Delete unnecessary Modules (e.g. Challenge, Frozen)",
	"objects": [ {
			"objclass": "LevelDefinition",
			"objdata": {
				"Description": "[PLAYERS_TRIP_TO_LOD]",
				"DraperPromo": "applemortar",
				"IsLevelOfTheDay": true,
				"Loot": "RTID(DefaultLoot@LevelModules)",
				"Modules": [ "RTID(LevelOfTheDayIntro@LevelModules)", "RTID(LevelOfTheDayModule@CurrentLevel)", "RTID(FrontLawnMowers@LevelModules)", "RTID(NewWaves@CurrentLevel)", "RTID(DefaultZombieWinCondition@LevelModules)", "RTID(Gravestones@CurrentLevel)", "RTID(ConveyorBelt@CurrentLevel)", "RTID(ZombiesDeadWinCon@LevelModules)" ],
				"Name": "[LOD_LEVEL_NAME]",
				"NormalPresentTable": "egypt_normal_01",
				"ShinyPresentTable": "egypt_shiny_01",
				"StageModule": "RTID(ModernStage@LevelModules)",
				"VictoryModule": "RTID(LevelOfTheDayOutro@LevelModules)"
			}
		}, {
			"aliases": [ "LevelOfTheDayModule" ],
			"objclass": "LevelOfTheDayModuleProperties",
			"objdata": {
				"FlagCount": 3,
				"PlantfoodToSpawnCount": 3,
				"PointIncrementPerWave": 10,
				"StartingPoints": 100,
				"WaveManagerProps": "RTID(WaveManagerProps@CurrentLevel)",
				"WavesPerFlag": 4,
				"ZombiePool": [ "RTID(modern_superfanimp@ZombieTypes)", "RTID(tutorial_armor1@ZombieTypes)", "RTID(modern_allstar@ZombieTypes)", "RTID(modern_newspaper@ZombieTypes)", "RTID(tutorial_armor2@ZombieTypes)", "RTID(egypt_gargantuar@ZombieTypes)", "RTID(tomb_raiser@ZombieTypes)", "RTID(tutorial@ZombieTypes)", "RTID(lostcity_excavator@ZombieTypes)", "RTID(modern_balloon@ZombieTypes)" ]
			}
		}, {
			"aliases": [ "WaveManagerProps" ],
			"objclass": "WaveManagerProperties",
			"objdata": {
				"FlagWaveInterval": 4,
				"LevelJam": "jam_rap",
				"WaveCount": 12,
				"WaveSpendingPointIncrement": 200,
				"WaveSpendingPoints": 200,
				"Waves": [ [ "RTID(Wave1@CurrentLevel)" ], [ "RTID(Wave2@CurrentLevel)" ], [ "RTID(Wave3@CurrentLevel)", "RTID(Wave3ModConveyor0@CurrentLevel)" ], [ "RTID(Wave4@CurrentLevel)" ], [ "RTID(Wave5@CurrentLevel)" ], [ "RTID(Wave6@CurrentLevel)" ], [ "RTID(Wave7@CurrentLevel)", "RTID(Wave7ModConveyor0@CurrentLevel)" ], [ "RTID(Wave8@CurrentLevel)", "RTID(Wave8DinoTimeEvent0@CurrentLevel)", "RTID(Wave8DinoTimeEvent1@CurrentLevel)", "RTID(Wave8DinoTimeEvent2@CurrentLevel)" ], [ "RTID(Wave9@CurrentLevel)" ], [ "RTID(Wave10@CurrentLevel)" ], [ "RTID(Wave11@CurrentLevel)" ], [ "RTID(Wave12@CurrentLevel)" ] ]
			}
		}, {
			"aliases": [ "Wave1" ],
			"objclass": "SpawnZombiesJitteredWaveActionProps",
			"objdata": {
				"AdditionalPlantfood": 0,
				"Zombies": [ {
						"Type": "RTID(tutorial_armor2@ZombieTypes)"
					} ]
			}
		}, {
			"aliases": [ "Wave2" ],
			"objclass": "SpawnZombiesJitteredWaveActionProps",
			"objdata": {
				"Zombies": [ {
						"Row": "4",
						"Type": "RTID(tutorial_armor2@ZombieTypes)"
					}, {
						"Row": "3",
						"Type": "RTID(lostcity_excavator@ZombieTypes)"
					}, {
						"Row": "1",
						"Type": "RTID(tutorial_armor2@ZombieTypes)"
					} ]
			}
		}, {
			"aliases": [ "Wave3" ],
			"objclass": "SpawnZombiesJitteredWaveActionProps",
			"objdata": {
				"AdditionalPlantfood": 1,
				"Zombies": [ {
						"Row": "2",
						"Type": "RTID(lostcity_excavator@ZombieTypes)"
					}, {
						"Row": "4",
						"Type": "RTID(lostcity_excavator@ZombieTypes)"
					}, {
						"Row": "5",
						"Type": "RTID(modern_superfanimp@ZombieTypes)"
					}, {
						"Row": "5",
						"Type": "RTID(modern_allstar@ZombieTypes)"
					} ]
			}
		}, {
			"aliases": [ "Wave4" ],
			"objclass": "SpawnZombiesJitteredWaveActionProps",
			"objdata": {
				"Zombies": [ {
						"Row": "3",
						"Type": "RTID(tomb_raiser@ZombieTypes)"
					}, {
						"Row": "1",
						"Type": "RTID(modern_superfanimp@ZombieTypes)"
					}, {
						"Row": "1",
						"Type": "RTID(modern_allstar@ZombieTypes)"
					}, {
						"Row": "5",
						"Type": "RTID(modern_superfanimp@ZombieTypes)"
					}, {
						"Row": "5",
						"Type": "RTID(modern_allstar@ZombieTypes)"
					}, {
						"Row": "4",
						"Type": "RTID(lostcity_excavator@ZombieTypes)"
					}, {
						"Row": "2",
						"Type": "RTID(tomb_raiser@ZombieTypes)"
					}, {
						"Row": "3",
						"Type": "RTID(modern_balloon@ZombieTypes)"
					} ]
			}
		}, {
			"aliases": [ "Wave5" ],
			"objclass": "SpawnZombiesJitteredWaveActionProps",
			"objdata": {
				"AdditionalPlantfood": 0,
				"Zombies": [ {
						"Type": "RTID(tomb_raiser@ZombieTypes)"
					}, {
						"Type": "RTID(tomb_raiser@ZombieTypes)"
					}, {
						"Row": "1",
						"Type": "RTID(tomb_raiser@ZombieTypes)"
					}, {
						"Row": "4",
						"Type": "RTID(modern_newspaper@ZombieTypes)"
					} ]
			}
		}, {
			"aliases": [ "Wave6" ],
			"objclass": "SpawnZombiesJitteredWaveActionProps",
			"objdata": {
				"Zombies": [ {
						"Type": "RTID(lostcity_excavator@ZombieTypes)"
					}, {
						"Type": "RTID(lostcity_excavator@ZombieTypes)"
					}, {
						"Type": "RTID(lostcity_excavator@ZombieTypes)"
					}, {
						"Row": "3",
						"Type": "RTID(modern_superfanimp@ZombieTypes)"
					}, {
						"Row": "3",
						"Type": "RTID(modern_allstar@ZombieTypes)"
					}, {
						"Row": "4",
						"Type": "RTID(modern_allstar@ZombieTypes)"
					}, {
						"Row": "5",
						"Type": "RTID(modern_allstar@ZombieTypes)"
					}, {
						"Row": "2",
						"Type": "RTID(modern_allstar@ZombieTypes)"
					}, {
						"Row": "1",
						"Type": "RTID(modern_allstar@ZombieTypes)"
					} ]
			}
		}, {
			"aliases": [ "Wave7" ],
			"objclass": "SpawnZombiesJitteredWaveActionProps",
			"objdata": {
				"AdditionalPlantfood": 1,
				"Zombies": [ {
						"Row": "5",
						"Type": "RTID(tomb_raiser@ZombieTypes)"
					}, {
						"Row": "5",
						"Type": "RTID(tomb_raiser@ZombieTypes)"
					}, {
						"Type": "RTID(modern_allstar@ZombieTypes)"
					}, {
						"Row": "4",
						"Type": "RTID(tutorial_armor2@ZombieTypes)"
					}, {
						"Row": "2",
						"Type": "RTID(lostcity_excavator@ZombieTypes)"
					}, {
						"Row": "1",
						"Type": "RTID(modern_balloon@ZombieTypes)"
					} ]
			}
		}, {
			"aliases": [ "Wave8" ],
			"objclass": "SpawnZombiesJitteredWaveActionProps",
			"objdata": {
				"AdditionalPlantfood": 0,
				"Zombies": [ {
						"Row": "3",
						"Type": "RTID(egypt_gargantuar@ZombieTypes)"
					}, {
						"Row": "2",
						"Type": "RTID(modern_balloon@ZombieTypes)"
					}, {
						"Row": "1",
						"Type": "RTID(modern_balloon@ZombieTypes)"
					}, {
						"Row": "4",
						"Type": "RTID(tutorial_armor2@ZombieTypes)"
					}, {
						"Row": "3",
						"Type": "RTID(lostcity_excavator@ZombieTypes)"
					}, {
						"Row": "2",
						"Type": "RTID(modern_newspaper@ZombieTypes)"
					} ]
			}
		}, {
			"aliases": [ "Wave9" ],
			"objclass": "SpawnZombiesJitteredWaveActionProps",
			"objdata": {
				"AdditionalPlantfood": 0,
				"Zombies": [ {
						"Type": "RTID(lostcity_excavator@ZombieTypes)"
					}, {
						"Type": "RTID(lostcity_excavator@ZombieTypes)"
					}, {
						"Type": "RTID(lostcity_excavator@ZombieTypes)"
					}, {
						"Row": "5",
						"Type": "RTID(modern_superfanimp@ZombieTypes)"
					}, {
						"Row": "5",
						"Type": "RTID(modern_allstar@ZombieTypes)"
					}, {
						"Row": "4",
						"Type": "RTID(modern_newspaper@ZombieTypes)"
					}, {
						"Row": "3",
						"Type": "RTID(tutorial_armor2@ZombieTypes)"
					}, {
						"Row": "2",
						"Type": "RTID(tomb_raiser@ZombieTypes)"
					}, {
						"Row": "1",
						"Type": "RTID(tomb_raiser@ZombieTypes)"
					} ]
			}
		}, {
			"aliases": [ "Wave10" ],
			"objclass": "SpawnZombiesJitteredWaveActionProps",
			"objdata": {
				"Zombies": [ {
						"Row": "1",
						"Type": "RTID(tutorial_armor2@ZombieTypes)"
					}, {
						"Row": "2",
						"Type": "RTID(tutorial_armor2@ZombieTypes)"
					}, {
						"Row": "3",
						"Type": "RTID(modern_superfanimp@ZombieTypes)"
					}, {
						"Row": "3",
						"Type": "RTID(modern_allstar@ZombieTypes)"
					}, {
						"Row": "4",
						"Type": "RTID(modern_superfanimp@ZombieTypes)"
					}, {
						"Row": "4",
						"Type": "RTID(modern_allstar@ZombieTypes)"
					} ]
			}
		}, {
			"aliases": [ "Wave11" ],
			"objclass": "SpawnZombiesJitteredWaveActionProps",
			"objdata": {
				"AdditionalPlantfood": 1,
				"Zombies": [ {
						"Type": "RTID(tomb_raiser@ZombieTypes)"
					}, {
						"Type": "RTID(tomb_raiser@ZombieTypes)"
					}, {
						"Type": "RTID(lostcity_excavator@ZombieTypes)"
					}, {
						"Type": "RTID(lostcity_excavator@ZombieTypes)"
					}, {
						"Row": "5",
						"Type": "RTID(tomb_raiser@ZombieTypes)"
					}, {
						"Row": "5",
						"Type": "RTID(modern_balloon@ZombieTypes)"
					}, {
						"Row": "4",
						"Type": "RTID(modern_balloon@ZombieTypes)"
					}, {
						"Row": "3",
						"Type": "RTID(modern_balloon@ZombieTypes)"
					}, {
						"Row": "2",
						"Type": "RTID(modern_balloon@ZombieTypes)"
					}, {
						"Row": "1",
						"Type": "RTID(tomb_raiser@ZombieTypes)"
					}, {
						"Row": "1",
						"Type": "RTID(modern_balloon@ZombieTypes)"
					} ]
			}
		}, {
			"aliases": [ "Wave12" ],
			"objclass": "SpawnZombiesJitteredWaveActionProps",
			"objdata": {
				"AdditionalPlantfood": 0,
				"Zombies": [ {
						"Row": "5",
						"Type": "RTID(modern_superfanimp@ZombieTypes)"
					}, {
						"Row": "4",
						"Type": "RTID(egypt_gargantuar@ZombieTypes)"
					}, {
						"Row": "3",
						"Type": "RTID(modern_superfanimp@ZombieTypes)"
					}, {
						"Row": "2",
						"Type": "RTID(egypt_gargantuar@ZombieTypes)"
					}, {
						"Row": "1",
						"Type": "RTID(modern_superfanimp@ZombieTypes)"
					}, {
						"Row": "5",
						"Type": "RTID(modern_allstar@ZombieTypes)"
					}, {
						"Row": "3",
						"Type": "RTID(modern_allstar@ZombieTypes)"
					}, {
						"Row": "1",
						"Type": "RTID(modern_allstar@ZombieTypes)"
					}, {
						"Row": "4",
						"Type": "RTID(tutorial_armor2@ZombieTypes)"
					}, {
						"Row": "2",
						"Type": "RTID(tutorial_armor2@ZombieTypes)"
					} ]
			}
		}, {
			"aliases": [ "Wave8DinoTimeEvent0" ],
			"objclass": "DinoWaveActionProps",
			"objdata": {
				"DinoRow": "2",
				"DinoType": "raptor",
				"DinoWaveDuration": "0"
			}
		}, {
			"aliases": [ "Gravestones" ],
			"objclass": "GravestoneProperties",
			"objdata": {
				"ForceSpawnData": [ {
						"GridX": 0,
						"GridY": 0
					}, {
						"GridX": 8,
						"GridY": 0
					}, {
						"GridX": 2,
						"GridY": 0
					}, {
						"GridX": 4,
						"GridY": 0
					}, {
						"GridX": 6,
						"GridY": 0
					}, {
						"GridX": 6,
						"GridY": 1
					}, {
						"GridX": 2,
						"GridY": 1
					}, {
						"GridX": 2,
						"GridY": 2
					}, {
						"GridX": 4,
						"GridY": 2
					}, {
						"GridX": 6,
						"GridY": 2
					}, {
						"GridX": 2,
						"GridY": 3
					}, {
						"GridX": 6,
						"GridY": 3
					}, {
						"GridX": 8,
						"GridY": 4
					}, {
						"GridX": 0,
						"GridY": 4
					}, {
						"GridX": 2,
						"GridY": 4
					}, {
						"GridX": 4,
						"GridY": 4
					}, {
						"GridX": 6,
						"GridY": 4
					} ]
			}
		}, {
			"aliases": [ "NewWaves" ],
			"objclass": "WaveManagerModuleProperties",
			"objdata": {
				"DynamicZombies": [ {}, {}, {}, {}, {}, {}, {} ]
			}
		}, {
			"aliases": [ "ConveyorBelt" ],
			"objclass": "ConveyorSeedBankProperties",
			"objdata": {
				"DropDelayConditions": [ {
						"Delay": 3,
						"MaxPackets": 0
					}, {
						"Delay": 6,
						"MaxPackets": 2
					}, {
						"Delay": 9,
						"MaxPackets": 4
					}, {
						"Delay": 12,
						"MaxPackets": 8
					} ],
				"InitialPlantList": [ {
						"PlantType": "celerystalker",
						"Weight": 7
					}, {
						"PlantType": "xshot",
						"Weight": 3
					} ],
				"SpeedConditions": [ {
						"MaxPackets": 0,
						"Speed": 100
					} ]
			}
		}, {
			"aliases": [ "Wave7ModConveyor0" ],
			"objclass": "ModifyConveyorWaveActionProps",
			"objdata": {
				"Add": [ {
						"Type": "RTID(gravebuster@PlantTypes)",
						"Weight": 5
					} ],
				"Remove": []
			}
		}, {
			"aliases": [ "Wave3ModConveyor0" ],
			"objclass": "ModifyConveyorWaveActionProps",
			"objdata": {
				"Add": [ {
						"Type": "RTID(applemortar@PlantTypes)",
						"Weight": 5
					} ],
				"Remove": []
			}
		}, {
			"aliases": [ "Wave8DinoTimeEvent1" ],
			"objclass": "DinoWaveActionProps",
			"objdata": {
				"DinoRow": 0,
				"DinoType": "raptor",
				"DinoWaveDuration": "0"
			}
		}, {
			"aliases": [ "Wave8DinoTimeEvent2" ],
			"objclass": "DinoWaveActionProps",
			"objdata": {
				"DinoRow": 4,
				"DinoType": "raptor",
				"DinoWaveDuration": "0"
			}
		} ],
	"version": 1
}