{
	"#comment": "LOD 218",
	"objects": [ {
			"objclass": "LevelDefinition",
			"objdata": {
				"Description": "[PLAYERS_TRIP_TO_LOD]",
				"DraperPromo": "homingthistle",
				"IsLevelOfTheDay": true,
				"Loot": "RTID(DefaultLoot@LevelModules)",
				"Modules": [ "RTID(LevelOfTheDayIntro@LevelModules)", "RTID(LevelOfTheDayModule@CurrentLevel)", "RTID(FrontLawnMowers@LevelModules)", "RTID(NewWaves@CurrentLevel)", "RTID(DefaultZombieWinCondition@LevelModules)", "RTID(Gravestones@CurrentLevel)", "RTID(ConveyorBelt@CurrentLevel)", "RTID(ZombiesDeadWinCon@LevelModules)" ],
				"Name": "[LOD_LEVEL_NAME]",
				"NormalPresentTable": "egypt_normal_01",
				"ShinyPresentTable": "egypt_shiny_01",
				"StageModule": "RTID(FrontLawnStage@LevelModules)",
				"VictoryModule": "RTID(LevelOfTheDayOutro@LevelModules)"
			}
		}, {
			"aliases": [ "LevelOfTheDayModule" ],
			"objclass": "LevelOfTheDayModuleProperties",
			"objdata": {
				"FlagCount": 2,
				"PlantfoodToSpawnCount": 4,
				"PointIncrementPerWave": 75,
				"StartingPoints": 100,
				"WaveManagerProps": "RTID(WaveManagerProps@CurrentLevel)",
				"WavesPerFlag": 5,
				"ZombiePool": [ "RTID(lostcity_armor1@ZombieTypes)", "RTID(lostcity@ZombieTypes)", "RTID(lostcity_bug@ZombieTypes)" ]
			}
		}, {
			"aliases": [ "WaveManagerProps" ],
			"objclass": "WaveManagerProperties",
			"objdata": {
				"MaxNextWaveHealthPercentage": 0.9,
				"MinNextWaveHealthPercentage": 0.8,
				"Waves": [ [ "RTID(Wave1@CurrentLevel)" ], [ "RTID(Wave2@CurrentLevel)", "RTID(Wave2ModConveyor0@CurrentLevel)" ], [ "RTID(Wave3@CurrentLevel)" ], [ "RTID(Wave4@CurrentLevel)", "RTID(Wave4ModConveyor0@CurrentLevel)" ], [ "RTID(Wave5@CurrentLevel)" ], [ "RTID(Wave6@CurrentLevel)" ], [ "RTID(Wave7@CurrentLevel)" ], [ "RTID(Wave8@CurrentLevel)" ], [ "RTID(Wave9@CurrentLevel)" ], [ "RTID(Wave10@CurrentLevel)" ] ]
			}
		}, {
			"aliases": [ "Wave1" ],
			"objclass": "SpawnZombiesJitteredWaveActionProps",
			"objdata": {
				"Zombies": [ {
						"Type": "RTID(lostcity_imp@ZombieTypes)"
					}, {
						"Type": "RTID(lostcity@ZombieTypes)"
					} ]
			}
		}, {
			"aliases": [ "Wave2" ],
			"objclass": "SpawnZombiesJitteredWaveActionProps",
			"objdata": {
				"Zombies": [ {
						"Type": "RTID(lostcity@ZombieTypes)"
					}, {
						"Type": "RTID(lostcity_bug@ZombieTypes)"
					} ]
			}
		}, {
			"aliases": [ "Wave3" ],
			"objclass": "SpawnZombiesJitteredWaveActionProps",
			"objdata": {
				"Zombies": [ {
						"Type": "RTID(lostcity@ZombieTypes)"
					}, {
						"Type": "RTID(lostcity_relichunter@ZombieTypes)"
					} ]
			}
		}, {
			"aliases": [ "Wave4" ],
			"objclass": "SpawnZombiesJitteredWaveActionProps",
			"objdata": {
				"Zombies": [ {
						"Type": "RTID(lostcity_imp@ZombieTypes)"
					}, {
						"Row": "4",
						"Type": "RTID(lostcity_gargantuar@ZombieTypes)"
					} ]
			}
		}, {
			"aliases": [ "Wave5" ],
			"objclass": "SpawnZombiesJitteredWaveActionProps",
			"objdata": {
				"Zombies": [ {
						"Type": "RTID(lostcity_relichunter@ZombieTypes)"
					} ]
			}
		}, {
			"aliases": [ "Wave6" ],
			"objclass": "SpawnZombiesJitteredWaveActionProps",
			"objdata": {
				"Zombies": [ {
						"Type": "RTID(lostcity_imp@ZombieTypes)"
					}, {
						"Type": "RTID(lostcity@ZombieTypes)"
					}, {
						"Type": "RTID(lostcity_bug@ZombieTypes)"
					} ]
			}
		}, {
			"aliases": [ "Wave7" ],
			"objclass": "SpawnZombiesJitteredWaveActionProps",
			"objdata": {
				"Zombies": [ {
						"Type": "RTID(lostcity_imp@ZombieTypes)"
					}, {
						"Type": "RTID(lostcity_relichunter@ZombieTypes)"
					}, {
						"Type": "RTID(lostcity_bug_armor1@ZombieTypes)"
					} ]
			}
		}, {
			"aliases": [ "Wave8" ],
			"objclass": "SpawnZombiesJitteredWaveActionProps",
			"objdata": {
				"Zombies": [ {
						"Type": "RTID(lostcity_imp@ZombieTypes)"
					}, {
						"Type": "RTID(lostcity_relichunter@ZombieTypes)"
					}, {
						"Type": "RTID(lostcity_relichunter@ZombieTypes)"
					} ]
			}
		}, {
			"aliases": [ "Wave9" ],
			"objclass": "SpawnZombiesJitteredWaveActionProps",
			"objdata": {
				"Zombies": [ {
						"Type": "RTID(lostcity_imp@ZombieTypes)"
					}, {
						"Type": "RTID(lostcity@ZombieTypes)"
					}, {
						"Type": "RTID(lostcity_bug_armor1@ZombieTypes)"
					}, {
						"Row": "3",
						"Type": "RTID(lostcity_gargantuar@ZombieTypes)"
					} ]
			}
		}, {
			"aliases": [ "Gravestones" ],
			"objclass": "GravestoneProperties",
			"objdata": {}
		}, {
			"aliases": [ "NewWaves" ],
			"objclass": "WaveManagerModuleProperties",
			"objdata": {}
		}, {
			"aliases": [ "ConveyorBelt" ],
			"objclass": "ConveyorSeedBankProperties",
			"objdata": {
				"DropDelayConditions": [ {
						"Delay": 3.5,
						"MaxPackets": 0
					}, {
						"Delay": 6,
						"MaxPackets": 2
					}, {
						"Delay": 9,
						"MaxPackets": 4
					}, {
						"Delay": 12,
						"MaxPackets": 8
					} ],
				"InitialPlantList": [ {
						"MaxCount": 5,
						"MaxWeightFactor": 0,
						"PlantType": "endurian",
						"Weight": 30
					}, {
						"MaxCount": 10,
						"MaxWeightFactor": 0.25,
						"MinCount": 2,
						"MinWeightFactor": 2,
						"PlantType": "homingthistle",
						"Weight": 40
					} ],
				"SpeedConditions": [ {
						"MaxPackets": 0,
						"Speed": 100
					} ]
			}
		}, {
			"aliases": [ "Wave10" ],
			"objclass": "SpawnZombiesJitteredWaveActionProps",
			"objdata": {
				"Zombies": [ {
						"Type": "RTID(lostcity_bug@ZombieTypes)"
					}, {
						"Type": "RTID(lostcity_bug@ZombieTypes)"
					}, {
						"Type": "RTID(lostcity_relichunter@ZombieTypes)"
					}, {
						"Type": "RTID(lostcity_relichunter@ZombieTypes)"
					} ]
			}
		}, {
			"aliases": [ "Wave4ModConveyor0" ],
			"objclass": "ModifyConveyorWaveActionProps",
			"objdata": {
				"Add": [ {
						"Type": "RTID(iceburg@PlantTypes)",
						"Weight": 15
					} ],
				"Remove": []
			}
		}, {
			"aliases": [ "Wave2ModConveyor0" ],
			"objclass": "ModifyConveyorWaveActionProps",
			"objdata": {
				"Add": [ {
						"Type": "RTID(stallia@PlantTypes)",
						"Weight": 15
					} ],
				"Remove": []
			}
		} ],
	"version": 1
}