{
	"#comment": "lod 171 (Blueberry)",
	"objects": [ {
			"objclass": "LevelDefinition",
			"objdata": {
				"Description": "[PLAYERS_TRIP_TO_LOD]",
				"DraperPromo": "blueberry",
				"IsLevelOfTheDay": true,
				"Loot": "RTID(DefaultLoot@LevelModules)",
				"Modules": [ "RTID(LevelOfTheDayIntro@LevelModules)", "RTID(LevelOfTheDayModule@CurrentLevel)", "RTID(DefaultSunDropper@LevelModules)", "RTID(FrontLawnMowers@LevelModules)", "RTID(NewWaves@CurrentLevel)", "RTID(DefaultZombieWinCondition@LevelModules)", "RTID(Gravestones@CurrentLevel)", "RTID(SeedBank@CurrentLevel)", "RTID(ZombiesDeadWinCon@LevelModules)", "RTID(ChallengeModule@CurrentLevel)", "RTID(ProtectThePlant@CurrentLevel)" ],
				"Name": "[LOD_LEVEL_NAME]",
				"NormalPresentTable": "egypt_normal_01",
				"ShinyPresentTable": "egypt_shiny_01",
				"StageModule": "RTID(FrontLawnStage@LevelModules)",
				"VictoryModule": "RTID(LevelOfTheDayOutro@LevelModules)"
			}
		}, {
			"aliases": [ "ChallengeModule" ],
			"objclass": "StarChallengeModuleProperties",
			"objdata": {
				"Challenges": [ [ "RTID(BeatTheLevel@CurrentLevel)" ] ],
				"ChallengesAlwaysAvailable": true
			}
		}, {
			"aliases": [ "BeatTheLevel" ],
			"objclass": "StarChallengeBeatTheLevelProps",
			"objdata": {
				"Description": "[STARCHALLENGE_PROTECT_THE_PLANT]",
				"DescriptiveName": "[STARCHALLENGE_PROTECT_THE_PLANT_NAME]"
			}
		}, {
			"aliases": [ "ProtectThePlant" ],
			"objclass": "ProtectThePlantChallengeProperties",
			"objdata": {
				"MustProtectCount": 5,
				"Plants": [ {
						"GridX": 2,
						"GridY": 0,
						"PlantType": "twinsunflower"
					}, {
						"GridX": 2,
						"GridY": 1,
						"PlantType": "twinsunflower"
					}, {
						"GridX": 2,
						"GridY": 2,
						"PlantType": "twinsunflower"
					}, {
						"GridX": 2,
						"GridY": 3,
						"PlantType": "twinsunflower"
					}, {
						"GridX": 2,
						"GridY": 4,
						"PlantType": "twinsunflower"
					} ]
			}
		}, {
			"aliases": [ "SeedBank" ],
			"objclass": "SeedBankProperties",
			"objdata": {
				"PresetPlantList": [ {
						"PlantType": "electricblueberry",
						"Level": -1
					}, {
						"PlantType": "bonkchoy",
						"Level": -1
					}, {
						"PlantType": "wallnut",
						"Level": -1
					}, {
						"PlantType": "stunion",
						"Level": -1
					} ],
				"SelectionMethod": "preset"
			}
		}, {
			"aliases": [ "LevelOfTheDayModule" ],
			"objclass": "LevelOfTheDayModuleProperties",
			"objdata": {
				"FlagCount": 2,
				"PlantfoodToSpawnCount": 0,
				"PointIncrementPerWave": 50,
				"StartingPoints": 100,
				"WaveManagerProps": "RTID(WaveManagerProps@CurrentLevel)",
				"WavesPerFlag": 5,
				"ZombiePool": [ "RTID(eighties_armor1@ZombieTypes)", "RTID(iceage_dodo@ZombieTypes)" ]
			}
		}, {
			"aliases": [ "WaveManagerProps" ],
			"objclass": "WaveManagerProperties",
			"objdata": {
				"MaxNextWaveHealthPercentage": 0.9,
				"MinNextWaveHealthPercentage": 0.8,
				"Waves": [ [ "RTID(Wave1@CurrentLevel)", "RTID(Wave1SpiderRainEvent0@CurrentLevel)" ], [ "RTID(Wave2@CurrentLevel)" ], [ "RTID(Wave3@CurrentLevel)", "RTID(Wave3SpiderRainEvent0@CurrentLevel)" ], [ "RTID(Wave4@CurrentLevel)" ], [ "RTID(Wave5@CurrentLevel)", "RTID(Wave5SpiderRainEvent0@CurrentLevel)" ], [ "RTID(Wave6@CurrentLevel)" ], [ "RTID(Wave7@CurrentLevel)", "RTID(Wave7SpiderRainEvent0@CurrentLevel)" ], [ "RTID(Wave8@CurrentLevel)" ], [ "RTID(Wave9@CurrentLevel)", "RTID(Wave9SpiderRainEvent0@CurrentLevel)" ], [ "RTID(Wave10@CurrentLevel)" ] ]
			}
		}, {
			"aliases": [ "Wave1" ],
			"objclass": "SpawnZombiesJitteredWaveActionProps",
			"objdata": {
				"Zombies": [ {
						"Type": "RTID(eighties@ZombieTypes)"
					} ]
			}
		}, {
			"aliases": [ "Wave2" ],
			"objclass": "SpawnZombiesJitteredWaveActionProps",
			"objdata": {
				"AdditionalPlantfood": 1,
				"Zombies": [ {
						"Type": "RTID(eighties@ZombieTypes)"
					}, {
						"Type": "RTID(eighties_armor1@ZombieTypes)"
					} ]
			}
		}, {
			"aliases": [ "Wave3" ],
			"objclass": "SpawnZombiesJitteredWaveActionProps",
			"objdata": {
				"Zombies": [ {
						"Type": "RTID(iceage_dodo@ZombieTypes)"
					}, {
						"Row": "3",
						"Type": "RTID(dark_wizard@ZombieTypes)"
					} ]
			}
		}, {
			"aliases": [ "Wave4" ],
			"objclass": "SpawnZombiesJitteredWaveActionProps",
			"objdata": {
				"AdditionalPlantfood": 1,
				"Zombies": [ {
						"Type": "RTID(eighties@ZombieTypes)"
					}, {
						"Row": "4",
						"Type": "RTID(dark_wizard@ZombieTypes)"
					} ]
			}
		}, {
			"aliases": [ "Wave5" ],
			"objclass": "SpawnZombiesJitteredWaveActionProps",
			"objdata": {
				"Zombies": [ {
						"Type": "RTID(iceage_dodo@ZombieTypes)"
					}, {
						"Row": "5",
						"Type": "RTID(dark_wizard@ZombieTypes)"
					} ]
			}
		}, {
			"aliases": [ "Wave6" ],
			"objclass": "SpawnZombiesJitteredWaveActionProps",
			"objdata": {
				"AdditionalPlantfood": 1,
				"Zombies": [ {
						"Type": "RTID(eighties@ZombieTypes)"
					}, {
						"Row": "2",
						"Type": "RTID(dark_wizard@ZombieTypes)"
					} ]
			}
		}, {
			"aliases": [ "Wave7" ],
			"objclass": "SpawnZombiesJitteredWaveActionProps",
			"objdata": {
				"Zombies": [ {
						"Type": "RTID(iceage_dodo@ZombieTypes)"
					}, {
						"Row": "4",
						"Type": "RTID(dark_wizard@ZombieTypes)"
					} ]
			}
		}, {
			"aliases": [ "Wave8" ],
			"objclass": "SpawnZombiesJitteredWaveActionProps",
			"objdata": {
				"AdditionalPlantfood": 1,
				"Zombies": [ {
						"Type": "RTID(eighties@ZombieTypes)"
					}, {
						"Row": "5",
						"Type": "RTID(dark_wizard@ZombieTypes)"
					}, {
						"Row": "1",
						"Type": "RTID(dark_wizard@ZombieTypes)"
					} ]
			}
		}, {
			"aliases": [ "Wave9" ],
			"objclass": "SpawnZombiesJitteredWaveActionProps",
			"objdata": {
				"Zombies": [ {
						"Type": "RTID(iceage_dodo@ZombieTypes)"
					}, {
						"Row": "3",
						"Type": "RTID(dark_wizard@ZombieTypes)"
					} ]
			}
		}, {
			"aliases": [ "Gravestones" ],
			"objclass": "GravestoneProperties",
			"objdata": {}
		}, {
			"aliases": [ "NewWaves" ],
			"objclass": "WaveManagerModuleProperties",
			"objdata": {}
		}, {
			"aliases": [ "Wave10" ],
			"objclass": "SpawnZombiesJitteredWaveActionProps",
			"objdata": {
				"Zombies": [ {
						"Row": "5",
						"Type": "RTID(iceage_dodo@ZombieTypes)"
					}, {
						"Row": "4",
						"Type": "RTID(eighties@ZombieTypes)"
					}, {
						"Row": "3",
						"Type": "RTID(eighties@ZombieTypes)"
					}, {
						"Row": "2",
						"Type": "RTID(eighties@ZombieTypes)"
					}, {
						"Row": "1",
						"Type": "RTID(iceage_dodo@ZombieTypes)"
					} ]
			}
		}, {
			"aliases": [ "Wave1SpiderRainEvent0" ],
			"objclass": "SpiderRainZombieSpawnerProps",
			"objdata": {
				"ColumnEnd": "8",
				"ColumnStart": 7,
				"GroupSize": 2,
				"SpiderCount": 2,
				"SpiderZombieName": "leprachaun_imp",
				"TimeBeforeFullSpawn": 1,
				"TimeBetweenGroups": "0.2",
				"WaveStartMessage": "[WARNING_LEPRACHAUNS]",
				"ZombieFallTime": "1.5"
			}
		}, {
			"aliases": [ "Wave3SpiderRainEvent0" ],
			"objclass": "SpiderRainZombieSpawnerProps",
			"objdata": {
				"ColumnEnd": 7,
				"ColumnStart": 6,
				"GroupSize": 3,
				"SpiderCount": 3,
				"SpiderZombieName": "leprachaun_imp",
				"TimeBeforeFullSpawn": 1,
				"TimeBetweenGroups": "0.2",
				"WaveStartMessage": "[WARNING_LEPRACHAUNS]",
				"ZombieFallTime": "1.5"
			}
		}, {
			"aliases": [ "Wave5SpiderRainEvent0" ],
			"objclass": "SpiderRainZombieSpawnerProps",
			"objdata": {
				"ColumnEnd": 7,
				"ColumnStart": 5,
				"GroupSize": 4,
				"SpiderCount": 4,
				"SpiderZombieName": "leprachaun_imp",
				"TimeBeforeFullSpawn": "1",
				"TimeBetweenGroups": "0.2",
				"WaveStartMessage": "[WARNING_LEPRACHAUNS]",
				"ZombieFallTime": "1.5"
			}
		}, {
			"aliases": [ "Wave7SpiderRainEvent0" ],
			"objclass": "SpiderRainZombieSpawnerProps",
			"objdata": {
				"ColumnEnd": 6,
				"ColumnStart": "4",
				"GroupSize": 4,
				"SpiderCount": "4",
				"SpiderZombieName": "leprachaun_imp",
				"TimeBeforeFullSpawn": "1",
				"TimeBetweenGroups": "0.2",
				"WaveStartMessage": "[WARNING_LEPRACHAUNS]",
				"ZombieFallTime": "1.5"
			}
		}, {
			"aliases": [ "Wave9SpiderRainEvent0" ],
			"objclass": "SpiderRainZombieSpawnerProps",
			"objdata": {
				"ColumnEnd": 8,
				"ColumnStart": 4,
				"GroupSize": 3,
				"SpiderCount": 6,
				"SpiderZombieName": "leprachaun_imp",
				"TimeBeforeFullSpawn": "1",
				"TimeBetweenGroups": "0.2",
				"WaveStartMessage": "[WARNING_LEPRACHAUNS]",
				"ZombieFallTime": "1.5"
			}
		} ],
	"version": 1
}