{
	"#comment": "LOD 246",
	"objects": [ {
			"objclass": "LevelDefinition",
			"objdata": {
				"Description": "[PLAYERS_TRIP_TO_LOD]",
				"DraperPromo": "pvzheroes_postlaunch",
				"FirstIntroNarrative": "HEROES_EVENT_014_INTRO",
				"IsLevelOfTheDay": true,
				"Loot": "RTID(DefaultLoot@LevelModules)",
				"Modules": [ "RTID(LevelOfTheDayIntro@LevelModules)", "RTID(LevelOfTheDayModule@CurrentLevel)", "RTID(FrontLawnMowers@LevelModules)", "RTID(NewWaves@CurrentLevel)", "RTID(DefaultZombieWinCondition@LevelModules)", "RTID(Gravestones@CurrentLevel)", "RTID(ConveyorBelt@CurrentLevel)", "RTID(ZombiesDeadWinCon@LevelModules)", "RTID(Rails@CurrentLevel)" ],
				"Name": "[LOD_LEVEL_NAME]",
				"NormalPresentTable": "egypt_normal_01",
				"ShinyPresentTable": "egypt_shiny_01",
				"StageModule": "RTID(HeroesStage@LevelModules)",
				"VictoryModule": "RTID(LevelOfTheDayOutro@LevelModules)"
			}
		}, {
			"aliases": [ "Rails" ],
			"objclass": "RailcartProperties",
			"objdata": {
				"RailcartType": "railcart_cowboy",
				"Railcarts": [ {
						"Column": 1,
						"Row": 3
					}, {
						"Column": 2,
						"Row": 1
					} ],
				"Rails": [ {
						"Column": 1,
						"RowEnd": 4,
						"RowStart": 0
					}, {
						"Column": 2,
						"RowEnd": 4,
						"RowStart": 0
					} ]
			}
		}, {
			"aliases": [ "LevelOfTheDayModule" ],
			"objclass": "LevelOfTheDayModuleProperties",
			"objdata": {
				"FlagCount": 3,
				"PlantfoodToSpawnCount": 4,
				"PointIncrementPerWave": 75,
				"StartingPoints": 125,
				"WaveManagerProps": "RTID(WaveManagerProps@CurrentLevel)",
				"WavesPerFlag": 3,
				"ZombiePool": [ "RTID(dino_bully@ZombieTypes)", "RTID(tutorial_armor1@ZombieTypes)", "RTID(swashbuckler@ZombieTypes)", "RTID(future_jetpack@ZombieTypes)", "RTID(lostcity_relichunter@ZombieTypes)" ]
			}
		}, {
			"aliases": [ "WaveManagerProps" ],
			"objclass": "WaveManagerProperties",
			"objdata": {
				"MaxNextWaveHealthPercentage": 0.9,
				"MinNextWaveHealthPercentage": 0.8,
				"Waves": [ [ "RTID(Wave1@CurrentLevel)" ], [ "RTID(Wave2@CurrentLevel)" ], [ "RTID(Wave3@CurrentLevel)" ], [ "RTID(Wave4@CurrentLevel)" ], [ "RTID(Wave5@CurrentLevel)" ], [ "RTID(Wave6@CurrentLevel)" ], [ "RTID(Wave7@CurrentLevel)" ], [ "RTID(Wave8@CurrentLevel)" ], [ "RTID(Wave9@CurrentLevel)" ], [ "RTID(Wave10@CurrentLevel)" ], [ "RTID(Wave11@CurrentLevel)" ], [ "RTID(Wave12@CurrentLevel)" ] ]
			}
		}, {
			"aliases": [ "Wave1" ],
			"objclass": "SpawnZombiesJitteredWaveActionProps",
			"objdata": {
				"Zombies": [ {
						"Type": "RTID(tutorial@ZombieTypes)"
					} ]
			}
		}, {
			"aliases": [ "Wave2" ],
			"objclass": "SpawnZombiesJitteredWaveActionProps",
			"objdata": {
				"Zombies": [ {
						"Type": "RTID(tutorial@ZombieTypes)"
					}, {
						"Type": "RTID(swashbuckler@ZombieTypes)"
					} ]
			}
		}, {
			"aliases": [ "Wave3" ],
			"objclass": "SpawnZombiesJitteredWaveActionProps",
			"objdata": {
				"Zombies": [ {
						"Type": "RTID(future_jetpack@ZombieTypes)"
					} ]
			}
		}, {
			"aliases": [ "Wave4" ],
			"objclass": "SpawnZombiesJitteredWaveActionProps",
			"objdata": {
				"Zombies": [ {
						"Type": "RTID(tutorial@ZombieTypes)"
					}, {
						"Type": "RTID(swashbuckler@ZombieTypes)"
					}, {
						"Type": "RTID(modern_allstar@ZombieTypes)"
					} ]
			}
		}, {
			"aliases": [ "Wave5" ],
			"objclass": "SpawnZombiesJitteredWaveActionProps",
			"objdata": {
				"Zombies": [ {
						"Type": "RTID(future_jetpack@ZombieTypes)"
					}, {
						"Type": "RTID(swashbuckler@ZombieTypes)"
					} ]
			}
		}, {
			"aliases": [ "Wave6" ],
			"objclass": "SpawnZombiesJitteredWaveActionProps",
			"objdata": {
				"Zombies": [ {
						"Type": "RTID(lostcity_relichunter@ZombieTypes)"
					} ]
			}
		}, {
			"aliases": [ "Wave7" ],
			"objclass": "SpawnZombiesJitteredWaveActionProps",
			"objdata": {
				"Zombies": [ {
						"Type": "RTID(modern_allstar@ZombieTypes)"
					}, {
						"Type": "RTID(future_jetpack@ZombieTypes)"
					} ]
			}
		}, {
			"aliases": [ "Wave8" ],
			"objclass": "SpawnZombiesJitteredWaveActionProps",
			"objdata": {
				"Zombies": [ {
						"Type": "RTID(lostcity_relichunter@ZombieTypes)"
					}, {
						"Type": "RTID(lostcity_relichunter@ZombieTypes)"
					} ]
			}
		}, {
			"aliases": [ "Wave9" ],
			"objclass": "SpawnZombiesJitteredWaveActionProps",
			"objdata": {
				"Zombies": [ {
						"Type": "RTID(modern_allstar@ZombieTypes)"
					}, {
						"Type": "RTID(future_jetpack@ZombieTypes)"
					} ]
			}
		}, {
			"aliases": [ "Gravestones" ],
			"objclass": "GravestoneProperties",
			"objdata": {}
		}, {
			"aliases": [ "NewWaves" ],
			"objclass": "WaveManagerModuleProperties",
			"objdata": {}
		}, {
			"aliases": [ "ConveyorBelt" ],
			"objclass": "ConveyorSeedBankProperties",
			"objdata": {
				"DropDelayConditions": [ {
						"Delay": 3,
						"MaxPackets": 0
					}, {
						"Delay": 6,
						"MaxPackets": 2
					}, {
						"Delay": 9,
						"MaxPackets": 4
					}, {
						"Delay": 12,
						"MaxPackets": 8
					} ],
				"InitialPlantList": [ {
						"MaxCount": 10,
						"MaxWeightFactor": 0.5,
						"MinCount": 3,
						"MinWeightFactor": 2,
						"PlantType": "chomper",
						"Weight": 100
					}, {
						"PlantType": "peapod",
						"Weight": 50
					}, {
						"MaxCount": 5,
						"MaxWeightFactor": 0,
						"MinCount": 2,
						"MinWeightFactor": 2,
						"PlantType": "primalwallnut",
						"Weight": 100
					} ],
				"SpeedConditions": [ {
						"MaxPackets": 0,
						"Speed": 100
					} ]
			}
		}, {
			"aliases": [ "Wave10" ],
			"objclass": "SpawnZombiesJitteredWaveActionProps",
			"objdata": {
				"Zombies": [ {
						"Type": "RTID(lostcity_relichunter@ZombieTypes)"
					}, {
						"Type": "RTID(lostcity_relichunter@ZombieTypes)"
					} ]
			}
		}, {
			"aliases": [ "Wave11" ],
			"objclass": "SpawnZombiesJitteredWaveActionProps",
			"objdata": {
				"Zombies": [ {
						"Type": "RTID(modern_allstar@ZombieTypes)"
					}, {
						"Type": "RTID(future_jetpack@ZombieTypes)"
					} ]
			}
		}, {
			"aliases": [ "Wave12" ],
			"objclass": "SpawnZombiesJitteredWaveActionProps",
			"objdata": {
				"Zombies": [ {
						"Type": "RTID(lostcity_relichunter@ZombieTypes)"
					}, {
						"Type": "RTID(lostcity_relichunter@ZombieTypes)"
					}, {
						"Type": "RTID(modern_allstar@ZombieTypes)"
					}, {
						"Type": "RTID(modern_allstar@ZombieTypes)"
					} ]
			}
		} ],
	"version": 1
}