{
	"#comment": "LOD template level. Delete unnecessary Modules (e.g. Challenge, Frozen)",
	"objects": [ {
			"objclass": "LevelDefinition",
			"objdata": {
				"Description": "[PLAYERS_TRIP_TO_LOD]",
				"DraperPromo": "applemortar",
				"IsLevelOfTheDay": true,
				"Loot": "RTID(DefaultLoot@LevelModules)",
				"Modules": [ "RTID(LevelOfTheDayIntro@LevelModules)", "RTID(LevelOfTheDayModule@CurrentLevel)", "RTID(FrontLawnMowers@LevelModules)", "RTID(NewWaves@CurrentLevel)", "RTID(CowboyRails@CurrentLevel)", "RTID(DefaultZombieWinCondition@LevelModules)", "RTID(Gravestones@CurrentLevel)", "RTID(ChallengeModule@CurrentLevel)", "RTID(ConveyorBelt@CurrentLevel)", "RTID(ZombiesDeadWinCon@LevelModules)" ],
				"Name": "[LOD_LEVEL_NAME]",
				"NormalPresentTable": "egypt_normal_01",
				"ShinyPresentTable": "egypt_shiny_01",
				"StageModule": "RTID(ModernStage@LevelModules)",
				"VictoryModule": "RTID(LevelOfTheDayOutro@LevelModules)"
			}
		}, {
			"aliases": [ "LevelOfTheDayModule" ],
			"objclass": "LevelOfTheDayModuleProperties",
			"objdata": {
				"FlagCount": 3,
				"PlantfoodToSpawnCount": 3,
				"PointIncrementPerWave": 10,
				"StartingPoints": 100,
				"WaveManagerProps": "RTID(WaveManagerProps@CurrentLevel)",
				"WavesPerFlag": 4,
				"ZombiePool": [ "RTID(pirate_gargantuar@ZombieTypes)", "RTID(tutorial@ZombieTypes)", "RTID(tutorial_armor1@ZombieTypes)", "RTID(modern_newspaper@ZombieTypes)", "RTID(tutorial_armor2@ZombieTypes)", "RTID(modern_balloon@ZombieTypes)", "RTID(modern_allstar@ZombieTypes)" ]
			}
		}, {
			"aliases": [ "ChallengeModule" ],
			"objclass": "StarChallengeModuleProperties",
			"objdata": {
				"Challenges": [ [ "RTID(ZombieDistance@CurrentLevel)" ] ],
				"ChallengesAlwaysAvailable": true
			}
		}, {
			"aliases": [ "ZombieDistance" ],
			"objclass": "StarChallengeZombieDistanceProps",
			"objdata": {
				"TargetDistance": 5.5
			}
		}, {
			"aliases": [ "CowboyRails" ],
			"objclass": "RailcartProperties",
			"objdata": {
				"RailcartType": "railcart_cowboy",
				"Railcarts": [ {
						"Column": 4,
						"Row": 0
					} ],
				"Rails": [ {
						"Column": 4,
						"RowEnd": 4,
						"RowStart": 0
					} ]
			}
		}, {
			"aliases": [ "WaveManagerProps" ],
			"objclass": "WaveManagerProperties",
			"objdata": {
				"FlagWaveInterval": 4,
				"WaveCount": 12,
				"WaveSpendingPointIncrement": 200,
				"WaveSpendingPoints": 200,
				"Waves": [ [ "RTID(Wave1@CurrentLevel)" ], [ "RTID(Wave2@CurrentLevel)" ], [ "RTID(Wave3@CurrentLevel)", "RTID(Wave3ModConveyor0@CurrentLevel)" ], [ "RTID(Wave4@CurrentLevel)" ], [ "RTID(Wave5@CurrentLevel)" ], [ "RTID(Wave6@CurrentLevel)", "RTID(Wave6ModConveyor0@CurrentLevel)" ], [ "RTID(Wave7@CurrentLevel)" ], [ "RTID(Wave8@CurrentLevel)" ], [ "RTID(Wave9@CurrentLevel)" ], [ "RTID(Wave10@CurrentLevel)" ], [ "RTID(Wave11@CurrentLevel)" ], [ "RTID(Wave12@CurrentLevel)" ] ]
			}
		}, {
			"aliases": [ "Wave1" ],
			"objclass": "SpawnZombiesJitteredWaveActionProps",
			"objdata": {
				"AdditionalPlantfood": 0,
				"Zombies": [ {
						"Row": "4",
						"Type": "RTID(modern_superfanimp@ZombieTypes)"
					} ]
			}
		}, {
			"aliases": [ "Wave2" ],
			"objclass": "SpawnZombiesJitteredWaveActionProps",
			"objdata": {
				"Zombies": [ {
						"Row": "3",
						"Type": "RTID(modern_balloon@ZombieTypes)"
					} ]
			}
		}, {
			"aliases": [ "Wave3" ],
			"objclass": "SpawnZombiesJitteredWaveActionProps",
			"objdata": {
				"AdditionalPlantfood": 1,
				"Zombies": [ {
						"Row": "2",
						"Type": "RTID(modern_newspaper@ZombieTypes)"
					} ]
			}
		}, {
			"aliases": [ "Wave4" ],
			"objclass": "SpawnZombiesJitteredWaveActionProps",
			"objdata": {
				"Zombies": [ {
						"Row": "5",
						"Type": "RTID(tutorial_armor2@ZombieTypes)"
					}, {
						"Row": "1",
						"Type": "RTID(tutorial_armor2@ZombieTypes)"
					}, {
						"Row": "4",
						"Type": "RTID(modern_superfanimp@ZombieTypes)"
					}, {
						"Row": "2",
						"Type": "RTID(modern_allstar@ZombieTypes)"
					} ]
			}
		}, {
			"aliases": [ "Wave5" ],
			"objclass": "SpawnZombiesJitteredWaveActionProps",
			"objdata": {
				"AdditionalPlantfood": 0,
				"Zombies": [ {
						"Row": "3",
						"Type": "RTID(modern_allstar@ZombieTypes)"
					} ]
			}
		}, {
			"aliases": [ "Wave6" ],
			"objclass": "SpawnZombiesJitteredWaveActionProps",
			"objdata": {
				"Zombies": [ {
						"Row": "5",
						"Type": "RTID(tutorial@ZombieTypes)"
					}, {
						"Row": "4",
						"Type": "RTID(tutorial@ZombieTypes)"
					}, {
						"Row": "3",
						"Type": "RTID(tutorial@ZombieTypes)"
					}, {
						"Row": "2",
						"Type": "RTID(tutorial@ZombieTypes)"
					}, {
						"Row": "1",
						"Type": "RTID(tutorial@ZombieTypes)"
					}, {
						"Row": "1",
						"Type": "RTID(modern_superfanimp@ZombieTypes)"
					}, {
						"Row": "2",
						"Type": "RTID(modern_superfanimp@ZombieTypes)"
					}, {
						"Row": "3",
						"Type": "RTID(modern_superfanimp@ZombieTypes)"
					}, {
						"Row": "4",
						"Type": "RTID(modern_superfanimp@ZombieTypes)"
					}, {
						"Row": "5",
						"Type": "RTID(modern_superfanimp@ZombieTypes)"
					} ]
			}
		}, {
			"aliases": [ "Wave7" ],
			"objclass": "SpawnZombiesJitteredWaveActionProps",
			"objdata": {
				"AdditionalPlantfood": 1,
				"Zombies": [ {
						"Row": "3",
						"Type": "RTID(modern_balloon@ZombieTypes)"
					}, {
						"Row": "2",
						"Type": "RTID(modern_balloon@ZombieTypes)"
					}, {
						"Row": "4",
						"Type": "RTID(modern_balloon@ZombieTypes)"
					}, {
						"Row": "1",
						"Type": "RTID(tutorial@ZombieTypes)"
					}, {
						"Row": "5",
						"Type": "RTID(tutorial@ZombieTypes)"
					} ]
			}
		}, {
			"aliases": [ "Wave8" ],
			"objclass": "SpawnZombiesJitteredWaveActionProps",
			"objdata": {
				"AdditionalPlantfood": 0,
				"Zombies": [ {
						"Row": "3",
						"Type": "RTID(cowboy_gargantuar@ZombieTypes)"
					}, {
						"Row": "2",
						"Type": "RTID(prospector@ZombieTypes)"
					}, {
						"Row": "4",
						"Type": "RTID(prospector@ZombieTypes)"
					}, {
						"Row": "1",
						"Type": "RTID(tutorial_armor2@ZombieTypes)"
					}, {
						"Row": "1",
						"Type": "RTID(modern_balloon@ZombieTypes)"
					}, {
						"Row": "5",
						"Type": "RTID(tutorial_armor2@ZombieTypes)"
					}, {
						"Row": "5",
						"Type": "RTID(modern_balloon@ZombieTypes)"
					} ]
			}
		}, {
			"aliases": [ "Wave9" ],
			"objclass": "SpawnZombiesJitteredWaveActionProps",
			"objdata": {
				"AdditionalPlantfood": 0,
				"Zombies": [ {
						"Row": "5",
						"Type": "RTID(prospector@ZombieTypes)"
					}, {
						"Row": "5",
						"Type": "RTID(modern_newspaper@ZombieTypes)"
					}, {
						"Row": "3",
						"Type": "RTID(tutorial_armor1@ZombieTypes)"
					}, {
						"Row": "1",
						"Type": "RTID(prospector@ZombieTypes)"
					}, {
						"Row": "1",
						"Type": "RTID(modern_newspaper@ZombieTypes)"
					} ]
			}
		}, {
			"aliases": [ "Wave10" ],
			"objclass": "SpawnZombiesJitteredWaveActionProps",
			"objdata": {
				"Zombies": [ {
						"Row": "4",
						"Type": "RTID(pirate_gargantuar@ZombieTypes)"
					} ]
			}
		}, {
			"aliases": [ "Wave11" ],
			"objclass": "SpawnZombiesJitteredWaveActionProps",
			"objdata": {
				"Zombies": [ {
						"Row": "3",
						"Type": "RTID(modern_superfanimp@ZombieTypes)"
					}, {
						"Row": "3",
						"Type": "RTID(modern_allstar@ZombieTypes)"
					}, {
						"Row": "3",
						"Type": "RTID(prospector@ZombieTypes)"
					}, {
						"Row": "4",
						"Type": "RTID(modern_balloon@ZombieTypes)"
					}, {
						"Row": "2",
						"Type": "RTID(modern_balloon@ZombieTypes)"
					} ]
			}
		}, {
			"aliases": [ "Wave12" ],
			"objclass": "SpawnZombiesJitteredWaveActionProps",
			"objdata": {
				"AdditionalPlantfood": 0,
				"Zombies": [ {
						"Row": "3",
						"Type": "RTID(modern_allstar@ZombieTypes)"
					}, {
						"Row": "2",
						"Type": "RTID(modern_newspaper@ZombieTypes)"
					}, {
						"Row": "4",
						"Type": "RTID(modern_newspaper@ZombieTypes)"
					}, {
						"Row": "1",
						"Type": "RTID(cowboy_gargantuar@ZombieTypes)"
					}, {
						"Row": "5",
						"Type": "RTID(pirate_gargantuar@ZombieTypes)"
					} ]
			}
		}, {
			"aliases": [ "Gravestones" ],
			"objclass": "GravestoneProperties",
			"objdata": {}
		}, {
			"aliases": [ "NewWaves" ],
			"objclass": "WaveManagerModuleProperties",
			"objdata": {
				"DynamicZombies": [ {}, {}, {}, {}, {}, {}, {} ]
			}
		}, {
			"aliases": [ "ConveyorBelt" ],
			"objclass": "ConveyorSeedBankProperties",
			"objdata": {
				"DropDelayConditions": [ {
						"Delay": 3,
						"MaxPackets": 0
					}, {
						"Delay": 6,
						"MaxPackets": 2
					}, {
						"Delay": 9,
						"MaxPackets": 4
					}, {
						"Delay": 12,
						"MaxPackets": 8
					} ],
				"InitialPlantList": [ {
						"PlantType": "applemortar",
						"Weight": 10
					}, {
						"PlantType": "holonut",
						"Weight": 10
					} ],
				"SpeedConditions": [ {
						"MaxPackets": 0,
						"Speed": 100
					} ]
			}
		}, {
			"aliases": [ "Wave3ModConveyor0" ],
			"objclass": "ModifyConveyorWaveActionProps",
			"objdata": {
				"Add": [ {
						"Type": "RTID(fumeshroom@PlantTypes)",
						"Weight": 10
					} ],
				"Remove": []
			}
		}, {
			"aliases": [ "Wave6ModConveyor0" ],
			"objclass": "ModifyConveyorWaveActionProps",
			"objdata": {
				"Add": [ {
						"Type": "RTID(splitpea@PlantTypes)",
						"Weight": 10
					} ],
				"Remove": []
			}
		} ],
	"version": 1
}