{
	"#comment": "LoD Starfruit + Springening",
	"objects": [ {
			"objclass": "LevelDefinition",
			"objdata": {
				"Description": "[PLAYERS_TRIP_TO_LOD]",
				"DraperPromo": "none",
				"IsLevelOfTheDay": true,
				"Loot": "RTID(DefaultLoot@LevelModules)",
				"Modules": [ "RTID(LevelOfTheDayIntro@LevelModules)", "RTID(LevelOfTheDayModule@CurrentLevel)", "RTID(FrontLawnMowers@LevelModules)", "RTID(NewWaves@CurrentLevel)", "RTID(DefaultZombieWinCondition@LevelModules)", "RTID(Gravestones@CurrentLevel)", "RTID(CowboyRails@CurrentLevel)", "RTID(ConveyorBelt@CurrentLevel)", "RTID(ZombiesDeadWinCon@LevelModules)" ],
				"Name": "[LOD_LEVEL_NAME]",
				"NormalPresentTable": "egypt_normal_01",
				"ShinyPresentTable": "egypt_shiny_01",
				"StageModule": "RTID(FrontLawnStage@LevelModules)",
				"VictoryModule": "RTID(LevelOfTheDayOutro@LevelModules)"
			}
		}, {
			"aliases": [ "CowboyRails" ],
			"objclass": "RailcartProperties",
			"objdata": {
				"Railcarts": [],
				"Rails": []
			}
		}, {
			"aliases": [ "WaveManagerProps" ],
			"objclass": "WaveManagerProperties",
			"objdata": {
				"FlagWaveInterval": 3,
				"MaxNextWaveHealthPercentage": 0.1,
				"MinNextWaveHealthPercentage": 0.1,
				"WaveCount": 9,
				"Waves": [ [ "RTID(Wave1@CurrentLevel)" ], [ "RTID(Wave2@CurrentLevel)" ], [ "RTID(Wave3@CurrentLevel)" ], [ "RTID(Wave4@CurrentLevel)" ], [ "RTID(Wave5@CurrentLevel)" ], [ "RTID(Wave6@CurrentLevel)" ], [ "RTID(Wave7@CurrentLevel)" ], [ "RTID(Wave8@CurrentLevel)" ], [ "RTID(Wave9@CurrentLevel)" ] ]
			}
		}, {
			"aliases": [ "Wave1" ],
			"objclass": "SpawnZombiesJitteredWaveActionProps",
			"objdata": {
				"AdditionalPlantfood": 1,
				"Zombies": [ {
						"Type": "RTID(dark@ZombieTypes)"
					}, {
						"Type": "RTID(dark@ZombieTypes)"
					} ]
			}
		}, {
			"aliases": [ "Wave2" ],
			"objclass": "SpawnZombiesJitteredWaveActionProps",
			"objdata": {
				"AdditionalPlantfood": 0,
				"Zombies": [ {
						"Type": "RTID(dark@ZombieTypes)"
					}, {
						"Type": "RTID(dark_imp@ZombieTypes)"
					}, {
						"Type": "RTID(dark_armor1@ZombieTypes)"
					} ]
			}
		}, {
			"aliases": [ "Wave3" ],
			"objclass": "SpawnZombiesJitteredWaveActionProps",
			"objdata": {
				"AdditionalPlantfood": 1,
				"Zombies": [ {
						"Type": "RTID(dark_armor2@ZombieTypes)"
					}, {
						"Type": "RTID(dark_armor1@ZombieTypes)"
					}, {
						"Type": "RTID(dark@ZombieTypes)"
					}, {
						"Type": "RTID(dark_imp@ZombieTypes)"
					}, {
						"Type": "RTID(dark_armor1@ZombieTypes)"
					}, {
						"Type": "RTID(dark@ZombieTypes)"
					} ]
			}
		}, {
			"aliases": [ "Wave4" ],
			"objclass": "SpawnZombiesJitteredWaveActionProps",
			"objdata": {
				"AdditionalPlantfood": 0,
				"Zombies": [ {
						"Row": "1",
						"Type": "RTID(dark_juggler@ZombieTypes)"
					}, {
						"Row": "2",
						"Type": "RTID(dark_juggler@ZombieTypes)"
					}, {
						"Row": "3",
						"Type": "RTID(dark_juggler@ZombieTypes)"
					}, {
						"Row": "4",
						"Type": "RTID(dark_juggler@ZombieTypes)"
					}, {
						"Row": "5",
						"Type": "RTID(dark_juggler@ZombieTypes)"
					} ]
			}
		}, {
			"aliases": [ "Wave5" ],
			"objclass": "SpawnZombiesJitteredWaveActionProps",
			"objdata": {
				"AdditionalPlantfood": 1,
				"Zombies": [ {
						"Row": "5",
						"Type": "RTID(dark_armor2@ZombieTypes)"
					}, {
						"Row": "4",
						"Type": "RTID(dark_armor2@ZombieTypes)"
					}, {
						"Row": "3",
						"Type": "RTID(dark_armor2@ZombieTypes)"
					}, {
						"Row": "2",
						"Type": "RTID(dark_armor2@ZombieTypes)"
					}, {
						"Row": "1",
						"Type": "RTID(dark_armor2@ZombieTypes)"
					} ]
			}
		}, {
			"aliases": [ "Wave6" ],
			"objclass": "SpawnZombiesJitteredWaveActionProps",
			"objdata": {
				"AdditionalPlantfood": 0,
				"Zombies": [ {
						"Row": "1",
						"Type": "RTID(dark_juggler@ZombieTypes)"
					}, {
						"Row": "2",
						"Type": "RTID(dark_juggler@ZombieTypes)"
					}, {
						"Row": "3",
						"Type": "RTID(dark_juggler@ZombieTypes)"
					}, {
						"Row": "4",
						"Type": "RTID(dark_juggler@ZombieTypes)"
					}, {
						"Row": "5",
						"Type": "RTID(dark_juggler@ZombieTypes)"
					}, {
						"Type": "RTID(dark_juggler@ZombieTypes)"
					}, {
						"Type": "RTID(dark_juggler@ZombieTypes)"
					}, {
						"Type": "RTID(dark_juggler@ZombieTypes)"
					} ]
			}
		}, {
			"aliases": [ "Wave7" ],
			"objclass": "SpawnZombiesJitteredWaveActionProps",
			"objdata": {
				"AdditionalPlantfood": 1,
				"Zombies": [ {
						"Row": "1",
						"Type": "RTID(dark_armor3@ZombieTypes)"
					}, {
						"Row": "2",
						"Type": "RTID(dark_armor3@ZombieTypes)"
					}, {
						"Row": "3",
						"Type": "RTID(dark_armor3@ZombieTypes)"
					}, {
						"Row": "4",
						"Type": "RTID(dark_armor3@ZombieTypes)"
					}, {
						"Row": "5",
						"Type": "RTID(dark_armor3@ZombieTypes)"
					} ]
			}
		}, {
			"aliases": [ "Wave8" ],
			"objclass": "SpawnZombiesJitteredWaveActionProps",
			"objdata": {
				"AdditionalPlantfood": 0,
				"Zombies": [ {
						"Row": "1",
						"Type": "RTID(dark_juggler@ZombieTypes)"
					}, {
						"Row": "2",
						"Type": "RTID(dark_juggler@ZombieTypes)"
					}, {
						"Row": "3",
						"Type": "RTID(dark_juggler@ZombieTypes)"
					}, {
						"Row": "4",
						"Type": "RTID(dark_juggler@ZombieTypes)"
					}, {
						"Row": "5",
						"Type": "RTID(dark_juggler@ZombieTypes)"
					}, {
						"Type": "RTID(dark_juggler@ZombieTypes)"
					}, {
						"Type": "RTID(dark_juggler@ZombieTypes)"
					} ]
			}
		}, {
			"aliases": [ "Wave9" ],
			"objclass": "SpawnZombiesJitteredWaveActionProps",
			"objdata": {
				"AdditionalPlantfood": 1,
				"Zombies": [ {
						"Row": "1",
						"Type": "RTID(west_bull@ZombieTypes)"
					}, {
						"Row": "2",
						"Type": "RTID(west_bull@ZombieTypes)"
					}, {
						"Row": "3",
						"Type": "RTID(west_bull@ZombieTypes)"
					}, {
						"Row": "4",
						"Type": "RTID(west_bull@ZombieTypes)"
					}, {
						"Row": "5",
						"Type": "RTID(west_bull@ZombieTypes)"
					} ]
			}
		}, {
			"aliases": [ "LevelOfTheDayModule" ],
			"objclass": "LevelOfTheDayModuleProperties",
			"objdata": {
				"FlagCount": 3,
				"PlantfoodToSpawnCount": 0,
				"PointIncrementPerWave": 0,
				"StartingPoints": 0,
				"WaveManagerProps": "RTID(WaveManagerProps@CurrentLevel)",
				"WavesPerFlag": 3,
				"ZombiePool": [ "RTID(dark@ZombieTypes)", "RTID(dark_armor1@ZombieTypes)", "RTID(dark_armor2@ZombieTypes)" ]
			}
		}, {
			"aliases": [ "Gravestones" ],
			"objclass": "GravestoneProperties",
			"objdata": {}
		}, {
			"aliases": [ "NewWaves" ],
			"objclass": "WaveManagerModuleProperties",
			"objdata": {}
		}, {
			"aliases": [ "ConveyorBelt" ],
			"objclass": "ConveyorSeedBankProperties",
			"objdata": {
				"DropDelayConditions": [ {
						"Delay": 6,
						"MaxPackets": 0
					}, {
						"Delay": 8,
						"MaxPackets": 2
					}, {
						"Delay": 10,
						"MaxPackets": 4
					}, {
						"Delay": 12,
						"MaxPackets": 8
					} ],
				"InitialPlantList": [ {
						"MaxCount": 10,
						"MaxWeightFactor": 0,
						"PlantType": "fumeshroom",
						"Weight": 50
					}, {
						"PlantType": "peapod",
						"Weight": 100
					}, {
						"MaxCount": 5,
						"MaxWeightFactor": 0,
						"PlantType": "wallnut",
						"Weight": 50
					} ],
				"SpeedConditions": [ {
						"MaxPackets": 0,
						"Speed": 100
					} ]
			}
		}, {
			"aliases": [ "Wave3Event" ],
			"objclass": "StormZombieSpawnerProps",
			"objdata": {
				"ColumnEnd": 6,
				"ColumnStart": 4,
				"GroupSize": 2,
				"TimeBetweenGroups": 3,
				"Waves": "",
				"Type": "sandstorm",
				"Zombies": []
			}
		}, {
			"aliases": [ "Wave9Event" ],
			"objclass": "StormZombieSpawnerProps",
			"objdata": {
				"ColumnEnd": 5,
				"ColumnStart": 4,
				"GroupSize": 3,
				"TimeBetweenGroups": 2,
				"Waves": "",
				"Type": "sandstorm",
				"Zombies": []
			}
		}, {
			"aliases": [ "Wave6Event" ],
			"objclass": "StormZombieSpawnerProps",
			"objdata": {
				"ColumnEnd": 6,
				"ColumnStart": 4,
				"GroupSize": 2,
				"TimeBetweenGroups": 3,
				"Waves": "",
				"Type": "sandstorm",
				"Zombies": []
			}
		}, {
			"aliases": [ "Wave3SandstormEvent0" ],
			"objclass": "StormZombieSpawnerProps",
			"objdata": {
				"ColumnEnd": 6,
				"ColumnStart": 4,
				"GroupSize": 2,
				"TimeBetweenGroups": 3,
				"Waves": "",
				"Type": "sandstorm",
				"Zombies": []
			}
		}, {
			"aliases": [ "Wave6SandstormEvent0" ],
			"objclass": "StormZombieSpawnerProps",
			"objdata": {
				"ColumnEnd": 6,
				"ColumnStart": 4,
				"GroupSize": 2,
				"TimeBetweenGroups": 3,
				"Waves": "",
				"Type": "sandstorm",
				"Zombies": []
			}
		}, {
			"aliases": [ "Wave9SandstormEvent0" ],
			"objclass": "StormZombieSpawnerProps",
			"objdata": {
				"ColumnEnd": 5,
				"ColumnStart": 4,
				"GroupSize": 3,
				"TimeBetweenGroups": 2,
				"Waves": "",
				"Type": "sandstorm",
				"Zombies": []
			}
		} ],
	"version": 1
}