{
	"#comment": "LOD 280 - Beghouled - Kiwibeast",
	"objects": [ {
			"objclass": "LevelDefinition",
			"objdata": {
				"Description": "[PLAYERS_TRIP_TO_LOD]",
				"DraperPromo": "kiwibeast",
				"IsLevelOfTheDay": true,
				"SuppressSunSpawn": true,
				"Loot": "RTID(DefaultLoot@LevelModules)",
				"LevelNumber": 8,
				"LevelPowerupSet": "LevelPowerupsBeghouled",
				"Modules": [ "RTID(LevelOfTheDayModule@CurrentLevel)", "RTID(BeghouledIntro@LevelModules)", "RTID(DefaultZombieWinCondition@LevelModules)", "RTID(RandomSpawner@CurrentLevel)", "RTID(BeghouledSeedBank@CurrentLevel)", "RTID(BeghouledArcade@LevelModules)", "RTID(BeghouledProps@.)" ],
				"MusicType": "MiniGame_B",
				"Name": "[MODE_NAME_BEGHOULED]",
				"NormalPresentTable": "egypt_normal_01",
				"ShinyPresentTable": "egypt_shiny_01",
				"StageModule": "RTID(BeachStage@LevelModules)",
				"VictoryModule": "RTID(LevelOfTheDayOutro@LevelModules)"
			}
		}, {
			"aliases": [ "LevelOfTheDayModule" ],
			"objclass": "LevelOfTheDayModuleProperties",
			"objdata": {
				"FlagCount": 0,
				"PlantfoodToSpawnCount": 0,
				"PointIncrementPerWave": 0,
				"StartingPoints": 0,
				"WavesPerFlag": 0,
				"ZombiePool": []
			}
		}, {
			"objclass": "BeghouledSeedBankProperties",
			"aliases": [ "BeghouledSeedBank" ],
			"objdata": {
				"PresetPlantList": [ {
						"PlantType": "dusklobber",
						"Level": -1
					}, {
						"PlantType": "melonpult",
						"Level": -1
					}, {
						"PlantType": "homingthistle",
						"Level": -1
					} ],
				"BeghouledUpgradeList": [ "wintermelon" ],
				"SelectionMethod": "beghouled"
			}
		}, {
			"objclass": "BeghouledPresetProperties",
			"aliases": [ "BeghouledProps" ],
			"objdata": {
				"MatchesToWin": 125,
				"InitialPlants": [ "bowlingbulb", "kiwibeast", "cabbagepult", "cactus" ],
				"UpgradeMap": [ {
						"BasePlant": "bowlingbulb",
						"UpgradedPlant": "dusklobber"
					}, {
						"BasePlant": "cabbagepult",
						"UpgradedPlant": "melonpult"
					}, {
						"BasePlant": "melonpult",
						"UpgradedPlant": "wintermelon"
					}, {
						"BasePlant": "cactus",
						"UpgradedPlant": "homingthistle"
					} ]
			}
		}, {
			"objclass": "BeghouledZombieSpawnerProperties",
			"aliases": [ "RandomSpawner" ],
			"objdata": {
				"MatchCountsToStageAdvance": [ {
						"MatchCount": 25,
						"StageNumber": 1
					}, {
						"MatchCount": 60,
						"StageNumber": 2
					}, {
						"MatchCount": 100,
						"StageNumber": 3
					} ],
				"Stages": [ {
						"#comment": "Stage 0",
						"Types": [ {
								"ZombieType": "beach"
							}, {
								"ZombieType": "beach_fem"
							}, {
								"ZombieType": "beach_imp"
							} ],
						"SpawnDelay": 2.0
					}, {
						"#comment": "Stage 1",
						"Types": [ {
								"ZombieType": "beach"
							}, {
								"ZombieType": "beach_imp"
							}, {
								"ZombieType": "beach_fem_armor1"
							} ],
						"SpawnDelay": 2.0
					}, {
						"#comment": "Stage 2",
						"Types": [ {
								"ZombieType": "beach_fem"
							}, {
								"ZombieType": "beach_snorkel"
							}, {
								"ZombieType": "beach_fem_armor1"
							}, {
								"ZombieType": "beach_armor1"
							} ],
						"SpawnDelay": 1.9
					}, {
						"#comment": "Stage 3",
						"Types": [ {
								"ZombieType": "beach"
							}, {
								"ZombieType": "beach_surfer"
							}, {
								"ZombieType": "beach_fem_armor2"
							} ],
						"SpawnDelay": 1.8
					} ]
			}
		} ],
	"version": 1
}