{
	"#comment": "Level Of The Day Default",
	"objects": [ {
			"objclass": "LevelDefinition",
			"objdata": {
				"Description": "[PLAYERS_TRIP_TO_LOD]",
				"DraperPromo": "torchwood",
				"IsLevelOfTheDay": "true",
				"Loot": "RTID(DefaultLoot@LevelModules)",
				"Modules": [ "RTID(LevelOfTheDayIntro@LevelModules)", "RTID(LevelOfTheDayModule@CurrentLevel)", "RTID(FrontLawnMowers@LevelModules)", "RTID(NewWaves@CurrentLevel)", "RTID(DefaultZombieWinCondition@LevelModules)", "RTID(Gravestones@CurrentLevel)", "RTID(ConveyorBelt@CurrentLevel)", "RTID(ZombiesDeadWinCon@LevelModules)" ],
				"Name": "[LOD_LEVEL_NAME]",
				"StageModule": "RTID(FrontLawnStage@LevelModules)",
				"VictoryModule": "RTID(LevelOfTheDayOutro@LevelModules)"
			}
		}, {
			"aliases": [ "WaveManagerProps" ],
			"objclass": "WaveManagerProperties",
			"objdata": {
				"FlagWaveInterval": 3,
				"MaxNextWaveHealthPercentage": 0.9,
				"MinNextWaveHealthPercentage": 0.8,
				"WaveCount": 9,
				"WaveSpendingPointIncrement": 200,
				"WaveSpendingPoints": 200,
				"Waves": [ [ "RTID(Wave1@CurrentLevel)" ], [ "RTID(Wave2@CurrentLevel)" ], [ "RTID(Wave3@CurrentLevel)", "RTID(Wave3Event@CurrentLevel)" ], [ "RTID(Wave4@CurrentLevel)" ], [ "RTID(Wave5@CurrentLevel)", "RTID(Wave5Event@CurrentLevel)" ], [ "RTID(Wave6@CurrentLevel)", "RTID(Wave6Event@CurrentLevel)" ], [ "RTID(Wave7@CurrentLevel)", "RTID(Wave7Event@CurrentLevel)" ], [ "RTID(Wave8@CurrentLevel)", "RTID(Wave8Event@CurrentLevel)" ], [ "RTID(Wave9@CurrentLevel)", "RTID(Wave9Event@CurrentLevel)" ] ]
			}
		}, {
			"aliases": [ "Wave1" ],
			"objclass": "SpawnZombiesJitteredWaveActionProps",
			"objdata": {
				"AdditionalPlantfood": 0,
				"Zombies": [ {
						"Type": "RTID(tutorial@ZombieTypes)"
					} ]
			}
		}, {
			"aliases": [ "Wave2" ],
			"objclass": "SpawnZombiesJitteredWaveActionProps",
			"objdata": {
				"AdditionalPlantfood": 0,
				"Zombies": [ {
						"Type": "RTID(tutorial@ZombieTypes)"
					} ]
			}
		}, {
			"aliases": [ "Wave3" ],
			"objclass": "SpawnZombiesJitteredWaveActionProps",
			"objdata": {
				"Zombies": [ {
						"Type": "RTID(tutorial@ZombieTypes)"
					} ]
			}
		}, {
			"aliases": [ "Wave4" ],
			"objclass": "SpawnZombiesJitteredWaveActionProps",
			"objdata": {
				"Zombies": [ {
						"Type": "RTID(tutorial@ZombieTypes)"
					} ]
			}
		}, {
			"aliases": [ "Wave5" ],
			"objclass": "SpawnZombiesJitteredWaveActionProps",
			"objdata": {
				"AdditionalPlantfood": 0,
				"Zombies": [ {
						"Type": "RTID(tutorial@ZombieTypes)"
					} ]
			}
		}, {
			"aliases": [ "Wave6" ],
			"objclass": "SpawnZombiesJitteredWaveActionProps",
			"objdata": {
				"Zombies": [ {
						"Type": "RTID(tutorial@ZombieTypes)"
					} ]
			}
		}, {
			"aliases": [ "Wave7" ],
			"objclass": "SpawnZombiesJitteredWaveActionProps",
			"objdata": {
				"Zombies": [ {
						"Type": "RTID(tutorial@ZombieTypes)"
					} ]
			}
		}, {
			"aliases": [ "Wave8" ],
			"objclass": "SpawnZombiesJitteredWaveActionProps",
			"objdata": {
				"AdditionalPlantfood": 0,
				"Zombies": [ {
						"Type": "RTID(tutorial@ZombieTypes)"
					} ]
			}
		}, {
			"aliases": [ "Wave9" ],
			"objclass": "SpawnZombiesJitteredWaveActionProps",
			"objdata": {
				"Zombies": [ {
						"Type": "RTID(tutorial@ZombieTypes)"
					} ]
			}
		}, {
			"aliases": [ "Wave10" ],
			"objclass": "SpawnZombiesJitteredWaveActionProps",
			"objdata": {
				"Zombies": [ {
						"Type": "RTID(cowboy@ZombieTypes)"
					} ]
			}
		}, {
			"aliases": [ "Gravestones" ],
			"objclass": "GravestoneProperties",
			"objdata": {
				"ForceSpawnData": [ {
						"GridX": 2,
						"GridY": 0
					}, {
						"GridX": 5,
						"GridY": 0
					}, {
						"GridX": 6,
						"GridY": 0
					}, {
						"GridX": 7,
						"GridY": 1
					}, {
						"GridX": 2,
						"GridY": 1
					}, {
						"GridX": 3,
						"GridY": 2
					}, {
						"GridX": 5,
						"GridY": 2
					}, {
						"GridX": 6,
						"GridY": 2
					}, {
						"GridX": 8,
						"GridY": 3
					}, {
						"GridX": 2,
						"GridY": 3
					}, {
						"GridX": 5,
						"GridY": 3
					}, {
						"GridX": 3,
						"GridY": 4
					}, {
						"GridX": 6,
						"GridY": 4
					} ]
			}
		}, {
			"aliases": [ "LevelOfTheDayModule" ],
			"objclass": "LevelOfTheDayModuleProperties",
			"objdata": {
				"FlagCount": 3,
				"PlantfoodToSpawnCount": 5,
				"PointIncrementPerWave": 200,
				"StartingPoints": 200,
				"WaveManagerProps": "RTID(WaveManagerProps@CurrentLevel)",
				"WavesPerFlag": 3,
				"ZombiePool": [ "RTID(tomb_raiser@ZombieTypes)", "RTID(pharaoh@ZombieTypes)", "RTID(pirate_armor2@ZombieTypes)", "RTID(cowboy_armor1@ZombieTypes)" ]
			}
		}, {
			"aliases": [ "NewWaves" ],
			"objclass": "WaveManagerModuleProperties",
			"objdata": {}
		}, {
			"aliases": [ "ConveyorBelt" ],
			"objclass": "ConveyorSeedBankProperties",
			"objdata": {
				"DropDelayConditions": [ {
						"Delay": 3,
						"MaxPackets": 0
					}, {
						"Delay": 6,
						"MaxPackets": 2
					}, {
						"Delay": 9,
						"MaxPackets": 4
					}, {
						"Delay": 12,
						"MaxPackets": 8
					} ],
				"InitialPlantList": [ {
						"PlantType": "peapod",
						"Weight": 100
					}, {
						"PlantType": "potatomine",
						"Weight": 30
					}, {
						"MaxCount": 5,
						"MaxWeightFactor": 0,
						"PlantType": "torchwood",
						"Weight": 100
					} ],
				"SpeedConditions": [ {
						"MaxPackets": 0,
						"Speed": 100
					} ]
			}
		}, {
			"aliases": [ "Wave3Event" ],
			"objclass": "StormZombieSpawnerProps",
			"objdata": {
				"ColumnEnd": 7,
				"ColumnStart": 4,
				"GroupSize": 1,
				"TimeBetweenGroups": 0.5,
				"Waves": 3,
				"Type": "sandstorm",
				"Zombies": [ {
						"Type": "RTID(west_bullrider@ZombieTypes)"
					}, {
						"Type": "RTID(west_bullrider@ZombieTypes)"
					}, {
						"Type": "RTID(west_bullrider@ZombieTypes)"
					} ]
			}
		}, {
			"aliases": [ "Wave5Event" ],
			"objclass": "StormZombieSpawnerProps",
			"objdata": {
				"ColumnEnd": 6,
				"ColumnStart": 3,
				"GroupSize": 1,
				"TimeBetweenGroups": 0.5,
				"Waves": 7,
				"Type": "sandstorm",
				"Zombies": [ {
						"Type": "RTID(west_bullrider@ZombieTypes)"
					}, {
						"Type": "RTID(west_bullrider@ZombieTypes)"
					}, {
						"Type": "RTID(west_bullrider@ZombieTypes)"
					}, {
						"Type": "RTID(west_bullrider@ZombieTypes)"
					}, {
						"Type": "RTID(west_bullrider@ZombieTypes)"
					}, {
						"Type": "RTID(west_bullrider@ZombieTypes)"
					}, {
						"Type": "RTID(west_bullrider@ZombieTypes)"
					} ]
			}
		}, {
			"aliases": [ "Wave7Event" ],
			"objclass": "StormZombieSpawnerProps",
			"objdata": {
				"ColumnEnd": 5,
				"ColumnStart": 2,
				"GroupSize": 2,
				"TimeBetweenGroups": 0.5,
				"Waves": 5,
				"Type": "sandstorm",
				"Zombies": [ {
						"Type": "RTID(west_bullrider@ZombieTypes)"
					}, {
						"Type": "RTID(west_bullrider@ZombieTypes)"
					}, {
						"Type": "RTID(west_bullrider@ZombieTypes)"
					}, {
						"Type": "RTID(west_bullrider@ZombieTypes)"
					}, {
						"Type": "RTID(west_bullrider@ZombieTypes)"
					}, {
						"Type": "RTID(west_bullrider@ZombieTypes)"
					}, {
						"Type": "RTID(west_bullrider@ZombieTypes)"
					}, {
						"Type": "RTID(west_bullrider@ZombieTypes)"
					}, {
						"Type": "RTID(west_bullrider@ZombieTypes)"
					}, {
						"Type": "RTID(west_bullrider@ZombieTypes)"
					} ]
			}
		}, {
			"aliases": [ "Wave9Event" ],
			"objclass": "StormZombieSpawnerProps",
			"objdata": {
				"ColumnEnd": 3,
				"ColumnStart": 1,
				"GroupSize": 4,
				"TimeBetweenGroups": 0.5,
				"Waves": 4,
				"Type": "sandstorm",
				"Zombies": [ {
						"Type": "RTID(west_bullrider@ZombieTypes)"
					}, {
						"Type": "RTID(west_bullrider@ZombieTypes)"
					}, {
						"Type": "RTID(west_bullrider@ZombieTypes)"
					}, {
						"Type": "RTID(west_bullrider@ZombieTypes)"
					}, {
						"Type": "RTID(west_bullrider@ZombieTypes)"
					}, {
						"Type": "RTID(west_bullrider@ZombieTypes)"
					}, {
						"Type": "RTID(west_bullrider@ZombieTypes)"
					}, {
						"Type": "RTID(west_bullrider@ZombieTypes)"
					}, {
						"Type": "RTID(west_bullrider@ZombieTypes)"
					}, {
						"Type": "RTID(west_bullrider@ZombieTypes)"
					}, {
						"Type": "RTID(west_bullrider@ZombieTypes)"
					}, {
						"Type": "RTID(west_bullrider@ZombieTypes)"
					}, {
						"Type": "RTID(west_bullrider@ZombieTypes)"
					}, {
						"Type": "RTID(west_bullrider@ZombieTypes)"
					}, {
						"Type": "RTID(west_bullrider@ZombieTypes)"
					}, {
						"Type": "RTID(west_bullrider@ZombieTypes)"
					} ]
			}
		}, {
			"aliases": [ "Wave8Event" ],
			"objclass": "StormZombieSpawnerProps",
			"objdata": {
				"ColumnEnd": 4,
				"ColumnStart": 2,
				"GroupSize": 3,
				"TimeBetweenGroups": 0.5,
				"Waves": 5,
				"Type": "sandstorm",
				"Zombies": [ {
						"Type": "RTID(west_bullrider@ZombieTypes)"
					}, {
						"Type": "RTID(west_bullrider@ZombieTypes)"
					}, {
						"Type": "RTID(west_bullrider@ZombieTypes)"
					}, {
						"Type": "RTID(west_bullrider@ZombieTypes)"
					}, {
						"Type": "RTID(west_bullrider@ZombieTypes)"
					}, {
						"Type": "RTID(west_bullrider@ZombieTypes)"
					}, {
						"Type": "RTID(west_bullrider@ZombieTypes)"
					}, {
						"Type": "RTID(west_bullrider@ZombieTypes)"
					}, {
						"Type": "RTID(west_bullrider@ZombieTypes)"
					}, {
						"Type": "RTID(west_bullrider@ZombieTypes)"
					}, {
						"Type": "RTID(west_bullrider@ZombieTypes)"
					}, {
						"Type": "RTID(west_bullrider@ZombieTypes)"
					}, {
						"Type": "RTID(west_bullrider@ZombieTypes)"
					}, {
						"Type": "RTID(west_bullrider@ZombieTypes)"
					}, {
						"Type": "RTID(west_bullrider@ZombieTypes)"
					} ]
			}
		}, {
			"aliases": [ "Wave6Event" ],
			"objclass": "StormZombieSpawnerProps",
			"objdata": {
				"ColumnEnd": 5,
				"ColumnStart": 3,
				"GroupSize": 2,
				"TimeBetweenGroups": 0.5,
				"Waves": 4,
				"Type": "sandstorm",
				"Zombies": [ {
						"Type": "RTID(west_bullrider@ZombieTypes)"
					}, {
						"Type": "RTID(west_bullrider@ZombieTypes)"
					}, {
						"Type": "RTID(west_bullrider@ZombieTypes)"
					}, {
						"Type": "RTID(west_bullrider@ZombieTypes)"
					}, {
						"Type": "RTID(west_bullrider@ZombieTypes)"
					}, {
						"Type": "RTID(west_bullrider@ZombieTypes)"
					}, {
						"Type": "RTID(west_bullrider@ZombieTypes)"
					}, {
						"Type": "RTID(west_bullrider@ZombieTypes)"
					} ]
			}
		} ],
	"version": 1
}