{
	"#comment": "Beach Zomboss",
	"objects": [ {
			"objclass": "LevelDefinition",
			"objdata": {
				"Description": "[PLAYERS_TRIP_TO_MODERN]",
				"FirstIntroNarrative": "MODERN_33_INTRO",
				"FirstOutroNarrative": "MODERN_33_OUTRO",
				"FirstRewardType": "giftbox",
				"ForceToWorldMap": true,
				"GameFeaturesToUnlock": [ "world_trophy_beach" ],
				"SuppressSunSpawn": true,
				"LevelNumber": 33,
				"LoadDefaultMusic": false,
				"Loot": "RTID(DefaultLoot@LevelModules)",
				"Modules": [ "RTID(ZombossIntro@LevelModules)", "RTID(BeachMowers@LevelModules)", "RTID(ConveyorBelt@CurrentLevel)", "RTID(ZombossBattle@CurrentLevel)", "RTID(DefaultZombieWinCondition@LevelModules)", "RTID(NewWaves@CurrentLevel)", "RTID(LilypadPlacement@CurrentLevel)", "RTID(Tide@CurrentLevel)" ],
				"MusicType": "MiniGame_A",
				"Name": "[MODERN_LEVEL_NAME]",
				"NormalPresentTable": "egypt_normal_01",
				"RepeatPlayForceToWorldMap": true,
				"ShinyPresentTable": "egypt_shiny_01",
				"StageModule": "RTID(BeachStage@LevelModules)",
				"VictoryModule": "RTID(ZombossVictoryOutro@LevelModules)",
				"ResourceGroupNames": [ "ModernLootPinatas" ]
			}
		}, {
			"aliases": [ "Tide" ],
			"objclass": "TideProperties",
			"objdata": {
				"StartingWaveLocation": 7
			}
		}, {
			"aliases": [ "LilypadPlacement" ],
			"objclass": "InitialGridItemProperties",
			"objdata": {
				"InitialGridItemPlacements": [ {
						"GridX": 2,
						"GridY": 0,
						"TypeName": "lilypad"
					}, {
						"GridX": 2,
						"GridY": 2,
						"TypeName": "lilypad"
					}, {
						"GridX": 2,
						"GridY": 4,
						"TypeName": "lilypad"
					} ]
			}
		}, {
			"aliases": [ "ZombossBattle" ],
			"objclass": "ZombossBattleModuleProperties",
			"objdata": {
				"ReservedColumnCount": 3,
				"ZombossDeathColumn": 5,
				"ZombossDeathRow": 3,
				"ZombossMechType": "zombossmech_modern_beach",
				"ZombossSpawnGridPosition": {
					"mX": 6,
					"mY": 3
				}
			}
		}, {
			"aliases": [ "ConveyorBelt" ],
			"objclass": "ConveyorSeedBankProperties",
			"objdata": {
				"DropDelayConditions": [ {
						"Delay": 1.5,
						"MaxPackets": 0
					}, {
						"Delay": 2,
						"MaxPackets": 2
					}, {
						"Delay": 3,
						"MaxPackets": 4
					}, {
						"Delay": 8,
						"MaxPackets": 8
					} ],
				"InitialPlantList": [ {
						"PlantType": "chardguard",
						"Weight": 10
					}, {
						"ForceBoosted": true,
						"MaxCount": 6,
						"MaxWeightFactor": 0,
						"MinCount": 3,
						"MinWeightFactor": 2.5,
						"PlantType": "lilypad",
						"Weight": 10
					}, {
						"PlantType": "pepperpult",
						"Weight": 10
					}, {
						"PlantType": "shrinkingviolet",
						"Weight": 2
					}, {
						"PlantType": "stunion",
						"Weight": 10
					}, {
						"PlantType": "xshot",
						"Weight": 15
					} ],
				"SpeedConditions": [ {
						"MaxPackets": 0,
						"Speed": 120
					} ]
			}
		}, {
			"aliases": [ "NewWaves" ],
			"objclass": "WaveManagerModuleProperties",
			"objdata": {
				"WaveManagerProps": "RTID(WaveManagerProps@CurrentLevel)"
			}
		}, {
			"aliases": [ "WaveManagerProps" ],
			"objclass": "WaveManagerProperties",
			"objdata": {
				"Waves": []
			}
		} ],
	"version": 1
}