{
	"#comment": "Modern 8",
	"objects": [ {
			"objclass": "LevelDefinition",
			"objdata": {
				"Description": "[PLAYERS_TRIP_TO_MODERN]",
				"Loot": "RTID(DefaultLoot@LevelModules)",
				"FirstIntroNarrative": "BEGHOULED_INTRO",
				"LevelNumber": 8,
				"LevelPowerupSet": "LevelPowerupsBeghouled",
				"Modules": [ "RTID(BeghouledIntro@LevelModules)", "RTID(DefaultZombieWinCondition@LevelModules)", "RTID(RandomSpawner@CurrentLevel)", "RTID(BeghouledSeedBank@CurrentLevel)", "RTID(BeghouledArcade@LevelModules)", "RTID(BeghouledProps@.)" ],
				"MusicType": "MiniGame_B",
				"Name": "[MODERN_LEVEL_NAME]",
				"NormalPresentTable": "egypt_normal_01",
				"ShinyPresentTable": "egypt_shiny_01",
				"StageModule": "RTID(ModernStage@LevelModules)"
			}
		}, {
			"objclass": "BeghouledSeedBankProperties",
			"aliases": [ "BeghouledSeedBank" ],
			"objdata": {
				"PresetPlantList": [ {
						"PlantType": "firepeashooter",
						"Level": -1
					}, {
						"PlantType": "repeater",
						"Level": -1
					}, {
						"PlantType": "tallnut",
						"Level": -1
					}, {
						"PlantType": "endurian",
						"Level": -1
					}, {
						"PlantType": "pepperpult",
						"Level": -1
					}, {
						"PlantType": "melonpult",
						"Level": -1
					}, {
						"PlantType": "coldsnapdragon",
						"Level": -1
					}, {
						"PlantType": "laser_bean",
						"Level": -1
					} ],
				"BeghouledUpgradeList": [ "threepeater", "wintermelon" ],
				"SelectionMethod": "beghouled"
			}
		}, {
			"objclass": "BeghouledZombieSpawnerProperties",
			"aliases": [ "RandomSpawner" ],
			"objdata": {
				"MatchCountsToStageAdvance": [ {
						"MatchCount": 30,
						"StageNumber": 1
					}, {
						"MatchCount": 70,
						"StageNumber": 2
					} ],
				"Stages": [ {
						"#comment": "Stage 0",
						"Types": [ {
								"ZombieType": "beghouled"
							}, {
								"ZombieType": "beghouled_armor1"
							}, {
								"ZombieType": "beghouled_armor2"
							} ],
						"SpawnDelay": 2.0
					}, {
						"#comment": "Stage 1",
						"Types": [ {
								"ZombieType": "tutorial"
							}, {
								"ZombieType": "tutorial_armor1"
							}, {
								"ZombieType": "tutorial_armor2"
							} ],
						"SpawnDelay": 2.0
					}, {
						"#comment": "Stage 2",
						"Types": [ {
								"ZombieType": "tutorial"
							}, {
								"ZombieType": "tutorial_armor1"
							}, {
								"ZombieType": "tutorial_armor2"
							}, {
								"ZombieType": "beghouled_newspaper"
							} ],
						"SpawnDelay": 2.0
					} ]
			}
		}, {
			"objclass": "BeghouledPresetProperties",
			"aliases": [ "BeghouledProps" ],
			"objdata": {
				"MatchesToWin": 100,
				"InitialPlants": [ "peashooter", "wallnut", "cabbagepult", "snapdragon", "lightningreed" ],
				"UpgradeMap": [ {
						"BasePlant": "peashooter",
						"UpgradedPlant": "firepeashooter"
					}, {
						"BasePlant": "peashooter",
						"UpgradedPlant": "repeater"
					}, {
						"BasePlant": "repeater",
						"UpgradedPlant": "threepeater"
					}, {
						"BasePlant": "wallnut",
						"UpgradedPlant": "tallnut"
					}, {
						"BasePlant": "wallnut",
						"UpgradedPlant": "endurian"
					}, {
						"BasePlant": "cabbagepult",
						"UpgradedPlant": "pepperpult"
					}, {
						"BasePlant": "cabbagepult",
						"UpgradedPlant": "melonpult"
					}, {
						"BasePlant": "melonpult",
						"UpgradedPlant": "wintermelon"
					}, {
						"BasePlant": "snapdragon",
						"UpgradedPlant": "coldsnapdragon"
					}, {
						"BasePlant": "lightningreed",
						"UpgradedPlant": "laser_bean"
					} ]
			}
		} ],
	"version": 1
}