{
	"#comment": "Modern 43",
	"objects": [ {
			"objclass": "LevelDefinition",
			"objdata": {
				"Description": "[PLAYERS_TRIP_TO_MODERN]",
				"LevelNumber": 9,
				"Loot": "RTID(DefaultLoot@LevelModules)",
				"Modules": [ "RTID(StandardIntro@LevelModules)", "RTID(DefaultSunDropper@LevelModules)", "RTID(ZombiesDeadWinCon@LevelModules)", "RTID(SeedBank@CurrentLevel)", "RTID(DefaultZombieWinCondition@LevelModules)", "RTID(NewWaves@CurrentLevel)", "RTID(ChallengeModule@CurrentLevel)", "RTID(FrozenPlantPlacement@CurrentLevel)" ],
				"Name": "[MODERN_LEVEL_NAME]",
				"NormalPresentTable": "egypt_normal_01",
				"ShinyPresentTable": "egypt_shiny_01",
				"ForceToWorldMap": true,
				"RepeatPlayForceToWorldMap": true,
				"StageModule": "RTID(ModernStage@LevelModules)"
			}
		}, {
			"aliases": [ "SeedBank" ],
			"objclass": "SeedBankProperties",
			"objdata": {
				"ExcludeListSunProducers": "true",
				"PlantExcludeList": [],
				"SelectionMethod": "chooser"
			}
		}, {
			"aliases": [ "ChallengeModule" ],
			"objclass": "StarChallengeModuleProperties",
			"objdata": {
				"Challenges": [ [ "RTID(SunProduced@CurrentLevel)" ] ],
				"ChallengesAlwaysAvailable": true
			}
		}, {
			"aliases": [ "SunProduced" ],
			"objclass": "StarChallengeSunProducedProps",
			"objdata": {
				"TargetSun": 3500
			}
		}, {
			"aliases": [ "FrozenPlantPlacement" ],
			"objclass": "InitialPlantProperties",
			"objdata": {
				"InitialPlantPlacements": [ {
						"GridX": 6,
						"GridY": 0,
						"Level": "-1",
						"TypeName": "twinsunflower"
					}, {
						"GridX": 6,
						"GridY": 1,
						"Level": "-1",
						"TypeName": "twinsunflower"
					}, {
						"GridX": 6,
						"GridY": 2,
						"Level": "-1",
						"TypeName": "twinsunflower"
					}, {
						"GridX": 6,
						"GridY": 3,
						"Level": "-1",
						"TypeName": "twinsunflower"
					}, {
						"GridX": 6,
						"GridY": 4,
						"Level": "-1",
						"TypeName": "twinsunflower"
					} ]
			}
		}, {
			"aliases": [ "NewWaves" ],
			"objclass": "WaveManagerModuleProperties",
			"objdata": {
				"DynamicZombies": [ {
						"PointIncrementPerWave": -40,
						"StartingPoints": -100,
						"StartingWave": 3,
						"ZombiePool": [ "RTID(eighties_punk@ZombieTypes)", "RTID(modern_allstar@ZombieTypes)", "RTID(tutorial@ZombieTypes)", "RTID(tutorial_armor1@ZombieTypes)", "RTID(tutorial_armor2@ZombieTypes)" ]
					}, {
						"PointIncrementPerWave": -25,
						"StartingPoints": -100,
						"StartingWave": 4,
						"ZombiePool": [ "RTID(eighties_punk@ZombieTypes)", "RTID(modern_allstar@ZombieTypes)", "RTID(tutorial@ZombieTypes)", "RTID(tutorial_armor1@ZombieTypes)", "RTID(tutorial_armor2@ZombieTypes)" ]
					}, {
						"PointIncrementPerWave": -10,
						"StartingPoints": -100,
						"StartingWave": 5,
						"ZombiePool": [ "RTID(eighties_punk@ZombieTypes)", "RTID(modern_allstar@ZombieTypes)", "RTID(tutorial@ZombieTypes)", "RTID(tutorial_armor1@ZombieTypes)", "RTID(tutorial_armor2@ZombieTypes)" ]
					}, {}, {
						"PointIncrementPerWave": 20,
						"StartingPoints": 100,
						"StartingWave": 5,
						"ZombiePool": [ "RTID(eighties_punk@ZombieTypes)", "RTID(modern_allstar@ZombieTypes)", "RTID(tutorial@ZombieTypes)", "RTID(tutorial_armor1@ZombieTypes)", "RTID(tutorial_armor2@ZombieTypes)" ]
					}, {
						"PointIncrementPerWave": 40,
						"StartingPoints": 200,
						"StartingWave": 4,
						"ZombiePool": [ "RTID(eighties_punk@ZombieTypes)", "RTID(modern_allstar@ZombieTypes)", "RTID(tutorial_armor1@ZombieTypes)", "RTID(tutorial_armor2@ZombieTypes)" ]
					}, {
						"PointIncrementPerWave": 60,
						"StartingPoints": 400,
						"StartingWave": 3,
						"ZombiePool": [ "RTID(eighties_punk@ZombieTypes)", "RTID(modern_allstar@ZombieTypes)", "RTID(tutorial_armor2@ZombieTypes)" ]
					} ],
				"WaveManagerProps": "RTID(WaveManagerProps@CurrentLevel)"
			}
		}, {
			"aliases": [ "WaveManagerProps" ],
			"objclass": "WaveManagerProperties",
			"objdata": {
				"FlagWaveInterval": 3,
				"FlagWaveVeteranOverrideTypes": [ 1, 1, 1 ],
				"LevelJam": "jam_punk",
				"SuppressFlagZombie": false,
				"WaveCount": 9,
				"WaveSpendingPointIncrement": 100,
				"WaveSpendingPoints": 300,
				"Waves": [ [ "RTID(Wave1@CurrentLevel)" ], [ "RTID(Wave2@CurrentLevel)" ], [ "RTID(Wave3@CurrentLevel)" ], [ "RTID(Wave4@CurrentLevel)" ], [ "RTID(Wave5@CurrentLevel)" ], [ "RTID(Wave6@CurrentLevel)" ], [ "RTID(Wave7@CurrentLevel)" ], [ "RTID(Wave8@CurrentLevel)" ], [ "RTID(Wave9@CurrentLevel)" ] ]
			}
		}, {
			"aliases": [ "Wave1" ],
			"objclass": "SpawnZombiesJitteredWaveActionProps",
			"objdata": {
				"AdditionalPlantfood": 0,
				"Zombies": [ {
						"Type": "RTID(tutorial@ZombieTypes)"
					}, {
						"Row": "3",
						"Type": "RTID(tutorial_armor1@ZombieTypes)"
					} ]
			}
		}, {
			"aliases": [ "Wave2" ],
			"objclass": "SpawnZombiesJitteredWaveActionProps",
			"objdata": {
				"DynamicPlantfood": [ 1, 1, 0, 0, 0, 0, 0 ],
				"Zombies": [ {
						"Type": "RTID(tutorial_armor1@ZombieTypes)"
					}, {
						"Row": "4",
						"Type": "RTID(tutorial@ZombieTypes)"
					}, {
						"Row": "3",
						"Type": "RTID(eighties_punk@ZombieTypes)"
					}, {
						"Row": "4",
						"Type": "RTID(eighties_punk@ZombieTypes)"
					} ]
			}
		}, {
			"aliases": [ "Wave3" ],
			"objclass": "SpawnZombiesJitteredWaveActionProps",
			"objdata": {
				"AdditionalPlantfood": 1,
				"Zombies": [ {
						"Type": "RTID(tutorial@ZombieTypes)"
					}, {
						"Type": "RTID(tutorial_armor4@ZombieTypes)"
					}, {
						"Type": "RTID(tutorial@ZombieTypes)"
					}, {
						"Row": "5",
						"Type": "RTID(eighties_punk@ZombieTypes)"
					}, {
						"Row": "1",
						"Type": "RTID(eighties_punk@ZombieTypes)"
					}, {
						"Row": "2",
						"Type": "RTID(eighties_punk@ZombieTypes)"
					} ]
			}
		}, {
			"aliases": [ "Wave4" ],
			"objclass": "SpawnZombiesJitteredWaveActionProps",
			"objdata": {
				"Zombies": [ {
						"Type": "RTID(modern_allstar@ZombieTypes)"
					}, {
						"Type": "RTID(tutorial_armor1@ZombieTypes)"
					}, {
						"Type": "RTID(tutorial_armor4@ZombieTypes)"
					} ]
			}
		}, {
			"aliases": [ "Wave5" ],
			"objclass": "SpawnZombiesJitteredWaveActionProps",
			"objdata": {
				"AdditionalPlantfood": 0,
				"Zombies": [ {
						"Type": "RTID(newspaper_veteran@ZombieTypes)"
					} ]
			}
		}, {
			"aliases": [ "Wave6" ],
			"objclass": "SpawnZombiesJitteredWaveActionProps",
			"objdata": {
				"AdditionalPlantfood": 1,
				"Zombies": [ {
						"Type": "RTID(modern_allstar@ZombieTypes)"
					}, {
						"Type": "RTID(newspaper_veteran@ZombieTypes)"
					}, {
						"Type": "RTID(modern_allstar@ZombieTypes)"
					} ]
			}
		}, {
			"aliases": [ "Wave7" ],
			"objclass": "SpawnZombiesJitteredWaveActionProps",
			"objdata": {
				"Zombies": [ {
						"Type": "RTID(newspaper_veteran@ZombieTypes)"
					}, {
						"Type": "RTID(modern_allstar@ZombieTypes)"
					}, {
						"Type": "RTID(newspaper_veteran@ZombieTypes)"
					} ]
			}
		}, {
			"aliases": [ "Wave8" ],
			"objclass": "SpawnZombiesJitteredWaveActionProps",
			"objdata": {
				"AdditionalPlantfood": 0,
				"DynamicPlantfood": [ 1, 0, 0, 0, 0, 0, 0 ],
				"Zombies": [ {
						"Row": "4",
						"Type": "RTID(newspaper_veteran@ZombieTypes)"
					}, {
						"Row": "4",
						"Type": "RTID(modern_allstar@ZombieTypes)"
					}, {
						"Row": "2",
						"Type": "RTID(newspaper_veteran@ZombieTypes)"
					}, {
						"Row": "2",
						"Type": "RTID(modern_allstar@ZombieTypes)"
					} ]
			}
		}, {
			"aliases": [ "Wave9" ],
			"objclass": "SpawnZombiesJitteredWaveActionProps",
			"objdata": {
				"AdditionalPlantfood": 1,
				"Zombies": [ {
						"Row": "5",
						"Type": "RTID(modern_allstar@ZombieTypes)"
					}, {
						"Type": "RTID(newspaper_veteran@ZombieTypes)"
					}, {
						"Row": "3",
						"Type": "RTID(modern_allstar@ZombieTypes)"
					}, {
						"Type": "RTID(newspaper_veteran@ZombieTypes)"
					}, {
						"Row": "1",
						"Type": "RTID(modern_allstar@ZombieTypes)"
					} ]
			}
		} ],
	"version": 1
}