{
	"#comment": "Pirate 9",
	"objects": [ {
			"objclass": "LevelDefinition",
			"objdata": {
				"Description": "[PLAYERS_TRIP_TO_PIRATE_SHIP]",
				"LevelNumber": 17,
				"Loot": "RTID(DefaultLoot@LevelModules)",
				"Modules": [ "RTID(StandardIntro@LevelModules)", "RTID(DefaultSunDropper@LevelModules)", "RTID(ZombiesDeadWinCon@LevelModules)", "RTID(PirateMowers@LevelModules)", "RTID(PiratePlanks@CurrentLevel)", "RTID(SeedBank@CurrentLevel)", "RTID(ChallengeModule@CurrentLevel)", "RTID(DefaultZombieWinCondition@LevelModules)", "RTID(NewWaves@CurrentLevel)" ],
				"Name": "[PIRATE_LEVEL_NAME]",
				"NormalPresentTable": "pirate_normal_01",
				"ShinyPresentTable": "pirate_shiny_01",
				"StageModule": "RTID(PirateStage@LevelModules)"
			}
		}, {
			"aliases": [ "PiratePlanks" ],
			"objclass": "PiratePlankProperties",
			"objdata": {
				"PlankRows": [ 3, 4 ]
			}
		}, {
			"aliases": [ "SeedBank" ],
			"objclass": "SeedBankProperties",
			"objdata": {
				"SuggestPlantList": [ [ "primalsunflower", "twinsunflower" ], [ "tallnut", "primalwallnut" ], [ "primalpotatomine", "escaperoot", "cherry_bomb" ], [ "kernelpult", "cabbagepult" ], [ "snapdragon", "bloomerang" ], [ "threepeater", "akee" ], [ "electricblueberry", "lightningreed" ], [ "magnetshroom", "shrinkingviolet" ] ],
				"SelectionMethod": "chooser"
			}
		}, {
			"aliases": [ "ChallengeModule" ],
			"objclass": "StarChallengeModuleProperties",
			"objdata": {
				"Challenges": [ [ "RTID(KillZombies@CurrentLevel)" ] ],
				"ChallengesAlwaysAvailable": true
			}
		}, {
			"aliases": [ "KillZombies" ],
			"objclass": "StarChallengeKillZombiesInTimeProps",
			"objdata": {
				"Time": 30,
				"ZombiesToKill": 20
			}
		}, {
			"aliases": [ "NewWaves" ],
			"objclass": "WaveManagerModuleProperties",
			"objdata": {
				"DynamicZombies": [ {
						"PointIncrementPerWave": -40,
						"StartingPoints": -100,
						"StartingWave": 3,
						"ZombiePool": [ "RTID(barrelroller@ZombieTypes)", "RTID(cannon@ZombieTypes)", "RTID(pirate@ZombieTypes)", "RTID(pirate_armor1@ZombieTypes)", "RTID(pirate_captain@ZombieTypes)", "RTID(seagull@ZombieTypes)", "RTID(swashbuckler@ZombieTypes)" ]
					}, {
						"PointIncrementPerWave": -25,
						"StartingPoints": -100,
						"StartingWave": 4,
						"ZombiePool": [ "RTID(barrelroller@ZombieTypes)", "RTID(cannon@ZombieTypes)", "RTID(pirate@ZombieTypes)", "RTID(pirate_armor1@ZombieTypes)", "RTID(pirate_captain@ZombieTypes)", "RTID(seagull@ZombieTypes)", "RTID(swashbuckler@ZombieTypes)" ]
					}, {
						"PointIncrementPerWave": -10,
						"StartingPoints": -100,
						"StartingWave": 5,
						"ZombiePool": [ "RTID(barrelroller@ZombieTypes)", "RTID(cannon@ZombieTypes)", "RTID(pirate@ZombieTypes)", "RTID(pirate_armor1@ZombieTypes)", "RTID(pirate_captain@ZombieTypes)", "RTID(seagull@ZombieTypes)", "RTID(swashbuckler@ZombieTypes)" ]
					}, {}, {
						"PointIncrementPerWave": 20,
						"StartingPoints": 100,
						"StartingWave": 5,
						"ZombiePool": [ "RTID(barrelroller@ZombieTypes)", "RTID(cannon@ZombieTypes)", "RTID(pirate@ZombieTypes)", "RTID(pirate_armor1@ZombieTypes)", "RTID(pirate_captain@ZombieTypes)", "RTID(seagull@ZombieTypes)", "RTID(swashbuckler@ZombieTypes)" ]
					}, {
						"PointIncrementPerWave": 40,
						"StartingPoints": 200,
						"StartingWave": 4,
						"ZombiePool": [ "RTID(barrelroller@ZombieTypes)", "RTID(cannon@ZombieTypes)", "RTID(pirate_armor1@ZombieTypes)", "RTID(pirate_captain@ZombieTypes)", "RTID(seagull@ZombieTypes)", "RTID(swashbuckler@ZombieTypes)" ]
					}, {
						"PointIncrementPerWave": 60,
						"StartingPoints": 400,
						"StartingWave": 3,
						"ZombiePool": [ "RTID(barrelroller@ZombieTypes)", "RTID(cannon@ZombieTypes)", "RTID(pirate_armor1@ZombieTypes)", "RTID(pirate_captain@ZombieTypes)", "RTID(seagull@ZombieTypes)", "RTID(swashbuckler@ZombieTypes)" ]
					} ],
				"WaveManagerProps": "RTID(WaveManagerProps@CurrentLevel)"
			}
		}, {
			"aliases": [ "WaveManagerProps" ],
			"objclass": "WaveManagerProperties",
			"objdata": {
				"FlagWaveInterval": 8,
				"WaveCount": 16,
				"WaveSpendingPointIncrement": 50,
				"WaveSpendingPoints": 100,
				"Waves": [ [ "RTID(Wave1@CurrentLevel)" ], [ "RTID(Wave2@CurrentLevel)" ], [ "RTID(Wave3@CurrentLevel)" ], [ "RTID(Wave4@CurrentLevel)" ], [ "RTID(Wave5@CurrentLevel)" ], [ "RTID(Wave6@CurrentLevel)" ], [ "RTID(Wave7@CurrentLevel)" ], [ "RTID(Wave8@CurrentLevel)" ], [ "RTID(Wave9@CurrentLevel)" ], [ "RTID(Wave10@CurrentLevel)", "RTID(Wave10RaidingPartyEvent0@CurrentLevel)" ], [ "RTID(Wave11@CurrentLevel)" ], [ "RTID(Wave12@CurrentLevel)" ], [ "RTID(Wave13@CurrentLevel)" ], [ "RTID(Wave14@CurrentLevel)" ], [ "RTID(Wave15@CurrentLevel)" ], [ "RTID(Wave16@CurrentLevel)", "RTID(Wave16RaidingPartyEvent0@CurrentLevel)" ] ]
			}
		}, {
			"aliases": [ "Wave1" ],
			"objclass": "SpawnZombiesJitteredWaveActionProps",
			"objdata": {
				"Zombies": [ {
						"Row": "4",
						"Type": "RTID(pirate@ZombieTypes)"
					} ]
			}
		}, {
			"aliases": [ "Wave2" ],
			"objclass": "SpawnZombiesJitteredWaveActionProps",
			"objdata": {
				"Zombies": [ {
						"Row": "5",
						"Type": "RTID(pirate@ZombieTypes)"
					} ]
			}
		}, {
			"aliases": [ "Wave3" ],
			"objclass": "SpawnZombiesJitteredWaveActionProps",
			"objdata": {
				"AdditionalPlantfood": 1,
				"DynamicPlantfood": [ 1, 1, 1, 1, 1, 1, 0 ],
				"Zombies": [ {
						"Row": "4",
						"Type": "RTID(pirate_armor1@ZombieTypes)"
					} ]
			}
		}, {
			"aliases": [ "Wave4" ],
			"objclass": "SpawnZombiesJitteredWaveActionProps",
			"objdata": {
				"Zombies": [ {
						"Row": "1",
						"Type": "RTID(swashbuckler@ZombieTypes)"
					}, {
						"Row": "5",
						"Type": "RTID(pirate@ZombieTypes)"
					} ]
			}
		}, {
			"aliases": [ "Wave5" ],
			"objclass": "SpawnZombiesJitteredWaveActionProps",
			"objdata": {
				"AdditionalPlantfood": 0,
				"Zombies": [ {
						"Row": "4",
						"Type": "RTID(pirate@ZombieTypes)"
					}, {
						"Row": "5",
						"Type": "RTID(pirate_armor1@ZombieTypes)"
					} ]
			}
		}, {
			"aliases": [ "Wave6" ],
			"objclass": "SpawnZombiesJitteredWaveActionProps",
			"objdata": {
				"AdditionalPlantfood": 1,
				"DynamicPlantfood": [ 1, 1, 1, 1, 1, 0, 1 ],
				"Zombies": [ {
						"Row": "5",
						"Type": "RTID(pirate@ZombieTypes)"
					}, {
						"Row": "4",
						"Type": "RTID(pirate@ZombieTypes)"
					}, {
						"Row": "5",
						"Type": "RTID(pirate@ZombieTypes)"
					}, {
						"Row": "1",
						"Type": "RTID(seagull@ZombieTypes)"
					} ]
			}
		}, {
			"aliases": [ "Wave7" ],
			"objclass": "SpawnZombiesJitteredWaveActionProps",
			"objdata": {
				"AdditionalPlantfood": 0,
				"Zombies": [ {
						"Row": "3",
						"Type": "RTID(cannon@ZombieTypes)"
					} ]
			}
		}, {
			"aliases": [ "Wave8" ],
			"objclass": "SpawnZombiesJitteredWaveActionProps",
			"objdata": {
				"Zombies": [ {
						"Row": "1",
						"Type": "RTID(swashbuckler@ZombieTypes)"
					}, {
						"Row": "2",
						"Type": "RTID(swashbuckler@ZombieTypes)"
					}, {
						"Row": "3",
						"Type": "RTID(swashbuckler@ZombieTypes)"
					}, {
						"Type": "RTID(pirate_captain@ZombieTypes)"
					}, {
						"Row": "4",
						"Type": "RTID(pirate_armor1@ZombieTypes)"
					} ]
			}
		}, {
			"aliases": [ "Wave9" ],
			"objclass": "SpawnZombiesJitteredWaveActionProps",
			"objdata": {
				"AdditionalPlantfood": 1,
				"DynamicPlantfood": [ 1, 1, 1, 1, 0, 1, 0 ],
				"Zombies": [ {
						"Row": "2",
						"Type": "RTID(swashbuckler@ZombieTypes)"
					}, {
						"Row": "3",
						"Type": "RTID(seagull@ZombieTypes)"
					}, {
						"Row": "4",
						"Type": "RTID(pirate@ZombieTypes)"
					}, {
						"Row": "5",
						"Type": "RTID(pirate@ZombieTypes)"
					}, {
						"Row": "5",
						"Type": "RTID(pirate_armor1@ZombieTypes)"
					} ]
			}
		}, {
			"aliases": [ "Wave10" ],
			"objclass": "SpawnZombiesJitteredWaveActionProps",
			"objdata": {
				"Zombies": [ {
						"Row": "5",
						"Type": "RTID(barrelroller@ZombieTypes)"
					}, {
						"Row": "4",
						"Type": "RTID(barrelroller@ZombieTypes)"
					} ]
			}
		}, {
			"aliases": [ "Wave11" ],
			"objclass": "SpawnZombiesJitteredWaveActionProps",
			"objdata": {
				"Zombies": [ {
						"Row": "3",
						"Type": "RTID(seagull@ZombieTypes)"
					}, {
						"Row": "4",
						"Type": "RTID(pirate@ZombieTypes)"
					}, {
						"Row": "5",
						"Type": "RTID(pirate@ZombieTypes)"
					}, {
						"Row": "4",
						"Type": "RTID(pirate@ZombieTypes)"
					}, {
						"Row": "5",
						"Type": "RTID(pirate@ZombieTypes)"
					} ]
			}
		}, {
			"aliases": [ "Wave12" ],
			"objclass": "SpawnZombiesJitteredWaveActionProps",
			"objdata": {
				"Zombies": [ {
						"Row": "1",
						"Type": "RTID(cannon@ZombieTypes)"
					} ]
			}
		}, {
			"aliases": [ "Wave13" ],
			"objclass": "SpawnZombiesJitteredWaveActionProps",
			"objdata": {
				"AdditionalPlantfood": 1,
				"DynamicPlantfood": [ 1, 1, 1, 1, 1, 0, 1 ],
				"Zombies": [ {
						"Row": "4",
						"Type": "RTID(pirate@ZombieTypes)"
					}, {
						"Row": "5",
						"Type": "RTID(pirate@ZombieTypes)"
					}, {
						"Row": "5",
						"Type": "RTID(pirate_armor1@ZombieTypes)"
					}, {
						"Type": "RTID(pirate_captain@ZombieTypes)"
					} ]
			}
		}, {
			"aliases": [ "Wave14" ],
			"objclass": "SpawnZombiesJitteredWaveActionProps",
			"objdata": {
				"Zombies": [ {
						"Row": "2",
						"Type": "RTID(cannon@ZombieTypes)"
					}, {
						"Row": "4",
						"Type": "RTID(pirate@ZombieTypes)"
					}, {
						"Row": "5",
						"Type": "RTID(pirate_armor1@ZombieTypes)"
					} ]
			}
		}, {
			"aliases": [ "Wave15" ],
			"objclass": "SpawnZombiesJitteredWaveActionProps",
			"objdata": {
				"AdditionalPlantfood": 0,
				"Zombies": [ {
						"Row": "5",
						"Type": "RTID(pirate@ZombieTypes)"
					}, {
						"Row": "4",
						"Type": "RTID(pirate@ZombieTypes)"
					}, {
						"Row": "1",
						"Type": "RTID(seagull@ZombieTypes)"
					}, {
						"Row": "2",
						"Type": "RTID(seagull@ZombieTypes)"
					}, {
						"Row": "3",
						"Type": "RTID(seagull@ZombieTypes)"
					}, {
						"Row": "4",
						"Type": "RTID(pirate_armor1@ZombieTypes)"
					} ]
			}
		}, {
			"aliases": [ "Wave16" ],
			"objclass": "SpawnZombiesJitteredWaveActionProps",
			"objdata": {
				"AdditionalPlantfood": 1,
				"DynamicPlantfood": [ 1, 1, 1, 1, 1, 1, 0 ],
				"Zombies": [ {
						"Row": "1",
						"Type": "RTID(cannon@ZombieTypes)"
					}, {
						"Row": "3",
						"Type": "RTID(cannon@ZombieTypes)"
					}, {
						"Type": "RTID(pirate_captain@ZombieTypes)"
					}, {
						"Row": "4",
						"Type": "RTID(pirate_armor1@ZombieTypes)"
					}, {
						"Row": "5",
						"Type": "RTID(pirate_armor1@ZombieTypes)"
					} ]
			}
		}, {
			"aliases": [ "Wave10RaidingPartyEvent0" ],
			"objclass": "RaidingPartyZombieSpawnerProps",
			"objdata": {
				"GroupSize": 3,
				"SwashbucklerCount": 3,
				"TimeBetweenGroups": 1
			}
		}, {
			"aliases": [ "Wave16RaidingPartyEvent0" ],
			"objclass": "RaidingPartyZombieSpawnerProps",
			"objdata": {
				"GroupSize": 5,
				"SwashbucklerCount": 5,
				"TimeBetweenGroups": 1
			}
		} ],
	"version": 1
}