{
	"#comment": "Pirate 10",
	"objects": [ {
			"objclass": "LevelDefinition",
			"objdata": {
				"CompletionAchievement": "yarr_matey",
				"Description": "[PLAYERS_TRIP_TO_PIRATE_SHIP]",
				"FirstIntroNarrative": "PIRATE_INTRO_GARGANTUAR",
				"FirstRewardType": "pinata",
				"FirstRewardParam": "spine_pirate",
				"ForceToWorldMap": true,
				"LevelNumber": 8,
				"Loot": "RTID(DefaultLoot@LevelModules)",
				"Modules": [ "RTID(StandardIntro@LevelModules)", "RTID(PiratePlanks@CurrentLevel)", "RTID(ConveyorBelt@CurrentLevel)", "RTID(ZombiesDeadWinCon@LevelModules)", "RTID(DefaultZombieWinCondition@LevelModules)", "RTID(ChallengeModule@CurrentLevel)", "RTID(NewWaves@CurrentLevel)" ],
				"MusicType": "MiniGame_A",
				"Name": "[PIRATE_LEVEL_NAME]",
				"NormalPresentTable": "pirate_normal_01",
				"ShinyPresentTable": "pirate_shiny_01",
				"StageModule": "RTID(PirateStage@LevelModules)"
			}
		}, {
			"aliases": [ "PiratePlanks" ],
			"objclass": "PiratePlankProperties",
			"objdata": {
				"PlankRows": [ 1, 2, 3 ]
			}
		}, {
			"aliases": [ "ConveyorBelt" ],
			"objclass": "ConveyorSeedBankProperties",
			"objdata": {
				"DropDelayConditions": [ {
						"Delay": 3,
						"MaxPackets": 0
					}, {
						"Delay": 6,
						"MaxPackets": 2
					}, {
						"Delay": 9,
						"MaxPackets": 4
					}, {
						"Delay": 12,
						"MaxPackets": 8
					} ],
				"InitialPlantList": [ {
						"PlantType": "kernelpult",
						"Weight": 25
					}, {
						"MaxCount": 3,
						"MaxWeightFactor": 0,
						"MinCount": 1,
						"MinWeightFactor": 2,
						"PlantType": "potatomine",
						"Weight": 10
					}, {
						"MaxCount": 6,
						"MaxWeightFactor": 0,
						"MinCount": 1,
						"MinWeightFactor": 2,
						"PlantType": "snapdragon",
						"Weight": 35
					}, {
						"MaxCount": 10,
						"MaxWeightFactor": 0,
						"MinCount": 3,
						"MinWeightFactor": 2,
						"PlantType": "spikeweed",
						"Weight": 25
					}, {
						"MaxCount": 5,
						"MaxWeightFactor": 0,
						"PlantType": "wallnut",
						"Weight": 10
					} ],
				"SpeedConditions": [ {
						"MaxPackets": 0,
						"Speed": 100
					} ]
			}
		}, {
			"aliases": [ "ChallengeModule" ],
			"objclass": "StarChallengeModuleProperties",
			"objdata": {
				"Challenges": [ [ "RTID(BeatTheLevel@CurrentLevel)", "RTID(SaveMowers@LevelModules)" ] ],
				"ChallengesAlwaysAvailable": true
			}
		}, {
			"aliases": [ "BeatTheLevel" ],
			"objclass": "StarChallengeBeatTheLevelProps",
			"objdata": {
				"Description": "[STARCHALLENGE_PIRATE_FINALE]",
				"DescriptiveName": "[STARCHALLENGE_PIRATE_FINALE_NAME]"
			}
		}, {
			"aliases": [ "NewWaves" ],
			"objclass": "WaveManagerModuleProperties",
			"objdata": {
				"DynamicZombies": [ {
						"PointIncrementPerWave": -40,
						"StartingPoints": -100,
						"StartingWave": 3,
						"ZombiePool": [ "RTID(barrelroller@ZombieTypes)", "RTID(pirate_armor1@ZombieTypes)", "RTID(pirate_armor2@ZombieTypes)", "RTID(seagull@ZombieTypes)", "RTID(swashbuckler@ZombieTypes)" ]
					}, {
						"PointIncrementPerWave": -25,
						"StartingPoints": -100,
						"StartingWave": 4,
						"ZombiePool": [ "RTID(barrelroller@ZombieTypes)", "RTID(pirate_armor1@ZombieTypes)", "RTID(pirate_armor2@ZombieTypes)", "RTID(seagull@ZombieTypes)", "RTID(swashbuckler@ZombieTypes)" ]
					}, {
						"PointIncrementPerWave": -10,
						"StartingPoints": -100,
						"StartingWave": 5,
						"ZombiePool": [ "RTID(barrelroller@ZombieTypes)", "RTID(pirate_armor1@ZombieTypes)", "RTID(pirate_armor2@ZombieTypes)", "RTID(seagull@ZombieTypes)", "RTID(swashbuckler@ZombieTypes)" ]
					}, {}, {
						"PointIncrementPerWave": 20,
						"StartingPoints": 100,
						"StartingWave": 5,
						"ZombiePool": [ "RTID(barrelroller@ZombieTypes)", "RTID(pirate_armor1@ZombieTypes)", "RTID(pirate_armor2@ZombieTypes)", "RTID(seagull@ZombieTypes)", "RTID(swashbuckler@ZombieTypes)" ]
					}, {
						"PointIncrementPerWave": 40,
						"StartingPoints": 200,
						"StartingWave": 4,
						"ZombiePool": [ "RTID(barrelroller@ZombieTypes)", "RTID(pirate_armor1@ZombieTypes)", "RTID(pirate_armor2@ZombieTypes)", "RTID(seagull@ZombieTypes)", "RTID(swashbuckler@ZombieTypes)" ]
					}, {
						"PointIncrementPerWave": 60,
						"StartingPoints": 400,
						"StartingWave": 3,
						"ZombiePool": [ "RTID(barrelroller@ZombieTypes)", "RTID(pirate_armor2@ZombieTypes)", "RTID(seagull@ZombieTypes)", "RTID(swashbuckler@ZombieTypes)" ]
					} ],
				"WaveManagerProps": "RTID(WaveManagerProps@CurrentLevel)"
			}
		}, {
			"aliases": [ "WaveManagerProps" ],
			"objclass": "WaveManagerProperties",
			"objdata": {
				"FlagWaveInterval": 9,
				"SuppressedDynamicZombieWaves": [ 10, 17 ],
				"WaveCount": 18,
				"WaveSpendingPointIncrement": 75,
				"WaveSpendingPoints": 200,
				"Waves": [ [ "RTID(Wave1@CurrentLevel)" ], [ "RTID(Wave2@CurrentLevel)" ], [ "RTID(Wave3@CurrentLevel)" ], [ "RTID(Wave4@CurrentLevel)" ], [ "RTID(Wave5@CurrentLevel)" ], [ "RTID(Wave6@CurrentLevel)" ], [ "RTID(Wave7@CurrentLevel)" ], [ "RTID(Wave8@CurrentLevel)" ], [ "RTID(Wave9@CurrentLevel)" ], [ "RTID(Wave10@CurrentLevel)", "RTID(Wave10RaidingPartyEvent0@CurrentLevel)" ], [ "RTID(Wave11@CurrentLevel)" ], [ "RTID(Wave12@CurrentLevel)" ], [ "RTID(Wave13@CurrentLevel)" ], [ "RTID(Wave14@CurrentLevel)" ], [ "RTID(Wave15@CurrentLevel)", "RTID(Wave15RaidingPartyEvent0@CurrentLevel)" ], [ "RTID(Wave16@CurrentLevel)" ], [ "RTID(Wave17@CurrentLevel)" ], [ "RTID(Wave18@CurrentLevel)", "RTID(Wave18RaidingPartyEvent0@CurrentLevel)" ] ]
			}
		}, {
			"aliases": [ "Wave1" ],
			"objclass": "SpawnZombiesJitteredWaveActionProps",
			"objdata": {
				"AdditionalPlantfood": 1,
				"Zombies": [ {
						"Type": "RTID(pirate_armor1@ZombieTypes)"
					} ]
			}
		}, {
			"aliases": [ "Wave2" ],
			"objclass": "SpawnZombiesJitteredWaveActionProps",
			"objdata": {
				"AdditionalPlantfood": 0,
				"Zombies": [ {
						"Type": "RTID(pirate_armor1@ZombieTypes)"
					} ]
			}
		}, {
			"aliases": [ "Wave3" ],
			"objclass": "SpawnZombiesJitteredWaveActionProps",
			"objdata": {
				"AdditionalPlantfood": 1,
				"DynamicPlantfood": [ 1, 1, 1, 1, 1, 1, 0 ],
				"Zombies": [ {
						"Type": "RTID(pirate_armor1@ZombieTypes)"
					}, {
						"Row": "3",
						"Type": "RTID(seagull@ZombieTypes)"
					} ]
			}
		}, {
			"aliases": [ "Wave4" ],
			"objclass": "SpawnZombiesJitteredWaveActionProps",
			"objdata": {
				"Zombies": [ {
						"Type": "RTID(pirate_armor2@ZombieTypes)"
					} ]
			}
		}, {
			"aliases": [ "Wave5" ],
			"objclass": "SpawnZombiesJitteredWaveActionProps",
			"objdata": {
				"AdditionalPlantfood": 1,
				"Zombies": [ {
						"Type": "RTID(pirate_armor1@ZombieTypes)"
					}, {
						"Type": "RTID(pirate_armor1@ZombieTypes)"
					} ]
			}
		}, {
			"aliases": [ "Wave6" ],
			"objclass": "SpawnZombiesJitteredWaveActionProps",
			"objdata": {
				"Zombies": [ {
						"Type": "RTID(pirate_armor1@ZombieTypes)"
					}, {
						"Type": "RTID(pirate_armor2@ZombieTypes)"
					} ]
			}
		}, {
			"aliases": [ "Wave7" ],
			"objclass": "SpawnZombiesJitteredWaveActionProps",
			"objdata": {
				"AdditionalPlantfood": 1,
				"DynamicPlantfood": [ 1, 1, 1, 1, 1, 1, 1 ],
				"Zombies": [ {
						"Row": "1",
						"Type": "RTID(swashbuckler@ZombieTypes)"
					}, {
						"Row": "5",
						"Type": "RTID(swashbuckler@ZombieTypes)"
					}, {
						"Type": "RTID(pirate_armor1@ZombieTypes)"
					}, {
						"Row": "prev",
						"Type": "RTID(pirate_armor1@ZombieTypes)"
					} ]
			}
		}, {
			"aliases": [ "Wave8" ],
			"objclass": "SpawnZombiesJitteredWaveActionProps",
			"objdata": {
				"Zombies": [ {
						"Type": "RTID(seagull@ZombieTypes)"
					}, {
						"Row": "4",
						"Type": "RTID(barrelroller@ZombieTypes)"
					} ]
			}
		}, {
			"aliases": [ "Wave9" ],
			"objclass": "SpawnZombiesJitteredWaveActionProps",
			"objdata": {
				"AdditionalPlantfood": 1,
				"DynamicPlantfood": [ 1, 1, 1, 1, 1, 1, 1 ],
				"Zombies": [ {
						"Row": "5",
						"Type": "RTID(seagull@ZombieTypes)"
					}, {
						"Row": "4",
						"Type": "RTID(seagull@ZombieTypes)"
					}, {
						"Row": "3",
						"Type": "RTID(seagull@ZombieTypes)"
					}, {
						"Row": "2",
						"Type": "RTID(seagull@ZombieTypes)"
					}, {
						"Row": "1",
						"Type": "RTID(seagull@ZombieTypes)"
					}, {
						"Type": "RTID(swashbuckler@ZombieTypes)"
					}, {
						"Type": "RTID(swashbuckler@ZombieTypes)"
					}, {
						"Row": "3",
						"Type": "RTID(pirate_armor2@ZombieTypes)"
					} ]
			}
		}, {
			"aliases": [ "Wave10" ],
			"objclass": "SpawnZombiesJitteredWaveActionProps",
			"objdata": {
				"AdditionalPlantfood": 1,
				"DynamicPlantfood": [ 1, 1, 1, 1, 0, 0, 0 ],
				"Zombies": [ {
						"Row": "2",
						"Type": "RTID(barrelroller@ZombieTypes)"
					}, {
						"Row": "5",
						"Type": "RTID(swashbuckler@ZombieTypes)"
					}, {
						"Row": "1",
						"Type": "RTID(swashbuckler@ZombieTypes)"
					} ]
			}
		}, {
			"aliases": [ "Wave11" ],
			"objclass": "SpawnZombiesJitteredWaveActionProps",
			"objdata": {
				"Zombies": [ {
						"Row": "4",
						"Type": "RTID(pirate_gargantuar@ZombieTypes)"
					} ]
			}
		}, {
			"aliases": [ "Wave12" ],
			"objclass": "SpawnZombiesJitteredWaveActionProps",
			"objdata": {
				"AdditionalPlantfood": 1,
				"DynamicPlantfood": [ 1, 1, 1, 1, 1, 1, 1 ],
				"Zombies": [ {
						"Row": "3",
						"Type": "RTID(swashbuckler@ZombieTypes)"
					}, {
						"Row": "2",
						"Type": "RTID(swashbuckler@ZombieTypes)"
					}, {
						"Row": "4",
						"Type": "RTID(swashbuckler@ZombieTypes)"
					}, {
						"Type": "RTID(pirate_armor1@ZombieTypes)"
					} ]
			}
		}, {
			"aliases": [ "Wave13" ],
			"objclass": "SpawnZombiesJitteredWaveActionProps",
			"objdata": {
				"Zombies": [ {
						"Row": "5",
						"Type": "RTID(seagull@ZombieTypes)"
					}, {
						"Row": "3",
						"Type": "RTID(seagull@ZombieTypes)"
					}, {
						"Row": "1",
						"Type": "RTID(seagull@ZombieTypes)"
					}, {
						"Row": "5",
						"Type": "RTID(swashbuckler@ZombieTypes)"
					}, {
						"Row": "3",
						"Type": "RTID(swashbuckler@ZombieTypes)"
					}, {
						"Row": "1",
						"Type": "RTID(swashbuckler@ZombieTypes)"
					} ]
			}
		}, {
			"aliases": [ "Wave14" ],
			"objclass": "SpawnZombiesJitteredWaveActionProps",
			"objdata": {
				"AdditionalPlantfood": 1,
				"DynamicPlantfood": [ 1, 1, 1, 1, 1, 1, 1 ],
				"Zombies": [ {
						"Row": "4",
						"Type": "RTID(pirate_armor1@ZombieTypes)"
					}, {
						"Row": "2",
						"Type": "RTID(pirate_armor1@ZombieTypes)"
					}, {
						"Row": "1",
						"Type": "RTID(seagull@ZombieTypes)"
					}, {
						"Row": "5",
						"Type": "RTID(seagull@ZombieTypes)"
					}, {
						"Row": "3",
						"Type": "RTID(seagull@ZombieTypes)"
					} ]
			}
		}, {
			"aliases": [ "Wave15" ],
			"objclass": "SpawnZombiesJitteredWaveActionProps",
			"objdata": {
				"AdditionalPlantfood": 1,
				"DynamicPlantfood": [ 1, 1, 1, 1, 1, 0, 0 ],
				"Zombies": [ {
						"Row": "2",
						"Type": "RTID(pirate_armor1@ZombieTypes)"
					}, {
						"Row": "3",
						"Type": "RTID(barrelroller@ZombieTypes)"
					}, {
						"Row": "4",
						"Type": "RTID(pirate_armor1@ZombieTypes)"
					}, {
						"Row": "1",
						"Type": "RTID(seagull@ZombieTypes)"
					}, {
						"Row": "5",
						"Type": "RTID(seagull@ZombieTypes)"
					} ]
			}
		}, {
			"aliases": [ "Wave16" ],
			"objclass": "SpawnZombiesJitteredWaveActionProps",
			"objdata": {
				"AdditionalPlantfood": 1,
				"DynamicPlantfood": [ 1, 1, 1, 1, 1, 1, 1 ],
				"Zombies": [ {
						"Row": "1",
						"Type": "RTID(seagull@ZombieTypes)"
					}, {
						"Row": "5",
						"Type": "RTID(seagull@ZombieTypes)"
					}, {
						"Row": "4",
						"Type": "RTID(barrelroller@ZombieTypes)"
					}, {
						"Row": "2",
						"Type": "RTID(barrelroller@ZombieTypes)"
					} ]
			}
		}, {
			"aliases": [ "Wave17" ],
			"objclass": "SpawnZombiesJitteredWaveActionProps",
			"objdata": {
				"Zombies": [ {
						"Row": "3",
						"Type": "RTID(seagull@ZombieTypes)"
					}, {
						"Row": "4",
						"Type": "RTID(seagull@ZombieTypes)"
					}, {
						"Row": "2",
						"Type": "RTID(seagull@ZombieTypes)"
					}, {
						"Row": "1",
						"Type": "RTID(seagull@ZombieTypes)"
					}, {
						"Row": "5",
						"Type": "RTID(seagull@ZombieTypes)"
					}, {
						"Row": "3",
						"Type": "RTID(seagull@ZombieTypes)"
					} ]
			}
		}, {
			"aliases": [ "Wave18" ],
			"objclass": "SpawnZombiesJitteredWaveActionProps",
			"objdata": {
				"AdditionalPlantfood": 0,
				"Zombies": [ {
						"Row": "2",
						"Type": "RTID(pirate_gargantuar@ZombieTypes)"
					}, {
						"Row": "4",
						"Type": "RTID(pirate_gargantuar@ZombieTypes)"
					} ]
			}
		}, {
			"aliases": [ "Wave10RaidingPartyEvent0" ],
			"objclass": "RaidingPartyZombieSpawnerProps",
			"objdata": {
				"GroupSize": 1,
				"SwashbucklerCount": 4,
				"TimeBetweenGroups": 1
			}
		}, {
			"aliases": [ "Wave15RaidingPartyEvent0" ],
			"objclass": "RaidingPartyZombieSpawnerProps",
			"objdata": {
				"GroupSize": 1,
				"SwashbucklerCount": 8,
				"TimeBetweenGroups": 1
			}
		}, {
			"aliases": [ "Wave18RaidingPartyEvent0" ],
			"objclass": "RaidingPartyZombieSpawnerProps",
			"objdata": {
				"GroupSize": 1,
				"SwashbucklerCount": 10,
				"TimeBetweenGroups": 1
			}
		} ],
	"version": 1
}