{
	"#comment": "Rift 1",
	"objects": [
		{
			"objclass": "LevelDefinition",
			"objdata": {
				"Description": "Rift 1 Normal",
				"FirstOutroNarrative": "",
				"FirstRewardParam": "",
				"FirstRewardType": "",
				"LevelNumber": 1,
				"Loot": "RTID(DefaultLoot@LevelModules)",
				"Modules": [
					"RTID(StandardIntro@LevelModules)",
					"RTID(DefaultSunDropper@LevelModules)",
					"RTID(ZombiesDeadWinCon@LevelModules)",
					"RTID(DarkMowers@LevelModules)",
					"RTID(SeedBank@CurrentLevel)",
					"RTID(DefaultZombieWinCondition@LevelModules)",
					"RTID(NewWaves@CurrentLevel)",
					"RTID(ChallengeModule@CurrentLevel)",
					"RTID(ProtectThePlant@CurrentLevel)",
					"RTID(LevelDifficultyScaling@CurrentLevel)",
					"RTID(LevelScoring@CurrentLevel)",
					"RTID(ScoreTiles@CurrentLevel)",
					"RTID(TreadmillGeneralZombie3MinModule@LevelModules)",
					"RTID(ZombieResistances@CurrentLevel)"
				],
				"MusicType": "MiniGame_B",
				"Name": "[DINO_LEVEL_NAME]",
				"NormalPresentTable": "egypt_normal_01",
				"ShinyPresentTable": "egypt_shiny_01",
				"StageModule": "RTID(RiftStage@LevelModules)",
				"StartingSun": 75
			}
		},
		{
			"aliases": [
				"ZombieResistances"
			],
			"objclass": "ZombieResistancesModuleProperties",
			"objdata": {
				"FamilyResistances": {
					"global": [
						{
							"#comment": "150% damage and condition",
							"ConditionResistance": 1.5,
							"DamageResistance": 1.5,
							"FamilyType": "enforcemint"
						},
						{
							"#comment": "50% damage and condition",
							"ConditionResistance": 0.5,
							"DamageResistance": 0.5,
							"FamilyType": "filamint"
						}
					]
				}
			}
		},
		{
			"aliases": [
				"ChallengeModule"
			],
			"objclass": "StarChallengeModuleProperties",
			"objdata": {
				"Challenges": [
					[
						"RTID(BeatTheLevel@CurrentLevel)",
						"RTID(ReachTheScore@CurrentLevel)"
					]
				],
				"ChallengesAlwaysAvailable": true
			}
		},
		{
			"aliases": [
				"ReachTheScore"
			],
			"objclass": "StarChallengeTargetScoreProps",
			"objdata": {
				"Description": "[STARCHALLENGE_SCORE_TO_BEAT]",
				"DescriptionFailure": "[STARCHALLENGE_TARGET_SCORE_FAILURE]",
				"DescriptiveName": "[STARCHALLENGE_TARGET_SCORE_NAME]",
				"TargetScore": 250000
			}
		},
		{
			"aliases": [
				"LevelDifficultyScaling"
			],
			"objclass": "LevelDifficultyScalingModuleProperties",
			"objdata": {
				"DifficultyRulesType": "NormalRiftFlatDifficulty",
				"ZombieLevelSwaps": [
					{
						"Level": 1,
						"Swaps": [
							{
								"From": "RTID(dino@ZombieTypes)",
								"To": [
									"RTID(dino@ZombieTypes)",
									"RTID(tutorial@ZombieTypes)",
									"RTID(mummy@ZombieTypes)"
								]
							},
							{
								"From": "RTID(dino_armor1@ZombieTypes)",
								"To": [
									"RTID(dino_armor1@ZombieTypes)",
									"RTID(tutorial_armor1@ZombieTypes)",
									"RTID(mummy_armor1@ZombieTypes)",
									"RTID(tomb_raiser@ZombieTypes)"
								]
							},
							{
								"From": "RTID(dino_armor2@ZombieTypes)",
								"To": [
									"RTID(dino_armor2@ZombieTypes)",
									"RTID(tutorial_armor2@ZombieTypes)",
									"RTID(mummy_armor2@ZombieTypes)",
									"RTID(modern_balloon@ZombieTypes)"
								]
							},
							{
								"From": "RTID(dino_armor3@ZombieTypes)",
								"To": [
									"RTID(dino_armor3@ZombieTypes)",
									"RTID(modern_newspaper@ZombieTypes)",
									"RTID(pharaoh@ZombieTypes)"
								]
							},
							{
								"From": "RTID(dino_imp@ZombieTypes)",
								"To": [
									"RTID(dino_imp@ZombieTypes)",
									"RTID(tutorial_imp@ZombieTypes)",
									"RTID(egypt_imp@ZombieTypes)"
								]
							},
							{
								"From": "RTID(dino_gargantuar@ZombieTypes)",
								"To": [
									"RTID(dino_gargantuar@ZombieTypes)",
									"RTID(tutorial_gargantuar@ZombieTypes)",
									"RTID(egypt_gargantuar@ZombieTypes)"
								]
							}
						]
					},
					{
						"Level": 3,
						"Swaps": [
							{
								"From": "RTID(dino@ZombieTypes)",
								"To": [
									"RTID(dino@ZombieTypes)",
									"RTID(tutorial@ZombieTypes)",
									"RTID(mummy@ZombieTypes)"
								]
							},
							{
								"From": "RTID(dino_armor1@ZombieTypes)",
								"To": [
									"RTID(dino_armor1@ZombieTypes)",
									"RTID(tutorial_armor1@ZombieTypes)",
									"RTID(mummy_armor1@ZombieTypes)",
									"RTID(tomb_raiser@ZombieTypes)"
								]
							},
							{
								"From": "RTID(dino_armor2@ZombieTypes)",
								"To": [
									"RTID(dino_armor2@ZombieTypes)",
									"RTID(tutorial_armor2@ZombieTypes)",
									"RTID(mummy_armor2@ZombieTypes)",
									"RTID(modern_balloon@ZombieTypes)"
								]
							},
							{
								"From": "RTID(dino_armor3@ZombieTypes)",
								"To": [
									"RTID(dino_armor3@ZombieTypes)",
									"RTID(modern_newspaper@ZombieTypes)",
									"RTID(pharaoh@ZombieTypes)"
								]
							},
							{
								"From": "RTID(dino_imp@ZombieTypes)",
								"To": [
									"RTID(dino_imp@ZombieTypes)",
									"RTID(tutorial_imp@ZombieTypes)",
									"RTID(egypt_imp@ZombieTypes)"
								]
							},
							{
								"From": "RTID(dino_gargantuar@ZombieTypes)",
								"To": [
									"RTID(dino_gargantuar@ZombieTypes)",
									"RTID(tutorial_gargantuar@ZombieTypes)",
									"RTID(egypt_gargantuar@ZombieTypes)"
								]
							}
						]
					},
					{
						"Level": 5,
						"Swaps": [
							{
								"From": "RTID(dino@ZombieTypes)",
								"To": [
									"RTID(dino@ZombieTypes)",
									"RTID(tutorial@ZombieTypes)",
									"RTID(mummy@ZombieTypes)"
								]
							},
							{
								"From": "RTID(dino_armor1@ZombieTypes)",
								"To": [
									"RTID(dino_armor1@ZombieTypes)",
									"RTID(tutorial_armor1@ZombieTypes)",
									"RTID(mummy_armor1@ZombieTypes)",
									"RTID(tomb_raiser@ZombieTypes)"
								]
							},
							{
								"From": "RTID(dino_armor2@ZombieTypes)",
								"To": [
									"RTID(dino_armor2@ZombieTypes)",
									"RTID(tutorial_armor2@ZombieTypes)",
									"RTID(mummy_armor2@ZombieTypes)",
									"RTID(modern_balloon@ZombieTypes)"
								]
							},
							{
								"From": "RTID(dino_armor3@ZombieTypes)",
								"To": [
									"RTID(dino_armor3@ZombieTypes)",
									"RTID(modern_newspaper@ZombieTypes)",
									"RTID(pharaoh@ZombieTypes)"
								]
							},
							{
								"From": "RTID(dino_imp@ZombieTypes)",
								"To": [
									"RTID(dino_imp@ZombieTypes)",
									"RTID(tutorial_imp@ZombieTypes)",
									"RTID(egypt_imp@ZombieTypes)"
								]
							},
							{
								"From": "RTID(dino_gargantuar@ZombieTypes)",
								"To": [
									"RTID(dino_gargantuar@ZombieTypes)",
									"RTID(tutorial_gargantuar@ZombieTypes)",
									"RTID(egypt_gargantuar@ZombieTypes)"
								]
							}
						]
					},
					{
						"Level": 7,
						"Swaps": [
							{
								"From": "RTID(dino@ZombieTypes)",
								"To": [
									"RTID(dino@ZombieTypes)",
									"RTID(tutorial@ZombieTypes)",
									"RTID(mummy@ZombieTypes)"
								]
							},
							{
								"From": "RTID(dino_armor1@ZombieTypes)",
								"To": [
									"RTID(dino_armor1@ZombieTypes)",
									"RTID(tutorial_armor1@ZombieTypes)",
									"RTID(mummy_armor1@ZombieTypes)",
									"RTID(tomb_raiser@ZombieTypes)"
								]
							},
							{
								"From": "RTID(dino_armor2@ZombieTypes)",
								"To": [
									"RTID(dino_armor2@ZombieTypes)",
									"RTID(tutorial_armor2@ZombieTypes)",
									"RTID(mummy_armor2@ZombieTypes)",
									"RTID(modern_balloon@ZombieTypes)"
								]
							},
							{
								"From": "RTID(dino_armor3@ZombieTypes)",
								"To": [
									"RTID(dino_armor3@ZombieTypes)",
									"RTID(modern_newspaper@ZombieTypes)",
									"RTID(pharaoh@ZombieTypes)"
								]
							},
							{
								"From": "RTID(dino_imp@ZombieTypes)",
								"To": [
									"RTID(dino_imp@ZombieTypes)",
									"RTID(tutorial_imp@ZombieTypes)",
									"RTID(egypt_imp@ZombieTypes)"
								]
							},
							{
								"From": "RTID(dino_gargantuar@ZombieTypes)",
								"To": [
									"RTID(dino_gargantuar@ZombieTypes)",
									"RTID(tutorial_gargantuar@ZombieTypes)",
									"RTID(egypt_gargantuar@ZombieTypes)"
								]
							}
						]
					},
					{
						"Level": 9,
						"Swaps": [
							{
								"From": "RTID(dino@ZombieTypes)",
								"To": [
									"RTID(dino@ZombieTypes)",
									"RTID(tutorial@ZombieTypes)",
									"RTID(mummy@ZombieTypes)"
								]
							},
							{
								"From": "RTID(dino_armor1@ZombieTypes)",
								"To": [
									"RTID(dino_armor1@ZombieTypes)",
									"RTID(tutorial_armor1@ZombieTypes)",
									"RTID(mummy_armor1@ZombieTypes)",
									"RTID(tomb_raiser@ZombieTypes)"
								]
							},
							{
								"From": "RTID(dino_armor2@ZombieTypes)",
								"To": [
									"RTID(dino_armor2@ZombieTypes)",
									"RTID(tutorial_armor2@ZombieTypes)",
									"RTID(mummy_armor2@ZombieTypes)",
									"RTID(modern_balloon@ZombieTypes)"
								]
							},
							{
								"From": "RTID(dino_armor3@ZombieTypes)",
								"To": [
									"RTID(dino_armor3@ZombieTypes)",
									"RTID(modern_newspaper@ZombieTypes)",
									"RTID(pharaoh@ZombieTypes)"
								]
							},
							{
								"From": "RTID(dino_imp@ZombieTypes)",
								"To": [
									"RTID(dino_imp@ZombieTypes)",
									"RTID(tutorial_imp@ZombieTypes)",
									"RTID(egypt_imp@ZombieTypes)"
								]
							},
							{
								"From": "RTID(dino_gargantuar@ZombieTypes)",
								"To": [
									"RTID(dino_gargantuar@ZombieTypes)",
									"RTID(tutorial_gargantuar@ZombieTypes)",
									"RTID(egypt_gargantuar@ZombieTypes)"
								]
							}
						]
					}
				]
			}
		},
		{
			"aliases": [
				"LevelScoring"
			],
			"objclass": "LevelScoringModuleProperties",
			"objdata": {
				"PlantBonusMultiplier": 0.1,
				"PlantBonuses": [],
				"ScoringRulesType": "Rift",
				"StartingPlantfood": 2
			}
		},
		{
			"aliases": [
				"BeatTheLevel"
			],
			"objclass": "StarChallengeBeatTheLevelProps",
			"objdata": {
				"Description": "[STARCHALLENGE_PROTECT_THE_PLANT]",
				"DescriptiveName": "[STARCHALLENGE_PROTECT_THE_PLANT_NAME]"
			}
		},
		{
			"aliases": [
				"ProtectThePlant"
			],
			"objclass": "ProtectThePlantChallengeProperties",
			"objdata": {
				"MustProtectCount": 2,
				"Plants": [
					{
						"GridX": 4,
						"GridY": 1,
						"PlantType": "primalwallnut"
					},
					{
						"GridX": 4,
						"GridY": 3,
						"PlantType": "primalwallnut"
					}
				]
			}
		},
		{
			"aliases": [
				"SeedBank"
			],
			"objclass": "SeedBankProperties",
			"objdata": {
				"OverrideSeedSlotsCount": 8,
				"SelectionMethod": "chooser"
			}
		},
		{
			"aliases": [
				"ScoreTiles"
			],
			"objclass": "InitialGridItemProperties",
			"objdata": {
				"InitialGridItemPlacements": [
					{
						"GridX": 8,
						"GridY": 0,
						"TypeName": "score_2x_tile"
					},
					{
						"GridX": 8,
						"GridY": 1,
						"TypeName": "score_2x_tile"
					},
					{
						"GridX": 8,
						"GridY": 2,
						"TypeName": "score_2x_tile"
					},
					{
						"GridX": 8,
						"GridY": 3,
						"TypeName": "score_2x_tile"
					},
					{
						"GridX": 8,
						"GridY": 4,
						"TypeName": "score_2x_tile"
					},
					{
						"GridX": 7,
						"GridY": 0,
						"TypeName": "score_2x_tile"
					},
					{
						"GridX": 7,
						"GridY": 1,
						"TypeName": "score_2x_tile"
					},
					{
						"GridX": 7,
						"GridY": 2,
						"TypeName": "score_2x_tile"
					},
					{
						"GridX": 7,
						"GridY": 3,
						"TypeName": "score_2x_tile"
					},
					{
						"GridX": 7,
						"GridY": 4,
						"TypeName": "score_2x_tile"
					}
				]
			}
		},
		{
			"aliases": [
				"NewWaves"
			],
			"objclass": "WaveManagerModuleProperties",
			"objdata": {
				"DynamicZombies": [
					{
						"PointIncrementPerWave": 0,
						"StartingPoints": 0,
						"StartingWave": 0,
						"ZombiePool": [
							"RTID(dino@ZombieTypes)",
							"RTID(dino_armor1@ZombieTypes)",
							"RTID(dino_armor2@ZombieTypes)"
						]
					},
					{
						"PointIncrementPerWave": 0,
						"StartingPoints": 0,
						"StartingWave": 0,
						"ZombiePool": [
							"RTID(dino@ZombieTypes)",
							"RTID(dino_armor1@ZombieTypes)",
							"RTID(dino_armor2@ZombieTypes)"
						]
					},
					{
						"PointIncrementPerWave": 0,
						"StartingPoints": 0,
						"StartingWave": 0,
						"ZombiePool": [
							"RTID(dino@ZombieTypes)",
							"RTID(dino_armor1@ZombieTypes)",
							"RTID(dino_armor2@ZombieTypes)"
						]
					},
					{
						"MaxPoints": 3000,
						"PointIncrementPerWave": 100,
						"StartingPoints": 100,
						"StartingWave": 1,
						"ZombiePool": [
							"RTID(dino_armor1@ZombieTypes)",
							"RTID(dino_armor2@ZombieTypes)",
							"RTID(dino_armor3@ZombieTypes)"
						]
					},
					{
						"PointIncrementPerWave": 0,
						"StartingPoints": 0,
						"StartingWave": 0,
						"ZombiePool": [
							"RTID(dino@ZombieTypes)",
							"RTID(dino_armor1@ZombieTypes)",
							"RTID(dino_armor2@ZombieTypes)"
						]
					},
					{
						"PointIncrementPerWave": 0,
						"StartingPoints": 0,
						"StartingWave": 0,
						"ZombiePool": [
							"RTID(dino@ZombieTypes)",
							"RTID(dino_armor1@ZombieTypes)",
							"RTID(dino_armor2@ZombieTypes)"
						]
					},
					{
						"PointIncrementPerWave": 0,
						"StartingPoints": 0,
						"StartingWave": 0,
						"ZombiePool": [
							"RTID(dino@ZombieTypes)",
							"RTID(dino_armor2@ZombieTypes)"
						]
					}
				],
				"WaveManagerProps": "RTID(WaveManagerProps@CurrentLevel)"
			}
		},
		{
			"aliases": [
				"WaveManagerProps"
			],
			"objclass": "WaveManagerProperties",
			"objdata": {
				"FlagWaveInterval": 5,
				"WaveCount": 10,
				"WaveSpendingPointIncrement": 100,
				"WaveSpendingPoints": 100,
				"Waves": [
					[
						"RTID(Wave1@CurrentLevel)"
					],
					[
						"RTID(Wave2@CurrentLevel)"
					],
					[
						"RTID(Wave3@CurrentLevel)",
						"RTID(Wave3DinoTimeEvent0@CurrentLevel)"
					],
					[
						"RTID(Wave4@CurrentLevel)"
					],
					[
						"RTID(Wave5@CurrentLevel)",
						"RTID(Wave5DinoTimeEvent0@CurrentLevel)"
					],
					[
						"RTID(Wave6@CurrentLevel)"
					],
					[
						"RTID(Wave7@CurrentLevel)"
					],
					[
						"RTID(Wave8@CurrentLevel)",
						"RTID(Wave8DinoTimeEvent0@CurrentLevel)"
					],
					[
						"RTID(Wave9@CurrentLevel)"
					],
					[
						"RTID(Wave10@CurrentLevel)",
						"RTID(Wave10DinoTimeEvent0@CurrentLevel)",
						"RTID(Wave10DinoTimeEvent1@CurrentLevel)"
					]
				],
				"WavesAlwaysRandomized": true,
				"ZombieCountdownFirstWaveSecs": 12
			}
		},
		{
			"aliases": [
				"Wave1"
			],
			"objclass": "SpawnZombiesJitteredWaveActionProps",
			"objdata": {
				"AdditionalPlantfood": 0,
				"Zombies": [
					{
						"Type": "RTID(dino@ZombieTypes)"
					}
				]
			}
		},
		{
			"aliases": [
				"Wave2"
			],
			"objclass": "SpawnZombiesJitteredWaveActionProps",
			"objdata": {
				"Zombies": [
					{
						"Row": "3",
						"Type": "RTID(dino_imp@ZombieTypes)"
					},
					{
						"Row": "5",
						"Type": "RTID(dino@ZombieTypes)"
					}
				]
			}
		},
		{
			"aliases": [
				"Wave3"
			],
			"objclass": "SpawnZombiesJitteredWaveActionProps",
			"objdata": {
				"AdditionalPlantfood": 1,
				"Zombies": [
					{
						"Row": "5",
						"Type": "RTID(dino@ZombieTypes)"
					},
					{
						"Row": "4",
						"Type": "RTID(dino@ZombieTypes)"
					},
					{
						"Row": "3",
						"Type": "RTID(dino@ZombieTypes)"
					}
				]
			}
		},
		{
			"aliases": [
				"Wave4"
			],
			"objclass": "SpawnZombiesJitteredWaveActionProps",
			"objdata": {
				"Zombies": [
					{
						"Row": "4",
						"Type": "RTID(dino_imp@ZombieTypes)"
					},
					{
						"Row": "2",
						"Type": "RTID(dino_armor1@ZombieTypes)"
					},
					{
						"Row": "1",
						"Type": "RTID(dino@ZombieTypes)"
					}
				]
			}
		},
		{
			"aliases": [
				"Wave5"
			],
			"objclass": "SpawnZombiesJitteredWaveActionProps",
			"objdata": {
				"AdditionalPlantfood": 0,
				"Zombies": [
					{
						"Row": "5",
						"Type": "RTID(dino_armor1@ZombieTypes)"
					},
					{
						"Row": "4",
						"Type": "RTID(dino@ZombieTypes)"
					},
					{
						"Row": "4",
						"Type": "RTID(dino_armor1@ZombieTypes)"
					},
					{
						"Row": "3",
						"Type": "RTID(dino_armor2@ZombieTypes)"
					},
					{
						"Row": "2",
						"Type": "RTID(dino@ZombieTypes)"
					},
					{
						"Row": "2",
						"Type": "RTID(dino_imp@ZombieTypes)"
					},
					{
						"Row": "1",
						"Type": "RTID(dino@ZombieTypes)"
					},
					{
						"Row": "1",
						"Type": "RTID(dino_imp@ZombieTypes)"
					}
				]
			}
		},
		{
			"aliases": [
				"Wave6"
			],
			"objclass": "SpawnZombiesJitteredWaveActionProps",
			"objdata": {
				"Zombies": [
					{
						"Row": "5",
						"Type": "RTID(dino_imp@ZombieTypes)"
					},
					{
						"Row": "3",
						"Type": "RTID(dino@ZombieTypes)"
					},
					{
						"Row": "2",
						"Type": "RTID(dino_armor1@ZombieTypes)"
					},
					{
						"Row": "1",
						"Type": "RTID(dino_armor1@ZombieTypes)"
					}
				]
			}
		},
		{
			"aliases": [
				"Wave7"
			],
			"objclass": "SpawnZombiesJitteredWaveActionProps",
			"objdata": {
				"AdditionalPlantfood": 1,
				"Zombies": [
					{
						"Row": "5",
						"Type": "RTID(dino@ZombieTypes)"
					},
					{
						"Row": "4",
						"Type": "RTID(dino_armor2@ZombieTypes)"
					},
					{
						"Row": "3",
						"Type": "RTID(dino@ZombieTypes)"
					},
					{
						"Row": "1",
						"Type": "RTID(dino@ZombieTypes)"
					}
				]
			}
		},
		{
			"aliases": [
				"Wave8"
			],
			"objclass": "SpawnZombiesJitteredWaveActionProps",
			"objdata": {
				"AdditionalPlantfood": 0,
				"Zombies": [
					{
						"Row": "4",
						"Type": "RTID(dino@ZombieTypes)"
					},
					{
						"Row": "4",
						"Type": "RTID(dino_imp@ZombieTypes)"
					},
					{
						"Row": "3",
						"Type": "RTID(dino@ZombieTypes)"
					},
					{
						"Row": "3",
						"Type": "RTID(dino_imp@ZombieTypes)"
					},
					{
						"Row": "2",
						"Type": "RTID(dino@ZombieTypes)"
					},
					{
						"Row": "2",
						"Type": "RTID(dino_imp@ZombieTypes)"
					},
					{
						"Row": "1",
						"Type": "RTID(dino@ZombieTypes)"
					},
					{
						"Row": "1",
						"Type": "RTID(dino_imp@ZombieTypes)"
					}
				]
			}
		},
		{
			"aliases": [
				"Wave9"
			],
			"objclass": "SpawnZombiesJitteredWaveActionProps",
			"objdata": {
				"Zombies": [
					{
						"Row": "5",
						"Type": "RTID(dino_armor3@ZombieTypes)"
					},
					{
						"Row": "5",
						"Type": "RTID(dino@ZombieTypes)"
					},
					{
						"Row": "5",
						"Type": "RTID(dino@ZombieTypes)"
					},
					{
						"Row": "5",
						"Type": "RTID(dino@ZombieTypes)"
					}
				]
			}
		},
		{
			"aliases": [
				"Wave10"
			],
			"objclass": "SpawnZombiesJitteredWaveActionProps",
			"objdata": {
				"AdditionalPlantfood": 0,
				"Zombies": [
					{
						"Row": "4",
						"Type": "RTID(dino@ZombieTypes)"
					},
					{
						"Row": "4",
						"Type": "RTID(dino@ZombieTypes)"
					},
					{
						"Row": "4",
						"Type": "RTID(dino@ZombieTypes)"
					},
					{
						"Row": "4",
						"Type": "RTID(dino@ZombieTypes)"
					},
					{
						"Row": "2",
						"Type": "RTID(dino@ZombieTypes)"
					},
					{
						"Row": "2",
						"Type": "RTID(dino@ZombieTypes)"
					},
					{
						"Row": "2",
						"Type": "RTID(dino@ZombieTypes)"
					},
					{
						"Row": "2",
						"Type": "RTID(dino@ZombieTypes)"
					},
					{
						"Row": "3",
						"Type": "RTID(dino_gargantuar@ZombieTypes)"
					}
				]
			}
		},
		{
			"aliases": [
				"Wave5DinoTimeEvent0"
			],
			"objclass": "DinoWaveActionProps",
			"objdata": {
				"DinoRow": 1,
				"DinoType": "raptor",
				"DinoWaveDuration": "0"
			}
		},
		{
			"aliases": [
				"Wave8DinoTimeEvent0"
			],
			"objclass": "DinoWaveActionProps",
			"objdata": {
				"DinoRow": 3,
				"DinoType": "raptor",
				"DinoWaveDuration": "0"
			}
		},
		{
			"aliases": [
				"Wave10DinoTimeEvent0"
			],
			"objclass": "DinoWaveActionProps",
			"objdata": {
				"DinoRow": 3,
				"DinoType": "ptero",
				"DinoWaveDuration": "0"
			}
		},
		{
			"aliases": [
				"Wave10DinoTimeEvent1"
			],
			"objclass": "DinoWaveActionProps",
			"objdata": {
				"DinoRow": "2",
				"DinoType": "ptero",
				"DinoWaveDuration": "0"
			}
		},
		{
			"aliases": [
				"Wave3DinoTimeEvent0"
			],
			"objclass": "DinoWaveActionProps",
			"objdata": {
				"DinoRow": 3,
				"DinoType": "raptor",
				"DinoWaveDuration": 4
			}
		}
	],
	"version": 1
}