{
	"#comment": "Lost City 4",
	"objects": [ {
			"objclass": "LevelDefinition",
			"objdata": {
				"Description": "[PLAYERS_TRIP_TO_RIFT]",
				"FirstRewardParam": "spine_lostcity",
				"FirstRewardType": "pinata",
				"LevelMutator": "RTID(LevelMutator@CurrentLevel)",
				"LevelNumber": 4,
				"Loot": "RTID(DefaultLoot@LevelModules)",
				"Modules": [ "RTID(DefaultSunDropper@LevelModules)", "RTID(LostCityMowers@LevelModules)", "RTID(DefaultZombieWinCondition@LevelModules)", "RTID(ZombiesDeadWinCon@LevelModules)", "RTID(GoldTiles@CurrentLevel)", "RTID(SeedBank@CurrentLevel)", "RTID(NewWaves@CurrentLevel)", "RTID(FrozenPlantPlacement@CurrentLevel)", "RTID(StandardRiftIntro@LevelModules)", "RTID(PerkActivator@CurrentLevel)", "RTID(LevelDifficultyScaling@CurrentLevel)" ],
				"Name": "[RIFT_LEVEL_NAME]",
				"NormalPresentTable": "egypt_normal_01",
				"PerksDisabledInLevel": [ "bossbustercannon", "quickdelivery", "zombieinhibitorballista", "zombieinhibitorgargantuar", "moarscore", "utilitybelt_cherrybomb", "utilitybelt_hurrikale", "utilitybelt_hypnoshroom" ],
				"PerksDisabledPerDifficulty": [ [], [], [] ],
				"ShinyPresentTable": "egypt_shiny_01",
				"StageModule": "RTID(LostCityStage@LevelModules)",
				"VictoryModule": "RTID(RiftOutro@LevelModules)"
			}
		}, {
			"aliases": [ "SeedBank" ],
			"objclass": "SeedBankProperties",
			"objdata": {
				"SelectionMethod": "chooser"
			}
		}, {
			"aliases": [ "FrozenPlantPlacement" ],
			"objclass": "InitialPlantProperties",
			"objdata": {
				"InitialPlantPlacements": [ {
						"GridX": 5,
						"GridY": 2,
						"TypeName": "wallnut"
					} ]
			}
		}, {
			"aliases": [ "GoldTiles" ],
			"objclass": "InitialGridItemProperties",
			"objdata": {
				"InitialGridItemPlacements": [ {
						"GridX": 5,
						"GridY": 0,
						"TypeName": "goldtile"
					}, {
						"GridX": 5,
						"GridY": 1,
						"TypeName": "goldtile"
					}, {
						"GridX": 1,
						"GridY": 1,
						"TypeName": "goldtile"
					}, {
						"GridX": 5,
						"GridY": 3,
						"TypeName": "goldtile"
					}, {
						"GridX": 1,
						"GridY": 3,
						"TypeName": "goldtile"
					}, {
						"GridX": 5,
						"GridY": 4,
						"TypeName": "goldtile"
					} ]
			}
		}, {
			"aliases": [ "NewWaves" ],
			"objclass": "WaveManagerModuleProperties",
			"objdata": {
				"DynamicZombies": [ {
						"PointIncrementPerWave": -40,
						"StartingPoints": -100,
						"StartingWave": 3,
						"ZombiePool": [ "RTID(lostcity@ZombieTypes)", "RTID(lostcity_armor1@ZombieTypes)", "RTID(lostcity_armor2@ZombieTypes)" ]
					}, {
						"PointIncrementPerWave": -25,
						"StartingPoints": -100,
						"StartingWave": 4,
						"ZombiePool": [ "RTID(lostcity@ZombieTypes)", "RTID(lostcity_armor1@ZombieTypes)", "RTID(lostcity_armor2@ZombieTypes)" ]
					}, {
						"PointIncrementPerWave": -10,
						"StartingPoints": -100,
						"StartingWave": 5,
						"ZombiePool": [ "RTID(lostcity@ZombieTypes)", "RTID(lostcity_armor1@ZombieTypes)", "RTID(lostcity_armor2@ZombieTypes)" ]
					}, {}, {
						"PointIncrementPerWave": 20,
						"StartingPoints": 100,
						"StartingWave": 5,
						"ZombiePool": [ "RTID(lostcity@ZombieTypes)", "RTID(lostcity_armor1@ZombieTypes)", "RTID(lostcity_armor2@ZombieTypes)" ]
					}, {
						"PointIncrementPerWave": 40,
						"StartingPoints": 200,
						"StartingWave": 4,
						"ZombiePool": [ "RTID(lostcity@ZombieTypes)", "RTID(lostcity_armor1@ZombieTypes)", "RTID(lostcity_armor2@ZombieTypes)" ]
					}, {
						"PointIncrementPerWave": 60,
						"StartingPoints": 400,
						"StartingWave": 3,
						"ZombiePool": [ "RTID(lostcity@ZombieTypes)", "RTID(lostcity_armor2@ZombieTypes)" ]
					} ],
				"WaveManagerProps": "RTID(WaveManagerProps@CurrentLevel)"
			}
		}, {
			"aliases": [ "WaveManagerProps" ],
			"objclass": "WaveManagerProperties",
			"objdata": {
				"FlagWaveInterval": 5,
				"WaveCount": 10,
				"WaveSpendingPointIncrement": 100,
				"WaveSpendingPoints": 100,
				"Waves": [ [ "RTID(Wave1@CurrentLevel)" ], [ "RTID(Wave2@CurrentLevel)" ], [ "RTID(Wave3@CurrentLevel)", "RTID(Wave3ParachuteRainEvent0@CurrentLevel)" ], [ "RTID(Wave4@CurrentLevel)" ], [ "RTID(Wave5@CurrentLevel)" ], [ "RTID(Wave6@CurrentLevel)" ], [ "RTID(Wave7@CurrentLevel)", "RTID(Wave7ParachuteRainEvent0@CurrentLevel)" ], [ "RTID(Wave8@CurrentLevel)" ], [ "RTID(Wave9@CurrentLevel)" ], [ "RTID(Wave10@CurrentLevel)", "RTID(Wave10ParachuteRainEvent0@CurrentLevel)" ] ]
			}
		}, {
			"aliases": [ "Wave1" ],
			"objclass": "SpawnZombiesJitteredWaveActionProps",
			"objdata": {
				"Zombies": [ {
						"Row": "3",
						"Type": "RTID(lostcity_excavator@ZombieTypes)"
					} ]
			}
		}, {
			"aliases": [ "Wave2" ],
			"objclass": "SpawnZombiesJitteredWaveActionProps",
			"objdata": {
				"Zombies": [ {
						"Row": "4",
						"Type": "RTID(lostcity@ZombieTypes)"
					}, {
						"Row": "2",
						"Type": "RTID(lostcity@ZombieTypes)"
					} ]
			}
		}, {
			"aliases": [ "Wave3" ],
			"objclass": "SpawnZombiesJitteredWaveActionProps",
			"objdata": {
				"AdditionalPlantfood": 1,
				"DynamicPlantfood": [ 1, 1, 1, 1, 0, 0, 0 ],
				"Zombies": [ {
						"Row": "5",
						"Type": "RTID(lostcity@ZombieTypes)"
					}, {
						"Row": "1",
						"Type": "RTID(lostcity@ZombieTypes)"
					} ]
			}
		}, {
			"aliases": [ "Wave4" ],
			"objclass": "SpawnZombiesJitteredWaveActionProps",
			"objdata": {
				"AdditionalPlantfood": 0,
				"Zombies": [ {
						"Row": "4",
						"Type": "RTID(lostcity_excavator@ZombieTypes)"
					}, {
						"Row": "2",
						"Type": "RTID(lostcity@ZombieTypes)"
					}, {
						"Row": "1",
						"Type": "RTID(lostcity@ZombieTypes)"
					}, {
						"Row": "1",
						"Type": "RTID(lostcity_armor1@ZombieTypes)"
					} ]
			}
		}, {
			"aliases": [ "Wave5" ],
			"objclass": "SpawnZombiesJitteredWaveActionProps",
			"objdata": {
				"AdditionalPlantfood": 1,
				"DynamicPlantfood": [ 1, 1, 1, 1, 1, 1, 1 ],
				"Zombies": [ {
						"Row": "5",
						"Type": "RTID(lostcity@ZombieTypes)"
					}, {
						"Row": "5",
						"Type": "RTID(lostcity_armor1@ZombieTypes)"
					}, {
						"Row": "3",
						"Type": "RTID(lostcity_armor2@ZombieTypes)"
					}, {
						"Row": "2",
						"Type": "RTID(lostcity@ZombieTypes)"
					}, {
						"Row": "2",
						"Type": "RTID(lostcity@ZombieTypes)"
					}, {
						"Row": "1",
						"Type": "RTID(lostcity@ZombieTypes)"
					} ]
			}
		}, {
			"aliases": [ "Wave6" ],
			"objclass": "SpawnZombiesJitteredWaveActionProps",
			"objdata": {
				"AdditionalPlantfood": 0,
				"Zombies": [ {
						"Row": "5",
						"Type": "RTID(lostcity_armor1@ZombieTypes)"
					}, {
						"Row": "4",
						"Type": "RTID(lostcity@ZombieTypes)"
					}, {
						"Row": "4",
						"Type": "RTID(lostcity@ZombieTypes)"
					}, {
						"Row": "2",
						"Type": "RTID(lostcity_excavator@ZombieTypes)"
					}, {
						"Row": "1",
						"Type": "RTID(lostcity_armor1@ZombieTypes)"
					} ]
			}
		}, {
			"aliases": [ "Wave7" ],
			"objclass": "SpawnZombiesJitteredWaveActionProps",
			"objdata": {
				"AdditionalPlantfood": 1,
				"DynamicPlantfood": [ 1, 1, 1, 1, 1, 1, 0 ],
				"Zombies": [ {
						"Row": "5",
						"Type": "RTID(lostcity@ZombieTypes)"
					}, {
						"Row": "3",
						"Type": "RTID(lostcity@ZombieTypes)"
					}, {
						"Row": "3",
						"Type": "RTID(lostcity@ZombieTypes)"
					}, {
						"Row": "1",
						"Type": "RTID(lostcity@ZombieTypes)"
					} ]
			}
		}, {
			"aliases": [ "Wave8" ],
			"objclass": "SpawnZombiesJitteredWaveActionProps",
			"objdata": {
				"AdditionalPlantfood": 0,
				"Zombies": [ {
						"Row": "5",
						"Type": "RTID(lostcity_excavator@ZombieTypes)"
					}, {
						"Row": "4",
						"Type": "RTID(lostcity_armor1@ZombieTypes)"
					}, {
						"Row": "4",
						"Type": "RTID(lostcity@ZombieTypes)"
					}, {
						"Row": "3",
						"Type": "RTID(lostcity_armor1@ZombieTypes)"
					}, {
						"Row": "1",
						"Type": "RTID(lostcity_excavator@ZombieTypes)"
					} ]
			}
		}, {
			"aliases": [ "Wave9" ],
			"objclass": "SpawnZombiesJitteredWaveActionProps",
			"objdata": {
				"AdditionalPlantfood": 1,
				"DynamicPlantfood": [ 1, 1, 1, 1, 1, 0, 0 ],
				"Zombies": [ {
						"Row": "4",
						"Type": "RTID(lostcity_armor2@ZombieTypes)"
					}, {
						"Row": "3",
						"Type": "RTID(lostcity@ZombieTypes)"
					}, {
						"Row": "3",
						"Type": "RTID(lostcity@ZombieTypes)"
					}, {
						"Row": "2",
						"Type": "RTID(lostcity_armor2@ZombieTypes)"
					} ]
			}
		}, {
			"aliases": [ "Wave10" ],
			"objclass": "SpawnZombiesJitteredWaveActionProps",
			"objdata": {
				"AdditionalPlantfood": 0,
				"Zombies": [ {
						"Row": "5",
						"Type": "RTID(lostcity@ZombieTypes)"
					}, {
						"Row": "5",
						"Type": "RTID(lostcity_armor1@ZombieTypes)"
					}, {
						"Row": "4",
						"Type": "RTID(lostcity@ZombieTypes)"
					}, {
						"Row": "3",
						"Type": "RTID(lostcity@ZombieTypes)"
					}, {
						"Row": "3",
						"Type": "RTID(lostcity_armor1@ZombieTypes)"
					}, {
						"Row": "2",
						"Type": "RTID(lostcity@ZombieTypes)"
					}, {
						"Row": "1",
						"Type": "RTID(lostcity@ZombieTypes)"
					}, {
						"Row": "1",
						"Type": "RTID(lostcity_armor1@ZombieTypes)"
					} ]
			}
		}, {
			"aliases": [ "Wave7ParachuteRainEvent0" ],
			"objclass": "ParachuteRainZombieSpawnerProps",
			"objdata": {
				"ColumnEnd": 5,
				"ColumnStart": 3,
				"GroupSize": 3,
				"SpiderCount": 3,
				"SpiderZombieName": "lostcity_lostpilot",
				"TimeBeforeFullSpawn": "1",
				"TimeBetweenGroups": "0.2",
				"WaveStartMessage": "[WARNING_PARACHUTERAIN]",
				"ZombieFallTime": "1.5"
			}
		}, {
			"aliases": [ "Wave10ParachuteRainEvent0" ],
			"objclass": "ParachuteRainZombieSpawnerProps",
			"objdata": {
				"ColumnEnd": 6,
				"ColumnStart": 3,
				"GroupSize": 3,
				"SpiderCount": 6,
				"SpiderZombieName": "lostcity_lostpilot",
				"TimeBeforeFullSpawn": "1",
				"TimeBetweenGroups": "0.2",
				"WaveStartMessage": "[WARNING_PARACHUTERAIN]",
				"ZombieFallTime": "1.5"
			}
		}, {
			"aliases": [ "Wave3ParachuteRainEvent0" ],
			"objclass": "ParachuteRainZombieSpawnerProps",
			"objdata": {
				"ColumnEnd": 6,
				"ColumnStart": "4",
				"GroupSize": 2,
				"SpiderCount": 2,
				"SpiderZombieName": "lostcity_lostpilot",
				"TimeBeforeFullSpawn": "1",
				"TimeBetweenGroups": "0.2",
				"WaveStartMessage": "[WARNING_PARACHUTERAIN]",
				"ZombieFallTime": "1.5"
			}
		}, {
			"aliases": [ "PerkActivator" ],
			"objclass": "PerkHandlerModuleProperties",
			"objdata": {}
		}, {
			"aliases": [ "LevelMutator" ],
			"objclass": "LevelMutatorModuleProperties",
			"objdata": {
				"MutatorTables": [ "RTID(MutatorPropsRift_Worlds@LevelMutatorTables)", "RTID(LocalChallengeMutator@CurrentLevel)", "RTID(LocalMainChallengeMutator@CurrentLevel)" ]
			}
		}, {
			"aliases": [ "LocalMainChallengeMutator" ],
			"objclass": "LevelMutatorTableProps",
			"objdata": {
				"Tables": [ {
						"Level": 0,
						"ModuleType": "mainchallenge",
						"Modules": [ "RTID(RiftBeatTheLevelChallenge@LevelModules)" ]
					}, {
						"Level": 1,
						"ModuleType": "mainchallenge",
						"Modules": [ "RTID(RiftBeatTheLevelChallenge@LevelModules)" ]
					}, {
						"Level": 2,
						"ModuleType": "mainchallenge",
						"Modules": [ "RTID(RiftBeatTheLevelChallenge@LevelModules)" ]
					} ]
			}
		}, {
			"aliases": [ "LocalChallengeMutator" ],
			"objclass": "LevelMutatorTableProps",
			"objdata": {
				"Tables": [ {
						"Level": 0,
						"ModuleType": "bonuschallenge",
						"Modules": [ "RTID(ZombieDistance1@CurrentLevel)" ]
					}, {
						"Level": 1,
						"ModuleType": "bonuschallenge",
						"Modules": [ "RTID(ZombieDistance1@CurrentLevel)", "RTID(ApplyZombieConditions2@CurrentLevel)" ]
					}, {
						"Level": 2,
						"ModuleType": "bonuschallenge",
						"Modules": [ "RTID(ZombieDistance1@CurrentLevel)", "RTID(ApplyZombieConditions3@CurrentLevel)" ]
					} ]
			}
		}, {
			"aliases": [ "ZombieDistance1" ],
			"objclass": "StarChallengeZombieDistanceProps",
			"objdata": {
				"TargetDistance": 4
			}
		}, {
			"aliases": [ "ApplyZombieConditions2" ],
			"objclass": "ApplyZombieConditionsChallengeProps",
			"objdata": {
				"ConditionToInflict": [ "freeze", "chill" ],
				"NumZombieConditionsToApply": 75
			}
		}, {
			"aliases": [ "ApplyZombieConditions3" ],
			"objclass": "ApplyZombieConditionsChallengeProps",
			"objdata": {
				"ConditionToInflict": [ "freeze", "chill" ],
				"NumZombieConditionsToApply": 100
			}
		}, {
			"aliases": [ "LevelDifficultyScaling" ],
			"objclass": "LevelDifficultyScalingModuleProperties",
			"objdata": {
				"DifficultyRulesType": "RiftDifficulty",
				"ZombieLevelSwaps": [ {
						"Level": 4,
						"Swaps": [ {
								"From": "RTID(lostcity@ZombieTypes)",
								"To": [ "RTID(lostcity@ZombieTypes)" ]
							}, {
								"From": "RTID(lostcity_armor1@ZombieTypes)",
								"To": [ "RTID(lostcity_armor1@ZombieTypes)" ]
							}, {
								"From": "RTID(lostcity_armor2@ZombieTypes)",
								"To": [ "RTID(lostcity_armor2@ZombieTypes)" ]
							} ]
					}, {
						"Level": 7,
						"Swaps": [ {
								"From": "RTID(lostcity@ZombieTypes)",
								"To": [ "RTID(lostcity_armor1@ZombieTypes)" ]
							}, {
								"From": "RTID(lostcity_armor1@ZombieTypes)",
								"To": [ "RTID(lostcity_armor2@ZombieTypes)" ]
							}, {
								"From": "RTID(lostcity_armor2@ZombieTypes)",
								"To": [ "RTID(lostcity_armor2@ZombieTypes)" ]
							} ]
					}, {
						"Level": 10,
						"Swaps": [ {
								"From": "RTID(lostcity@ZombieTypes)",
								"To": [ "RTID(lostcity@ZombieTypes)", "RTID(lostcity_armor1@ZombieTypes)", "RTID(lostcity_armor2@ZombieTypes)" ]
							}, {
								"From": "RTID(lostcity_armor1@ZombieTypes)",
								"To": [ "RTID(lostcity_armor2@ZombieTypes)", "RTID(lostcity@ZombieTypes)", "RTID(lostcity_armor1@ZombieTypes)", "RTID(lostcity_armor2@ZombieTypes)" ]
							}, {
								"From": "RTID(lostcity_armor2@ZombieTypes)",
								"To": [ "RTID(lostcity_armor2@ZombieTypes)", "RTID(lostcity@ZombieTypes)", "RTID(lostcity_armor1@ZombieTypes)", "RTID(lostcity_armor2@ZombieTypes)" ]
							} ]
					} ]
			}
		} ],
	"version": 1
}