{
	"#comment": "Lost City 8 - Flower Line",
	"objects": [ {
			"objclass": "LevelDefinition",
			"objdata": {
				"Description": "[PLAYERS_TRIP_TO_RIFT]",
				"FirstRewardParam": "spine_lostcity",
				"FirstRewardType": "pinata",
				"LevelMutator": "RTID(LevelMutator@CurrentLevel)",
				"LevelNumber": 8,
				"Loot": "RTID(DefaultLoot@LevelModules)",
				"Modules": [ "RTID(DefaultSunDropper@LevelModules)", "RTID(LostCityMowers@LevelModules)", "RTID(DefaultZombieWinCondition@LevelModules)", "RTID(ZombiesDeadWinCon@LevelModules)", "RTID(GoldTiles@CurrentLevel)", "RTID(SeedBank@CurrentLevel)", "RTID(NewWaves@CurrentLevel)", "RTID(StandardRiftIntro@LevelModules)", "RTID(PerkActivator@CurrentLevel)", "RTID(LevelDifficultyScaling@CurrentLevel)" ],
				"MusicType": "MiniGame_A",
				"Name": "[RIFT_LEVEL_NAME]",
				"NormalPresentTable": "egypt_normal_01",
				"PerksDisabledInLevel": [ "bossbustercannon", "quickdelivery", "zombieinhibitorballista", "zombieinhibitorgargantuar", "moarscore", "utilitybelt_cherrybomb", "utilitybelt_hurrikale", "utilitybelt_hypnoshroom" ],
				"PerksDisabledPerDifficulty": [ [], [], [] ],
				"ShinyPresentTable": "egypt_shiny_01",
				"StageModule": "RTID(LostCityStage@LevelModules)",
				"VictoryModule": "RTID(RiftOutro@LevelModules)"
			}
		}, {
			"aliases": [ "GoldTiles" ],
			"objclass": "InitialGridItemProperties",
			"objdata": {
				"InitialGridItemPlacements": [ {
						"GridX": 1,
						"GridY": 0,
						"TypeName": "goldtile"
					}, {
						"GridX": 0,
						"GridY": 1,
						"TypeName": "goldtile"
					}, {
						"GridX": 2,
						"GridY": 1,
						"TypeName": "goldtile"
					}, {
						"GridX": 1,
						"GridY": 2,
						"TypeName": "goldtile"
					}, {
						"GridX": 0,
						"GridY": 3,
						"TypeName": "goldtile"
					}, {
						"GridX": 2,
						"GridY": 3,
						"TypeName": "goldtile"
					}, {
						"GridX": 1,
						"GridY": 4,
						"TypeName": "goldtile"
					} ]
			}
		}, {
			"aliases": [ "ZombieDistance" ],
			"objclass": "StarChallengeZombieDistanceProps",
			"objdata": {
				"TargetDistance": 3
			}
		}, {
			"aliases": [ "SeedBank" ],
			"objclass": "SeedBankProperties",
			"objdata": {
				"PresetPlantList": [ {
						"Level": -1,
						"PlantType": "redstinger"
					}, {
						"Level": -1,
						"PlantType": "akee"
					}, {
						"Level": -1,
						"PlantType": "puffshroom"
					}, {
						"Level": -1,
						"PlantType": "iceburg"
					} ],
				"SelectionMethod": "preset"
			}
		}, {
			"aliases": [ "NewWaves" ],
			"objclass": "WaveManagerModuleProperties",
			"objdata": {
				"DynamicZombies": [ {
						"PointIncrementPerWave": -40,
						"StartingPoints": -100,
						"StartingWave": 3,
						"ZombiePool": [ "RTID(lostcity@ZombieTypes)", "RTID(lostcity_armor1@ZombieTypes)", "RTID(lostcity_armor2@ZombieTypes)" ]
					}, {
						"PointIncrementPerWave": -25,
						"StartingPoints": -100,
						"StartingWave": 4,
						"ZombiePool": [ "RTID(lostcity@ZombieTypes)", "RTID(lostcity_armor1@ZombieTypes)", "RTID(lostcity_armor2@ZombieTypes)" ]
					}, {
						"PointIncrementPerWave": -10,
						"StartingPoints": -100,
						"StartingWave": 5,
						"ZombiePool": [ "RTID(lostcity@ZombieTypes)", "RTID(lostcity_armor1@ZombieTypes)", "RTID(lostcity_armor2@ZombieTypes)" ]
					}, {}, {
						"PointIncrementPerWave": 20,
						"StartingPoints": 100,
						"StartingWave": 5,
						"ZombiePool": [ "RTID(lostcity@ZombieTypes)", "RTID(lostcity_armor1@ZombieTypes)", "RTID(lostcity_armor2@ZombieTypes)" ]
					}, {
						"PointIncrementPerWave": 40,
						"StartingPoints": 200,
						"StartingWave": 4,
						"ZombiePool": [ "RTID(lostcity@ZombieTypes)", "RTID(lostcity_armor1@ZombieTypes)", "RTID(lostcity_armor2@ZombieTypes)" ]
					}, {
						"PointIncrementPerWave": 60,
						"StartingPoints": 400,
						"StartingWave": 3,
						"ZombiePool": [ "RTID(lostcity@ZombieTypes)", "RTID(lostcity_armor2@ZombieTypes)" ]
					} ],
				"WaveManagerProps": "RTID(WaveManagerProps@CurrentLevel)"
			}
		}, {
			"aliases": [ "WaveManagerProps" ],
			"objclass": "WaveManagerProperties",
			"objdata": {
				"FlagWaveInterval": 6,
				"WaveCount": 12,
				"WaveSpendingPointIncrement": 50,
				"WaveSpendingPoints": 100,
				"Waves": [ [ "RTID(Wave1@CurrentLevel)" ], [ "RTID(Wave2@CurrentLevel)" ], [ "RTID(Wave3@CurrentLevel)" ], [ "RTID(Wave4@CurrentLevel)" ], [ "RTID(Wave5@CurrentLevel)" ], [ "RTID(Wave6@CurrentLevel)" ], [ "RTID(Wave7@CurrentLevel)" ], [ "RTID(Wave8@CurrentLevel)" ], [ "RTID(Wave9@CurrentLevel)" ], [ "RTID(Wave10@CurrentLevel)" ], [ "RTID(Wave11@CurrentLevel)" ], [ "RTID(Wave12@CurrentLevel)" ] ]
			}
		}, {
			"aliases": [ "Wave1" ],
			"objclass": "SpawnZombiesJitteredWaveActionProps",
			"objdata": {
				"Zombies": [ {
						"Row": "3",
						"Type": "RTID(lostcity@ZombieTypes)"
					} ]
			}
		}, {
			"aliases": [ "Wave2" ],
			"objclass": "SpawnZombiesJitteredWaveActionProps",
			"objdata": {
				"Zombies": [ {
						"Row": "4",
						"Type": "RTID(lostcity@ZombieTypes)"
					}, {
						"Row": "2",
						"Type": "RTID(lostcity@ZombieTypes)"
					} ]
			}
		}, {
			"aliases": [ "Wave3" ],
			"objclass": "SpawnZombiesJitteredWaveActionProps",
			"objdata": {
				"Zombies": [ {
						"Row": "5",
						"Type": "RTID(lostcity@ZombieTypes)"
					}, {
						"Row": "1",
						"Type": "RTID(lostcity@ZombieTypes)"
					} ]
			}
		}, {
			"aliases": [ "Wave4" ],
			"objclass": "SpawnZombiesJitteredWaveActionProps",
			"objdata": {
				"Zombies": [ {
						"Row": "3",
						"Type": "RTID(lostcity@ZombieTypes)"
					}, {
						"Row": "2",
						"Type": "RTID(lostcity@ZombieTypes)"
					} ]
			}
		}, {
			"aliases": [ "Wave5" ],
			"objclass": "SpawnZombiesJitteredWaveActionProps",
			"objdata": {
				"AdditionalPlantfood": 1,
				"DynamicPlantfood": [ 1, 1, 1, 1, 1, 1, 1 ],
				"Zombies": [ {
						"Type": "RTID(lostcity@ZombieTypes)"
					}, {
						"Type": "RTID(lostcity_armor1@ZombieTypes)"
					} ]
			}
		}, {
			"aliases": [ "Wave6" ],
			"objclass": "SpawnZombiesJitteredWaveActionProps",
			"objdata": {
				"AdditionalPlantfood": 0,
				"Zombies": [ {
						"Row": "3",
						"Type": "RTID(lostcity_excavator@ZombieTypes)"
					}, {
						"Row": "1",
						"Type": "RTID(lostcity_imp@ZombieTypes)"
					}, {
						"Row": "1",
						"Type": "RTID(lostcity_imp@ZombieTypes)"
					}, {
						"Row": "5",
						"Type": "RTID(lostcity_imp@ZombieTypes)"
					}, {
						"Row": "5",
						"Type": "RTID(lostcity_imp@ZombieTypes)"
					} ]
			}
		}, {
			"aliases": [ "Wave7" ],
			"objclass": "SpawnZombiesJitteredWaveActionProps",
			"objdata": {
				"AdditionalPlantfood": 0,
				"Zombies": [ {
						"Row": "3",
						"Type": "RTID(lostcity_imp@ZombieTypes)"
					}, {
						"Type": "RTID(lostcity_imp@ZombieTypes)"
					}, {
						"Row": "5",
						"Type": "RTID(lostcity_jane@ZombieTypes)"
					} ]
			}
		}, {
			"aliases": [ "Wave8" ],
			"objclass": "SpawnZombiesJitteredWaveActionProps",
			"objdata": {
				"DynamicPlantfood": [ 1, 1, 1, 0, 0, 0, 0 ],
				"Zombies": [ {
						"Row": "1",
						"Type": "RTID(lostcity_excavator@ZombieTypes)"
					}, {
						"Row": "1",
						"Type": "RTID(lostcity_imp@ZombieTypes)"
					}, {
						"Row": "5",
						"Type": "RTID(lostcity_imp@ZombieTypes)"
					}, {
						"Row": "5",
						"Type": "RTID(lostcity_imp@ZombieTypes)"
					} ]
			}
		}, {
			"aliases": [ "Wave9" ],
			"objclass": "SpawnZombiesJitteredWaveActionProps",
			"objdata": {
				"Zombies": [ {
						"Row": "5",
						"Type": "RTID(lostcity_excavator@ZombieTypes)"
					}, {
						"Row": "5",
						"Type": "RTID(lostcity@ZombieTypes)"
					}, {
						"Row": "2",
						"Type": "RTID(lostcity_armor2@ZombieTypes)"
					} ]
			}
		}, {
			"aliases": [ "Wave10" ],
			"objclass": "SpawnZombiesJitteredWaveActionProps",
			"objdata": {
				"AdditionalPlantfood": 1,
				"DynamicPlantfood": [ 1, 1, 1, 1, 1, 1, 1 ],
				"Zombies": [ {
						"Row": "5",
						"Type": "RTID(lostcity_armor1@ZombieTypes)"
					}, {
						"Row": "4",
						"Type": "RTID(lostcity@ZombieTypes)"
					}, {
						"Row": "2",
						"Type": "RTID(lostcity@ZombieTypes)"
					}, {
						"Row": "3",
						"Type": "RTID(lostcity@ZombieTypes)"
					}, {
						"Row": "1",
						"Type": "RTID(lostcity_armor1@ZombieTypes)"
					} ]
			}
		}, {
			"aliases": [ "Wave11" ],
			"objclass": "SpawnZombiesJitteredWaveActionProps",
			"objdata": {
				"AdditionalPlantfood": 0,
				"Zombies": [ {
						"Row": "5",
						"Type": "RTID(lostcity_armor2@ZombieTypes)"
					}, {
						"Row": "2",
						"Type": "RTID(lostcity@ZombieTypes)"
					}, {
						"Row": "1",
						"Type": "RTID(lostcity@ZombieTypes)"
					}, {
						"Row": "4",
						"Type": "RTID(lostcity_imp@ZombieTypes)"
					}, {
						"Row": "3",
						"Type": "RTID(lostcity_imp@ZombieTypes)"
					} ]
			}
		}, {
			"aliases": [ "Wave12" ],
			"objclass": "SpawnZombiesJitteredWaveActionProps",
			"objdata": {
				"AdditionalPlantfood": 0,
				"Zombies": [ {
						"Row": "5",
						"Type": "RTID(lostcity_excavator@ZombieTypes)"
					}, {
						"Row": "5",
						"Type": "RTID(lostcity_jane@ZombieTypes)"
					}, {
						"Row": "5",
						"Type": "RTID(lostcity_armor2@ZombieTypes)"
					}, {
						"Row": "1",
						"Type": "RTID(lostcity_excavator@ZombieTypes)"
					}, {
						"Row": "1",
						"Type": "RTID(lostcity_jane@ZombieTypes)"
					}, {
						"Row": "1",
						"Type": "RTID(lostcity_armor1@ZombieTypes)"
					}, {
						"Row": "3",
						"Type": "RTID(lostcity_armor2@ZombieTypes)"
					}, {
						"Row": "4",
						"Type": "RTID(lostcity@ZombieTypes)"
					}, {
						"Row": "2",
						"Type": "RTID(lostcity@ZombieTypes)"
					}, {
						"Row": "2",
						"Type": "RTID(lostcity@ZombieTypes)"
					}, {
						"Row": "4",
						"Type": "RTID(lostcity@ZombieTypes)"
					} ]
			}
		}, {
			"aliases": [ "PerkActivator" ],
			"objclass": "PerkHandlerModuleProperties",
			"objdata": {}
		}, {
			"aliases": [ "LevelMutator" ],
			"objclass": "LevelMutatorModuleProperties",
			"objdata": {
				"MutatorTables": [ "RTID(MutatorPropsRift_Worlds@LevelMutatorTables)", "RTID(LocalChallengeMutator@CurrentLevel)", "RTID(LocalMainChallengeMutator@CurrentLevel)" ]
			}
		}, {
			"aliases": [ "LocalMainChallengeMutator" ],
			"objclass": "LevelMutatorTableProps",
			"objdata": {
				"Tables": [ {
						"Level": 0,
						"ModuleType": "mainchallenge",
						"Modules": [ "RTID(RiftBeatTheLevelChallenge@LevelModules)" ]
					}, {
						"Level": 1,
						"ModuleType": "mainchallenge",
						"Modules": [ "RTID(RiftBeatTheLevelChallenge@LevelModules)" ]
					}, {
						"Level": 2,
						"ModuleType": "mainchallenge",
						"Modules": [ "RTID(RiftBeatTheLevelChallenge@LevelModules)" ]
					} ]
			}
		}, {
			"aliases": [ "LocalChallengeMutator" ],
			"objclass": "LevelMutatorTableProps",
			"objdata": {
				"Tables": [ {
						"Level": 0,
						"ModuleType": "bonuschallenge",
						"Modules": [ "RTID(ZombieDistance1@CurrentLevel)" ]
					}, {
						"Level": 1,
						"ModuleType": "bonuschallenge",
						"Modules": [ "RTID(ZombieDistance2@CurrentLevel)", "RTID(SunProduced2@CurrentLevel)" ]
					}, {
						"Level": 2,
						"ModuleType": "bonuschallenge",
						"Modules": [ "RTID(ZombieDistance3@CurrentLevel)", "RTID(SunProduced3@CurrentLevel)" ]
					} ]
			}
		}, {
			"aliases": [ "ZombieDistance1" ],
			"objclass": "StarChallengeZombieDistanceProps",
			"objdata": {
				"TargetDistance": 3
			}
		}, {
			"aliases": [ "ZombieDistance2" ],
			"objclass": "StarChallengeZombieDistanceProps",
			"objdata": {
				"TargetDistance": 4
			}
		}, {
			"aliases": [ "ZombieDistance3" ],
			"objclass": "StarChallengeZombieDistanceProps",
			"objdata": {
				"TargetDistance": 5
			}
		}, {
			"aliases": [ "SunProduced2" ],
			"objclass": "StarChallengeSunProducedProps",
			"objdata": {
				"TargetSun": 3000
			}
		}, {
			"aliases": [ "SunProduced3" ],
			"objclass": "StarChallengeSunProducedProps",
			"objdata": {
				"TargetSun": 4000
			}
		}, {
			"aliases": [ "LevelDifficultyScaling" ],
			"objclass": "LevelDifficultyScalingModuleProperties",
			"objdata": {
				"DifficultyRulesType": "RiftDifficulty",
				"ZombieLevelSwaps": [ {
						"Level": 4,
						"Swaps": [ {
								"From": "RTID(lostcity@ZombieTypes)",
								"To": [ "RTID(lostcity@ZombieTypes)" ]
							}, {
								"From": "RTID(lostcity_armor1@ZombieTypes)",
								"To": [ "RTID(lostcity_armor1@ZombieTypes)" ]
							}, {
								"From": "RTID(lostcity_armor2@ZombieTypes)",
								"To": [ "RTID(lostcity_armor2@ZombieTypes)" ]
							} ]
					}, {
						"Level": 7,
						"Swaps": [ {
								"From": "RTID(lostcity@ZombieTypes)",
								"To": [ "RTID(lostcity_armor1@ZombieTypes)" ]
							}, {
								"From": "RTID(lostcity_armor1@ZombieTypes)",
								"To": [ "RTID(lostcity_armor2@ZombieTypes)" ]
							}, {
								"From": "RTID(lostcity_armor2@ZombieTypes)",
								"To": [ "RTID(lostcity_armor2@ZombieTypes)" ]
							} ]
					}, {
						"Level": 10,
						"Swaps": [ {
								"From": "RTID(lostcity@ZombieTypes)",
								"To": [ "RTID(lostcity@ZombieTypes)", "RTID(lostcity_armor1@ZombieTypes)", "RTID(lostcity_armor2@ZombieTypes)" ]
							}, {
								"From": "RTID(lostcity_armor1@ZombieTypes)",
								"To": [ "RTID(lostcity_armor2@ZombieTypes)", "RTID(lostcity@ZombieTypes)", "RTID(lostcity_armor1@ZombieTypes)", "RTID(lostcity_armor2@ZombieTypes)" ]
							}, {
								"From": "RTID(lostcity_armor2@ZombieTypes)",
								"To": [ "RTID(lostcity_armor2@ZombieTypes)", "RTID(lostcity@ZombieTypes)", "RTID(lostcity_armor1@ZombieTypes)", "RTID(lostcity_armor2@ZombieTypes)" ]
							} ]
					} ]
			}
		} ],
	"version": 1
}