{
	"#comment": "LOD 207",
	"objects": [ {
			"objclass": "LevelDefinition",
			"objdata": {
				"Description": "[PLAYERS_TRIP_TO_RIFT]",
				"DraperPromo": "escaperoot",
				"LevelMutator": "RTID(LevelMutator@CurrentLevel)",
				"LevelNumber": "",
				"Loot": "RTID(DefaultLoot@LevelModules)",
				"Modules": [ "RTID(FrontLawnMowers@LevelModules)", "RTID(NewWaves@CurrentLevel)", "RTID(DefaultZombieWinCondition@LevelModules)", "RTID(ConveyorBelt@CurrentLevel)", "RTID(ZombiesDeadWinCon@LevelModules)", "RTID(FrozenPlantPlacement@CurrentLevel)", "RTID(StandardRiftIntro@LevelModules)", "RTID(PerkActivator@CurrentLevel)", "RTID(LevelDifficultyScaling@CurrentLevel)" ],
				"Name": "[RIFT_LEVEL_NAME]",
				"NormalPresentTable": "egypt_normal_01",
				"PerksDisabledInLevel": [ "moarscore", "bossbustercannon", "heavywatering", "sunbreak", "applyconditionsuncarrier50", "zombieinhibitorballista", "sunbank" ],
				"PerksDisabledPerDifficulty": [ [], [], [] ],
				"ShinyPresentTable": "egypt_shiny_01",
				"StageModule": "RTID(RiftStage@LevelModules)",
				"VictoryModule": "RTID(RiftOutro@LevelModules)"
			}
		}, {
			"aliases": [ "FrozenPlantPlacement" ],
			"objclass": "InitialPlantProperties",
			"objdata": {
				"InitialPlantPlacements": [ {
						"GridX": 1,
						"GridY": 2,
						"TypeName": "escaperoot"
					} ]
			}
		}, {
			"aliases": [ "BeatTheLevel" ],
			"objclass": "StarChallengeBeatTheLevelProps",
			"objdata": {
				"Description": "[STARCHALLENGE_PROTECT_THE_PLANT]",
				"DescriptiveName": "[STARCHALLENGE_PROTECT_THE_PLANT_NAME]"
			}
		}, {
			"aliases": [ "WaveManagerProps" ],
			"objclass": "WaveManagerProperties",
			"objdata": {
				"MaxNextWaveHealthPercentage": 0.9,
				"MinNextWaveHealthPercentage": 0.8,
				"Waves": [ [ "RTID(Wave1@CurrentLevel)" ], [ "RTID(Wave2@CurrentLevel)" ], [ "RTID(Wave3@CurrentLevel)" ], [ "RTID(Wave4@CurrentLevel)" ], [ "RTID(Wave5@CurrentLevel)" ], [ "RTID(Wave6@CurrentLevel)", "RTID(Wave6ModConveyor0@CurrentLevel)" ], [ "RTID(Wave7@CurrentLevel)" ], [ "RTID(Wave8@CurrentLevel)" ], [ "RTID(Wave9@CurrentLevel)" ], [ "RTID(Wave10@CurrentLevel)" ] ]
			}
		}, {
			"aliases": [ "Wave1" ],
			"objclass": "SpawnZombiesJitteredWaveActionProps",
			"objdata": {
				"Zombies": [ {
						"Row": "3",
						"Type": "RTID(future_jetpack@ZombieTypes)"
					} ]
			}
		}, {
			"aliases": [ "Wave2" ],
			"objclass": "SpawnZombiesJitteredWaveActionProps",
			"objdata": {
				"AdditionalPlantfood": 1,
				"Zombies": [ {
						"Row": "3",
						"Type": "RTID(tutorial@ZombieTypes)"
					} ]
			}
		}, {
			"aliases": [ "Wave3" ],
			"objclass": "SpawnZombiesJitteredWaveActionProps",
			"objdata": {
				"Zombies": [ {
						"Row": "4",
						"Type": "RTID(future_jetpack@ZombieTypes)"
					} ]
			}
		}, {
			"aliases": [ "Wave4" ],
			"objclass": "SpawnZombiesJitteredWaveActionProps",
			"objdata": {
				"Zombies": [ {
						"Row": "4",
						"Type": "RTID(modern_newspaper@ZombieTypes)"
					}, {
						"Row": "3",
						"Type": "RTID(tutorial_armor1@ZombieTypes)"
					} ]
			}
		}, {
			"aliases": [ "Wave5" ],
			"objclass": "SpawnZombiesJitteredWaveActionProps",
			"objdata": {
				"AdditionalPlantfood": 1,
				"Zombies": [ {
						"Row": "4",
						"Type": "RTID(tutorial@ZombieTypes)"
					}, {
						"Row": "2",
						"Type": "RTID(future_jetpack@ZombieTypes)"
					} ]
			}
		}, {
			"aliases": [ "Wave6" ],
			"objclass": "SpawnZombiesJitteredWaveActionProps",
			"objdata": {
				"Zombies": [ {
						"Type": "RTID(modern_newspaper@ZombieTypes)"
					}, {
						"Row": "5",
						"Type": "RTID(future_jetpack@ZombieTypes)"
					}, {
						"Row": "5",
						"Type": "RTID(future_jetpack@ZombieTypes)"
					}, {
						"Row": "4",
						"Type": "RTID(tutorial_armor1@ZombieTypes)"
					}, {
						"Row": "2",
						"Type": "RTID(tutorial_armor2@ZombieTypes)"
					} ]
			}
		}, {
			"aliases": [ "Wave7" ],
			"objclass": "SpawnZombiesJitteredWaveActionProps",
			"objdata": {
				"Zombies": [ {
						"Type": "RTID(tutorial@ZombieTypes)"
					}, {
						"Type": "RTID(future_jetpack@ZombieTypes)"
					}, {
						"Row": "5",
						"Type": "RTID(modern_newspaper@ZombieTypes)"
					}, {
						"Row": "1",
						"Type": "RTID(future_jetpack@ZombieTypes)"
					}, {
						"Row": "1",
						"Type": "RTID(future_jetpack@ZombieTypes)"
					} ]
			}
		}, {
			"aliases": [ "Wave8" ],
			"objclass": "SpawnZombiesJitteredWaveActionProps",
			"objdata": {
				"AdditionalPlantfood": 1,
				"Zombies": [ {
						"Type": "RTID(tutorial@ZombieTypes)"
					}, {
						"Type": "RTID(tutorial_armor1@ZombieTypes)"
					}, {
						"Type": "RTID(future_jetpack@ZombieTypes)"
					}, {
						"Row": "1",
						"Type": "RTID(modern_newspaper@ZombieTypes)"
					} ]
			}
		}, {
			"aliases": [ "Wave9" ],
			"objclass": "SpawnZombiesJitteredWaveActionProps",
			"objdata": {
				"Zombies": [ {
						"Type": "RTID(modern_newspaper@ZombieTypes)"
					}, {
						"Type": "RTID(future_jetpack@ZombieTypes)"
					}, {
						"Type": "RTID(tutorial@ZombieTypes)"
					}, {
						"Type": "RTID(tutorial_armor1@ZombieTypes)"
					}, {
						"Type": "RTID(tutorial_armor2@ZombieTypes)"
					} ]
			}
		}, {
			"aliases": [ "NewWaves" ],
			"objclass": "WaveManagerModuleProperties",
			"objdata": {
				"DynamicZombies": [ {}, {}, {}, {
						"PointIncrementPerWave": 100,
						"StartingPoints": 200,
						"StartingWave": 1,
						"ZombiePool": [ "RTID(zcorp_armor1@ZombieTypes)", "RTID(zcorp_fem@ZombieTypes)" ]
					}, {}, {}, {} ],
				"WaveManagerProps": "RTID(WaveManagerProps@CurrentLevel)"
			}
		}, {
			"aliases": [ "ConveyorBelt" ],
			"objclass": "ConveyorSeedBankProperties",
			"objdata": {
				"DropDelayConditions": [ {
						"Delay": 4,
						"MaxPackets": 0
					}, {
						"Delay": 6,
						"MaxPackets": 2
					}, {
						"Delay": 9,
						"MaxPackets": 4
					}, {
						"Delay": 12,
						"MaxPackets": 8
					} ],
				"InitialPlantList": [ {
						"MaxCount": 1,
						"MaxCountCooldownSeconds": 8,
						"MaxWeightFactor": 1,
						"PlantType": "chardguard",
						"Weight": 10
					}, {
						"MaxCount": 1,
						"MaxCountCooldownSeconds": 12,
						"MaxWeightFactor": 1,
						"MinCount": 1,
						"MinWeightFactor": 5,
						"PlantType": "escaperoot",
						"Weight": 100
					} ],
				"SpeedConditions": [ {
						"MaxPackets": 0,
						"Speed": 100
					} ]
			}
		}, {
			"aliases": [ "Wave10" ],
			"objclass": "SpawnZombiesJitteredWaveActionProps",
			"objdata": {
				"Zombies": [ {
						"Type": "RTID(tutorial@ZombieTypes)"
					}, {
						"Type": "RTID(tutorial@ZombieTypes)"
					}, {
						"Type": "RTID(tutorial_armor1@ZombieTypes)"
					}, {
						"Type": "RTID(tutorial_armor2@ZombieTypes)"
					}, {
						"Row": "5",
						"Type": "RTID(future_jetpack@ZombieTypes)"
					}, {
						"Row": "4",
						"Type": "RTID(future_jetpack@ZombieTypes)"
					}, {
						"Row": "3",
						"Type": "RTID(future_jetpack@ZombieTypes)"
					}, {
						"Row": "2",
						"Type": "RTID(future_jetpack@ZombieTypes)"
					}, {
						"Row": "1",
						"Type": "RTID(future_jetpack@ZombieTypes)"
					} ]
			}
		}, {
			"aliases": [ "Wave6ModConveyor0" ],
			"objclass": "ModifyConveyorWaveActionProps",
			"objdata": {
				"Add": [ {
						"Type": "RTID(repeater@PlantTypes)",
						"Weight": 100
					} ],
				"Remove": []
			}
		}, {
			"aliases": [ "PerkActivator" ],
			"objclass": "PerkHandlerModuleProperties",
			"objdata": {}
		}, {
			"aliases": [ "LevelMutator" ],
			"objclass": "LevelMutatorModuleProperties",
			"objdata": {
				"MutatorTables": [ "RTID(MutatorPropsRiftConveyor@LevelMutatorTables)", "RTID(LocalChallengeMutator@CurrentLevel)", "RTID(LocalMainChallengeMutator@CurrentLevel)" ]
			}
		}, {
			"aliases": [ "LocalMainChallengeMutator" ],
			"objclass": "LevelMutatorTableProps",
			"objdata": {
				"Tables": [ {
						"Level": 0,
						"ModuleType": "mainchallenge",
						"Modules": [ "RTID(RiftBeatTheLevelChallenge@LevelModules)" ]
					}, {
						"Level": 1,
						"ModuleType": "mainchallenge",
						"Modules": [ "RTID(RiftBeatTheLevelChallenge@LevelModules)" ]
					}, {
						"Level": 2,
						"ModuleType": "mainchallenge",
						"Modules": [ "RTID(RiftBeatTheLevelChallenge@LevelModules)" ]
					} ]
			}
		}, {
			"aliases": [ "LocalChallengeMutator" ],
			"objclass": "LevelMutatorTableProps",
			"objdata": {
				"Tables": [ {
						"Level": 0,
						"ModuleType": "bonuschallenge",
						"Modules": [ "RTID(ProtectThePlant@CurrentLevel)" ]
					}, {
						"Level": 1,
						"ModuleType": "bonuschallenge",
						"Modules": [ "RTID(ProtectThePlant@CurrentLevel)", "RTID(PlantFullRowChallenge@CurrentLevel)" ]
					}, {
						"Level": 2,
						"ModuleType": "bonuschallenge",
						"Modules": [ "RTID(ProtectThePlant@CurrentLevel)", "RTID(PlantFullRowChallenge@CurrentLevel)" ]
					} ]
			}
		}, {
			"aliases": [ "ProtectThePlant" ],
			"objclass": "ProtectThePlantChallengeProperties",
			"objdata": {
				"MustProtectCount": 5,
				"Plants": [ {
						"GridX": 6,
						"GridY": 0,
						"PlantType": "peashooter"
					}, {
						"GridX": 6,
						"GridY": 1,
						"PlantType": "peashooter"
					}, {
						"GridX": 6,
						"GridY": 2,
						"PlantType": "peashooter"
					}, {
						"GridX": 6,
						"GridY": 3,
						"PlantType": "peashooter"
					}, {
						"GridX": 6,
						"GridY": 4,
						"PlantType": "peashooter"
					} ]
			}
		}, {
			"aliases": [ "PlantFullRowChallenge" ],
			"objclass": "PlantFullRowChallengeProps",
			"objdata": {
				"NumPlantsInRowNeeded": 9
			}
		}, {
			"aliases": [ "LevelDifficultyScaling" ],
			"objclass": "LevelDifficultyScalingModuleProperties",
			"objdata": {
				"DifficultyRulesType": "RiftDifficulty",
				"ZombieLevelSwaps": [ {
						"Level": 0,
						"Swaps": [ {
								"From": "RTID(zcorp_fem@ZombieTypes)",
								"To": [ "RTID(zcorp_fem@ZombieTypes)" ]
							} ]
					}, {
						"Level": 4,
						"Swaps": [ {
								"From": "RTID(zcorp_fem@ZombieTypes)",
								"To": [ "RTID(zcorp_fem@ZombieTypes)", "RTID(zcorp_fem_armor1@ZombieTypes)" ]
							} ]
					}, {
						"Level": 7,
						"Swaps": [ {
								"From": "RTID(zcorp_fem@ZombieTypes)",
								"To": [ "RTID(zcorp_fem_armor1@ZombieTypes)", "RTID(zcorp_fem_armor2@ZombieTypes)" ]
							} ]
					} ]
			}
		} ],
	"version": 1
}