{
	"#comment": "Pirate 33 v1",
	"objects": [ {
			"objclass": "LevelDefinition",
			"objdata": {
				"Description": "[PLAYERS_TRIP_TO_RIFT]",
				"DisablePlantBoosts": false,
				"LevelMutator": "RTID(LevelMutator@CurrentLevel)",
				"LevelNumber": "",
				"Loot": "",
				"Modules": [ "RTID(DefaultSunDropper@LevelModules)", "RTID(StandardRiftIntro@LevelModules)", "RTID(ZombiesDeadWinCon@LevelModules)", "RTID(PirateMowers@LevelModules)", "RTID(SeedBank@CurrentLevel)", "RTID(DefaultZombieWinCondition@LevelModules)", "RTID(NewWaves@CurrentLevel)", "RTID(PerkActivator@CurrentLevel)", "RTID(PiratePlanks@CurrentLevel)", "RTID(LevelDifficultyScaling@CurrentLevel)" ],
				"MusicType": "MiniGame_A",
				"Name": "[RIFT_LEVEL_NAME]",
				"NormalPresentTable": "egypt_normal_01",
				"PerksDisabledInLevel": [ "moarscore", "bossbustercannon", "quickdelivery" ],
				"PerksDisabledPerDifficulty": [ [], [], [] ],
				"ShinyPresentTable": "egypt_shiny_01",
				"StageModule": "RTID(PirateStage@LevelModules)",
				"VictoryModule": "RTID(RiftOutro@LevelModules)"
			}
		}, {
			"aliases": [ "SeedBank" ],
			"objclass": "SeedBankProperties",
			"objdata": {
				"SelectionMethod": "chooser",
				"SuggestPlantList": []
			}
		}, {
			"aliases": [ "PiratePlanks" ],
			"objclass": "PiratePlankProperties",
			"objdata": {
				"PlankRows": [ 0, 2, 4 ]
			}
		}, {
			"aliases": [ "PerkActivator" ],
			"objclass": "PerkHandlerModuleProperties",
			"objdata": {}
		}, {
			"aliases": [ "LevelMutator" ],
			"objclass": "LevelMutatorModuleProperties",
			"objdata": {
				"MutatorTables": [ "RTID(MutatorPropsRiftNormal@LevelMutatorTables)", "RTID(LocalChallengeMutator@CurrentLevel)", "RTID(LocalMainChallengeMutator@CurrentLevel)" ]
			}
		}, {
			"aliases": [ "LocalMainChallengeMutator" ],
			"objclass": "LevelMutatorTableProps",
			"objdata": {
				"Tables": [ {
						"Level": 0,
						"ModuleType": "mainchallenge",
						"Modules": [ "RTID(BeatTheLevel@CurrentLevel)" ]
					}, {
						"Level": 1,
						"ModuleType": "mainchallenge",
						"Modules": [ "RTID(BeatTheLevel@CurrentLevel)" ]
					}, {
						"Level": 2,
						"ModuleType": "mainchallenge",
						"Modules": [ "RTID(BeatTheLevel@CurrentLevel)" ]
					} ]
			}
		}, {
			"aliases": [ "BeatTheLevel" ],
			"objclass": "StarChallengeBeatTheLevelProps",
			"objdata": {
				"Description": "[STARCHALLENGE_RIFT_NORMAL]",
				"DescriptiveName": "[STARCHALLENGE_RIFT_NORMAL_NAME]"
			}
		}, {
			"aliases": [ "LocalChallengeMutator" ],
			"objclass": "LevelMutatorTableProps",
			"objdata": {
				"Tables": [ {
						"Level": 0,
						"ModuleType": "bonuschallenge",
						"Modules": [ "RTID(ProtectThePlant1@CurrentLevel)" ]
					}, {
						"Level": 1,
						"ModuleType": "bonuschallenge",
						"Modules": [ "RTID(KillZombies2@CurrentLevel)", "RTID(ProtectThePlant2@CurrentLevel)" ]
					}, {
						"Level": 2,
						"ModuleType": "bonuschallenge",
						"Modules": [ "RTID(KillZombies3@CurrentLevel)", "RTID(ProtectThePlant3@CurrentLevel)" ]
					} ]
			}
		}, {
			"aliases": [ "ProtectThePlant1" ],
			"objclass": "ProtectThePlantChallengeProperties",
			"objdata": {
				"MustProtectCount": 1,
				"Plants": [ {
						"GridX": 5,
						"GridY": 2,
						"PlantType": "toadstool"
					} ]
			}
		}, {
			"aliases": [ "ProtectThePlant2" ],
			"objclass": "ProtectThePlantChallengeProperties",
			"objdata": {
				"MustProtectCount": 2,
				"Plants": [ {
						"GridX": 5,
						"GridY": 0,
						"PlantType": "toadstool"
					}, {
						"GridX": 5,
						"GridY": 4,
						"PlantType": "toadstool"
					} ]
			}
		}, {
			"aliases": [ "ProtectThePlant3" ],
			"objclass": "ProtectThePlantChallengeProperties",
			"objdata": {
				"MustProtectCount": 3,
				"Plants": [ {
						"GridX": 5,
						"GridY": 0,
						"PlantType": "toadstool"
					}, {
						"GridX": 5,
						"GridY": 2,
						"PlantType": "toadstool"
					}, {
						"GridX": 5,
						"GridY": 4,
						"PlantType": "toadstool"
					} ]
			}
		}, {
			"aliases": [ "KillZombies2" ],
			"objclass": "StarChallengeKillZombiesInTimeProps",
			"objdata": {
				"Time": 10,
				"ZombiesToKill": 30
			}
		}, {
			"aliases": [ "KillZombies3" ],
			"objclass": "StarChallengeKillZombiesInTimeProps",
			"objdata": {
				"Time": 6,
				"ZombiesToKill": 30
			}
		}, {
			"aliases": [ "SeedBank" ],
			"objclass": "SeedBankProperties",
			"objdata": {
				"ExcludeListSunProducers": false,
				"PlantExcludeList": [],
				"SelectionMethod": "chooser"
			}
		}, {
			"aliases": [ "LevelDifficultyScaling" ],
			"objclass": "LevelDifficultyScalingModuleProperties",
			"objdata": {
				"DifficultyRulesType": "RiftDifficulty",
				"ZombieLevelSwaps": [ {
						"Level": 0,
						"Swaps": [ {
								"From": "RTID(pirate_armor1@ZombieTypes)",
								"To": [ "RTID(beach@ZombieTypes)", "RTID(pirate_armor1@ZombieTypes)" ]
							}, {
								"From": "RTID(pirate_armor2@ZombieTypes)",
								"To": [ "RTID(roman_armor1@ZombieTypes)", "RTID(pirate_armor2@ZombieTypes)" ]
							}, {
								"From": "RTID(pirate_armor4@ZombieTypes)",
								"To": [ "RTID(pirate_armor2@ZombieTypes)" ]
							}, {
								"From": "RTID(barrelroller@ZombieTypes)",
								"To": [ "RTID(barrelroller@ZombieTypes)" ]
							}, {
								"From": "RTID(pelican@ZombieTypes)",
								"To": [ "RTID(seagull@ZombieTypes)" ]
							}, {
								"From": "RTID(roman_ballista@ZombieTypes)",
								"To": [ "RTID(cannon@ZombieTypes)" ]
							}, {
								"From": "RTID(pirate_captain@ZombieTypes)",
								"To": [ "RTID(pirate_captain@ZombieTypes)" ]
							} ]
					}, {
						"Level": 4,
						"Swaps": [ {
								"From": "RTID(pirate_armor1@ZombieTypes)",
								"To": [ "RTID(beach@ZombieTypes)", "RTID(pirate_armor1@ZombieTypes)", "RTID(roman_armor2@ZombieTypes)" ]
							}, {
								"From": "RTID(pirate_armor2@ZombieTypes)",
								"To": [ "RTID(pirate_armor1@ZombieTypes)", "RTID(pirate_armor2@ZombieTypes)", "RTID(roman_armor3@ZombieTypes)" ]
							}, {
								"From": "RTID(pirate_armor4@ZombieTypes)",
								"To": [ "RTID(roman_armor3@ZombieTypes)" ]
							}, {
								"From": "RTID(barrelroller@ZombieTypes)",
								"To": [ "RTID(barrelroller@ZombieTypes)", "RTID(roman_medusa@ZombieTypes)" ]
							}, {
								"From": "RTID(pelican@ZombieTypes)",
								"To": [ "RTID(seagull@ZombieTypes)" ]
							}, {
								"From": "RTID(roman_ballista@ZombieTypes)",
								"To": [ "RTID(cannon@ZombieTypes)" ]
							}, {
								"From": "RTID(pirate_captain@ZombieTypes)",
								"To": [ "RTID(pirate_captain@ZombieTypes)" ]
							} ]
					}, {
						"Level": 7,
						"Swaps": [ {
								"From": "RTID(pirate_armor1@ZombieTypes)",
								"To": [ "RTID(pirate_armor1@ZombieTypes)", "RTID(roman_armor2@ZombieTypes)" ]
							}, {
								"From": "RTID(pirate_armor2@ZombieTypes)",
								"To": [ "RTID(pirate_armor2@ZombieTypes)", "RTID(roman_armor3@ZombieTypes)" ]
							}, {
								"From": "RTID(pirate_armor4@ZombieTypes)",
								"To": [ "RTID(pirate_armor4@ZombieTypes)" ]
							}, {
								"From": "RTID(barrelroller@ZombieTypes)",
								"To": [ "RTID(roman_medusa@ZombieTypes)" ]
							}, {
								"From": "RTID(pelican@ZombieTypes)",
								"To": [ "RTID(pelican@ZombieTypes)" ]
							}, {
								"From": "RTID(roman_ballista@ZombieTypes)",
								"To": [ "RTID(roman_ballista@ZombieTypes)" ]
							}, {
								"From": "RTID(pirate_captain@ZombieTypes)",
								"To": [ "RTID(pirate_captain@ZombieTypes)", "RTID(beach_octopus@ZombieTypes)" ]
							} ]
					} ]
			}
		}, {
			"aliases": [ "NewWaves" ],
			"objclass": "WaveManagerModuleProperties",
			"objdata": {
				"DynamicZombies": [ {
						"PointIncrementPerWave": 0,
						"StartingPoints": 0,
						"StartingWave": 0,
						"ZombiePool": [ "RTID(seagull@ZombieTypes)" ]
					}, {
						"PointIncrementPerWave": 0,
						"StartingPoints": 0,
						"StartingWave": 0,
						"ZombiePool": [ "RTID(seagull@ZombieTypes)" ]
					}, {
						"PointIncrementPerWave": 0,
						"StartingPoints": 0,
						"StartingWave": 0,
						"ZombiePool": [ "RTID(seagull@ZombieTypes)" ]
					}, {
						"MaxPoints": 0,
						"PointIncrementPerWave": 0,
						"StartingPoints": 0,
						"StartingWave": 7,
						"ZombiePool": [ "RTID(pelican@ZombieTypes)" ]
					}, {
						"PointIncrementPerWave": 0,
						"StartingPoints": 0,
						"StartingWave": 0,
						"ZombiePool": [ "RTID(seagull@ZombieTypes)" ]
					}, {
						"PointIncrementPerWave": 0,
						"StartingPoints": 0,
						"StartingWave": 0,
						"ZombiePool": [ "RTID(seagull@ZombieTypes)" ]
					}, {
						"PointIncrementPerWave": 0,
						"StartingPoints": 0,
						"StartingWave": 0,
						"ZombiePool": [ "RTID(seagull@ZombieTypes)" ]
					} ],
				"WaveManagerProps": "RTID(WaveManagerProps@CurrentLevel)"
			}
		}, {
			"aliases": [ "WaveManagerProps" ],
			"objclass": "WaveManagerProperties",
			"objdata": {
				"FlagWaveInterval": 8,
				"FlagWaveVeteranOverrideTypes": [ 1, 0 ],
				"WaveCount": 16,
				"WaveSpendingPointIncrement": 200,
				"WaveSpendingPoints": 500,
				"Waves": [ [ "RTID(Wave1@CurrentLevel)" ], [ "RTID(Wave2@CurrentLevel)" ], [ "RTID(Wave3@CurrentLevel)" ], [ "RTID(Wave4@CurrentLevel)" ], [ "RTID(Wave5@CurrentLevel)" ], [ "RTID(Wave6@CurrentLevel)" ], [ "RTID(Wave7@CurrentLevel)" ], [ "RTID(Wave8@CurrentLevel)", "RTID(Wave8RaidingPartyEvent0@CurrentLevel)", "RTID(Wave8RaidingPartyEvent1@CurrentLevel)", "RTID(Wave8RaidingPartyEvent2@CurrentLevel)" ], [ "RTID(Wave9@CurrentLevel)" ], [ "RTID(Wave10@CurrentLevel)" ], [ "RTID(Wave11@CurrentLevel)" ], [ "RTID(Wave12@CurrentLevel)" ], [ "RTID(Wave13@CurrentLevel)" ], [ "RTID(Wave14@CurrentLevel)", "RTID(Wave14RaidingPartyEvent0@CurrentLevel)", "RTID(Wave14RaidingPartyEvent1@CurrentLevel)" ], [ "RTID(Wave15@CurrentLevel)" ], [ "RTID(Wave16@CurrentLevel)" ] ],
				"WavesAlwaysRandomized": true
			}
		}, {
			"aliases": [ "Wave1" ],
			"objclass": "SpawnZombiesJitteredWaveActionProps",
			"objdata": {
				"Zombies": [ {
						"Type": "RTID(pelican@ZombieTypes)"
					}, {
						"Row": "4",
						"Type": "RTID(swashbuckler@ZombieTypes)"
					} ]
			}
		}, {
			"aliases": [ "Wave2" ],
			"objclass": "SpawnZombiesJitteredWaveActionProps",
			"objdata": {
				"Zombies": [ {
						"Type": "RTID(pelican@ZombieTypes)"
					}, {
						"Row": "prev",
						"Type": "RTID(pelican@ZombieTypes)"
					}, {
						"Row": "1",
						"Type": "RTID(swashbuckler@ZombieTypes)"
					} ]
			}
		}, {
			"aliases": [ "Wave3" ],
			"objclass": "SpawnZombiesJitteredWaveActionProps",
			"objdata": {
				"AdditionalPlantfood": 1,
				"Zombies": [ {
						"Row": "3",
						"Type": "RTID(pirate_armor2@ZombieTypes)"
					}, {
						"Type": "RTID(swashbuckler@ZombieTypes)"
					}, {
						"Type": "RTID(pirate_armor2@ZombieTypes)"
					} ]
			}
		}, {
			"aliases": [ "Wave4" ],
			"objclass": "SpawnZombiesJitteredWaveActionProps",
			"objdata": {
				"AdditionalPlantfood": 0,
				"Zombies": [ {
						"Type": "RTID(pirate_armor1@ZombieTypes)"
					}, {
						"Row": "prev",
						"Type": "RTID(pirate_armor1@ZombieTypes)"
					}, {
						"Row": "prev",
						"Type": "RTID(pirate_armor1@ZombieTypes)"
					}, {
						"Row": "prev",
						"Type": "RTID(pirate_captain@ZombieTypes)"
					} ]
			}
		}, {
			"aliases": [ "Wave5" ],
			"objclass": "SpawnZombiesJitteredWaveActionProps",
			"objdata": {
				"Zombies": [ {
						"Row": "3",
						"Type": "RTID(pirate_armor2@ZombieTypes)"
					}, {
						"Type": "RTID(swashbuckler@ZombieTypes)"
					}, {
						"Type": "RTID(swashbuckler@ZombieTypes)"
					}, {
						"Type": "RTID(pelican@ZombieTypes)"
					}, {
						"Type": "RTID(pelican@ZombieTypes)"
					} ]
			}
		}, {
			"aliases": [ "Wave6" ],
			"objclass": "SpawnZombiesJitteredWaveActionProps",
			"objdata": {
				"Zombies": [ {
						"Row": "2",
						"Type": "RTID(swashbuckler@ZombieTypes)"
					}, {
						"Row": "4",
						"Type": "RTID(swashbuckler@ZombieTypes)"
					}, {
						"Row": "1",
						"Type": "RTID(pirate_armor2@ZombieTypes)"
					}, {
						"Row": "3",
						"Type": "RTID(pirate_armor2@ZombieTypes)"
					}, {
						"Row": "5",
						"Type": "RTID(pirate_armor2@ZombieTypes)"
					} ]
			}
		}, {
			"aliases": [ "Wave7" ],
			"objclass": "SpawnZombiesJitteredWaveActionProps",
			"objdata": {
				"Zombies": [ {
						"Row": "1",
						"Type": "RTID(pirate_armor4@ZombieTypes)"
					}, {
						"Row": "4",
						"Type": "RTID(pirate_armor2@ZombieTypes)"
					}, {
						"Row": "4",
						"Type": "RTID(swashbuckler@ZombieTypes)"
					}, {
						"Type": "RTID(pirate_armor2@ZombieTypes)"
					} ]
			}
		}, {
			"aliases": [ "Wave8" ],
			"objclass": "SpawnZombiesJitteredWaveActionProps",
			"objdata": {
				"AdditionalPlantfood": 1,
				"Zombies": [ {
						"Row": "3",
						"Type": "RTID(pirate_armor2@ZombieTypes)"
					}, {
						"Type": "RTID(pirate_armor2@ZombieTypes)"
					}, {
						"Type": "RTID(pirate_armor2@ZombieTypes)"
					} ]
			}
		}, {
			"aliases": [ "Wave9" ],
			"objclass": "SpawnZombiesJitteredWaveActionProps",
			"objdata": {
				"Zombies": [ {
						"Row": "1",
						"Type": "RTID(pirate_armor4@ZombieTypes)"
					}, {
						"Row": "3",
						"Type": "RTID(pirate_armor4@ZombieTypes)"
					}, {
						"Row": "5",
						"Type": "RTID(pirate_armor4@ZombieTypes)"
					}, {
						"Row": "2",
						"Type": "RTID(pelican@ZombieTypes)"
					}, {
						"Row": "4",
						"Type": "RTID(pelican@ZombieTypes)"
					}, {
						"Type": "RTID(pelican@ZombieTypes)"
					}, {
						"Type": "RTID(pelican@ZombieTypes)"
					} ]
			}
		}, {
			"aliases": [ "Wave10" ],
			"objclass": "SpawnZombiesJitteredWaveActionProps",
			"objdata": {
				"AdditionalPlantfood": 0,
				"Zombies": [ {
						"Row": "2",
						"Type": "RTID(swashbuckler@ZombieTypes)"
					}, {
						"Row": "4",
						"Type": "RTID(swashbuckler@ZombieTypes)"
					}, {
						"Row": "5",
						"Type": "RTID(barrelroller@ZombieTypes)"
					}, {
						"Row": "1",
						"Type": "RTID(barrelroller@ZombieTypes)"
					}, {
						"Row": "3",
						"Type": "RTID(pirate_captain@ZombieTypes)"
					}, {
						"Row": "5",
						"Type": "RTID(barrelroller@ZombieTypes)"
					} ]
			}
		}, {
			"aliases": [ "Wave11" ],
			"objclass": "SpawnZombiesJitteredWaveActionProps",
			"objdata": {
				"AdditionalPlantfood": 0,
				"Zombies": [ {
						"Row": "3",
						"Type": "RTID(pirate_captain@ZombieTypes)"
					}, {
						"Row": "5",
						"Type": "RTID(roman_ballista@ZombieTypes)"
					}, {
						"Row": "1",
						"Type": "RTID(roman_ballista@ZombieTypes)"
					}, {
						"Row": "2",
						"Type": "RTID(cannon@ZombieTypes)"
					} ]
			}
		}, {
			"aliases": [ "Wave12" ],
			"objclass": "SpawnZombiesJitteredWaveActionProps",
			"objdata": {
				"Zombies": [ {
						"Row": "3",
						"Type": "RTID(pirate_armor2@ZombieTypes)"
					}, {
						"Row": "1",
						"Type": "RTID(pelican@ZombieTypes)"
					}, {
						"Row": "5",
						"Type": "RTID(pelican@ZombieTypes)"
					}, {
						"Type": "RTID(pirate_armor1@ZombieTypes)"
					}, {
						"Row": "3",
						"Type": "RTID(barrelroller@ZombieTypes)"
					}, {
						"Row": "2",
						"Type": "RTID(swashbuckler@ZombieTypes)"
					}, {
						"Row": "4",
						"Type": "RTID(swashbuckler@ZombieTypes)"
					}, {
						"Row": "3",
						"Type": "RTID(pirate_captain@ZombieTypes)"
					}, {
						"Type": "RTID(pirate_armor1@ZombieTypes)"
					} ]
			}
		}, {
			"aliases": [ "Wave13" ],
			"objclass": "SpawnZombiesJitteredWaveActionProps",
			"objdata": {
				"AdditionalPlantfood": 1,
				"Zombies": [ {
						"Row": "3",
						"Type": "RTID(pirate_captain@ZombieTypes)"
					}, {
						"Row": "4",
						"Type": "RTID(pelican@ZombieTypes)"
					}, {
						"Row": "5",
						"Type": "RTID(roman_ballista@ZombieTypes)"
					}, {
						"Row": "1",
						"Type": "RTID(roman_ballista@ZombieTypes)"
					}, {
						"Type": "RTID(pirate_captain@ZombieTypes)"
					}, {
						"Type": "RTID(pirate_captain@ZombieTypes)"
					} ]
			}
		}, {
			"aliases": [ "Wave14" ],
			"objclass": "SpawnZombiesJitteredWaveActionProps",
			"objdata": {
				"Zombies": [ {
						"Row": "3",
						"Type": "RTID(pirate_armor2@ZombieTypes)"
					}, {
						"Row": "1",
						"Type": "RTID(barrelroller@ZombieTypes)"
					}, {
						"Row": "5",
						"Type": "RTID(barrelroller@ZombieTypes)"
					} ]
			}
		}, {
			"aliases": [ "Wave15" ],
			"objclass": "SpawnZombiesJitteredWaveActionProps",
			"objdata": {
				"AdditionalPlantfood": 0,
				"Zombies": [ {
						"Row": "1",
						"Type": "RTID(pelican@ZombieTypes)"
					}, {
						"Row": "2",
						"Type": "RTID(pelican@ZombieTypes)"
					}, {
						"Row": "3",
						"Type": "RTID(pelican@ZombieTypes)"
					}, {
						"Row": "4",
						"Type": "RTID(pelican@ZombieTypes)"
					}, {
						"Row": "5",
						"Type": "RTID(pelican@ZombieTypes)"
					}, {
						"Type": "RTID(pelican@ZombieTypes)"
					}, {
						"Type": "RTID(pelican@ZombieTypes)"
					}, {
						"Type": "RTID(pelican@ZombieTypes)"
					} ]
			}
		}, {
			"aliases": [ "Wave16" ],
			"objclass": "SpawnZombiesJitteredWaveActionProps",
			"objdata": {
				"AdditionalPlantfood": 0,
				"Zombies": [ {
						"Type": "RTID(pirate_armor4@ZombieTypes)"
					}, {
						"Type": "RTID(pirate_armor4@ZombieTypes)"
					}, {
						"Type": "RTID(pirate_armor4@ZombieTypes)"
					}, {
						"Type": "RTID(pirate_armor4@ZombieTypes)"
					}, {
						"Type": "RTID(pirate_captain@ZombieTypes)"
					}, {
						"Type": "RTID(pirate_captain@ZombieTypes)"
					}, {
						"Row": "1",
						"Type": "RTID(swashbuckler@ZombieTypes)"
					}, {
						"Row": "2",
						"Type": "RTID(swashbuckler@ZombieTypes)"
					}, {
						"Row": "4",
						"Type": "RTID(swashbuckler@ZombieTypes)"
					}, {
						"Row": "5",
						"Type": "RTID(swashbuckler@ZombieTypes)"
					}, {
						"Row": "3",
						"Type": "RTID(pirate_armor2@ZombieTypes)"
					}, {
						"Row": "3",
						"Type": "RTID(barrelroller@ZombieTypes)"
					}, {
						"Row": "1",
						"Type": "RTID(roman_ballista@ZombieTypes)"
					}, {
						"Row": "5",
						"Type": "RTID(roman_ballista@ZombieTypes)"
					}, {
						"Type": "RTID(pirate_armor2@ZombieTypes)"
					} ]
			}
		}, {
			"aliases": [ "Wave8RaidingPartyEvent0" ],
			"objclass": "RaidingPartyZombieSpawnerProps",
			"objdata": {
				"GroupSize": "1",
				"SwashbucklerCount": "5",
				"TimeBetweenGroups": 2
			}
		}, {
			"aliases": [ "Wave8RaidingPartyEvent1" ],
			"objclass": "RaidingPartyZombieSpawnerProps",
			"objdata": {
				"GroupSize": "1",
				"SwashbucklerCount": "5",
				"TimeBetweenGroups": 3
			}
		}, {
			"aliases": [ "Wave8RaidingPartyEvent2" ],
			"objclass": "RaidingPartyZombieSpawnerProps",
			"objdata": {
				"GroupSize": "1",
				"SwashbucklerCount": "5",
				"TimeBetweenGroups": 4
			}
		}, {
			"aliases": [ "Wave14RaidingPartyEvent0" ],
			"objclass": "RaidingPartyZombieSpawnerProps",
			"objdata": {
				"GroupSize": "1",
				"SwashbucklerCount": "5",
				"TimeBetweenGroups": "1"
			}
		}, {
			"aliases": [ "Wave14RaidingPartyEvent1" ],
			"objclass": "RaidingPartyZombieSpawnerProps",
			"objdata": {
				"GroupSize": "1",
				"SwashbucklerCount": "5",
				"TimeBetweenGroups": 3
			}
		} ],
	"version": 1
}