{
	"#comment": "joust67 v1",
	"objects": [ {
			"objclass": "LevelDefinition",
			"objdata": {
				"CompletionAchievement": "",
				"Description": "[PLAYERS_TRIP_TO_RIFT]",
				"DisablePlantBoosts": false,
				"GridItemLevel": 1,
				"LevelNumber": "",
				"Loot": "",
				"Modules": [ "RTID(DefaultSunDropper@LevelModules)", "RTID(ZombiesDeadWinCon@LevelModules)", "RTID(DefaultZombieWinCondition@LevelModules)", "RTID(DarkMowers@LevelModules)", "RTID(SeedBank@CurrentLevel)", "RTID(NewWaves@CurrentLevel)", "RTID(PerkActivator@CurrentLevel)", "RTID(LevelDifficultyScaling@CurrentLevel)", "RTID(LastStand@CurrentLevel)", "RTID(LevelScoring@CurrentLevel)", "RTID(ScoreTiles@CurrentLevel)", "RTID(WaveDuplicator@CurrentLevel)" ],
				"MusicType": "MiniGame_A",
				"Name": "[RIFT_LEVEL_NAME]",
				"NormalPresentTable": "egypt_normal_01",
				"ShinyPresentTable": "egypt_shiny_01",
				"VictoryModule": "RTID(RiftOutro@LevelModules)",
				"StageModule": "RTID(JoustStage@LevelModules)",
				"SuppressAccountUpgrades": true,
				"SuppressDynamicTutorial": true,
				"SuppressPlantfoodPurchase": false,
				"LevelMutator": "RTID(LevelMutator@CurrentLevel)",
				"PerksDisabledInLevel": [ "bossbustercannon" ],
				"PerksDisabledPerDifficulty": [ [], [], [] ]
			}
		}, {
			"aliases": [ "WaveDuplicator" ],
			"objclass": "WaveDuplicatorModuleProperties",
			"objdata": {
				"PeriodOfWavesToLoop": 6,
				"WaveSetsToAppend": 20
			}
		}, {
			"aliases": [ "PerkActivator" ],
			"objclass": "PerkHandlerModuleProperties",
			"objdata": {}
		}, {
			"aliases": [ "LevelMutator" ],
			"objclass": "LevelMutatorModuleProperties",
			"objdata": {
				"MutatorTables": [ "RTID(MutatorPropsRiftBattlez@LevelMutatorTables)", "RTID(LocalChallengeMutator@CurrentLevel)", "RTID(LocalMainChallengeMutator@CurrentLevel)" ]
			}
		}, {
			"aliases": [ "LocalMainChallengeMutator" ],
			"objclass": "LevelMutatorTableProps",
			"objdata": {
				"Tables": [ {
						"Level": 0,
						"ModuleType": "mainchallenge",
						"Modules": [ "RTID(LevelTimer@CurrentLevel)" ]
					}, {
						"Level": 1,
						"ModuleType": "mainchallenge",
						"Modules": [ "RTID(LevelTimer@CurrentLevel)" ]
					}, {
						"Level": 2,
						"ModuleType": "mainchallenge",
						"Modules": [ "RTID(LevelTimer@CurrentLevel)" ]
					} ]
			}
		}, {
			"aliases": [ "LevelTimer" ],
			"objclass": "StarChallengeLevelTimerProperties",
			"objdata": {
				"TimeLimit": 120
			}
		}, {
			"aliases": [ "LocalChallengeMutator" ],
			"objclass": "LevelMutatorTableProps",
			"objdata": {
				"Tables": [ {
						"Level": 0,
						"ModuleType": "bonuschallenge",
						"Modules": [ "RTID(ReachTheScore1@CurrentLevel)", "RTID(ProtectThePlant@CurrentLevel)" ]
					}, {
						"Level": 1,
						"ModuleType": "bonuschallenge",
						"Modules": [ "RTID(ReachTheScore2@CurrentLevel)", "RTID(ProtectThePlant@CurrentLevel)" ]
					}, {
						"Level": 2,
						"ModuleType": "bonuschallenge",
						"Modules": [ "RTID(ReachTheScore3@CurrentLevel)", "RTID(ProtectThePlant@CurrentLevel)" ]
					} ]
			}
		}, {
			"aliases": [ "ReachTheScore1" ],
			"objclass": "StarChallengeTargetScoreProps",
			"objdata": {
				"Description": "[STARCHALLENGE_SCORE_TO_BEAT]",
				"DescriptionFailure": "[STARCHALLENGE_TARGET_SCORE_FAILURE]",
				"DescriptiveName": "[STARCHALLENGE_TARGET_SCORE_NAME]",
				"TargetScore": 1000000
			}
		}, {
			"aliases": [ "ReachTheScore2" ],
			"objclass": "StarChallengeTargetScoreProps",
			"objdata": {
				"Description": "[STARCHALLENGE_SCORE_TO_BEAT]",
				"DescriptionFailure": "[STARCHALLENGE_TARGET_SCORE_FAILURE]",
				"DescriptiveName": "[STARCHALLENGE_TARGET_SCORE_NAME]",
				"TargetScore": 2000000
			}
		}, {
			"aliases": [ "ReachTheScore3" ],
			"objclass": "StarChallengeTargetScoreProps",
			"objdata": {
				"Description": "[STARCHALLENGE_SCORE_TO_BEAT]",
				"DescriptionFailure": "[STARCHALLENGE_TARGET_SCORE_FAILURE]",
				"DescriptiveName": "[STARCHALLENGE_TARGET_SCORE_NAME]",
				"TargetScore": 3000000
			}
		}, {
			"aliases": [ "ProtectThePlant" ],
			"objclass": "ProtectThePlantChallengeProperties",
			"objdata": {
				"MustProtectCount": 2,
				"Plants": [ {
						"GridX": 0,
						"GridY": 0,
						"PlantType": "zoybeanpod"
					}, {
						"GridX": 0,
						"GridY": 4,
						"PlantType": "zoybeanpod"
					} ]
			}
		}, {
			"aliases": [ "LevelDifficultyScaling" ],
			"objclass": "LevelDifficultyScalingModuleProperties",
			"objdata": {
				"DifficultyRulesType": "RiftDifficulty",
				"ZombieLevelSwaps": [ {
						"Level": 0,
						"Swaps": [ {
								"From": "RTID(roman@ZombieTypes)",
								"To": [ "RTID(roman@ZombieTypes)", "RTID(roman_armor1@ZombieTypes)" ]
							} ]
					}, {
						"Level": 4,
						"Swaps": [ {
								"From": "RTID(roman@ZombieTypes)",
								"To": [ "RTID(roman_armor1@ZombieTypes)", "RTID(roman_armor2@ZombieTypes)" ]
							} ]
					}, {
						"Level": 7,
						"Swaps": [ {
								"From": "RTID(roman@ZombieTypes)",
								"To": [ "RTID(roman_armor1@ZombieTypes)", "RTID(roman_armor1@ZombieTypes)", "RTID(roman_healer@ZombieTypes)", "RTID(roman_gargantuar@ZombieTypes)" ]
							} ]
					} ]
			}
		}, {
			"aliases": [ "SeedBank" ],
			"objclass": "SeedBankProperties",
			"objdata": {
				"ExcludeListSunProducers": false,
				"PlantExcludeList": [],
				"PresetPlantList": [ {
						"Level": -1,
						"PlantType": "zoybeanpod"
					} ],
				"SelectionMethod": "chooser"
			}
		}, {
			"aliases": [ "LastStand" ],
			"objclass": "LastStandMinigameProperties",
			"objdata": {
				"StartingPlantfood": 1,
				"StartingSun": 1500,
				"PreSeedchooserFlow": "rift"
			}
		}, {
			"aliases": [ "LevelScoring" ],
			"objclass": "LevelScoringModuleProperties",
			"objdata": {
				"PlantBonusMultiplier": 0.1,
				"PlantBonuses": [],
				"ScoringRulesType": "Rift",
				"StartingPlantfood": 0
			}
		}, {
			"aliases": [ "ScoreTiles" ],
			"objclass": "InitialGridItemProperties",
			"objdata": {
				"InitialGridItemPlacements": [ {
						"GridX": 8,
						"GridY": 0,
						"TypeName": "score_5x_tile"
					}, {
						"GridX": 8,
						"GridY": 1,
						"TypeName": "score_5x_tile"
					}, {
						"GridX": 8,
						"GridY": 2,
						"TypeName": "score_5x_tile"
					}, {
						"GridX": 8,
						"GridY": 3,
						"TypeName": "score_5x_tile"
					}, {
						"GridX": 8,
						"GridY": 4,
						"TypeName": "score_5x_tile"
					}, {
						"GridX": 7,
						"GridY": 0,
						"TypeName": "score_5x_tile"
					}, {
						"GridX": 7,
						"GridY": 1,
						"TypeName": "score_5x_tile"
					}, {
						"GridX": 7,
						"GridY": 2,
						"TypeName": "score_5x_tile"
					}, {
						"GridX": 7,
						"GridY": 3,
						"TypeName": "score_5x_tile"
					}, {
						"GridX": 7,
						"GridY": 4,
						"TypeName": "score_5x_tile"
					}, {
						"GridX": 6,
						"GridY": 0,
						"TypeName": "score_3x_tile"
					}, {
						"GridX": 6,
						"GridY": 1,
						"TypeName": "score_3x_tile"
					}, {
						"GridX": 6,
						"GridY": 2,
						"TypeName": "score_3x_tile"
					}, {
						"GridX": 6,
						"GridY": 3,
						"TypeName": "score_3x_tile"
					}, {
						"GridX": 6,
						"GridY": 4,
						"TypeName": "score_3x_tile"
					}, {
						"GridX": 5,
						"GridY": 0,
						"TypeName": "score_3x_tile"
					}, {
						"GridX": 5,
						"GridY": 1,
						"TypeName": "score_3x_tile"
					}, {
						"GridX": 5,
						"GridY": 2,
						"TypeName": "score_3x_tile"
					}, {
						"GridX": 5,
						"GridY": 3,
						"TypeName": "score_3x_tile"
					}, {
						"GridX": 5,
						"GridY": 4,
						"TypeName": "score_3x_tile"
					}, {
						"GridX": 4,
						"GridY": 0,
						"TypeName": "score_2x_tile"
					}, {
						"GridX": 4,
						"GridY": 1,
						"TypeName": "score_2x_tile"
					}, {
						"GridX": 4,
						"GridY": 2,
						"TypeName": "score_2x_tile"
					}, {
						"GridX": 4,
						"GridY": 3,
						"TypeName": "score_2x_tile"
					}, {
						"GridX": 4,
						"GridY": 4,
						"TypeName": "score_2x_tile"
					}, {
						"GridX": 3,
						"GridY": 0,
						"TypeName": "score_2x_tile"
					}, {
						"GridX": 3,
						"GridY": 1,
						"TypeName": "score_2x_tile"
					}, {
						"GridX": 3,
						"GridY": 2,
						"TypeName": "score_2x_tile"
					}, {
						"GridX": 3,
						"GridY": 3,
						"TypeName": "score_2x_tile"
					}, {
						"GridX": 3,
						"GridY": 4,
						"TypeName": "score_2x_tile"
					} ]
			}
		}, {
			"aliases": [ "NewWaves" ],
			"objclass": "WaveManagerModuleProperties",
			"objdata": {
				"DynamicZombies": [ {
						"MaxPoints": 2100,
						"PointIncrementPerWave": 100,
						"StartingPoints": 200,
						"StartingWave": 0,
						"ZombiePool": [ "RTID(roman_healer@ZombieTypes)" ]
					}, {
						"MaxPoints": 2100,
						"PointIncrementPerWave": 100,
						"StartingPoints": 200,
						"StartingWave": 0,
						"ZombiePool": [ "RTID(roman_healer@ZombieTypes)" ]
					}, {
						"MaxPoints": 2100,
						"PointIncrementPerWave": 100,
						"StartingPoints": 200,
						"StartingWave": 0,
						"ZombiePool": [ "RTID(roman_healer@ZombieTypes)" ]
					}, {}, {
						"MaxPoints": 2100,
						"PointIncrementPerWave": 100,
						"StartingPoints": 200,
						"StartingWave": 0,
						"ZombiePool": [ "RTID(roman_healer@ZombieTypes)" ]
					}, {
						"MaxPoints": 2100,
						"PointIncrementPerWave": 100,
						"StartingPoints": 200,
						"StartingWave": 0,
						"ZombiePool": [ "RTID(roman_healer@ZombieTypes)" ]
					}, {
						"MaxPoints": 2100,
						"PointIncrementPerWave": 100,
						"StartingPoints": 200,
						"StartingWave": 0,
						"ZombiePool": [ "RTID(roman_healer@ZombieTypes)" ]
					} ],
				"WaveManagerProps": "RTID(WaveManagerProps@CurrentLevel)"
			}
		}, {
			"aliases": [ "WaveManagerProps" ],
			"objclass": "WaveManagerProperties",
			"objdata": {
				"FlagWaveInterval": 36,
				"WaveCount": 36,
				"WaveSpendingPointIncrement": 200,
				"WaveSpendingPoints": 100,
				"Waves": [ [ "RTID(Wave1@CurrentLevel)" ], [ "RTID(Wave2@CurrentLevel)" ], [ "RTID(Wave3@CurrentLevel)" ], [ "RTID(Wave4@CurrentLevel)" ], [ "RTID(Wave5@CurrentLevel)" ], [ "RTID(Wave6@CurrentLevel)" ], [ "RTID(Wave7@CurrentLevel)" ], [ "RTID(Wave8@CurrentLevel)" ], [ "RTID(Wave9@CurrentLevel)" ], [ "RTID(Wave10@CurrentLevel)" ], [ "RTID(Wave11@CurrentLevel)" ], [ "RTID(Wave12@CurrentLevel)" ], [ "RTID(Wave13@CurrentLevel)" ], [ "RTID(Wave14@CurrentLevel)" ], [ "RTID(Wave15@CurrentLevel)" ], [ "RTID(Wave16@CurrentLevel)" ], [ "RTID(Wave17@CurrentLevel)" ], [ "RTID(Wave18@CurrentLevel)" ], [ "RTID(Wave19@CurrentLevel)" ], [ "RTID(Wave20@CurrentLevel)" ], [ "RTID(Wave21@CurrentLevel)" ], [ "RTID(Wave22@CurrentLevel)" ], [ "RTID(Wave23@CurrentLevel)" ], [ "RTID(Wave24@CurrentLevel)" ], [ "RTID(Wave25@CurrentLevel)" ], [ "RTID(Wave26@CurrentLevel)" ], [ "RTID(Wave27@CurrentLevel)" ], [ "RTID(Wave28@CurrentLevel)" ], [ "RTID(Wave29@CurrentLevel)" ], [ "RTID(Wave30@CurrentLevel)" ], [ "RTID(Wave31@CurrentLevel)" ], [ "RTID(Wave32@CurrentLevel)" ], [ "RTID(Wave33@CurrentLevel)" ], [ "RTID(Wave34@CurrentLevel)" ], [ "RTID(Wave35@CurrentLevel)" ], [ "RTID(Wave36@CurrentLevel)" ] ],
				"WavesAlwaysRandomized": true
			}
		}, {
			"aliases": [ "Wave1" ],
			"objclass": "SpawnZombiesJitteredWaveActionProps",
			"objdata": {
				"Zombies": [ {
						"Type": "RTID(roman@ZombieTypes)"
					}, {
						"Type": "RTID(roman@ZombieTypes)"
					} ]
			}
		}, {
			"aliases": [ "Wave2" ],
			"objclass": "SpawnZombiesJitteredWaveActionProps",
			"objdata": {
				"Zombies": [ {
						"Type": "RTID(roman@ZombieTypes)"
					}, {
						"Type": "RTID(roman_armor1@ZombieTypes)"
					}, {
						"Type": "RTID(roman_armor1@ZombieTypes)"
					} ]
			}
		}, {
			"aliases": [ "Wave3" ],
			"objclass": "SpawnZombiesJitteredWaveActionProps",
			"objdata": {
				"AdditionalPlantfood": 0,
				"Zombies": [ {
						"Type": "RTID(roman@ZombieTypes)"
					}, {
						"Type": "RTID(roman@ZombieTypes)"
					}, {
						"Type": "RTID(roman_armor2@ZombieTypes)"
					}, {
						"Type": "RTID(roman@ZombieTypes)"
					} ]
			}
		}, {
			"aliases": [ "Wave4" ],
			"objclass": "SpawnZombiesJitteredWaveActionProps",
			"objdata": {
				"AdditionalPlantfood": 0,
				"Zombies": [ {
						"Type": "RTID(roman_armor1@ZombieTypes)"
					}, {
						"Type": "RTID(roman@ZombieTypes)"
					}, {
						"Type": "RTID(roman_armor2@ZombieTypes)"
					}, {
						"Type": "RTID(roman_armor1@ZombieTypes)"
					} ]
			}
		}, {
			"aliases": [ "Wave5" ],
			"objclass": "SpawnZombiesJitteredWaveActionProps",
			"objdata": {
				"Zombies": [ {
						"Type": "RTID(roman@ZombieTypes)"
					}, {
						"Type": "RTID(roman_armor1@ZombieTypes)"
					}, {
						"Type": "RTID(roman@ZombieTypes)"
					}, {
						"Type": "RTID(west_bull@ZombieTypes)"
					} ]
			}
		}, {
			"aliases": [ "Wave6" ],
			"objclass": "SpawnZombiesJitteredWaveActionProps",
			"objdata": {
				"Zombies": [ {
						"Type": "RTID(roman_armor2@ZombieTypes)"
					}, {
						"Type": "RTID(west_bull@ZombieTypes)"
					} ]
			}
		}, {
			"aliases": [ "Wave7" ],
			"objclass": "SpawnZombiesJitteredWaveActionProps",
			"objdata": {
				"Zombies": [ {
						"Type": "RTID(roman_armor2@ZombieTypes)"
					}, {
						"Type": "RTID(roman_armor2@ZombieTypes)"
					}, {
						"Type": "RTID(west_bull@ZombieTypes)"
					} ]
			}
		}, {
			"aliases": [ "Wave8" ],
			"objclass": "SpawnZombiesJitteredWaveActionProps",
			"objdata": {
				"Zombies": [ {
						"Type": "RTID(roman@ZombieTypes)"
					}, {
						"Type": "RTID(roman_armor1@ZombieTypes)"
					}, {
						"Type": "RTID(west_bull@ZombieTypes)"
					}, {
						"Type": "RTID(west_bull@ZombieTypes)"
					} ]
			}
		}, {
			"aliases": [ "Wave9" ],
			"objclass": "SpawnZombiesJitteredWaveActionProps",
			"objdata": {
				"Zombies": [ {
						"Type": "RTID(roman_armor1@ZombieTypes)"
					}, {
						"Type": "RTID(roman@ZombieTypes)"
					}, {
						"Type": "RTID(chicken_farmer@ZombieTypes)"
					}, {
						"Type": "RTID(roman_armor2@ZombieTypes)"
					}, {
						"Type": "RTID(roman_armor1@ZombieTypes)"
					}, {
						"Type": "RTID(roman@ZombieTypes)"
					}, {
						"Type": "RTID(roman@ZombieTypes)"
					}, {
						"Type": "RTID(chicken_farmer@ZombieTypes)"
					}, {
						"Type": "RTID(roman_armor2@ZombieTypes)"
					}, {
						"Type": "RTID(dark_juggler@ZombieTypes)"
					} ]
			}
		}, {
			"aliases": [ "Wave10" ],
			"objclass": "SpawnZombiesJitteredWaveActionProps",
			"objdata": {
				"Zombies": [ {
						"Type": "RTID(roman@ZombieTypes)"
					}, {
						"Type": "RTID(chicken_farmer@ZombieTypes)"
					}, {
						"Type": "RTID(west_bull@ZombieTypes)"
					}, {
						"Type": "RTID(roman_armor2@ZombieTypes)"
					}, {
						"Type": "RTID(west_bull@ZombieTypes)"
					}, {
						"Type": "RTID(dark_juggler@ZombieTypes)"
					} ]
			}
		}, {
			"aliases": [ "Wave11" ],
			"objclass": "SpawnZombiesJitteredWaveActionProps",
			"objdata": {
				"Zombies": [ {
						"Type": "RTID(roman@ZombieTypes)"
					}, {
						"Type": "RTID(dino_bully_veteran@ZombieTypes)"
					}, {
						"Type": "RTID(roman_armor2@ZombieTypes)"
					}, {
						"Type": "RTID(west_bull@ZombieTypes)"
					}, {
						"Type": "RTID(dark_juggler@ZombieTypes)"
					} ]
			}
		}, {
			"aliases": [ "Wave12" ],
			"objclass": "SpawnZombiesJitteredWaveActionProps",
			"objdata": {
				"Zombies": [ {
						"Type": "RTID(dino_bully_veteran@ZombieTypes)"
					}, {
						"Type": "RTID(roman_armor2@ZombieTypes)"
					}, {
						"Type": "RTID(west_bull@ZombieTypes)"
					}, {
						"Type": "RTID(roman_armor1@ZombieTypes)"
					}, {
						"Type": "RTID(chicken_farmer@ZombieTypes)"
					} ]
			}
		}, {
			"aliases": [ "Wave13" ],
			"objclass": "SpawnZombiesJitteredWaveActionProps",
			"objdata": {
				"Zombies": [ {
						"Type": "RTID(roman_armor1@ZombieTypes)"
					}, {
						"Type": "RTID(roman_armor2@ZombieTypes)"
					}, {
						"Type": "RTID(roman@ZombieTypes)"
					}, {
						"Type": "RTID(beach_octopus@ZombieTypes)"
					}, {
						"Type": "RTID(dino_bully_veteran@ZombieTypes)"
					}, {
						"Type": "RTID(chicken_farmer@ZombieTypes)"
					} ]
			}
		}, {
			"aliases": [ "Wave14" ],
			"objclass": "SpawnZombiesJitteredWaveActionProps",
			"objdata": {
				"Zombies": [ {
						"Type": "RTID(roman_armor1@ZombieTypes)"
					}, {
						"Type": "RTID(dark_juggler@ZombieTypes)"
					}, {
						"Type": "RTID(dino_bully_veteran@ZombieTypes)"
					}, {
						"Type": "RTID(chicken_farmer@ZombieTypes)"
					}, {
						"Type": "RTID(west_bull@ZombieTypes)"
					} ]
			}
		}, {
			"aliases": [ "Wave15" ],
			"objclass": "SpawnZombiesJitteredWaveActionProps",
			"objdata": {
				"AdditionalPlantfood": 0,
				"Zombies": [ {
						"Type": "RTID(chicken_farmer@ZombieTypes)"
					}, {
						"Type": "RTID(beach_octopus@ZombieTypes)"
					}, {
						"Type": "RTID(chicken_farmer@ZombieTypes)"
					}, {
						"Type": "RTID(roman_armor2@ZombieTypes)"
					}, {
						"Type": "RTID(dino_bully_veteran@ZombieTypes)"
					}, {
						"Type": "RTID(roman@ZombieTypes)"
					}, {
						"Type": "RTID(roman@ZombieTypes)"
					}, {
						"Type": "RTID(roman_armor1@ZombieTypes)"
					} ]
			}
		}, {
			"aliases": [ "Wave16" ],
			"objclass": "SpawnZombiesJitteredWaveActionProps",
			"objdata": {
				"Zombies": [ {
						"Type": "RTID(west_bull@ZombieTypes)"
					}, {
						"Type": "RTID(chicken_farmer@ZombieTypes)"
					}, {
						"Type": "RTID(roman_armor1@ZombieTypes)"
					}, {
						"Type": "RTID(west_bull@ZombieTypes)"
					}, {
						"Type": "RTID(roman@ZombieTypes)"
					}, {
						"Type": "RTID(roman_armor1@ZombieTypes)"
					}, {
						"Type": "RTID(roman_armor2@ZombieTypes)"
					}, {
						"Type": "RTID(roman@ZombieTypes)"
					}, {
						"Type": "RTID(west_bull@ZombieTypes)"
					}, {
						"Type": "RTID(dark_juggler@ZombieTypes)"
					} ]
			}
		}, {
			"aliases": [ "Wave17" ],
			"objclass": "SpawnZombiesJitteredWaveActionProps",
			"objdata": {
				"Zombies": [ {
						"Type": "RTID(roman_armor1@ZombieTypes)"
					}, {
						"Type": "RTID(roman_armor2@ZombieTypes)"
					}, {
						"Type": "RTID(iceage_gargantuar@ZombieTypes)"
					}, {
						"Type": "RTID(roman_armor2@ZombieTypes)"
					}, {
						"Type": "RTID(roman_armor4@ZombieTypes)"
					} ]
			}
		}, {
			"aliases": [ "Wave18" ],
			"objclass": "SpawnZombiesJitteredWaveActionProps",
			"objdata": {
				"Zombies": [ {
						"Type": "RTID(roman_armor1@ZombieTypes)"
					}, {
						"Type": "RTID(iceage_gargantuar@ZombieTypes)"
					}, {
						"Type": "RTID(iceage_gargantuar@ZombieTypes)"
					} ]
			}
		}, {
			"aliases": [ "Wave19" ],
			"objclass": "SpawnZombiesJitteredWaveActionProps",
			"objdata": {
				"Zombies": [ {
						"Type": "RTID(roman@ZombieTypes)"
					}, {
						"Type": "RTID(chicken_farmer@ZombieTypes)"
					}, {
						"Type": "RTID(beach_octopus@ZombieTypes)"
					}, {
						"Type": "RTID(roman@ZombieTypes)"
					}, {
						"Type": "RTID(roman_armor4@ZombieTypes)"
					}, {
						"Type": "RTID(dino_bully_veteran@ZombieTypes)"
					}, {
						"Type": "RTID(roman@ZombieTypes)"
					}, {
						"Type": "RTID(chicken_farmer@ZombieTypes)"
					}, {
						"Type": "RTID(west_bull@ZombieTypes)"
					}, {
						"Type": "RTID(roman_armor1@ZombieTypes)"
					} ]
			}
		}, {
			"aliases": [ "Wave20" ],
			"objclass": "SpawnZombiesJitteredWaveActionProps",
			"objdata": {
				"AdditionalPlantfood": 0,
				"Zombies": [ {
						"Type": "RTID(roman_armor4@ZombieTypes)"
					}, {
						"Type": "RTID(roman@ZombieTypes)"
					}, {
						"Type": "RTID(iceage_gargantuar@ZombieTypes)"
					}, {
						"Type": "RTID(roman@ZombieTypes)"
					}, {
						"Type": "RTID(west_bull@ZombieTypes)"
					}, {
						"Type": "RTID(roman_armor2@ZombieTypes)"
					}, {
						"Type": "RTID(roman_armor1@ZombieTypes)"
					} ]
			}
		}, {
			"aliases": [ "Wave21" ],
			"objclass": "SpawnZombiesJitteredWaveActionProps",
			"objdata": {
				"Zombies": [ {
						"Type": "RTID(iceage_gargantuar@ZombieTypes)"
					}, {
						"Type": "RTID(dino_bully_veteran@ZombieTypes)"
					}, {
						"Type": "RTID(dark_juggler@ZombieTypes)"
					}, {
						"Type": "RTID(roman_armor4@ZombieTypes)"
					} ]
			}
		}, {
			"aliases": [ "Wave22" ],
			"objclass": "SpawnZombiesJitteredWaveActionProps",
			"objdata": {
				"Zombies": [ {
						"Type": "RTID(chicken_farmer@ZombieTypes)"
					}, {
						"Type": "RTID(roman_armor1@ZombieTypes)"
					}, {
						"Type": "RTID(beach_octopus@ZombieTypes)"
					}, {
						"Type": "RTID(west_bull@ZombieTypes)"
					}, {
						"Type": "RTID(roman@ZombieTypes)"
					}, {
						"Type": "RTID(roman_armor1@ZombieTypes)"
					}, {
						"Type": "RTID(chicken_farmer@ZombieTypes)"
					}, {
						"Type": "RTID(chicken_farmer@ZombieTypes)"
					}, {
						"Type": "RTID(west_bull@ZombieTypes)"
					}, {
						"Type": "RTID(dark_juggler@ZombieTypes)"
					}, {
						"Type": "RTID(roman_armor1@ZombieTypes)"
					}, {
						"Type": "RTID(chicken_farmer@ZombieTypes)"
					} ]
			}
		}, {
			"aliases": [ "Wave23" ],
			"objclass": "SpawnZombiesJitteredWaveActionProps",
			"objdata": {
				"Zombies": [ {
						"Type": "RTID(roman@ZombieTypes)"
					}, {
						"Type": "RTID(chicken_farmer@ZombieTypes)"
					}, {
						"Type": "RTID(beach_octopus@ZombieTypes)"
					}, {
						"Type": "RTID(roman_armor1@ZombieTypes)"
					}, {
						"Type": "RTID(dino_bully_veteran@ZombieTypes)"
					}, {
						"Type": "RTID(roman@ZombieTypes)"
					}, {
						"Type": "RTID(roman_armor4@ZombieTypes)"
					}, {
						"Type": "RTID(roman@ZombieTypes)"
					}, {
						"Type": "RTID(roman_armor1@ZombieTypes)"
					}, {
						"Type": "RTID(roman@ZombieTypes)"
					}, {
						"Type": "RTID(dark_juggler@ZombieTypes)"
					}, {
						"Type": "RTID(roman@ZombieTypes)"
					}, {
						"Type": "RTID(roman_armor1@ZombieTypes)"
					}, {
						"Type": "RTID(chicken_farmer@ZombieTypes)"
					} ]
			}
		}, {
			"aliases": [ "Wave24" ],
			"objclass": "SpawnZombiesJitteredWaveActionProps",
			"objdata": {
				"AdditionalPlantfood": 0,
				"Zombies": [ {
						"Type": "RTID(roman@ZombieTypes)"
					}, {
						"Type": "RTID(roman_armor2@ZombieTypes)"
					}, {
						"Type": "RTID(dino_bully_veteran@ZombieTypes)"
					}, {
						"Type": "RTID(west_bull@ZombieTypes)"
					}, {
						"Type": "RTID(roman_armor1@ZombieTypes)"
					}, {
						"Type": "RTID(roman_armor4@ZombieTypes)"
					}, {
						"Type": "RTID(iceage_gargantuar@ZombieTypes)"
					} ]
			}
		}, {
			"aliases": [ "Wave25" ],
			"objclass": "SpawnZombiesJitteredWaveActionProps",
			"objdata": {
				"Zombies": [ {
						"Type": "RTID(roman_armor4@ZombieTypes)"
					}, {
						"Type": "RTID(roman_armor4@ZombieTypes)"
					}, {
						"Type": "RTID(roman_armor4@ZombieTypes)"
					}, {
						"Type": "RTID(west_bull@ZombieTypes)"
					}, {
						"Type": "RTID(roman_armor2@ZombieTypes)"
					}, {
						"Type": "RTID(beach_octopus@ZombieTypes)"
					}, {
						"Type": "RTID(dark_juggler@ZombieTypes)"
					} ]
			}
		}, {
			"aliases": [ "Wave26" ],
			"objclass": "SpawnZombiesJitteredWaveActionProps",
			"objdata": {
				"Zombies": [ {
						"Type": "RTID(dino_bully_veteran@ZombieTypes)"
					}, {
						"Type": "RTID(west_bull@ZombieTypes)"
					}, {
						"Type": "RTID(iceage_gargantuar@ZombieTypes)"
					}, {
						"Type": "RTID(iceage_gargantuar@ZombieTypes)"
					}, {
						"Type": "RTID(west_bull@ZombieTypes)"
					}, {
						"Type": "RTID(dino_bully_veteran@ZombieTypes)"
					} ]
			}
		}, {
			"aliases": [ "Wave27" ],
			"objclass": "SpawnZombiesJitteredWaveActionProps",
			"objdata": {
				"Zombies": [ {
						"Type": "RTID(chicken_farmer@ZombieTypes)"
					}, {
						"Type": "RTID(beach_octopus@ZombieTypes)"
					}, {
						"Type": "RTID(roman_armor1@ZombieTypes)"
					}, {
						"Type": "RTID(roman_armor4@ZombieTypes)"
					}, {
						"Type": "RTID(dino_bully_veteran@ZombieTypes)"
					}, {
						"Type": "RTID(roman@ZombieTypes)"
					}, {
						"Type": "RTID(iceage_gargantuar@ZombieTypes)"
					}, {
						"Type": "RTID(west_bull@ZombieTypes)"
					}, {
						"Type": "RTID(dark_juggler@ZombieTypes)"
					}, {
						"Type": "RTID(chicken_farmer@ZombieTypes)"
					}, {
						"Type": "RTID(roman_armor4@ZombieTypes)"
					}, {
						"Type": "RTID(roman_armor1@ZombieTypes)"
					}, {
						"Type": "RTID(roman@ZombieTypes)"
					}, {
						"Type": "RTID(west_bull@ZombieTypes)"
					} ]
			}
		}, {
			"aliases": [ "Wave28" ],
			"objclass": "SpawnZombiesJitteredWaveActionProps",
			"objdata": {
				"Zombies": [ {
						"Type": "RTID(chicken_farmer@ZombieTypes)"
					}, {
						"Type": "RTID(roman_armor4@ZombieTypes)"
					}, {
						"Type": "RTID(beach_octopus@ZombieTypes)"
					}, {
						"Type": "RTID(roman_armor2@ZombieTypes)"
					}, {
						"Type": "RTID(roman@ZombieTypes)"
					}, {
						"Type": "RTID(roman_armor1@ZombieTypes)"
					}, {
						"Type": "RTID(west_bull@ZombieTypes)"
					}, {
						"Type": "RTID(dino_bully_veteran@ZombieTypes)"
					}, {
						"Type": "RTID(dark_juggler@ZombieTypes)"
					}, {
						"Type": "RTID(roman_armor2@ZombieTypes)"
					}, {
						"Type": "RTID(iceage_gargantuar@ZombieTypes)"
					}, {
						"Type": "RTID(chicken_farmer@ZombieTypes)"
					}, {
						"Type": "RTID(roman_armor4@ZombieTypes)"
					} ]
			}
		}, {
			"aliases": [ "Wave29" ],
			"objclass": "SpawnZombiesJitteredWaveActionProps",
			"objdata": {
				"Zombies": [ {
						"Type": "RTID(chicken_farmer@ZombieTypes)"
					}, {
						"Type": "RTID(beach_octopus@ZombieTypes)"
					}, {
						"Type": "RTID(roman_armor1@ZombieTypes)"
					}, {
						"Type": "RTID(roman_armor4@ZombieTypes)"
					}, {
						"Type": "RTID(dino_bully_veteran@ZombieTypes)"
					}, {
						"Type": "RTID(roman@ZombieTypes)"
					}, {
						"Type": "RTID(iceage_gargantuar@ZombieTypes)"
					}, {
						"Type": "RTID(west_bull@ZombieTypes)"
					}, {
						"Type": "RTID(dark_juggler@ZombieTypes)"
					}, {
						"Type": "RTID(chicken_farmer@ZombieTypes)"
					}, {
						"Type": "RTID(roman_armor4@ZombieTypes)"
					}, {
						"Type": "RTID(roman_armor1@ZombieTypes)"
					}, {
						"Type": "RTID(roman@ZombieTypes)"
					}, {
						"Type": "RTID(west_bull@ZombieTypes)"
					} ]
			}
		}, {
			"aliases": [ "Wave30" ],
			"objclass": "SpawnZombiesJitteredWaveActionProps",
			"objdata": {
				"Zombies": [ {
						"Type": "RTID(chicken_farmer@ZombieTypes)"
					}, {
						"Type": "RTID(beach_octopus@ZombieTypes)"
					}, {
						"Type": "RTID(roman_armor1@ZombieTypes)"
					}, {
						"Type": "RTID(roman_armor4@ZombieTypes)"
					}, {
						"Type": "RTID(dino_bully_veteran@ZombieTypes)"
					}, {
						"Type": "RTID(roman@ZombieTypes)"
					}, {
						"Type": "RTID(iceage_gargantuar@ZombieTypes)"
					}, {
						"Type": "RTID(west_bull@ZombieTypes)"
					}, {
						"Type": "RTID(dark_juggler@ZombieTypes)"
					}, {
						"Type": "RTID(chicken_farmer@ZombieTypes)"
					}, {
						"Type": "RTID(roman_armor4@ZombieTypes)"
					}, {
						"Type": "RTID(roman_armor1@ZombieTypes)"
					}, {
						"Type": "RTID(roman@ZombieTypes)"
					}, {
						"Type": "RTID(west_bull@ZombieTypes)"
					} ]
			}
		}, {
			"aliases": [ "Wave31" ],
			"objclass": "SpawnZombiesJitteredWaveActionProps",
			"objdata": {
				"Zombies": [ {
						"Type": "RTID(chicken_farmer@ZombieTypes)"
					}, {
						"Type": "RTID(beach_octopus@ZombieTypes)"
					}, {
						"Type": "RTID(roman_armor1@ZombieTypes)"
					}, {
						"Type": "RTID(roman_armor4@ZombieTypes)"
					}, {
						"Type": "RTID(dino_bully_veteran@ZombieTypes)"
					}, {
						"Type": "RTID(roman@ZombieTypes)"
					}, {
						"Type": "RTID(iceage_gargantuar@ZombieTypes)"
					}, {
						"Type": "RTID(west_bull@ZombieTypes)"
					}, {
						"Type": "RTID(dark_juggler@ZombieTypes)"
					}, {
						"Type": "RTID(chicken_farmer@ZombieTypes)"
					}, {
						"Type": "RTID(roman_armor4@ZombieTypes)"
					}, {
						"Type": "RTID(roman_armor1@ZombieTypes)"
					}, {
						"Type": "RTID(roman@ZombieTypes)"
					}, {
						"Type": "RTID(west_bull@ZombieTypes)"
					} ]
			}
		}, {
			"aliases": [ "Wave32" ],
			"objclass": "SpawnZombiesJitteredWaveActionProps",
			"objdata": {
				"AdditionalPlantfood": 0,
				"Zombies": [ {
						"Type": "RTID(roman_armor4@ZombieTypes)"
					}, {
						"Type": "RTID(chicken_farmer@ZombieTypes)"
					}, {
						"Type": "RTID(beach_octopus@ZombieTypes)"
					}, {
						"Type": "RTID(iceage_gargantuar@ZombieTypes)"
					}, {
						"Type": "RTID(roman_armor4@ZombieTypes)"
					}, {
						"Type": "RTID(roman_armor2@ZombieTypes)"
					}, {
						"Type": "RTID(dino_bully_veteran@ZombieTypes)"
					}, {
						"Type": "RTID(roman_armor2@ZombieTypes)"
					}, {
						"Type": "RTID(roman_armor1@ZombieTypes)"
					}, {
						"Type": "RTID(roman@ZombieTypes)"
					}, {
						"Type": "RTID(dino_bully_veteran@ZombieTypes)"
					}, {
						"Type": "RTID(roman_armor1@ZombieTypes)"
					}, {
						"Type": "RTID(roman_armor2@ZombieTypes)"
					}, {
						"Type": "RTID(west_bull@ZombieTypes)"
					} ]
			}
		}, {
			"aliases": [ "Wave33" ],
			"objclass": "SpawnZombiesJitteredWaveActionProps",
			"objdata": {
				"Zombies": [ {
						"Type": "RTID(chicken_farmer@ZombieTypes)"
					}, {
						"Type": "RTID(beach_octopus@ZombieTypes)"
					}, {
						"Type": "RTID(roman_armor1@ZombieTypes)"
					}, {
						"Type": "RTID(roman_armor4@ZombieTypes)"
					}, {
						"Type": "RTID(dino_bully_veteran@ZombieTypes)"
					}, {
						"Type": "RTID(roman@ZombieTypes)"
					}, {
						"Type": "RTID(iceage_gargantuar@ZombieTypes)"
					}, {
						"Type": "RTID(west_bull@ZombieTypes)"
					}, {
						"Type": "RTID(dark_juggler@ZombieTypes)"
					}, {
						"Type": "RTID(chicken_farmer@ZombieTypes)"
					}, {
						"Type": "RTID(roman_armor4@ZombieTypes)"
					}, {
						"Type": "RTID(roman_armor1@ZombieTypes)"
					}, {
						"Type": "RTID(roman@ZombieTypes)"
					}, {
						"Type": "RTID(west_bull@ZombieTypes)"
					} ]
			}
		}, {
			"aliases": [ "Wave34" ],
			"objclass": "SpawnZombiesJitteredWaveActionProps",
			"objdata": {
				"Zombies": [ {
						"Type": "RTID(chicken_farmer@ZombieTypes)"
					}, {
						"Type": "RTID(beach_octopus@ZombieTypes)"
					}, {
						"Type": "RTID(roman_armor1@ZombieTypes)"
					}, {
						"Type": "RTID(roman_armor4@ZombieTypes)"
					}, {
						"Type": "RTID(dino_bully_veteran@ZombieTypes)"
					}, {
						"Type": "RTID(roman@ZombieTypes)"
					}, {
						"Type": "RTID(iceage_gargantuar@ZombieTypes)"
					}, {
						"Type": "RTID(west_bull@ZombieTypes)"
					}, {
						"Type": "RTID(dark_juggler@ZombieTypes)"
					}, {
						"Type": "RTID(chicken_farmer@ZombieTypes)"
					}, {
						"Type": "RTID(roman_armor4@ZombieTypes)"
					}, {
						"Type": "RTID(roman_armor1@ZombieTypes)"
					}, {
						"Type": "RTID(roman@ZombieTypes)"
					}, {
						"Type": "RTID(west_bull@ZombieTypes)"
					} ]
			}
		}, {
			"aliases": [ "Wave35" ],
			"objclass": "SpawnZombiesJitteredWaveActionProps",
			"objdata": {
				"Zombies": [ {
						"Type": "RTID(chicken_farmer@ZombieTypes)"
					}, {
						"Type": "RTID(beach_octopus@ZombieTypes)"
					}, {
						"Type": "RTID(roman_armor1@ZombieTypes)"
					}, {
						"Type": "RTID(roman_armor4@ZombieTypes)"
					}, {
						"Type": "RTID(dino_bully_veteran@ZombieTypes)"
					}, {
						"Type": "RTID(roman@ZombieTypes)"
					}, {
						"Type": "RTID(iceage_gargantuar@ZombieTypes)"
					}, {
						"Type": "RTID(west_bull@ZombieTypes)"
					}, {
						"Type": "RTID(dark_juggler@ZombieTypes)"
					}, {
						"Type": "RTID(chicken_farmer@ZombieTypes)"
					}, {
						"Type": "RTID(roman_armor4@ZombieTypes)"
					}, {
						"Type": "RTID(roman_armor1@ZombieTypes)"
					}, {
						"Type": "RTID(roman@ZombieTypes)"
					}, {
						"Type": "RTID(west_bull@ZombieTypes)"
					} ]
			}
		}, {
			"aliases": [ "Wave36" ],
			"objclass": "SpawnZombiesJitteredWaveActionProps",
			"objdata": {
				"AdditionalPlantfood": 0,
				"Zombies": [ {
						"Type": "RTID(roman_armor4@ZombieTypes)"
					}, {
						"Type": "RTID(beach_octopus@ZombieTypes)"
					}, {
						"Type": "RTID(roman@ZombieTypes)"
					}, {
						"Type": "RTID(iceage_gargantuar@ZombieTypes)"
					}, {
						"Type": "RTID(west_bull@ZombieTypes)"
					}, {
						"Type": "RTID(roman_armor4@ZombieTypes)"
					}, {
						"Type": "RTID(dino_bully_veteran@ZombieTypes)"
					}, {
						"Type": "RTID(roman_armor1@ZombieTypes)"
					}, {
						"Type": "RTID(chicken_farmer@ZombieTypes)"
					}, {
						"Type": "RTID(roman@ZombieTypes)"
					}, {
						"Type": "RTID(iceage_gargantuar@ZombieTypes)"
					}, {
						"Type": "RTID(roman_armor2@ZombieTypes)"
					}, {
						"Type": "RTID(west_bull@ZombieTypes)"
					}, {
						"Type": "RTID(roman@ZombieTypes)"
					}, {
						"Type": "RTID(dark_juggler@ZombieTypes)"
					}, {
						"Type": "RTID(chicken_farmer@ZombieTypes)"
					} ]
			}
		} ],
	"version": 1
}