{
	"#comment": "Rift Template",
	"objects": [ {
			"objclass": "LevelDefinition",
			"objdata": {
				"Description": "[PLAYERS_TRIP_TO_RIFT]",
				"LevelNumber": "",
				"DisablePlantBoosts": false,
				"Loot": "",
				"Modules": [ "RTID(DefaultSunDropper@LevelModules)", "RTID(ZombiesDeadWinCon@LevelModules)", "RTID(DefaultZombieWinCondition@LevelModules)", "RTID(DarkMowers@LevelModules)", "RTID(SeedBank@CurrentLevel)", "RTID(NewWaves@CurrentLevel)", "RTID(LastStand@CurrentLevel)", "RTID(WaveDuplicator@CurrentLevel)", "RTID(FrozenPlantPlacement@CurrentLevel)", "RTID(PerkActivator@CurrentLevel)", "RTID(LevelDifficultyScaling@CurrentLevel)" ],
				"MusicType": "MiniGame_A",
				"Name": "[RIFT_LEVEL_NAME]",
				"NormalPresentTable": "egypt_normal_01",
				"ShinyPresentTable": "egypt_shiny_01",
				"VictoryModule": "RTID(RiftOutro@LevelModules)",
				"StageModule": "RTID(JoustStage@LevelModules)",
				"LevelMutator": "RTID(LevelMutator@CurrentLevel)",
				"PerksDisabledInLevel": [ "moarscore", "bossbustercannon" ],
				"PerksDisabledPerDifficulty": [ [], [], [] ]
			}
		}, {
			"aliases": [ "WaveDuplicator" ],
			"objclass": "WaveDuplicatorModuleProperties",
			"objdata": {
				"PeriodOfWavesToLoop": 4,
				"WaveSetsToAppend": 20
			}
		}, {
			"aliases": [ "PerkActivator" ],
			"objclass": "PerkHandlerModuleProperties",
			"objdata": {}
		}, {
			"aliases": [ "LevelMutator" ],
			"objclass": "LevelMutatorModuleProperties",
			"objdata": {
				"MutatorTables": [ "RTID(MutatorPropsRiftNormal@LevelMutatorTables)", "RTID(LocalChallengeMutator@CurrentLevel)", "RTID(LocalMainChallengeMutator@CurrentLevel)" ]
			}
		}, {
			"aliases": [ "LocalMainChallengeMutator" ],
			"objclass": "LevelMutatorTableProps",
			"objdata": {
				"Tables": [ {
						"Level": 0,
						"ModuleType": "mainchallenge",
						"Modules": [ "RTID(LevelTimer@CurrentLevel)" ]
					}, {
						"Level": 1,
						"ModuleType": "mainchallenge",
						"Modules": [ "RTID(LevelTimer@CurrentLevel)" ]
					}, {
						"Level": 2,
						"ModuleType": "mainchallenge",
						"Modules": [ "RTID(LevelTimer@CurrentLevel)" ]
					} ]
			}
		}, {
			"aliases": [ "LevelTimer" ],
			"objclass": "StarChallengeLevelTimerProperties",
			"objdata": {
				"TimeLimit": 120
			}
		}, {
			"aliases": [ "LastStand" ],
			"objclass": "LastStandMinigameProperties",
			"objdata": {
				"PreSeedchooserFlow": "rift",
				"StartingPlantfood": 1,
				"StartingSun": 1500
			}
		}, {
			"aliases": [ "LocalChallengeMutator" ],
			"objclass": "LevelMutatorTableProps",
			"objdata": {
				"Tables": [ {
						"Level": 0,
						"Modules": [ "RTID(ZombieDistance1@CurrentLevel)" ],
						"ModuleType": "bonuschallenge"
					}, {
						"Level": 1,
						"Modules": [ "RTID(KillZombies2@CurrentLevel)", "RTID(ZombieDistance2@CurrentLevel)" ],
						"ModuleType": "bonuschallenge"
					}, {
						"Level": 2,
						"Modules": [ "RTID(KillZombies3@CurrentLevel)", "RTID(ZombieDistance3@CurrentLevel)" ],
						"ModuleType": "bonuschallenge"
					} ]
			}
		}, {
			"aliases": [ "ZombieDistance1" ],
			"objclass": "StarChallengeZombieDistanceProps",
			"objdata": {
				"TargetDistance": 3
			}
		}, {
			"aliases": [ "ZombieDistance2" ],
			"objclass": "StarChallengeZombieDistanceProps",
			"objdata": {
				"TargetDistance": 4
			}
		}, {
			"aliases": [ "ZombieDistance3" ],
			"objclass": "StarChallengeZombieDistanceProps",
			"objdata": {
				"TargetDistance": 5
			}
		}, {
			"aliases": [ "KillZombies2" ],
			"objclass": "StarChallengeKillZombiesInTimeProps",
			"objdata": {
				"Time": 25,
				"ZombiesToKill": 25
			}
		}, {
			"aliases": [ "KillZombies3" ],
			"objclass": "StarChallengeKillZombiesInTimeProps",
			"objdata": {
				"Time": 20,
				"ZombiesToKill": 40
			}
		}, {
			"aliases": [ "SeedBank" ],
			"objclass": "SeedBankProperties",
			"objdata": {
				"ExcludeListSunProducers": false,
				"PlantExcludeList": [],
				"SelectionMethod": "chooser"
			}
		}, {
			"aliases": [ "FrozenPlantPlacement" ],
			"objclass": "InitialPlantProperties",
			"objdata": {
				"InitialPlantPlacements": [ {
						"GridX": 5,
						"GridY": 0,
						"Level": 10,
						"TypeName": "chomper"
					}, {
						"GridX": 5,
						"GridY": 1,
						"Level": 10,
						"TypeName": "chomper"
					}, {
						"GridX": 5,
						"GridY": 2,
						"Level": 10,
						"TypeName": "chomper"
					}, {
						"GridX": 5,
						"GridY": 3,
						"Level": 10,
						"TypeName": "chomper"
					}, {
						"GridX": 5,
						"GridY": 4,
						"Level": 10,
						"TypeName": "chomper"
					} ]
			}
		}, {
			"aliases": [ "LevelDifficultyScaling" ],
			"objclass": "LevelDifficultyScalingModuleProperties",
			"objdata": {
				"DifficultyRulesType": "RiftDifficulty",
				"ZombieLevelSwaps": [ {
						"Level": 0,
						"Swaps": [ {
								"From": "RTID(tutorial@ZombieTypes)",
								"To": [ "RTID(tutorial@ZombieTypes)", "RTID(tutorial@ZombieTypes)", "RTID(tutorial@ZombieTypes)", "RTID(tutorial_armor1@ZombieTypes)", "RTID(tutorial_armor1@ZombieTypes)", "RTID(tutorial_armor2@ZombieTypes)", "RTID(modern_newspaper@ZombieTypes)" ]
							} ]
					}, {
						"Level": 4,
						"Swaps": [ {
								"From": "RTID(tutorial@ZombieTypes)",
								"To": [ "RTID(tutorial@ZombieTypes)", "RTID(tutorial_armor1@ZombieTypes)", "RTID(tutorial_armor1@ZombieTypes)", "RTID(tutorial_armor2@ZombieTypes)", "RTID(tutorial_armor2@ZombieTypes)", "RTID(modern_newspaper@ZombieTypes)", "RTID(modern_newspaper@ZombieTypes)" ]
							} ]
					}, {
						"Level": 7,
						"Swaps": [ {
								"From": "RTID(tutorial@ZombieTypes)",
								"To": [ "RTID(tutorial_armor1@ZombieTypes)", "RTID(tutorial_armor2@ZombieTypes)", "RTID(tutorial_armor2@ZombieTypes)", "RTID(tutorial_armor2@ZombieTypes)", "RTID(modern_newspaper@ZombieTypes)", "RTID(modern_newspaper@ZombieTypes)", "RTID(modern_newspaper@ZombieTypes)" ]
							} ]
					} ]
			}
		}, {
			"aliases": [ "NewWaves" ],
			"objclass": "WaveManagerModuleProperties",
			"objdata": {
				"DynamicZombies": [ {
						"PointIncrementPerWave": -1,
						"StartingPoints": -1,
						"StartingWave": 1,
						"ZombiePool": [ "RTID(modern_allstar@ZombieTypes)" ]
					}, {
						"PointIncrementPerWave": -1,
						"StartingPoints": -1,
						"StartingWave": 1,
						"ZombiePool": [ "RTID(modern_allstar@ZombieTypes)" ]
					}, {
						"PointIncrementPerWave": -1,
						"StartingPoints": -1,
						"StartingWave": 1,
						"ZombiePool": [ "RTID(modern_allstar@ZombieTypes)" ]
					}, {
						"MaxPoints": 3000,
						"PointIncrementPerWave": 100,
						"StartingPoints": 100,
						"StartingWave": 0,
						"ZombiePool": [ "RTID(modern_allstar@ZombieTypes)" ]
					}, {
						"PointIncrementPerWave": 1,
						"StartingPoints": 1,
						"StartingWave": 1,
						"ZombiePool": [ "RTID(modern_allstar@ZombieTypes)" ]
					}, {
						"PointIncrementPerWave": 1,
						"StartingPoints": 1,
						"StartingWave": 1,
						"ZombiePool": [ "RTID(modern_allstar@ZombieTypes)" ]
					}, {
						"PointIncrementPerWave": 1,
						"StartingPoints": 1,
						"StartingWave": 1,
						"ZombiePool": [ "RTID(modern_allstar@ZombieTypes)" ]
					} ],
				"WaveManagerProps": "RTID(WaveManagerProps@CurrentLevel)"
			}
		}, {
			"aliases": [ "WaveManagerProps" ],
			"objclass": "WaveManagerProperties",
			"objdata": {
				"FlagWaveInterval": 10,
				"WaveCount": 10,
				"WaveSpendingPointIncrement": 250,
				"WaveSpendingPoints": 500,
				"Waves": [ [ "RTID(Wave1@CurrentLevel)" ], [ "RTID(Wave2@CurrentLevel)" ], [ "RTID(Wave3@CurrentLevel)", "RTID(Wave3HamsterStormEvent@CurrentLevel)" ], [ "RTID(Wave4@CurrentLevel)" ], [ "RTID(Wave5@CurrentLevel)" ], [ "RTID(Wave6@CurrentLevel)" ], [ "RTID(Wave7@CurrentLevel)", "RTID(Wave7HamsterStormEvent@CurrentLevel)" ], [ "RTID(Wave8@CurrentLevel)" ], [ "RTID(Wave9@CurrentLevel)" ], [ "RTID(Wave10@CurrentLevel)" ] ],
				"WavesAlwaysRandomized": true
			}
		}, {
			"aliases": [ "Wave3HamsterStormEvent" ],
			"objclass": "HamsterZombieSpawnerProps",
			"objdata": {
				"ColumnEnd": 3,
				"ColumnStart": 3,
				"GroupSize": 1,
				"TimeBetweenGroups": 1,
				"Zombies": [ {
						"Behavior": 1,
						"HasPlantfood": false,
						"SpeedBeforeImpact": 0.25,
						"Type": "RTID(hamster_ball@ZombieTypes)",
						"ZombieInsideBallType": "RTID(piano@ZombieTypes)"
					} ]
			}
		}, {
			"aliases": [ "Wave7HamsterStormEvent" ],
			"objclass": "HamsterZombieSpawnerProps",
			"objdata": {
				"ColumnEnd": 3,
				"ColumnStart": 3,
				"GroupSize": 1,
				"TimeBetweenGroups": 1,
				"Zombies": [ {
						"Behavior": 1,
						"HasPlantfood": false,
						"SpeedBeforeImpact": 0.25,
						"Type": "RTID(hamster_ball@ZombieTypes)",
						"ZombieInsideBallType": "RTID(piano@ZombieTypes)"
					} ]
			}
		}, {
			"aliases": [ "Wave1" ],
			"objclass": "SpawnZombiesJitteredWaveActionProps",
			"objdata": {
				"Zombies": [ {
						"Row": "4",
						"Type": "RTID(tutorial@ZombieTypes)"
					}, {
						"Row": "2",
						"Type": "RTID(tutorial@ZombieTypes)"
					}, {
						"Row": "3",
						"Type": "RTID(tutorial@ZombieTypes)"
					}, {
						"Row": "5",
						"Type": "RTID(tutorial@ZombieTypes)"
					}, {
						"Row": "1",
						"Type": "RTID(tutorial@ZombieTypes)"
					} ]
			}
		}, {
			"aliases": [ "Wave2" ],
			"objclass": "SpawnZombiesJitteredWaveActionProps",
			"objdata": {
				"Zombies": [ {
						"Row": "4",
						"Type": "RTID(tutorial@ZombieTypes)"
					}, {
						"Row": "3",
						"Type": "RTID(tutorial@ZombieTypes)"
					}, {
						"Row": "4",
						"Type": "RTID(tutorial@ZombieTypes)"
					}, {
						"Row": "1",
						"Type": "RTID(tutorial@ZombieTypes)"
					}, {
						"Row": "1",
						"Type": "RTID(tutorial@ZombieTypes)"
					}, {
						"Row": "4",
						"Type": "RTID(tutorial@ZombieTypes)"
					}, {
						"Row": "5",
						"Type": "RTID(tutorial@ZombieTypes)"
					} ]
			}
		}, {
			"aliases": [ "Wave3" ],
			"objclass": "SpawnZombiesJitteredWaveActionProps",
			"objdata": {
				"AdditionalPlantfood": 0,
				"Zombies": [ {
						"Row": "2",
						"Type": "RTID(tutorial@ZombieTypes)"
					}, {
						"Row": "2",
						"Type": "RTID(tutorial@ZombieTypes)"
					}, {
						"Row": "1",
						"Type": "RTID(tutorial@ZombieTypes)"
					}, {
						"Row": "5",
						"Type": "RTID(tutorial@ZombieTypes)"
					}, {
						"Row": "5",
						"Type": "RTID(tutorial@ZombieTypes)"
					}, {
						"Row": "3",
						"Type": "RTID(tutorial@ZombieTypes)"
					} ]
			}
		}, {
			"aliases": [ "Wave4" ],
			"objclass": "SpawnZombiesJitteredWaveActionProps",
			"objdata": {
				"Zombies": [ {
						"Row": "5",
						"Type": "RTID(tutorial@ZombieTypes)"
					}, {
						"Row": "2",
						"Type": "RTID(tutorial@ZombieTypes)"
					}, {
						"Row": "3",
						"Type": "RTID(tutorial@ZombieTypes)"
					}, {
						"Row": "1",
						"Type": "RTID(tutorial@ZombieTypes)"
					}, {
						"Row": "1",
						"Type": "RTID(tutorial@ZombieTypes)"
					}, {
						"Row": "4",
						"Type": "RTID(tutorial@ZombieTypes)"
					}, {
						"Row": "1",
						"Type": "RTID(tutorial@ZombieTypes)"
					} ]
			}
		}, {
			"aliases": [ "Wave5" ],
			"objclass": "SpawnZombiesJitteredWaveActionProps",
			"objdata": {
				"Zombies": [ {
						"Row": "1",
						"Type": "RTID(tutorial@ZombieTypes)"
					}, {
						"Row": "5",
						"Type": "RTID(tutorial@ZombieTypes)"
					}, {
						"Row": "3",
						"Type": "RTID(tutorial@ZombieTypes)"
					}, {
						"Row": "3",
						"Type": "RTID(tutorial@ZombieTypes)"
					}, {
						"Row": "3",
						"Type": "RTID(tutorial@ZombieTypes)"
					}, {
						"Row": "2",
						"Type": "RTID(tutorial@ZombieTypes)"
					}, {
						"Row": "4",
						"Type": "RTID(tutorial@ZombieTypes)"
					}, {
						"Row": "5",
						"Type": "RTID(tutorial@ZombieTypes)"
					} ]
			}
		}, {
			"aliases": [ "Wave6" ],
			"objclass": "SpawnZombiesJitteredWaveActionProps",
			"objdata": {
				"AdditionalPlantfood": 0,
				"Zombies": [ {
						"Row": "2",
						"Type": "RTID(tutorial@ZombieTypes)"
					}, {
						"Row": "2",
						"Type": "RTID(tutorial@ZombieTypes)"
					}, {
						"Row": "2",
						"Type": "RTID(tutorial@ZombieTypes)"
					}, {
						"Row": "5",
						"Type": "RTID(tutorial@ZombieTypes)"
					}, {
						"Row": "3",
						"Type": "RTID(tutorial@ZombieTypes)"
					}, {
						"Row": "1",
						"Type": "RTID(tutorial@ZombieTypes)"
					}, {
						"Row": "4",
						"Type": "RTID(tutorial@ZombieTypes)"
					}, {
						"Row": "4",
						"Type": "RTID(tutorial@ZombieTypes)"
					}, {
						"Row": "4",
						"Type": "RTID(tutorial@ZombieTypes)"
					}, {
						"Row": "4",
						"Type": "RTID(tutorial@ZombieTypes)"
					} ]
			}
		}, {
			"aliases": [ "Wave7" ],
			"objclass": "SpawnZombiesJitteredWaveActionProps",
			"objdata": {
				"Zombies": [ {
						"Row": "1",
						"Type": "RTID(tutorial@ZombieTypes)"
					}, {
						"Row": "1",
						"Type": "RTID(tutorial@ZombieTypes)"
					}, {
						"Row": "2",
						"Type": "RTID(tutorial@ZombieTypes)"
					}, {
						"Row": "3",
						"Type": "RTID(tutorial@ZombieTypes)"
					}, {
						"Row": "3",
						"Type": "RTID(tutorial@ZombieTypes)"
					}, {
						"Row": "5",
						"Type": "RTID(tutorial@ZombieTypes)"
					}, {
						"Row": "5",
						"Type": "RTID(tutorial@ZombieTypes)"
					} ]
			}
		}, {
			"aliases": [ "Wave8" ],
			"objclass": "SpawnZombiesJitteredWaveActionProps",
			"objdata": {
				"Zombies": [ {
						"Row": "1",
						"Type": "RTID(tutorial@ZombieTypes)"
					}, {
						"Row": "3",
						"Type": "RTID(tutorial@ZombieTypes)"
					}, {
						"Row": "4",
						"Type": "RTID(tutorial@ZombieTypes)"
					}, {
						"Row": "1",
						"Type": "RTID(tutorial@ZombieTypes)"
					}, {
						"Row": "2",
						"Type": "RTID(tutorial@ZombieTypes)"
					}, {
						"Row": "1",
						"Type": "RTID(tutorial@ZombieTypes)"
					}, {
						"Row": "3",
						"Type": "RTID(tutorial@ZombieTypes)"
					} ]
			}
		}, {
			"aliases": [ "Wave9" ],
			"objclass": "SpawnZombiesJitteredWaveActionProps",
			"objdata": {
				"Zombies": [ {
						"Row": "5",
						"Type": "RTID(tutorial@ZombieTypes)"
					}, {
						"Row": "3",
						"Type": "RTID(tutorial@ZombieTypes)"
					}, {
						"Row": "1",
						"Type": "RTID(tutorial@ZombieTypes)"
					}, {
						"Row": "5",
						"Type": "RTID(tutorial@ZombieTypes)"
					}, {
						"Row": "2",
						"Type": "RTID(tutorial@ZombieTypes)"
					}, {
						"Row": "4",
						"Type": "RTID(tutorial@ZombieTypes)"
					}, {
						"Row": "4",
						"Type": "RTID(tutorial@ZombieTypes)"
					} ]
			}
		}, {
			"aliases": [ "Wave10" ],
			"objclass": "SpawnZombiesJitteredWaveActionProps",
			"objdata": {
				"Zombies": [ {
						"Row": "4",
						"Type": "RTID(tutorial@ZombieTypes)"
					}, {
						"Row": "5",
						"Type": "RTID(tutorial@ZombieTypes)"
					}, {
						"Row": "1",
						"Type": "RTID(tutorial@ZombieTypes)"
					}, {
						"Row": "3",
						"Type": "RTID(tutorial@ZombieTypes)"
					}, {
						"Row": "4",
						"Type": "RTID(tutorial@ZombieTypes)"
					}, {
						"Row": "5",
						"Type": "RTID(tutorial@ZombieTypes)"
					}, {
						"Row": "2",
						"Type": "RTID(tutorial@ZombieTypes)"
					}, {
						"Row": "3",
						"Type": "RTID(tutorial@ZombieTypes)"
					}, {
						"Row": "2",
						"Type": "RTID(tutorial@ZombieTypes)"
					}, {
						"Row": "1",
						"Type": "RTID(tutorial@ZombieTypes)"
					} ]
			}
		} ],
	"version": 1
}