{
	"#comment": "Modern 22 v1",
	"objects": [ {
			"objclass": "LevelDefinition",
			"objdata": {
				"Description": "[PLAYERS_TRIP_TO_RIFT]",
				"Loot": "",
				"LevelNumber": "",
				"LevelPowerupSet": "LevelPowerupsBeghouled",
				"Modules": [ "RTID(DefaultSunDropper@LevelModules)", "RTID(BeghouledRiftIntro@LevelModules)", "RTID(ModernMowers@LevelModules)", "RTID(DefaultZombieWinCondition@LevelModules)", "RTID(RandomSpawner@CurrentLevel)", "RTID(BeghouledSeedBank@CurrentLevel)", "RTID(BeghouledProps@CurrentLevel)", "RTID(PerkActivator@CurrentLevel)", "RTID(LevelDifficultyScaling@CurrentLevel)" ],
				"MusicType": "MiniGame_B",
				"Name": "[RIFT_LEVEL_NAME]",
				"NormalPresentTable": "egypt_normal_01",
				"ShinyPresentTable": "egypt_shiny_01",
				"VictoryModule": "RTID(RiftOutro@LevelModules)",
				"StageModule": "RTID(ModernStage@LevelModules)",
				"LevelMutator": "RTID(LevelMutator@CurrentLevel)",
				"PerksDisabledInLevel": [ "bossbustercannon", "mineisyours", "sunbreak", "quickdelivery", "applyconditionplantfood", "moarscore" ],
				"PerksDisabledPerDifficulty": [ [], [], [] ]
			}
		}, {
			"aliases": [ "LevelDifficultyScaling" ],
			"objclass": "LevelDifficultyScalingModuleProperties",
			"objdata": {
				"DifficultyRulesType": "RiftDifficulty",
				"ZombieLevelSwaps": [ {
						"Level": 0,
						"Swaps": [ {
								"From": "RTID(roman@ZombieTypes)",
								"To": [ "RTID(roman@ZombieTypes)" ]
							} ]
					}, {
						"Level": 4,
						"Swaps": [ {
								"From": "RTID(roman@ZombieTypes)",
								"To": [ "RTID(roman@ZombieTypes)" ]
							} ]
					}, {
						"Level": 7,
						"Swaps": [ {
								"From": "RTID(roman@ZombieTypes)",
								"To": [ "RTID(roman_armor2@ZombieTypes)" ]
							} ]
					} ]
			}
		}, {
			"aliases": [ "PerkActivator" ],
			"objclass": "PerkHandlerModuleProperties",
			"objdata": {}
		}, {
			"aliases": [ "LevelMutator" ],
			"objclass": "LevelMutatorModuleProperties",
			"objdata": {
				"MutatorTables": [ "RTID(MutatorPropsBeghouled@LevelMutatorTables)", "RTID(LocalChallengeMutator@CurrentLevel)", "RTID(LocalMainChallengeMutator@CurrentLevel)" ]
			}
		}, {
			"aliases": [ "LocalMainChallengeMutator" ],
			"objclass": "LevelMutatorTableProps",
			"objdata": {
				"Tables": [ {
						"Level": 0,
						"Modules": [ "RTID(BeatTheLevel@CurrentLevel)" ],
						"ModuleType": "mainchallenge"
					}, {
						"Level": 1,
						"Modules": [ "RTID(BeatTheLevel@CurrentLevel)" ],
						"ModuleType": "mainchallenge"
					}, {
						"Level": 2,
						"Modules": [ "RTID(BeatTheLevel@CurrentLevel)" ],
						"ModuleType": "mainchallenge"
					} ]
			}
		}, {
			"aliases": [ "BeatTheLevel" ],
			"objclass": "StarChallengeBeatTheLevelProps",
			"objdata": {
				"Description": "[STARCHALLENGE_PRESET_PLANTS]",
				"DescriptiveName": "[STARCHALLENGE_PRESET_PLANTS_NAME]"
			}
		}, {
			"aliases": [ "LocalChallengeMutator" ],
			"objclass": "LevelMutatorTableProps",
			"objdata": {
				"Tables": [ {
						"Level": 0,
						"Modules": [ "RTID(ApplyZombieConditions1@CurrentLevel)" ],
						"ModuleType": "bonuschallenge"
					}, {
						"Level": 1,
						"Modules": [ "RTID(ApplyZombieConditions2@CurrentLevel)" ],
						"ModuleType": "bonuschallenge"
					}, {
						"Level": 2,
						"Modules": [ "RTID(ApplyZombieConditions3@CurrentLevel)" ],
						"ModuleType": "bonuschallenge"
					} ]
			}
		}, {
			"aliases": [ "ApplyZombieConditions1" ],
			"objclass": "ApplyZombieConditionsChallengeProps",
			"objdata": {
				"ConditionToInflict": [ "butter" ],
				"NumZombieConditionsToApply": 150
			}
		}, {
			"aliases": [ "ApplyZombieConditions2" ],
			"objclass": "ApplyZombieConditionsChallengeProps",
			"objdata": {
				"ConditionToInflict": [ "butter" ],
				"NumZombieConditionsToApply": 175
			}
		}, {
			"aliases": [ "ApplyZombieConditions3" ],
			"objclass": "ApplyZombieConditionsChallengeProps",
			"objdata": {
				"ConditionToInflict": [ "butter" ],
				"NumZombieConditionsToApply": 200
			}
		}, {
			"objclass": "BeghouledSeedBankProperties",
			"aliases": [ "BeghouledSeedBank" ],
			"objdata": {
				"PresetPlantList": [ {
						"PlantType": "applemortar",
						"Level": -1
					}, {
						"PlantType": "homingthistle",
						"Level": -1
					}, {
						"PlantType": "holonut",
						"Level": -1
					} ],
				"BeghouledUpgradeList": [ "applemortar", "explodeonut", "dandelion", "dartichoke" ],
				"SelectionMethod": "beghouled"
			}
		}, {
			"objclass": "BeghouledZombieSpawnerProperties",
			"aliases": [ "RandomSpawner" ],
			"objdata": {
				"MatchCountsToStageAdvance": [ {
						"MatchCount": 25,
						"StageNumber": 1
					}, {
						"MatchCount": 50,
						"StageNumber": 2
					} ],
				"Stages": [ {
						"#comment": "Stage 0",
						"Types": [ {
								"ZombieType": "cowboy_armor2"
							}, {
								"ZombieType": "cowboy_armor1"
							}, {
								"ZombieType": "poncho"
							} ],
						"SpawnDelay": 1.0
					}, {
						"#comment": "Stage 1",
						"Types": [ {
								"ZombieType": "cowboy_armor2"
							}, {
								"ZombieType": "cowboy_armor1"
							}, {
								"ZombieType": "poncho"
							}, {
								"ZombieType": "piano"
							} ],
						"SpawnDelay": 0.75
					}, {
						"#comment": "Stage 2",
						"Types": [ {
								"ZombieType": "roman_healer"
							}, {
								"ZombieType": "cowboy_armor4"
							}, {
								"ZombieType": "poncho"
							}, {
								"ZombieType": "piano"
							} ],
						"SpawnDelay": 0.5
					} ]
			}
		}, {
			"objclass": "BeghouledPresetProperties",
			"aliases": [ "BeghouledProps" ],
			"objdata": {
				"MatchesToWin": 100,
				"InitialPlants": [ "akee", "kernelpult", "cactus", "wallnut" ],
				"UpgradeMap": [ {
						"BasePlant": "akee",
						"UpgradedPlant": "applemortar"
					}, {
						"BasePlant": "cactus",
						"UpgradedPlant": "homingthistle"
					}, {
						"BasePlant": "homingthistle",
						"UpgradedPlant": "dartichoke"
					}, {
						"BasePlant": "wallnut",
						"UpgradedPlant": "holonut"
					}, {
						"BasePlant": "holonut",
						"UpgradedPlant": "explodeonut"
					} ]
			}
		} ],
	"version": 1
}