{
	"#comment": "lod159 v1",
	"objects": [ {
			"objclass": "LevelDefinition",
			"objdata": {
				"Description": "[PLAYERS_TRIP_TO_RIFT]",
				"LevelNumber": "",
				"DisablePlantBoosts": false,
				"Loot": "",
				"Modules": [ "RTID(DefaultSunDropper@LevelModules)", "RTID(StandardRiftIntro@LevelModules)", "RTID(ZombiesDeadWinCon@LevelModules)", "RTID(FutureMowers@LevelModules)", "RTID(SeedBank@CurrentLevel)", "RTID(DefaultZombieWinCondition@LevelModules)", "RTID(NewWaves@CurrentLevel)", "RTID(PerkActivator@CurrentLevel)", "RTID(LevelDifficultyScaling@CurrentLevel)" ],
				"MusicType": "MiniGame_A",
				"Name": "[RIFT_LEVEL_NAME]",
				"NormalPresentTable": "egypt_normal_01",
				"ShinyPresentTable": "egypt_shiny_01",
				"VictoryModule": "RTID(RiftOutro@LevelModules)",
				"StageModule": "RTID(RiftStage@LevelModules)",
				"LevelMutator": "RTID(LevelMutator@CurrentLevel)",
				"PerksDisabledInLevel": [ "moarscore", "bossbustercannon", "quickdelivery" ],
				"PerksDisabledPerDifficulty": [ [], [], [] ]
			}
		}, {
			"aliases": [ "PerkActivator" ],
			"objclass": "PerkHandlerModuleProperties",
			"objdata": {}
		}, {
			"aliases": [ "LevelMutator" ],
			"objclass": "LevelMutatorModuleProperties",
			"objdata": {
				"MutatorTables": [ "RTID(MutatorPropsRiftNormal@LevelMutatorTables)", "RTID(LocalChallengeMutator@CurrentLevel)", "RTID(LocalMainChallengeMutator@CurrentLevel)" ]
			}
		}, {
			"aliases": [ "LocalMainChallengeMutator" ],
			"objclass": "LevelMutatorTableProps",
			"objdata": {
				"Tables": [ {
						"Level": 0,
						"Modules": [ "RTID(BeatTheLevel@CurrentLevel)" ],
						"ModuleType": "mainchallenge"
					}, {
						"Level": 1,
						"Modules": [ "RTID(BeatTheLevel@CurrentLevel)" ],
						"ModuleType": "mainchallenge"
					}, {
						"Level": 2,
						"Modules": [ "RTID(BeatTheLevel@CurrentLevel)" ],
						"ModuleType": "mainchallenge"
					} ]
			}
		}, {
			"aliases": [ "BeatTheLevel" ],
			"objclass": "StarChallengeBeatTheLevelProps",
			"objdata": {
				"Description": "[STARCHALLENGE_RIFT_NORMAL]",
				"DescriptiveName": "[STARCHALLENGE_RIFT_NORMAL_NAME]"
			}
		}, {
			"aliases": [ "LocalChallengeMutator" ],
			"objclass": "LevelMutatorTableProps",
			"objdata": {
				"Tables": [ {
						"Level": 0,
						"Modules": [ "RTID(ProtectThePlant1@CurrentLevel)" ],
						"ModuleType": "bonuschallenge"
					}, {
						"Level": 1,
						"Modules": [ "RTID(SunUsed2@CurrentLevel)", "RTID(ProtectThePlant2@CurrentLevel)" ],
						"ModuleType": "bonuschallenge"
					}, {
						"Level": 2,
						"Modules": [ "RTID(SunUsed3@CurrentLevel)", "RTID(ProtectThePlant3@CurrentLevel)" ],
						"ModuleType": "bonuschallenge"
					} ]
			}
		}, {
			"aliases": [ "ProtectThePlant1" ],
			"objclass": "ProtectThePlantChallengeProperties",
			"objdata": {
				"MustProtectCount": 2,
				"Plants": [ {
						"GridX": 0,
						"GridY": 0,
						"PlantType": "strawburst"
					}, {
						"GridX": 0,
						"GridY": 4,
						"PlantType": "strawburst"
					} ]
			}
		}, {
			"aliases": [ "ProtectThePlant2" ],
			"objclass": "ProtectThePlantChallengeProperties",
			"objdata": {
				"MustProtectCount": 2,
				"Plants": [ {
						"GridX": 2,
						"GridY": 1,
						"PlantType": "strawburst"
					}, {
						"GridX": 3,
						"GridY": 3,
						"PlantType": "strawburst"
					} ]
			}
		}, {
			"aliases": [ "ProtectThePlant3" ],
			"objclass": "ProtectThePlantChallengeProperties",
			"objdata": {
				"MustProtectCount": 2,
				"Plants": [ {
						"GridX": 3,
						"GridY": 2,
						"PlantType": "strawburst"
					}, {
						"GridX": 4,
						"GridY": 2,
						"PlantType": "strawburst"
					} ]
			}
		}, {
			"aliases": [ "SunUsed2" ],
			"objclass": "StarChallengeSunUsedProps",
			"objdata": {
				"MaximumSun": 4000
			}
		}, {
			"aliases": [ "SunUsed3" ],
			"objclass": "StarChallengeSunUsedProps",
			"objdata": {
				"MaximumSun": 3000
			}
		}, {
			"aliases": [ "SeedBank" ],
			"objclass": "SeedBankProperties",
			"objdata": {
				"ExcludeListSunProducers": false,
				"PlantExcludeList": [],
				"SelectionMethod": "chooser"
			}
		}, {
			"aliases": [ "LevelDifficultyScaling" ],
			"objclass": "LevelDifficultyScalingModuleProperties",
			"objdata": {
				"DifficultyRulesType": "RiftDifficulty",
				"ZombieLevelSwaps": [ {
						"Level": 0,
						"Swaps": [ {
								"From": "RTID(mummy@ZombieTypes)",
								"To": [ "RTID(mummy@ZombieTypes)" ]
							}, {
								"From": "RTID(mummy_armor1@ZombieTypes)",
								"To": [ "RTID(mummy@ZombieTypes)" ]
							}, {
								"From": "RTID(mummy_armor2@ZombieTypes)",
								"To": [ "RTID(mummy_armor1@ZombieTypes)" ]
							} ]
					}, {
						"Level": 4,
						"Swaps": [ {
								"From": "RTID(mummy@ZombieTypes)",
								"To": [ "RTID(mummy@ZombieTypes)" ]
							}, {
								"From": "RTID(mummy_armor1@ZombieTypes)",
								"To": [ "RTID(mummy_armor1@ZombieTypes)" ]
							}, {
								"From": "RTID(mummy_armor2@ZombieTypes)",
								"To": [ "RTID(mummy_armor2@ZombieTypes)" ]
							} ]
					}, {
						"Level": 7,
						"Swaps": [ {
								"From": "RTID(mummy@ZombieTypes)",
								"To": [ "RTID(mummy_armor1@ZombieTypes)" ]
							}, {
								"From": "RTID(mummy_armor1@ZombieTypes)",
								"To": [ "RTID(mummy_armor2@ZombieTypes)" ]
							}, {
								"From": "RTID(mummy_armor2@ZombieTypes)",
								"To": [ "RTID(lostcity_excavator@ZombieTypes)" ]
							} ]
					} ]
			}
		}, {
			"aliases": [ "NewWaves" ],
			"objclass": "WaveManagerModuleProperties",
			"objdata": {
				"DynamicZombies": [ {
						"PointIncrementPerWave": 0,
						"StartingPoints": 0,
						"StartingWave": 0,
						"ZombiePool": []
					}, {
						"PointIncrementPerWave": 0,
						"StartingPoints": 0,
						"StartingWave": 0,
						"ZombiePool": []
					}, {
						"PointIncrementPerWave": 0,
						"StartingPoints": 0,
						"StartingWave": 0,
						"ZombiePool": []
					}, {
						"MaxPoints": 1000,
						"PointIncrementPerWave": 100,
						"StartingPoints": 100,
						"StartingWave": 0,
						"ZombiePool": [ "RTID(mummy_armor2@ZombieTypes)", "RTID(mummy@ZombieTypes)", "RTID(mummy_armor1@ZombieTypes)" ]
					}, {
						"PointIncrementPerWave": 0,
						"StartingPoints": 0,
						"StartingWave": 0,
						"ZombiePool": []
					}, {
						"PointIncrementPerWave": 0,
						"StartingPoints": 0,
						"StartingWave": 0,
						"ZombiePool": []
					}, {
						"PointIncrementPerWave": 0,
						"StartingPoints": 0,
						"StartingWave": 0,
						"ZombiePool": []
					} ],
				"WaveManagerProps": "RTID(WaveManagerProps@CurrentLevel)"
			}
		}, {
			"aliases": [ "WaveManagerProps" ],
			"objclass": "WaveManagerProperties",
			"objdata": {
				"FlagWaveInterval": 4,
				"WaveCount": 12,
				"WaveSpendingPointIncrement": 100,
				"WaveSpendingPoints": 150,
				"Waves": [ [ "RTID(Wave1@CurrentLevel)", "RTID(Wave1ModConveyor0@CurrentLevel)" ], [ "RTID(Wave2@CurrentLevel)" ], [ "RTID(Wave3@CurrentLevel)", "RTID(Wave3ModConveyor0@CurrentLevel)" ], [ "RTID(Wave4@CurrentLevel)", "RTID(Wave4ModConveyor0@CurrentLevel)" ], [ "RTID(Wave5@CurrentLevel)" ], [ "RTID(Wave6@CurrentLevel)", "RTID(Wave6ParachuteRainEvent0@CurrentLevel)", "RTID(Wave6ModConveyor0@CurrentLevel)" ], [ "RTID(Wave7@CurrentLevel)" ], [ "RTID(Wave8@CurrentLevel)" ], [ "RTID(Wave9@CurrentLevel)" ], [ "RTID(Wave10@CurrentLevel)", "RTID(Wave10SpiderRainEvent0@CurrentLevel)" ], [ "RTID(Wave11@CurrentLevel)" ], [ "RTID(Wave12@CurrentLevel)", "RTID(Wave12ModConveyor0@CurrentLevel)" ] ]
			}
		}, {
			"aliases": [ "Wave1" ],
			"objclass": "SpawnZombiesJitteredWaveActionProps",
			"objdata": {
				"Zombies": [ {
						"Row": "2",
						"Type": "RTID(mummy@ZombieTypes)"
					}, {
						"Row": "1",
						"Type": "RTID(mummy@ZombieTypes)"
					} ]
			}
		}, {
			"aliases": [ "Wave2" ],
			"objclass": "SpawnZombiesJitteredWaveActionProps",
			"objdata": {
				"Zombies": [ {
						"Row": "5",
						"Type": "RTID(mummy_armor1@ZombieTypes)"
					}, {
						"Row": "4",
						"Type": "RTID(mummy_armor1@ZombieTypes)"
					} ]
			}
		}, {
			"aliases": [ "Wave3" ],
			"objclass": "SpawnZombiesJitteredWaveActionProps",
			"objdata": {
				"Zombies": [ {
						"Row": "4",
						"Type": "RTID(mummy_armor1@ZombieTypes)"
					}, {
						"Row": "3",
						"Type": "RTID(mummy_armor1@ZombieTypes)"
					}, {
						"Row": "2",
						"Type": "RTID(lostcity_excavator@ZombieTypes)"
					} ]
			}
		}, {
			"aliases": [ "Wave4" ],
			"objclass": "SpawnZombiesJitteredWaveActionProps",
			"objdata": {
				"Zombies": [ {
						"Row": "1",
						"Type": "RTID(dark_juggler@ZombieTypes)"
					}, {
						"Row": "1",
						"Type": "RTID(dark_juggler@ZombieTypes)"
					}, {
						"Row": "2",
						"Type": "RTID(dark_juggler@ZombieTypes)"
					}, {
						"Row": "2",
						"Type": "RTID(camel_manyhump@ZombieTypes)"
					}, {
						"Row": "3",
						"Type": "RTID(dark_juggler@ZombieTypes)"
					}, {
						"Row": "3",
						"Type": "RTID(camel_manyhump@ZombieTypes)"
					}, {
						"Row": "4",
						"Type": "RTID(dark_juggler@ZombieTypes)"
					}, {
						"Row": "4",
						"Type": "RTID(camel_manyhump@ZombieTypes)"
					}, {
						"Row": "5",
						"Type": "RTID(dark_juggler@ZombieTypes)"
					}, {
						"Row": "5",
						"Type": "RTID(dark_juggler@ZombieTypes)"
					} ]
			}
		}, {
			"aliases": [ "Wave5" ],
			"objclass": "SpawnZombiesJitteredWaveActionProps",
			"objdata": {
				"Zombies": [ {
						"Row": "5",
						"Type": "RTID(pharaoh@ZombieTypes)"
					}, {
						"Row": "1",
						"Type": "RTID(pharaoh@ZombieTypes)"
					} ]
			}
		}, {
			"aliases": [ "Wave6" ],
			"objclass": "SpawnZombiesJitteredWaveActionProps",
			"objdata": {}
		}, {
			"aliases": [ "Wave7" ],
			"objclass": "SpawnZombiesJitteredWaveActionProps",
			"objdata": {
				"Zombies": [ {
						"Row": "5",
						"Type": "RTID(lostcity_excavator@ZombieTypes)"
					}, {
						"Row": "4",
						"Type": "RTID(football_mech@ZombieTypes)"
					}, {
						"Row": "3",
						"Type": "RTID(pharaoh@ZombieTypes)"
					}, {
						"Row": "2",
						"Type": "RTID(football_mech@ZombieTypes)"
					}, {
						"Row": "1",
						"Type": "RTID(lostcity_excavator@ZombieTypes)"
					} ]
			}
		}, {
			"aliases": [ "Wave8" ],
			"objclass": "SpawnZombiesJitteredWaveActionProps",
			"objdata": {
				"Zombies": [ {
						"Row": "4",
						"Type": "RTID(lostcity_excavator@ZombieTypes)"
					}, {
						"Row": "2",
						"Type": "RTID(lostcity_excavator@ZombieTypes)"
					} ]
			}
		}, {
			"aliases": [ "Wave9" ],
			"objclass": "SpawnZombiesJitteredWaveActionProps",
			"objdata": {
				"Zombies": [ {
						"Row": "5",
						"Type": "RTID(pharaoh@ZombieTypes)"
					}, {
						"Row": "4",
						"Type": "RTID(pharaoh@ZombieTypes)"
					}, {
						"Row": "2",
						"Type": "RTID(pharaoh@ZombieTypes)"
					}, {
						"Row": "1",
						"Type": "RTID(pharaoh@ZombieTypes)"
					} ]
			}
		}, {
			"aliases": [ "Wave10" ],
			"objclass": "SpawnZombiesJitteredWaveActionProps",
			"objdata": {}
		}, {
			"aliases": [ "Wave11" ],
			"objclass": "SpawnZombiesJitteredWaveActionProps",
			"objdata": {
				"Zombies": [ {
						"Row": "3",
						"Type": "RTID(disco_mech@ZombieTypes)"
					} ]
			}
		}, {
			"aliases": [ "Wave12" ],
			"objclass": "SpawnZombiesJitteredWaveActionProps",
			"objdata": {
				"Zombies": [ {
						"Row": "5",
						"Type": "RTID(pharaoh@ZombieTypes)"
					}, {
						"Row": "4",
						"Type": "RTID(football_mech@ZombieTypes)"
					}, {
						"Row": "2",
						"Type": "RTID(football_mech@ZombieTypes)"
					}, {
						"Row": "1",
						"Type": "RTID(pharaoh@ZombieTypes)"
					} ]
			}
		}, {
			"aliases": [ "Wave6ModConveyor0" ],
			"objclass": "ModifyConveyorWaveActionProps",
			"objdata": {
				"Add": [ {
						"MaxCount": 1,
						"MaxWeightFactor": 0.1,
						"MinCount": 1,
						"MinWeightFactor": 2,
						"Type": "RTID(empea@PlantTypes)",
						"Weight": 200
					} ],
				"Remove": []
			}
		}, {
			"aliases": [ "Wave10SpiderRainEvent0" ],
			"objclass": "SpiderRainZombieSpawnerProps",
			"objdata": {
				"ColumnEnd": "8",
				"ColumnStart": 5,
				"GroupSize": "2",
				"SpiderCount": "4",
				"SpiderZombieName": "future_imp",
				"TimeBeforeFullSpawn": "1",
				"TimeBetweenGroups": "0.2",
				"WaveStartMessage": "[WARNING_HOTDOGS]",
				"ZombieFallTime": "1.5"
			}
		}, {
			"aliases": [ "Wave6ParachuteRainEvent0" ],
			"objclass": "ParachuteRainZombieSpawnerProps",
			"objdata": {
				"ColumnEnd": "8",
				"ColumnStart": "4",
				"GroupSize": "2",
				"SpiderCount": "4",
				"SpiderZombieName": "lostcity_lostpilot",
				"TimeBeforeFullSpawn": "1",
				"TimeBetweenGroups": "0.2",
				"WaveStartMessage": "[WARNING_PARACHUTERAIN]",
				"ZombieFallTime": "1.5"
			}
		}, {
			"aliases": [ "Wave1ModConveyor0" ],
			"objclass": "ModifyConveyorWaveActionProps",
			"objdata": {
				"Add": [ {
						"MaxCount": 5,
						"MaxWeightFactor": 0.1,
						"MinWeightFactor": 0.1,
						"Type": "RTID(wallnut@PlantTypes)",
						"Weight": 100
					} ],
				"Remove": []
			}
		}, {
			"aliases": [ "Wave3ModConveyor0" ],
			"objclass": "ModifyConveyorWaveActionProps",
			"objdata": {
				"Add": [ {
						"MaxCount": 1,
						"MaxWeightFactor": 0.5,
						"MinWeightFactor": 0.1,
						"Type": "RTID(stallia@PlantTypes)",
						"Weight": 50
					} ],
				"Remove": []
			}
		}, {
			"aliases": [ "Wave4ModConveyor0" ],
			"objclass": "ModifyConveyorWaveActionProps",
			"objdata": {
				"Add": [ {
						"MaxCount": 1,
						"MaxWeightFactor": 0.5,
						"MinWeightFactor": 0.1,
						"Type": "RTID(iceburg@PlantTypes)",
						"Weight": 50
					} ],
				"Remove": []
			}
		}, {
			"aliases": [ "Wave12ModConveyor0" ],
			"objclass": "ModifyConveyorWaveActionProps",
			"objdata": {
				"Add": [],
				"Remove": [ {
						"Type": "RTID(stallia@PlantTypes)"
					}, {
						"Type": "RTID(wallnut@PlantTypes)"
					} ]
			}
		} ],
	"version": 1
}