{
	"#comment": "Rift Template",
	"objects": [ {
			"objclass": "LevelDefinition",
			"objdata": {
				"Description": "[PLAYERS_TRIP_TO_RIFT]",
				"LevelNumber": "",
				"DisablePlantBoosts": false,
				"Loot": "",
				"Modules": [ "RTID(DefaultSunDropper@LevelModules)", "RTID(StandardRiftIntro@LevelModules)", "RTID(ZombiesDeadWinCon@LevelModules)", "RTID(FutureMowers@LevelModules)", "RTID(SeedBank@CurrentLevel)", "RTID(DefaultZombieWinCondition@LevelModules)", "RTID(NewWaves@CurrentLevel)", "RTID(PerkActivator@CurrentLevel)", "RTID(LevelDifficultyScaling@CurrentLevel)" ],
				"MusicType": "MiniGame_A",
				"Name": "[RIFT_LEVEL_NAME]",
				"NormalPresentTable": "egypt_normal_01",
				"ShinyPresentTable": "egypt_shiny_01",
				"VictoryModule": "RTID(RiftOutro@LevelModules)",
				"StageModule": "RTID(RiftStage@LevelModules)",
				"LevelMutator": "RTID(LevelMutator@CurrentLevel)",
				"PerksDisabledInLevel": [ "bossbustercannon" ]
			}
		}, {
			"aliases": [ "PerkActivator" ],
			"objclass": "PerkHandlerModuleProperties",
			"objdata": {}
		}, {
			"aliases": [ "LevelMutator" ],
			"objclass": "LevelMutatorModuleProperties",
			"objdata": {
				"MutatorTables": [ "RTID(MutatorPropsRiftNormal@LevelMutatorTables)", "RTID(LocalChallengeMutator@CurrentLevel)", "RTID(LocalMainChallengeMutator@CurrentLevel)" ]
			}
		}, {
			"aliases": [ "LocalMainChallengeMutator" ],
			"objclass": "LevelMutatorTableProps",
			"objdata": {
				"Tables": [ {
						"Level": 0,
						"Modules": [ "RTID(BeatTheLevel@CurrentLevel)" ],
						"ModuleType": "mainchallenge"
					}, {
						"Level": 1,
						"Modules": [ "RTID(BeatTheLevel@CurrentLevel)" ],
						"ModuleType": "mainchallenge"
					}, {
						"Level": 2,
						"Modules": [ "RTID(BeatTheLevel@CurrentLevel)" ],
						"ModuleType": "mainchallenge"
					} ]
			}
		}, {
			"aliases": [ "BeatTheLevel" ],
			"objclass": "StarChallengeBeatTheLevelProps",
			"objdata": {
				"Description": "[STARCHALLENGE_RIFT_NORMAL]",
				"DescriptiveName": "[STARCHALLENGE_RIFT_NORMAL_NAME]"
			}
		}, {
			"aliases": [ "LocalChallengeMutator" ],
			"objclass": "LevelMutatorTableProps",
			"objdata": {
				"Tables": [ {
						"Level": 0,
						"Modules": [ "RTID(KillZombies1@CurrentLevel)", "RTID(SimultaneousPlants1@CurrentLevel)" ],
						"ModuleType": "bonuschallenge"
					}, {
						"Level": 1,
						"Modules": [ "RTID(KillZombies2@CurrentLevel)", "RTID(SimultaneousPlants2@CurrentLevel)" ],
						"ModuleType": "bonuschallenge"
					}, {
						"Level": 2,
						"Modules": [ "RTID(KillZombies3@CurrentLevel)", "RTID(SimultaneousPlants3@CurrentLevel)" ],
						"ModuleType": "bonuschallenge"
					} ]
			}
		}, {
			"aliases": [ "SimultaneousPlants1" ],
			"objclass": "StarChallengeSimultaneousPlantsProps",
			"objdata": {
				"MaximumPlants": 20
			}
		}, {
			"aliases": [ "SimultaneousPlants2" ],
			"objclass": "StarChallengeSimultaneousPlantsProps",
			"objdata": {
				"MaximumPlants": 15
			}
		}, {
			"aliases": [ "SimultaneousPlants3" ],
			"objclass": "StarChallengeSimultaneousPlantsProps",
			"objdata": {
				"MaximumPlants": 10
			}
		}, {
			"aliases": [ "KillZombies1" ],
			"objclass": "StarChallengeKillZombiesInTimeProps",
			"objdata": {
				"Time": 30,
				"ZombiesToKill": 10
			}
		}, {
			"aliases": [ "KillZombies2" ],
			"objclass": "StarChallengeKillZombiesInTimeProps",
			"objdata": {
				"Time": 25,
				"ZombiesToKill": 20
			}
		}, {
			"aliases": [ "KillZombies3" ],
			"objclass": "StarChallengeKillZombiesInTimeProps",
			"objdata": {
				"Time": 20,
				"ZombiesToKill": 30
			}
		}, {
			"aliases": [ "SeedBank" ],
			"objclass": "SeedBankProperties",
			"objdata": {
				"ExcludeListSunProducers": false,
				"PlantExcludeList": [],
				"SelectionMethod": "chooser"
			}
		}, {
			"aliases": [ "LevelDifficultyScaling" ],
			"objclass": "LevelDifficultyScalingModuleProperties",
			"objdata": {
				"DifficultyRulesType": "RiftDifficulty",
				"ZombieLevelSwaps": [ {
						"Level": 0,
						"Swaps": [ {
								"From": "RTID(tutorial@ZombieTypes)",
								"To": [ "RTID(tutorial_armor1@ZombieTypes)" ]
							} ]
					}, {
						"Level": 4,
						"Swaps": [ {
								"From": "RTID(tutorial@ZombieTypes)",
								"To": [ "RTID(tutorial_armor1@ZombieTypes)" ]
							} ]
					}, {
						"Level": 7,
						"Swaps": [ {
								"From": "RTID(tutorial@ZombieTypes)",
								"To": [ "RTID(tutorial_armor1@ZombieTypes)" ]
							} ]
					} ]
			}
		}, {
			"aliases": [ "NewWaves" ],
			"objclass": "WaveManagerModuleProperties",
			"objdata": {
				"DynamicZombies": [ {
						"PointIncrementPerWave": 0,
						"StartingPoints": 0,
						"StartingWave": 0,
						"ZombiePool": []
					}, {
						"PointIncrementPerWave": 0,
						"StartingPoints": 0,
						"StartingWave": 0,
						"ZombiePool": []
					}, {
						"PointIncrementPerWave": 0,
						"StartingPoints": 0,
						"StartingWave": 0,
						"ZombiePool": []
					}, {
						"PointIncrementPerWave": 20,
						"StartingPoints": 100,
						"StartingWave": 5,
						"ZombiePool": [ "RTID(tutorial@ZombieTypes)" ]
					}, {
						"PointIncrementPerWave": 0,
						"StartingPoints": 0,
						"StartingWave": 0,
						"ZombiePool": []
					}, {
						"PointIncrementPerWave": 0,
						"StartingPoints": 0,
						"StartingWave": 0,
						"ZombiePool": []
					}, {
						"PointIncrementPerWave": 0,
						"StartingPoints": 0,
						"StartingWave": 0,
						"ZombiePool": []
					} ],
				"WaveManagerProps": "RTID(WaveManagerProps@CurrentLevel)"
			}
		}, {
			"aliases": [ "WaveManagerProps" ],
			"objclass": "WaveManagerProperties",
			"objdata": {
				"FlagWaveInterval": 4,
				"WaveCount": 12,
				"WaveSpendingPointIncrement": 100,
				"WaveSpendingPoints": 150,
				"Waves": [ [ "RTID(Wave1@CurrentLevel)" ], [ "RTID(Wave2@CurrentLevel)" ], [ "RTID(Wave3@CurrentLevel)" ], [ "RTID(Wave4@CurrentLevel)" ], [ "RTID(Wave5@CurrentLevel)" ], [ "RTID(Wave6@CurrentLevel)" ], [ "RTID(Wave7@CurrentLevel)" ], [ "RTID(Wave8@CurrentLevel)" ], [ "RTID(Wave9@CurrentLevel)" ], [ "RTID(Wave10@CurrentLevel)" ], [ "RTID(Wave11@CurrentLevel)" ], [ "RTID(Wave12@CurrentLevel)" ] ],
				"WavesAlwaysRandomized": true
			}
		}, {
			"aliases": [ "Wave1" ],
			"objclass": "SpawnZombiesJitteredWaveActionProps",
			"objdata": {
				"Zombies": []
			}
		}, {
			"aliases": [ "Wave2" ],
			"objclass": "SpawnZombiesJitteredWaveActionProps",
			"objdata": {
				"Zombies": []
			}
		}, {
			"aliases": [ "Wave3" ],
			"objclass": "SpawnZombiesJitteredWaveActionProps",
			"objdata": {
				"Zombies": []
			}
		}, {
			"aliases": [ "Wave4" ],
			"objclass": "SpawnZombiesJitteredWaveActionProps",
			"objdata": {
				"Zombies": []
			}
		}, {
			"aliases": [ "Wave5" ],
			"objclass": "SpawnZombiesJitteredWaveActionProps",
			"objdata": {
				"Zombies": []
			}
		}, {
			"aliases": [ "Wave6" ],
			"objclass": "SpawnZombiesJitteredWaveActionProps",
			"objdata": {
				"Zombies": []
			}
		}, {
			"aliases": [ "Wave7" ],
			"objclass": "SpawnZombiesJitteredWaveActionProps",
			"objdata": {
				"Zombies": []
			}
		}, {
			"aliases": [ "Wave8" ],
			"objclass": "SpawnZombiesJitteredWaveActionProps",
			"objdata": {
				"Zombies": []
			}
		}, {
			"aliases": [ "Wave9" ],
			"objclass": "SpawnZombiesJitteredWaveActionProps",
			"objdata": {
				"Zombies": []
			}
		}, {
			"aliases": [ "Wave10" ],
			"objclass": "SpawnZombiesJitteredWaveActionProps",
			"objdata": {
				"Zombies": []
			}
		}, {
			"aliases": [ "Wave11" ],
			"objclass": "SpawnZombiesJitteredWaveActionProps",
			"objdata": {
				"Zombies": []
			}
		}, {
			"aliases": [ "Wave12" ],
			"objclass": "SpawnZombiesJitteredWaveActionProps",
			"objdata": {
				"Zombies": []
			}
		} ],
	"version": 1
}