{
	"#comment": "Cowboy18 v1",
	"objects": [ {
			"objclass": "LevelDefinition",
			"objdata": {
				"Description": "[PLAYERS_TRIP_TO_RIFT]",
				"LevelNumber": "",
				"DisablePlantBoosts": false,
				"Loot": "",
				"Modules": [ "RTID(ZombiesDeadWinCon@LevelModules)", "RTID(WestMowers@LevelModules)", "RTID(SeedBank@CurrentLevel)", "RTID(DefaultZombieWinCondition@LevelModules)", "RTID(NewWaves@CurrentLevel)", "RTID(Rails@CurrentLevel)", "RTID(LastStand@CurrentLevel)", "RTID(PerkActivator@CurrentLevel)", "RTID(LevelDifficultyScaling@CurrentLevel)" ],
				"MusicType": "MiniGame_A",
				"Name": "[RIFT_LEVEL_NAME]",
				"NormalPresentTable": "egypt_normal_01",
				"ShinyPresentTable": "egypt_shiny_01",
				"VictoryModule": "RTID(RiftOutro@LevelModules)",
				"StageModule": "RTID(WestStage@LevelModules)",
				"LevelMutator": "RTID(LevelMutator@CurrentLevel)",
				"PerksDisabledInLevel": [ "moarscore", "bossbustercannon" ],
				"PerksDisabledPerDifficulty": [ [], [], [] ]
			}
		}, {
			"aliases": [ "Rails" ],
			"objclass": "RailcartProperties",
			"objdata": {
				"RailcartType": "railcart_cowboy",
				"Railcarts": [ {
						"Column": 0,
						"Row": 3
					}, {
						"Column": 1,
						"Row": 0
					}, {
						"Column": 2,
						"Row": 2
					}, {
						"Column": 3,
						"Row": 0
					} ],
				"Rails": [ {
						"Column": 0,
						"RowEnd": 4,
						"RowStart": 3
					}, {
						"Column": 1,
						"RowEnd": 2,
						"RowStart": 0
					}, {
						"Column": 2,
						"RowEnd": 4,
						"RowStart": 2
					}, {
						"Column": 3,
						"RowEnd": 1,
						"RowStart": 0
					} ]
			}
		}, {
			"aliases": [ "LastStand" ],
			"objclass": "LastStandMinigameProperties",
			"objdata": {
				"StartingPlantfood": 0,
				"StartingSun": 1800,
				"PreSeedchooserFlow": "rift"
			}
		}, {
			"aliases": [ "PerkActivator" ],
			"objclass": "PerkHandlerModuleProperties",
			"objdata": {}
		}, {
			"aliases": [ "LevelMutator" ],
			"objclass": "LevelMutatorModuleProperties",
			"objdata": {
				"MutatorTables": [ "RTID(MutatorPropsRiftLastStand@LevelMutatorTables)", "RTID(LocalChallengeMutator@CurrentLevel)", "RTID(LocalMainChallengeMutator@CurrentLevel)" ]
			}
		}, {
			"aliases": [ "LocalMainChallengeMutator" ],
			"objclass": "LevelMutatorTableProps",
			"objdata": {
				"Tables": [ {
						"Level": 0,
						"Modules": [ "RTID(BeatTheLevel@CurrentLevel)" ],
						"ModuleType": "mainchallenge"
					}, {
						"Level": 1,
						"Modules": [ "RTID(BeatTheLevel@CurrentLevel)" ],
						"ModuleType": "mainchallenge"
					}, {
						"Level": 2,
						"Modules": [ "RTID(BeatTheLevel@CurrentLevel)" ],
						"ModuleType": "mainchallenge"
					} ]
			}
		}, {
			"aliases": [ "BeatTheLevel" ],
			"objclass": "StarChallengeBeatTheLevelProps",
			"objdata": {
				"Description": "[STARCHALLENGE_RIFT_LASTSTAND]",
				"DescriptiveName": "[STARCHALLENGE_RIFT_LASTSTAND_NAME]"
			}
		}, {
			"aliases": [ "LocalChallengeMutator" ],
			"objclass": "LevelMutatorTableProps",
			"objdata": {
				"Tables": [ {
						"Level": 0,
						"Modules": [ "RTID(SimultaneousPlants@CurrentLevel)" ],
						"ModuleType": "bonuschallenge"
					}, {
						"Level": 1,
						"Modules": [ "RTID(ZombieDistance2@CurrentLevel)", "RTID(SimultaneousPlants@CurrentLevel)" ],
						"ModuleType": "bonuschallenge"
					}, {
						"Level": 2,
						"Modules": [ "RTID(ZombieDistance3@CurrentLevel)", "RTID(SimultaneousPlants@CurrentLevel)" ],
						"ModuleType": "bonuschallenge"
					} ]
			}
		}, {
			"aliases": [ "SimultaneousPlants" ],
			"objclass": "StarChallengeSimultaneousPlantsProps",
			"objdata": {
				"MaximumPlants": 10
			}
		}, {
			"aliases": [ "ZombieDistance2" ],
			"objclass": "StarChallengeZombieDistanceProps",
			"objdata": {
				"TargetDistance": 3
			}
		}, {
			"aliases": [ "ZombieDistance3" ],
			"objclass": "StarChallengeZombieDistanceProps",
			"objdata": {
				"TargetDistance": 4
			}
		}, {
			"aliases": [ "SeedBank" ],
			"objclass": "SeedBankProperties",
			"objdata": {
				"PresetPlantList": [],
				"ExcludeListSunProducers": true,
				"PlantExcludeList": [ "iceburg", "puffshroom", "melonpult", "toadstool", "goldleaf", "stallia", "spearmint", "peppermint", "appeasemint", "enforcemint", "concealmint", "filamint", "wintermint", "bombardmint", "armamint", "ailmint", "reinforcemint", "containmint", "enchantmint", "blover" ],
				"SelectionMethod": "chooser"
			}
		}, {
			"aliases": [ "LevelDifficultyScaling" ],
			"objclass": "LevelDifficultyScalingModuleProperties",
			"objdata": {
				"DifficultyRulesType": "RiftDifficulty",
				"ZombieLevelSwaps": [ {
						"Level": 0,
						"Swaps": [ {
								"From": "RTID(cowboy@ZombieTypes)",
								"To": [ "RTID(cowboy@ZombieTypes)", "RTID(roman_imp@ZombieTypes)" ]
							}, {
								"From": "RTID(cowboy_armor1@ZombieTypes)",
								"To": [ "RTID(cowboy@ZombieTypes)", "RTID(cowboy_armor1@ZombieTypes)" ]
							}, {
								"From": "RTID(chicken_farmer@ZombieTypes)",
								"To": [ "RTID(chicken_farmer@ZombieTypes)", "RTID(roman_shield_triad@ZombieTypes)" ]
							} ]
					}, {
						"Level": 4,
						"Swaps": [ {
								"From": "RTID(cowboy@ZombieTypes)",
								"To": [ "RTID(cowboy@ZombieTypes)", "RTID(cowboy_armor1@ZombieTypes)", "RTID(roman_imp@ZombieTypes)" ]
							}, {
								"From": "RTID(cowboy_armor1@ZombieTypes)",
								"To": [ "RTID(cowboy_armor1@ZombieTypes)", "RTID(cowboy_armor2@ZombieTypes)", "RTID(cowboy@ZombieTypes)" ]
							}, {
								"From": "RTID(chicken_farmer@ZombieTypes)",
								"To": [ "RTID(roman_shield_triad@ZombieTypes)", "RTID(chicken_farmer@ZombieTypes)", "RTID(iceage_weaselhoarder@ZombieTypes)", "RTID(roman_shield_triad@ZombieTypes)", "RTID(chicken_farmer@ZombieTypes)", "RTID(iceage_weaselhoarder@ZombieTypes)", "RTID(cowboy_gargantuar@ZombieTypes)" ]
							} ]
					}, {
						"Level": 7,
						"Swaps": [ {
								"From": "RTID(cowboy@ZombieTypes)",
								"To": [ "RTID(cowboy_armor1@ZombieTypes)", "RTID(cowboy@ZombieTypes)", "RTID(cowboy_armor2@ZombieTypes)" ]
							}, {
								"From": "RTID(cowboy_armor1@ZombieTypes)",
								"To": [ "RTID(cowboy_armor1@ZombieTypes)", "RTID(cowboy_armor2@ZombieTypes)", "RTID(roman_armor3@ZombieTypes)" ]
							}, {
								"From": "RTID(chicken_farmer@ZombieTypes)",
								"To": [ "RTID(chicken_farmer@ZombieTypes)", "RTID(iceage_weaselhoarder@ZombieTypes)", "RTID(chicken_farmer@ZombieTypes)", "RTID(iceage_weaselhoarder@ZombieTypes)", "RTID(chicken_farmer@ZombieTypes)", "RTID(iceage_weaselhoarder@ZombieTypes)", "RTID(chicken_farmer@ZombieTypes)", "RTID(iceage_weaselhoarder@ZombieTypes)", "RTID(chicken_farmer@ZombieTypes)", "RTID(iceage_weaselhoarder@ZombieTypes)", "RTID(cowboy_gargantuar@ZombieTypes)" ]
							} ]
					} ]
			}
		}, {
			"aliases": [ "NewWaves" ],
			"objclass": "WaveManagerModuleProperties",
			"objdata": {
				"ManualStartup": true,
				"DynamicZombies": [ {
						"PointIncrementPerWave": 0,
						"StartingPoints": 0,
						"StartingWave": 0,
						"ZombiePool": []
					}, {
						"PointIncrementPerWave": 0,
						"StartingPoints": 0,
						"StartingWave": 0,
						"ZombiePool": []
					}, {
						"PointIncrementPerWave": 0,
						"StartingPoints": 0,
						"StartingWave": 0,
						"ZombiePool": []
					}, {
						"PointIncrementPerWave": 100,
						"StartingPoints": 500,
						"StartingWave": 3,
						"ZombiePool": [ "RTID(roman_healer@ZombieTypes)", "RTID(piano@ZombieTypes)" ]
					}, {
						"PointIncrementPerWave": 0,
						"StartingPoints": 0,
						"StartingWave": 0,
						"ZombiePool": []
					}, {
						"PointIncrementPerWave": 0,
						"StartingPoints": 0,
						"StartingWave": 0,
						"ZombiePool": []
					}, {
						"PointIncrementPerWave": 0,
						"StartingPoints": 0,
						"StartingWave": 0,
						"ZombiePool": []
					} ],
				"WaveManagerProps": "RTID(WaveManagerProps@CurrentLevel)"
			}
		}, {
			"aliases": [ "WaveManagerProps" ],
			"objclass": "WaveManagerProperties",
			"objdata": {
				"FlagWaveInterval": 10,
				"WaveCount": 10,
				"WaveSpendingPointIncrement": 250,
				"WaveSpendingPoints": 1200,
				"Waves": [ [ "RTID(Wave1@CurrentLevel)" ], [ "RTID(Wave2@CurrentLevel)" ], [ "RTID(Wave3@CurrentLevel)" ], [ "RTID(Wave4@CurrentLevel)" ], [ "RTID(Wave5@CurrentLevel)" ], [ "RTID(Wave6@CurrentLevel)" ], [ "RTID(Wave7@CurrentLevel)" ], [ "RTID(Wave8@CurrentLevel)" ], [ "RTID(Wave9@CurrentLevel)" ], [ "RTID(Wave10@CurrentLevel)" ] ],
				"WavesAlwaysRandomized": true
			}
		}, {
			"aliases": [ "Wave1" ],
			"objclass": "SpawnZombiesJitteredWaveActionProps",
			"objdata": {
				"Zombies": [ {
						"Type": "RTID(chicken_farmer@ZombieTypes)"
					}, {
						"Row": "1",
						"Type": "RTID(cowboy_armor1@ZombieTypes)"
					}, {
						"Row": "3",
						"Type": "RTID(cowboy_armor1@ZombieTypes)"
					}, {
						"Row": "5",
						"Type": "RTID(cowboy_armor1@ZombieTypes)"
					}, {
						"Type": "RTID(chicken_farmer@ZombieTypes)"
					} ]
			}
		}, {
			"aliases": [ "Wave2" ],
			"objclass": "SpawnZombiesJitteredWaveActionProps",
			"objdata": {
				"Zombies": [ {
						"Row": "1",
						"Type": "RTID(chicken_farmer@ZombieTypes)"
					}, {
						"Row": "5",
						"Type": "RTID(chicken_farmer@ZombieTypes)"
					}, {
						"Row": "2",
						"Type": "RTID(prospector@ZombieTypes)"
					}, {
						"Type": "RTID(prospector@ZombieTypes)"
					}, {
						"Type": "RTID(cowboy@ZombieTypes)"
					} ]
			}
		}, {
			"aliases": [ "Wave3" ],
			"objclass": "SpawnZombiesJitteredWaveActionProps",
			"objdata": {
				"Zombies": [ {
						"Row": "1",
						"Type": "RTID(chicken_farmer@ZombieTypes)"
					}, {
						"Row": "2",
						"Type": "RTID(chicken_farmer@ZombieTypes)"
					}, {
						"Row": "3",
						"Type": "RTID(cowboy@ZombieTypes)"
					}, {
						"Type": "RTID(cowboy@ZombieTypes)"
					}, {
						"Row": "4",
						"Type": "RTID(chicken_farmer@ZombieTypes)"
					}, {
						"Row": "5",
						"Type": "RTID(chicken_farmer@ZombieTypes)"
					}, {
						"Type": "RTID(cowboy@ZombieTypes)"
					} ]
			}
		}, {
			"aliases": [ "Wave4" ],
			"objclass": "SpawnZombiesJitteredWaveActionProps",
			"objdata": {
				"Zombies": [ {
						"Row": "4",
						"Type": "RTID(chicken_farmer@ZombieTypes)"
					}, {
						"Row": "2",
						"Type": "RTID(chicken_farmer@ZombieTypes)"
					}, {
						"Row": "1",
						"Type": "RTID(prospector@ZombieTypes)"
					}, {
						"Row": "3",
						"Type": "RTID(prospector@ZombieTypes)"
					}, {
						"Row": "5",
						"Type": "RTID(prospector@ZombieTypes)"
					}, {
						"Type": "RTID(prospector@ZombieTypes)"
					}, {
						"Type": "RTID(prospector@ZombieTypes)"
					} ]
			}
		}, {
			"aliases": [ "Wave5" ],
			"objclass": "SpawnZombiesJitteredWaveActionProps",
			"objdata": {
				"AdditionalPlantfood": 1,
				"Zombies": [ {
						"Row": "1",
						"Type": "RTID(cowboy_armor1@ZombieTypes)"
					}, {
						"Row": "3",
						"Type": "RTID(cowboy@ZombieTypes)"
					}, {
						"Row": "5",
						"Type": "RTID(cowboy_armor1@ZombieTypes)"
					}, {
						"Type": "RTID(chicken_farmer@ZombieTypes)"
					}, {
						"Type": "RTID(chicken_farmer@ZombieTypes)"
					}, {
						"Type": "RTID(chicken_farmer@ZombieTypes)"
					}, {
						"Type": "RTID(prospector@ZombieTypes)"
					}, {
						"Type": "RTID(prospector@ZombieTypes)"
					}, {
						"Type": "RTID(prospector@ZombieTypes)"
					} ]
			}
		}, {
			"aliases": [ "Wave6" ],
			"objclass": "SpawnZombiesJitteredWaveActionProps",
			"objdata": {
				"Zombies": [ {
						"Row": "1",
						"Type": "RTID(chicken_farmer@ZombieTypes)"
					}, {
						"Row": "3",
						"Type": "RTID(cowboy@ZombieTypes)"
					}, {
						"Row": "2",
						"Type": "RTID(chicken_farmer@ZombieTypes)"
					}, {
						"Type": "RTID(prospector@ZombieTypes)"
					}, {
						"Row": "5",
						"Type": "RTID(chicken_farmer@ZombieTypes)"
					}, {
						"Row": "4",
						"Type": "RTID(chicken_farmer@ZombieTypes)"
					}, {
						"Type": "RTID(cowboy@ZombieTypes)"
					}, {
						"Row": "4",
						"Type": "RTID(cowboy_armor1@ZombieTypes)"
					}, {
						"Type": "RTID(prospector@ZombieTypes)"
					}, {
						"Row": "2",
						"Type": "RTID(cowboy_armor1@ZombieTypes)"
					}, {
						"Type": "RTID(cowboy@ZombieTypes)"
					}, {
						"Type": "RTID(cowboy@ZombieTypes)"
					} ]
			}
		}, {
			"aliases": [ "Wave7" ],
			"objclass": "SpawnZombiesJitteredWaveActionProps",
			"objdata": {
				"Zombies": [ {
						"Type": "RTID(chicken_farmer@ZombieTypes)"
					}, {
						"Type": "RTID(chicken_farmer@ZombieTypes)"
					}, {
						"Type": "RTID(chicken_farmer@ZombieTypes)"
					}, {
						"Type": "RTID(cowboy@ZombieTypes)"
					}, {
						"Type": "RTID(cowboy@ZombieTypes)"
					}, {
						"Type": "RTID(cowboy_armor1@ZombieTypes)"
					}, {
						"Type": "RTID(cowboy_armor1@ZombieTypes)"
					}, {
						"Row": "1",
						"Type": "RTID(prospector@ZombieTypes)"
					}, {
						"Row": "2",
						"Type": "RTID(prospector@ZombieTypes)"
					}, {
						"Row": "3",
						"Type": "RTID(prospector@ZombieTypes)"
					}, {
						"Row": "4",
						"Type": "RTID(prospector@ZombieTypes)"
					}, {
						"Row": "5",
						"Type": "RTID(prospector@ZombieTypes)"
					} ]
			}
		}, {
			"aliases": [ "Wave8" ],
			"objclass": "SpawnZombiesJitteredWaveActionProps",
			"objdata": {
				"Zombies": [ {
						"Type": "RTID(chicken_farmer@ZombieTypes)"
					}, {
						"Type": "RTID(prospector@ZombieTypes)"
					}, {
						"Type": "RTID(chicken_farmer@ZombieTypes)"
					}, {
						"Type": "RTID(prospector@ZombieTypes)"
					}, {
						"Type": "RTID(cowboy_armor1@ZombieTypes)"
					}, {
						"Type": "RTID(cowboy@ZombieTypes)"
					}, {
						"Type": "RTID(chicken_farmer@ZombieTypes)"
					}, {
						"Type": "RTID(prospector@ZombieTypes)"
					}, {
						"Type": "RTID(chicken_farmer@ZombieTypes)"
					}, {
						"Type": "RTID(prospector@ZombieTypes)"
					}, {
						"Type": "RTID(cowboy@ZombieTypes)"
					}, {
						"Type": "RTID(cowboy@ZombieTypes)"
					}, {
						"Type": "RTID(chicken_farmer@ZombieTypes)"
					}, {
						"Type": "RTID(prospector@ZombieTypes)"
					} ]
			}
		}, {
			"aliases": [ "Wave9" ],
			"objclass": "SpawnZombiesJitteredWaveActionProps",
			"objdata": {
				"Zombies": [ {
						"Row": "1",
						"Type": "RTID(chicken_farmer@ZombieTypes)"
					}, {
						"Row": "2",
						"Type": "RTID(chicken_farmer@ZombieTypes)"
					}, {
						"Row": "3",
						"Type": "RTID(cowboy@ZombieTypes)"
					}, {
						"Row": "4",
						"Type": "RTID(chicken_farmer@ZombieTypes)"
					}, {
						"Row": "5",
						"Type": "RTID(chicken_farmer@ZombieTypes)"
					}, {
						"Row": "1",
						"Type": "RTID(cowboy_armor1@ZombieTypes)"
					}, {
						"Row": "2",
						"Type": "RTID(chicken_farmer@ZombieTypes)"
					}, {
						"Row": "3",
						"Type": "RTID(cowboy_armor1@ZombieTypes)"
					}, {
						"Row": "4",
						"Type": "RTID(chicken_farmer@ZombieTypes)"
					}, {
						"Row": "5",
						"Type": "RTID(cowboy_armor1@ZombieTypes)"
					}, {
						"Type": "RTID(prospector@ZombieTypes)"
					}, {
						"Type": "RTID(prospector@ZombieTypes)"
					}, {
						"Type": "RTID(prospector@ZombieTypes)"
					}, {
						"Type": "RTID(prospector@ZombieTypes)"
					}, {
						"Type": "RTID(prospector@ZombieTypes)"
					} ]
			}
		}, {
			"aliases": [ "Wave10" ],
			"objclass": "SpawnZombiesJitteredWaveActionProps",
			"objdata": {
				"Zombies": [ {
						"Type": "RTID(cowboy_armor1@ZombieTypes)"
					}, {
						"Type": "RTID(cowboy@ZombieTypes)"
					}, {
						"Type": "RTID(cowboy@ZombieTypes)"
					}, {
						"Type": "RTID(prospector@ZombieTypes)"
					}, {
						"Type": "RTID(prospector@ZombieTypes)"
					}, {
						"Row": "2",
						"Type": "RTID(cowboy@ZombieTypes)"
					}, {
						"Row": "3",
						"Type": "RTID(chicken_farmer@ZombieTypes)"
					}, {
						"Row": "4",
						"Type": "RTID(cowboy@ZombieTypes)"
					}, {
						"Row": "5",
						"Type": "RTID(chicken_farmer@ZombieTypes)"
					}, {
						"Row": "1",
						"Type": "RTID(cowboy_armor1@ZombieTypes)"
					}, {
						"Row": "2",
						"Type": "RTID(chicken_farmer@ZombieTypes)"
					}, {
						"Row": "3",
						"Type": "RTID(cowboy@ZombieTypes)"
					}, {
						"Row": "4",
						"Type": "RTID(chicken_farmer@ZombieTypes)"
					}, {
						"Row": "5",
						"Type": "RTID(cowboy_armor1@ZombieTypes)"
					}, {
						"Row": "1",
						"Type": "RTID(prospector@ZombieTypes)"
					}, {
						"Row": "2",
						"Type": "RTID(prospector@ZombieTypes)"
					}, {
						"Row": "3",
						"Type": "RTID(prospector@ZombieTypes)"
					}, {
						"Row": "4",
						"Type": "RTID(prospector@ZombieTypes)"
					}, {
						"Row": "5",
						"Type": "RTID(prospector@ZombieTypes)"
					} ]
			}
		} ],
	"version": 1
}