{
	"#comment": "Beach 30 v1",
	"objects": [ {
			"objclass": "LevelDefinition",
			"objdata": {
				"Description": "[PLAYERS_TRIP_TO_RIFT]",
				"LevelNumber": "",
				"Loot": "",
				"Modules": [ "RTID(DefaultSunDropper@LevelModules)", "RTID(StandardRiftIntro@LevelModules)", "RTID(DefaultSunDropper@LevelModules)", "RTID(ZombiesDeadWinCon@LevelModules)", "RTID(BeachMowers@LevelModules)", "RTID(SeedBank@CurrentLevel)", "RTID(ProtectThePlant@CurrentLevel)", "RTID(DefaultZombieWinCondition@LevelModules)", "RTID(NewWaves@CurrentLevel)", "RTID(LilypadPlacement@CurrentLevel)", "RTID(Tide@CurrentLevel)", "RTID(PerkActivator@CurrentLevel)", "RTID(LevelDifficultyScaling@CurrentLevel)" ],
				"MusicType": "MiniGame_B",
				"Name": "[RIFT_LEVEL_NAME]",
				"NormalPresentTable": "egypt_normal_01",
				"ShinyPresentTable": "egypt_shiny_01",
				"VictoryModule": "RTID(RiftOutro@LevelModules)",
				"LevelMutator": "RTID(LevelMutator@CurrentLevel)",
				"StageModule": "RTID(BeachStage@LevelModules)",
				"PerksDisabledInLevel": [ "moarscore", "bossbustercannon", "zombieinhibitorballista" ],
				"PerksDisabledPerDifficulty": [ [], [], [] ]
			}
		}, {
			"aliases": [ "BeatTheLevel" ],
			"objclass": "StarChallengeBeatTheLevelProps",
			"objdata": {
				"Description": "[STARCHALLENGE_RIFT_NORMAL]",
				"DescriptiveName": "[STARCHALLENGE_RIFT_NORMAL_NAME]"
			}
		}, {
			"aliases": [ "PerkActivator" ],
			"objclass": "PerkHandlerModuleProperties",
			"objdata": {}
		}, {
			"aliases": [ "LevelMutator" ],
			"objclass": "LevelMutatorModuleProperties",
			"objdata": {
				"MutatorTables": [ "RTID(MutatorPropsRiftNormal@LevelMutatorTables)", "RTID(LocalChallengeMutator@CurrentLevel)", "RTID(LocalMainChallengeMutator@CurrentLevel)" ]
			}
		}, {
			"aliases": [ "LocalMainChallengeMutator" ],
			"objclass": "LevelMutatorTableProps",
			"objdata": {
				"Tables": [ {
						"Level": 0,
						"Modules": [ "RTID(BeatTheLevel@CurrentLevel)" ],
						"ModuleType": "mainchallenge"
					}, {
						"Level": 1,
						"Modules": [ "RTID(BeatTheLevel@CurrentLevel)" ],
						"ModuleType": "mainchallenge"
					}, {
						"Level": 2,
						"Modules": [ "RTID(BeatTheLevel@CurrentLevel)" ],
						"ModuleType": "mainchallenge"
					} ]
			}
		}, {
			"aliases": [ "LocalChallengeMutator" ],
			"objclass": "LevelMutatorTableProps",
			"objdata": {
				"Tables": [ {
						"Level": 0,
						"ModuleType": "bonuschallenge",
						"Modules": [ "RTID(ProtectThePlant@CurrentLevel)" ]
					}, {
						"Level": 1,
						"ModuleType": "bonuschallenge",
						"Modules": [ "RTID(ProtectThePlant@CurrentLevel)", "RTID(PlantsLost@CurrentLevel)" ]
					}, {
						"Level": 2,
						"ModuleType": "bonuschallenge",
						"Modules": [ "RTID(ProtectThePlant@CurrentLevel)", "RTID(PlantsLost@CurrentLevel)" ]
					} ]
			}
		}, {
			"aliases": [ "ProtectThePlant" ],
			"objclass": "ProtectThePlantChallengeProperties",
			"objdata": {
				"MustProtectCount": 5,
				"Plants": [ {
						"GridX": 0,
						"GridY": 0,
						"PlantType": "guacodile"
					}, {
						"GridX": 0,
						"GridY": 1,
						"PlantType": "guacodile"
					}, {
						"GridX": 0,
						"GridY": 2,
						"PlantType": "guacodile"
					}, {
						"GridX": 0,
						"GridY": 3,
						"PlantType": "guacodile"
					}, {
						"GridX": 0,
						"GridY": 4,
						"PlantType": "guacodile"
					} ]
			}
		}, {
			"aliases": [ "PlantsLost" ],
			"objclass": "StarChallengePlantsLostProps",
			"objdata": {
				"MaximumPlantsLost": 7
			}
		}, {
			"aliases": [ "LevelDifficultyScaling" ],
			"objclass": "LevelDifficultyScalingModuleProperties",
			"objdata": {
				"DifficultyRulesType": "RiftDifficulty",
				"ZombieLevelSwaps": [ {
						"Level": 0,
						"Swaps": [ {
								"From": "RTID(beach@ZombieTypes)",
								"To": [ "RTID(roman@ZombieTypes)" ]
							}, {
								"From": "RTID(beach_armor1@ZombieTypes)",
								"To": [ "RTID(roman_armor1@ZombieTypes)", "RTID(roman@ZombieTypes)" ]
							}, {
								"From": "RTID(beach_armor2@ZombieTypes)",
								"To": [ "RTID(roman_armor2@ZombieTypes)", "RTID(roman_armor1@ZombieTypes)" ]
							}, {
								"From": "RTID(beach_fem@ZombieTypes)",
								"To": [ "RTID(beach_fem@ZombieTypes)" ]
							}, {
								"From": "RTID(beach_fem_armor1@ZombieTypes)",
								"To": [ "RTID(roman_armor1@ZombieTypes)", "RTID(roman@ZombieTypes)" ]
							}, {
								"From": "RTID(beach_fem_armor2@ZombieTypes)",
								"To": [ "RTID(roman_armor2@ZombieTypes)", "RTID(roman_armor1@ZombieTypes)" ]
							}, {
								"From": "RTID(beach_gargantuar@ZombieTypes)",
								"To": [ "RTID(roman_armor3@ZombieTypes)" ]
							} ]
					}, {
						"Level": 4,
						"Swaps": [ {
								"From": "RTID(beach@ZombieTypes)",
								"To": [ "RTID(roman@ZombieTypes)" ]
							}, {
								"From": "RTID(beach_armor1@ZombieTypes)",
								"To": [ "RTID(roman_armor1@ZombieTypes)" ]
							}, {
								"From": "RTID(beach_armor2@ZombieTypes)",
								"To": [ "RTID(roman_armor2@ZombieTypes)" ]
							}, {
								"From": "RTID(beach_fem@ZombieTypes)",
								"To": [ "RTID(beach_fem@ZombieTypes)" ]
							}, {
								"From": "RTID(beach_fem_armor1@ZombieTypes)",
								"To": [ "RTID(roman_armor1@ZombieTypes)" ]
							}, {
								"From": "RTID(beach_fem_armor2@ZombieTypes)",
								"To": [ "RTID(roman_armor2@ZombieTypes)" ]
							}, {
								"From": "RTID(beach_gargantuar@ZombieTypes)",
								"To": [ "RTID(beach_gargantuar@ZombieTypes)" ]
							} ]
					}, {
						"Level": 7,
						"Swaps": [ {
								"From": "RTID(beach@ZombieTypes)",
								"To": [ "RTID(roman@ZombieTypes)", "RTID(roman_armor1@ZombieTypes)" ]
							}, {
								"From": "RTID(beach_armor1@ZombieTypes)",
								"To": [ "RTID(roman_armor1@ZombieTypes)", "RTID(roman_armor2@ZombieTypes)" ]
							}, {
								"From": "RTID(beach_armor2@ZombieTypes)",
								"To": [ "RTID(roman_armor2@ZombieTypes)", "RTID(roman_armor3@ZombieTypes)" ]
							}, {
								"From": "RTID(beach_fem@ZombieTypes)",
								"To": [ "RTID(beach_fem@ZombieTypes)", "RTID(roman_armor1@ZombieTypes)" ]
							}, {
								"From": "RTID(beach_fem_armor1@ZombieTypes)",
								"To": [ "RTID(roman_armor1@ZombieTypes)", "RTID(roman_armor2@ZombieTypes)" ]
							}, {
								"From": "RTID(beach_fem_armor2@ZombieTypes)",
								"To": [ "RTID(roman_armor2@ZombieTypes)", "RTID(roman_armor3@ZombieTypes)" ]
							}, {
								"From": "RTID(beach_gargantuar@ZombieTypes)",
								"To": [ "RTID(roman_gargantuar@ZombieTypes)" ]
							} ]
					} ]
			}
		}, {
			"aliases": [ "Tide" ],
			"objclass": "TideProperties",
			"objdata": {
				"StartingWaveLocation": 7
			}
		}, {
			"aliases": [ "LilypadPlacement" ],
			"objclass": "InitialGridItemProperties",
			"objdata": {
				"InitialGridItemPlacements": [ {
						"GridX": 2,
						"GridY": 0,
						"TypeName": "lilypad"
					}, {
						"GridX": 4,
						"GridY": 1,
						"TypeName": "lilypad"
					}, {
						"GridX": 3,
						"GridY": 2,
						"TypeName": "lilypad"
					}, {
						"GridX": 4,
						"GridY": 3,
						"TypeName": "lilypad"
					}, {
						"GridX": 2,
						"GridY": 4,
						"TypeName": "lilypad"
					} ]
			}
		}, {
			"aliases": [ "SeedBank" ],
			"objclass": "SeedBankProperties",
			"objdata": {
				"SelectionMethod": "chooser"
			}
		}, {
			"aliases": [ "NewWaves" ],
			"objclass": "WaveManagerModuleProperties",
			"objdata": {
				"DynamicZombies": [ {
						"PointIncrementPerWave": -40,
						"StartingPoints": -100,
						"StartingWave": 3,
						"ZombiePool": [ "RTID(beach@ZombieTypes)", "RTID(beach_armor1@ZombieTypes)", "RTID(beach_fem_armor2@ZombieTypes)", "RTID(beach_fisherman@ZombieTypes)", "RTID(beach_imp@ZombieTypes)", "RTID(beach_octopus@ZombieTypes)", "RTID(beach_snorkel@ZombieTypes)", "RTID(beach_surfer@ZombieTypes)" ]
					}, {
						"PointIncrementPerWave": -25,
						"StartingPoints": -100,
						"StartingWave": 4,
						"ZombiePool": [ "RTID(beach@ZombieTypes)", "RTID(beach_armor1@ZombieTypes)", "RTID(beach_fem_armor2@ZombieTypes)", "RTID(beach_fisherman@ZombieTypes)", "RTID(beach_imp@ZombieTypes)", "RTID(beach_octopus@ZombieTypes)", "RTID(beach_snorkel@ZombieTypes)", "RTID(beach_surfer@ZombieTypes)" ]
					}, {
						"PointIncrementPerWave": -10,
						"StartingPoints": -100,
						"StartingWave": 5,
						"ZombiePool": [ "RTID(beach@ZombieTypes)", "RTID(beach_armor1@ZombieTypes)", "RTID(beach_fem_armor2@ZombieTypes)", "RTID(beach_fisherman@ZombieTypes)", "RTID(beach_imp@ZombieTypes)", "RTID(beach_octopus@ZombieTypes)", "RTID(beach_snorkel@ZombieTypes)", "RTID(beach_surfer@ZombieTypes)" ]
					}, {}, {
						"PointIncrementPerWave": 20,
						"StartingPoints": 100,
						"StartingWave": 5,
						"ZombiePool": [ "RTID(beach@ZombieTypes)", "RTID(beach_armor1@ZombieTypes)", "RTID(beach_fem_armor2@ZombieTypes)", "RTID(beach_fisherman@ZombieTypes)", "RTID(beach_imp@ZombieTypes)", "RTID(beach_octopus@ZombieTypes)", "RTID(beach_snorkel@ZombieTypes)", "RTID(beach_surfer@ZombieTypes)" ]
					}, {
						"PointIncrementPerWave": 40,
						"StartingPoints": 200,
						"StartingWave": 4,
						"ZombiePool": [ "RTID(beach_armor1@ZombieTypes)", "RTID(beach_fem_armor2@ZombieTypes)", "RTID(beach_fisherman@ZombieTypes)", "RTID(beach_imp@ZombieTypes)", "RTID(beach_octopus@ZombieTypes)", "RTID(beach_snorkel@ZombieTypes)", "RTID(beach_surfer@ZombieTypes)" ]
					}, {
						"PointIncrementPerWave": 60,
						"StartingPoints": 400,
						"StartingWave": 3,
						"ZombiePool": [ "RTID(beach_fem_armor2@ZombieTypes)", "RTID(beach_fisherman@ZombieTypes)", "RTID(beach_imp@ZombieTypes)", "RTID(beach_octopus@ZombieTypes)", "RTID(beach_snorkel@ZombieTypes)", "RTID(beach_surfer@ZombieTypes)" ]
					} ],
				"WaveManagerProps": "RTID(WaveManagerProps@CurrentLevel)"
			}
		}, {
			"aliases": [ "WaveManagerProps" ],
			"objclass": "WaveManagerProperties",
			"objdata": {
				"FlagWaveInterval": 5,
				"SpawnColEnd": 9,
				"SpawnColStart": 3,
				"WaveCount": 20,
				"WaveSpendingPointIncrement": 100,
				"WaveSpendingPoints": 200,
				"Waves": [ [ "RTID(Wave1@CurrentLevel)" ], [ "RTID(Wave2@CurrentLevel)" ], [ "RTID(Wave3@CurrentLevel)" ], [ "RTID(Wave4@CurrentLevel)", "RTID(Wave4LowTideEvent0@CurrentLevel)", "RTID(Wave4LowTideEvent1@CurrentLevel)", "RTID(Wave4LowTideEvent2@CurrentLevel)", "RTID(Wave4TidalChangeEvent0@CurrentLevel)" ], [ "RTID(Wave5@CurrentLevel)" ], [ "RTID(Wave6@CurrentLevel)" ], [ "RTID(Wave7@CurrentLevel)", "RTID(Wave7TidalChangeEvent0@CurrentLevel)" ], [ "RTID(Wave8@CurrentLevel)", "RTID(Wave8TidalChangeEvent0@CurrentLevel)" ], [ "RTID(Wave9@CurrentLevel)", "RTID(Wave9TidalChangeEvent0@CurrentLevel)" ], [ "RTID(Wave10@CurrentLevel)", "RTID(Wave10LowTideEvent0@CurrentLevel)", "RTID(Wave10LowTideEvent1@CurrentLevel)", "RTID(Wave10LowTideEvent2@CurrentLevel)", "RTID(Wave10TidalChangeEvent0@CurrentLevel)" ], [ "RTID(Wave11@CurrentLevel)", "RTID(Wave11TidalChangeEvent0@CurrentLevel)" ], [ "RTID(Wave12@CurrentLevel)", "RTID(Wave12TidalChangeEvent0@CurrentLevel)" ], [ "RTID(Wave13@CurrentLevel)", "RTID(Wave13LowTideEvent0@CurrentLevel)", "RTID(Wave13LowTideEvent1@CurrentLevel)", "RTID(Wave13TidalChangeEvent0@CurrentLevel)" ], [ "RTID(Wave14@CurrentLevel)" ], [ "RTID(Wave15@CurrentLevel)" ], [ "RTID(Wave16@CurrentLevel)", "RTID(Wave16TidalChangeEvent0@CurrentLevel)" ], [ "RTID(Wave17@CurrentLevel)", "RTID(Wave17TidalChangeEvent0@CurrentLevel)" ], [ "RTID(Wave18@CurrentLevel)", "RTID(Wave18TidalChangeEvent0@CurrentLevel)" ], [ "RTID(Wave19@CurrentLevel)", "RTID(Wave19TidalChangeEvent0@CurrentLevel)" ], [ "RTID(Wave20@CurrentLevel)" ] ]
			}
		}, {
			"aliases": [ "Wave1" ],
			"objclass": "SpawnZombiesJitteredWaveActionProps",
			"objdata": {
				"AdditionalPlantfood": 0,
				"Zombies": [ {
						"Type": "RTID(beach_imp@ZombieTypes)"
					}, {
						"Type": "RTID(beach_imp@ZombieTypes)"
					} ]
			}
		}, {
			"aliases": [ "Wave2" ],
			"objclass": "SpawnZombiesJitteredWaveActionProps",
			"objdata": {
				"AdditionalPlantfood": 1,
				"DynamicPlantfood": [ 1, 1, 1, 1, 0, 0, 0 ],
				"Zombies": [ {
						"Type": "RTID(beach_fem@ZombieTypes)"
					}, {
						"Type": "RTID(beach_imp@ZombieTypes)"
					}, {
						"Type": "RTID(beach@ZombieTypes)"
					} ]
			}
		}, {
			"aliases": [ "Wave3" ],
			"objclass": "SpawnZombiesJitteredWaveActionProps",
			"objdata": {
				"AdditionalPlantfood": 0,
				"Zombies": [ {
						"Type": "RTID(beach@ZombieTypes)"
					}, {
						"Type": "RTID(beach_fem_armor1@ZombieTypes)"
					}, {
						"Type": "RTID(beach@ZombieTypes)"
					}, {
						"Type": "RTID(beach_fem@ZombieTypes)"
					} ]
			}
		}, {
			"aliases": [ "Wave4" ],
			"objclass": "SpawnZombiesJitteredWaveActionProps",
			"objdata": {
				"AdditionalPlantfood": 1,
				"DynamicPlantfood": [ 1, 1, 1, 1, 1, 1, 1 ],
				"Zombies": [ {
						"Type": "RTID(beach_fem@ZombieTypes)"
					} ]
			}
		}, {
			"aliases": [ "Wave5" ],
			"objclass": "SpawnZombiesJitteredWaveActionProps",
			"objdata": {
				"Zombies": [ {
						"Type": "RTID(beach_fisherman@ZombieTypes)"
					}, {
						"Row": "2",
						"Type": "RTID(beach_fem_armor1@ZombieTypes)"
					}, {
						"Row": "5",
						"Type": "RTID(beach_armor1@ZombieTypes)"
					}, {
						"Row": "1",
						"Type": "RTID(beach_armor1@ZombieTypes)"
					}, {
						"Row": "3",
						"Type": "RTID(beach_armor1@ZombieTypes)"
					} ]
			}
		}, {
			"aliases": [ "Wave6" ],
			"objclass": "SpawnZombiesJitteredWaveActionProps",
			"objdata": {
				"AdditionalPlantfood": 0,
				"Zombies": [ {
						"Type": "RTID(beach_armor2@ZombieTypes)"
					}, {
						"Type": "RTID(beach_fem_armor2@ZombieTypes)"
					} ]
			}
		}, {
			"aliases": [ "Wave7" ],
			"objclass": "SpawnZombiesJitteredWaveActionProps",
			"objdata": {
				"AdditionalPlantfood": 0,
				"Zombies": [ {
						"Type": "RTID(beach_snorkel@ZombieTypes)"
					}, {
						"Row": "5",
						"Type": "RTID(beach_snorkel@ZombieTypes)"
					}, {
						"Type": "RTID(beach_armor2@ZombieTypes)"
					} ]
			}
		}, {
			"aliases": [ "Wave8" ],
			"objclass": "SpawnZombiesJitteredWaveActionProps",
			"objdata": {
				"AdditionalPlantfood": 1,
				"DynamicPlantfood": [ 1, 1, 1, 1, 1, 1, 0 ],
				"Zombies": [ {
						"Row": "1",
						"Type": "RTID(beach_snorkel@ZombieTypes)"
					}, {
						"Row": "2",
						"Type": "RTID(beach_snorkel@ZombieTypes)"
					}, {
						"Row": "5",
						"Type": "RTID(beach_fisherman@ZombieTypes)"
					} ]
			}
		}, {
			"aliases": [ "Wave9" ],
			"objclass": "SpawnZombiesJitteredWaveActionProps",
			"objdata": {
				"AdditionalPlantfood": 0,
				"Zombies": [ {
						"Row": "4",
						"Type": "RTID(beach_snorkel@ZombieTypes)"
					}, {
						"Row": "2",
						"Type": "RTID(beach_surfer@ZombieTypes)"
					}, {
						"Row": "3",
						"Type": "RTID(beach_snorkel@ZombieTypes)"
					} ]
			}
		}, {
			"aliases": [ "Wave10" ],
			"objclass": "SpawnZombiesJitteredWaveActionProps",
			"objdata": {
				"AdditionalPlantfood": 0,
				"Zombies": [ {
						"Type": "RTID(beach_fisherman@ZombieTypes)"
					} ]
			}
		}, {
			"aliases": [ "Wave11" ],
			"objclass": "SpawnZombiesJitteredWaveActionProps",
			"objdata": {
				"Zombies": [ {
						"Row": "3",
						"Type": "RTID(beach_surfer@ZombieTypes)"
					}, {
						"Row": "4",
						"Type": "RTID(beach_surfer@ZombieTypes)"
					} ]
			}
		}, {
			"aliases": [ "Wave12" ],
			"objclass": "SpawnZombiesJitteredWaveActionProps",
			"objdata": {
				"Zombies": [ {
						"Row": "1",
						"Type": "RTID(beach_surfer@ZombieTypes)"
					}, {
						"Row": "5",
						"Type": "RTID(beach_surfer@ZombieTypes)"
					} ]
			}
		}, {
			"aliases": [ "Wave13" ],
			"objclass": "SpawnZombiesJitteredWaveActionProps",
			"objdata": {
				"AdditionalPlantfood": 0,
				"Zombies": [ {
						"Type": "RTID(beach_fisherman@ZombieTypes)"
					} ]
			}
		}, {
			"aliases": [ "Wave14" ],
			"objclass": "SpawnZombiesJitteredWaveActionProps",
			"objdata": {
				"AdditionalPlantfood": 1,
				"DynamicPlantfood": [ 1, 1, 1, 1, 1, 0, 0 ],
				"ZombieSpawnPattern": "ZombieSpawnerPatternStaggered",
				"Zombies": [ {
						"Row": "2",
						"Type": "RTID(beach_fem@ZombieTypes)"
					}, {
						"Row": "2",
						"Type": "RTID(beach_armor2@ZombieTypes)"
					}, {
						"Type": "RTID(beach@ZombieTypes)"
					}, {
						"Type": "RTID(beach_fem@ZombieTypes)"
					}, {
						"Row": "2",
						"Type": "RTID(beach_armor1@ZombieTypes)"
					}, {
						"Type": "RTID(beach@ZombieTypes)"
					}, {
						"Type": "RTID(beach_armor2@ZombieTypes)"
					}, {
						"Type": "RTID(beach@ZombieTypes)"
					}, {
						"Type": "RTID(beach_fem_armor1@ZombieTypes)"
					} ]
			}
		}, {
			"aliases": [ "Wave15" ],
			"objclass": "SpawnZombiesJitteredWaveActionProps",
			"objdata": {
				"Zombies": [ {
						"Row": "3",
						"Type": "RTID(beach_fisherman@ZombieTypes)"
					}, {
						"Row": "1",
						"Type": "RTID(beach_fisherman@ZombieTypes)"
					}, {
						"Row": "4",
						"Type": "RTID(beach_fisherman@ZombieTypes)"
					}, {
						"Row": "5",
						"Type": "RTID(beach_fisherman@ZombieTypes)"
					}, {
						"Row": "2",
						"Type": "RTID(beach_fisherman@ZombieTypes)"
					} ]
			}
		}, {
			"aliases": [ "Wave16" ],
			"objclass": "SpawnZombiesJitteredWaveActionProps",
			"objdata": {
				"AdditionalPlantfood": 0,
				"ZombieSpawnPattern": "ZombieSpawnerPatternStaggered",
				"Zombies": [ {
						"Type": "RTID(beach_fem_armor2@ZombieTypes)"
					}, {
						"Row": "3",
						"Type": "RTID(beach_armor2@ZombieTypes)"
					}, {
						"Type": "RTID(beach_surfer@ZombieTypes)"
					}, {
						"Row": "3",
						"Type": "RTID(beach_fem_armor1@ZombieTypes)"
					}, {
						"Type": "RTID(beach_fem_armor2@ZombieTypes)"
					} ]
			}
		}, {
			"aliases": [ "Wave17" ],
			"objclass": "SpawnZombiesJitteredWaveActionProps",
			"objdata": {
				"Zombies": [ {
						"Row": "4",
						"Type": "RTID(beach_fem_armor1@ZombieTypes)"
					}, {
						"Row": "2",
						"Type": "RTID(beach_armor1@ZombieTypes)"
					}, {
						"Row": "5",
						"Type": "RTID(beach_armor2@ZombieTypes)"
					}, {
						"Row": "1",
						"Type": "RTID(beach_armor2@ZombieTypes)"
					}, {
						"Type": "RTID(beach_snorkel@ZombieTypes)"
					}, {
						"Type": "RTID(beach_imp@ZombieTypes)"
					}, {
						"Type": "RTID(beach_snorkel@ZombieTypes)"
					} ]
			}
		}, {
			"aliases": [ "Wave18" ],
			"objclass": "SpawnZombiesJitteredWaveActionProps",
			"objdata": {
				"Zombies": [ {
						"Type": "RTID(beach_surfer@ZombieTypes)"
					}, {
						"Type": "RTID(beach_surfer@ZombieTypes)"
					}, {
						"Row": "3",
						"Type": "RTID(beach_octopus@ZombieTypes)"
					} ]
			}
		}, {
			"aliases": [ "Wave19" ],
			"objclass": "SpawnZombiesJitteredWaveActionProps",
			"objdata": {
				"AdditionalPlantfood": 1,
				"DynamicPlantfood": [ 1, 1, 1, 1, 1, 1, 1 ],
				"ZombieSpawnPattern": "ZombieSpawnerPatternStaggered",
				"Zombies": [ {
						"Type": "RTID(beach_octopus@ZombieTypes)"
					}, {
						"Type": "RTID(beach_fem_armor2@ZombieTypes)"
					}, {
						"Type": "RTID(beach_fem@ZombieTypes)"
					}, {
						"Type": "RTID(beach_snorkel@ZombieTypes)"
					}, {
						"Type": "RTID(beach_snorkel@ZombieTypes)"
					}, {
						"Type": "RTID(beach_armor2@ZombieTypes)"
					}, {
						"Type": "RTID(beach_snorkel@ZombieTypes)"
					} ]
			}
		}, {
			"aliases": [ "Wave20" ],
			"objclass": "SpawnZombiesJitteredWaveActionProps",
			"objdata": {
				"AdditionalPlantfood": 0,
				"Zombies": [ {
						"Type": "RTID(beach_snorkel@ZombieTypes)"
					}, {
						"Row": "5",
						"Type": "RTID(beach_surfer@ZombieTypes)"
					}, {
						"Row": "4",
						"Type": "RTID(beach_armor2@ZombieTypes)"
					}, {
						"Row": "5",
						"Type": "RTID(beach_gargantuar@ZombieTypes)"
					}, {
						"Type": "RTID(beach_fisherman@ZombieTypes)"
					}, {
						"Row": "3",
						"Type": "RTID(beach_fem_armor2@ZombieTypes)"
					}, {
						"Row": "2",
						"Type": "RTID(beach_armor2@ZombieTypes)"
					}, {
						"Type": "RTID(beach_fem_armor1@ZombieTypes)"
					}, {
						"Row": "1",
						"Type": "RTID(beach_surfer@ZombieTypes)"
					} ]
			}
		}, {
			"aliases": [ "Wave4LowTideEvent0" ],
			"objclass": "BeachStageEventZombieSpawnerProps",
			"objdata": {
				"ColumnEnd": 7,
				"ColumnStart": 5,
				"GroupSize": 1,
				"TimeBeforeFullSpawn": "0.5",
				"TimeBetweenGroups": "0.25",
				"WaveStartMessage": "[WARNING_LOW_TIDE]",
				"ZombieCount": 3,
				"ZombieName": "beach_imp"
			}
		}, {
			"aliases": [ "Wave4TidalChangeEvent0" ],
			"objclass": "TidalChangeWaveActionProps",
			"objdata": {
				"TidalChange": {
					"ChangeAmount": 1,
					"ChangeType": "absolute"
				}
			}
		}, {
			"aliases": [ "Wave4LowTideEvent1" ],
			"objclass": "BeachStageEventZombieSpawnerProps",
			"objdata": {
				"ColumnEnd": 7,
				"ColumnStart": "4",
				"GroupSize": 1,
				"TimeBeforeFullSpawn": "0.5",
				"TimeBetweenGroups": "0.25",
				"WaveStartMessage": "[WARNING_LOW_TIDE]",
				"ZombieCount": 3,
				"ZombieName": "beach"
			}
		}, {
			"aliases": [ "Wave4LowTideEvent2" ],
			"objclass": "BeachStageEventZombieSpawnerProps",
			"objdata": {
				"ColumnEnd": 7,
				"ColumnStart": 4,
				"GroupSize": 1,
				"TimeBeforeFullSpawn": "0.5",
				"TimeBetweenGroups": "0.25",
				"WaveStartMessage": "[WARNING_LOW_TIDE]",
				"ZombieCount": 3,
				"ZombieName": "beach_fem"
			}
		}, {
			"aliases": [ "Wave7TidalChangeEvent0" ],
			"objclass": "TidalChangeWaveActionProps",
			"objdata": {
				"TidalChange": {
					"ChangeAmount": 3,
					"ChangeType": "absolute"
				}
			}
		}, {
			"aliases": [ "Wave8TidalChangeEvent0" ],
			"objclass": "TidalChangeWaveActionProps",
			"objdata": {
				"TidalChange": {
					"ChangeAmount": 6,
					"ChangeType": "absolute"
				}
			}
		}, {
			"aliases": [ "Wave9TidalChangeEvent0" ],
			"objclass": "TidalChangeWaveActionProps",
			"objdata": {
				"TidalChange": {
					"ChangeAmount": 5,
					"ChangeType": "absolute"
				}
			}
		}, {
			"aliases": [ "Wave11TidalChangeEvent0" ],
			"objclass": "TidalChangeWaveActionProps",
			"objdata": {
				"TidalChange": {
					"ChangeAmount": 4,
					"ChangeType": "absolute"
				}
			}
		}, {
			"aliases": [ "Wave12TidalChangeEvent0" ],
			"objclass": "TidalChangeWaveActionProps",
			"objdata": {
				"TidalChange": {
					"ChangeAmount": 6,
					"ChangeType": "absolute"
				}
			}
		}, {
			"aliases": [ "Wave10LowTideEvent0" ],
			"objclass": "BeachStageEventZombieSpawnerProps",
			"objdata": {
				"ColumnEnd": 7,
				"ColumnStart": 4,
				"GroupSize": 2,
				"TimeBeforeFullSpawn": "0.5",
				"TimeBetweenGroups": 0.5,
				"WaveStartMessage": "[WARNING_LOW_TIDE]",
				"ZombieCount": 6,
				"ZombieName": "beach_imp"
			}
		}, {
			"aliases": [ "Wave10LowTideEvent1" ],
			"objclass": "BeachStageEventZombieSpawnerProps",
			"objdata": {
				"ColumnEnd": 6,
				"ColumnStart": 5,
				"GroupSize": 1,
				"TimeBeforeFullSpawn": "0.5",
				"TimeBetweenGroups": 0.5,
				"WaveStartMessage": "[WARNING_LOW_TIDE]",
				"ZombieCount": 3,
				"ZombieName": "beach_surfer"
			}
		}, {
			"aliases": [ "Wave10TidalChangeEvent0" ],
			"objclass": "TidalChangeWaveActionProps",
			"objdata": {
				"TidalChange": {
					"ChangeAmount": 2,
					"ChangeType": "absolute"
				}
			}
		}, {
			"aliases": [ "Wave13LowTideEvent0" ],
			"objclass": "BeachStageEventZombieSpawnerProps",
			"objdata": {
				"ColumnEnd": 7,
				"ColumnStart": 7,
				"GroupSize": 1,
				"TimeBeforeFullSpawn": "0.5",
				"TimeBetweenGroups": 1,
				"WaveStartMessage": "[WARNING_LOW_TIDE]",
				"ZombieCount": 1,
				"ZombieName": "beach_gargantuar"
			}
		}, {
			"aliases": [ "Wave13TidalChangeEvent0" ],
			"objclass": "TidalChangeWaveActionProps",
			"objdata": {
				"TidalChange": {
					"ChangeAmount": 1,
					"ChangeType": "absolute"
				}
			}
		}, {
			"aliases": [ "Wave16TidalChangeEvent0" ],
			"objclass": "TidalChangeWaveActionProps",
			"objdata": {
				"TidalChange": {
					"ChangeAmount": "3",
					"ChangeType": "absolute"
				}
			}
		}, {
			"aliases": [ "Wave17TidalChangeEvent0" ],
			"objclass": "TidalChangeWaveActionProps",
			"objdata": {
				"TidalChange": {
					"ChangeAmount": 4,
					"ChangeType": "absolute"
				}
			}
		}, {
			"aliases": [ "Wave18TidalChangeEvent0" ],
			"objclass": "TidalChangeWaveActionProps",
			"objdata": {
				"TidalChange": {
					"ChangeAmount": 7,
					"ChangeType": "absolute"
				}
			}
		}, {
			"aliases": [ "Wave19TidalChangeEvent0" ],
			"objclass": "TidalChangeWaveActionProps",
			"objdata": {
				"TidalChange": {
					"ChangeAmount": 5,
					"ChangeType": "absolute"
				}
			}
		}, {
			"aliases": [ "Wave13LowTideEvent1" ],
			"objclass": "BeachStageEventZombieSpawnerProps",
			"objdata": {
				"ColumnEnd": "8",
				"ColumnStart": 5,
				"GroupSize": "4",
				"TimeBeforeFullSpawn": "0.5",
				"TimeBetweenGroups": "0.25",
				"WaveStartMessage": "[WARNING_LOW_TIDE]",
				"ZombieCount": 6,
				"ZombieName": "beach_imp"
			}
		}, {
			"aliases": [ "Wave10LowTideEvent2" ],
			"objclass": "BeachStageEventZombieSpawnerProps",
			"objdata": {
				"ColumnEnd": 7,
				"ColumnStart": 6,
				"GroupSize": "4",
				"TimeBeforeFullSpawn": "0.5",
				"TimeBetweenGroups": "0.25",
				"WaveStartMessage": "[WARNING_LOW_TIDE]",
				"ZombieCount": 1,
				"ZombieName": "beach_octopus"
			}
		} ],
	"version": 1
}