{
	"#comment": "LOD 303 (Parsnip)",
	"objects": [ {
			"objclass": "LevelDefinition",
			"objdata": {
				"Description": "[PLAYERS_TRIP_TO_RIFT]",
				"LevelNumber": "",
				"LevelMutator": "RTID(LevelMutator@CurrentLevel)",
				"Loot": "RTID(DefaultLoot@LevelModules)",
				"Modules": [ "RTID(FrontLawnMowers@LevelModules)", "RTID(NewWaves@CurrentLevel)", "RTID(DefaultZombieWinCondition@LevelModules)", "RTID(Gravestones@CurrentLevel)", "RTID(ConveyorBelt@CurrentLevel)", "RTID(ZombiesDeadWinCon@LevelModules)", "RTID(FrozenPlantPlacement@CurrentLevel)", "RTID(StandardRiftIntro@LevelModules)", "RTID(PerkActivator@CurrentLevel)", "RTID(LevelDifficultyScaling@CurrentLevel)" ],
				"Name": "[RIFT_LEVEL_NAME]",
				"NormalPresentTable": "egypt_normal_01",
				"PerksDisabledInLevel": [ "moarscore", "bossbustercannon", "sunbreak", "applyconditionsuncarrier50", "zombieinhibitorballista", "zombieinhibitorgargantuar", "sunbank" ],
				"PerksDisabledPerDifficulty": [ [], [], [] ],
				"ShinyPresentTable": "egypt_shiny_01",
				"StageModule": "RTID(FrontLawnStage@LevelModules)",
				"VictoryModule": "RTID(RiftOutro@LevelModules)"
			}
		}, {
			"aliases": [ "FrozenPlantPlacement" ],
			"objclass": "InitialPlantProperties",
			"objdata": {}
		}, {
			"aliases": [ "NewWaves" ],
			"objclass": "WaveManagerModuleProperties",
			"objdata": {
				"WaveManagerProps": "RTID(WaveManagerProps@CurrentLevel)",
				"DynamicZombies": [ {}, {}, {}, {
						"PointIncrementPerWave": 50,
						"StartingPoints": 100,
						"StartingWave": 1,
						"ZombiePool": [ "RTID(tutorial_armor1@ZombieTypes)", "RTID(tutorial@ZombieTypes)", "RTID(chicken_farmer@ZombieTypes)" ]
					}, {}, {}, {} ]
			}
		}, {
			"aliases": [ "WaveManagerProps" ],
			"objclass": "WaveManagerProperties",
			"objdata": {
				"FlagWaveInterval": 5,
				"MaxNextWaveHealthPercentage": 0.9,
				"MinNextWaveHealthPercentage": 0.8,
				"WaveCount": 15,
				"WaveSpendingPointIncrement": 200,
				"WaveSpendingPoints": 150,
				"Waves": [ [ "RTID(Wave1@CurrentLevel)" ], [ "RTID(Wave2@CurrentLevel)" ], [ "RTID(Wave3@CurrentLevel)" ], [ "RTID(Wave4@CurrentLevel)" ], [ "RTID(Wave5@CurrentLevel)", "RTID(Wave5StormEvent0@CurrentLevel)" ], [ "RTID(Wave6@CurrentLevel)", "RTID(Wave6ModConveyor0@CurrentLevel)" ], [ "RTID(Wave7@CurrentLevel)", "RTID(Wave7StormEvent0@CurrentLevel)" ], [ "RTID(Wave8@CurrentLevel)", "RTID(Wave8ModConveyor0@CurrentLevel)" ], [ "RTID(Wave9@CurrentLevel)", "RTID(Wave9StormEvent0@CurrentLevel)" ], [ "RTID(Wave10@CurrentLevel)" ], [ "RTID(Wave11@CurrentLevel)", "RTID(Wave11StormEvent0@CurrentLevel)" ], [ "RTID(Wave12@CurrentLevel)" ], [ "RTID(Wave13@CurrentLevel)", "RTID(Wave13StormEvent0@CurrentLevel)" ], [ "RTID(Wave14@CurrentLevel)" ], [ "RTID(Wave15@CurrentLevel)", "RTID(Wave15StormEvent0@CurrentLevel)" ] ]
			}
		}, {
			"aliases": [ "Wave1" ],
			"objclass": "SpawnZombiesJitteredWaveActionProps",
			"objdata": {
				"Zombies": [ {
						"Type": "RTID(tutorial@ZombieTypes)"
					}, {
						"Type": "RTID(tutorial@ZombieTypes)"
					} ]
			}
		}, {
			"aliases": [ "Wave2" ],
			"objclass": "SpawnZombiesJitteredWaveActionProps",
			"objdata": {
				"AdditionalPlantfood": 0,
				"Zombies": [ {
						"Type": "RTID(tutorial@ZombieTypes)"
					}, {
						"Type": "RTID(tutorial@ZombieTypes)"
					} ]
			}
		}, {
			"aliases": [ "Wave3" ],
			"objclass": "SpawnZombiesJitteredWaveActionProps",
			"objdata": {
				"Zombies": [ {
						"Type": "RTID(chicken_farmer@ZombieTypes)"
					} ]
			}
		}, {
			"aliases": [ "Wave4" ],
			"objclass": "SpawnZombiesJitteredWaveActionProps",
			"objdata": {
				"AdditionalPlantfood": 1,
				"Zombies": [ {
						"Type": "RTID(chicken_farmer@ZombieTypes)"
					}, {
						"Type": "RTID(chicken_farmer@ZombieTypes)"
					} ]
			}
		}, {
			"aliases": [ "Wave5" ],
			"objclass": "SpawnZombiesJitteredWaveActionProps",
			"objdata": {
				"Zombies": [ {
						"Row": "5",
						"Type": "RTID(chicken_farmer@ZombieTypes)"
					}, {
						"Row": "3",
						"Type": "RTID(chicken_farmer@ZombieTypes)"
					}, {
						"Row": "1",
						"Type": "RTID(chicken_farmer@ZombieTypes)"
					} ]
			}
		}, {
			"aliases": [ "Wave6" ],
			"objclass": "SpawnZombiesJitteredWaveActionProps",
			"objdata": {
				"AdditionalPlantfood": 0,
				"Zombies": [ {
						"Type": "RTID(chicken_farmer@ZombieTypes)"
					}, {
						"Type": "RTID(chicken_farmer@ZombieTypes)"
					} ]
			}
		}, {
			"aliases": [ "Wave7" ],
			"objclass": "SpawnZombiesJitteredWaveActionProps",
			"objdata": {
				"Zombies": [ {
						"Type": "RTID(chicken_farmer@ZombieTypes)"
					} ]
			}
		}, {
			"aliases": [ "Wave8" ],
			"objclass": "SpawnZombiesJitteredWaveActionProps",
			"objdata": {
				"AdditionalPlantfood": 1,
				"Zombies": [ {
						"Type": "RTID(chicken_farmer@ZombieTypes)"
					}, {
						"Type": "RTID(chicken_farmer@ZombieTypes)"
					}, {
						"Type": "RTID(chicken_farmer@ZombieTypes)"
					} ]
			}
		}, {
			"aliases": [ "Wave9" ],
			"objclass": "SpawnZombiesJitteredWaveActionProps",
			"objdata": {
				"AdditionalPlantfood": 2,
				"Zombies": [ {
						"Type": "RTID(chicken_farmer@ZombieTypes)"
					}, {
						"Type": "RTID(chicken_farmer@ZombieTypes)"
					} ]
			}
		}, {
			"aliases": [ "Gravestones" ],
			"objclass": "GravestoneProperties",
			"objdata": {}
		}, {
			"aliases": [ "ConveyorBelt" ],
			"objclass": "ConveyorSeedBankProperties",
			"objdata": {
				"DropDelayConditions": [ {
						"Delay": 3,
						"MaxPackets": 0
					}, {
						"Delay": 6,
						"MaxPackets": 2
					}, {
						"Delay": 9,
						"MaxPackets": 4
					}, {
						"Delay": 12,
						"MaxPackets": 8
					} ],
				"InitialPlantList": [ {
						"PlantType": "parsnip",
						"Weight": 100
					} ],
				"SpeedConditions": [ {
						"MaxPackets": 0,
						"Speed": 100
					} ]
			}
		}, {
			"aliases": [ "Wave10" ],
			"objclass": "SpawnZombiesJitteredWaveActionProps",
			"objdata": {
				"Zombies": [ {
						"Row": "5",
						"Type": "RTID(chicken_farmer@ZombieTypes)"
					}, {
						"Row": "4",
						"Type": "RTID(chicken_farmer@ZombieTypes)"
					}, {
						"Row": "2",
						"Type": "RTID(chicken_farmer@ZombieTypes)"
					}, {
						"Row": "1",
						"Type": "RTID(chicken_farmer@ZombieTypes)"
					} ]
			}
		}, {
			"aliases": [ "Wave11" ],
			"objclass": "SpawnZombiesJitteredWaveActionProps",
			"objdata": {
				"AdditionalPlantfood": 2,
				"Zombies": [ {
						"Type": "RTID(chicken_farmer@ZombieTypes)"
					}, {
						"Type": "RTID(chicken_farmer@ZombieTypes)"
					} ]
			}
		}, {
			"aliases": [ "Wave12" ],
			"objclass": "SpawnZombiesJitteredWaveActionProps",
			"objdata": {
				"AdditionalPlantfood": 0,
				"Zombies": [ {
						"Type": "RTID(chicken_farmer@ZombieTypes)"
					}, {
						"Type": "RTID(chicken_farmer@ZombieTypes)"
					} ]
			}
		}, {
			"aliases": [ "Wave13" ],
			"objclass": "SpawnZombiesJitteredWaveActionProps",
			"objdata": {
				"AdditionalPlantfood": 2,
				"Zombies": [ {
						"Type": "RTID(chicken_farmer@ZombieTypes)"
					}, {
						"Type": "RTID(chicken_farmer@ZombieTypes)"
					} ]
			}
		}, {
			"aliases": [ "Wave14" ],
			"objclass": "SpawnZombiesJitteredWaveActionProps",
			"objdata": {
				"AdditionalPlantfood": 1,
				"Zombies": [ {
						"Type": "RTID(chicken_farmer@ZombieTypes)"
					}, {
						"Type": "RTID(chicken_farmer@ZombieTypes)"
					} ]
			}
		}, {
			"aliases": [ "Wave15" ],
			"objclass": "SpawnZombiesJitteredWaveActionProps",
			"objdata": {
				"Zombies": [ {
						"Row": "5",
						"Type": "RTID(chicken_farmer@ZombieTypes)"
					}, {
						"Row": "4",
						"Type": "RTID(chicken_farmer@ZombieTypes)"
					}, {
						"Row": "3",
						"Type": "RTID(chicken_farmer@ZombieTypes)"
					}, {
						"Row": "2",
						"Type": "RTID(chicken_farmer@ZombieTypes)"
					}, {
						"Row": "1",
						"Type": "RTID(chicken_farmer@ZombieTypes)"
					} ]
			}
		}, {
			"aliases": [ "Wave15StormEvent0" ],
			"objclass": "StormZombieSpawnerProps",
			"objdata": {
				"ColumnEnd": 5,
				"ColumnStart": 5,
				"GroupSize": 3,
				"TimeBetweenGroups": "3",
				"Type": "sandstorm",
				"Zombies": [ {
						"Type": "RTID(future_protector@ZombieTypes)"
					}, {
						"Type": "RTID(future_protector@ZombieTypes)"
					}, {
						"Type": "RTID(future_protector@ZombieTypes)"
					} ]
			}
		}, {
			"aliases": [ "Wave5StormEvent0" ],
			"objclass": "StormZombieSpawnerProps",
			"objdata": {
				"ColumnEnd": 6,
				"ColumnStart": 6,
				"GroupSize": 1,
				"TimeBetweenGroups": "3",
				"Type": "sandstorm",
				"Zombies": [ {
						"Type": "RTID(future_protector@ZombieTypes)"
					} ]
			}
		}, {
			"aliases": [ "Wave8ModConveyor0" ],
			"objclass": "ModifyConveyorWaveActionProps",
			"objdata": {
				"Add": [ {
						"MaxWeightFactor": 10,
						"MinWeightFactor": 0.1,
						"Type": "RTID(threepeater@PlantTypes)",
						"Weight": 20
					} ],
				"Remove": []
			}
		}, {
			"aliases": [ "Wave6ModConveyor0" ],
			"objclass": "ModifyConveyorWaveActionProps",
			"objdata": {
				"Add": [ {
						"MaxCount": 1,
						"MaxCountCooldownSeconds": 20,
						"MaxWeightFactor": 10,
						"MinWeightFactor": 0.1,
						"Type": "RTID(wallnut@PlantTypes)",
						"Weight": 80
					} ],
				"Remove": []
			}
		}, {
			"aliases": [ "Wave7StormEvent0" ],
			"objclass": "StormZombieSpawnerProps",
			"objdata": {
				"ColumnEnd": 6,
				"ColumnStart": 6,
				"GroupSize": 1,
				"TimeBetweenGroups": "3",
				"Type": "sandstorm",
				"Zombies": [ {
						"Type": "RTID(future_protector@ZombieTypes)"
					} ]
			}
		}, {
			"aliases": [ "Wave9StormEvent0" ],
			"objclass": "StormZombieSpawnerProps",
			"objdata": {
				"ColumnEnd": 6,
				"ColumnStart": 6,
				"GroupSize": "2",
				"TimeBetweenGroups": "3",
				"Type": "sandstorm",
				"Zombies": [ {
						"Type": "RTID(future_protector@ZombieTypes)"
					}, {
						"Type": "RTID(future_protector@ZombieTypes)"
					} ]
			}
		}, {
			"aliases": [ "Wave11StormEvent0" ],
			"objclass": "StormZombieSpawnerProps",
			"objdata": {
				"ColumnEnd": 6,
				"ColumnStart": 5,
				"GroupSize": 3,
				"TimeBetweenGroups": "3",
				"Type": "sandstorm",
				"Zombies": [ {
						"Type": "RTID(future_protector@ZombieTypes)"
					}, {
						"Type": "RTID(future_protector@ZombieTypes)"
					}, {
						"Type": "RTID(future_protector@ZombieTypes)"
					} ]
			}
		}, {
			"aliases": [ "Wave13StormEvent0" ],
			"objclass": "StormZombieSpawnerProps",
			"objdata": {
				"ColumnEnd": 6,
				"ColumnStart": 5,
				"GroupSize": "2",
				"TimeBetweenGroups": "3",
				"Type": "sandstorm",
				"Zombies": [ {
						"Type": "RTID(future_protector@ZombieTypes)"
					}, {
						"Type": "RTID(future_protector@ZombieTypes)"
					} ]
			}
		}, {
			"aliases": [ "PerkActivator" ],
			"objclass": "PerkHandlerModuleProperties",
			"objdata": {}
		}, {
			"aliases": [ "LevelMutator" ],
			"objclass": "LevelMutatorModuleProperties",
			"objdata": {
				"MutatorTables": [ "RTID(MutatorPropsRiftConveyor@LevelMutatorTables)", "RTID(LocalChallengeMutator@CurrentLevel)", "RTID(LocalMainChallengeMutator@CurrentLevel)" ]
			}
		}, {
			"aliases": [ "LocalMainChallengeMutator" ],
			"objclass": "LevelMutatorTableProps",
			"objdata": {
				"Tables": [ {
						"Level": 0,
						"ModuleType": "mainchallenge",
						"Modules": [ "RTID(RiftBeatTheLevelChallenge@LevelModules)" ]
					}, {
						"Level": 1,
						"ModuleType": "mainchallenge",
						"Modules": [ "RTID(RiftBeatTheLevelChallenge@LevelModules)" ]
					}, {
						"Level": 2,
						"ModuleType": "mainchallenge",
						"Modules": [ "RTID(RiftBeatTheLevelChallenge@LevelModules)" ]
					} ]
			}
		}, {
			"aliases": [ "LocalChallengeMutator" ],
			"objclass": "LevelMutatorTableProps",
			"objdata": {
				"Tables": [ {
						"Level": 0,
						"ModuleType": "bonuschallenge",
						"Modules": [ "RTID(ProtectThePlant@CurrentLevel)" ]
					}, {
						"Level": 1,
						"ModuleType": "bonuschallenge",
						"Modules": [ "RTID(ProtectThePlant@CurrentLevel)", "RTID(ApplyZombieConditions2@CurrentLevel)" ]
					}, {
						"Level": 2,
						"ModuleType": "bonuschallenge",
						"Modules": [ "RTID(ProtectThePlant@CurrentLevel)", "RTID(ApplyZombieConditions3@CurrentLevel)" ]
					} ]
			}
		}, {
			"aliases": [ "ProtectThePlant" ],
			"objclass": "ProtectThePlantChallengeProperties",
			"objdata": {
				"MustProtectCount": 1,
				"Plants": [ {
						"GridX": 0,
						"GridY": 2,
						"PlantType": "kernelpult"
					} ]
			}
		}, {
			"aliases": [ "ApplyZombieConditions2" ],
			"objclass": "ApplyZombieConditionsChallengeProps",
			"objdata": {
				"ConditionToInflict": [ "butter" ],
				"NumZombieConditionsToApply": 100
			}
		}, {
			"aliases": [ "ApplyZombieConditions3" ],
			"objclass": "ApplyZombieConditionsChallengeProps",
			"objdata": {
				"ConditionToInflict": [ "butter" ],
				"NumZombieConditionsToApply": 100
			}
		}, {
			"aliases": [ "LevelDifficultyScaling" ],
			"objclass": "LevelDifficultyScalingModuleProperties",
			"objdata": {
				"DifficultyRulesType": "RiftDifficulty",
				"ZombieLevelSwaps": [ {
						"Level": 0,
						"Swaps": [ {
								"From": "RTID(tutorial@ZombieTypes)",
								"To": [ "RTID(tutorial@ZombieTypes)" ]
							}, {
								"From": "RTID(tutorial_armor1@ZombieTypes)",
								"To": [ "RTID(tutorial_armor1@ZombieTypes)" ]
							} ]
					}, {
						"Level": 3,
						"Swaps": [ {
								"From": "RTID(tutorial@ZombieTypes)",
								"To": [ "RTID(tutorial_armor1@ZombieTypes)" ]
							}, {
								"From": "RTID(tutorial_armor1@ZombieTypes)",
								"To": [ "RTID(tutorial_armor2@ZombieTypes)" ]
							} ]
					}, {
						"Level": 6,
						"Swaps": [ {
								"From": "RTID(tutorial@ZombieTypes)",
								"To": [ "RTID(tutorial_armor2@ZombieTypes)" ]
							}, {
								"From": "RTID(tutorial_armor1@ZombieTypes)",
								"To": [ "RTID(tutorial_armor2@ZombieTypes)" ]
							} ]
					} ]
			}
		} ],
	"version": 1
}