{
	"#comment": "Rift 1B node 14 - Eighties 25 v1",
	"objects": [ {
			"objclass": "LevelDefinition",
			"objdata": {
				"Description": "[PLAYERS_TRIP_TO_RIFT]",
				"DisablePlantBoosts": false,
				"LevelMutator": "RTID(LevelMutator@CurrentLevel)",
				"LevelNumber": "",
				"Loot": "",
				"DoMusicChanges": false,
				"Modules": [ "RTID(DefaultSunDropper@LevelModules)", "RTID(StandardRiftIntro@LevelModules)", "RTID(ZombiesDeadWinCon@LevelModules)", "RTID(EightiesMowers@LevelModules)", "RTID(SeedBank@CurrentLevel)", "RTID(DefaultZombieWinCondition@LevelModules)", "RTID(NewWaves@CurrentLevel)", "RTID(PerkActivator@CurrentLevel)", "RTID(LevelDifficultyScaling@CurrentLevel)" ],
				"MusicType": "MiniGame_A",
				"Name": "[RIFT_LEVEL_NAME]",
				"NormalPresentTable": "egypt_normal_01",
				"ShinyPresentTable": "egypt_shiny_01",
				"StageModule": "RTID(EightiesStage@LevelModules)",
				"VictoryModule": "RTID(RiftOutro@LevelModules)",
				"PerksDisabledInLevel": [ "moarscore", "bossbustercannon" ],
				"PerksDisabledPerDifficulty": [ [ "zombieinhibitorballista" ], [], [] ]
			}
		}, {
			"aliases": [ "PerkActivator" ],
			"objclass": "PerkHandlerModuleProperties",
			"objdata": {}
		}, {
			"aliases": [ "LevelMutator" ],
			"objclass": "LevelMutatorModuleProperties",
			"objdata": {
				"MutatorTables": [ "RTID(MutatorPropsRiftNormal@LevelMutatorTables)", "RTID(LocalChallengeMutator@CurrentLevel)", "RTID(LocalMainChallengeMutator@CurrentLevel)" ]
			}
		}, {
			"aliases": [ "LocalMainChallengeMutator" ],
			"objclass": "LevelMutatorTableProps",
			"objdata": {
				"Tables": [ {
						"Level": 0,
						"Modules": [ "RTID(BeatTheLevel@CurrentLevel)" ],
						"ModuleType": "mainchallenge"
					}, {
						"Level": 1,
						"Modules": [ "RTID(BeatTheLevel@CurrentLevel)" ],
						"ModuleType": "mainchallenge"
					}, {
						"Level": 2,
						"Modules": [ "RTID(BeatTheLevel@CurrentLevel)" ],
						"ModuleType": "mainchallenge"
					} ]
			}
		}, {
			"aliases": [ "BeatTheLevel" ],
			"objclass": "StarChallengeBeatTheLevelProps",
			"objdata": {
				"Description": "[STARCHALLENGE_RIFT_NORMAL]",
				"DescriptiveName": "[STARCHALLENGE_RIFT_NORMAL_NAME]"
			}
		}, {
			"aliases": [ "LocalChallengeMutator" ],
			"objclass": "LevelMutatorTableProps",
			"objdata": {
				"Tables": [ {
						"Level": 0,
						"ModuleType": "bonuschallenge",
						"Modules": [ "RTID(ApplyZombieConditions1@CurrentLevel)" ]
					}, {
						"Level": 1,
						"ModuleType": "bonuschallenge",
						"Modules": [ "RTID(ApplyZombieConditions2@CurrentLevel)", "RTID(PlantsLost2@CurrentLevel)" ]
					}, {
						"Level": 2,
						"ModuleType": "bonuschallenge",
						"Modules": [ "RTID(ApplyZombieConditions3@CurrentLevel)", "RTID(PlantsLost3@CurrentLevel)" ]
					} ]
			}
		}, {
			"aliases": [ "PlantsLost2" ],
			"objclass": "StarChallengePlantsLostProps",
			"objdata": {
				"MaximumPlantsLost": 4
			}
		}, {
			"aliases": [ "PlantsLost3" ],
			"objclass": "StarChallengePlantsLostProps",
			"objdata": {
				"MaximumPlantsLost": 3
			}
		}, {
			"aliases": [ "ApplyZombieConditions1" ],
			"objclass": "ApplyZombieConditionsChallengeProps",
			"objdata": {
				"ConditionToInflict": [ "shrunken" ],
				"NumZombieConditionsToApply": 35
			}
		}, {
			"aliases": [ "ApplyZombieConditions2" ],
			"objclass": "ApplyZombieConditionsChallengeProps",
			"objdata": {
				"ConditionToInflict": [ "shrunken" ],
				"NumZombieConditionsToApply": 45
			}
		}, {
			"aliases": [ "ApplyZombieConditions3" ],
			"objclass": "ApplyZombieConditionsChallengeProps",
			"objdata": {
				"ConditionToInflict": [ "shrunken" ],
				"NumZombieConditionsToApply": 55
			}
		}, {
			"aliases": [ "LevelDifficultyScaling" ],
			"objclass": "LevelDifficultyScalingModuleProperties",
			"objdata": {
				"DifficultyRulesType": "RiftDifficulty",
				"ZombieLevelSwaps": [ {
						"Level": 0,
						"Swaps": [ {
								"From": "RTID(eighties@ZombieTypes)",
								"To": [ "RTID(roman@ZombieTypes)", "RTID(roman_imp@ZombieTypes)" ]
							}, {
								"From": "RTID(eighties_armor1@ZombieTypes)",
								"To": [ "RTID(roman@ZombieTypes)", "RTID(spring_armor1@ZombieTypes)" ]
							}, {
								"From": "RTID(eighties_armor2@ZombieTypes)",
								"To": [ "RTID(roman_armor1@ZombieTypes)", "RTID(roman_armor2@ZombieTypes)" ]
							}, {
								"From": "RTID(roman_gargantuar@ZombieTypes)",
								"To": [ "RTID(spring_gargantuar@ZombieTypes)" ]
							} ]
					}, {
						"Level": 4,
						"Swaps": [ {
								"From": "RTID(eighties@ZombieTypes)",
								"To": [ "RTID(roman@ZombieTypes)", "RTID(roman_imp@ZombieTypes)", "RTID(roman_armor1@ZombieTypes)" ]
							}, {
								"From": "RTID(eighties_armor1@ZombieTypes)",
								"To": [ "RTID(spring_armor1@ZombieTypes)", "RTID(roman_armor2@ZombieTypes)" ]
							}, {
								"From": "RTID(eighties_armor2@ZombieTypes)",
								"To": [ "RTID(roman_shield_triad@ZombieTypes)", "RTID(roman_armor2@ZombieTypes)" ]
							}, {
								"From": "RTID(roman_gargantuar@ZombieTypes)",
								"To": [ "RTID(roman_gargantuar@ZombieTypes)", "RTID(roman_ballista@ZombieTypes)", "RTID(spring_gargantuar@ZombieTypes)" ]
							} ]
					}, {
						"Level": 7,
						"Swaps": [ {
								"From": "RTID(eighties@ZombieTypes)",
								"To": [ "RTID(roman@ZombieTypes)", "RTID(roman_armor1@ZombieTypes)", "RTID(spring_armor1@ZombieTypes)" ]
							}, {
								"From": "RTID(eighties_armor1@ZombieTypes)",
								"To": [ "RTID(roman_armor2@ZombieTypes)", "RTID(spring_armor1@ZombieTypes)", "RTID(roman_armor2@ZombieTypes)" ]
							}, {
								"From": "RTID(eighties_armor2@ZombieTypes)",
								"To": [ "RTID(roman_armor2@ZombieTypes)", "RTID(spring_armor2@ZombieTypes)", "RTID(roman_armor3@ZombieTypes)", "RTID(roman_shield_triad@ZombieTypes)", "RTID(roman_shield_triad@ZombieTypes)", "RTID(roman_shield_triad@ZombieTypes)", "RTID(roman_gargantuar@ZombieTypes)" ]
							}, {
								"From": "RTID(roman_gargantuar@ZombieTypes)",
								"To": [ "RTID(roman_gargantuar@ZombieTypes)", "RTID(roman_ballista@ZombieTypes)" ]
							} ]
					} ]
			}
		}, {
			"aliases": [ "SeedBank" ],
			"objclass": "SeedBankProperties",
			"objdata": {
				"PresetPlantList": [],
				"SelectionMethod": "chooser"
			}
		}, {
			"aliases": [ "NewWaves" ],
			"objclass": "WaveManagerModuleProperties",
			"objdata": {
				"DynamicZombies": [ {
						"PointIncrementPerWave": 0,
						"StartingPoints": 0,
						"StartingWave": 0,
						"ZombiePool": [ "RTID(roman@ZombieTypes)", "RTID(roman_armor1@ZombieTypes)", "RTID(roman_armor2@ZombieTypes)", "RTID(roman_gargantuar@ZombieTypes)", "RTID(roman_shield_triad@ZombieTypes)" ]
					}, {
						"PointIncrementPerWave": 0,
						"StartingPoints": 0,
						"StartingWave": 0,
						"ZombiePool": [ "RTID(roman@ZombieTypes)", "RTID(roman_armor1@ZombieTypes)", "RTID(roman_armor2@ZombieTypes)", "RTID(roman_gargantuar@ZombieTypes)", "RTID(roman_shield_triad@ZombieTypes)" ]
					}, {
						"PointIncrementPerWave": 0,
						"StartingPoints": 0,
						"StartingWave": 0,
						"ZombiePool": [ "RTID(roman@ZombieTypes)", "RTID(roman_armor1@ZombieTypes)", "RTID(roman_armor2@ZombieTypes)", "RTID(roman_gargantuar@ZombieTypes)", "RTID(roman_shield_triad@ZombieTypes)" ]
					}, {
						"PointIncrementPerWave": 175,
						"StartingPoints": 50,
						"StartingWave": 0,
						"ZombiePool": [ "RTID(roman@ZombieTypes)", "RTID(roman_armor1@ZombieTypes)", "RTID(roman_armor2@ZombieTypes)", "RTID(roman_gargantuar@ZombieTypes)", "RTID(roman_shield_triad@ZombieTypes)" ]
					}, {
						"PointIncrementPerWave": 0,
						"StartingPoints": 0,
						"StartingWave": 0,
						"ZombiePool": [ "RTID(roman@ZombieTypes)", "RTID(roman_armor1@ZombieTypes)", "RTID(roman_armor2@ZombieTypes)", "RTID(roman_gargantuar@ZombieTypes)", "RTID(roman_shield_triad@ZombieTypes)" ]
					}, {
						"PointIncrementPerWave": 0,
						"StartingPoints": 0,
						"StartingWave": 0,
						"ZombiePool": [ "RTID(roman@ZombieTypes)", "RTID(roman_armor1@ZombieTypes)", "RTID(roman_armor2@ZombieTypes)", "RTID(roman_gargantuar@ZombieTypes)", "RTID(roman_shield_triad@ZombieTypes)" ]
					}, {
						"PointIncrementPerWave": 0,
						"StartingPoints": 0,
						"StartingWave": 0,
						"ZombiePool": [ "RTID(roman@ZombieTypes)", "RTID(roman_armor1@ZombieTypes)", "RTID(roman_armor2@ZombieTypes)", "RTID(roman_gargantuar@ZombieTypes)", "RTID(roman_shield_triad@ZombieTypes)" ]
					} ],
				"WaveManagerProps": "RTID(WaveManagerProps@CurrentLevel)"
			}
		}, {
			"aliases": [ "WaveManagerProps" ],
			"objclass": "WaveManagerProperties",
			"objdata": {
				"FlagWaveInterval": 10,
				"WaveCount": 10,
				"WaveSpendingPointIncrement": 150,
				"WaveSpendingPoints": 200,
				"Waves": [ [ "RTID(Wave1@CurrentLevel)" ], [ "RTID(Wave2@CurrentLevel)" ], [ "RTID(Wave3@CurrentLevel)" ], [ "RTID(Wave4@CurrentLevel)" ], [ "RTID(Wave5@CurrentLevel)" ], [ "RTID(Wave6@CurrentLevel)" ], [ "RTID(Wave7@CurrentLevel)" ], [ "RTID(Wave8@CurrentLevel)" ], [ "RTID(Wave9@CurrentLevel)" ], [ "RTID(Wave10@CurrentLevel)" ] ],
				"WavesAlwaysRandomized": true
			}
		}, {
			"aliases": [ "Wave1" ],
			"objclass": "SpawnZombiesJitteredWaveActionProps",
			"objdata": {
				"NotificationEvents": [ "jam_pop" ],
				"Zombies": [ {
						"Type": "RTID(eighties_armor1@ZombieTypes)"
					} ]
			}
		}, {
			"aliases": [ "Wave2" ],
			"objclass": "SpawnZombiesJitteredWaveActionProps",
			"objdata": {
				"Zombies": [ {
						"Row": "2",
						"Type": "RTID(eighties_glitter@ZombieTypes)"
					}, {
						"Row": "2",
						"Type": "RTID(eighties_imp@ZombieTypes)"
					}, {
						"Row": "2",
						"Type": "RTID(eighties_imp@ZombieTypes)"
					}, {
						"Row": "2",
						"Type": "RTID(eighties_imp@ZombieTypes)"
					} ]
			}
		}, {
			"aliases": [ "Wave3" ],
			"objclass": "SpawnZombiesJitteredWaveActionProps",
			"objdata": {
				"AdditionalPlantfood": 1,
				"Zombies": [ {
						"Row": "4",
						"Type": "RTID(eighties_glitter@ZombieTypes)"
					}, {
						"Row": "4",
						"Type": "RTID(eighties_armor1@ZombieTypes)"
					} ]
			}
		}, {
			"aliases": [ "Wave4" ],
			"objclass": "SpawnZombiesJitteredWaveActionProps",
			"objdata": {
				"Zombies": [ {
						"Row": "4",
						"Type": "RTID(eighties_mc@ZombieTypes)"
					}, {
						"Row": "5",
						"Type": "RTID(eighties_glitter@ZombieTypes)"
					}, {
						"Row": "5",
						"Type": "RTID(eighties_mc@ZombieTypes)"
					} ]
			}
		}, {
			"aliases": [ "Wave5" ],
			"objclass": "SpawnZombiesJitteredWaveActionProps",
			"objdata": {
				"NotificationEvents": [ "jam_rap" ],
				"Zombies": [ {
						"Row": "5",
						"Type": "RTID(eighties@ZombieTypes)"
					}, {
						"Row": "5",
						"Type": "RTID(eighties_breakdancer@ZombieTypes)"
					}, {
						"Row": "4",
						"Type": "RTID(eighties@ZombieTypes)"
					}, {
						"Row": "4",
						"Type": "RTID(eighties_breakdancer@ZombieTypes)"
					} ]
			}
		}, {
			"aliases": [ "Wave6" ],
			"objclass": "SpawnZombiesJitteredWaveActionProps",
			"objdata": {
				"Zombies": [ {
						"Row": "4",
						"Type": "RTID(eighties_mc@ZombieTypes)"
					}, {
						"Row": "3",
						"Type": "RTID(eighties_mc@ZombieTypes)"
					}, {
						"Row": "2",
						"Type": "RTID(eighties_mc@ZombieTypes)"
					}, {
						"Row": "1",
						"Type": "RTID(eighties_mc@ZombieTypes)"
					} ]
			}
		}, {
			"aliases": [ "Wave7" ],
			"objclass": "SpawnZombiesJitteredWaveActionProps",
			"objdata": {
				"Zombies": [ {
						"Row": "3",
						"Type": "RTID(eighties_breakdancer@ZombieTypes)"
					}, {
						"Row": "5",
						"Type": "RTID(eighties_armor2@ZombieTypes)"
					}, {
						"Row": "5",
						"Type": "RTID(eighties_breakdancer@ZombieTypes)"
					}, {
						"Row": "1",
						"Type": "RTID(eighties_armor2@ZombieTypes)"
					}, {
						"Row": "1",
						"Type": "RTID(eighties_breakdancer@ZombieTypes)"
					} ]
			}
		}, {
			"aliases": [ "Wave8" ],
			"objclass": "SpawnZombiesJitteredWaveActionProps",
			"objdata": {
				"NotificationEvents": [ "jam_8bit" ],
				"Zombies": [ {
						"Row": "4",
						"Type": "RTID(eighties_armor1@ZombieTypes)"
					}, {
						"Row": "4",
						"Type": "RTID(eighties_arcade@ZombieTypes)"
					}, {
						"Row": "3",
						"Type": "RTID(eighties_armor1@ZombieTypes)"
					}, {
						"Row": "3",
						"Type": "RTID(eighties_arcade@ZombieTypes)"
					}, {
						"Row": "2",
						"Type": "RTID(eighties_armor1@ZombieTypes)"
					}, {
						"Row": "2",
						"Type": "RTID(eighties_arcade@ZombieTypes)"
					} ]
			}
		}, {
			"aliases": [ "Wave9" ],
			"objclass": "SpawnZombiesJitteredWaveActionProps",
			"objdata": {
				"Zombies": [ {
						"Row": "5",
						"Type": "RTID(eighties_arcade@ZombieTypes)"
					}, {
						"Row": "1",
						"Type": "RTID(eighties_arcade@ZombieTypes)"
					}, {
						"Row": "3",
						"Type": "RTID(eighties_armor2@ZombieTypes)"
					}, {
						"Row": "3",
						"Type": "RTID(eighties_armor2@ZombieTypes)"
					} ]
			}
		}, {
			"aliases": [ "Wave10" ],
			"objclass": "SpawnZombiesJitteredWaveActionProps",
			"objdata": {
				"NotificationEvents": [ "jam_punk" ],
				"Zombies": [ {
						"Row": "5",
						"Type": "RTID(eighties_armor1@ZombieTypes)"
					}, {
						"Row": "5",
						"Type": "RTID(eighties_punk@ZombieTypes)"
					}, {
						"Row": "5",
						"Type": "RTID(eighties_punk@ZombieTypes)"
					}, {
						"Row": "4",
						"Type": "RTID(eighties_armor1@ZombieTypes)"
					}, {
						"Row": "4",
						"Type": "RTID(eighties_punk@ZombieTypes)"
					}, {
						"Row": "4",
						"Type": "RTID(eighties_punk@ZombieTypes)"
					}, {
						"Row": "3",
						"Type": "RTID(eighties_armor1@ZombieTypes)"
					}, {
						"Row": "3",
						"Type": "RTID(eighties_punk@ZombieTypes)"
					}, {
						"Row": "3",
						"Type": "RTID(eighties_punk@ZombieTypes)"
					}, {
						"Row": "2",
						"Type": "RTID(eighties_armor1@ZombieTypes)"
					}, {
						"Row": "2",
						"Type": "RTID(eighties_punk@ZombieTypes)"
					}, {
						"Row": "2",
						"Type": "RTID(eighties_punk@ZombieTypes)"
					}, {
						"Row": "1",
						"Type": "RTID(eighties_armor1@ZombieTypes)"
					}, {
						"Row": "1",
						"Type": "RTID(eighties_punk@ZombieTypes)"
					}, {
						"Row": "1",
						"Type": "RTID(eighties_punk@ZombieTypes)"
					} ]
			}
		} ],
	"version": 1
}