{
	"#comment": "Lost City 15 v1",
	"objects": [ {
			"objclass": "LevelDefinition",
			"objdata": {
				"Description": "[PLAYERS_TRIP_TO_RIFT]",
				"DisablePlantBoosts": false,
				"LevelNumber": "",
				"Loot": "",
				"Modules": [ "RTID(DefaultSunDropper@LevelModules)", "RTID(StandardRiftIntro@LevelModules)", "RTID(LostCityMowers@LevelModules)", "RTID(DefaultZombieWinCondition@LevelModules)", "RTID(ZombiesDeadWinCon@LevelModules)", "RTID(GoldTiles@CurrentLevel)", "RTID(SeedBank@CurrentLevel)", "RTID(NewWaves@CurrentLevel)", "RTID(PerkActivator@CurrentLevel)", "RTID(LevelDifficultyScaling@CurrentLevel)" ],
				"MusicType": "MiniGame_A",
				"Name": "[RIFT_LEVEL_NAME]",
				"NormalPresentTable": "egypt_normal_01",
				"ShinyPresentTable": "egypt_shiny_01",
				"VictoryModule": "RTID(RiftOutro@LevelModules)",
				"StageModule": "RTID(LostCityStage@LevelModules)",
				"LevelMutator": "RTID(LevelMutator@CurrentLevel)",
				"PerksDisabledInLevel": [ "moarscore", "bossbustercannon", "zombieinhibitorgargantuar" ],
				"PerksDisabledPerDifficulty": [ [], [], [] ]
			}
		}, {
			"aliases": [ "PerkActivator" ],
			"objclass": "PerkHandlerModuleProperties",
			"objdata": {}
		}, {
			"aliases": [ "LevelMutator" ],
			"objclass": "LevelMutatorModuleProperties",
			"objdata": {
				"MutatorTables": [ "RTID(MutatorPropsRiftNormal@LevelMutatorTables)", "RTID(LocalChallengeMutator@CurrentLevel)", "RTID(LocalMainChallengeMutator@CurrentLevel)" ]
			}
		}, {
			"aliases": [ "LocalMainChallengeMutator" ],
			"objclass": "LevelMutatorTableProps",
			"objdata": {
				"Tables": [ {
						"Level": 0,
						"Modules": [ "RTID(BeatTheLevel@CurrentLevel)" ],
						"ModuleType": "mainchallenge"
					}, {
						"Level": 1,
						"Modules": [ "RTID(BeatTheLevel@CurrentLevel)" ],
						"ModuleType": "mainchallenge"
					}, {
						"Level": 2,
						"Modules": [ "RTID(BeatTheLevel@CurrentLevel)" ],
						"ModuleType": "mainchallenge"
					} ]
			}
		}, {
			"aliases": [ "LocalChallengeMutator" ],
			"objclass": "LevelMutatorTableProps",
			"objdata": {
				"Tables": [ {
						"Level": 0,
						"Modules": [ "RTID(ProtectThePlant@CurrentLevel)" ],
						"ModuleType": "bonuschallenge"
					}, {
						"Level": 1,
						"Modules": [ "RTID(ProtectThePlant@CurrentLevel)", "RTID(ZombieDistance2@CurrentLevel)" ],
						"ModuleType": "bonuschallenge"
					}, {
						"Level": 2,
						"Modules": [ "RTID(ProtectThePlant@CurrentLevel)", "RTID(ZombieDistance3@CurrentLevel)" ],
						"ModuleType": "bonuschallenge"
					} ]
			}
		}, {
			"aliases": [ "ZombieDistance2" ],
			"objclass": "StarChallengeZombieDistanceProps",
			"objdata": {
				"TargetDistance": 2
			}
		}, {
			"aliases": [ "ZombieDistance3" ],
			"objclass": "StarChallengeZombieDistanceProps",
			"objdata": {
				"TargetDistance": 4
			}
		}, {
			"aliases": [ "LevelDifficultyScaling" ],
			"objclass": "LevelDifficultyScalingModuleProperties",
			"objdata": {
				"DifficultyRulesType": "RiftDifficulty",
				"ZombieLevelSwaps": [ {
						"Level": 0,
						"Swaps": [ {
								"From": "RTID(lostcity@ZombieTypes)",
								"To": [ "RTID(roman@ZombieTypes)" ]
							}, {
								"From": "RTID(lostcity_armor1@ZombieTypes)",
								"To": [ "RTID(roman_armor1@ZombieTypes)" ]
							}, {
								"From": "RTID(lostcity_armor2@ZombieTypes)",
								"To": [ "RTID(roman_armor2@ZombieTypes)" ]
							} ]
					}, {
						"Level": 4,
						"Swaps": [ {
								"From": "RTID(lostcity@ZombieTypes)",
								"To": [ "RTID(roman@ZombieTypes)" ]
							}, {
								"From": "RTID(lostcity_armor1@ZombieTypes)",
								"To": [ "RTID(roman_armor1@ZombieTypes)" ]
							}, {
								"From": "RTID(lostcity_armor2@ZombieTypes)",
								"To": [ "RTID(roman_armor2@ZombieTypes)" ]
							} ]
					}, {
						"Level": 7,
						"Swaps": [ {
								"From": "RTID(lostcity@ZombieTypes)",
								"To": [ "RTID(roman@ZombieTypes)" ]
							}, {
								"From": "RTID(lostcity_armor1@ZombieTypes)",
								"To": [ "RTID(roman_armor1@ZombieTypes)" ]
							}, {
								"From": "RTID(lostcity_armor2@ZombieTypes)",
								"To": [ "RTID(roman_armor2@ZombieTypes)" ]
							} ]
					} ]
			}
		}, {
			"aliases": [ "GoldTiles" ],
			"objclass": "InitialGridItemProperties",
			"objdata": {
				"InitialGridItemPlacements": [ {
						"GridX": 1,
						"GridY": 0,
						"TypeName": "goldtile"
					}, {
						"GridX": 0,
						"GridY": 1,
						"TypeName": "goldtile"
					}, {
						"GridX": 1,
						"GridY": 2,
						"TypeName": "goldtile"
					}, {
						"GridX": 0,
						"GridY": 3,
						"TypeName": "goldtile"
					}, {
						"GridX": 1,
						"GridY": 4,
						"TypeName": "goldtile"
					} ]
			}
		}, {
			"aliases": [ "BeatTheLevel" ],
			"objclass": "StarChallengeBeatTheLevelProps",
			"objdata": {
				"Description": "[STARCHALLENGE_RIFT_NORMAL]",
				"DescriptiveName": "[STARCHALLENGE_RIFT_NORMAL_NAME]"
			}
		}, {
			"aliases": [ "ProtectThePlant" ],
			"objclass": "ProtectThePlantChallengeProperties",
			"objdata": {
				"MustProtectCount": 2,
				"Plants": [ {
						"GridX": 2,
						"GridY": 0,
						"PlantType": "akee"
					}, {
						"GridX": 3,
						"GridY": 4,
						"PlantType": "akee"
					} ]
			}
		}, {
			"aliases": [ "SeedBank" ],
			"objclass": "SeedBankProperties",
			"objdata": {
				"SelectionMethod": "chooser"
			}
		}, {
			"aliases": [ "NewWaves" ],
			"objclass": "WaveManagerModuleProperties",
			"objdata": {
				"DynamicZombies": [ {
						"PointIncrementPerWave": -40,
						"StartingPoints": -100,
						"StartingWave": 3,
						"ZombiePool": [ "RTID(lostcity@ZombieTypes)", "RTID(lostcity_armor1@ZombieTypes)", "RTID(lostcity_armor2@ZombieTypes)" ]
					}, {
						"PointIncrementPerWave": -25,
						"StartingPoints": -100,
						"StartingWave": 4,
						"ZombiePool": [ "RTID(lostcity@ZombieTypes)", "RTID(lostcity_armor1@ZombieTypes)", "RTID(lostcity_armor2@ZombieTypes)" ]
					}, {
						"PointIncrementPerWave": -10,
						"StartingPoints": -100,
						"StartingWave": 5,
						"ZombiePool": [ "RTID(lostcity@ZombieTypes)", "RTID(lostcity_armor1@ZombieTypes)", "RTID(lostcity_armor2@ZombieTypes)" ]
					}, {}, {
						"PointIncrementPerWave": 20,
						"StartingPoints": 100,
						"StartingWave": 5,
						"ZombiePool": [ "RTID(lostcity@ZombieTypes)", "RTID(lostcity_armor1@ZombieTypes)", "RTID(lostcity_armor2@ZombieTypes)" ]
					}, {
						"PointIncrementPerWave": 40,
						"StartingPoints": 200,
						"StartingWave": 4,
						"ZombiePool": [ "RTID(lostcity@ZombieTypes)", "RTID(lostcity_armor1@ZombieTypes)", "RTID(lostcity_armor2@ZombieTypes)" ]
					}, {
						"PointIncrementPerWave": 60,
						"StartingPoints": 400,
						"StartingWave": 3,
						"ZombiePool": [ "RTID(lostcity@ZombieTypes)", "RTID(lostcity_armor2@ZombieTypes)" ]
					} ],
				"WaveManagerProps": "RTID(WaveManagerProps@CurrentLevel)"
			}
		}, {
			"aliases": [ "WaveManagerProps" ],
			"objclass": "WaveManagerProperties",
			"objdata": {
				"FlagWaveInterval": 4,
				"WaveCount": 12,
				"WaveSpendingPointIncrement": 50,
				"WaveSpendingPoints": 100,
				"Waves": [ [ "RTID(Wave1@CurrentLevel)" ], [ "RTID(Wave2@CurrentLevel)" ], [ "RTID(Wave3@CurrentLevel)" ], [ "RTID(Wave4@CurrentLevel)" ], [ "RTID(Wave5@CurrentLevel)" ], [ "RTID(Wave6@CurrentLevel)" ], [ "RTID(Wave7@CurrentLevel)" ], [ "RTID(Wave8@CurrentLevel)" ], [ "RTID(Wave9@CurrentLevel)" ], [ "RTID(Wave10@CurrentLevel)" ], [ "RTID(Wave11@CurrentLevel)" ], [ "RTID(Wave12@CurrentLevel)" ] ]
			}
		}, {
			"aliases": [ "Wave1" ],
			"objclass": "SpawnZombiesJitteredWaveActionProps",
			"objdata": {
				"Zombies": [ {
						"Row": "2",
						"Type": "RTID(lostcity@ZombieTypes)"
					} ]
			}
		}, {
			"aliases": [ "Wave2" ],
			"objclass": "SpawnZombiesJitteredWaveActionProps",
			"objdata": {
				"Zombies": [ {
						"Row": "1",
						"Type": "RTID(lostcity@ZombieTypes)"
					}, {
						"Row": "5",
						"Type": "RTID(lostcity@ZombieTypes)"
					} ]
			}
		}, {
			"aliases": [ "Wave3" ],
			"objclass": "SpawnZombiesJitteredWaveActionProps",
			"objdata": {
				"AdditionalPlantfood": 1,
				"Zombies": [ {
						"Row": "4",
						"Type": "RTID(lostcity_armor1@ZombieTypes)"
					} ]
			}
		}, {
			"aliases": [ "Wave4" ],
			"objclass": "SpawnZombiesJitteredWaveActionProps",
			"objdata": {
				"Zombies": [ {
						"Row": "4",
						"Type": "RTID(lostcity@ZombieTypes)"
					}, {
						"Row": "3",
						"Type": "RTID(lostcity_armor2@ZombieTypes)"
					}, {
						"Row": "2",
						"Type": "RTID(lostcity_armor1@ZombieTypes)"
					} ]
			}
		}, {
			"aliases": [ "Wave5" ],
			"objclass": "SpawnZombiesJitteredWaveActionProps",
			"objdata": {
				"Zombies": [ {
						"Row": "1",
						"Type": "RTID(lostcity_excavator@ZombieTypes)"
					}, {
						"Row": "5",
						"Type": "RTID(lostcity_excavator@ZombieTypes)"
					} ]
			}
		}, {
			"aliases": [ "Wave6" ],
			"objclass": "SpawnZombiesJitteredWaveActionProps",
			"objdata": {
				"Zombies": [ {
						"Row": "2",
						"Type": "RTID(lostcity_jane@ZombieTypes)"
					}, {
						"Row": "3",
						"Type": "RTID(lostcity@ZombieTypes)"
					} ]
			}
		}, {
			"aliases": [ "Wave7" ],
			"objclass": "SpawnZombiesJitteredWaveActionProps",
			"objdata": {
				"AdditionalPlantfood": 1,
				"Zombies": [ {
						"Row": "5",
						"Type": "RTID(lostcity_excavator@ZombieTypes)"
					}, {
						"Row": "5",
						"Type": "RTID(lostcity@ZombieTypes)"
					} ]
			}
		}, {
			"aliases": [ "Wave8" ],
			"objclass": "SpawnZombiesJitteredWaveActionProps",
			"objdata": {
				"AdditionalPlantfood": 0,
				"Zombies": [ {
						"Row": "4",
						"Type": "RTID(lostcity_bug@ZombieTypes)"
					}, {
						"Row": "3",
						"Type": "RTID(lostcity_armor1@ZombieTypes)"
					}, {
						"Row": "2",
						"Type": "RTID(lostcity_bug@ZombieTypes)"
					}, {
						"Row": "5",
						"Type": "RTID(lostcity_excavator@ZombieTypes)"
					}, {
						"Row": "1",
						"Type": "RTID(lostcity_excavator@ZombieTypes)"
					} ]
			}
		}, {
			"aliases": [ "Wave9" ],
			"objclass": "SpawnZombiesJitteredWaveActionProps",
			"objdata": {
				"Zombies": [ {
						"Row": "1",
						"Type": "RTID(lostcity_armor1@ZombieTypes)"
					}, {
						"Row": "5",
						"Type": "RTID(lostcity_armor1@ZombieTypes)"
					}, {
						"Row": "2",
						"Type": "RTID(lostcity@ZombieTypes)"
					} ]
			}
		}, {
			"aliases": [ "Wave10" ],
			"objclass": "SpawnZombiesJitteredWaveActionProps",
			"objdata": {
				"Zombies": [ {
						"Row": "1",
						"Type": "RTID(lostcity_armor2@ZombieTypes)"
					}, {
						"Row": "5",
						"Type": "RTID(lostcity@ZombieTypes)"
					} ]
			}
		}, {
			"aliases": [ "Wave11" ],
			"objclass": "SpawnZombiesJitteredWaveActionProps",
			"objdata": {
				"AdditionalPlantfood": 1,
				"Zombies": [ {
						"Row": "4",
						"Type": "RTID(lostcity_jane@ZombieTypes)"
					}, {
						"Row": "2",
						"Type": "RTID(lostcity_jane@ZombieTypes)"
					} ]
			}
		}, {
			"aliases": [ "Wave12" ],
			"objclass": "SpawnZombiesJitteredWaveActionProps",
			"objdata": {
				"AdditionalPlantfood": 0,
				"Zombies": [ {
						"Row": "5",
						"Type": "RTID(lostcity_bug@ZombieTypes)"
					}, {
						"Row": "4",
						"Type": "RTID(lostcity_armor1@ZombieTypes)"
					}, {
						"Row": "3",
						"Type": "RTID(lostcity_armor1@ZombieTypes)"
					}, {
						"Row": "2",
						"Type": "RTID(lostcity_armor1@ZombieTypes)"
					}, {
						"Row": "1",
						"Type": "RTID(lostcity_bug@ZombieTypes)"
					}, {
						"Row": "5",
						"Type": "RTID(lostcity_excavator@ZombieTypes)"
					}, {
						"Row": "1",
						"Type": "RTID(lostcity_excavator@ZombieTypes)"
					} ]
			}
		} ],
	"version": 1
}