{
	"#comment": "LoD 006 v1",
	"objects": [ {
			"objclass": "LevelDefinition",
			"objdata": {
				"Description": "[PLAYERS_TRIP_TO_RIFT]",
				"LevelNumber": "",
				"Loot": "",
				"Modules": [ "RTID(StandardRiftIntro@LevelModules)", "RTID(FutureMowers@LevelModules)", "RTID(NewWaves@CurrentLevel)", "RTID(DefaultZombieWinCondition@LevelModules)", "RTID(ConveyorBelt@CurrentLevel)", "RTID(ZombiesDeadWinCon@LevelModules)", "RTID(PerkActivator@CurrentLevel)", "RTID(LevelDifficultyScaling@CurrentLevel)", "RTID(ZombiePotions@CurrentLevel)" ],
				"Name": "[RIFT_LEVEL_NAME]",
				"NormalPresentTable": "egypt_normal_01",
				"ShinyPresentTable": "egypt_shiny_01",
				"StageModule": "RTID(RiftStage@LevelModules)",
				"VictoryModule": "RTID(RiftOutro@LevelModules)",
				"LevelMutator": "RTID(LevelMutator@CurrentLevel)",
				"PerksDisabledInLevel": [ "sunbreak", "moarscore", "bossbustercannon" ],
				"PerksDisabledPerDifficulty": [ [], [], [] ]
			}
		}, {
			"aliases": [ "ZombiePotions" ],
			"objclass": "ZombiePotionModuleProperties",
			"objdata": {
				"InitialPotionCount": 15,
				"MaxPotionCount": 15,
				"PotionSpawnTimer": {
					"Max": 0,
					"Min": 0.25
				},
				"PotionTypes": [ "zombiepotion_speed", "zombiepotion_toughness" ]
			}
		}, {
			"aliases": [ "PerkActivator" ],
			"objclass": "PerkHandlerModuleProperties",
			"objdata": {}
		}, {
			"aliases": [ "LevelMutator" ],
			"objclass": "LevelMutatorModuleProperties",
			"objdata": {
				"MutatorTables": [ "RTID(MutatorPropsRiftConveyor@LevelMutatorTables)", "RTID(LocalChallengeMutator@CurrentLevel)", "RTID(LocalMainChallengeMutator@CurrentLevel)" ]
			}
		}, {
			"aliases": [ "LocalMainChallengeMutator" ],
			"objclass": "LevelMutatorTableProps",
			"objdata": {
				"Tables": [ {
						"Level": 0,
						"Modules": [ "RTID(BeatTheLevel@CurrentLevel)" ],
						"ModuleType": "mainchallenge"
					}, {
						"Level": 1,
						"Modules": [ "RTID(BeatTheLevel@CurrentLevel)" ],
						"ModuleType": "mainchallenge"
					}, {
						"Level": 2,
						"Modules": [ "RTID(BeatTheLevel@CurrentLevel)" ],
						"ModuleType": "mainchallenge"
					} ]
			}
		}, {
			"aliases": [ "BeatTheLevel" ],
			"objclass": "StarChallengeBeatTheLevelProps",
			"objdata": {
				"Description": "[STARCHALLENGE_RIFT_NORMAL]",
				"DescriptiveName": "[STARCHALLENGE_RIFT_NORMAL_NAME]"
			}
		}, {
			"aliases": [ "LocalChallengeMutator" ],
			"objclass": "LevelMutatorTableProps",
			"objdata": {
				"Tables": [ {
						"Level": 0,
						"ModuleType": "bonuschallenge",
						"Modules": [ "RTID(ProtectThePlant1@CurrentLevel)" ]
					}, {
						"Level": 1,
						"ModuleType": "bonuschallenge",
						"Modules": [ "RTID(ProtectThePlant2@CurrentLevel)" ]
					}, {
						"Level": 2,
						"ModuleType": "bonuschallenge",
						"Modules": [ "RTID(ProtectThePlant3@CurrentLevel)" ]
					} ]
			}
		}, {
			"aliases": [ "ProtectThePlant1" ],
			"objclass": "ProtectThePlantChallengeProperties",
			"objdata": {
				"MustProtectCount": 5,
				"Plants": [ {
						"GridX": 3,
						"GridY": 0,
						"PlantType": "iceburg"
					}, {
						"GridX": 3,
						"GridY": 1,
						"PlantType": "iceburg"
					}, {
						"GridX": 3,
						"GridY": 2,
						"PlantType": "iceburg"
					}, {
						"GridX": 3,
						"GridY": 3,
						"PlantType": "iceburg"
					}, {
						"GridX": 3,
						"GridY": 4,
						"PlantType": "iceburg"
					} ]
			}
		}, {
			"aliases": [ "ProtectThePlant2" ],
			"objclass": "ProtectThePlantChallengeProperties",
			"objdata": {
				"MustProtectCount": 5,
				"Plants": [ {
						"GridX": 4,
						"GridY": 0,
						"PlantType": "iceburg"
					}, {
						"GridX": 4,
						"GridY": 1,
						"PlantType": "iceburg"
					}, {
						"GridX": 4,
						"GridY": 2,
						"PlantType": "iceburg"
					}, {
						"GridX": 4,
						"GridY": 3,
						"PlantType": "iceburg"
					}, {
						"GridX": 4,
						"GridY": 4,
						"PlantType": "iceburg"
					} ]
			}
		}, {
			"aliases": [ "ProtectThePlant3" ],
			"objclass": "ProtectThePlantChallengeProperties",
			"objdata": {
				"MustProtectCount": 5,
				"Plants": [ {
						"GridX": 5,
						"GridY": 0,
						"PlantType": "iceburg"
					}, {
						"GridX": 5,
						"GridY": 1,
						"PlantType": "iceburg"
					}, {
						"GridX": 5,
						"GridY": 2,
						"PlantType": "iceburg"
					}, {
						"GridX": 5,
						"GridY": 3,
						"PlantType": "iceburg"
					}, {
						"GridX": 5,
						"GridY": 4,
						"PlantType": "iceburg"
					} ]
			}
		}, {
			"aliases": [ "NewWaves" ],
			"objclass": "WaveManagerModuleProperties",
			"objdata": {
				"DynamicZombies": [ {
						"PointIncrementPerWave": 0,
						"StartingPoints": 0,
						"StartingWave": 0,
						"ZombiePool": [ "RTID(poncho@ZombieTypes)", "RTID(roman@ZombieTypes)", "RTID(roman_armor1@ZombieTypes)", "RTID(roman_armor2@ZombieTypes)" ]
					}, {
						"PointIncrementPerWave": 0,
						"StartingPoints": 0,
						"StartingWave": 0,
						"ZombiePool": [ "RTID(poncho@ZombieTypes)", "RTID(roman@ZombieTypes)", "RTID(roman_armor1@ZombieTypes)", "RTID(roman_armor2@ZombieTypes)" ]
					}, {
						"PointIncrementPerWave": 0,
						"StartingPoints": 0,
						"StartingWave": 0,
						"ZombiePool": [ "RTID(poncho@ZombieTypes)", "RTID(roman@ZombieTypes)", "RTID(roman_armor1@ZombieTypes)", "RTID(roman_armor2@ZombieTypes)" ]
					}, {
						"PointIncrementPerWave": 1500,
						"StartingPoints": 1250,
						"StartingWave": 0,
						"ZombiePool": [ "RTID(poncho@ZombieTypes)", "RTID(roman@ZombieTypes)", "RTID(roman_armor1@ZombieTypes)", "RTID(roman_armor2@ZombieTypes)", "RTID(modern_newspaper@ZombieTypes)", "RTID(piano@ZombieTypes)", "RTID(cowboy_armor4@ZombieTypes)" ]
					}, {
						"PointIncrementPerWave": 0,
						"StartingPoints": 0,
						"StartingWave": 0,
						"ZombiePool": [ "RTID(poncho@ZombieTypes)", "RTID(roman@ZombieTypes)", "RTID(roman_armor1@ZombieTypes)", "RTID(roman_armor2@ZombieTypes)" ]
					}, {
						"PointIncrementPerWave": 0,
						"StartingPoints": 0,
						"StartingWave": 0,
						"ZombiePool": [ "RTID(poncho@ZombieTypes)", "RTID(roman@ZombieTypes)", "RTID(roman_armor1@ZombieTypes)", "RTID(roman_armor2@ZombieTypes)" ]
					}, {
						"PointIncrementPerWave": 0,
						"StartingPoints": 0,
						"StartingWave": 0,
						"ZombiePool": [ "RTID(poncho@ZombieTypes)", "RTID(roman@ZombieTypes)", "RTID(roman_armor2@ZombieTypes)" ]
					} ],
				"WaveManagerProps": "RTID(WaveManagerProps@CurrentLevel)"
			}
		}, {
			"aliases": [ "LevelDifficultyScaling" ],
			"objclass": "LevelDifficultyScalingModuleProperties",
			"objdata": {
				"DifficultyRulesType": "RiftDifficulty",
				"ZombieLevelSwaps": [ {
						"Level": 0,
						"Swaps": [ {
								"From": "RTID(tutorial@ZombieTypes)",
								"To": [ "RTID(roman@ZombieTypes)", "RTID(roman_imp@ZombieTypes)", "RTID(roman_armor1@ZombieTypes)" ]
							} ]
					}, {
						"Level": 4,
						"Swaps": [ {
								"From": "RTID(tutorial@ZombieTypes)",
								"To": [ "RTID(roman@ZombieTypes)", "RTID(roman_armor1@ZombieTypes)", "RTID(roman_imp@ZombieTypes)", "RTID(roman_armor2@ZombieTypes)", "RTID(roman_shield_pair@ZombieTypes)" ]
							} ]
					}, {
						"Level": 7,
						"Swaps": [ {
								"From": "RTID(tutorial@ZombieTypes)",
								"To": [ "RTID(roman_armor1@ZombieTypes)", "RTID(roman_armor2@ZombieTypes)", "RTID(roman_armor2@ZombieTypes)", "RTID(roman_shield_pair@ZombieTypes)" ]
							} ]
					} ]
			}
		}, {
			"aliases": [ "WaveManagerProps" ],
			"objclass": "WaveManagerProperties",
			"objdata": {
				"FlagWaveInterval": 3,
				"WaveCount": 9,
				"WaveSpendingPointIncrement": 100,
				"WaveSpendingPoints": 100,
				"Waves": [ [ "RTID(Wave1@CurrentLevel)" ], [ "RTID(Wave2@CurrentLevel)" ], [ "RTID(Wave3@CurrentLevel)" ], [ "RTID(Wave4@CurrentLevel)" ], [ "RTID(Wave5@CurrentLevel)" ], [ "RTID(Wave6@CurrentLevel)" ], [ "RTID(Wave7@CurrentLevel)" ], [ "RTID(Wave8@CurrentLevel)" ], [ "RTID(Wave9@CurrentLevel)" ] ]
			}
		}, {
			"aliases": [ "Wave1" ],
			"objclass": "SpawnZombiesJitteredWaveActionProps",
			"objdata": {
				"Zombies": [ {
						"Type": "RTID(tutorial@ZombieTypes)"
					} ]
			}
		}, {
			"aliases": [ "Wave2" ],
			"objclass": "SpawnZombiesJitteredWaveActionProps",
			"objdata": {
				"Zombies": [ {
						"Type": "RTID(tutorial@ZombieTypes)"
					} ]
			}
		}, {
			"aliases": [ "Wave3" ],
			"objclass": "SpawnZombiesJitteredWaveActionProps",
			"objdata": {
				"Zombies": [ {
						"Type": "RTID(tutorial@ZombieTypes)"
					}, {
						"Type": "RTID(tutorial@ZombieTypes)"
					}, {
						"Type": "RTID(tutorial@ZombieTypes)"
					} ]
			}
		}, {
			"aliases": [ "Wave4" ],
			"objclass": "SpawnZombiesJitteredWaveActionProps",
			"objdata": {
				"Zombies": [ {
						"Type": "RTID(tutorial@ZombieTypes)"
					}, {
						"Type": "RTID(tutorial_gargantuar@ZombieTypes)"
					} ]
			}
		}, {
			"aliases": [ "Wave5" ],
			"objclass": "SpawnZombiesJitteredWaveActionProps",
			"objdata": {
				"Zombies": [ {
						"Type": "RTID(tutorial@ZombieTypes)"
					} ]
			}
		}, {
			"aliases": [ "Wave6" ],
			"objclass": "SpawnZombiesJitteredWaveActionProps",
			"objdata": {
				"Zombies": [ {
						"Type": "RTID(tutorial@ZombieTypes)"
					}, {
						"Type": "RTID(tutorial@ZombieTypes)"
					}, {
						"Type": "RTID(tutorial@ZombieTypes)"
					}, {
						"Type": "RTID(tutorial@ZombieTypes)"
					}, {
						"Type": "RTID(tutorial@ZombieTypes)"
					}, {
						"Type": "RTID(tutorial_gargantuar@ZombieTypes)"
					} ]
			}
		}, {
			"aliases": [ "Wave7" ],
			"objclass": "SpawnZombiesJitteredWaveActionProps",
			"objdata": {
				"Zombies": [ {
						"Type": "RTID(tutorial@ZombieTypes)"
					} ]
			}
		}, {
			"aliases": [ "Wave8" ],
			"objclass": "SpawnZombiesJitteredWaveActionProps",
			"objdata": {
				"AdditionalPlantfood": 1,
				"Zombies": [ {
						"Type": "RTID(tutorial@ZombieTypes)"
					}, {
						"Type": "RTID(tutorial_gargantuar@ZombieTypes)"
					} ]
			}
		}, {
			"aliases": [ "Wave9" ],
			"objclass": "SpawnZombiesJitteredWaveActionProps",
			"objdata": {
				"Zombies": [ {
						"Type": "RTID(tutorial@ZombieTypes)"
					}, {
						"Type": "RTID(tutorial@ZombieTypes)"
					}, {
						"Type": "RTID(tutorial@ZombieTypes)"
					}, {
						"Type": "RTID(tutorial@ZombieTypes)"
					}, {
						"Type": "RTID(tutorial@ZombieTypes)"
					}, {
						"Type": "RTID(tutorial@ZombieTypes)"
					}, {
						"Type": "RTID(tutorial@ZombieTypes)"
					}, {
						"Type": "RTID(tutorial_gargantuar@ZombieTypes)"
					} ]
			}
		}, {
			"aliases": [ "ConveyorBelt" ],
			"objclass": "ConveyorSeedBankProperties",
			"objdata": {
				"DropDelayConditions": [ {
						"Delay": 3,
						"MaxPackets": 0
					}, {
						"Delay": 6,
						"MaxPackets": 2
					}, {
						"Delay": 9,
						"MaxPackets": 4
					}, {
						"Delay": 12,
						"MaxPackets": 8
					} ],
				"InitialPlantList": [ {
						"MaxCount": 1,
						"MaxCountCooldownSeconds": 20,
						"MaxWeightFactor": 0,
						"PlantType": "bombardmint",
						"Weight": 3
					}, {
						"MaxCount": 1,
						"MaxCountCooldownSeconds": 25,
						"MaxWeightFactor": 0,
						"MinCount": 1,
						"PlantType": "ailmint",
						"Weight": 8
					}, {
						"MaxCount": 1,
						"MaxCountCooldownSeconds": 20,
						"MaxWeightFactor": 0,
						"MinCount": 1,
						"MinWeightFactor": 2,
						"PlantType": "containmint",
						"Weight": 15
					}, {
						"MaxCount": 1,
						"MaxCountCooldownSeconds": 25,
						"MaxWeightFactor": 0,
						"PlantType": "enchantmint",
						"Weight": 5
					}, {
						"MaxCount": 10,
						"MaxCountCooldownSeconds": 15,
						"MaxWeightFactor": 0,
						"PlantType": "zoybeanpod",
						"Weight": 45
					} ],
				"SpeedConditions": [ {
						"MaxPackets": 0,
						"Speed": 100
					} ]
			}
		} ],
	"version": 1
}