{
	"#comment": "Dino 18 v1",
	"objects": [ {
			"objclass": "LevelDefinition",
			"objdata": {
				"Description": "[PLAYERS_TRIP_TO_RIFT]",
				"LevelNumber": "",
				"DisablePlantBoosts": false,
				"Loot": "",
				"Modules": [ "RTID(DefaultSunDropper@LevelModules)", "RTID(StandardRiftIntro@LevelModules)", "RTID(ZombiesDeadWinCon@LevelModules)", "RTID(DinoMowers@LevelModules)", "RTID(SeedBank@CurrentLevel)", "RTID(DefaultZombieWinCondition@LevelModules)", "RTID(NewWaves@CurrentLevel)", "RTID(PerkActivator@CurrentLevel)", "RTID(LevelDifficultyScaling@CurrentLevel)" ],
				"Name": "[RIFT_LEVEL_NAME]",
				"NormalPresentTable": "egypt_normal_01",
				"ShinyPresentTable": "egypt_shiny_01",
				"VictoryModule": "RTID(RiftOutro@LevelModules)",
				"LevelMutator": "RTID(LevelMutator@CurrentLevel)",
				"StageModule": "RTID(DinoStage@LevelModules)",
				"PerksDisabledInLevel": [ "moarscore", "bossbustercannon", "zombieinhibitorgargantuar" ],
				"PerksDisabledPerDifficulty": [ [], [], [] ]
			}
		}, {
			"aliases": [ "PerkActivator" ],
			"objclass": "PerkHandlerModuleProperties",
			"objdata": {}
		}, {
			"aliases": [ "LevelMutator" ],
			"objclass": "LevelMutatorModuleProperties",
			"objdata": {
				"MutatorTables": [ "RTID(MutatorPropsRiftNormal@LevelMutatorTables)", "RTID(LocalChallengeMutator@CurrentLevel)", "RTID(LocalMainChallengeMutator@CurrentLevel)" ]
			}
		}, {
			"aliases": [ "LocalMainChallengeMutator" ],
			"objclass": "LevelMutatorTableProps",
			"objdata": {
				"Tables": [ {
						"Level": 0,
						"Modules": [ "RTID(BeatTheLevel@CurrentLevel)" ],
						"ModuleType": "mainchallenge"
					}, {
						"Level": 1,
						"Modules": [ "RTID(BeatTheLevel@CurrentLevel)" ],
						"ModuleType": "mainchallenge"
					}, {
						"Level": 2,
						"Modules": [ "RTID(BeatTheLevel@CurrentLevel)" ],
						"ModuleType": "mainchallenge"
					} ]
			}
		}, {
			"aliases": [ "BeatTheLevel" ],
			"objclass": "StarChallengeBeatTheLevelProps",
			"objdata": {
				"Description": "[STARCHALLENGE_RIFT_NORMAL]",
				"DescriptiveName": "[STARCHALLENGE_RIFT_NORMAL_NAME]"
			}
		}, {
			"aliases": [ "LocalChallengeMutator" ],
			"objclass": "LevelMutatorTableProps",
			"objdata": {
				"Tables": [ {
						"Level": 0,
						"ModuleType": "bonuschallenge",
						"Modules": [ "RTID(ProtectThePlant1@CurrentLevel)" ]
					}, {
						"Level": 1,
						"ModuleType": "bonuschallenge",
						"Modules": [ "RTID(ProtectThePlant2@CurrentLevel)", "RTID(ApplyZombieConditions1@CurrentLevel)" ]
					}, {
						"Level": 2,
						"ModuleType": "bonuschallenge",
						"Modules": [ "RTID(ProtectThePlant3@CurrentLevel)", "RTID(ApplyZombieConditions1@CurrentLevel)" ]
					} ]
			}
		}, {
			"aliases": [ "ApplyZombieConditions1" ],
			"objclass": "ApplyZombieConditionsChallengeProps",
			"objdata": {
				"ConditionToInflict": [ "chill" ],
				"NumZombieConditionsToApply": 30
			}
		}, {
			"aliases": [ "ProtectThePlant1" ],
			"objclass": "ProtectThePlantChallengeProperties",
			"objdata": {
				"MustProtectCount": 1,
				"Plants": [ {
						"GridX": 2,
						"GridY": 2,
						"PlantType": "twinsunflower"
					} ]
			}
		}, {
			"aliases": [ "ProtectThePlant2" ],
			"objclass": "ProtectThePlantChallengeProperties",
			"objdata": {
				"MustProtectCount": 1,
				"Plants": [ {
						"GridX": 3,
						"GridY": 2,
						"PlantType": "twinsunflower"
					} ]
			}
		}, {
			"aliases": [ "ProtectThePlant3" ],
			"objclass": "ProtectThePlantChallengeProperties",
			"objdata": {
				"MustProtectCount": 1,
				"Plants": [ {
						"GridX": 4,
						"GridY": 2,
						"PlantType": "twinsunflower"
					} ]
			}
		}, {
			"aliases": [ "LevelDifficultyScaling" ],
			"objclass": "LevelDifficultyScalingModuleProperties",
			"objdata": {
				"DifficultyRulesType": "RiftDifficulty",
				"ZombieLevelSwaps": [ {
						"Level": 0,
						"Swaps": [ {
								"From": "RTID(dino@ZombieTypes)",
								"To": [ "RTID(roman@ZombieTypes)" ]
							}, {
								"From": "RTID(dino_armor1@ZombieTypes)",
								"To": [ "RTID(roman_armor1@ZombieTypes)" ]
							}, {
								"From": "RTID(dino_armor2@ZombieTypes)",
								"To": [ "RTID(roman_armor2@ZombieTypes)" ]
							} ]
					}, {
						"Level": 4,
						"Swaps": [ {
								"From": "RTID(dino@ZombieTypes)",
								"To": [ "RTID(roman@ZombieTypes)" ]
							}, {
								"From": "RTID(dino_armor1@ZombieTypes)",
								"To": [ "RTID(roman_armor1@ZombieTypes)" ]
							}, {
								"From": "RTID(dino_armor2@ZombieTypes)",
								"To": [ "RTID(roman_armor2@ZombieTypes)" ]
							} ]
					}, {
						"Level": 7,
						"Swaps": [ {
								"From": "RTID(dino@ZombieTypes)",
								"To": [ "RTID(roman@ZombieTypes)" ]
							}, {
								"From": "RTID(dino_armor1@ZombieTypes)",
								"To": [ "RTID(roman_armor1@ZombieTypes)" ]
							}, {
								"From": "RTID(dino_armor2@ZombieTypes)",
								"To": [ "RTID(roman_armor2@ZombieTypes)" ]
							} ]
					} ]
			}
		}, {
			"aliases": [ "SeedBank" ],
			"objclass": "SeedBankProperties",
			"objdata": {
				"SelectionMethod": "chooser"
			}
		}, {
			"aliases": [ "NewWaves" ],
			"objclass": "WaveManagerModuleProperties",
			"objdata": {
				"DynamicZombies": [ {
						"PointIncrementPerWave": -40,
						"StartingPoints": -100,
						"StartingWave": 3,
						"ZombiePool": [ "RTID(dino@ZombieTypes)", "RTID(dino_armor1@ZombieTypes)", "RTID(dino_armor2@ZombieTypes)" ]
					}, {
						"PointIncrementPerWave": -25,
						"StartingPoints": -100,
						"StartingWave": 4,
						"ZombiePool": [ "RTID(dino@ZombieTypes)", "RTID(dino_armor1@ZombieTypes)", "RTID(dino_armor2@ZombieTypes)" ]
					}, {
						"PointIncrementPerWave": -10,
						"StartingPoints": -100,
						"StartingWave": 5,
						"ZombiePool": [ "RTID(dino@ZombieTypes)", "RTID(dino_armor1@ZombieTypes)", "RTID(dino_armor2@ZombieTypes)" ]
					}, {}, {
						"PointIncrementPerWave": 20,
						"StartingPoints": 100,
						"StartingWave": 5,
						"ZombiePool": [ "RTID(dino@ZombieTypes)", "RTID(dino_armor1@ZombieTypes)", "RTID(dino_armor2@ZombieTypes)" ]
					}, {
						"PointIncrementPerWave": 40,
						"StartingPoints": 200,
						"StartingWave": 4,
						"ZombiePool": [ "RTID(dino@ZombieTypes)", "RTID(dino_armor1@ZombieTypes)", "RTID(dino_armor2@ZombieTypes)" ]
					}, {
						"PointIncrementPerWave": 60,
						"StartingPoints": 400,
						"StartingWave": 3,
						"ZombiePool": [ "RTID(dino@ZombieTypes)", "RTID(dino_armor2@ZombieTypes)" ]
					} ],
				"WaveManagerProps": "RTID(WaveManagerProps@CurrentLevel)"
			}
		}, {
			"aliases": [ "WaveManagerProps" ],
			"objclass": "WaveManagerProperties",
			"objdata": {
				"FlagWaveInterval": 3,
				"WaveCount": 9,
				"WaveSpendingPointIncrement": 75,
				"WaveSpendingPoints": 100,
				"Waves": [ [ "RTID(Wave1@CurrentLevel)" ], [ "RTID(Wave2@CurrentLevel)", "RTID(Wave2DinoTimeEvent0@CurrentLevel)" ], [ "RTID(Wave3@CurrentLevel)" ], [ "RTID(Wave4@CurrentLevel)", "RTID(Wave4DinoTimeEvent0@CurrentLevel)", "RTID(Wave4DinoTimeEvent1@CurrentLevel)" ], [ "RTID(Wave5@CurrentLevel)", "RTID(Wave5DinoTimeEvent0@CurrentLevel)" ], [ "RTID(Wave6@CurrentLevel)", "RTID(Wave6DinoTimeEvent0@CurrentLevel)", "RTID(Wave6DinoTimeEvent1@CurrentLevel)" ], [ "RTID(Wave7@CurrentLevel)", "RTID(Wave7DinoTimeEvent0@CurrentLevel)", "RTID(Wave7DinoTimeEvent1@CurrentLevel)" ], [ "RTID(Wave8@CurrentLevel)" ], [ "RTID(Wave9@CurrentLevel)", "RTID(Wave9DinoTimeEvent0@CurrentLevel)", "RTID(Wave9DinoTimeEvent1@CurrentLevel)", "RTID(Wave9DinoTimeEvent2@CurrentLevel)" ] ]
			}
		}, {
			"aliases": [ "Wave1" ],
			"objclass": "SpawnZombiesJitteredWaveActionProps",
			"objdata": {
				"AdditionalPlantfood": 0,
				"Zombies": [ {
						"Row": "4",
						"Type": "RTID(dino@ZombieTypes)"
					}, {
						"Row": "2",
						"Type": "RTID(dino@ZombieTypes)"
					} ]
			}
		}, {
			"aliases": [ "Wave2" ],
			"objclass": "SpawnZombiesJitteredWaveActionProps",
			"objdata": {
				"Zombies": [ {
						"Row": "2",
						"Type": "RTID(dino_armor1@ZombieTypes)"
					}, {
						"Row": "2",
						"Type": "RTID(dino@ZombieTypes)"
					} ]
			}
		}, {
			"aliases": [ "Wave3" ],
			"objclass": "SpawnZombiesJitteredWaveActionProps",
			"objdata": {
				"AdditionalPlantfood": 1,
				"DynamicPlantfood": [ 1, 1, 1, 1, 0, 0, 0 ],
				"Zombies": [ {
						"Row": "2",
						"Type": "RTID(dino@ZombieTypes)"
					}, {
						"Row": "3",
						"Type": "RTID(dino@ZombieTypes)"
					}, {
						"Row": "5",
						"Type": "RTID(dino_armor2@ZombieTypes)"
					} ]
			}
		}, {
			"aliases": [ "Wave4" ],
			"objclass": "SpawnZombiesJitteredWaveActionProps",
			"objdata": {
				"Zombies": [ {
						"Row": "1",
						"Type": "RTID(dino_armor1@ZombieTypes)"
					}, {
						"Row": "1",
						"Type": "RTID(dino_armor1@ZombieTypes)"
					}, {
						"Row": "2",
						"Type": "RTID(dino_armor2@ZombieTypes)"
					}, {
						"Row": "4",
						"Type": "RTID(dino_armor2@ZombieTypes)"
					}, {
						"Row": "5",
						"Type": "RTID(dino_armor1@ZombieTypes)"
					}, {
						"Row": "5",
						"Type": "RTID(dino_armor1@ZombieTypes)"
					} ]
			}
		}, {
			"aliases": [ "Wave5" ],
			"objclass": "SpawnZombiesJitteredWaveActionProps",
			"objdata": {
				"AdditionalPlantfood": 0,
				"Zombies": [ {
						"Row": "1",
						"Type": "RTID(dino@ZombieTypes)"
					}, {
						"Row": "5",
						"Type": "RTID(dino_armor1@ZombieTypes)"
					}, {
						"Row": "3",
						"Type": "RTID(dino_armor2@ZombieTypes)"
					}, {
						"Row": "3",
						"Type": "RTID(dino_armor2@ZombieTypes)"
					} ]
			}
		}, {
			"aliases": [ "Wave6" ],
			"objclass": "SpawnZombiesJitteredWaveActionProps",
			"objdata": {
				"AdditionalPlantfood": 1,
				"DynamicPlantfood": [ 1, 1, 1, 1, 1, 1, 1 ],
				"Zombies": [ {
						"Row": "2",
						"Type": "RTID(dino_imp@ZombieTypes)"
					}, {
						"Row": "4",
						"Type": "RTID(dino_imp@ZombieTypes)"
					}, {
						"Row": "4",
						"Type": "RTID(dino_armor3@ZombieTypes)"
					}, {
						"Row": "3",
						"Type": "RTID(dino_armor1@ZombieTypes)"
					}, {
						"Row": "2",
						"Type": "RTID(dino_armor3@ZombieTypes)"
					} ]
			}
		}, {
			"aliases": [ "Wave7" ],
			"objclass": "SpawnZombiesJitteredWaveActionProps",
			"objdata": {
				"Zombies": [ {
						"Row": "1",
						"Type": "RTID(dino_armor2@ZombieTypes)"
					}, {
						"Row": "1",
						"Type": "RTID(dino_armor2@ZombieTypes)"
					}, {
						"Row": "2",
						"Type": "RTID(dino_imp@ZombieTypes)"
					}, {
						"Row": "2",
						"Type": "RTID(dino_imp@ZombieTypes)"
					}, {
						"Row": "2",
						"Type": "RTID(dino@ZombieTypes)"
					}, {
						"Row": "3",
						"Type": "RTID(dino_armor2@ZombieTypes)"
					}, {
						"Row": "4",
						"Type": "RTID(dino_imp@ZombieTypes)"
					}, {
						"Row": "4",
						"Type": "RTID(dino_imp@ZombieTypes)"
					}, {
						"Row": "4",
						"Type": "RTID(dino@ZombieTypes)"
					}, {
						"Row": "5",
						"Type": "RTID(dino_armor2@ZombieTypes)"
					}, {
						"Row": "5",
						"Type": "RTID(dino_armor2@ZombieTypes)"
					} ]
			}
		}, {
			"aliases": [ "Wave8" ],
			"objclass": "SpawnZombiesJitteredWaveActionProps",
			"objdata": {
				"AdditionalPlantfood": 1,
				"DynamicPlantfood": [ 1, 1, 1, 0, 0, 0, 0 ],
				"Zombies": [ {
						"Row": "3",
						"Type": "RTID(dino@ZombieTypes)"
					}, {
						"Row": "1",
						"Type": "RTID(dino_armor3@ZombieTypes)"
					}, {
						"Row": "5",
						"Type": "RTID(dino_armor3@ZombieTypes)"
					} ]
			}
		}, {
			"aliases": [ "Wave9" ],
			"objclass": "SpawnZombiesJitteredWaveActionProps",
			"objdata": {
				"AdditionalPlantfood": 0,
				"Zombies": [ {
						"Row": "3",
						"Type": "RTID(dino@ZombieTypes)"
					}, {
						"Row": "3",
						"Type": "RTID(dino_imp@ZombieTypes)"
					}, {
						"Row": "3",
						"Type": "RTID(dino_imp@ZombieTypes)"
					}, {
						"Row": "3",
						"Type": "RTID(dino_armor1@ZombieTypes)"
					}, {
						"Row": "3",
						"Type": "RTID(dino_armor2@ZombieTypes)"
					}, {
						"Row": "3",
						"Type": "RTID(dino_armor3@ZombieTypes)"
					}, {
						"Row": "4",
						"Type": "RTID(dino_armor2@ZombieTypes)"
					}, {
						"Row": "5",
						"Type": "RTID(dino_armor2@ZombieTypes)"
					}, {
						"Row": "5",
						"Type": "RTID(dino_armor2@ZombieTypes)"
					}, {
						"Row": "5",
						"Type": "RTID(dino_armor2@ZombieTypes)"
					}, {
						"Row": "2",
						"Type": "RTID(dino_armor2@ZombieTypes)"
					}, {
						"Row": "1",
						"Type": "RTID(dino_armor2@ZombieTypes)"
					}, {
						"Row": "1",
						"Type": "RTID(dino_armor2@ZombieTypes)"
					}, {
						"Row": "1",
						"Type": "RTID(dino_armor2@ZombieTypes)"
					} ]
			}
		}, {
			"aliases": [ "Wave2DinoTimeEvent0" ],
			"objclass": "DinoWaveActionProps",
			"objdata": {
				"DinoRow": 1,
				"DinoType": "tyranno",
				"DinoWaveDuration": "0"
			}
		}, {
			"aliases": [ "Wave4DinoTimeEvent0" ],
			"objclass": "DinoWaveActionProps",
			"objdata": {
				"DinoRow": 0,
				"DinoType": "tyranno",
				"DinoWaveDuration": 3
			}
		}, {
			"aliases": [ "Wave4DinoTimeEvent1" ],
			"objclass": "DinoWaveActionProps",
			"objdata": {
				"DinoRow": 4,
				"DinoType": "tyranno",
				"DinoWaveDuration": 3
			}
		}, {
			"aliases": [ "Wave5DinoTimeEvent0" ],
			"objclass": "DinoWaveActionProps",
			"objdata": {
				"DinoRow": "2",
				"DinoType": "ptero",
				"DinoWaveDuration": "0"
			}
		}, {
			"aliases": [ "Wave7DinoTimeEvent0" ],
			"objclass": "DinoWaveActionProps",
			"objdata": {
				"DinoRow": 0,
				"DinoType": "raptor",
				"DinoWaveDuration": "0"
			}
		}, {
			"aliases": [ "Wave6DinoTimeEvent0" ],
			"objclass": "DinoWaveActionProps",
			"objdata": {
				"DinoRow": 1,
				"DinoType": "tyranno",
				"DinoWaveDuration": "0"
			}
		}, {
			"aliases": [ "Wave6DinoTimeEvent1" ],
			"objclass": "DinoWaveActionProps",
			"objdata": {
				"DinoRow": 3,
				"DinoType": "tyranno",
				"DinoWaveDuration": "0"
			}
		}, {
			"aliases": [ "Wave7DinoTimeEvent1" ],
			"objclass": "DinoWaveActionProps",
			"objdata": {
				"DinoRow": 4,
				"DinoType": "raptor",
				"DinoWaveDuration": "0"
			}
		}, {
			"aliases": [ "Wave9DinoTimeEvent0" ],
			"objclass": "DinoWaveActionProps",
			"objdata": {
				"DinoRow": "2",
				"DinoType": "tyranno",
				"DinoWaveDuration": "0"
			}
		}, {
			"aliases": [ "Wave9DinoTimeEvent1" ],
			"objclass": "DinoWaveActionProps",
			"objdata": {
				"DinoRow": 0,
				"DinoType": "tyranno",
				"DinoWaveDuration": "0"
			}
		}, {
			"aliases": [ "Wave9DinoTimeEvent2" ],
			"objclass": "DinoWaveActionProps",
			"objdata": {
				"DinoRow": 4,
				"DinoType": "tyranno",
				"DinoWaveDuration": "0"
			}
		} ],
	"version": 1
}