{
	"#comment": "Joust Configuration",
	"#comment2": "PGS Requires that only one type can exist in this file",
	"version": 1,
	"objects": [
		{
			"objclass": "JoustPropertySheet",
			"aliases": [
				"JoustConfig"
			],
			"objdata": {
				"ReplayRecordEventBasePeriodSecondsMin": 2,
				"ReplayRecordEventBasePeriodSecondsMax": 4,
				"FreePlayRechargeTimeSeconds": 14400,
				"NetworkTimeoutSeconds": 10,
				"MatchRequestRetryCount": 3,
				"PlantsRequiredToUnlock": 10,
				"MaxRewardStreakMultiplier": 1,
				"RewardStreakRetentionCost": [
					20
				],
				"LeagueIcons": [
					"",
					"IMAGE_UI_JOUST_LEAGUES_CUP_SOIL",
					"IMAGE_UI_JOUST_LEAGUES_CUP_WOOD",
					"IMAGE_UI_JOUST_LEAGUES_CUP_BRICK",
					"IMAGE_UI_JOUST_LEAGUES_CUP_IRON",
					"IMAGE_UI_JOUST_LEAGUES_CUP_BRONZE",
					"IMAGE_UI_JOUST_LEAGUES_CUP_SILVER",
					"IMAGE_UI_JOUST_LEAGUES_CUP_GOLD",
					"IMAGE_UI_JOUST_LEAGUES_CUP_JADE"
				],
				"LeagueNames": [
					"[JOUST_LEAGUE_NAME_NONPLAYER]",
					"[JOUST_LEAGUE_NAME_SOIL]",
					"[JOUST_LEAGUE_NAME_WOOD]",
					"[JOUST_LEAGUE_NAME_BRICK]",
					"[JOUST_LEAGUE_NAME_IRON]",
					"[JOUST_LEAGUE_NAME_BRONZE]",
					"[JOUST_LEAGUE_NAME_SILVER]",
					"[JOUST_LEAGUE_NAME_GOLD]",
					"[JOUST_LEAGUE_NAME_JADE]"
				],
				"ShortLeagueNames": [
					"[JOUST_LEAGUE_NAME_NONPLAYER]",
					"[JOUST_LEAGUE_NAME_SOIL_SHORT]",
					"[JOUST_LEAGUE_NAME_WOOD_SHORT]",
					"[JOUST_LEAGUE_NAME_BRICK_SHORT]",
					"[JOUST_LEAGUE_NAME_IRON_SHORT]",
					"[JOUST_LEAGUE_NAME_BRONZE_SHORT]",
					"[JOUST_LEAGUE_NAME_SILVER_SHORT]",
					"[JOUST_LEAGUE_NAME_GOLD_SHORT]",
					"[JOUST_LEAGUE_NAME_JADE_SHORT]"
				],
				"EndOfTournamentManagement": {
					"ForcedMaintenanceTimeMin": 300,
					"ForcedMaintenanceTimeMax": 600,
					"LocalNoteMinDelayTime": 300,
					"LocalNoteMaxDelayTime": 600
				},
				"EndOfSeasonManagement": {
					"LocalNoteMinDelayTime": 86400,
					"LocalNoteMaxDelayTime": 86800
				},
				"HowToPlayData": {
					"Version": 1,
					"Entries": [
						{
							"ImageId": "IMAGE_UI_JOUST_HOW_TO_PLAY_HOWTOPLAY_01",
							"Subtitle": "[JOUST_HOW_TO_PLAY_1]",
							"Description": "[JOUST_HOWTOPLAY_1_DESCRIPTION]"
						},
						{
							"ImageId": "IMAGE_UI_JOUST_HOW_TO_PLAY_HOWTOPLAY_02",
							"Subtitle": "[JOUST_HOW_TO_PLAY_2]",
							"Description": "[JOUST_HOWTOPLAY_2_DESCRIPTION]"
						},
						{
							"ImageId": "IMAGE_UI_JOUST_HOW_TO_PLAY_HOWTOPLAY_03",
							"Subtitle": "[JOUST_HOW_TO_PLAY_3]",
							"Description": "[JOUST_HOWTOPLAY_3_DESCRIPTION]"
						},
						{
							"ImageId": "IMAGE_UI_JOUST_HOW_TO_PLAY_HOWTOPLAY_04",
							"Subtitle": "[JOUST_HOW_TO_PLAY_4]",
							"Description": "[JOUST_HOWTOPLAY_4_DESCRIPTION]"
						},
						{
							"ImageId": "IMAGE_UI_JOUST_HOW_TO_PLAY_HOWTOPLAY_05",
							"Subtitle": "[JOUST_HOW_TO_PLAY_5]",
							"Description": "[JOUST_HOWTOPLAY_5_DESCRIPTION]"
						}
					]
				},
				"PlantReplayRestrictions": {
					"MaxNumberOfPlants": 6,
					"InvalidPlants": [
						{
							"Plant": "lilypad"
						},
						{
							"Plant": "noctarine",
							"UnvaultDate": 1632762000
						},
						{
							"Plant": "heathseeker",
							"UnvaultDate": 1635181200
						},
						{
							"Plant": "tanglekelp"
						},
						{
							"Plant": "hotpotato"
						},
						{
							"Plant": "goldleaf"
						},
						{
							"Plant": "thymewarp"
						},
						{
							"Plant": "perfumeshroom"
						},
						{
							"Plant": "minipeashooter"
						},
						{
							"Plant": "burnade"
						}
					]
				},
				"LeagueReplayRestrictions": [
					{
						"#comment": "Tutorial League",
						"MaxAveragePlantLevel": 4.0,
						"MaxSinglePlantLevel": 20,
						"MaxAveragePlantMastery": 1.0,
						"MaxSinglePlantMastery": 1,
						"MaxScore": 10000000
					},
					{
						"#comment": "Soil League",
						"MaxAveragePlantLevel": 4.0,
						"MaxSinglePlantLevel": 20,
						"MaxAveragePlantMastery": 1.0,
						"MaxSinglePlantMastery": 1,
						"MaxScore": 10000000
					},
					{
						"#comment": "Wood League",
						"MaxAveragePlantLevel": 6.0,
						"MaxSinglePlantLevel": 20,
						"MaxAveragePlantMastery": 1.0,
						"MaxSinglePlantMastery": 10,
						"MaxScore": 10000000
					},
					{
						"#comment": "Brick League",
						"MaxAveragePlantLevel": 7.0,
						"MaxSinglePlantLevel": 20,
						"MaxAveragePlantMastery": 1.0,
						"MaxSinglePlantMastery": 20,
						"MaxScore": 10000000
					},
					{
						"#comment": "Iron League",
						"MaxAveragePlantLevel": 8.0,
						"MaxSinglePlantLevel": 20,
						"MaxAveragePlantMastery": 1.0,
						"MaxSinglePlantMastery": 40,
						"MaxScore": 10000000
					},
					{
						"#comment": "Bronze League",
						"MaxAveragePlantLevel": 9.0,
						"MaxSinglePlantLevel": 20,
						"MaxAveragePlantMastery": 1.0,
						"MaxSinglePlantMastery": 60,
						"MaxScore": 10000000
					},
					{
						"#comment": "Silver League",
						"MaxAveragePlantLevel": 9.0,
						"MaxSinglePlantLevel": 20,
						"MaxAveragePlantMastery": 1.0,
						"MaxSinglePlantMastery": 100,
						"MaxScore": 20000000
					},
					{
						"#comment": "Gold League",
						"MaxAveragePlantLevel": 20.0,
						"MaxSinglePlantLevel": 20,
						"MaxAveragePlantMastery": 50.0,
						"MaxSinglePlantMastery": 199,
						"MaxScore": 20000000
					},
					{
						"#comment": "Jade League",
						"MaxAveragePlantLevel": 20.0,
						"MaxSinglePlantLevel": 20,
						"MaxAveragePlantMastery": 199.0,
						"MaxSinglePlantMastery": 199,
						"MaxScore": 20000000
					},
					{
						"#comment": "Jade League Real",
						"MaxAveragePlantLevel": 20.0,
						"MaxSinglePlantLevel": 20,
						"MaxAveragePlantMastery": 199.0,
						"MaxSinglePlantMastery": 199,
						"MaxScore": 20000000
					}
				],
				"PredefinedLoadouts": [
					{
						"Name": "SunBasic",
						"Loadouts": [
							[
								{
									"PlantType": "primalwallnut",
									"PlantLevel": 0,
									"IsImitater": false
								},
								{
									"PlantType": "primalsunflower",
									"PlantLevel": 0,
									"IsImitater": false
								},
								{
									"PlantType": "primalpotatomine",
									"PlantLevel": 0,
									"IsImitater": false
								},
								{
									"PlantType": "primalpeashooter",
									"PlantLevel": 0,
									"IsImitater": false
								},
								{
									"PlantType": "wintermelon",
									"PlantLevel": 0,
									"IsImitater": false
								},
								{
									"PlantType": "cherry_bomb",
									"PlantLevel": 0,
									"IsImitater": false
								}
							],
							[
								{
									"PlantType": "nightshade",
									"PlantLevel": 0,
									"IsImitater": false
								},
								{
									"PlantType": "moonflower",
									"PlantLevel": 0,
									"IsImitater": false
								},
								{
									"PlantType": "goldbloom",
									"PlantLevel": 0,
									"IsImitater": false
								},
								{
									"PlantType": "shadowshroom",
									"PlantLevel": 0,
									"IsImitater": false
								},
								{
									"PlantType": "dusklobber",
									"PlantLevel": 0,
									"IsImitater": false
								},
								{
									"PlantType": "grimrose",
									"PlantLevel": 0,
									"IsImitater": false
								}
							],
							[
								{
									"PlantType": "aloe",
									"PlantLevel": 0,
									"IsImitater": false
								},
								{
									"PlantType": "twinsunflower",
									"PlantLevel": 0,
									"IsImitater": false
								},
								{
									"PlantType": "firepeashooter",
									"PlantLevel": 0,
									"IsImitater": false
								},
								{
									"PlantType": "xshot",
									"PlantLevel": 0,
									"IsImitater": false
								},
								{
									"PlantType": "iceburg",
									"PlantLevel": 0,
									"IsImitater": false
								},
								{
									"PlantType": "cherry_bomb",
									"PlantLevel": 0,
									"IsImitater": false
								}
							],
							[
								{
									"PlantType": "aloe",
									"PlantLevel": 0,
									"IsImitater": false
								},
								{
									"PlantType": "moonflower",
									"PlantLevel": 0,
									"IsImitater": false
								},
								{
									"PlantType": "dusklobber",
									"PlantLevel": 0,
									"IsImitater": false
								},
								{
									"PlantType": "primalpotatomine",
									"PlantLevel": 0,
									"IsImitater": false
								},
								{
									"PlantType": "cherry_bomb",
									"PlantLevel": 0,
									"IsImitater": false
								},
								{
									"PlantType": "spikeweed",
									"PlantLevel": 0,
									"IsImitater": false
								}
							],
							[
								{
									"PlantType": "aloe",
									"PlantLevel": 0,
									"IsImitater": false
								},
								{
									"PlantType": "cherry_bomb",
									"PlantLevel": 0,
									"IsImitater": false
								},
								{
									"PlantType": "goldbloom",
									"PlantLevel": 0,
									"IsImitater": false
								},
								{
									"PlantType": "moonflower",
									"PlantLevel": 0,
									"IsImitater": false
								},
								{
									"PlantType": "dusklobber",
									"PlantLevel": 0,
									"IsImitater": false
								},
								{
									"PlantType": "explodeonut",
									"PlantLevel": 0,
									"IsImitater": false
								}
							],
							[
								{
									"PlantType": "aloe",
									"PlantLevel": 0,
									"IsImitater": false
								},
								{
									"PlantType": "sunshroom",
									"PlantLevel": 0,
									"IsImitater": false
								},
								{
									"PlantType": "primalpeashooter",
									"PlantLevel": 0,
									"IsImitater": false
								},
								{
									"PlantType": "chardguard",
									"PlantLevel": 0,
									"IsImitater": false
								},
								{
									"PlantType": "cherry_bomb",
									"PlantLevel": 0,
									"IsImitater": false
								},
								{
									"PlantType": "primalpotatomine",
									"PlantLevel": 0,
									"IsImitater": false
								}
							],
							[
								{
									"PlantType": "aloe",
									"PlantLevel": 0,
									"IsImitater": false
								},
								{
									"PlantType": "moonflower",
									"PlantLevel": 0,
									"IsImitater": false
								},
								{
									"PlantType": "electricpeashooter",
									"PlantLevel": 0,
									"IsImitater": false
								},
								{
									"PlantType": "explodeonut",
									"PlantLevel": 0,
									"IsImitater": false
								},
								{
									"PlantType": "chardguard",
									"PlantLevel": 0,
									"IsImitater": false
								},
								{
									"PlantType": "bombegranate",
									"PlantLevel": 0,
									"IsImitater": false
								}
							],
							[
								{
									"PlantType": "aloe",
									"PlantLevel": 0,
									"IsImitater": false
								},
								{
									"PlantType": "moonflower",
									"PlantLevel": 0,
									"IsImitater": false
								},
								{
									"PlantType": "dusklobber",
									"PlantLevel": 0,
									"IsImitater": false
								},
								{
									"PlantType": "primalpotatomine",
									"PlantLevel": 0,
									"IsImitater": false
								},
								{
									"PlantType": "cherry_bomb",
									"PlantLevel": 0,
									"IsImitater": false
								},
								{
									"PlantType": "spikerock",
									"PlantLevel": 0,
									"IsImitater": false
								}
							]
						]
					},
					{
						"Name": "NoWinter",
						"Loadouts": [
							[
								{
									"PlantType": "primalwallnut",
									"PlantLevel": 0,
									"IsImitater": false
								},
								{
									"PlantType": "primalsunflower",
									"PlantLevel": 0,
									"IsImitater": false
								},
								{
									"PlantType": "primalpotatomine",
									"PlantLevel": 0,
									"IsImitater": false
								},
								{
									"PlantType": "primalpeashooter",
									"PlantLevel": 0,
									"IsImitater": false
								},
								{
									"PlantType": "torchwood",
									"PlantLevel": 0,
									"IsImitater": false
								},
								{
									"PlantType": "spikeweed",
									"PlantLevel": 0,
									"IsImitater": false
								}
							],
							[
								{
									"PlantType": "nightshade",
									"PlantLevel": 0,
									"IsImitater": false
								},
								{
									"PlantType": "moonflower",
									"PlantLevel": 0,
									"IsImitater": false
								},
								{
									"PlantType": "goldbloom",
									"PlantLevel": 0,
									"IsImitater": false
								},
								{
									"PlantType": "shadowshroom",
									"PlantLevel": 0,
									"IsImitater": false
								},
								{
									"PlantType": "dusklobber",
									"PlantLevel": 0,
									"IsImitater": false
								},
								{
									"PlantType": "grimrose",
									"PlantLevel": 0,
									"IsImitater": false
								}
							],
							[
								{
									"PlantType": "aloe",
									"PlantLevel": 0,
									"IsImitater": false
								},
								{
									"PlantType": "twinsunflower",
									"PlantLevel": 0,
									"IsImitater": false
								},
								{
									"PlantType": "firepeashooter",
									"PlantLevel": 0,
									"IsImitater": false
								},
								{
									"PlantType": "xshot",
									"PlantLevel": 0,
									"IsImitater": false
								},
								{
									"PlantType": "caulipower",
									"PlantLevel": 0,
									"IsImitater": false
								},
								{
									"PlantType": "spikerock",
									"PlantLevel": 0,
									"IsImitater": false
								}
							],
							[
								{
									"PlantType": "aloe",
									"PlantLevel": 0,
									"IsImitater": false
								},
								{
									"PlantType": "moonflower",
									"PlantLevel": 0,
									"IsImitater": false
								},
								{
									"PlantType": "dusklobber",
									"PlantLevel": 0,
									"IsImitater": false
								},
								{
									"PlantType": "primalpotatomine",
									"PlantLevel": 0,
									"IsImitater": false
								},
								{
									"PlantType": "wallnut",
									"PlantLevel": 0,
									"IsImitater": false
								},
								{
									"PlantType": "spikeweed",
									"PlantLevel": 0,
									"IsImitater": false
								}
							],
							[
								{
									"PlantType": "aloe",
									"PlantLevel": 0,
									"IsImitater": false
								},
								{
									"PlantType": "spikerock",
									"PlantLevel": 0,
									"IsImitater": false
								},
								{
									"PlantType": "goldbloom",
									"PlantLevel": 0,
									"IsImitater": false
								},
								{
									"PlantType": "moonflower",
									"PlantLevel": 0,
									"IsImitater": false
								},
								{
									"PlantType": "dusklobber",
									"PlantLevel": 0,
									"IsImitater": false
								},
								{
									"PlantType": "explodeonut",
									"PlantLevel": 0,
									"IsImitater": false
								}
							],
							[
								{
									"PlantType": "aloe",
									"PlantLevel": 0,
									"IsImitater": false
								},
								{
									"PlantType": "sunshroom",
									"PlantLevel": 0,
									"IsImitater": false
								},
								{
									"PlantType": "primalpeashooter",
									"PlantLevel": 0,
									"IsImitater": false
								},
								{
									"PlantType": "chardguard",
									"PlantLevel": 0,
									"IsImitater": false
								},
								{
									"PlantType": "holonut",
									"PlantLevel": 0,
									"IsImitater": false
								},
								{
									"PlantType": "primalpotatomine",
									"PlantLevel": 0,
									"IsImitater": false
								}
							],
							[
								{
									"PlantType": "aloe",
									"PlantLevel": 0,
									"IsImitater": false
								},
								{
									"PlantType": "moonflower",
									"PlantLevel": 0,
									"IsImitater": false
								},
								{
									"PlantType": "electricpeashooter",
									"PlantLevel": 0,
									"IsImitater": false
								},
								{
									"PlantType": "explodeonut",
									"PlantLevel": 0,
									"IsImitater": false
								},
								{
									"PlantType": "chardguard",
									"PlantLevel": 0,
									"IsImitater": false
								},
								{
									"PlantType": "bombegranate",
									"PlantLevel": 0,
									"IsImitater": false
								}
							],
							[
								{
									"PlantType": "aloe",
									"PlantLevel": 0,
									"IsImitater": false
								},
								{
									"PlantType": "moonflower",
									"PlantLevel": 0,
									"IsImitater": false
								},
								{
									"PlantType": "dusklobber",
									"PlantLevel": 0,
									"IsImitater": false
								},
								{
									"PlantType": "primalpotatomine",
									"PlantLevel": 0,
									"IsImitater": false
								},
								{
									"PlantType": "holonut",
									"PlantLevel": 0,
									"IsImitater": false
								},
								{
									"PlantType": "spikerock",
									"PlantLevel": 0,
									"IsImitater": false
								}
							]
						]
					},
					{
						"Name": "SunBasicGrave",
						"Loadouts": [
							[
								{
									"PlantType": "primalwallnut",
									"PlantLevel": 0,
									"IsImitater": false
								},
								{
									"PlantType": "primalsunflower",
									"PlantLevel": 0,
									"IsImitater": false
								},
								{
									"PlantType": "primalpotatomine",
									"PlantLevel": 0,
									"IsImitater": false
								},
								{
									"PlantType": "primalpeashooter",
									"PlantLevel": 0,
									"IsImitater": false
								},
								{
									"PlantType": "gravebuster",
									"PlantLevel": 0,
									"IsImitater": false
								},
								{
									"PlantType": "cherry_bomb",
									"PlantLevel": 0,
									"IsImitater": false
								}
							],
							[
								{
									"PlantType": "nightshade",
									"PlantLevel": 0,
									"IsImitater": false
								},
								{
									"PlantType": "moonflower",
									"PlantLevel": 0,
									"IsImitater": false
								},
								{
									"PlantType": "goldbloom",
									"PlantLevel": 0,
									"IsImitater": false
								},
								{
									"PlantType": "shadowshroom",
									"PlantLevel": 0,
									"IsImitater": false
								},
								{
									"PlantType": "dusklobber",
									"PlantLevel": 0,
									"IsImitater": false
								},
								{
									"PlantType": "gravebuster",
									"PlantLevel": 0,
									"IsImitater": false
								}
							],
							[
								{
									"PlantType": "aloe",
									"PlantLevel": 0,
									"IsImitater": false
								},
								{
									"PlantType": "twinsunflower",
									"PlantLevel": 0,
									"IsImitater": false
								},
								{
									"PlantType": "firepeashooter",
									"PlantLevel": 0,
									"IsImitater": false
								},
								{
									"PlantType": "xshot",
									"PlantLevel": 0,
									"IsImitater": false
								},
								{
									"PlantType": "gravebuster",
									"PlantLevel": 0,
									"IsImitater": false
								},
								{
									"PlantType": "cherry_bomb",
									"PlantLevel": 0,
									"IsImitater": false
								}
							],
							[
								{
									"PlantType": "aloe",
									"PlantLevel": 0,
									"IsImitater": false
								},
								{
									"PlantType": "moonflower",
									"PlantLevel": 0,
									"IsImitater": false
								},
								{
									"PlantType": "dusklobber",
									"PlantLevel": 0,
									"IsImitater": false
								},
								{
									"PlantType": "primalpotatomine",
									"PlantLevel": 0,
									"IsImitater": false
								},
								{
									"PlantType": "cherry_bomb",
									"PlantLevel": 0,
									"IsImitater": false
								},
								{
									"PlantType": "gravebuster",
									"PlantLevel": 0,
									"IsImitater": false
								}
							],
							[
								{
									"PlantType": "aloe",
									"PlantLevel": 0,
									"IsImitater": false
								},
								{
									"PlantType": "gravebuster",
									"PlantLevel": 0,
									"IsImitater": false
								},
								{
									"PlantType": "goldbloom",
									"PlantLevel": 0,
									"IsImitater": false
								},
								{
									"PlantType": "moonflower",
									"PlantLevel": 0,
									"IsImitater": false
								},
								{
									"PlantType": "dusklobber",
									"PlantLevel": 0,
									"IsImitater": false
								},
								{
									"PlantType": "explodeonut",
									"PlantLevel": 0,
									"IsImitater": false
								}
							],
							[
								{
									"PlantType": "aloe",
									"PlantLevel": 0,
									"IsImitater": false
								},
								{
									"PlantType": "sunshroom",
									"PlantLevel": 0,
									"IsImitater": false
								},
								{
									"PlantType": "primalpeashooter",
									"PlantLevel": 0,
									"IsImitater": false
								},
								{
									"PlantType": "chardguard",
									"PlantLevel": 0,
									"IsImitater": false
								},
								{
									"PlantType": "gravebuster",
									"PlantLevel": 0,
									"IsImitater": false
								},
								{
									"PlantType": "primalpotatomine",
									"PlantLevel": 0,
									"IsImitater": false
								}
							],
							[
								{
									"PlantType": "aloe",
									"PlantLevel": 0,
									"IsImitater": false
								},
								{
									"PlantType": "moonflower",
									"PlantLevel": 0,
									"IsImitater": false
								},
								{
									"PlantType": "electricpeashooter",
									"PlantLevel": 0,
									"IsImitater": false
								},
								{
									"PlantType": "explodeonut",
									"PlantLevel": 0,
									"IsImitater": false
								},
								{
									"PlantType": "gravebuster",
									"PlantLevel": 0,
									"IsImitater": false
								},
								{
									"PlantType": "bombegranate",
									"PlantLevel": 0,
									"IsImitater": false
								}
							],
							[
								{
									"PlantType": "aloe",
									"PlantLevel": 0,
									"IsImitater": false
								},
								{
									"PlantType": "moonflower",
									"PlantLevel": 0,
									"IsImitater": false
								},
								{
									"PlantType": "dusklobber",
									"PlantLevel": 0,
									"IsImitater": false
								},
								{
									"PlantType": "primalpotatomine",
									"PlantLevel": 0,
									"IsImitater": false
								},
								{
									"PlantType": "cherry_bomb",
									"PlantLevel": 0,
									"IsImitater": false
								},
								{
									"PlantType": "gravebuster",
									"PlantLevel": 0,
									"IsImitater": false
								}
							]
						]
					},
					{
						"Name": "NoMagic",
						"Loadouts": [
							[
								{
									"PlantType": "primalwallnut",
									"PlantLevel": 0,
									"IsImitater": false
								},
								{
									"PlantType": "primalsunflower",
									"PlantLevel": 0,
									"IsImitater": false
								},
								{
									"PlantType": "primalpotatomine",
									"PlantLevel": 0,
									"IsImitater": false
								},
								{
									"PlantType": "primalpeashooter",
									"PlantLevel": 0,
									"IsImitater": false
								},
								{
									"PlantType": "wintermelon",
									"PlantLevel": 0,
									"IsImitater": false
								},
								{
									"PlantType": "cherry_bomb",
									"PlantLevel": 0,
									"IsImitater": false
								}
							],
							[
								{
									"PlantType": "nightshade",
									"PlantLevel": 0,
									"IsImitater": false
								},
								{
									"PlantType": "moonflower",
									"PlantLevel": 0,
									"IsImitater": false
								},
								{
									"PlantType": "goldbloom",
									"PlantLevel": 0,
									"IsImitater": false
								},
								{
									"PlantType": "shadowshroom",
									"PlantLevel": 0,
									"IsImitater": false
								},
								{
									"PlantType": "dusklobber",
									"PlantLevel": 0,
									"IsImitater": false
								},
								{
									"PlantType": "grimrose",
									"PlantLevel": 0,
									"IsImitater": false
								}
							],
							[
								{
									"PlantType": "aloe",
									"PlantLevel": 0,
									"IsImitater": false
								},
								{
									"PlantType": "twinsunflower",
									"PlantLevel": 0,
									"IsImitater": false
								},
								{
									"PlantType": "firepeashooter",
									"PlantLevel": 0,
									"IsImitater": false
								},
								{
									"PlantType": "xshot",
									"PlantLevel": 0,
									"IsImitater": false
								},
								{
									"PlantType": "iceburg",
									"PlantLevel": 0,
									"IsImitater": false
								},
								{
									"PlantType": "cherry_bomb",
									"PlantLevel": 0,
									"IsImitater": false
								}
							],
							[
								{
									"PlantType": "aloe",
									"PlantLevel": 0,
									"IsImitater": false
								},
								{
									"PlantType": "moonflower",
									"PlantLevel": 0,
									"IsImitater": false
								},
								{
									"PlantType": "dusklobber",
									"PlantLevel": 0,
									"IsImitater": false
								},
								{
									"PlantType": "primalpotatomine",
									"PlantLevel": 0,
									"IsImitater": false
								},
								{
									"PlantType": "cherry_bomb",
									"PlantLevel": 0,
									"IsImitater": false
								},
								{
									"PlantType": "spikeweed",
									"PlantLevel": 0,
									"IsImitater": false
								}
							],
							[
								{
									"PlantType": "aloe",
									"PlantLevel": 0,
									"IsImitater": false
								},
								{
									"PlantType": "cherry_bomb",
									"PlantLevel": 0,
									"IsImitater": false
								},
								{
									"PlantType": "goldbloom",
									"PlantLevel": 0,
									"IsImitater": false
								},
								{
									"PlantType": "moonflower",
									"PlantLevel": 0,
									"IsImitater": false
								},
								{
									"PlantType": "dusklobber",
									"PlantLevel": 0,
									"IsImitater": false
								},
								{
									"PlantType": "explodeonut",
									"PlantLevel": 0,
									"IsImitater": false
								}
							],
							[
								{
									"PlantType": "aloe",
									"PlantLevel": 0,
									"IsImitater": false
								},
								{
									"PlantType": "sunshroom",
									"PlantLevel": 0,
									"IsImitater": false
								},
								{
									"PlantType": "primalpeashooter",
									"PlantLevel": 0,
									"IsImitater": false
								},
								{
									"PlantType": "chardguard",
									"PlantLevel": 0,
									"IsImitater": false
								},
								{
									"PlantType": "cherry_bomb",
									"PlantLevel": 0,
									"IsImitater": false
								},
								{
									"PlantType": "primalpotatomine",
									"PlantLevel": 0,
									"IsImitater": false
								}
							],
							[
								{
									"PlantType": "aloe",
									"PlantLevel": 0,
									"IsImitater": false
								},
								{
									"PlantType": "moonflower",
									"PlantLevel": 0,
									"IsImitater": false
								},
								{
									"PlantType": "electricpeashooter",
									"PlantLevel": 0,
									"IsImitater": false
								},
								{
									"PlantType": "explodeonut",
									"PlantLevel": 0,
									"IsImitater": false
								},
								{
									"PlantType": "chardguard",
									"PlantLevel": 0,
									"IsImitater": false
								},
								{
									"PlantType": "bombegranate",
									"PlantLevel": 0,
									"IsImitater": false
								}
							],
							[
								{
									"PlantType": "aloe",
									"PlantLevel": 0,
									"IsImitater": false
								},
								{
									"PlantType": "moonflower",
									"PlantLevel": 0,
									"IsImitater": false
								},
								{
									"PlantType": "dusklobber",
									"PlantLevel": 0,
									"IsImitater": false
								},
								{
									"PlantType": "primalpotatomine",
									"PlantLevel": 0,
									"IsImitater": false
								},
								{
									"PlantType": "cherry_bomb",
									"PlantLevel": 0,
									"IsImitater": false
								},
								{
									"PlantType": "spikerock",
									"PlantLevel": 0,
									"IsImitater": false
								}
							]
						]
					},
					{
						"Name": "TurkeyShoot",
						"Loadouts": [
							[
								{
									"PlantType": "primalwallnut",
									"PlantLevel": 0,
									"IsImitater": false
								},
								{
									"PlantType": "hypnoshroom",
									"PlantLevel": 0,
									"IsImitater": false
								},
								{
									"PlantType": "holonut",
									"PlantLevel": 0,
									"IsImitater": false
								},
								{
									"PlantType": "reinforcemint",
									"PlantLevel": 0,
									"IsImitater": false
								},
								{
									"PlantType": "primalsunflower",
									"PlantLevel": 0,
									"IsImitater": false
								},
								{
									"PlantType": "primalpeashooter",
									"PlantLevel": 0,
									"IsImitater": false
								}
							],
							[
								{
									"PlantType": "nightshade",
									"PlantLevel": 0,
									"IsImitater": false
								},
								{
									"PlantType": "moonflower",
									"PlantLevel": 0,
									"IsImitater": false
								},
								{
									"PlantType": "goldbloom",
									"PlantLevel": 0,
									"IsImitater": false
								},
								{
									"PlantType": "hypnoshroom",
									"PlantLevel": 0,
									"IsImitater": false
								},
								{
									"PlantType": "dusklobber",
									"PlantLevel": 0,
									"IsImitater": false
								},
								{
									"PlantType": "spearmint",
									"PlantLevel": 0,
									"IsImitater": false
								}
							],
							[
								{
									"PlantType": "aloe",
									"PlantLevel": 0,
									"IsImitater": false
								},
								{
									"PlantType": "moonflower",
									"PlantLevel": 0,
									"IsImitater": false
								},
								{
									"PlantType": "dusklobber",
									"PlantLevel": 0,
									"IsImitater": false
								},
								{
									"PlantType": "holonut",
									"PlantLevel": 0,
									"IsImitater": false
								},
								{
									"PlantType": "coldsnapdragon",
									"PlantLevel": 0,
									"IsImitater": false
								},
								{
									"PlantType": "spikerock",
									"PlantLevel": 0,
									"IsImitater": false
								}
							],
							[
								{
									"PlantType": "aloe",
									"PlantLevel": 0,
									"IsImitater": false
								},
								{
									"PlantType": "moonflower",
									"PlantLevel": 0,
									"IsImitater": false
								},
								{
									"PlantType": "dusklobber",
									"PlantLevel": 0,
									"IsImitater": false
								},
								{
									"PlantType": "explodeonut",
									"PlantLevel": 0,
									"IsImitater": false
								},
								{
									"PlantType": "spikeweed",
									"PlantLevel": 0,
									"IsImitater": false
								},
								{
									"PlantType": "snapdragon",
									"PlantLevel": 0,
									"IsImitater": false
								}
							],
							[
								{
									"PlantType": "aloe",
									"PlantLevel": 0,
									"IsImitater": false
								},
								{
									"PlantType": "hypnoshroom",
									"PlantLevel": 0,
									"IsImitater": false
								},
								{
									"PlantType": "goldbloom",
									"PlantLevel": 0,
									"IsImitater": false
								},
								{
									"PlantType": "moonflower",
									"PlantLevel": 0,
									"IsImitater": false
								},
								{
									"PlantType": "dusklobber",
									"PlantLevel": 0,
									"IsImitater": false
								},
								{
									"PlantType": "explodeonut",
									"PlantLevel": 0,
									"IsImitater": false
								}
							],
							[
								{
									"PlantType": "aloe",
									"PlantLevel": 0,
									"IsImitater": false
								},
								{
									"PlantType": "sunshroom",
									"PlantLevel": 0,
									"IsImitater": false
								},
								{
									"PlantType": "primalpeashooter",
									"PlantLevel": 0,
									"IsImitater": false
								},
								{
									"PlantType": "hypnoshroom",
									"PlantLevel": 0,
									"IsImitater": false
								},
								{
									"PlantType": "cherry_bomb",
									"PlantLevel": 0,
									"IsImitater": false
								},
								{
									"PlantType": "primalpotatomine",
									"PlantLevel": 0,
									"IsImitater": false
								}
							],
							[
								{
									"PlantType": "aloe",
									"PlantLevel": 0,
									"IsImitater": false
								},
								{
									"PlantType": "moonflower",
									"PlantLevel": 0,
									"IsImitater": false
								},
								{
									"PlantType": "electricpeashooter",
									"PlantLevel": 0,
									"IsImitater": false
								},
								{
									"PlantType": "explodeonut",
									"PlantLevel": 0,
									"IsImitater": false
								},
								{
									"PlantType": "coldsnapdragon",
									"PlantLevel": 0,
									"IsImitater": false
								},
								{
									"PlantType": "dusklobber",
									"PlantLevel": 0,
									"IsImitater": false
								}
							],
							[
								{
									"PlantType": "aloe",
									"PlantLevel": 0,
									"IsImitater": false
								},
								{
									"PlantType": "moonflower",
									"PlantLevel": 0,
									"IsImitater": false
								},
								{
									"PlantType": "dusklobber",
									"PlantLevel": 0,
									"IsImitater": false
								},
								{
									"PlantType": "primalpotatomine",
									"PlantLevel": 0,
									"IsImitater": false
								},
								{
									"PlantType": "cherry_bomb",
									"PlantLevel": 0,
									"IsImitater": false
								},
								{
									"PlantType": "spikerock",
									"PlantLevel": 0,
									"IsImitater": false
								}
							]
						]
					},
					{
						"Name": "NoExploders",
						"Loadouts": [
							[
								{
									"PlantType": "primalwallnut",
									"PlantLevel": 0,
									"IsImitater": false
								},
								{
									"PlantType": "primalsunflower",
									"PlantLevel": 0,
									"IsImitater": false
								},
								{
									"PlantType": "primalpotatomine",
									"PlantLevel": 0,
									"IsImitater": false
								},
								{
									"PlantType": "primalpeashooter",
									"PlantLevel": 0,
									"IsImitater": false
								},
								{
									"PlantType": "wintermelon",
									"PlantLevel": 0,
									"IsImitater": false
								},
								{
									"PlantType": "stallia",
									"PlantLevel": 0,
									"IsImitater": false
								}
							],
							[
								{
									"PlantType": "nightshade",
									"PlantLevel": 0,
									"IsImitater": false
								},
								{
									"PlantType": "moonflower",
									"PlantLevel": 0,
									"IsImitater": false
								},
								{
									"PlantType": "goldbloom",
									"PlantLevel": 0,
									"IsImitater": false
								},
								{
									"PlantType": "shadowshroom",
									"PlantLevel": 0,
									"IsImitater": false
								},
								{
									"PlantType": "dusklobber",
									"PlantLevel": 0,
									"IsImitater": false
								},
								{
									"PlantType": "grimrose",
									"PlantLevel": 0,
									"IsImitater": false
								}
							],
							[
								{
									"PlantType": "aloe",
									"PlantLevel": 0,
									"IsImitater": false
								},
								{
									"PlantType": "twinsunflower",
									"PlantLevel": 0,
									"IsImitater": false
								},
								{
									"PlantType": "firepeashooter",
									"PlantLevel": 0,
									"IsImitater": false
								},
								{
									"PlantType": "xshot",
									"PlantLevel": 0,
									"IsImitater": false
								},
								{
									"PlantType": "iceburg",
									"PlantLevel": 0,
									"IsImitater": false
								},
								{
									"PlantType": "chardguard",
									"PlantLevel": 0,
									"IsImitater": false
								}
							],
							[
								{
									"PlantType": "aloe",
									"PlantLevel": 0,
									"IsImitater": false
								},
								{
									"PlantType": "moonflower",
									"PlantLevel": 0,
									"IsImitater": false
								},
								{
									"PlantType": "dusklobber",
									"PlantLevel": 0,
									"IsImitater": false
								},
								{
									"PlantType": "primalpotatomine",
									"PlantLevel": 0,
									"IsImitater": false
								},
								{
									"PlantType": "chardguard",
									"PlantLevel": 0,
									"IsImitater": false
								},
								{
									"PlantType": "spikeweed",
									"PlantLevel": 0,
									"IsImitater": false
								}
							],
							[
								{
									"PlantType": "aloe",
									"PlantLevel": 0,
									"IsImitater": false
								},
								{
									"PlantType": "stallia",
									"PlantLevel": 0,
									"IsImitater": false
								},
								{
									"PlantType": "goldbloom",
									"PlantLevel": 0,
									"IsImitater": false
								},
								{
									"PlantType": "moonflower",
									"PlantLevel": 0,
									"IsImitater": false
								},
								{
									"PlantType": "dusklobber",
									"PlantLevel": 0,
									"IsImitater": false
								},
								{
									"PlantType": "explodeonut",
									"PlantLevel": 0,
									"IsImitater": false
								}
							],
							[
								{
									"PlantType": "aloe",
									"PlantLevel": 0,
									"IsImitater": false
								},
								{
									"PlantType": "sunshroom",
									"PlantLevel": 0,
									"IsImitater": false
								},
								{
									"PlantType": "primalpeashooter",
									"PlantLevel": 0,
									"IsImitater": false
								},
								{
									"PlantType": "chardguard",
									"PlantLevel": 0,
									"IsImitater": false
								},
								{
									"PlantType": "holonut",
									"PlantLevel": 0,
									"IsImitater": false
								},
								{
									"PlantType": "primalpotatomine",
									"PlantLevel": 0,
									"IsImitater": false
								}
							],
							[
								{
									"PlantType": "aloe",
									"PlantLevel": 0,
									"IsImitater": false
								},
								{
									"PlantType": "moonflower",
									"PlantLevel": 0,
									"IsImitater": false
								},
								{
									"PlantType": "electricpeashooter",
									"PlantLevel": 0,
									"IsImitater": false
								},
								{
									"PlantType": "explodeonut",
									"PlantLevel": 0,
									"IsImitater": false
								},
								{
									"PlantType": "chardguard",
									"PlantLevel": 0,
									"IsImitater": false
								},
								{
									"PlantType": "goldbloom",
									"PlantLevel": 0,
									"IsImitater": false
								}
							],
							[
								{
									"PlantType": "aloe",
									"PlantLevel": 0,
									"IsImitater": false
								},
								{
									"PlantType": "moonflower",
									"PlantLevel": 0,
									"IsImitater": false
								},
								{
									"PlantType": "dusklobber",
									"PlantLevel": 0,
									"IsImitater": false
								},
								{
									"PlantType": "primalpotatomine",
									"PlantLevel": 0,
									"IsImitater": false
								},
								{
									"PlantType": "goldbloom",
									"PlantLevel": 0,
									"IsImitater": false
								},
								{
									"PlantType": "spikerock",
									"PlantLevel": 0,
									"IsImitater": false
								}
							]
						]
					},
					{
						"Name": "NoSunBasic",
						"Loadouts": [
							[
								{
									"PlantType": "aloe",
									"PlantLevel": 0,
									"IsImitater": false
								},
								{
									"PlantType": "cherry_bomb",
									"PlantLevel": 0,
									"IsImitater": false
								},
								{
									"PlantType": "jalapeno",
									"PlantLevel": 0,
									"IsImitater": false
								},
								{
									"PlantType": "lightningreed",
									"PlantLevel": 0,
									"IsImitater": false
								},
								{
									"PlantType": "wintermelon",
									"PlantLevel": 0,
									"IsImitater": false
								},
								{
									"PlantType": "primalpotatomine",
									"PlantLevel": 0,
									"IsImitater": false
								}
							],
							[
								{
									"PlantType": "aloe",
									"PlantLevel": 0,
									"IsImitater": false
								},
								{
									"PlantType": "wintermelon",
									"PlantLevel": 0,
									"IsImitater": false
								},
								{
									"PlantType": "dusklobber",
									"PlantLevel": 0,
									"IsImitater": false
								},
								{
									"PlantType": "primalpotatomine",
									"PlantLevel": 0,
									"IsImitater": false
								},
								{
									"PlantType": "stallia",
									"PlantLevel": 0,
									"IsImitater": false
								},
								{
									"PlantType": "cherry_bomb",
									"PlantLevel": 0,
									"IsImitater": false
								}
							],
							[
								{
									"PlantType": "aloe",
									"PlantLevel": 0,
									"IsImitater": false
								},
								{
									"PlantType": "wintermelon",
									"PlantLevel": 0,
									"IsImitater": false
								},
								{
									"PlantType": "cherry_bomb",
									"PlantLevel": 0,
									"IsImitater": false
								},
								{
									"PlantType": "springbean",
									"PlantLevel": 0,
									"IsImitater": false
								},
								{
									"PlantType": "powerplant",
									"PlantLevel": 0,
									"IsImitater": false
								},
								{
									"PlantType": "primalpotatomine",
									"PlantLevel": 0,
									"IsImitater": false
								}
							],
							[
								{
									"PlantType": "aloe",
									"PlantLevel": 0,
									"IsImitater": false
								},
								{
									"PlantType": "repeater",
									"PlantLevel": 0,
									"IsImitater": false
								},
								{
									"PlantType": "wintermelon",
									"PlantLevel": 0,
									"IsImitater": false
								},
								{
									"PlantType": "melonpult",
									"PlantLevel": 0,
									"IsImitater": false
								},
								{
									"PlantType": "wallnut",
									"PlantLevel": 0,
									"IsImitater": false
								},
								{
									"PlantType": "lavaguava",
									"PlantLevel": 0,
									"IsImitater": false
								}
							],
							[
								{
									"PlantType": "aloe",
									"PlantLevel": 0,
									"IsImitater": false
								},
								{
									"PlantType": "repeater",
									"PlantLevel": 0,
									"IsImitater": false
								},
								{
									"PlantType": "kernelpult",
									"PlantLevel": 0,
									"IsImitater": false
								},
								{
									"PlantType": "cherry_bomb",
									"PlantLevel": 0,
									"IsImitater": false
								},
								{
									"PlantType": "primalpotatomine",
									"PlantLevel": 0,
									"IsImitater": false
								},
								{
									"PlantType": "bonkchoy",
									"PlantLevel": 0,
									"IsImitater": false
								}
							],
							[
								{
									"PlantType": "aloe",
									"PlantLevel": 0,
									"IsImitater": false
								},
								{
									"PlantType": "bowlingbulb",
									"PlantLevel": 0,
									"IsImitater": false
								},
								{
									"PlantType": "primalpotatomine",
									"PlantLevel": 0,
									"IsImitater": false
								},
								{
									"PlantType": "wintermelon",
									"PlantLevel": 0,
									"IsImitater": false
								},
								{
									"PlantType": "cherry_bomb",
									"PlantLevel": 0,
									"IsImitater": false
								},
								{
									"PlantType": "jalapeno",
									"PlantLevel": 0,
									"IsImitater": false
								}
							],
							[
								{
									"PlantType": "aloe",
									"PlantLevel": 0,
									"IsImitater": false
								},
								{
									"PlantType": "cherry_bomb",
									"PlantLevel": 0,
									"IsImitater": false
								},
								{
									"PlantType": "wintermelon",
									"PlantLevel": 0,
									"IsImitater": false
								},
								{
									"PlantType": "powerplant",
									"PlantLevel": 0,
									"IsImitater": false
								},
								{
									"PlantType": "primalpotatomine",
									"PlantLevel": 0,
									"IsImitater": false
								},
								{
									"PlantType": "iceburg",
									"PlantLevel": 0,
									"IsImitater": false
								}
							]
						]
					},
					{
						"Name": "NoSunNoMagic",
						"Loadouts": [
							[
								{
									"PlantType": "aloe",
									"PlantLevel": 0,
									"IsImitater": false
								},
								{
									"PlantType": "cherry_bomb",
									"PlantLevel": 0,
									"IsImitater": false
								},
								{
									"PlantType": "jalapeno",
									"PlantLevel": 0,
									"IsImitater": false
								},
								{
									"PlantType": "lightningreed",
									"PlantLevel": 0,
									"IsImitater": false
								},
								{
									"PlantType": "wintermelon",
									"PlantLevel": 0,
									"IsImitater": false
								},
								{
									"PlantType": "primalpotatomine",
									"PlantLevel": 0,
									"IsImitater": false
								}
							],
							[
								{
									"PlantType": "aloe",
									"PlantLevel": 0,
									"IsImitater": false
								},
								{
									"PlantType": "wintermelon",
									"PlantLevel": 0,
									"IsImitater": false
								},
								{
									"PlantType": "dusklobber",
									"PlantLevel": 0,
									"IsImitater": false
								},
								{
									"PlantType": "primalpotatomine",
									"PlantLevel": 0,
									"IsImitater": false
								},
								{
									"PlantType": "stallia",
									"PlantLevel": 0,
									"IsImitater": false
								},
								{
									"PlantType": "cherry_bomb",
									"PlantLevel": 0,
									"IsImitater": false
								}
							],
							[
								{
									"PlantType": "aloe",
									"PlantLevel": 0,
									"IsImitater": false
								},
								{
									"PlantType": "wintermelon",
									"PlantLevel": 0,
									"IsImitater": false
								},
								{
									"PlantType": "cherry_bomb",
									"PlantLevel": 0,
									"IsImitater": false
								},
								{
									"PlantType": "springbean",
									"PlantLevel": 0,
									"IsImitater": false
								},
								{
									"PlantType": "powerplant",
									"PlantLevel": 0,
									"IsImitater": false
								},
								{
									"PlantType": "primalpotatomine",
									"PlantLevel": 0,
									"IsImitater": false
								}
							],
							[
								{
									"PlantType": "aloe",
									"PlantLevel": 0,
									"IsImitater": false
								},
								{
									"PlantType": "bloomerang",
									"PlantLevel": 0,
									"IsImitater": false
								},
								{
									"PlantType": "wintermelon",
									"PlantLevel": 0,
									"IsImitater": false
								},
								{
									"PlantType": "melonpult",
									"PlantLevel": 0,
									"IsImitater": false
								},
								{
									"PlantType": "wallnut",
									"PlantLevel": 0,
									"IsImitater": false
								},
								{
									"PlantType": "lavaguava",
									"PlantLevel": 0,
									"IsImitater": false
								}
							],
							[
								{
									"PlantType": "aloe",
									"PlantLevel": 0,
									"IsImitater": false
								},
								{
									"PlantType": "repeater",
									"PlantLevel": 0,
									"IsImitater": false
								},
								{
									"PlantType": "kernelpult",
									"PlantLevel": 0,
									"IsImitater": false
								},
								{
									"PlantType": "cherry_bomb",
									"PlantLevel": 0,
									"IsImitater": false
								},
								{
									"PlantType": "primalpotatomine",
									"PlantLevel": 0,
									"IsImitater": false
								},
								{
									"PlantType": "bonkchoy",
									"PlantLevel": 0,
									"IsImitater": false
								}
							],
							[
								{
									"PlantType": "aloe",
									"PlantLevel": 0,
									"IsImitater": false
								},
								{
									"PlantType": "bowlingbulb",
									"PlantLevel": 0,
									"IsImitater": false
								},
								{
									"PlantType": "primalpotatomine",
									"PlantLevel": 0,
									"IsImitater": false
								},
								{
									"PlantType": "wintermelon",
									"PlantLevel": 0,
									"IsImitater": false
								},
								{
									"PlantType": "cherry_bomb",
									"PlantLevel": 0,
									"IsImitater": false
								},
								{
									"PlantType": "jalapeno",
									"PlantLevel": 0,
									"IsImitater": false
								}
							],
							[
								{
									"PlantType": "aloe",
									"PlantLevel": 0,
									"IsImitater": false
								},
								{
									"PlantType": "cherry_bomb",
									"PlantLevel": 0,
									"IsImitater": false
								},
								{
									"PlantType": "wintermelon",
									"PlantLevel": 0,
									"IsImitater": false
								},
								{
									"PlantType": "powerplant",
									"PlantLevel": 0,
									"IsImitater": false
								},
								{
									"PlantType": "primalpotatomine",
									"PlantLevel": 0,
									"IsImitater": false
								},
								{
									"PlantType": "iceburg",
									"PlantLevel": 0,
									"IsImitater": false
								}
							]
						]
					},
					{
						"Name": "Joust29",
						"Loadouts": [
							[
								{
									"PlantType": "aloe",
									"PlantLevel": 0,
									"IsImitater": false
								},
								{
									"PlantType": "cherry_bomb",
									"PlantLevel": 0,
									"IsImitater": false
								},
								{
									"PlantType": "sunflower",
									"PlantLevel": 0,
									"IsImitater": false
								},
								{
									"PlantType": "lightningreed",
									"PlantLevel": 0,
									"IsImitater": false
								},
								{
									"PlantType": "wintermelon",
									"PlantLevel": 0,
									"IsImitater": false
								},
								{
									"PlantType": "primalpotatomine",
									"PlantLevel": 0,
									"IsImitater": false
								}
							],
							[
								{
									"PlantType": "aloe",
									"PlantLevel": 0,
									"IsImitater": false
								},
								{
									"PlantType": "wintermelon",
									"PlantLevel": 0,
									"IsImitater": false
								},
								{
									"PlantType": "dusklobber",
									"PlantLevel": 0,
									"IsImitater": false
								},
								{
									"PlantType": "primalpotatomine",
									"PlantLevel": 0,
									"IsImitater": false
								},
								{
									"PlantType": "stallia",
									"PlantLevel": 0,
									"IsImitater": false
								},
								{
									"PlantType": "sunflower",
									"PlantLevel": 0,
									"IsImitater": false
								}
							],
							[
								{
									"PlantType": "aloe",
									"PlantLevel": 0,
									"IsImitater": false
								},
								{
									"PlantType": "wintermelon",
									"PlantLevel": 0,
									"IsImitater": false
								},
								{
									"PlantType": "cherry_bomb",
									"PlantLevel": 0,
									"IsImitater": false
								},
								{
									"PlantType": "sunflower",
									"PlantLevel": 0,
									"IsImitater": false
								},
								{
									"PlantType": "powerplant",
									"PlantLevel": 0,
									"IsImitater": false
								},
								{
									"PlantType": "primalpotatomine",
									"PlantLevel": 0,
									"IsImitater": false
								}
							],
							[
								{
									"PlantType": "aloe",
									"PlantLevel": 0,
									"IsImitater": false
								},
								{
									"PlantType": "bloomerang",
									"PlantLevel": 0,
									"IsImitater": false
								},
								{
									"PlantType": "wintermelon",
									"PlantLevel": 0,
									"IsImitater": false
								},
								{
									"PlantType": "sunflower",
									"PlantLevel": 0,
									"IsImitater": false
								},
								{
									"PlantType": "wallnut",
									"PlantLevel": 0,
									"IsImitater": false
								},
								{
									"PlantType": "lavaguava",
									"PlantLevel": 0,
									"IsImitater": false
								}
							],
							[
								{
									"PlantType": "aloe",
									"PlantLevel": 0,
									"IsImitater": false
								},
								{
									"PlantType": "repeater",
									"PlantLevel": 0,
									"IsImitater": false
								},
								{
									"PlantType": "sunflower",
									"PlantLevel": 0,
									"IsImitater": false
								},
								{
									"PlantType": "cherry_bomb",
									"PlantLevel": 0,
									"IsImitater": false
								},
								{
									"PlantType": "primalpotatomine",
									"PlantLevel": 0,
									"IsImitater": false
								},
								{
									"PlantType": "bonkchoy",
									"PlantLevel": 0,
									"IsImitater": false
								}
							],
							[
								{
									"PlantType": "aloe",
									"PlantLevel": 0,
									"IsImitater": false
								},
								{
									"PlantType": "bowlingbulb",
									"PlantLevel": 0,
									"IsImitater": false
								},
								{
									"PlantType": "primalpotatomine",
									"PlantLevel": 0,
									"IsImitater": false
								},
								{
									"PlantType": "wintermelon",
									"PlantLevel": 0,
									"IsImitater": false
								},
								{
									"PlantType": "sunflower",
									"PlantLevel": 0,
									"IsImitater": false
								},
								{
									"PlantType": "jalapeno",
									"PlantLevel": 0,
									"IsImitater": false
								}
							],
							[
								{
									"PlantType": "aloe",
									"PlantLevel": 0,
									"IsImitater": false
								},
								{
									"PlantType": "cherry_bomb",
									"PlantLevel": 0,
									"IsImitater": false
								},
								{
									"PlantType": "wintermelon",
									"PlantLevel": 0,
									"IsImitater": false
								},
								{
									"PlantType": "sunflower",
									"PlantLevel": 0,
									"IsImitater": false
								},
								{
									"PlantType": "primalpotatomine",
									"PlantLevel": 0,
									"IsImitater": false
								},
								{
									"PlantType": "iceburg",
									"PlantLevel": 0,
									"IsImitater": false
								}
							]
						]
					},
					{
						"Name": "BootCamp",
						"Loadouts": [
							[
								{
									"PlantType": "snowpea",
									"PlantLevel": 0,
									"IsImitater": false
								},
								{
									"PlantType": "sunflower",
									"PlantLevel": 0,
									"IsImitater": false
								},
								{
									"PlantType": "kernelpult",
									"PlantLevel": 0,
									"IsImitater": false
								},
								{
									"PlantType": "spikeweed",
									"PlantLevel": 0,
									"IsImitater": false
								},
								{
									"PlantType": "repeater",
									"PlantLevel": 0,
									"IsImitater": false
								},
								{
									"PlantType": "cherry_bomb",
									"PlantLevel": 0,
									"IsImitater": false
								}
							],
							[
								{
									"PlantType": "snowpea",
									"PlantLevel": 0,
									"IsImitater": false
								},
								{
									"PlantType": "sunflower",
									"PlantLevel": 0,
									"IsImitater": false
								},
								{
									"PlantType": "spikeweed",
									"PlantLevel": 0,
									"IsImitater": false
								},
								{
									"PlantType": "threepeater",
									"PlantLevel": 0,
									"IsImitater": false
								},
								{
									"PlantType": "kernelpult",
									"PlantLevel": 0,
									"IsImitater": false
								},
								{
									"PlantType": "wallnut",
									"PlantLevel": 0,
									"IsImitater": false
								}
							],
							[
								{
									"PlantType": "snowpea",
									"PlantLevel": 0,
									"IsImitater": false
								},
								{
									"PlantType": "twinsunflower",
									"PlantLevel": 0,
									"IsImitater": false
								},
								{
									"PlantType": "kernelpult",
									"PlantLevel": 0,
									"IsImitater": false
								},
								{
									"PlantType": "potatomine",
									"PlantLevel": 0,
									"IsImitater": false
								},
								{
									"PlantType": "cherry_bomb",
									"PlantLevel": 0,
									"IsImitater": false
								},
								{
									"PlantType": "wallnut",
									"PlantLevel": 0,
									"IsImitater": false
								}
							],
							[
								{
									"PlantType": "snowpea",
									"PlantLevel": 0,
									"IsImitater": false
								},
								{
									"PlantType": "sunflower",
									"PlantLevel": 0,
									"IsImitater": false
								},
								{
									"PlantType": "wintermelon",
									"PlantLevel": 0,
									"IsImitater": false
								},
								{
									"PlantType": "kernelpult",
									"PlantLevel": 0,
									"IsImitater": false
								},
								{
									"PlantType": "cherry_bomb",
									"PlantLevel": 0,
									"IsImitater": false
								},
								{
									"PlantType": "wallnut",
									"PlantLevel": 0,
									"IsImitater": false
								}
							],
							[
								{
									"PlantType": "snowpea",
									"PlantLevel": 0,
									"IsImitater": false
								},
								{
									"PlantType": "sunflower",
									"PlantLevel": 0,
									"IsImitater": false
								},
								{
									"PlantType": "powerlily",
									"PlantLevel": 0,
									"IsImitater": false
								},
								{
									"PlantType": "tallnut",
									"PlantLevel": 0,
									"IsImitater": false
								},
								{
									"PlantType": "spearmint",
									"PlantLevel": 0,
									"IsImitater": false
								},
								{
									"PlantType": "cherry_bomb",
									"PlantLevel": 0,
									"IsImitater": false
								}
							]
						]
					},
					{
						"Name": "NoSunMagic",
						"Loadouts": [
							[
								{
									"PlantType": "aloe",
									"PlantLevel": 0,
									"IsImitater": false
								},
								{
									"PlantType": "powerlily",
									"PlantLevel": 0,
									"IsImitater": false
								},
								{
									"PlantType": "powerplant",
									"PlantLevel": 0,
									"IsImitater": false
								},
								{
									"PlantType": "shrinkingviolet",
									"PlantLevel": 0,
									"IsImitater": false
								},
								{
									"PlantType": "primalpotatomine",
									"PlantLevel": 0,
									"IsImitater": false
								},
								{
									"PlantType": "hurrikale",
									"PlantLevel": 0,
									"IsImitater": false
								}
							],
							[
								{
									"PlantType": "aloe",
									"PlantLevel": 0,
									"IsImitater": false
								},
								{
									"PlantType": "wintermelon",
									"PlantLevel": 0,
									"IsImitater": false
								},
								{
									"PlantType": "laser_bean",
									"PlantLevel": 0,
									"IsImitater": false
								},
								{
									"PlantType": "powerplant",
									"PlantLevel": 0,
									"IsImitater": false
								},
								{
									"PlantType": "squash",
									"PlantLevel": 0,
									"IsImitater": false
								},
								{
									"PlantType": "shrinkingviolet",
									"PlantLevel": 0,
									"IsImitater": false
								}
							],
							[
								{
									"PlantType": "aloe",
									"PlantLevel": 0,
									"IsImitater": false
								},
								{
									"PlantType": "caulipower",
									"PlantLevel": 0,
									"IsImitater": false
								},
								{
									"PlantType": "applemortar",
									"PlantLevel": 0,
									"IsImitater": false
								},
								{
									"PlantType": "shrinkingviolet",
									"PlantLevel": 0,
									"IsImitater": false
								},
								{
									"PlantType": "explodeonut",
									"PlantLevel": 0,
									"IsImitater": false
								},
								{
									"PlantType": "bombegranate",
									"PlantLevel": 0,
									"IsImitater": false
								}
							]
						]
					},
					{
						"Name": "PvZClassic",
						"Loadouts": [
							[
								{
									"PlantType": "aloe",
									"PlantLevel": 0,
									"IsImitater": false
								},
								{
									"PlantType": "repeater",
									"PlantLevel": 0,
									"IsImitater": false
								},
								{
									"PlantType": "spikerock",
									"PlantLevel": 0,
									"IsImitater": false
								},
								{
									"PlantType": "cherry_bomb",
									"PlantLevel": 0,
									"IsImitater": false
								},
								{
									"PlantType": "twinsunflower",
									"PlantLevel": 0,
									"IsImitater": false
								},
								{
									"PlantType": "appeasemint",
									"PlantLevel": 0,
									"IsImitater": false
								}
							],
							[
								{
									"PlantType": "aloe",
									"PlantLevel": 0,
									"IsImitater": false
								},
								{
									"PlantType": "wintermelon",
									"PlantLevel": 0,
									"IsImitater": false
								},
								{
									"PlantType": "appeasemint",
									"PlantLevel": 0,
									"IsImitater": false
								},
								{
									"PlantType": "garlic",
									"PlantLevel": 0,
									"IsImitater": false
								},
								{
									"PlantType": "sunflower",
									"PlantLevel": 0,
									"IsImitater": false
								},
								{
									"PlantType": "squash",
									"PlantLevel": 0,
									"IsImitater": false
								}
							],
							[
								{
									"PlantType": "aloe",
									"PlantLevel": 0,
									"IsImitater": false
								},
								{
									"PlantType": "spikeweed",
									"PlantLevel": 0,
									"IsImitater": false
								},
								{
									"PlantType": "sunshroom",
									"PlantLevel": 0,
									"IsImitater": false
								},
								{
									"PlantType": "threepeater",
									"PlantLevel": 0,
									"IsImitater": false
								},
								{
									"PlantType": "spearmint",
									"PlantLevel": 0,
									"IsImitater": false
								},
								{
									"PlantType": "appeasemint",
									"PlantLevel": 0,
									"IsImitater": false
								}
							]
						]
					},
					{
						"Name": "FamilyFeud1",
						"Loadouts": [
							[
								{
									"PlantType": "concealmint",
									"PlantLevel": 0,
									"IsImitater": false
								},
								{
									"PlantType": "shadowpeashooter",
									"PlantLevel": 0,
									"IsImitater": false
								},
								{
									"PlantType": "moonflower",
									"PlantLevel": 0,
									"IsImitater": false
								},
								{
									"PlantType": "nightshade",
									"PlantLevel": 0,
									"IsImitater": false
								},
								{
									"PlantType": "grimrose",
									"PlantLevel": 0,
									"IsImitater": false
								},
								{
									"PlantType": "dusklobber",
									"PlantLevel": 0,
									"IsImitater": false
								}
							]
						]
					}
				]
			}
		}
	]
}