{
	"version": 1,
	"objects": [
		{
			"aliases": [
				"NewsData"
			],
			"objclass": "SettingsNewsData",
			"objdata": {
				"NewsDataEntries": [
					{
						"Date": 1632243600,
						"LocalizedData": {
							"en": {
								"Text": "Fall up with PvZ2's new and endlessly exciting Autumn update, which includes:\n• Two new plants: Noctarine and Heath Seeker\n• New Zombie: ZCorp Chair Racer skids into Penny's Pursuit\n• Groovy new feature: Rent-a-Plant\n• An all-new Fall-Harvest event, plus the fan-fave Lawn of Doom event\n• Store and Travel Log improvements\n• New loading screen art\n• Plus loads of bug fixes!",
								"DownloadableBanner": ""
							},
							"es": {
								"Text": "Descubre la nueva y emocionante actualización otoñal de PvZ2, que incluye:\n• Dos plantas nuevas: Noctarina y Brezal.\n• Zombi nuevo: Atleta de silla de ZCorp llega derrapando a La búsqueda de Penny.\n• Función nueva: Alquiler de plantas.\n• Un evento nuevo para celebrar la cosecha de otoño y el regreso del popular Patio de la perdición.\n• Mejoras en la Tienda y en el Tronco de viaje.\n• Nuevo diseño de la pantalla de carga.\n• ¡Además de un montón de resoluciones de errores!"
							},
							"de": {
								"Text": "Erlebe das neue, endlos spannende Herbst-Update von PvZ 2, das Folgendes enthält:\n• Zwei neue Pflanzen: Noktarine und Heiße Heide\n• Neuer Zombie: Der ZCorp-Rennstuhl geht bei der Penny-Jagd an den Start\n• Neues, cooles Feature: Miet-ne-Pflanze\n• Brandneues Herbsternte-Event und das allseits beliebte Rasen der Verdammnis -Event\n• Verbesserungen am Laden und beim Reiseklotz\n• Neues Ladebildschirm-Design\n• Jede Menge Bugfixes!"
							},
							"fr": {
								"Text": "Découvrez la nouvelle et fascinante mise à jour d’automne pour PvZ2, qui inclut :\n• Deux nouvelles plantes : Noctarine et Bruyère guidée\n• Un nouveau zombie : le Pilote de chaise ZCorp met les gaz dans La course-poursuite de Penny\n• Une nouvelle fonctionnalité qui claque : la location de plante\n• Un tout nouvel événement Moisson d’automne et le retour du Gazon de la mort\n• Améliorations du carnet de voyage et de la boutique\n• Nouvel écran de chargement\n• Et de nombreuses corrections de bugs !"
							},
							"it": {
								"Text": "Sfoglia il nuovo ed entusiasmante aggiornamento autunnale di PvZ2, che include:\n• Due nuove piante: la nottarina e l'erica sibilante\n• Un nuovo zombi: il corridore su sedia ZCorp sfreccia in Ricerche di Penny\n• Una nuova funzionalità: Pianta a noleggio\n• Un nuovissimo evento Raccolto autunnale e l'evento preferito dei fan Prato della sventura\n• Miglioramenti al negozio e al diario di viaggio\n• Nuova grafica della schermata di caricamento\n• Tantissime risoluzioni di bug!"
							},
							"pt": {
								"Text": "Venha colher a nova e emocionante atualização de outono de PvZ2, que inclui:\n• Duas novas plantas: Noturnarina e Urze Caçadora\n• Novo zumbi: o Piloto de Cadeira da ZCorp entra derrapando na Perseguição da Penny\n• Novo recurso bacana: Aluguel de Plantas\n• Um novo evento da Colheita de Outono, mais o evento favorito de fãs, o Gramado da Ruína\n• Melhorias no Diário de Viagem e na Loja\n• Nova arte na tela de carregamento\n• Além de várias correções de bugs!"
							}
						}
					},
					{
						"Date": 1628614800,
						"LocalizedData": {
							"en": {
								"Text": "Summer is loaded with fun-- just like PvZ2! Check out PvZ2's newest update, which includes:\n• TWO new plants: Solar Sage and Power Vine!\n• Dr. Zomboss scheming to disrupt the illuminating Big Brainz event, with special rewards and challenges!\n• Plant improvements: Chomper, Snow Pea, Snapdragon and Electric Currant\n• Fun new Loading Screen Art!\n• A whole new Travel Log!",
								"DownloadableBanner": ""
							},
							"es": {
								"Text": "El verano es todo diversión. ¡Igual que PvZ2! No te pierdas la nueva actualización de PvZ2, que incluye:\n• DOS plantas nuevas: ¡Salvia solar y Enredadera peligrosa!\n• Dr. Zombi está planeando arruinar el brillantísimo evento Grandez cerebroz, ¡repleto de retos y premios especiales!\n• Mejoras para las plantas: Planta Carnívora, Hielaguisantes, Boca de dragón y Grosella eléctrica\n• ¡Una nueva pantalla de carga muy divertida!\n• ¡Un Tronco de viaje totalmente nuevo!"
							},
							"de": {
								"Text": "Der Sommer ist voller Spaß – genau wie PvZ2! Check das neueste Update für PvZ2 mit tollen Ergänzungen aus:\n• ZWEI neue Pflanzen: Solar-Salbei und Power-Ranke!\n• Dr. Zomboss hat vor, das erleuchtende Großhirn-Event zu stören – mit besonderen Belohnungen und Herausforderungen!\n• Pflanzen-Verbesserungen: Schnapper, Hagelzuckererbse, Drachenmäulchen und Elektro-Ribisel\n• Tolles neues Ladebildschirm-Design!\n• Ein komplett neuer Reiseklotz!"
							},
							"fr": {
								"Text": "Amusez-vous cet été avec PVZ2 ! Au programme de cette toute nouvelle mise à jour pour PvZ2 :\n• DEUX nouvelles plantes : Sauge solaire et Électrivigne !\n• Dr  Zomboss tente de perturber le fabuleux événement Grosse tête avec des récompenses et des défis spéciaux !\n• Améliorations des plantes : Mordeur, Pois geleur, Gueule-de-dragon et Électro-cassis\n• un nouvel écran de chargement amusant !\n• un carnet de voyage inédit !"
							},
							"it": {
								"Text": "L'estate è carica di divertimento... proprio come PvZ2! Dai un'occhiata al nuovo aggiornamento di PvZ2 che include:\n• DUE nuove piante: la salvia solare e il rampicante elettrico!\n• Il Prof. Zombotron sta complottando per ostacolare l'illuminante evento Grandi cervelli, con ricompense e sfide speciali!\n• Miglioramenti alle piante: masticazombi, sparabrina, bocca di drago e ribes elettrico\n• Nuova e divertente grafica della schermata di caricamento!\n• Un Diario di viaggio completamente nuovo!"
							},
							"pt": {
								"Text": "As férias estão cheias de diversão, igualzinho a PvZ2! Confira a mais recente atualização de PvZ2, que inclui:\n• DUAS novas plantas: a Sálvia Solar e a Trepadeira Elétrica!\n• O Dr. Zumbão está planejando abalar o evento iluminador Grandes Mioloz com recompensas e desafios especiais!\n• Melhorias das plantas: Carnívora, Gelervilha, Boca-de-Dragão e Groselhelétrica\n• Arte nova e divertida para a tela de carregamento!\n• Um Diário de Viagem novinho!"
							}
						}
					}
				]
			}
		}
	]
}