{
	"#comment": "Plant Mastery Global Data",
	"version": 1,
	"objects": [
		{
			"objclass": "PlantMasteryProperties",
			"objdata": {
				"AlmanacDataEntries": [
					{
						"LevelToUnlock": "0",
						"StatName": "Piercing",
						"StatNameAlias": "Piercing",
						"StatType": "masterypiercing",
						"StatValue": "masterypiercing",
						"TypeStringID": "[STAT_PIERCING]",
						"ValueStringID": "[STAT_PIERCING]",
						"ReqScaledPropKey": "MasteryResistancePiercing",
						"NumberFormat": "percent"
					},
					{
						"LevelToUnlock": "0",
						"StatName": "Boost",
						"StatNameAlias": "Boost",
						"StatType": "masteryboost",
						"StatValue": "masteryboost",
						"TypeStringID": "[STAT_BOOST]",
						"ValueStringID": "[STAT_BOOST]",
						"ReqScaledPropKey": "MasteryBoostChance",
						"NumberFormat": "percent"
					},
					{
						"LevelToUnlock": "0",
						"StatName": "Health",
						"StatNameAlias": "Health",
						"StatType": "masteryhealth",
						"StatValue": "masteryhealth",
						"TypeStringID": "[STAT_HEALTH_MASTERY]",
						"ValueStringID": "[STAT_HEALTH_MASTERY]",
						"ReqScaledPropKey": "Hitpoints",
						"NumberFormat": "addnumber"
					}
				],
				"LevelCap": 200,
				"LevelCoins": [
					0,
					250,
					250,
					250,
					250,
					500,
					500,
					500,
					500,
					1000,
					1000,
					1000,
					1000,
					2000,
					2000,
					2000,
					2000,
					3000,
					3000,
					3000,
					3000,
					4000,
					4000,
					4000,
					4000,
					5000,
					5000,
					5000,
					5000,
					6000,
					6000,
					6000,
					6000,
					7000,
					7000,
					7000,
					7000,
					8000,
					8000,
					8000,
					8000,
					9000,
					9000,
					9000,
					9000,
					10000,
					10000,
					10000,
					10000,
					20000,
					250,
					250,
					250,
					250,
					250,
					500,
					500,
					500,
					500,
					1000,
					1000,
					1000,
					1000,
					2000,
					2000,
					2000,
					2000,
					3000,
					3000,
					3000,
					3000,
					4000,
					4000,
					4000,
					4000,
					5000,
					5000,
					5000,
					5000,
					6000,
					6000,
					6000,
					6000,
					7000,
					7000,
					7000,
					7000,
					8000,
					8000,
					8000,
					8000,
					9000,
					9000,
					9000,
					9000,
					10000,
					10000,
					10000,
					10000,
					20000,
					250,
					250,
					250,
					250,
					250,
					500,
					500,
					500,
					500,
					1000,
					1000,
					1000,
					1000,
					2000,
					2000,
					2000,
					2000,
					3000,
					3000,
					3000,
					3000,
					4000,
					4000,
					4000,
					4000,
					5000,
					5000,
					5000,
					5000,
					6000,
					6000,
					6000,
					6000,
					7000,
					7000,
					7000,
					7000,
					8000,
					8000,
					8000,
					8000,
					9000,
					9000,
					9000,
					9000,
					10000,
					10000,
					10000,
					10000,
					20000,
					250,
					250,
					250,
					250,
					250,
					500,
					500,
					500,
					500,
					1000,
					1000,
					1000,
					1000,
					2000,
					2000,
					2000,
					2000,
					3000,
					3000,
					3000,
					3000,
					4000,
					4000,
					4000,
					4000,
					5000,
					5000,
					5000,
					5000,
					6000,
					6000,
					6000,
					6000,
					7000,
					7000,
					7000,
					7000,
					8000,
					8000,
					8000,
					8000,
					9000,
					9000,
					9000,
					9000,
					10000,
					10000,
					10000,
					10000,
					20000
				],
				"LevelXP": [
					10,
					20,
					30,
					40,
					50,
					60,
					70,
					80,
					90,
					100,
					20,
					30,
					40,
					50,
					60,
					70,
					80,
					90,
					100,
					110,
					30,
					40,
					50,
					60,
					70,
					80,
					90,
					100,
					110,
					120,
					40,
					50,
					60,
					70,
					80,
					90,
					100,
					110,
					120,
					130,
					50,
					60,
					70,
					80,
					90,
					100,
					110,
					120,
					130,
					140,
					60,
					70,
					80,
					90,
					100,
					110,
					120,
					130,
					140,
					150,
					70,
					80,
					90,
					100,
					110,
					120,
					130,
					140,
					150,
					160,
					80,
					90,
					100,
					110,
					120,
					130,
					140,
					150,
					160,
					170,
					90,
					100,
					110,
					120,
					130,
					140,
					150,
					160,
					170,
					180,
					100,
					110,
					120,
					130,
					140,
					150,
					160,
					170,
					180,
					190,
					110,
					120,
					130,
					140,
					150,
					160,
					170,
					180,
					190,
					200,
					120,
					130,
					140,
					150,
					160,
					170,
					180,
					190,
					200,
					210,
					130,
					140,
					150,
					160,
					170,
					180,
					190,
					200,
					210,
					220,
					140,
					150,
					160,
					170,
					180,
					190,
					200,
					210,
					220,
					230,
					150,
					160,
					170,
					180,
					190,
					200,
					210,
					220,
					230,
					240,
					160,
					170,
					180,
					190,
					200,
					210,
					220,
					230,
					240,
					250,
					170,
					180,
					190,
					200,
					210,
					220,
					230,
					240,
					250,
					260,
					180,
					190,
					200,
					210,
					220,
					230,
					240,
					250,
					260,
					270,
					190,
					200,
					210,
					220,
					230,
					240,
					250,
					260,
					270,
					280,
					200,
					210,
					220,
					230,
					240,
					250,
					260,
					270,
					280,
					290
				]
			}
		}
	]
}