{
	"version": 1,
	"objects": [
		{
			"uid": "1.0.ffffffff",
			"objclass": "WorldMapList",
			"objdata": {
				"MapList": [
					{
						"MapName": "tutorial",
						"UnlockedFrom": "",
						"EntryPoint": "tutorial_level_intro1",
						"Difficulty": 1,
						"LastLevel": [
							"tutorial4"
						],
						"ComingSoon": false,
						"Hidden": true,
						"UniverseIconOffset": {
							"mX": 0,
							"mY": 0
						},
						"Disabled": false,
						"UseNightSpiral": false,
						"DrawWorldName": true,
						"PreviewEventPanel": "IMAGE_BACKGROUNDS_EGYPT_TEXTURE",
						"PreviewResGroup": "DelayLoad_Background_Egypt_Compressed",
						"WorldResources": {
							"ID": 0,
							"ResGroups": [],
							"ImagePrefix": "IMAGE_WORLDMAP_TUTORIAL",
							"AnimationPrefix": "",
							"AnimationDetails": [
								{
									"AnimNumber": 1,
									"AnimReplayDelayTimeMin": 0.0,
									"AnimReplayDelayTimeMax": 0.0,
									"UsesRasterizedImagesInAnim": false
								}
							]
						}
					},
					{
						"MapName": "egypt",
						"UnlockedFrom": "",
						"EntryPoint": "egypt_level_1",
						"Difficulty": 2,
						"LastLevel": [
							"egypt25"
						],
						"ComingSoon": false,
						"Hidden": false,
						"UniverseIconOffset": {
							"mX": 9,
							"mY": 0
						},
						"Disabled": false,
						"UseNightSpiral": false,
						"DrawWorldName": true,
						"PreviewEventPanel": "IMAGE_BACKGROUNDS_EGYPT_TEXTURE",
						"PreviewResGroup": "DelayLoad_Background_Egypt_Compressed",
						"WorldResources": {
							"ID": 1,
							"ResGroups": [
								"WorldMap_Egypt",
								"WorldMap_Egypt_NonPVR"
							],
							"ImagePrefix": "IMAGE_WORLDMAP_EGYPT",
							"AnimationPrefix": "POPANIM_WORLDMAP_EGYPT",
							"AnimationDetails": [
								{
									"AnimNumber": 1,
									"AnimReplayDelayTimeMin": 6.0,
									"AnimReplayDelayTimeMax": 12.0,
									"UsesRasterizedImagesInAnim": true
								},
								{
									"AnimNumber": 3,
									"AnimReplayDelayTimeMin": 3.0,
									"AnimReplayDelayTimeMax": 10.0,
									"UsesRasterizedImagesInAnim": true
								},
								{
									"AnimNumber": 4,
									"AnimReplayDelayTimeMin": 10.0,
									"AnimReplayDelayTimeMax": 25.0,
									"UsesRasterizedImagesInAnim": true
								},
								{
									"AnimNumber": 5,
									"AnimReplayDelayTimeMin": 0.0,
									"AnimReplayDelayTimeMax": 0.0,
									"UsesRasterizedImagesInAnim": true
								},
								{
									"AnimNumber": 6,
									"AnimReplayDelayTimeMin": 0.0,
									"AnimReplayDelayTimeMax": 0.0,
									"UsesRasterizedImagesInAnim": true
								},
								{
									"AnimNumber": 7,
									"AnimReplayDelayTimeMin": 0.0,
									"AnimReplayDelayTimeMax": 0.0,
									"UsesRasterizedImagesInAnim": true
								},
								{
									"AnimNumber": 8,
									"AnimReplayDelayTimeMin": 12.0,
									"AnimReplayDelayTimeMax": 20.0,
									"UsesRasterizedImagesInAnim": true
								}
							]
						}
					},
					{
						"MapName": "pirate",
						"UnlockedFrom": "pirate_stargate_start",
						"EntryPoint": "pirate_level_1",
						"Difficulty": 2,
						"LastLevel": [
							"pirate25"
						],
						"ComingSoon": false,
						"Hidden": false,
						"UniverseIconOffset": {
							"mX": 19,
							"mY": 0
						},
						"Disabled": false,
						"UseNightSpiral": false,
						"DrawWorldName": true,
						"PreviewEventPanel": "IMAGE_BACKGROUNDS_PIRATE_TEXTURE",
						"PreviewResGroup": "DelayLoad_Background_Pirate_Compressed",
						"WorldResources": {
							"ID": 2,
							"ResGroups": [
								"WorldMap_Pirate",
								"WorldMap_Pirate_NonPVR"
							],
							"ImagePrefix": "IMAGE_WORLDMAP_PIRATE",
							"AnimationPrefix": "POPANIM_WORLDMAP_PIRATE",
							"AnimationDetails": [
								{
									"AnimNumber": 1,
									"AnimReplayDelayTimeMin": 0.0,
									"AnimReplayDelayTimeMax": 3.0,
									"UsesRasterizedImagesInAnim": true
								},
								{
									"AnimNumber": 2,
									"AnimReplayDelayTimeMin": 0.0,
									"AnimReplayDelayTimeMax": 0.0,
									"UsesRasterizedImagesInAnim": true
								},
								{
									"AnimNumber": 4,
									"AnimReplayDelayTimeMin": 0.0,
									"AnimReplayDelayTimeMax": 3.0,
									"UsesRasterizedImagesInAnim": true
								},
								{
									"AnimNumber": 14,
									"AnimReplayDelayTimeMin": 0.0,
									"AnimReplayDelayTimeMax": 0.0,
									"UsesRasterizedImagesInAnim": true
								}
							]
						}
					},
					{
						"MapName": "cowboy",
						"UnlockedFrom": "cowboy_stargate_start",
						"EntryPoint": "cowboy_level_1",
						"Difficulty": 3,
						"LastLevel": [
							"cowboy25"
						],
						"ComingSoon": false,
						"Hidden": false,
						"UniverseIconOffset": {
							"mX": 21,
							"mY": 0
						},
						"Disabled": false,
						"UseNightSpiral": false,
						"DrawWorldName": true,
						"PreviewEventPanel": "IMAGE_BACKGROUNDS_OLDWEST_TEXTURE",
						"PreviewResGroup": "DelayLoad_Background_West_Compressed",
						"WorldResources": {
							"ID": 3,
							"ResGroups": [
								"WorldMap_Cowboy",
								"WorldMap_Cowboy_NonPVR"
							],
							"ImagePrefix": "IMAGE_WORLDMAP_COWBOY",
							"AnimationPrefix": "POPANIM_WORLDMAP_COWBOY",
							"AnimationDetails": [
								{
									"AnimNumber": 1,
									"AnimReplayDelayTimeMin": 6.0,
									"AnimReplayDelayTimeMax": 12.0,
									"UsesRasterizedImagesInAnim": false
								},
								{
									"AnimNumber": 2,
									"AnimReplayDelayTimeMin": 12.0,
									"AnimReplayDelayTimeMax": 30.0,
									"UsesRasterizedImagesInAnim": false
								},
								{
									"AnimNumber": 3,
									"AnimReplayDelayTimeMin": 6.0,
									"AnimReplayDelayTimeMax": 12.0,
									"UsesRasterizedImagesInAnim": false
								},
								{
									"AnimNumber": 4,
									"AnimReplayDelayTimeMin": 0.0,
									"AnimReplayDelayTimeMax": 0.0,
									"UsesRasterizedImagesInAnim": false
								},
								{
									"AnimNumber": 5,
									"AnimReplayDelayTimeMin": 0.0,
									"AnimReplayDelayTimeMax": 0.0,
									"UsesRasterizedImagesInAnim": false
								},
								{
									"AnimNumber": 6,
									"AnimReplayDelayTimeMin": 0.0,
									"AnimReplayDelayTimeMax": 0.0,
									"UsesRasterizedImagesInAnim": true
								},
								{
									"AnimNumber": 7,
									"AnimReplayDelayTimeMin": 0.0,
									"AnimReplayDelayTimeMax": 0.0,
									"UsesRasterizedImagesInAnim": true
								},
								{
									"AnimNumber": 8,
									"AnimReplayDelayTimeMin": 0.0,
									"AnimReplayDelayTimeMax": 0.0,
									"UsesRasterizedImagesInAnim": true
								},
								{
									"AnimNumber": 9,
									"AnimReplayDelayTimeMin": 0.0,
									"AnimReplayDelayTimeMax": 0.0,
									"UsesRasterizedImagesInAnim": true
								}
							]
						}
					},
					{
						"MapName": "iceage",
						"UnlockedFrom": "iceage_stargate_start",
						"EntryPoint": "iceage_level_1",
						"Difficulty": 3,
						"LastLevel": [
							"iceage30"
						],
						"ComingSoon": false,
						"Hidden": false,
						"UniverseIconOffset": {
							"mX": 0,
							"mY": 0
						},
						"Disabled": false,
						"UseNightSpiral": false,
						"DrawWorldName": true,
						"PreviewEventPanel": "IMAGE_BACKGROUNDS_ICEAGE_TEXTURE",
						"PreviewResGroup": "DelayLoad_Background_Iceage_Compressed",
						"WorldResources": {
							"ID": 4,
							"ResGroups": [
								"WorldMap_Iceage",
								"WorldMap_Iceage_NonPVR"
							],
							"ImagePrefix": "IMAGE_WORLDMAP_ICEAGE",
							"AnimationPrefix": "POPANIM_WORLDMAP_ICEAGE",
							"AnimationDetails": [
								{
									"AnimNumber": 3,
									"AnimReplayDelayTimeMin": 0.0,
									"AnimReplayDelayTimeMax": 0.0,
									"UsesRasterizedImagesInAnim": true
								},
								{
									"AnimNumber": 10,
									"AnimReplayDelayTimeMin": 5.0,
									"AnimReplayDelayTimeMax": 10.0,
									"UsesRasterizedImagesInAnim": true
								},
								{
									"AnimNumber": 11,
									"AnimReplayDelayTimeMin": 5.0,
									"AnimReplayDelayTimeMax": 10.0,
									"UsesRasterizedImagesInAnim": true
								},
								{
									"AnimNumber": 12,
									"AnimReplayDelayTimeMin": 5.0,
									"AnimReplayDelayTimeMax": 10.0,
									"UsesRasterizedImagesInAnim": true
								},
								{
									"AnimNumber": 13,
									"AnimReplayDelayTimeMin": 0.0,
									"AnimReplayDelayTimeMax": 0.0,
									"UsesRasterizedImagesInAnim": true
								},
								{
									"AnimNumber": 14,
									"AnimReplayDelayTimeMin": 0.0,
									"AnimReplayDelayTimeMax": 0.0,
									"UsesRasterizedImagesInAnim": true
								},
								{
									"AnimNumber": 15,
									"AnimReplayDelayTimeMin": 0.0,
									"AnimReplayDelayTimeMax": 0.0,
									"UsesRasterizedImagesInAnim": true
								},
								{
									"AnimNumber": 16,
									"AnimReplayDelayTimeMin": 0.0,
									"AnimReplayDelayTimeMax": 0.0,
									"UsesRasterizedImagesInAnim": true
								},
								{
									"AnimNumber": 17,
									"AnimReplayDelayTimeMin": 0.0,
									"AnimReplayDelayTimeMax": 0.0,
									"UsesRasterizedImagesInAnim": true
								},
								{
									"AnimNumber": 14,
									"AnimReplayDelayTimeMin": 0.0,
									"AnimReplayDelayTimeMax": 0.0,
									"UsesRasterizedImagesInAnim": true
								},
								{
									"AnimNumber": 15,
									"AnimReplayDelayTimeMin": 0.0,
									"AnimReplayDelayTimeMax": 0.0,
									"UsesRasterizedImagesInAnim": true
								},
								{
									"AnimNumber": 16,
									"AnimReplayDelayTimeMin": 0.0,
									"AnimReplayDelayTimeMax": 0.0,
									"UsesRasterizedImagesInAnim": true
								},
								{
									"AnimNumber": 17,
									"AnimReplayDelayTimeMin": 0.0,
									"AnimReplayDelayTimeMax": 0.0,
									"UsesRasterizedImagesInAnim": true
								},
								{
									"AnimNumber": 19,
									"AnimReplayDelayTimeMin": 0.0,
									"AnimReplayDelayTimeMax": 0.0,
									"UsesRasterizedImagesInAnim": true
								},
								{
									"AnimNumber": 22,
									"AnimReplayDelayTimeMin": 0.0,
									"AnimReplayDelayTimeMax": 0.0,
									"UsesRasterizedImagesInAnim": true
								},
								{
									"AnimNumber": 23,
									"AnimReplayDelayTimeMin": 0.0,
									"AnimReplayDelayTimeMax": 0.0,
									"UsesRasterizedImagesInAnim": true
								},
								{
									"AnimNumber": 24,
									"AnimReplayDelayTimeMin": 0.0,
									"AnimReplayDelayTimeMax": 0.0,
									"UsesRasterizedImagesInAnim": true
								},
								{
									"AnimNumber": 26,
									"AnimReplayDelayTimeMin": 0.0,
									"AnimReplayDelayTimeMax": 0.0,
									"UsesRasterizedImagesInAnim": true
								},
								{
									"AnimNumber": 27,
									"AnimReplayDelayTimeMin": 0.0,
									"AnimReplayDelayTimeMax": 0.0,
									"UsesRasterizedImagesInAnim": true
								},
								{
									"AnimNumber": 28,
									"AnimReplayDelayTimeMin": 0.0,
									"AnimReplayDelayTimeMax": 0.0,
									"UsesRasterizedImagesInAnim": true
								}
							]
						}
					},
					{
						"MapName": "lostcity",
						"UnlockedFrom": "lostcity_stargate_start",
						"EntryPoint": "lostcity_level_1",
						"Difficulty": 3,
						"LastLevel": [
							"lostcity32"
						],
						"ComingSoon": false,
						"DrawWorldName": true,
						"Hidden": false,
						"UniverseIconOffset": {
							"mX": 0,
							"mY": 0
						},
						"Disabled": false,
						"UseNightSpiral": false,
						"PreviewEventPanel": "IMAGE_BACKGROUNDS_LOSTCITY_TEXTURE",
						"PreviewResGroup": "DelayLoad_Background_LostCity_Compressed",
						"WorldResources": {
							"ID": 5,
							"ResGroups": [
								"WorldMap_LostCity",
								"WorldMap_LostCity_NonPVR"
							],
							"ImagePrefix": "IMAGE_WORLDMAP_LOSTCITY",
							"AnimationPrefix": "POPANIM_WORLDMAP_LOSTCITY",
							"AnimationDetails": [
								{
									"AnimNumber": 1,
									"AnimReplayDelayTimeMin": 0.0,
									"AnimReplayDelayTimeMax": 0.0,
									"UsesRasterizedImagesInAnim": true
								},
								{
									"AnimNumber": 2,
									"AnimReplayDelayTimeMin": 0.0,
									"AnimReplayDelayTimeMax": 0.0,
									"UsesRasterizedImagesInAnim": true
								},
								{
									"AnimNumber": 3,
									"AnimReplayDelayTimeMin": 0.0,
									"AnimReplayDelayTimeMax": 0.0,
									"UsesRasterizedImagesInAnim": true
								},
								{
									"AnimNumber": 4,
									"AnimReplayDelayTimeMin": 0.0,
									"AnimReplayDelayTimeMax": 0.0,
									"UsesRasterizedImagesInAnim": true
								},
								{
									"AnimNumber": 5,
									"AnimReplayDelayTimeMin": 0.0,
									"AnimReplayDelayTimeMax": 0.0,
									"UsesRasterizedImagesInAnim": true
								},
								{
									"AnimNumber": 6,
									"AnimReplayDelayTimeMin": 0.0,
									"AnimReplayDelayTimeMax": 0.0,
									"UsesRasterizedImagesInAnim": true
								},
								{
									"AnimNumber": 7,
									"AnimReplayDelayTimeMin": 0.0,
									"AnimReplayDelayTimeMax": 0.0,
									"UsesRasterizedImagesInAnim": true
								},
								{
									"AnimNumber": 8,
									"AnimReplayDelayTimeMin": 0.0,
									"AnimReplayDelayTimeMax": 0.0,
									"UsesRasterizedImagesInAnim": true
								},
								{
									"AnimNumber": 9,
									"AnimReplayDelayTimeMin": 0.0,
									"AnimReplayDelayTimeMax": 0.0,
									"UsesRasterizedImagesInAnim": true
								},
								{
									"AnimNumber": 10,
									"AnimReplayDelayTimeMin": 0.0,
									"AnimReplayDelayTimeMax": 0.0,
									"UsesRasterizedImagesInAnim": true
								},
								{
									"AnimNumber": 11,
									"AnimReplayDelayTimeMin": 0.0,
									"AnimReplayDelayTimeMax": 0.0,
									"UsesRasterizedImagesInAnim": true
								},
								{
									"AnimNumber": 12,
									"AnimReplayDelayTimeMin": 0.0,
									"AnimReplayDelayTimeMax": 0.0,
									"UsesRasterizedImagesInAnim": true
								},
								{
									"AnimNumber": 14,
									"AnimReplayDelayTimeMin": 0.0,
									"AnimReplayDelayTimeMax": 0.0,
									"UsesRasterizedImagesInAnim": true
								},
								{
									"AnimNumber": 15,
									"AnimReplayDelayTimeMin": 0.0,
									"AnimReplayDelayTimeMax": 0.0,
									"UsesRasterizedImagesInAnim": true
								},
								{
									"AnimNumber": 16,
									"AnimReplayDelayTimeMin": 0.0,
									"AnimReplayDelayTimeMax": 0.0,
									"UsesRasterizedImagesInAnim": true
								},
								{
									"AnimNumber": 17,
									"AnimReplayDelayTimeMin": 0.0,
									"AnimReplayDelayTimeMax": 0.0,
									"UsesRasterizedImagesInAnim": true
								},
								{
									"AnimNumber": 21,
									"AnimReplayDelayTimeMin": 0.0,
									"AnimReplayDelayTimeMax": 0.0,
									"UsesRasterizedImagesInAnim": true
								},
								{
									"AnimNumber": 22,
									"AnimReplayDelayTimeMin": 0.0,
									"AnimReplayDelayTimeMax": 0.0,
									"UsesRasterizedImagesInAnim": true
								},
								{
									"AnimNumber": 23,
									"AnimReplayDelayTimeMin": 0.0,
									"AnimReplayDelayTimeMax": 0.0,
									"UsesRasterizedImagesInAnim": true
								},
								{
									"AnimNumber": 24,
									"AnimReplayDelayTimeMin": 0.0,
									"AnimReplayDelayTimeMax": 0.0,
									"UsesRasterizedImagesInAnim": true
								}
							]
						}
					},
					{
						"MapName": "future",
						"UnlockedFrom": "future_stargate_start",
						"EntryPoint": "future_level_1",
						"Difficulty": 3,
						"LastLevel": [
							"future25"
						],
						"ComingSoon": false,
						"Hidden": false,
						"UniverseIconOffset": {
							"mX": 17,
							"mY": 0
						},
						"Disabled": false,
						"UseNightSpiral": false,
						"DrawWorldName": true,
						"PreviewEventPanel": "IMAGE_BACKGROUNDS_FUTURE_TEMP_TEXTURE",
						"PreviewResGroup": "DelayLoad_Background_Future_Compressed",
						"WorldResources": {
							"ID": 6,
							"ResGroups": [
								"WorldMap_Future",
								"WorldMap_Future_NonPVR"
							],
							"ImagePrefix": "IMAGE_WORLDMAP_FUTURE",
							"AnimationPrefix": "POPANIM_WORLDMAP_FUTURE",
							"AnimationDetails": [
								{
									"AnimNumber": 4,
									"AnimReplayDelayTimeMin": 0.0,
									"AnimReplayDelayTimeMax": 0.0,
									"UsesRasterizedImagesInAnim": true
								},
								{
									"AnimNumber": 6,
									"AnimReplayDelayTimeMin": 0.0,
									"AnimReplayDelayTimeMax": 0.0,
									"UsesRasterizedImagesInAnim": true
								},
								{
									"AnimNumber": 7,
									"AnimReplayDelayTimeMin": 0.0,
									"AnimReplayDelayTimeMax": 0.0,
									"UsesRasterizedImagesInAnim": true
								},
								{
									"AnimNumber": 8,
									"AnimReplayDelayTimeMin": 0.0,
									"AnimReplayDelayTimeMax": 0.0,
									"UsesRasterizedImagesInAnim": true
								},
								{
									"AnimNumber": 9,
									"AnimReplayDelayTimeMin": 0.0,
									"AnimReplayDelayTimeMax": 0.0,
									"UsesRasterizedImagesInAnim": true
								},
								{
									"AnimNumber": 10,
									"AnimReplayDelayTimeMin": 0.0,
									"AnimReplayDelayTimeMax": 0.0,
									"UsesRasterizedImagesInAnim": true
								},
								{
									"AnimNumber": 11,
									"AnimReplayDelayTimeMin": 0.0,
									"AnimReplayDelayTimeMax": 0.0,
									"UsesRasterizedImagesInAnim": true
								},
								{
									"AnimNumber": 12,
									"AnimReplayDelayTimeMin": 0.0,
									"AnimReplayDelayTimeMax": 0.0,
									"UsesRasterizedImagesInAnim": true
								},
								{
									"AnimNumber": 13,
									"AnimReplayDelayTimeMin": 0.0,
									"AnimReplayDelayTimeMax": 0.0,
									"UsesRasterizedImagesInAnim": true
								}
							]
						}
					},
					{
						"MapName": "dark",
						"UnlockedFrom": "dark_stargate_start",
						"EntryPoint": "dark_level_1",
						"Difficulty": 4,
						"LastLevel": [
							"dark20"
						],
						"ComingSoon": false,
						"Hidden": false,
						"UniverseIconOffset": {
							"mX": 0,
							"mY": 0
						},
						"Disabled": false,
						"UseNightSpiral": true,
						"DrawWorldName": true,
						"PreviewEventPanel": "IMAGE_BACKGROUNDS_DARK_TEXTURE",
						"PreviewResGroup": "DelayLoad_Background_Dark_Compressed",
						"WorldResources": {
							"ID": 7,
							"ResGroups": [
								"WorldMap_Dark",
								"WorldMap_Dark_NonPVR"
							],
							"ImagePrefix": "IMAGE_WORLDMAP_DARK",
							"AnimationPrefix": "POPANIM_WORLDMAP_DARK",
							"AnimationDetails": [
								{
									"AnimNumber": 1,
									"AnimReplayDelayTimeMin": 0.0,
									"AnimReplayDelayTimeMax": 0.0,
									"UsesRasterizedImagesInAnim": true
								},
								{
									"AnimNumber": 2,
									"AnimReplayDelayTimeMin": 0.0,
									"AnimReplayDelayTimeMax": 0.0,
									"UsesRasterizedImagesInAnim": true
								},
								{
									"AnimNumber": 3,
									"AnimReplayDelayTimeMin": 0.0,
									"AnimReplayDelayTimeMax": 0.0,
									"UsesRasterizedImagesInAnim": true
								},
								{
									"AnimNumber": 6,
									"AnimReplayDelayTimeMin": 3.0,
									"AnimReplayDelayTimeMax": 5.0,
									"UsesRasterizedImagesInAnim": true
								},
								{
									"AnimNumber": 7,
									"AnimReplayDelayTimeMin": 3.0,
									"AnimReplayDelayTimeMax": 5.0,
									"UsesRasterizedImagesInAnim": true
								},
								{
									"AnimNumber": 9,
									"AnimReplayDelayTimeMin": 0.0,
									"AnimReplayDelayTimeMax": 0.0,
									"UsesRasterizedImagesInAnim": true
								},
								{
									"AnimNumber": 10,
									"AnimReplayDelayTimeMin": 0.0,
									"AnimReplayDelayTimeMax": 0.0,
									"UsesRasterizedImagesInAnim": true
								},
								{
									"AnimNumber": 13,
									"AnimReplayDelayTimeMin": 0.0,
									"AnimReplayDelayTimeMax": 0.0,
									"UsesRasterizedImagesInAnim": true
								},
								{
									"AnimNumber": 14,
									"AnimReplayDelayTimeMin": 0.0,
									"AnimReplayDelayTimeMax": 0.0,
									"UsesRasterizedImagesInAnim": true
								},
								{
									"AnimNumber": 15,
									"AnimReplayDelayTimeMin": 0.0,
									"AnimReplayDelayTimeMax": 0.0,
									"UsesRasterizedImagesInAnim": true
								},
								{
									"AnimNumber": 16,
									"AnimReplayDelayTimeMin": 0.0,
									"AnimReplayDelayTimeMax": 0.0,
									"UsesRasterizedImagesInAnim": true
								},
								{
									"AnimNumber": 20,
									"AnimReplayDelayTimeMin": 0.0,
									"AnimReplayDelayTimeMax": 0.0,
									"UsesRasterizedImagesInAnim": true
								},
								{
									"AnimNumber": 22,
									"AnimReplayDelayTimeMin": 0.0,
									"AnimReplayDelayTimeMax": 0.0,
									"UsesRasterizedImagesInAnim": true
								}
							]
						}
					},
					{
						"MapName": "eighties",
						"UnlockedFrom": "eighties_stargate_start",
						"EntryPoint": "eighties_level_1",
						"Difficulty": 4,
						"LastLevel": [
							"eighties32"
						],
						"ComingSoon": false,
						"DrawWorldName": true,
						"Hidden": false,
						"UniverseIconOffset": {
							"mX": 0,
							"mY": 0
						},
						"Disabled": false,
						"UseNightSpiral": true,
						"PreviewEventPanel": "IMAGE_BACKGROUNDS_EIGHTIES_TEXTURE",
						"PreviewResGroup": "DelayLoad_Background_Eighties_Compressed",
						"WorldResources": {
							"ID": 8,
							"ResGroups": [
								"WorldMap_Eighties",
								"WorldMap_Eighties_NonPVR"
							],
							"ImagePrefix": "IMAGE_WORLDMAP_EIGHTIES",
							"AnimationPrefix": "POPANIM_WORLDMAP_EIGHTIES",
							"AnimationDetails": [
								{
									"AnimNumber": 1,
									"AnimReplayDelayTimeMin": 0.0,
									"AnimReplayDelayTimeMax": 0.0,
									"UsesRasterizedImagesInAnim": true
								},
								{
									"AnimNumber": 2,
									"AnimReplayDelayTimeMin": 0.0,
									"AnimReplayDelayTimeMax": 0.0,
									"UsesRasterizedImagesInAnim": true
								},
								{
									"AnimNumber": 3,
									"AnimReplayDelayTimeMin": 0.0,
									"AnimReplayDelayTimeMax": 0.0,
									"UsesRasterizedImagesInAnim": true
								},
								{
									"AnimNumber": 4,
									"AnimReplayDelayTimeMin": 0.0,
									"AnimReplayDelayTimeMax": 0.0,
									"UsesRasterizedImagesInAnim": true
								},
								{
									"AnimNumber": 5,
									"AnimReplayDelayTimeMin": 0.0,
									"AnimReplayDelayTimeMax": 0.0,
									"UsesRasterizedImagesInAnim": true
								},
								{
									"AnimNumber": 6,
									"AnimReplayDelayTimeMin": 0.0,
									"AnimReplayDelayTimeMax": 0.0,
									"UsesRasterizedImagesInAnim": true
								},
								{
									"AnimNumber": 7,
									"AnimReplayDelayTimeMin": 0.0,
									"AnimReplayDelayTimeMax": 0.0,
									"UsesRasterizedImagesInAnim": true
								},
								{
									"AnimNumber": 8,
									"AnimReplayDelayTimeMin": 0.0,
									"AnimReplayDelayTimeMax": 0.0,
									"UsesRasterizedImagesInAnim": true
								},
								{
									"AnimNumber": 9,
									"AnimReplayDelayTimeMin": 0.0,
									"AnimReplayDelayTimeMax": 0.0,
									"UsesRasterizedImagesInAnim": true
								},
								{
									"AnimNumber": 10,
									"AnimReplayDelayTimeMin": 0.0,
									"AnimReplayDelayTimeMax": 0.0,
									"UsesRasterizedImagesInAnim": true
								},
								{
									"AnimNumber": 11,
									"AnimReplayDelayTimeMin": 0.0,
									"AnimReplayDelayTimeMax": 0.0,
									"UsesRasterizedImagesInAnim": true
								},
								{
									"AnimNumber": 12,
									"AnimReplayDelayTimeMin": 0.0,
									"AnimReplayDelayTimeMax": 0.0,
									"UsesRasterizedImagesInAnim": true
								},
								{
									"AnimNumber": 14,
									"AnimReplayDelayTimeMin": 0.0,
									"AnimReplayDelayTimeMax": 0.0,
									"UsesRasterizedImagesInAnim": true
								},
								{
									"AnimNumber": 15,
									"AnimReplayDelayTimeMin": 0.0,
									"AnimReplayDelayTimeMax": 0.0,
									"UsesRasterizedImagesInAnim": true
								},
								{
									"AnimNumber": 16,
									"AnimReplayDelayTimeMin": 0.0,
									"AnimReplayDelayTimeMax": 0.0,
									"UsesRasterizedImagesInAnim": true
								},
								{
									"AnimNumber": 17,
									"AnimReplayDelayTimeMin": 0.0,
									"AnimReplayDelayTimeMax": 0.0,
									"UsesRasterizedImagesInAnim": true
								},
								{
									"AnimNumber": 21,
									"AnimReplayDelayTimeMin": 0.0,
									"AnimReplayDelayTimeMax": 0.0,
									"UsesRasterizedImagesInAnim": true
								},
								{
									"AnimNumber": 22,
									"AnimReplayDelayTimeMin": 0.0,
									"AnimReplayDelayTimeMax": 0.0,
									"UsesRasterizedImagesInAnim": true
								},
								{
									"AnimNumber": 23,
									"AnimReplayDelayTimeMin": 0.0,
									"AnimReplayDelayTimeMax": 0.0,
									"UsesRasterizedImagesInAnim": true
								},
								{
									"AnimNumber": 24,
									"AnimReplayDelayTimeMin": 0.0,
									"AnimReplayDelayTimeMax": 0.0,
									"UsesRasterizedImagesInAnim": true
								}
							]
						}
					},
					{
						"MapName": "dino",
						"UnlockedFrom": "dino_stargate_start",
						"EntryPoint": "dino_level_1",
						"Difficulty": 4,
						"LastLevel": [
							"dino32"
						],
						"ComingSoon": false,
						"DrawWorldName": true,
						"Hidden": false,
						"UniverseIconOffset": {
							"mX": 0,
							"mY": 0
						},
						"Disabled": false,
						"UseNightSpiral": false,
						"PreviewEventPanel": "IMAGE_BACKGROUNDS_DINO_TEXTURE",
						"PreviewResGroup": "DelayLoad_Background_Dino_Compressed",
						"WorldResources": {
							"ID": 9,
							"ResGroups": [
								"WorldMap_Dino",
								"WorldMap_Dino_NonPVR"
							],
							"ImagePrefix": "IMAGE_WORLDMAP_DINO",
							"AnimationPrefix": "POPANIM_WORLDMAP_DINO",
							"AnimationDetails": [
								{
									"AnimNumber": 1,
									"AnimReplayDelayTimeMin": 0.0,
									"AnimReplayDelayTimeMax": 0.0,
									"UsesRasterizedImagesInAnim": true
								},
								{
									"AnimNumber": 2,
									"AnimReplayDelayTimeMin": 0.0,
									"AnimReplayDelayTimeMax": 0.0,
									"UsesRasterizedImagesInAnim": true
								},
								{
									"AnimNumber": 11,
									"AnimReplayDelayTimeMin": 0.0,
									"AnimReplayDelayTimeMax": 0.0,
									"UsesRasterizedImagesInAnim": true
								},
								{
									"AnimNumber": 12,
									"AnimReplayDelayTimeMin": 0.0,
									"AnimReplayDelayTimeMax": 0.0,
									"UsesRasterizedImagesInAnim": true
								},
								{
									"AnimNumber": 13,
									"AnimReplayDelayTimeMin": 0.0,
									"AnimReplayDelayTimeMax": 0.0,
									"UsesRasterizedImagesInAnim": true
								},
								{
									"AnimNumber": 14,
									"AnimReplayDelayTimeMin": 0.0,
									"AnimReplayDelayTimeMax": 0.0,
									"UsesRasterizedImagesInAnim": true
								},
								{
									"AnimNumber": 15,
									"AnimReplayDelayTimeMin": 0.0,
									"AnimReplayDelayTimeMax": 0.0,
									"UsesRasterizedImagesInAnim": true
								},
								{
									"AnimNumber": 16,
									"AnimReplayDelayTimeMin": 0.0,
									"AnimReplayDelayTimeMax": 0.0,
									"UsesRasterizedImagesInAnim": true
								},
								{
									"AnimNumber": 17,
									"AnimReplayDelayTimeMin": 0.0,
									"AnimReplayDelayTimeMax": 0.0,
									"UsesRasterizedImagesInAnim": true
								},
								{
									"AnimNumber": 18,
									"AnimReplayDelayTimeMin": 0.0,
									"AnimReplayDelayTimeMax": 0.0,
									"UsesRasterizedImagesInAnim": true
								},
								{
									"AnimNumber": 19,
									"AnimReplayDelayTimeMin": 0.0,
									"AnimReplayDelayTimeMax": 0.0,
									"UsesRasterizedImagesInAnim": true
								},
								{
									"AnimNumber": 20,
									"AnimReplayDelayTimeMin": 0.0,
									"AnimReplayDelayTimeMax": 0.0,
									"UsesRasterizedImagesInAnim": true
								},
								{
									"AnimNumber": 21,
									"AnimReplayDelayTimeMin": 0.0,
									"AnimReplayDelayTimeMax": 0.0,
									"UsesRasterizedImagesInAnim": true
								},
								{
									"AnimNumber": 22,
									"AnimReplayDelayTimeMin": 0.0,
									"AnimReplayDelayTimeMax": 0.0,
									"UsesRasterizedImagesInAnim": true
								},
								{
									"AnimNumber": 23,
									"AnimReplayDelayTimeMin": 0.0,
									"AnimReplayDelayTimeMax": 0.0,
									"UsesRasterizedImagesInAnim": true
								},
								{
									"AnimNumber": 24,
									"AnimReplayDelayTimeMin": 0.0,
									"AnimReplayDelayTimeMax": 0.0,
									"UsesRasterizedImagesInAnim": true
								},
								{
									"AnimNumber": 25,
									"AnimReplayDelayTimeMin": 0.0,
									"AnimReplayDelayTimeMax": 0.0,
									"UsesRasterizedImagesInAnim": true
								},
								{
									"AnimNumber": 26,
									"AnimReplayDelayTimeMin": 0.0,
									"AnimReplayDelayTimeMax": 0.0,
									"UsesRasterizedImagesInAnim": true
								},
								{
									"AnimNumber": 27,
									"AnimReplayDelayTimeMin": 0.0,
									"AnimReplayDelayTimeMax": 0.0,
									"UsesRasterizedImagesInAnim": true
								}
							]
						}
					},
					{
						"MapName": "beach",
						"UnlockedFrom": "beach_stargate_start",
						"EntryPoint": "beach_level_1",
						"Difficulty": 5,
						"LastLevel": [
							"beach32"
						],
						"ComingSoon": false,
						"Hidden": false,
						"UniverseIconOffset": {
							"mX": 0,
							"mY": 0
						},
						"Disabled": false,
						"UseNightSpiral": false,
						"DrawWorldName": true,
						"PreviewEventPanel": "IMAGE_BACKGROUNDS_BEACH_TEXTURE",
						"PreviewResGroup": "DelayLoad_Background_Beach_Compressed",
						"WorldResources": {
							"ID": 10,
							"ResGroups": [
								"WorldMap_Beach",
								"WorldMap_Beach_NonPVR"
							],
							"ImagePrefix": "IMAGE_WORLDMAP_BEACH",
							"AnimationPrefix": "POPANIM_WORLDMAP_BEACH",
							"AnimationDetails": [
								{
									"AnimNumber": 1,
									"AnimReplayDelayTimeMin": 0.0,
									"AnimReplayDelayTimeMax": 0.0,
									"UsesRasterizedImagesInAnim": true
								},
								{
									"AnimNumber": 2,
									"AnimReplayDelayTimeMin": 0.0,
									"AnimReplayDelayTimeMax": 0.0,
									"UsesRasterizedImagesInAnim": true
								},
								{
									"AnimNumber": 4,
									"AnimReplayDelayTimeMin": 0.0,
									"AnimReplayDelayTimeMax": 0.0,
									"UsesRasterizedImagesInAnim": true
								},
								{
									"AnimNumber": 5,
									"AnimReplayDelayTimeMin": 0.0,
									"AnimReplayDelayTimeMax": 0.0,
									"UsesRasterizedImagesInAnim": true
								},
								{
									"AnimNumber": 6,
									"AnimReplayDelayTimeMin": 3.0,
									"AnimReplayDelayTimeMax": 5.0,
									"UsesRasterizedImagesInAnim": true
								},
								{
									"AnimNumber": 8,
									"AnimReplayDelayTimeMin": 0.0,
									"AnimReplayDelayTimeMax": 0.0,
									"UsesRasterizedImagesInAnim": true
								},
								{
									"AnimNumber": 9,
									"AnimReplayDelayTimeMin": 0.0,
									"AnimReplayDelayTimeMax": 0.0,
									"UsesRasterizedImagesInAnim": true
								},
								{
									"AnimNumber": 10,
									"AnimReplayDelayTimeMin": 0.0,
									"AnimReplayDelayTimeMax": 0.0,
									"UsesRasterizedImagesInAnim": true
								},
								{
									"AnimNumber": 11,
									"AnimReplayDelayTimeMin": 0.0,
									"AnimReplayDelayTimeMax": 0.0,
									"UsesRasterizedImagesInAnim": true
								},
								{
									"AnimNumber": 12,
									"AnimReplayDelayTimeMin": 0.0,
									"AnimReplayDelayTimeMax": 0.0,
									"UsesRasterizedImagesInAnim": true
								},
								{
									"AnimNumber": 13,
									"AnimReplayDelayTimeMin": 0.0,
									"AnimReplayDelayTimeMax": 0.0,
									"UsesRasterizedImagesInAnim": true
								},
								{
									"AnimNumber": 14,
									"AnimReplayDelayTimeMin": 0.0,
									"AnimReplayDelayTimeMax": 0.0,
									"UsesRasterizedImagesInAnim": true
								},
								{
									"AnimNumber": 15,
									"AnimReplayDelayTimeMin": 0.0,
									"AnimReplayDelayTimeMax": 0.0,
									"UsesRasterizedImagesInAnim": true
								},
								{
									"AnimNumber": 16,
									"AnimReplayDelayTimeMin": 0.0,
									"AnimReplayDelayTimeMax": 0.0,
									"UsesRasterizedImagesInAnim": true
								},
								{
									"AnimNumber": 17,
									"AnimReplayDelayTimeMin": 0.0,
									"AnimReplayDelayTimeMax": 0.0,
									"UsesRasterizedImagesInAnim": true
								},
								{
									"AnimNumber": 18,
									"AnimReplayDelayTimeMin": 0.0,
									"AnimReplayDelayTimeMax": 0.0,
									"UsesRasterizedImagesInAnim": true
								},
								{
									"AnimNumber": 19,
									"AnimReplayDelayTimeMin": 0.0,
									"AnimReplayDelayTimeMax": 0.0,
									"UsesRasterizedImagesInAnim": true
								},
								{
									"AnimNumber": 20,
									"AnimReplayDelayTimeMin": 0.0,
									"AnimReplayDelayTimeMax": 0.0,
									"UsesRasterizedImagesInAnim": true
								},
								{
									"AnimNumber": 27,
									"AnimReplayDelayTimeMin": 0.0,
									"AnimReplayDelayTimeMax": 0.0,
									"UsesRasterizedImagesInAnim": true
								},
								{
									"AnimNumber": 28,
									"AnimReplayDelayTimeMin": 0.0,
									"AnimReplayDelayTimeMax": 0.0,
									"UsesRasterizedImagesInAnim": true
								},
								{
									"AnimNumber": 29,
									"AnimReplayDelayTimeMin": 0.0,
									"AnimReplayDelayTimeMax": 0.0,
									"UsesRasterizedImagesInAnim": true
								},
								{
									"AnimNumber": 30,
									"AnimReplayDelayTimeMin": 0.0,
									"AnimReplayDelayTimeMax": 0.0,
									"UsesRasterizedImagesInAnim": true
								},
								{
									"AnimNumber": 32,
									"AnimReplayDelayTimeMin": 0.0,
									"AnimReplayDelayTimeMax": 0.0,
									"UsesRasterizedImagesInAnim": true
								},
								{
									"AnimNumber": 33,
									"AnimReplayDelayTimeMin": 0.0,
									"AnimReplayDelayTimeMax": 0.0,
									"UsesRasterizedImagesInAnim": true
								},
								{
									"AnimNumber": 34,
									"AnimReplayDelayTimeMin": 0.0,
									"AnimReplayDelayTimeMax": 0.0,
									"UsesRasterizedImagesInAnim": true
								},
								{
									"AnimNumber": 35,
									"AnimReplayDelayTimeMin": 0.0,
									"AnimReplayDelayTimeMax": 0.0,
									"UsesRasterizedImagesInAnim": true
								}
							]
						}
					},
					{
						"MapName": "modern",
						"UnlockedFrom": "modern_stargate_start",
						"EntryPoint": "modern_level_1",
						"Difficulty": 5,
						"LastLevel": [
							"modern34"
						],
						"ComingSoon": false,
						"DrawWorldName": true,
						"Hidden": false,
						"UniverseIconOffset": {
							"mX": 0,
							"mY": 0
						},
						"Disabled": false,
						"UseNightSpiral": false,
						"PreviewEventPanel": "IMAGE_BACKGROUNDS_FRONTLAWN_ROW_05",
						"PreviewResGroup": "DelayLoad_Background_FrontLawn",
						"WorldResources": {
							"ID": 11,
							"ResGroups": [
								"WorldMap_Modern",
								"WorldMap_Modern_NonPVR"
							],
							"ImagePrefix": "IMAGE_WORLDMAP_MODERN",
							"AnimationPrefix": "POPANIM_WORLDMAP_MODERN",
							"AnimationDetails": [
								{
									"AnimNumber": 21,
									"AnimReplayDelayTimeMin": 0.0,
									"AnimReplayDelayTimeMax": 0.0,
									"UsesRasterizedImagesInAnim": true
								},
								{
									"AnimNumber": 22,
									"AnimReplayDelayTimeMin": 0.0,
									"AnimReplayDelayTimeMax": 0.0,
									"UsesRasterizedImagesInAnim": true
								},
								{
									"AnimNumber": 23,
									"AnimReplayDelayTimeMin": 0.0,
									"AnimReplayDelayTimeMax": 0.0,
									"UsesRasterizedImagesInAnim": true
								},
								{
									"AnimNumber": 25,
									"AnimReplayDelayTimeMin": 0.0,
									"AnimReplayDelayTimeMax": 0.0,
									"UsesRasterizedImagesInAnim": true
								}
							]
						}
					}
				],
				"MapResourceGrid": [
					[
						0,
						1
					],
					[
						0,
						1
					],
					[
						0,
						1
					],
					[
						0,
						1
					],
					[
						0,
						1
					],
					[
						0,
						1
					],
					[
						0,
						1,
						6
					],
					[
						0,
						1,
						6,
						2,
						4,
						5
					],
					[
						1,
						6,
						2,
						4,
						5
					],
					[
						1,
						6,
						2,
						4,
						5
					],
					[
						1,
						6,
						2,
						4,
						5
					],
					[
						1,
						6,
						2,
						4,
						5
					],
					[
						1,
						6,
						2,
						4,
						5
					],
					[
						1,
						6,
						2,
						4,
						5
					],
					[
						1,
						6,
						2,
						4,
						5
					],
					[
						2,
						1,
						4,
						5,
						6
					],
					[
						2,
						1,
						4,
						5,
						6,
						3
					],
					[
						2,
						4,
						5,
						6,
						3
					],
					[
						2,
						4,
						5,
						6,
						3
					],
					[
						2,
						4,
						5,
						6,
						3
					],
					[
						2,
						4,
						5,
						6,
						3
					],
					[
						2,
						4,
						5,
						6,
						3
					],
					[
						2,
						4,
						5,
						6,
						3
					],
					[
						2,
						4,
						5,
						6,
						3
					],
					[
						2,
						3,
						4,
						5
					],
					[
						2,
						3,
						4
					],
					[
						3
					],
					[
						3
					],
					[
						3
					],
					[
						3
					],
					[
						3
					],
					[
						3
					],
					[
						3
					],
					[
						0,
						1
					],
					[
						0,
						1
					],
					[
						0,
						1
					],
					[
						0,
						1
					],
					[
						0,
						1
					],
					[
						0,
						1
					],
					[
						0,
						1,
						6
					],
					[
						0,
						1,
						6,
						2,
						4,
						5
					],
					[
						1,
						6,
						2,
						4,
						5
					],
					[
						1,
						6,
						2,
						4,
						5
					],
					[
						1,
						6,
						2,
						4,
						5
					],
					[
						1,
						6,
						2,
						4,
						5
					],
					[
						1,
						6,
						2,
						4,
						5
					],
					[
						1,
						6,
						2,
						4,
						5
					],
					[
						1,
						6,
						2,
						4,
						5
					],
					[
						2,
						1,
						4,
						5,
						6
					],
					[
						2,
						1,
						4,
						5,
						6,
						3
					],
					[
						2,
						4,
						5,
						6,
						3
					],
					[
						2,
						4,
						5,
						6,
						3
					],
					[
						2,
						4,
						5,
						6,
						3
					],
					[
						2,
						4,
						5,
						6,
						3
					],
					[
						2,
						4,
						5,
						6,
						3
					],
					[
						2,
						4,
						5,
						6,
						3
					],
					[
						2,
						4,
						5,
						6,
						3
					],
					[
						2,
						3,
						4,
						5
					],
					[
						2,
						3,
						4
					],
					[
						3
					],
					[
						3
					],
					[
						3
					],
					[
						3
					],
					[
						3
					],
					[
						3
					],
					[
						3
					],
					[
						0,
						1
					],
					[
						0,
						1
					],
					[
						0,
						1
					],
					[
						0,
						1
					],
					[
						0,
						1
					],
					[
						0,
						1
					],
					[
						0,
						1,
						6
					],
					[
						0,
						1,
						6,
						2,
						4,
						5
					],
					[
						1,
						6,
						2,
						4,
						5
					],
					[
						1,
						6,
						2,
						4,
						5
					],
					[
						1,
						6,
						2,
						4,
						5
					],
					[
						1,
						6,
						2,
						4,
						5
					],
					[
						1,
						6,
						2,
						4,
						5
					],
					[
						1,
						6,
						2,
						4,
						5
					],
					[
						1,
						6,
						2,
						4,
						5
					],
					[
						2,
						1,
						4,
						5,
						6
					],
					[
						2,
						1,
						4,
						5,
						6,
						3
					],
					[
						2,
						4,
						5,
						6,
						3
					],
					[
						2,
						4,
						5,
						6,
						3
					],
					[
						2,
						4,
						5,
						6,
						3
					],
					[
						2,
						4,
						5,
						6,
						3
					],
					[
						2,
						4,
						5,
						6,
						3
					],
					[
						2,
						4,
						5,
						6,
						3
					],
					[
						2,
						4,
						5,
						6,
						3
					],
					[
						2,
						3,
						4,
						5
					],
					[
						2,
						3,
						4
					],
					[
						3
					],
					[
						3
					],
					[
						3
					],
					[
						3
					],
					[
						3
					],
					[
						3
					],
					[
						3
					],
					[
						0,
						1
					],
					[
						0,
						1
					],
					[
						0,
						1
					],
					[
						0,
						1
					],
					[
						0,
						1
					],
					[
						0,
						1
					],
					[
						0,
						1,
						6
					],
					[
						0,
						1,
						6,
						2,
						4,
						5
					],
					[
						1,
						6,
						2,
						4,
						5
					],
					[
						1,
						6,
						2,
						4,
						5
					],
					[
						1,
						6,
						2,
						4,
						5
					],
					[
						1,
						6,
						2,
						4,
						5
					],
					[
						1,
						6,
						2,
						4,
						5
					],
					[
						1,
						6,
						2,
						4,
						5
					],
					[
						1,
						6,
						2,
						4,
						5
					],
					[
						2,
						1,
						4,
						5,
						6
					],
					[
						2,
						1,
						4,
						5,
						6,
						3
					],
					[
						2,
						4,
						5,
						6,
						3
					],
					[
						2,
						4,
						5,
						6,
						3
					],
					[
						2,
						4,
						5,
						6,
						3
					],
					[
						2,
						4,
						5,
						6,
						3
					],
					[
						2,
						4,
						5,
						6,
						3
					],
					[
						2,
						4,
						5,
						6,
						3
					],
					[
						2,
						4,
						5,
						6,
						3
					],
					[
						2,
						3,
						4,
						5
					],
					[
						2,
						3,
						4
					],
					[
						3
					],
					[
						3
					],
					[
						3
					],
					[
						3
					],
					[
						3
					],
					[
						3
					],
					[
						3
					],
					[
						0,
						1
					],
					[
						0,
						1
					],
					[
						0,
						1
					],
					[
						0,
						1
					],
					[
						0,
						1
					],
					[
						0,
						1
					],
					[
						0,
						1,
						6
					],
					[
						0,
						1,
						6,
						2,
						4,
						5
					],
					[
						1,
						6,
						2,
						4,
						5
					],
					[
						1,
						6,
						2,
						4,
						5
					],
					[
						1,
						6,
						2,
						4,
						5
					],
					[
						1,
						6,
						2,
						4,
						5
					],
					[
						1,
						6,
						2,
						4,
						5
					],
					[
						1,
						6,
						2,
						4,
						5
					],
					[
						1,
						6,
						2,
						4,
						5
					],
					[
						2,
						1,
						4,
						5,
						6
					],
					[
						2,
						1,
						4,
						5,
						6,
						3
					],
					[
						2,
						4,
						5,
						6,
						3
					],
					[
						2,
						4,
						5,
						6,
						3
					],
					[
						2,
						4,
						5,
						6,
						3
					],
					[
						2,
						4,
						5,
						6,
						3
					],
					[
						2,
						4,
						5,
						6,
						3
					],
					[
						2,
						4,
						5,
						6,
						3
					],
					[
						2,
						4,
						5,
						6,
						3
					],
					[
						2,
						3,
						4,
						5
					],
					[
						2,
						3,
						4
					],
					[
						3
					],
					[
						3
					],
					[
						3
					],
					[
						3
					],
					[
						3
					],
					[
						3
					],
					[
						3
					]
				],
				"MapResourceGridWidth": 33,
				"MapResourceGridHeight": 5,
				"MapResourceGridOffsetX": -1509,
				"MapResourceGridOffsetY": -1401
			}
		}
	]
}