{
	"#comment": "Rift Future 6",
	"objects": [
		{
			"objclass": "LevelDefinition",
			"objdata": {
				"Description": "[PLAYERS_TRIP_TO_RIFT]",
				"LevelNumber": 6,
				"DisablePlantBoosts": false,
				"Loot": "",
				"Modules": [
					"RTID(DefaultSunDropper@LevelModules)",
					"RTID(StandardRiftIntro@LevelModules)",
					"RTID(ZombiesDeadWinCon@LevelModules)",
					"RTID(FutureMowers@LevelModules)",
					"RTID(SeedBank@CurrentLevel)",
					"RTID(DefaultZombieWinCondition@LevelModules)",
					"RTID(NewWaves@CurrentLevel)",
					"RTID(PerkActivator@CurrentLevel)",
					"RTID(LevelDifficultyScaling@CurrentLevel)",
					"RTID(FutureLinkedTileGroups@CurrentLevel)"
				],
				"MusicType": "MiniGame_A",
				"Name": "[RIFT_LEVEL_NAME]",
				"NormalPresentTable": "future_normal_01",
				"ShinyPresentTable": "future_shiny_01",
				"VictoryModule": "RTID(RiftOutro@LevelModules)",
				"StageModule": "RTID(FutureStage@LevelModules)",
				"LevelMutator": "RTID(LevelMutator@CurrentLevel)",
				"PerksDisabledInLevel": [
					"moarscore",
					"bossbustercannon",
					"quickdelivery"
				],
				"PerksDisabledPerDifficulty": [
					[],
					[],
					[]
				]
			}
		},
		{
			"aliases": [
				"FutureLinkedTileGroups"
			],
			"objclass": "PowerTileProperties",
			"objdata": {
				"LinkedTiles": [
					{
						"Group": "beta",
						"Location": {
							"mX": 1,
							"mY": 0
						},
						"PropagationDelay": 0.25
					},
					{
						"Group": "beta",
						"Location": {
							"mX": 2,
							"mY": 0
						},
						"PropagationDelay": 0.25
					},
					{
						"Group": "delta",
						"Location": {
							"mX": 1,
							"mY": 2
						},
						"PropagationDelay": 1.5
					},
					{
						"Group": "delta",
						"Location": {
							"mX": 2,
							"mY": 2
						},
						"PropagationDelay": 1.5
					},
					{
						"Group": "alpha",
						"Location": {
							"mX": 1,
							"mY": 4
						},
						"PropagationDelay": 0.25
					},
					{
						"Group": "alpha",
						"Location": {
							"mX": 2,
							"mY": 4
						},
						"PropagationDelay": 0.25
					}
				]
			}
		},
		{
			"aliases": [
				"PerkActivator"
			],
			"objclass": "PerkHandlerModuleProperties",
			"objdata": {}
		},
		{
			"aliases": [
				"LevelMutator"
			],
			"objclass": "LevelMutatorModuleProperties",
			"objdata": {
				"MutatorTables": [
					"RTID(MutatorPropsRift_Future@LevelMutatorTables)",
					"RTID(LocalChallengeMutator@CurrentLevel)",
					"RTID(LocalMainChallengeMutator@CurrentLevel)"
				]
			}
		},
		{
			"aliases": [
				"LocalMainChallengeMutator"
			],
			"objclass": "LevelMutatorTableProps",
			"objdata": {
				"Tables": [
					{
						"Level": 0,
						"Modules": [
							"RTID(BeatTheLevel@CurrentLevel)"
						],
						"ModuleType": "mainchallenge"
					},
					{
						"Level": 1,
						"Modules": [
							"RTID(BeatTheLevel@CurrentLevel)"
						],
						"ModuleType": "mainchallenge"
					},
					{
						"Level": 2,
						"Modules": [
							"RTID(BeatTheLevel@CurrentLevel)"
						],
						"ModuleType": "mainchallenge"
					}
				]
			}
		},
		{
			"aliases": [
				"BeatTheLevel"
			],
			"objclass": "StarChallengeBeatTheLevelProps",
			"objdata": {
				"Description": "[STARCHALLENGE_PRESET_PLANTS]",
				"DescriptiveName": "[STARCHALLENGE_PRESET_PLANTS_NAME]"
			}
		},
		{
			"aliases": [
				"LocalChallengeMutator"
			],
			"objclass": "LevelMutatorTableProps",
			"objdata": {
				"Tables": [
					{
						"Level": 0,
						"Modules": [
							"RTID(SimultaneousPlants1@CurrentLevel)"
						],
						"ModuleType": "bonuschallenge"
					},
					{
						"Level": 1,
						"Modules": [
							"RTID(SunProduced1@CurrentLevel)",
							"RTID(SimultaneousPlants2@CurrentLevel)"
						],
						"ModuleType": "bonuschallenge"
					},
					{
						"Level": 2,
						"Modules": [
							"RTID(SunProduced2@CurrentLevel)",
							"RTID(SimultaneousPlants3@CurrentLevel)"
						],
						"ModuleType": "bonuschallenge"
					}
				]
			}
		},
		{
			"aliases": [
				"SimultaneousPlants1"
			],
			"objclass": "StarChallengeSimultaneousPlantsProps",
			"objdata": {
				"MaximumPlants": 25
			}
		},
		{
			"aliases": [
				"SimultaneousPlants2"
			],
			"objclass": "StarChallengeSimultaneousPlantsProps",
			"objdata": {
				"MaximumPlants": 25
			}
		},
		{
			"aliases": [
				"SimultaneousPlants3"
			],
			"objclass": "StarChallengeSimultaneousPlantsProps",
			"objdata": {
				"MaximumPlants": 25
			}
		},
		{
			"aliases": [
				"SunProduced1"
			],
			"objclass": "StarChallengeSunProducedProps",
			"objdata": {
				"TargetSun": 2500
			}
		},
		{
			"aliases": [
				"SunProduced2"
			],
			"objclass": "StarChallengeSunProducedProps",
			"objdata": {
				"TargetSun": 3500
			}
		},
		{
			"aliases": [
				"SeedBank"
			],
			"objclass": "SeedBankProperties",
			"objdata": {
				"PresetPlantList": [
					{
						"PlantType": "sunflower",
						"Level": -1
					},
					{
						"PlantType": "peashooter",
						"Level": -1
					},
					{
						"PlantType": "laser_bean",
						"Level": -1
					},
					{
						"PlantType": "blover",
						"Level": -1
					},
					{
						"PlantType": "bonkchoy",
						"Level": -1
					},
					{
						"PlantType": "wallnut",
						"Level": -1
					}
				],
				"SelectionMethod": "preset"
			}
		},
		{
			"aliases": [
				"LevelDifficultyScaling"
			],
			"objclass": "LevelDifficultyScalingModuleProperties",
			"objdata": {
				"DifficultyRulesType": "RiftDifficulty",
				"ZombieLevelSwaps": [
					{
						"Level": 4,
						"Swaps": [
							{
								"From": "RTID(future@ZombieTypes)",
								"To": [
									"RTID(future@ZombieTypes)"
								]
							},
							{
								"From": "RTID(future_armor1@ZombieTypes)",
								"To": [
									"RTID(future_armor1@ZombieTypes)"
								]
							},
							{
								"From": "RTID(future_armor2@ZombieTypes)",
								"To": [
									"RTID(future_armor2@ZombieTypes)"
								]
							},
							{
								"From": "RTID(future_jetpack@ZombieTypes)",
								"To": [
									"RTID(future_jetpack@ZombieTypes)"
								]
							},
							{
								"From": "RTID(future_jetpack_veteran@ZombieTypes)",
								"To": [
									"RTID(future_jetpack@ZombieTypes)"
								]
							}
						]
					},
					{
						"Level": 7,
						"Swaps": [
							{
								"From": "RTID(future@ZombieTypes)",
								"To": [
									"RTID(future@ZombieTypes)",
									"RTID(future_armor1@ZombieTypes)"
								]
							},
							{
								"From": "RTID(future_armor1@ZombieTypes)",
								"To": [
									"RTID(future_armor1@ZombieTypes)",
									"RTID(future_armor2@ZombieTypes)"
								]
							},
							{
								"From": "RTID(future_armor2@ZombieTypes)",
								"To": [
									"RTID(future_armor2@ZombieTypes)",
									"RTID(future_armor4@ZombieTypes)"
								]
							},
							{
								"From": "RTID(future_jetpack@ZombieTypes)",
								"To": [
									"RTID(future_jetpack@ZombieTypes)"
								]
							},
							{
								"From": "RTID(future_jetpack_veteran@ZombieTypes)",
								"To": [
									"RTID(future_jetpack@ZombieTypes)",
									"RTID(future_jetpack_veteran@ZombieTypes)"
								]
							}
						]
					},
					{
						"Level": 11,
						"Swaps": [
							{
								"From": "RTID(future@ZombieTypes)",
								"To": [
									"RTID(future_armor1@ZombieTypes)"
								]
							},
							{
								"From": "RTID(future_armor1@ZombieTypes)",
								"To": [
									"RTID(future_armor2@ZombieTypes)"
								]
							},
							{
								"From": "RTID(future_armor2@ZombieTypes)",
								"To": [
									"RTID(future_armor4@ZombieTypes)"
								]
							},
							{
								"From": "RTID(future_jetpack@ZombieTypes)",
								"To": [
									"RTID(future_jetpack_veteran@ZombieTypes)",
									"RTID(future_jetpack@ZombieTypes)"
								]
							},
							{
								"From": "RTID(future_jetpack_veteran@ZombieTypes)",
								"To": [
									"RTID(future_jetpack_veteran@ZombieTypes)"
								]
							}
						]
					}
				]
			}
		},
		{
			"aliases": [
				"NewWaves"
			],
			"objclass": "WaveManagerModuleProperties",
			"objdata": {
				"DynamicZombies": [
					{
						"PointIncrementPerWave": 0,
						"StartingPoints": 0,
						"StartingWave": 0,
						"ZombiePool": []
					},
					{
						"PointIncrementPerWave": 0,
						"StartingPoints": 0,
						"StartingWave": 0,
						"ZombiePool": []
					},
					{
						"PointIncrementPerWave": 0,
						"StartingPoints": 0,
						"StartingWave": 0,
						"ZombiePool": []
					},
					{
						"MaxPoints": 1000,
						"PointIncrementPerWave": 20,
						"StartingPoints": 100,
						"StartingWave": 3,
						"ZombiePool": [
							"RTID(future@ZombieTypes)",
							"RTID(future_jetpack@ZombieTypes)"
						]
					},
					{
						"PointIncrementPerWave": 0,
						"StartingPoints": 0,
						"StartingWave": 0,
						"ZombiePool": []
					},
					{
						"PointIncrementPerWave": 0,
						"StartingPoints": 0,
						"StartingWave": 0,
						"ZombiePool": []
					},
					{
						"PointIncrementPerWave": 0,
						"StartingPoints": 0,
						"StartingWave": 0,
						"ZombiePool": []
					}
				],
				"WaveManagerProps": "RTID(WaveManagerProps@CurrentLevel)"
			}
		},
		{
			"aliases": [
				"WaveManagerProps"
			],
			"objclass": "WaveManagerProperties",
			"objdata": {
				"FlagWaveInterval": 8,
				"WaveCount": 16,
				"WaveSpendingPointIncrement": 50,
				"WaveSpendingPoints": 100,
				"Waves": [
					[
						"RTID(Wave1@CurrentLevel)"
					],
					[
						"RTID(Wave2@CurrentLevel)"
					],
					[
						"RTID(Wave3@CurrentLevel)"
					],
					[
						"RTID(Wave4@CurrentLevel)"
					],
					[
						"RTID(Wave5@CurrentLevel)"
					],
					[
						"RTID(Wave6@CurrentLevel)"
					],
					[
						"RTID(Wave7@CurrentLevel)"
					],
					[
						"RTID(Wave8@CurrentLevel)"
					],
					[
						"RTID(Wave9@CurrentLevel)"
					],
					[
						"RTID(Wave10@CurrentLevel)"
					],
					[
						"RTID(Wave11@CurrentLevel)"
					],
					[
						"RTID(Wave12@CurrentLevel)"
					],
					[
						"RTID(Wave13@CurrentLevel)"
					],
					[
						"RTID(Wave14@CurrentLevel)"
					],
					[
						"RTID(Wave15@CurrentLevel)"
					],
					[
						"RTID(Wave16@CurrentLevel)"
					]
				],
				"WavesAlwaysRandomized": true
			}
		},
		{
			"aliases": [
				"Wave1"
			],
			"objclass": "SpawnZombiesJitteredWaveActionProps",
			"objdata": {
				"Zombies": [
					{
						"Type": "RTID(future@ZombieTypes)"
					}
				]
			}
		},
		{
			"aliases": [
				"Wave2"
			],
			"objclass": "SpawnZombiesJitteredWaveActionProps",
			"objdata": {
				"Zombies": [
					{
						"Type": "RTID(future@ZombieTypes)"
					}
				]
			}
		},
		{
			"aliases": [
				"Wave3"
			],
			"objclass": "SpawnZombiesJitteredWaveActionProps",
			"objdata": {
				"AdditionalPlantfood": 1,
				"DynamicPlantfood": [
					1,
					1,
					1,
					1,
					1,
					1,
					0
				],
				"Zombies": [
					{
						"Type": "RTID(future@ZombieTypes)"
					},
					{
						"Type": "RTID(future@ZombieTypes)"
					}
				]
			}
		},
		{
			"aliases": [
				"Wave4"
			],
			"objclass": "SpawnZombiesJitteredWaveActionProps",
			"objdata": {
				"Zombies": [
					{
						"Type": "RTID(future@ZombieTypes)"
					},
					{
						"Type": "RTID(future_armor1@ZombieTypes)"
					}
				]
			}
		},
		{
			"aliases": [
				"Wave5"
			],
			"objclass": "SpawnZombiesJitteredWaveActionProps",
			"objdata": {
				"AdditionalPlantfood": 1,
				"DynamicPlantfood": [
					1,
					1,
					1,
					1,
					0,
					0,
					1
				],
				"Zombies": [
					{
						"Row": "3",
						"Type": "RTID(future_protector@ZombieTypes)"
					},
					{
						"Row": "4",
						"Type": "RTID(future@ZombieTypes)"
					},
					{
						"Row": "2",
						"Type": "RTID(future@ZombieTypes)"
					}
				]
			}
		},
		{
			"aliases": [
				"Wave6"
			],
			"objclass": "SpawnZombiesJitteredWaveActionProps",
			"objdata": {
				"AdditionalPlantfood": 0,
				"Zombies": [
					{
						"Type": "RTID(future@ZombieTypes)"
					},
					{
						"Type": "RTID(future_armor1@ZombieTypes)"
					}
				]
			}
		},
		{
			"aliases": [
				"Wave7"
			],
			"objclass": "SpawnZombiesJitteredWaveActionProps",
			"objdata": {
				"AdditionalPlantfood": 1,
				"DynamicPlantfood": [
					1,
					1,
					1,
					1,
					1,
					1,
					0
				],
				"Zombies": [
					{
						"Type": "RTID(future@ZombieTypes)"
					},
					{
						"Type": "RTID(future@ZombieTypes)"
					},
					{
						"Type": "RTID(future_armor1@ZombieTypes)"
					},
					{
						"Type": "RTID(future_armor1@ZombieTypes)"
					}
				]
			}
		},
		{
			"aliases": [
				"Wave8"
			],
			"objclass": "SpawnZombiesJitteredWaveActionProps",
			"objdata": {
				"AdditionalPlantfood": 0,
				"Zombies": [
					{
						"Row": "2",
						"Type": "RTID(future_protector@ZombieTypes)"
					},
					{
						"Row": "4",
						"Type": "RTID(future_protector@ZombieTypes)"
					},
					{
						"Row": "5",
						"Type": "RTID(future@ZombieTypes)"
					},
					{
						"Row": "1",
						"Type": "RTID(future@ZombieTypes)"
					},
					{
						"Row": "3",
						"Type": "RTID(future_armor1@ZombieTypes)"
					},
					{
						"Row": "1",
						"Type": "RTID(future_jetpack@ZombieTypes)"
					},
					{
						"Row": "2",
						"Type": "RTID(future_jetpack@ZombieTypes)"
					},
					{
						"Row": "3",
						"Type": "RTID(future_jetpack@ZombieTypes)"
					},
					{
						"Row": "4",
						"Type": "RTID(future_jetpack@ZombieTypes)"
					},
					{
						"Row": "5",
						"Type": "RTID(future_jetpack@ZombieTypes)"
					}
				],
				"WavesAlwaysRandomized": true
			}
		},
		{
			"aliases": [
				"Wave9"
			],
			"objclass": "SpawnZombiesJitteredWaveActionProps",
			"objdata": {
				"Zombies": [
					{
						"Type": "RTID(future@ZombieTypes)"
					},
					{
						"Type": "RTID(future@ZombieTypes)"
					},
					{
						"Type": "RTID(future@ZombieTypes)"
					}
				]
			}
		},
		{
			"aliases": [
				"Wave10"
			],
			"objclass": "SpawnZombiesJitteredWaveActionProps",
			"objdata": {
				"AdditionalPlantfood": 1,
				"DynamicPlantfood": [
					1,
					1,
					1,
					1,
					1,
					1,
					1
				],
				"Zombies": [
					{
						"Row": "1",
						"Type": "RTID(future_protector@ZombieTypes)"
					},
					{
						"Row": "5",
						"Type": "RTID(future_protector@ZombieTypes)"
					}
				]
			}
		},
		{
			"aliases": [
				"Wave11"
			],
			"objclass": "SpawnZombiesJitteredWaveActionProps",
			"objdata": {
				"Zombies": [
					{
						"Row": "4",
						"Type": "RTID(future_jetpack@ZombieTypes)"
					},
					{
						"Row": "2",
						"Type": "RTID(future_jetpack@ZombieTypes)"
					},
					{
						"Row": "4",
						"Type": "RTID(future_armor1@ZombieTypes)"
					},
					{
						"Row": "2",
						"Type": "RTID(future_armor1@ZombieTypes)"
					}
				]
			}
		},
		{
			"aliases": [
				"Wave12"
			],
			"objclass": "SpawnZombiesJitteredWaveActionProps",
			"objdata": {
				"AdditionalPlantfood": 1,
				"DynamicPlantfood": [
					1,
					1,
					1,
					1,
					1,
					1,
					1
				],
				"Zombies": [
					{
						"Type": "RTID(future@ZombieTypes)"
					},
					{
						"Type": "RTID(future@ZombieTypes)"
					},
					{
						"Type": "RTID(future@ZombieTypes)"
					},
					{
						"Type": "RTID(future_armor2@ZombieTypes)"
					}
				]
			}
		},
		{
			"aliases": [
				"Wave13"
			],
			"objclass": "SpawnZombiesJitteredWaveActionProps",
			"objdata": {
				"AdditionalPlantfood": 1,
				"DynamicPlantfood": [
					1,
					1,
					1,
					1,
					1,
					0,
					0
				],
				"Zombies": [
					{
						"Row": "1",
						"Type": "RTID(future_jetpack@ZombieTypes)"
					},
					{
						"Row": "2",
						"Type": "RTID(future_jetpack@ZombieTypes)"
					},
					{
						"Row": "4",
						"Type": "RTID(future_jetpack@ZombieTypes)"
					},
					{
						"Row": "5",
						"Type": "RTID(future_jetpack@ZombieTypes)"
					}
				]
			}
		},
		{
			"aliases": [
				"Wave14"
			],
			"objclass": "SpawnZombiesJitteredWaveActionProps",
			"objdata": {
				"AdditionalPlantfood": 0,
				"Zombies": [
					{
						"Type": "RTID(future@ZombieTypes)"
					},
					{
						"Type": "RTID(future@ZombieTypes)"
					},
					{
						"Row": "3",
						"Type": "RTID(future_protector@ZombieTypes)"
					},
					{
						"Row": "2",
						"Type": "RTID(future_armor1@ZombieTypes)"
					},
					{
						"Row": "4",
						"Type": "RTID(future_armor1@ZombieTypes)"
					}
				]
			}
		},
		{
			"aliases": [
				"Wave15"
			],
			"objclass": "SpawnZombiesJitteredWaveActionProps",
			"objdata": {
				"AdditionalPlantfood": 1,
				"DynamicPlantfood": [
					1,
					1,
					1,
					1,
					1,
					1,
					1
				],
				"Zombies": [
					{
						"Type": "RTID(future@ZombieTypes)"
					},
					{
						"Type": "RTID(future@ZombieTypes)"
					},
					{
						"Type": "RTID(future_armor1@ZombieTypes)"
					},
					{
						"Type": "RTID(future_armor1@ZombieTypes)"
					},
					{
						"Type": "RTID(future_armor2@ZombieTypes)"
					}
				]
			}
		},
		{
			"aliases": [
				"Wave16"
			],
			"objclass": "SpawnZombiesJitteredWaveActionProps",
			"objdata": {
				"AdditionalPlantfood": 0,
				"Zombies": [
					{
						"Row": "1",
						"Type": "RTID(future_protector@ZombieTypes)"
					},
					{
						"Row": "3",
						"Type": "RTID(future_protector@ZombieTypes)"
					},
					{
						"Row": "5",
						"Type": "RTID(future_protector@ZombieTypes)"
					},
					{
						"Row": "1",
						"Type": "RTID(future_jetpack@ZombieTypes)"
					},
					{
						"Row": "2",
						"Type": "RTID(future_jetpack@ZombieTypes)"
					},
					{
						"Row": "3",
						"Type": "RTID(future_jetpack@ZombieTypes)"
					},
					{
						"Row": "4",
						"Type": "RTID(future_jetpack@ZombieTypes)"
					},
					{
						"Row": "5",
						"Type": "RTID(future_jetpack@ZombieTypes)"
					}
				]
			}
		}
	],
	"version": 1
}