{
	"#comment": "Rift 9 IceAge Zomboss - joust83 v2",
	"objects": [
		{
			"objclass": "LevelDefinition",
			"objdata": {
				"Description": "[PLAYERS_TRIP_TO_RIFT]",
				"DisablePlantBoosts": false,
				"GridItemLevel": 1,
				"LevelMutator": "RTID(LevelMutator@CurrentLevel)",
				"LevelNumber": "",
				"LevelPowerupSet": "",
				"Loot": "RTID(NoLoot@LevelModules)",
				"LossModule": "RTID(RiftOutro@LevelModules)",
				"Modules": [
					"RTID(DefaultSunDropper@LevelModules)",
					"RTID(IceageMowers@LevelModules)",
					"RTID(SeedBank@CurrentLevel)",
					"RTID(DefaultZombieWinCondition@LevelModules)",
					"RTID(NewWaves@CurrentLevel)",
					"RTID(LastStand@CurrentLevel)",
					"RTID(LevelDifficultyScaling@CurrentLevel)",
					"RTID(SeedPacketHalfTimeModule@LevelModules)",
					"RTID(ZombossBattle@CurrentLevel)",
					"RTID(WaveDuplicator@CurrentLevel)",
					"RTID(PerkActivator@CurrentLevel)",
					"RTID(DefaultZombossRiftPointOfLoss@LevelModules)",
					"RTID(GlacierModule@CurrentLevel)"
				],
				"Name": "",
				"NormalPresentTable": "dark_normal_01",
				"PerksDisabledInLevel": [
					"moarscore",
					"applyconditionsuncarrier50"
				],
				"PerksDisabledPerDifficulty": [
					[],
					[],
					[]
				],
				"ShinyPresentTable": "dark_shiny_01",
				"StageModule": "RTID(IceageStage@LevelModules)",
				"SuppressAccountUpgrades": true,
				"SuppressDynamicTutorial": true,
				"SuppressPlantfoodPurchase": false,
				"VictoryModule": "RTID(RiftOutro@LevelModules)"
			}
		},
		{
			"aliases": [
				"PerkActivator"
			],
			"objclass": "PerkHandlerModuleProperties",
			"objdata": {}
		},
		{
			"aliases": [
				"LevelMutator"
			],
			"objclass": "LevelMutatorModuleProperties",
			"objdata": {
				"MutatorTables": [
					"RTID(MutatorPropsRiftZomboss_IceAge@LevelMutatorTables)",
					"RTID(MutatorRiftZombossBattery1@LevelMutatorTables)",
					"RTID(MutatorGridRiftMold4@LevelMutatorTables)"
				]
			}
		},
		{
			"#comment": "Zombie Spawn Weights by Row From Left",
			"aliases": [
				"GlacierModule"
			],
			"objclass": "GlacierModuleProperties",
			"objdata": {
				"ZombieSpawnData": [
					{
						"Entries": [
							{
								"TypeName": "",
								"Weight": 3
							}
						]
					},
					{
						"Entries": [
							{
								"TypeName": "",
								"Weight": 0.5
							},
							{
								"TypeName": "iceage_weaselhoarder",
								"Weight": 3
							},
							{
								"TypeName": "iceage_imp",
								"Weight": 5
							},
							{
								"TypeName": "iceage",
								"Weight": 1
							}
						]
					},
					{
						"Entries": [
							{
								"TypeName": "",
								"Weight": 1
							},
							{
								"TypeName": "iceage_imp",
								"Weight": 3
							},
							{
								"TypeName": "iceage",
								"Weight": 3
							}
						]
					},
					{
						"Entries": [
							{
								"TypeName": "",
								"Weight": 1
							},
							{
								"TypeName": "iceage_imp",
								"Weight": 2
							},
							{
								"TypeName": "iceage",
								"Weight": 5
							}
						]
					},
					{
						"Entries": [
							{
								"TypeName": "iceage",
								"Weight": 0.5
							},
							{
								"TypeName": "iceage_armor3",
								"Weight": 3
							},
							{
								"TypeName": "iceage_hunter",
								"Weight": 2
							},
							{
								"TypeName": "iceage_weaselhoarder",
								"Weight": 3
							}
						]
					},
					{
						"Entries": [
							{
								"TypeName": "iceage_armor3",
								"Weight": 4
							},
							{
								"TypeName": "iceage_hunter",
								"Weight": 1
							},
							{
								"TypeName": "iceage_dodo",
								"Weight": 3
							}
						]
					}
				]
			}
		},
		{
			"aliases": [
				"WaveDuplicator"
			],
			"objclass": "WaveDuplicatorModuleProperties",
			"objdata": {
				"PeriodOfWavesToLoop": 7,
				"WaveSetsToAppend": 20
			}
		},
		{
			"aliases": [
				"ZombossBattle"
			],
			"objclass": "ZombossRiftBattleModuleProperties",
			"objdata": {
				"ReservedColumnCount": 2,
				"ShowInStreetView": true,
				"SlideInStreetView": false,
				"ZombossDeathColumn": 5,
				"ZombossDeathRow": 3,
				"ZombossMechType": "zombossmech_iceage_rift",
				"ZombossPhases": 3,
				"ZombossSpawnGridPosition": {
					"mX": 6,
					"mY": 3
				}
			}
		},
		{
			"aliases": [
				"SeedBank"
			],
			"objclass": "SeedBankProperties",
			"objdata": {
				"PlantExcludeList": [],
				"PresetPlantList": [
					{
						"Level": -1,
						"PlantType": "pyrevine"
					}
				],
				"SelectionMethod": "chooser"
			}
		},
		{
			"aliases": [
				"LastStand"
			],
			"objclass": "LastStandMinigameProperties",
			"objdata": {
				"PreSeedchooserFlow": "rift",
				"StartingPlantfood": 1,
				"StartingSun": 1850
			}
		},
		{
			"aliases": [
				"LevelDifficultyScaling"
			],
			"objclass": "LevelDifficultyScalingModuleProperties",
			"objdata": {
				"DifficultyRulesType": "RiftDifficulty",
				"ZombieLevelSwaps": [
					{
						"Level": 0,
						"Swaps": [
							{
								"From": "RTID(zcorp@ZombieTypes)",
								"To": [
									"RTID(zcorp@ZombieTypes)",
									"RTID(zcorp_fem@ZombieTypes)",
									"RTID(zcorp@ZombieTypes)",
									"RTID(zcorp_fem@ZombieTypes)",
									"RTID(zcorp_armor1@ZombieTypes)",
									"RTID(zcorp_fem_armor1@ZombieTypes)",
									"RTID(zcorp_armor2@ZombieTypes)",
									"RTID(zcorp_fem_armor2@ZombieTypes)",
									"RTID(zcorp_gargantuar@ZombieTypes)"
								]
							}
						]
					},
					{
						"Level": 4,
						"Swaps": [
							{
								"From": "RTID(zcorp@ZombieTypes)",
								"To": [
									"RTID(zcorp@ZombieTypes)",
									"RTID(zcorp_fem@ZombieTypes)",
									"RTID(zcorp_armor1@ZombieTypes)",
									"RTID(zcorp_fem_armor1@ZombieTypes)",
									"RTID(zcorp_armor1@ZombieTypes)",
									"RTID(zcorp_fem_armor1@ZombieTypes)",
									"RTID(zcorp_armor2@ZombieTypes)",
									"RTID(zcorp_fem_armor2@ZombieTypes)",
									"RTID(zcorp_gargantuar@ZombieTypes)"
								]
							}
						]
					},
					{
						"Level": 7,
						"Swaps": [
							{
								"From": "RTID(zcorp@ZombieTypes)",
								"To": [
									"RTID(zcorp@ZombieTypes)",
									"RTID(zcorp_fem@ZombieTypes)",
									"RTID(zcorp_armor1@ZombieTypes)",
									"RTID(zcorp_fem_armor1@ZombieTypes)",
									"RTID(zcorp_armor2@ZombieTypes)",
									"RTID(zcorp_fem_armor2@ZombieTypes)",
									"RTID(zcorp_gargantuar@ZombieTypes)"
								]
							}
						]
					}
				]
			}
		},
		{
			"aliases": [
				"NewWaves"
			],
			"objclass": "WaveManagerModuleProperties",
			"objdata": {
				"DynamicZombies": [
					{
						"PointIncrementPerWave": -1,
						"StartingPoints": -1,
						"StartingWave": 3,
						"ZombiePool": []
					},
					{
						"PointIncrementPerWave": -1,
						"StartingPoints": -1,
						"StartingWave": 4,
						"ZombiePool": []
					},
					{
						"PointIncrementPerWave": -1,
						"StartingPoints": -1,
						"StartingWave": 5,
						"ZombiePool": []
					},
					{
						"MaxPoints": 1600,
						"PointIncrementPerWave": 50,
						"StartingPoints": 1000,
						"StartingWave": 2,
						"ZombiePool": []
					},
					{
						"PointIncrementPerWave": 1,
						"StartingPoints": 1,
						"StartingWave": 5,
						"ZombiePool": []
					},
					{
						"PointIncrementPerWave": 1,
						"StartingPoints": 1,
						"StartingWave": 4,
						"ZombiePool": []
					},
					{
						"PointIncrementPerWave": 1,
						"StartingPoints": 1,
						"StartingWave": 3,
						"ZombiePool": []
					}
				],
				"ManualStartup": true,
				"WaveManagerProps": "RTID(WaveManagerProps@CurrentLevel)"
			}
		},
		{
			"aliases": [
				"WaveManagerProps"
			],
			"objclass": "WaveManagerProperties",
			"objdata": {
				"FlagWaveInterval": 100,
				"WaveCount": 10,
				"WaveSpendingPointIncrement": 200,
				"WaveSpendingPoints": 1000,
				"Waves": [
					[
						"RTID(Wave1@CurrentLevel)"
					],
					[
						"RTID(Wave2@CurrentLevel)",
						"RTID(Wave2SunDropperEvent0@CurrentLevel)"
					],
					[
						"RTID(Wave3@CurrentLevel)"
					],
					[
						"RTID(Wave4@CurrentLevel)",
						"RTID(Wave4SunDropperEvent0@CurrentLevel)"
					],
					[
						"RTID(Wave5@CurrentLevel)"
					],
					[
						"RTID(Wave6@CurrentLevel)",
						"RTID(Wave6SunDropperEvent0@CurrentLevel)"
					],
					[
						"RTID(Wave7@CurrentLevel)",
						"RTID(Wave7StormEvent0@CurrentLevel)"
					],
					[
						"RTID(Wave8@CurrentLevel)",
						"RTID(Wave8SunDropperEvent0@CurrentLevel)"
					],
					[
						"RTID(Wave9@CurrentLevel)"
					],
					[
						"RTID(Wave10@CurrentLevel)",
						"RTID(Wave10StormEvent0@CurrentLevel)",
						"RTID(Wave10SunDropperEvent0@CurrentLevel)"
					]
				],
				"WavesAlwaysRandomized": true
			}
		},
		{
			"aliases": [
				"Wave1"
			],
			"objclass": "SpawnZombiesJitteredWaveActionProps",
			"objdata": {}
		},
		{
			"aliases": [
				"Wave2"
			],
			"objclass": "SpawnZombiesJitteredWaveActionProps",
			"objdata": {}
		},
		{
			"aliases": [
				"Wave3"
			],
			"objclass": "SpawnZombiesJitteredWaveActionProps",
			"objdata": {}
		},
		{
			"aliases": [
				"Wave4"
			],
			"objclass": "SpawnZombiesJitteredWaveActionProps",
			"objdata": {}
		},
		{
			"aliases": [
				"Wave5"
			],
			"objclass": "SpawnZombiesJitteredWaveActionProps",
			"objdata": {}
		},
		{
			"aliases": [
				"Wave6"
			],
			"objclass": "SpawnZombiesJitteredWaveActionProps",
			"objdata": {
				"ForcedCondition": {}
			}
		},
		{
			"aliases": [
				"Wave7"
			],
			"objclass": "SpawnZombiesJitteredWaveActionProps",
			"objdata": {
				"AdditionalPlantfood": 1,
				"ForcedCondition": {},
				"Zombies": []
			}
		},
		{
			"aliases": [
				"Wave8"
			],
			"objclass": "SpawnZombiesJitteredWaveActionProps",
			"objdata": {
				"AdditionalPlantfood": 0,
				"ForcedCondition": {}
			}
		},
		{
			"aliases": [
				"Wave9"
			],
			"objclass": "SpawnZombiesJitteredWaveActionProps",
			"objdata": {
				"ForcedCondition": {}
			}
		},
		{
			"aliases": [
				"Wave10"
			],
			"objclass": "SpawnZombiesJitteredWaveActionProps",
			"objdata": {
				"AdditionalPlantfood": 1,
				"ForcedCondition": {},
				"Zombies": []
			}
		},
		{
			"aliases": [
				"Wave2SunDropperEvent0"
			],
			"objclass": "SunDropperWaveActionProps",
			"objdata": {
				"SunAmountToDrop": 125
			}
		},
		{
			"aliases": [
				"Wave4SunDropperEvent0"
			],
			"objclass": "SunDropperWaveActionProps",
			"objdata": {
				"SunAmountToDrop": 250
			}
		},
		{
			"aliases": [
				"Wave6SunDropperEvent0"
			],
			"objclass": "SunDropperWaveActionProps",
			"objdata": {
				"SunAmountToDrop": 250
			}
		},
		{
			"aliases": [
				"Wave8SunDropperEvent0"
			],
			"objclass": "SunDropperWaveActionProps",
			"objdata": {
				"SunAmountToDrop": 250
			}
		},
		{
			"aliases": [
				"Wave10SunDropperEvent0"
			],
			"objclass": "SunDropperWaveActionProps",
			"objdata": {
				"SunAmountToDrop": 500
			}
		},
		{
			"aliases": [
				"Wave7StormEvent0"
			],
			"objclass": "StormZombieSpawnerProps",
			"objdata": {
				"ColumnEnd": 5,
				"ColumnStart": 4,
				"GroupSize": 1,
				"TimeBetweenGroups": "3",
				"Type": "snowstorm",
				"Zombies": [
					{
						"Type": "RTID(zcorp@ZombieTypes)"
					}
				]
			}
		},
		{
			"aliases": [
				"Wave10StormEvent0"
			],
			"objclass": "StormZombieSpawnerProps",
			"objdata": {
				"ColumnEnd": 5,
				"ColumnStart": 4,
				"GroupSize": 1,
				"TimeBetweenGroups": "3",
				"Type": "snowstorm",
				"Zombies": [
					{
						"Type": "RTID(zcorp@ZombieTypes)"
					}
				]
			}
		}
	],
	"version": 1
}