{
	"#comment": "Rift 8 LostCity Zomboss - joust98",
	"objects": [
		{
			"objclass": "LevelDefinition",
			"objdata": {
				"Description": "[PLAYERS_TRIP_TO_RIFT]",
				"DisablePlantBoosts": false,
				"GridItemLevel": 1,
				"LevelMutator": "RTID(LevelMutator@CurrentLevel)",
				"LevelNumber": "",
				"LevelPowerupSet": "",
				"Loot": "RTID(NoLoot@LevelModules)",
				"LossModule": "RTID(RiftOutro@LevelModules)",
				"Modules": [
					"RTID(DefaultSunDropper@LevelModules)",
					"RTID(FutureMowers@LevelModules)",
					"RTID(SeedBank@CurrentLevel)",
					"RTID(DefaultZombieWinCondition@LevelModules)",
					"RTID(NewWaves@CurrentLevel)",
					"RTID(LastStand@CurrentLevel)",
					"RTID(LevelDifficultyScaling@CurrentLevel)",
					"RTID(SeedPacketHalfTimeModule@LevelModules)",
					"RTID(ZombossBattle@CurrentLevel)",
					"RTID(WaveDuplicator@CurrentLevel)",
					"RTID(PerkActivator@CurrentLevel)",
					"RTID(GoldTiles@CurrentLevel)",
					"RTID(DefaultZombossRiftPointOfLoss@LevelModules)"
				],
				"Name": "",
				"NormalPresentTable": "dark_normal_01",
				"PerksDisabledInLevel": [
					"moarscore"
				],
				"PerksDisabledPerDifficulty": [
					[],
					[],
					[]
				],
				"ShinyPresentTable": "dark_shiny_01",
				"StageModule": "RTID(LostCityStage@LevelModules)",
				"SuppressAccountUpgrades": true,
				"SuppressDynamicTutorial": true,
				"SuppressPlantfoodPurchase": false,
				"VictoryModule": "RTID(RiftOutro@LevelModules)"
			}
		},
		{
			"aliases": [
				"PerkActivator"
			],
			"objclass": "PerkHandlerModuleProperties",
			"objdata": {}
		},
		{
			"aliases": [
				"LevelMutator"
			],
			"objclass": "LevelMutatorModuleProperties",
			"objdata": {
				"MutatorTables": [
					"RTID(MutatorPropsRiftZomboss_Worlds_Low@LevelMutatorTables)",
					"RTID(MutatorRiftZombossBattery1@LevelMutatorTables)",
					"RTID(MutatorGridRiftMold6@LevelMutatorTables)",
					"RTID(MutatorGridRiftGoldTiles1@LevelMutatorTables)"
				]
			}
		},
		{
			"aliases": [
				"WaveDuplicator"
			],
			"objclass": "WaveDuplicatorModuleProperties",
			"objdata": {
				"PeriodOfWavesToLoop": 6,
				"WaveSetsToAppend": 20
			}
		},
		{
			"aliases": [
				"ZombossBattle"
			],
			"objclass": "ZombossRiftBattleModuleProperties",
			"objdata": {
				"ReservedColumnCount": 2,
				"ShowInStreetView": true,
				"SlideInStreetView": false,
				"ZombossDeathColumn": 5,
				"ZombossDeathRow": 3,
				"ZombossMechType": "zombossmech_lostcity_rift",
				"ZombossPhases": 3,
				"ZombossSpawnGridPosition": {
					"mX": 6,
					"mY": 3
				}
			}
		},
		{
			"aliases": [
				"SeedBank"
			],
			"objclass": "SeedBankProperties",
			"objdata": {
				"PlantExcludeList": [],
				"PresetPlantList": [
					{
						"Level": -1,
						"PlantType": "grapeshot"
					}
				],
				"SelectionMethod": "chooser"
			}
		},
		{
			"aliases": [
				"LastStand"
			],
			"objclass": "LastStandMinigameProperties",
			"objdata": {
				"PreSeedchooserFlow": "rift",
				"StartingPlantfood": 0,
				"StartingSun": 2125
			}
		},
		{
			"aliases": [
				"GoldTiles"
			],
			"objclass": "InitialGridItemProperties",
			"objdata": {
				"InitialGridItemPlacements": [
					{
						"GridX": 8,
						"GridY": 1,
						"TypeName": "flame_spreader_trap"
					},
					{
						"GridX": 8,
						"GridY": 2,
						"TypeName": "flame_spreader_trap"
					},
					{
						"GridX": 8,
						"GridY": 3,
						"TypeName": "flame_spreader_trap"
					},
					{
						"GridX": 5,
						"GridY": 0,
						"TypeName": "goldtile"
					},
					{
						"GridX": 5,
						"GridY": 4,
						"TypeName": "goldtile"
					}
				]
			}
		},
		{
			"aliases": [
				"LevelDifficultyScaling"
			],
			"objclass": "LevelDifficultyScalingModuleProperties",
			"objdata": {
				"DifficultyRulesType": "RiftDifficulty",
				"ZombieLevelSwaps": [
					{
						"Level": 4,
						"Swaps": [
							{
								"From": "RTID(lostcity_bug@ZombieTypes)",
								"To": [
									"RTID(lostcity_bug@ZombieTypes)"
								]
							},
							{
								"From": "RTID(lostcity@ZombieTypes)",
								"To": [
									"RTID(lostcity@ZombieTypes)",
									"RTID(lostcity_imp@ZombieTypes)"
								]
							}
						]
					},
					{
						"Level": 7,
						"Swaps": [
							{
								"From": "RTID(lostcity_bug@ZombieTypes)",
								"To": [
									"RTID(lostcity_bug@ZombieTypes)",
									"RTID(lostcity_bug_armor1@ZombieTypes)"
								]
							},
							{
								"From": "RTID(lostcity@ZombieTypes)",
								"To": [
									"RTID(lostcity@ZombieTypes)",
									"RTID(lostcity_imp@ZombieTypes)",
									"RTID(lostcity_armor1@ZombieTypes)"
								]
							}
						]
					},
					{
						"Level": 11,
						"Swaps": [
							{
								"From": "RTID(lostcity_bug@ZombieTypes)",
								"To": [
									"RTID(lostcity_relichunter@ZombieTypes)",
									"RTID(lostcity_bug_armor1@ZombieTypes)",
									"RTID(lostcity_bug_armor2@ZombieTypes)"
								]
							},
							{
								"From": "RTID(lostcity@ZombieTypes)",
								"To": [
									"RTID(lostcity@ZombieTypes)",
									"RTID(lostcity_armor2@ZombieTypes)",
									"RTID(lostcity_armor1@ZombieTypes)"
								]
							}
						]
					}
				]
			}
		},
		{
			"aliases": [
				"NewWaves"
			],
			"objclass": "WaveManagerModuleProperties",
			"objdata": {
				"DynamicZombies": [
					{
						"PointIncrementPerWave": -1,
						"StartingPoints": -1,
						"StartingWave": 3,
						"ZombiePool": [
							"RTID(lostcity_relichunter@ZombieTypes)"
						]
					},
					{
						"PointIncrementPerWave": -1,
						"StartingPoints": -1,
						"StartingWave": 4,
						"ZombiePool": [
							"RTID(lostcity_relichunter@ZombieTypes)"
						]
					},
					{
						"PointIncrementPerWave": -1,
						"StartingPoints": -1,
						"StartingWave": 5,
						"ZombiePool": [
							"RTID(lostcity_relichunter@ZombieTypes)"
						]
					},
					{
						"MaxPoints": 700,
						"PointIncrementPerWave": 50,
						"StartingPoints": 550,
						"StartingWave": 3,
						"ZombiePool": [
							"RTID(lostcity_relichunter@ZombieTypes)"
						]
					},
					{
						"PointIncrementPerWave": 1,
						"StartingPoints": 1,
						"StartingWave": 5,
						"ZombiePool": [
							"RTID(lostcity_relichunter@ZombieTypes)"
						]
					},
					{
						"PointIncrementPerWave": 1,
						"StartingPoints": 1,
						"StartingWave": 4,
						"ZombiePool": [
							"RTID(lostcity_relichunter@ZombieTypes)"
						]
					},
					{
						"PointIncrementPerWave": 1,
						"StartingPoints": 1,
						"StartingWave": 3,
						"ZombiePool": [
							"RTID(lostcity_relichunter@ZombieTypes)"
						]
					}
				],
				"ManualStartup": true,
				"WaveManagerProps": "RTID(WaveManagerProps@CurrentLevel)"
			}
		},
		{
			"aliases": [
				"WaveManagerProps"
			],
			"objclass": "WaveManagerProperties",
			"objdata": {
				"FlagWaveInterval": 100,
				"WaveCount": 10,
				"WaveSpendingPointIncrement": 200,
				"WaveSpendingPoints": 100,
				"Waves": [
					[
						"RTID(Wave1@CurrentLevel)"
					],
					[
						"RTID(Wave2@CurrentLevel)"
					],
					[
						"RTID(Wave3@CurrentLevel)"
					],
					[
						"RTID(Wave4@CurrentLevel)"
					],
					[
						"RTID(Wave5@CurrentLevel)"
					],
					[
						"RTID(Wave6@CurrentLevel)"
					],
					[
						"RTID(Wave7@CurrentLevel)"
					],
					[
						"RTID(Wave8@CurrentLevel)"
					],
					[
						"RTID(Wave9@CurrentLevel)"
					],
					[
						"RTID(Wave10@CurrentLevel)"
					]
				],
				"WavesAlwaysRandomized": true
			}
		},
		{
			"aliases": [
				"Wave1"
			],
			"objclass": "SpawnZombiesJitteredWaveActionProps",
			"objdata": {
				"ForcedCondition": {
					"Condition": "speedup4",
					"Duration": 2.5
				},
				"Zombies": [
					{
						"Type": "RTID(lostcity_bug@ZombieTypes)"
					}
				]
			}
		},
		{
			"aliases": [
				"Wave2"
			],
			"objclass": "SpawnZombiesJitteredWaveActionProps",
			"objdata": {
				"ForcedCondition": {
					"Condition": "speedup4",
					"Duration": 2.5
				},
				"Zombies": [
					{
						"Type": "RTID(lostcity_bug@ZombieTypes)"
					}
				]
			}
		},
		{
			"aliases": [
				"Wave3"
			],
			"objclass": "SpawnZombiesJitteredWaveActionProps",
			"objdata": {
				"ForcedCondition": {
					"Condition": "speedup4",
					"Duration": 2.5
				},
				"Zombies": [
					{
						"Type": "RTID(lostcity_bug@ZombieTypes)"
					}
				]
			}
		},
		{
			"aliases": [
				"Wave4"
			],
			"objclass": "SpawnZombiesJitteredWaveActionProps",
			"objdata": {
				"ForcedCondition": {
					"Condition": "speedup4",
					"Duration": 2.5
				},
				"Zombies": [
					{
						"Type": "RTID(lostcity_bug@ZombieTypes)"
					}
				]
			}
		},
		{
			"aliases": [
				"Wave5"
			],
			"objclass": "SpawnZombiesJitteredWaveActionProps",
			"objdata": {
				"ForcedCondition": {
					"Condition": "speedup4",
					"Duration": 2.5
				},
				"Zombies": [
					{
						"Row": "1",
						"Type": "RTID(lostcity_impporter@ZombieTypes)"
					},
					{
						"Row": "5",
						"Type": "RTID(lostcity_impporter@ZombieTypes)"
					}
				]
			}
		},
		{
			"aliases": [
				"Wave6"
			],
			"objclass": "SpawnZombiesJitteredWaveActionProps",
			"objdata": {
				"ForcedCondition": {
					"Condition": "speedup4",
					"Duration": 2.5
				},
				"Zombies": [
					{
						"Row": "1",
						"Type": "RTID(lostcity_impporter@ZombieTypes)"
					},
					{
						"Row": "5",
						"Type": "RTID(lostcity_impporter@ZombieTypes)"
					}
				]
			}
		},
		{
			"aliases": [
				"Wave7"
			],
			"objclass": "SpawnZombiesJitteredWaveActionProps",
			"objdata": {
				"ForcedCondition": {
					"Condition": "speedup4",
					"Duration": 2.5
				},
				"Zombies": [
					{
						"Type": "RTID(lostcity_bug@ZombieTypes)"
					}
				]
			}
		},
		{
			"aliases": [
				"Wave8"
			],
			"objclass": "SpawnZombiesJitteredWaveActionProps",
			"objdata": {
				"Zombies": [
					{
						"Row": "1",
						"Type": "RTID(lostcity_impporter@ZombieTypes)"
					},
					{
						"Row": "5",
						"Type": "RTID(lostcity_impporter@ZombieTypes)"
					}
				]
			}
		},
		{
			"aliases": [
				"Wave9"
			],
			"objclass": "SpawnZombiesJitteredWaveActionProps",
			"objdata": {
				"ForcedCondition": {
					"Condition": "speedup4",
					"Duration": 2.5
				},
				"Zombies": [
					{
						"Type": "RTID(lostcity_bug@ZombieTypes)"
					}
				]
			}
		},
		{
			"aliases": [
				"Wave10"
			],
			"objclass": "SpawnZombiesJitteredWaveActionProps",
			"objdata": {
				"AdditionalPlantfood": 1,
				"ForcedCondition": {
					"Condition": "speedup4",
					"Duration": 2.5
				},
				"Zombies": [
					{
						"Type": "RTID(lostcity_bug@ZombieTypes)"
					},
					{
						"Row": "1",
						"Type": "RTID(lostcity_impporter@ZombieTypes)"
					},
					{
						"Row": "5",
						"Type": "RTID(lostcity_impporter@ZombieTypes)"
					}
				]
			}
		}
	],
	"version": 1
}