{
	"#comment": "Rift 2 Futre Zomboss - joust82",
	"objects": [
		{
			"objclass": "LevelDefinition",
			"objdata": {
				"Description": "[PLAYERS_TRIP_TO_RIFT]",
				"DisablePlantBoosts": false,
				"LevelPowerupSet": "",
				"GridItemLevel": 1,
				"LevelNumber": "",
				"Loot": "RTID(NoLoot@LevelModules)",
				"Modules": [
					"RTID(DefaultSunDropper@LevelModules)",
					"RTID(FutureMowers@LevelModules)",
					"RTID(SeedBank@CurrentLevel)",
					"RTID(DefaultZombieWinCondition@LevelModules)",
					"RTID(NewWaves@CurrentLevel)",
					"RTID(LastStand@CurrentLevel)",
					"RTID(LevelDifficultyScaling@CurrentLevel)",
					"RTID(SeedPacketHalfTimeModule@LevelModules)",
					"RTID(ZombossBattle@CurrentLevel)",
					"RTID(WaveDuplicator@CurrentLevel)",
					"RTID(PerkActivator@CurrentLevel)",
					"RTID(FutureLinkedTileGroups@CurrentLevel)",
					"RTID(DefaultZombossRiftPointOfLoss@LevelModules)"
				],
				"Name": "",
				"NormalPresentTable": "dark_normal_01",
				"ShinyPresentTable": "dark_shiny_01",
				"VictoryModule": "RTID(RiftOutro@LevelModules)",
				"LossModule": "RTID(RiftOutro@LevelModules)",
				"StageModule": "RTID(RiftStage@LevelModules)",
				"LevelMutator": "RTID(LevelMutator@CurrentLevel)",
				"SuppressAccountUpgrades": true,
				"SuppressDynamicTutorial": true,
				"SuppressPlantfoodPurchase": false,
				"PerksDisabledInLevel": [
					"moarscore"
				],
				"PerksDisabledPerDifficulty": [
					[],
					[],
					[]
				]
			}
		},
		{
			"aliases": [
				"PerkActivator"
			],
			"objclass": "PerkHandlerModuleProperties",
			"objdata": {}
		},
		{
			"aliases": [
				"LevelMutator"
			],
			"objclass": "LevelMutatorModuleProperties",
			"objdata": {
				"MutatorTables": [
					"RTID(MutatorPropsRiftZomboss_Future@LevelMutatorTables)",
					"RTID(MutatorRiftZombossBattery1@LevelMutatorTables)",
					"RTID(MutatorGridRiftMold4@LevelMutatorTables)"
				]
			}
		},
		{
			"aliases": [
				"WaveDuplicator"
			],
			"objclass": "WaveDuplicatorModuleProperties",
			"objdata": {
				"PeriodOfWavesToLoop": 6,
				"WaveSetsToAppend": 20
			}
		},
		{
			"aliases": [
				"ZombossBattle"
			],
			"objclass": "ZombossRiftBattleModuleProperties",
			"objdata": {
				"ReservedColumnCount": 2,
				"ShowInStreetView": true,
				"SlideInStreetView": false,
				"ZombossDeathColumn": 5,
				"ZombossDeathRow": 3,
				"ZombossMechType": "zombossmech_future_rift",
				"ZombossSpawnGridPosition": {
					"mX": 6,
					"mY": 3
				},
				"ZombossPhases": 3
			}
		},
		{
			"aliases": [
				"SeedBank"
			],
			"objclass": "SeedBankProperties",
			"objdata": {
				"PlantExcludeList": [],
				"PresetPlantList": [
					{
						"PlantType": "pokra",
						"Level": -1
					}
				],
				"SelectionMethod": "chooser"
			}
		},
		{
			"aliases": [
				"LastStand"
			],
			"objclass": "LastStandMinigameProperties",
			"objdata": {
				"StartingPlantfood": 0,
				"StartingSun": 1600,
				"PreSeedchooserFlow": "rift"
			}
		},
		{
			"aliases": [
				"FutureLinkedTileGroups"
			],
			"objclass": "PowerTileProperties",
			"objdata": {
				"LinkedTiles": [
					{
						"Group": "delta",
						"Location": {
							"mX": 3,
							"mY": 0
						},
						"PropagationDelay": 1.5
					},
					{
						"Group": "delta",
						"Location": {
							"mX": 0,
							"mY": 1
						},
						"PropagationDelay": 1.5
					},
					{
						"Group": "delta",
						"Location": {
							"mX": 2,
							"mY": 2
						},
						"PropagationDelay": 1.5
					},
					{
						"Group": "delta",
						"Location": {
							"mX": 0,
							"mY": 3
						},
						"PropagationDelay": 1.5
					},
					{
						"Group": "delta",
						"Location": {
							"mX": 3,
							"mY": 4
						},
						"PropagationDelay": 1.5
					}
				]
			}
		},
		{
			"aliases": [
				"LevelDifficultyScaling"
			],
			"objclass": "LevelDifficultyScalingModuleProperties",
			"objdata": {
				"DifficultyRulesType": "RiftDifficulty",
				"ZombieLevelSwaps": [
					{
						"Level": 0,
						"Swaps": [
							{
								"From": "RTID(ra@ZombieTypes)",
								"To": [
									"RTID(ra@ZombieTypes)",
									"RTID(roman_healer@ZombieTypes)",
									"RTID(zcorp_fem_armor1@ZombieTypes)"
								]
							},
							{
								"From": "RTID(future_armor4@ZombieTypes)",
								"To": [
									"RTID(zcorp_armor2@ZombieTypes)",
									"RTID(dino_armor3@ZombieTypes)",
									"RTID(zcorp_fem@ZombieTypes)",
									"RTID(future_jetpack@ZombieTypes)"
								]
							},
							{
								"From": "RTID(football_mech@ZombieTypes)",
								"To": [
									"RTID(zcorp_consultant@ZombieTypes)",
									"RTID(future_protector@ZombieTypes)",
									"RTID(zcorp_fem_armor2@ZombieTypes)",
									"RTID(future_jetpack@ZombieTypes)"
								]
							}
						]
					},
					{
						"Level": 4,
						"Swaps": [
							{
								"From": "RTID(ra@ZombieTypes)",
								"To": [
									"RTID(ra@ZombieTypes)",
									"RTID(roman_healer@ZombieTypes)",
									"RTID(lostcity_crystalskull@ZombieTypes)"
								]
							},
							{
								"From": "RTID(future_armor4@ZombieTypes)",
								"To": [
									"RTID(zcorp_armor2@ZombieTypes)",
									"RTID(future_armor4@ZombieTypes)",
									"RTID(dino_armor3@ZombieTypes)",
									"RTID(future_jetpack@ZombieTypes)"
								]
							},
							{
								"From": "RTID(football_mech@ZombieTypes)",
								"To": [
									"RTID(zcorp_consultant@ZombieTypes)",
									"RTID(mech_cone@ZombieTypes)",
									"RTID(zcorp_gargantuar@ZombieTypes)",
									"RTID(disco_mech@ZombieTypes)"
								]
							}
						]
					},
					{
						"Level": 7,
						"Swaps": [
							{
								"From": "RTID(ra@ZombieTypes)",
								"To": [
									"RTID(lostcity_crystalskull@ZombieTypes)",
									"RTID(roman_healer@ZombieTypes)"
								]
							},
							{
								"From": "RTID(future_armor4@ZombieTypes)",
								"To": [
									"RTID(future_armor4@ZombieTypes)",
									"RTID(future_jetpack_veteran@ZombieTypes)"
								]
							},
							{
								"From": "RTID(football_mech@ZombieTypes)",
								"To": [
									"RTID(zcorp_consultant@ZombieTypes)",
									"RTID(zcorp_gargantuar@ZombieTypes)"
								]
							}
						]
					}
				]
			}
		},
		{
			"aliases": [
				"NewWaves"
			],
			"objclass": "WaveManagerModuleProperties",
			"objdata": {
				"ManualStartup": true,
				"DynamicZombies": [
					{
						"PointIncrementPerWave": -1,
						"StartingPoints": -1,
						"StartingWave": 3,
						"ZombiePool": [
							"RTID(zcorp_fem@ZombieTypes)",
							"RTID(zcorp@ZombieTypes)"
						]
					},
					{
						"PointIncrementPerWave": -1,
						"StartingPoints": -1,
						"StartingWave": 4,
						"ZombiePool": [
							"RTID(zcorp_fem@ZombieTypes)",
							"RTID(zcorp@ZombieTypes)"
						]
					},
					{
						"PointIncrementPerWave": -1,
						"StartingPoints": -1,
						"StartingWave": 5,
						"ZombiePool": [
							"RTID(zcorp_fem@ZombieTypes)",
							"RTID(zcorp@ZombieTypes)"
						]
					},
					{
						"MaxPoints": 1000,
						"PointIncrementPerWave": 50,
						"StartingPoints": 50,
						"StartingWave": 2,
						"ZombiePool": [
							"RTID(zcorp_fem@ZombieTypes)",
							"RTID(zcorp@ZombieTypes)"
						]
					},
					{
						"PointIncrementPerWave": 1,
						"StartingPoints": 1,
						"StartingWave": 5,
						"ZombiePool": [
							"RTID(zcorp_fem@ZombieTypes)",
							"RTID(zcorp@ZombieTypes)"
						]
					},
					{
						"PointIncrementPerWave": 1,
						"StartingPoints": 1,
						"StartingWave": 4,
						"ZombiePool": [
							"RTID(zcorp_fem@ZombieTypes)",
							"RTID(zcorp@ZombieTypes)"
						]
					},
					{
						"PointIncrementPerWave": 1,
						"StartingPoints": 1,
						"StartingWave": 3,
						"ZombiePool": [
							"RTID(zcorp_fem@ZombieTypes)",
							"RTID(zcorp@ZombieTypes)"
						]
					}
				],
				"WaveManagerProps": "RTID(WaveManagerProps@CurrentLevel)"
			}
		},
		{
			"aliases": [
				"WaveManagerProps"
			],
			"objclass": "WaveManagerProperties",
			"objdata": {
				"FlagWaveInterval": 10000,
				"WaveCount": 1000,
				"WaveSpendingPointIncrement": 200,
				"WaveSpendingPoints": 1000,
				"Waves": [
					[
						"RTID(Wave1@CurrentLevel)"
					],
					[
						"RTID(Wave2@CurrentLevel)",
						"RTID(Wave2GravestoneEvent0@CurrentLevel)",
						"RTID(Wave2SunDropperEvent0@CurrentLevel)"
					],
					[
						"RTID(Wave3@CurrentLevel)"
					],
					[
						"RTID(Wave4@CurrentLevel)",
						"RTID(Wave4GravestoneEvent0@CurrentLevel)",
						"RTID(Wave4SunDropperEvent0@CurrentLevel)"
					],
					[
						"RTID(Wave5@CurrentLevel)",
						"RTID(Wave5GravestoneEvent0@CurrentLevel)",
						"RTID(Wave5SpiderRainEvent0@CurrentLevel)"
					],
					[
						"RTID(Wave6@CurrentLevel)",
						"RTID(Wave6GravestoneEvent0@CurrentLevel)",
						"RTID(Wave6SunDropperEvent0@CurrentLevel)"
					],
					[
						"RTID(Wave7@CurrentLevel)",
						"RTID(Wave7SpiderRainEvent0@CurrentLevel)"
					],
					[
						"RTID(Wave8@CurrentLevel)",
						"RTID(Wave8GravestoneEvent0@CurrentLevel)",
						"RTID(Wave8GravestoneEvent1@CurrentLevel)",
						"RTID(Wave8SunDropperEvent0@CurrentLevel)"
					],
					[
						"RTID(Wave9@CurrentLevel)",
						"RTID(Wave9SpiderRainEvent0@CurrentLevel)"
					],
					[
						"RTID(Wave10@CurrentLevel)",
						"RTID(Wave10GravestoneEvent0@CurrentLevel)",
						"RTID(Wave10SunDropperEvent0@CurrentLevel)"
					]
				],
				"WavesAlwaysRandomized": true
			}
		},
		{
			"aliases": [
				"Wave1"
			],
			"objclass": "SpawnZombiesJitteredWaveActionProps",
			"objdata": {
				"Zombies": [
					{
						"Type": "RTID(ra@ZombieTypes)"
					},
					{
						"Type": "RTID(ra@ZombieTypes)"
					},
					{
						"Type": "RTID(future_armor4@ZombieTypes)"
					}
				]
			}
		},
		{
			"aliases": [
				"Wave2"
			],
			"objclass": "SpawnZombiesJitteredWaveActionProps",
			"objdata": {
				"Zombies": [
					{
						"Type": "RTID(ra@ZombieTypes)"
					},
					{
						"Type": "RTID(ra@ZombieTypes)"
					},
					{
						"Type": "RTID(future_armor4@ZombieTypes)"
					},
					{
						"Type": "RTID(ra@ZombieTypes)"
					}
				]
			}
		},
		{
			"aliases": [
				"Wave3"
			],
			"objclass": "SpawnZombiesJitteredWaveActionProps",
			"objdata": {
				"Zombies": [
					{
						"Row": "1",
						"Type": "RTID(football_mech@ZombieTypes)"
					},
					{
						"Row": "5",
						"Type": "RTID(football_mech@ZombieTypes)"
					}
				]
			}
		},
		{
			"aliases": [
				"Wave4"
			],
			"objclass": "SpawnZombiesJitteredWaveActionProps",
			"objdata": {
				"Zombies": [
					{
						"Row": "5",
						"Type": "RTID(ra@ZombieTypes)"
					},
					{
						"Row": "1",
						"Type": "RTID(ra@ZombieTypes)"
					},
					{
						"Type": "RTID(ra@ZombieTypes)"
					},
					{
						"Type": "RTID(future_armor4@ZombieTypes)"
					},
					{
						"Type": "RTID(future_armor4@ZombieTypes)"
					}
				]
			}
		},
		{
			"aliases": [
				"Wave5"
			],
			"objclass": "SpawnZombiesJitteredWaveActionProps",
			"objdata": {
				"Zombies": [
					{
						"Type": "RTID(ra@ZombieTypes)"
					},
					{
						"Row": "2",
						"Type": "RTID(football_mech@ZombieTypes)"
					},
					{
						"Type": "RTID(ra@ZombieTypes)"
					}
				]
			}
		},
		{
			"aliases": [
				"Wave6"
			],
			"objclass": "SpawnZombiesJitteredWaveActionProps",
			"objdata": {
				"ForcedCondition": {},
				"Zombies": [
					{
						"Type": "RTID(future_armor4@ZombieTypes)"
					},
					{
						"Type": "RTID(future_armor4@ZombieTypes)"
					},
					{
						"Row": "2",
						"Type": "RTID(ra@ZombieTypes)"
					},
					{
						"Type": "RTID(future_armor4@ZombieTypes)"
					}
				]
			}
		},
		{
			"aliases": [
				"Wave7"
			],
			"objclass": "SpawnZombiesJitteredWaveActionProps",
			"objdata": {
				"ForcedCondition": {},
				"Zombies": [
					{
						"Row": "4",
						"Type": "RTID(football_mech@ZombieTypes)"
					},
					{
						"Type": "RTID(future_armor4@ZombieTypes)"
					}
				]
			}
		},
		{
			"aliases": [
				"Wave8"
			],
			"objclass": "SpawnZombiesJitteredWaveActionProps",
			"objdata": {
				"ForcedCondition": {},
				"Zombies": [
					{
						"Row": "1",
						"Type": "RTID(ra@ZombieTypes)"
					},
					{
						"Row": "4",
						"Type": "RTID(ra@ZombieTypes)"
					},
					{
						"Row": "5",
						"Type": "RTID(ra@ZombieTypes)"
					},
					{
						"Type": "RTID(future_armor4@ZombieTypes)"
					},
					{
						"Type": "RTID(future_armor4@ZombieTypes)"
					},
					{
						"Type": "RTID(future_armor4@ZombieTypes)"
					}
				]
			}
		},
		{
			"aliases": [
				"Wave9"
			],
			"objclass": "SpawnZombiesJitteredWaveActionProps",
			"objdata": {
				"ForcedCondition": {},
				"Zombies": [
					{
						"Row": "3",
						"Type": "RTID(football_mech@ZombieTypes)"
					},
					{
						"Row": "1",
						"Type": "RTID(ra@ZombieTypes)"
					},
					{
						"Row": "3",
						"Type": "RTID(ra@ZombieTypes)"
					},
					{
						"Row": "5",
						"Type": "RTID(ra@ZombieTypes)"
					},
					{
						"Type": "RTID(ra@ZombieTypes)"
					},
					{
						"Type": "RTID(ra@ZombieTypes)"
					}
				]
			}
		},
		{
			"aliases": [
				"Wave10"
			],
			"objclass": "SpawnZombiesJitteredWaveActionProps",
			"objdata": {
				"ForcedCondition": {},
				"Zombies": [
					{
						"Type": "RTID(football_mech@ZombieTypes)"
					},
					{
						"Type": "RTID(football_mech@ZombieTypes)"
					},
					{
						"Type": "RTID(future_armor4@ZombieTypes)"
					}
				]
			}
		},
		{
			"aliases": [
				"Wave2SunDropperEvent0"
			],
			"objclass": "SunDropperWaveActionProps",
			"objdata": {
				"SunAmountToDrop": 50
			}
		},
		{
			"aliases": [
				"Wave4SunDropperEvent0"
			],
			"objclass": "SunDropperWaveActionProps",
			"objdata": {
				"SunAmountToDrop": 50
			}
		},
		{
			"aliases": [
				"Wave6SunDropperEvent0"
			],
			"objclass": "SunDropperWaveActionProps",
			"objdata": {
				"SunAmountToDrop": 50
			}
		},
		{
			"aliases": [
				"Wave8SunDropperEvent0"
			],
			"objclass": "SunDropperWaveActionProps",
			"objdata": {
				"SunAmountToDrop": 50
			}
		},
		{
			"aliases": [
				"Wave10SunDropperEvent0"
			],
			"objclass": "SunDropperWaveActionProps",
			"objdata": {
				"SunAmountToDrop": 50
			}
		},
		{
			"aliases": [
				"Wave5SpiderRainEvent0"
			],
			"objclass": "SpiderRainZombieSpawnerProps",
			"objdata": {
				"ColumnEnd": "8",
				"ColumnStart": 3,
				"GroupSize": 1,
				"SpiderCount": "4",
				"SpiderZombieName": "future_imp",
				"TimeBeforeFullSpawn": "1",
				"TimeBetweenGroups": "0.2",
				"WaveStartMessage": "[WARNING_SPIDERRAIN]",
				"ZombieFallTime": "1.5"
			}
		},
		{
			"aliases": [
				"Wave7SpiderRainEvent0"
			],
			"objclass": "SpiderRainZombieSpawnerProps",
			"objdata": {
				"ColumnEnd": "8",
				"ColumnStart": 3,
				"GroupSize": 1,
				"SpiderCount": 5,
				"SpiderZombieName": "future_imp",
				"TimeBeforeFullSpawn": "1",
				"TimeBetweenGroups": "0.2",
				"WaveStartMessage": "[WARNING_SPIDERRAIN]",
				"ZombieFallTime": "1.5"
			}
		},
		{
			"aliases": [
				"Wave9SpiderRainEvent0"
			],
			"objclass": "SpiderRainZombieSpawnerProps",
			"objdata": {
				"ColumnEnd": "8",
				"ColumnStart": 3,
				"GroupSize": 1,
				"SpiderCount": 6,
				"SpiderZombieName": "future_imp",
				"TimeBeforeFullSpawn": "1",
				"TimeBetweenGroups": "0.2",
				"WaveStartMessage": "[WARNING_SPIDERRAIN]",
				"ZombieFallTime": "1.5"
			}
		},
		{
			"aliases": [
				"Wave2GravestoneEvent0"
			],
			"objclass": "SpawnGravestonesWaveActionProps",
			"objdata": {
				"GravestonePool": [
					{
						"Count": 0,
						"Type": "RTID(gravestone_dark@GridItemTypes)"
					},
					{
						"Count": 4,
						"Type": "RTID(gravestoneSunOnDestruction@GridItemTypes)"
					},
					{
						"Count": 1,
						"Type": "RTID(gravestonePlantfoodOnDestruction@GridItemTypes)"
					}
				],
				"SpawnEffectAnimID": "POPANIM_EFFECTS_TOMBSTONE_DARK_SPAWN_EFFECT",
				"SpawnPositionsPool": [
					{
						"mX": 5,
						"mY": 0
					},
					{
						"mX": 5,
						"mY": 1
					},
					{
						"mX": 5,
						"mY": 2
					},
					{
						"mX": 5,
						"mY": 3
					},
					{
						"mX": 5,
						"mY": 4
					}
				],
				"SpawnSoundID": "Play_Zomb_Egypt_TombRaiser_Grave_Rise"
			}
		},
		{
			"aliases": [
				"Wave4GravestoneEvent0"
			],
			"objclass": "SpawnGravestonesWaveActionProps",
			"objdata": {
				"GravestonePool": [
					{
						"Count": 0,
						"Type": "RTID(gravestone_dark@GridItemTypes)"
					},
					{
						"Count": 4,
						"Type": "RTID(gravestoneSunOnDestruction@GridItemTypes)"
					},
					{
						"Count": 1,
						"Type": "RTID(gravestonePlantfoodOnDestruction@GridItemTypes)"
					}
				],
				"SpawnEffectAnimID": "POPANIM_EFFECTS_TOMBSTONE_DARK_SPAWN_EFFECT",
				"SpawnPositionsPool": [
					{
						"mX": 5,
						"mY": 0
					},
					{
						"mX": 5,
						"mY": 1
					},
					{
						"mX": 5,
						"mY": 2
					},
					{
						"mX": 5,
						"mY": 3
					},
					{
						"mX": 5,
						"mY": 4
					}
				],
				"SpawnSoundID": "Play_Zomb_Egypt_TombRaiser_Grave_Rise"
			}
		},
		{
			"aliases": [
				"Wave5GravestoneEvent0"
			],
			"objclass": "SpawnGravestonesWaveActionProps",
			"objdata": {
				"GravestonePool": [
					{
						"Count": 5,
						"Type": "RTID(powertile_alpha@GridItemTypes)"
					}
				],
				"SpawnPositionsPool": [
					{
						"mX": 4,
						"mY": 0
					},
					{
						"mX": 4,
						"mY": 1
					},
					{
						"mX": 4,
						"mY": 2
					},
					{
						"mX": 4,
						"mY": 3
					},
					{
						"mX": 4,
						"mY": 4
					}
				],
				"SpawnEffectAnimID": "POPANIM_EFFECTS_TOMBSTONE_DARK_SPAWN_EFFECT",
				"SpawnSoundID": "Play_Zomb_Egypt_TombRaiser_Grave_Rise",
				"DisplacePlants": false,
				"RandomPlacement": false,
				"GridClassesToDestroy": [
					"GridItemPowerTile"
				]
			}
		},
		{
			"aliases": [
				"Wave6GravestoneEvent0"
			],
			"objclass": "SpawnGravestonesWaveActionProps",
			"objdata": {
				"GravestonePool": [
					{
						"Count": 0,
						"Type": "RTID(gravestone_dark@GridItemTypes)"
					},
					{
						"Count": 4,
						"Type": "RTID(gravestoneSunOnDestruction@GridItemTypes)"
					},
					{
						"Count": 1,
						"Type": "RTID(gravestonePlantfoodOnDestruction@GridItemTypes)"
					}
				],
				"SpawnEffectAnimID": "POPANIM_EFFECTS_TOMBSTONE_DARK_SPAWN_EFFECT",
				"SpawnPositionsPool": [
					{
						"mX": 5,
						"mY": 0
					},
					{
						"mX": 5,
						"mY": 1
					},
					{
						"mX": 5,
						"mY": 2
					},
					{
						"mX": 5,
						"mY": 3
					},
					{
						"mX": 5,
						"mY": 4
					}
				],
				"SpawnSoundID": "Play_Zomb_Egypt_TombRaiser_Grave_Rise"
			}
		},
		{
			"aliases": [
				"Wave8GravestoneEvent0"
			],
			"objclass": "SpawnGravestonesWaveActionProps",
			"objdata": {
				"GravestonePool": [
					{
						"Count": 0,
						"Type": "RTID(gravestone_dark@GridItemTypes)"
					},
					{
						"Count": 4,
						"Type": "RTID(gravestoneSunOnDestruction@GridItemTypes)"
					},
					{
						"Count": 1,
						"Type": "RTID(gravestonePlantfoodOnDestruction@GridItemTypes)"
					}
				],
				"SpawnEffectAnimID": "POPANIM_EFFECTS_TOMBSTONE_DARK_SPAWN_EFFECT",
				"SpawnPositionsPool": [
					{
						"mX": 5,
						"mY": 0
					},
					{
						"mX": 5,
						"mY": 1
					},
					{
						"mX": 5,
						"mY": 2
					},
					{
						"mX": 5,
						"mY": 3
					},
					{
						"mX": 5,
						"mY": 4
					}
				],
				"SpawnSoundID": "Play_Zomb_Egypt_TombRaiser_Grave_Rise"
			}
		},
		{
			"aliases": [
				"Wave8GravestoneEvent1"
			],
			"objclass": "SpawnGravestonesWaveActionProps",
			"objdata": {
				"GravestonePool": [
					{
						"Count": 5,
						"Type": "RTID(powertile_delta@GridItemTypes)"
					}
				],
				"SpawnPositionsPool": [
					{
						"mX": 3,
						"mY": 0
					},
					{
						"mX": 3,
						"mY": 4
					},
					{
						"mX": 2,
						"mY": 2
					},
					{
						"mX": 0,
						"mY": 1
					},
					{
						"mX": 0,
						"mY": 3
					}
				],
				"SpawnEffectAnimID": "POPANIM_EFFECTS_TOMBSTONE_DARK_SPAWN_EFFECT",
				"SpawnSoundID": "Play_Zomb_Egypt_TombRaiser_Grave_Rise",
				"DisplacePlants": false,
				"RandomPlacement": false,
				"GridClassesToDestroy": [
					"GridItemPowerTile"
				]
			}
		},
		{
			"aliases": [
				"Wave10GravestoneEvent0"
			],
			"objclass": "SpawnGravestonesWaveActionProps",
			"objdata": {
				"GravestonePool": [
					{
						"Count": 0,
						"Type": "RTID(gravestone_dark@GridItemTypes)"
					},
					{
						"Count": 4,
						"Type": "RTID(gravestoneSunOnDestruction@GridItemTypes)"
					},
					{
						"Count": 1,
						"Type": "RTID(gravestonePlantfoodOnDestruction@GridItemTypes)"
					}
				],
				"SpawnEffectAnimID": "POPANIM_EFFECTS_TOMBSTONE_DARK_SPAWN_EFFECT",
				"SpawnPositionsPool": [
					{
						"mX": 5,
						"mY": 0
					},
					{
						"mX": 5,
						"mY": 1
					},
					{
						"mX": 5,
						"mY": 2
					},
					{
						"mX": 5,
						"mY": 3
					},
					{
						"mX": 5,
						"mY": 4
					}
				],
				"SpawnSoundID": "Play_Zomb_Egypt_TombRaiser_Grave_Rise"
			}
		}
	],
	"version": 1
}