{
	"#comment": "LOD 012 v1",
	"objects": [
		{
			"objclass": "LevelDefinition",
			"objdata": {
				"Description": "[PLAYERS_TRIP_TO_RIFT]",
				"LevelMutator": "RTID(LevelMutator@CurrentLevel)",
				"LevelNumber": "",
				"DisablePlantBoosts": false,
				"Loot": "",
				"Modules": [
					"RTID(FutureMowers@LevelModules)",
					"RTID(NewWaves@CurrentLevel)",
					"RTID(LevelOfTheDayModule@CurrentLevel)",
					"RTID(DefaultZombieWinCondition@LevelModules)",
					"RTID(Gravestones@CurrentLevel)",
					"RTID(Rails@CurrentLevel)",
					"RTID(ConveyorBelt@CurrentLevel)",
					"RTID(ZombiesDeadWinCon@LevelModules)",
					"RTID(StandardRiftIntro@LevelModules)",
					"RTID(PerkActivator@CurrentLevel)",
					"RTID(LevelDifficultyScaling@CurrentLevel)"
				],
				"Name": "[RIFT_LEVEL_NAME]",
				"NormalPresentTable": "egypt_normal_01",
				"PerksDisabledInLevel": [
					"moarscore",
					"sunbreak",
					"sunbank",
					"applyconditionsuncarrier50",
					"bossbustercannon",
					"mineisyours_shinevine",
					"mineisyours_goldbloom",
					"gridisyours_goldtile"
				],
				"PerksDisabledPerDifficulty": [
					[],
					[],
					[]
				],
				"ShinyPresentTable": "egypt_shiny_01",
				"StageModule": "RTID(RiftStageZcorp@LevelModules)",
				"VictoryModule": "RTID(RiftOutro@LevelModules)"
			}
		},
		{
			"aliases": [
				"LevelOfTheDayModule"
			],
			"objclass": "LevelOfTheDayModuleProperties",
			"objdata": {
				"FlagCount": 4,
				"PlantfoodToSpawnCount": 2,
				"PointIncrementPerWave": 100,
				"StartingPoints": 0,
				"WaveManagerProps": "RTID(WaveManagerProps@CurrentLevel)",
				"WavesPerFlag": 3,
				"ZombiePool": [
					"RTID(zcorp@ZombieTypes)",
					"RTID(zcorp_armor2@ZombieTypes)",
					"RTID(zcorp_armor1@ZombieTypes)"
				]
			}
		},
		{
			"aliases": [
				"Gravestones"
			],
			"objclass": "GravestoneProperties",
			"objdata": {}
		},
		{
			"aliases": [
				"NewWaves"
			],
			"objclass": "WaveManagerModuleProperties",
			"objdata": {}
		},
		{
			"aliases": [
				"ConveyorBelt"
			],
			"objclass": "ConveyorSeedBankProperties",
			"objdata": {
				"DropDelayConditions": [
					{
						"Delay": 3,
						"MaxPackets": 0
					},
					{
						"Delay": 6,
						"MaxPackets": 2
					},
					{
						"Delay": 9,
						"MaxPackets": 4
					},
					{
						"Delay": 12,
						"MaxPackets": 8
					}
				],
				"InitialPlantList": [
					{
						"MaxCount": 1,
						"MaxWeightFactor": 0,
						"PlantType": "wintermelon",
						"Weight": 20
					},
					{
						"MaxCount": 1,
						"MaxWeightFactor": 0,
						"PlantType": "bonkchoy",
						"Weight": 20
					},
					{
						"MaxCount": 3,
						"MaxWeightFactor": 0,
						"PlantType": "garlic",
						"Weight": 20
					},
					{
						"MaxCount": 10,
						"MaxWeightFactor": 0.1,
						"MinCount": 5,
						"MinWeightFactor": 2,
						"PlantType": "pumpkin",
						"Weight": 10
					},
					{
						"MaxCount": 10,
						"MaxWeightFactor": 0,
						"PlantType": "xshot",
						"Weight": 20
					}
				],
				"SpeedConditions": [
					{
						"MaxPackets": 0,
						"Speed": 100
					}
				]
			}
		},
		{
			"aliases": [
				"Rails"
			],
			"objclass": "RailcartProperties",
			"objdata": {
				"RailcartType": "railcart_cowboy",
				"Railcarts": [
					{
						"Column": 1,
						"Row": 2
					},
					{
						"Column": 3,
						"Row": 2
					},
					{
						"Column": 5,
						"Row": 2
					},
					{
						"Column": 7,
						"Row": 2
					}
				],
				"Rails": [
					{
						"Column": 1,
						"RowEnd": 4,
						"RowStart": 0
					},
					{
						"Column": 3,
						"RowEnd": 4,
						"RowStart": 0
					},
					{
						"Column": 5,
						"RowEnd": 4,
						"RowStart": 0
					},
					{
						"Column": 7,
						"RowEnd": 4,
						"RowStart": 0
					}
				]
			}
		},
		{
			"aliases": [
				"PerkActivator"
			],
			"objclass": "PerkHandlerModuleProperties",
			"objdata": {}
		},
		{
			"aliases": [
				"LevelMutator"
			],
			"objclass": "LevelMutatorModuleProperties",
			"objdata": {
				"MutatorTables": [
					"RTID(MutatorPropsRiftConveyor@LevelMutatorTables)",
					"RTID(LocalChallengeMutator@CurrentLevel)",
					"RTID(LocalMainChallengeMutator@CurrentLevel)"
				]
			}
		},
		{
			"aliases": [
				"LocalMainChallengeMutator"
			],
			"objclass": "LevelMutatorTableProps",
			"objdata": {
				"Tables": [
					{
						"Level": 0,
						"ModuleType": "mainchallenge",
						"Modules": [
							"RTID(RiftBeatTheLevelChallenge@LevelModules)"
						]
					},
					{
						"Level": 1,
						"ModuleType": "mainchallenge",
						"Modules": [
							"RTID(RiftBeatTheLevelChallenge@LevelModules)"
						]
					},
					{
						"Level": 2,
						"ModuleType": "mainchallenge",
						"Modules": [
							"RTID(RiftBeatTheLevelChallenge@LevelModules)"
						]
					}
				]
			}
		},
		{
			"aliases": [
				"LocalChallengeMutator"
			],
			"objclass": "LevelMutatorTableProps",
			"objdata": {
				"Tables": [
					{
						"Level": 0,
						"ModuleType": "bonuschallenge",
						"Modules": [
							"RTID(ProtectThePlant1@CurrentLevel)"
						]
					},
					{
						"Level": 1,
						"ModuleType": "bonuschallenge",
						"Modules": [
							"RTID(ProtectThePlant2@CurrentLevel)",
							"RTID(PlantsLost2@CurrentLevel)"
						]
					},
					{
						"Level": 2,
						"ModuleType": "bonuschallenge",
						"Modules": [
							"RTID(ProtectThePlant3@CurrentLevel)",
							"RTID(PlantsLost3@CurrentLevel)"
						]
					}
				]
			}
		},
		{
			"aliases": [
				"ProtectThePlant1"
			],
			"objclass": "ProtectThePlantChallengeProperties",
			"objdata": {
				"MustProtectCount": 2,
				"Plants": [
					{
						"GridX": 2,
						"GridY": 1,
						"PlantType": "snapdragon"
					},
					{
						"GridX": 2,
						"GridY": 3,
						"PlantType": "snapdragon"
					}
				]
			}
		},
		{
			"aliases": [
				"ProtectThePlant2"
			],
			"objclass": "ProtectThePlantChallengeProperties",
			"objdata": {
				"MustProtectCount": 3,
				"Plants": [
					{
						"GridX": 2,
						"GridY": 1,
						"PlantType": "snapdragon"
					},
					{
						"GridX": 2,
						"GridY": 2,
						"PlantType": "magnetshroom"
					},
					{
						"GridX": 2,
						"GridY": 3,
						"PlantType": "snapdragon"
					}
				]
			}
		},
		{
			"aliases": [
				"ProtectThePlant3"
			],
			"objclass": "ProtectThePlantChallengeProperties",
			"objdata": {
				"MustProtectCount": 5,
				"Plants": [
					{
						"GridX": 2,
						"GridY": 0,
						"PlantType": "magnetshroom"
					},
					{
						"GridX": 2,
						"GridY": 1,
						"PlantType": "snapdragon"
					},
					{
						"GridX": 2,
						"GridY": 2,
						"PlantType": "magnetshroom"
					},
					{
						"GridX": 2,
						"GridY": 3,
						"PlantType": "snapdragon"
					},
					{
						"GridX": 2,
						"GridY": 4,
						"PlantType": "magnetshroom"
					}
				]
			}
		},
		{
			"aliases": [
				"PlantsLost2"
			],
			"objclass": "StarChallengePlantsLostProps",
			"objdata": {
				"MaximumPlantsLost": 6
			}
		},
		{
			"aliases": [
				"PlantsLost3"
			],
			"objclass": "StarChallengePlantsLostProps",
			"objdata": {
				"MaximumPlantsLost": 4
			}
		},
		{
			"aliases": [
				"LevelDifficultyScaling"
			],
			"objclass": "LevelDifficultyScalingModuleProperties",
			"objdata": {
				"DifficultyRulesType": "RiftDifficulty",
				"ZombieLevelSwaps": [
					{
						"Level": 0,
						"Swaps": [
							{
								"From": "RTID(zcorp@ZombieTypes)",
								"To": [
									"RTID(zcorp@ZombieTypes)",
									"RTID(zcorp_fem@ZombieTypes)"
								]
							},
							{
								"From": "RTID(zcorp_armor1@ZombieTypes)",
								"To": [
									"RTID(zcorp_armor1@ZombieTypes)",
									"RTID(zcorp_fem_armor1@ZombieTypes)",
									"RTID(zcorp@ZombieTypes)",
									"RTID(zcorp_fem@ZombieTypes)"
								]
							},
							{
								"From": "RTID(zcorp_armor2@ZombieTypes)",
								"To": [
									"RTID(zcorp_armor2@ZombieTypes)",
									"RTID(zcorp_fem_armor2@ZombieTypes)",
									"RTID(zcorp_armor1@ZombieTypes)",
									"RTID(zcorp_fem_armor1@ZombieTypes)"
								]
							}
						]
					},
					{
						"Level": 4,
						"Swaps": [
							{
								"From": "RTID(zcorp@ZombieTypes)",
								"To": [
									"RTID(zcorp@ZombieTypes)",
									"RTID(zcorp_fem@ZombieTypes)"
								]
							},
							{
								"From": "RTID(zcorp_armor1@ZombieTypes)",
								"To": [
									"RTID(zcorp_armor1@ZombieTypes)",
									"RTID(zcorp_fem_armor1@ZombieTypes)"
								]
							},
							{
								"From": "RTID(zcorp_armor2@ZombieTypes)",
								"To": [
									"RTID(zcorp_armor2@ZombieTypes)",
									"RTID(zcorp_fem_armor2@ZombieTypes)",
									"RTID(pharaoh@ZombieTypes)"
								]
							}
						]
					},
					{
						"Level": 7,
						"Swaps": [
							{
								"From": "RTID(zcorp@ZombieTypes)",
								"To": [
									"RTID(zcorp_armor1@ZombieTypes)",
									"RTID(zcorp_fem_armor1@ZombieTypes)",
									"RTID(zcorp@ZombieTypes)",
									"RTID(zcorp_fem@ZombieTypes)"
								]
							},
							{
								"From": "RTID(zcorp_armor1@ZombieTypes)",
								"To": [
									"RTID(zcorp_armor2@ZombieTypes)",
									"RTID(zcorp_fem_armor2@ZombieTypes)",
									"RTID(zcorp_armor1@ZombieTypes)",
									"RTID(zcorp_fem_armor1@ZombieTypes)"
								]
							},
							{
								"From": "RTID(zcorp_armor2@ZombieTypes)",
								"To": [
									"RTID(zcorp_armor2@ZombieTypes)",
									"RTID(zcorp_fem_armor2@ZombieTypes)",
									"RTID(beach_surfer@ZombieTypes)",
									"RTID(pharaoh@ZombieTypes)"
								]
							}
						]
					}
				]
			}
		},
		{
			"aliases": [
				"WaveManagerProps"
			],
			"objclass": "WaveManagerProperties",
			"objdata": {
				"MaxNextWaveHealthPercentage": 0.9,
				"MinNextWaveHealthPercentage": 0.8,
				"Waves": [
					[
						"RTID(Wave1@CurrentLevel)"
					],
					[
						"RTID(Wave2@CurrentLevel)"
					],
					[
						"RTID(Wave3@CurrentLevel)"
					],
					[
						"RTID(Wave4@CurrentLevel)"
					],
					[
						"RTID(Wave5@CurrentLevel)"
					],
					[
						"RTID(Wave6@CurrentLevel)"
					],
					[
						"RTID(Wave7@CurrentLevel)"
					],
					[
						"RTID(Wave8@CurrentLevel)"
					],
					[
						"RTID(Wave9@CurrentLevel)"
					],
					[
						"RTID(Wave10@CurrentLevel)"
					],
					[
						"RTID(Wave11@CurrentLevel)"
					],
					[
						"RTID(Wave12@CurrentLevel)"
					]
				]
			}
		},
		{
			"aliases": [
				"Wave1"
			],
			"objclass": "SpawnZombiesJitteredWaveActionProps",
			"objdata": {
				"Zombies": [
					{
						"Type": "RTID(zcorp_consultant@ZombieTypes)"
					}
				]
			}
		},
		{
			"aliases": [
				"Wave2"
			],
			"objclass": "SpawnZombiesJitteredWaveActionProps",
			"objdata": {
				"Zombies": [
					{
						"Row": "1",
						"Type": "RTID(zcorp@ZombieTypes)"
					},
					{
						"Row": "2",
						"Type": "RTID(zcorp@ZombieTypes)"
					},
					{
						"Row": "3",
						"Type": "RTID(zcorp@ZombieTypes)"
					}
				]
			}
		},
		{
			"aliases": [
				"Wave3"
			],
			"objclass": "SpawnZombiesJitteredWaveActionProps",
			"objdata": {
				"Zombies": [
					{
						"Type": "RTID(zcorp_consultant@ZombieTypes)"
					}
				]
			}
		},
		{
			"aliases": [
				"Wave4"
			],
			"objclass": "SpawnZombiesJitteredWaveActionProps",
			"objdata": {
				"Zombies": [
					{
						"Row": "3",
						"Type": "RTID(zcorp@ZombieTypes)"
					},
					{
						"Row": "4",
						"Type": "RTID(zcorp@ZombieTypes)"
					},
					{
						"Row": "5",
						"Type": "RTID(zcorp@ZombieTypes)"
					}
				]
			}
		},
		{
			"aliases": [
				"Wave5"
			],
			"objclass": "SpawnZombiesJitteredWaveActionProps",
			"objdata": {
				"Zombies": [
					{
						"Type": "RTID(zcorp_consultant@ZombieTypes)"
					}
				]
			}
		},
		{
			"aliases": [
				"Wave6"
			],
			"objclass": "SpawnZombiesJitteredWaveActionProps",
			"objdata": {
				"Zombies": [
					{
						"Type": "RTID(zcorp_consultant@ZombieTypes)"
					}
				]
			}
		},
		{
			"aliases": [
				"Wave7"
			],
			"objclass": "SpawnZombiesJitteredWaveActionProps",
			"objdata": {
				"Zombies": [
					{
						"Row": "1",
						"Type": "RTID(zcorp@ZombieTypes)"
					},
					{
						"Row": "3",
						"Type": "RTID(zcorp@ZombieTypes)"
					},
					{
						"Row": "5",
						"Type": "RTID(zcorp@ZombieTypes)"
					}
				]
			}
		},
		{
			"aliases": [
				"Wave8"
			],
			"objclass": "SpawnZombiesJitteredWaveActionProps",
			"objdata": {
				"Zombies": [
					{
						"Type": "RTID(zcorp_consultant@ZombieTypes)"
					}
				]
			}
		},
		{
			"aliases": [
				"Wave9"
			],
			"objclass": "SpawnZombiesJitteredWaveActionProps",
			"objdata": {
				"Zombies": [
					{
						"Row": "3",
						"Type": "RTID(zcorp@ZombieTypes)"
					},
					{
						"Row": "4",
						"Type": "RTID(zcorp@ZombieTypes)"
					},
					{
						"Row": "2",
						"Type": "RTID(zcorp@ZombieTypes)"
					},
					{
						"Row": "5",
						"Type": "RTID(zcorp@ZombieTypes)"
					},
					{
						"Row": "1",
						"Type": "RTID(zcorp@ZombieTypes)"
					}
				]
			}
		},
		{
			"aliases": [
				"Wave10"
			],
			"objclass": "SpawnZombiesJitteredWaveActionProps",
			"objdata": {
				"Zombies": [
					{
						"Type": "RTID(zcorp_consultant@ZombieTypes)"
					}
				]
			}
		},
		{
			"aliases": [
				"Wave11"
			],
			"objclass": "SpawnZombiesJitteredWaveActionProps",
			"objdata": {
				"Zombies": [
					{
						"Row": "3",
						"Type": "RTID(zcorp@ZombieTypes)"
					},
					{
						"Row": "2",
						"Type": "RTID(zcorp@ZombieTypes)"
					},
					{
						"Row": "4",
						"Type": "RTID(zcorp@ZombieTypes)"
					},
					{
						"Row": "1",
						"Type": "RTID(zcorp@ZombieTypes)"
					},
					{
						"Row": "5",
						"Type": "RTID(zcorp@ZombieTypes)"
					},
					{
						"Row": "3",
						"Type": "RTID(zcorp@ZombieTypes)"
					},
					{
						"Row": "4",
						"Type": "RTID(zcorp@ZombieTypes)"
					},
					{
						"Row": "2",
						"Type": "RTID(zcorp@ZombieTypes)"
					},
					{
						"Row": "5",
						"Type": "RTID(zcorp@ZombieTypes)"
					},
					{
						"Row": "1",
						"Type": "RTID(zcorp@ZombieTypes)"
					}
				]
			}
		},
		{
			"aliases": [
				"Wave12"
			],
			"objclass": "SpawnZombiesJitteredWaveActionProps",
			"objdata": {
				"Zombies": [
					{
						"Type": "RTID(zcorp_consultant@ZombieTypes)"
					},
					{
						"Type": "RTID(zcorp_gargantuar@ZombieTypes)"
					}
				]
			}
		}
	],
	"version": 1
}