{
	"#comment": "Vasebreaker test in Rift",
	"objects": [
		{
			"objclass": "LevelDefinition",
			"objdata": {
				"Description": "[PLAYERS_TRIP_TO_RIFT]",
				"IsVasebreaker": true,
				"LevelMutator": "RTID(LevelMutator@CurrentLevel)",
				"LevelNumber": "",
				"Loot": "",
				"LevelPowerupSet": "",
				"Modules": [
					"RTID(ZombiesDeadWinCon@LevelModules)",
					"RTID(DefaultZombieWinCondition@LevelModules)",
					"RTID(PerkActivator@CurrentLevel)",
					"RTID(VaseBreakerProps@.)"
				],
				"MusicType": "MiniGame_B",
				"Name": "[RIFT_LEVEL_NAME]",
				"NormalPresentTable": "egypt_normal_01",
				"ShinyPresentTable": "egypt_shiny_01",
				"StageModule": "RTID(RiftStage@LevelModules)",
				"VictoryModule": "RTID(RiftOutro@LevelModules)",
				"PerksDisabledInLevel": [
					"sunbreak",
					"moarscore",
					"bossbustercannon",
					"sunbank",
					"trafficjam",
					"quickdelivery",
					"applyconditionsuncarrier50",
					"zombieinhibitorballista",
					"zombieinhibitorgargantuar",
					"utilitybelt_cherrybomb",
					"mineisyours_shinevine",
					"mineisyours_goldbloom"
				],
				"PerksDisabledPerDifficulty": [
					[],
					[],
					[]
				]
			}
		},
		{
			"aliases": [
				"PerkActivator"
			],
			"objclass": "PerkHandlerModuleProperties",
			"objdata": {}
		},
		{
			"aliases": [
				"LevelMutator"
			],
			"objclass": "LevelMutatorModuleProperties",
			"objdata": {
				"MutatorTables": [
					"RTID(MutatorPropsVasebreaker@LevelMutatorTables)",
					"RTID(LocalChallengeMutator@CurrentLevel)",
					"RTID(LocalMainChallengeMutator@CurrentLevel)"
				]
			}
		},
		{
			"aliases": [
				"LocalMainChallengeMutator"
			],
			"objclass": "LevelMutatorTableProps",
			"objdata": {
				"Tables": [
					{
						"Level": 0,
						"Modules": [
							"RTID(BeatTheLevel@CurrentLevel)"
						],
						"ModuleType": "mainchallenge"
					},
					{
						"Level": 1,
						"Modules": [
							"RTID(BeatTheLevel@CurrentLevel)"
						],
						"ModuleType": "mainchallenge"
					},
					{
						"Level": 2,
						"Modules": [
							"RTID(BeatTheLevel@CurrentLevel)"
						],
						"ModuleType": "mainchallenge"
					}
				]
			}
		},
		{
			"aliases": [
				"LevelDifficultyScaling"
			],
			"objclass": "LevelDifficultyScalingModuleProperties",
			"objdata": {
				"DifficultyRulesType": "RiftDifficulty",
				"ZombieLevelSwaps": [
					{
						"Level": 0,
						"Swaps": []
					},
					{
						"Level": 3,
						"Swaps": []
					},
					{
						"Level": 6,
						"Swaps": []
					}
				]
			}
		},
		{
			"aliases": [
				"BeatTheLevel"
			],
			"objclass": "StarChallengeBeatTheLevelProps",
			"objdata": {
				"Description": "[STARCHALLENGE_RIFT_VASEBREAKER]",
				"DescriptiveName": "[STARCHALLENGE_RIFT_VASEBREAKER_NAME]"
			}
		},
		{
			"aliases": [
				"LocalChallengeMutator"
			],
			"objclass": "LevelMutatorTableProps",
			"objdata": {
				"Tables": [
					{
						"Level": 0,
						"ModuleType": "bonuschallenge",
						"Modules": [
							"RTID(ProtectThePlant1@CurrentLevel)"
						]
					},
					{
						"Level": 1,
						"ModuleType": "bonuschallenge",
						"Modules": [
							"RTID(ProtectThePlant2@CurrentLevel)",
							"RTID(PlantsLost2@CurrentLevel)"
						]
					},
					{
						"Level": 2,
						"ModuleType": "bonuschallenge",
						"Modules": [
							"RTID(ProtectThePlant3@CurrentLevel)",
							"RTID(PlantsLost3@CurrentLevel)"
						]
					}
				]
			}
		},
		{
			"aliases": [
				"PlantsLost2"
			],
			"objclass": "StarChallengePlantsLostProps",
			"objdata": {
				"MaximumPlantsLost": 5
			}
		},
		{
			"aliases": [
				"PlantsLost3"
			],
			"objclass": "StarChallengePlantsLostProps",
			"objdata": {
				"MaximumPlantsLost": 3
			}
		},
		{
			"aliases": [
				"ProtectThePlant1"
			],
			"objclass": "ProtectThePlantChallengeProperties",
			"objdata": {
				"MustProtectCount": 2,
				"Plants": [
					{
						"GridX": 0,
						"GridY": 1,
						"PlantType": "potatomine"
					},
					{
						"GridX": 0,
						"GridY": 3,
						"PlantType": "potatomine"
					}
				]
			}
		},
		{
			"aliases": [
				"ProtectThePlant2"
			],
			"objclass": "ProtectThePlantChallengeProperties",
			"objdata": {
				"MustProtectCount": 3,
				"Plants": [
					{
						"GridX": 0,
						"GridY": 0,
						"PlantType": "potatomine"
					},
					{
						"GridX": 0,
						"GridY": 2,
						"PlantType": "potatomine"
					},
					{
						"GridX": 0,
						"GridY": 4,
						"PlantType": "potatomine"
					}
				]
			}
		},
		{
			"aliases": [
				"ProtectThePlant3"
			],
			"objclass": "ProtectThePlantChallengeProperties",
			"objdata": {
				"MustProtectCount": 5,
				"Plants": [
					{
						"GridX": 0,
						"GridY": 0,
						"PlantType": "potatomine"
					},
					{
						"GridX": 0,
						"GridY": 1,
						"PlantType": "potatomine"
					},
					{
						"GridX": 0,
						"GridY": 2,
						"PlantType": "potatomine"
					},
					{
						"GridX": 0,
						"GridY": 3,
						"PlantType": "potatomine"
					},
					{
						"GridX": 0,
						"GridY": 4,
						"PlantType": "potatomine"
					}
				]
			}
		},
		{
			"objclass": "VaseBreakerPresetProperties",
			"aliases": [
				"VaseBreakerProps"
			],
			"objdata": {
				"MinColumnIndex": 3,
				"MaxColumnIndex": 8,
				"GridSquareExcludelist": [],
				"Vases": [
					{
						"ZombieTypeName": "zcorp",
						"Count": 4
					},
					{
						"ZombieTypeName": "zcorp_fem",
						"Count": 6
					},
					{
						"ZombieTypeName": "zcorp_armor1",
						"Count": 1
					},
					{
						"ZombieTypeName": "zcorp_fem_armor2",
						"Count": 1
					},
					{
						"PlantTypeName": "redstinger",
						"Count": 5
					},
					{
						"PlantTypeName": "ghostpepper",
						"Count": 2
					},
					{
						"PlantTypeName": "splitpea",
						"Count": 5
					},
					{
						"PlantTypeName": "endurian",
						"Count": 3
					},
					{
						"CollectableTypeName": "plantfood",
						"Count": 3
					}
				],
				"NumColoredPlantVases": 7,
				"NumColoredZombieVases": 3
			}
		}
	],
	"version": 1
}