{
	"#comment": "LOD 155 - Toadstool",
	"objects": [
		{
			"objclass": "LevelDefinition",
			"objdata": {
				"Description": "[PREMIUM_PLANT_QUEST_LOD_DESC]",
				"DraperPromo": "shinevine",
				"ForceToWorldMap": true,
				"Loot": "RTID(DefaultLoot@LevelModules)",
				"Modules": [
					"RTID(StandardIntro@LevelModules)",
					"RTID(LevelEscalationModule@CurrentLevel)",
					"RTID(FrontLawnMowers@LevelModules)",
					"RTID(DefaultSunDropper@LevelModules)",
					"RTID(NewWaves@CurrentLevel)",
					"RTID(SeedBank@CurrentLevel)",
					"RTID(DefaultZombieWinCondition@LevelModules)",
					"RTID(Gravestones@CurrentLevel)",
					"RTID(ZombiesDeadWinCon@LevelModules)",
					"RTID(BoostTiles@CurrentLevel)"
				],
				"Name": "[PREMIUM_PLANT_QUEST_LOD_NAME]",
				"NormalPresentTable": "egypt_normal_01",
				"RepeatPlayForceToWorldMap": true,
				"ShinyPresentTable": "egypt_shiny_01",
				"StageModule": "RTID(FrontLawnStage@LevelModules)"
			}
		},
		{
			"aliases": [
				"SeedBank"
			],
			"objclass": "SeedBankProperties",
			"objdata": {
				"OverrideSeedSlotsCount": 6,
				"PlantExcludeList": [],
				"PresetPlantList": [
					{
						"Level": -1,
						"PlantType": "shinevine"
					},
					{
						"Level": -1,
						"PlantType": "enlightenmint"
					}
				],
				"SelectionMethod": "chooser"
			}
		},
		{
			"aliases": [
				"BoostTiles"
			],
			"objclass": "InitialGridItemProperties",
			"objdata": {
				"InitialGridItemPlacements": [
					{
						"GridX": 0,
						"GridY": 0,
						"TypeName": "boosttile5"
					},
					{
						"GridX": 1,
						"GridY": 1,
						"TypeName": "boosttile5"
					},
					{
						"GridX": 2,
						"GridY": 2,
						"TypeName": "boosttile5"
					},
					{
						"GridX": 3,
						"GridY": 3,
						"TypeName": "boosttile5"
					},
					{
						"GridX": 4,
						"GridY": 4,
						"TypeName": "boosttile5"
					}
				]
			}
		},
		{
			"aliases": [
				"Gravestones"
			],
			"objclass": "GravestoneProperties",
			"objdata": {
				"ForceSpawnData": [
					{
						"GridX": 3,
						"GridY": 0
					},
					{
						"GridX": 4,
						"GridY": 0
					},
					{
						"GridX": 5,
						"GridY": 0
					},
					{
						"GridX": 6,
						"GridY": 0
					},
					{
						"GridX": 7,
						"GridY": 0
					},
					{
						"GridX": 8,
						"GridY": 0
					},
					{
						"GridX": 7,
						"GridY": 1
					},
					{
						"GridX": 8,
						"GridY": 1
					},
					{
						"GridX": 4,
						"GridY": 1
					},
					{
						"GridX": 5,
						"GridY": 1
					},
					{
						"GridX": 6,
						"GridY": 1
					},
					{
						"GridX": 7,
						"GridY": 2
					},
					{
						"GridX": 8,
						"GridY": 2
					},
					{
						"GridX": 5,
						"GridY": 2
					},
					{
						"GridX": 6,
						"GridY": 2
					},
					{
						"GridX": 7,
						"GridY": 3
					},
					{
						"GridX": 8,
						"GridY": 3
					},
					{
						"GridX": 6,
						"GridY": 3
					},
					{
						"GridX": 7,
						"GridY": 4
					},
					{
						"GridX": 8,
						"GridY": 4
					}
				]
			}
		},
		{
			"aliases": [
				"LevelEscalationModule"
			],
			"objclass": "LevelEscalationModuleProperties",
			"objdata": {
				"FlagCount": 1,
				"PlantfoodToSpawnCount": 0,
				"PointIncrementPerWave": 100,
				"StartingPoints": 0,
				"WaveManagerProps": "RTID(WaveManagerProps@CurrentLevel)",
				"WavesPerFlag": 15,
				"ZombiePool": [
					"RTID(lostcity_crystalskull@ZombieTypes)",
					"RTID(eighties@ZombieTypes)",
					"RTID(eighties_armor1@ZombieTypes)",
					"RTID(eighties_armor2@ZombieTypes)"
				]
			}
		},
		{
			"aliases": [
				"WaveManagerProps"
			],
			"objclass": "WaveManagerProperties",
			"objdata": {
				"FlagWaveInterval": 15,
				"LevelJam": "rap",
				"MaxNextWaveHealthPercentage": 0.9,
				"MinNextWaveHealthPercentage": 0.8,
				"WaveCount": 15,
				"WaveSpendingPointIncrement": 100,
				"WaveSpendingPoints": 800,
				"Waves": [
					[
						"RTID(Wave1@CurrentLevel)"
					],
					[
						"RTID(Wave2@CurrentLevel)"
					],
					[
						"RTID(Wave3@CurrentLevel)"
					],
					[
						"RTID(Wave4@CurrentLevel)"
					],
					[
						"RTID(Wave5@CurrentLevel)",
						"RTID(Wave5GravestoneEvent0@CurrentLevel)"
					],
					[
						"RTID(Wave6@CurrentLevel)"
					],
					[
						"RTID(Wave7@CurrentLevel)"
					],
					[
						"RTID(Wave8@CurrentLevel)"
					],
					[
						"RTID(Wave9@CurrentLevel)"
					],
					[
						"RTID(Wave10@CurrentLevel)",
						"RTID(Wave10GravestoneEvent0@CurrentLevel)"
					],
					[
						"RTID(Wave11@CurrentLevel)"
					],
					[
						"RTID(Wave12@CurrentLevel)"
					],
					[
						"RTID(Wave13@CurrentLevel)"
					],
					[
						"RTID(Wave14@CurrentLevel)"
					],
					[
						"RTID(Wave15@CurrentLevel)"
					]
				]
			}
		},
		{
			"aliases": [
				"Wave1"
			],
			"objclass": "SpawnZombiesJitteredWaveActionProps",
			"objdata": {
				"NotificationEvents": [
					"jam_rap"
				],
				"Zombies": [
					{
						"Row": "4",
						"Type": "RTID(eighties@ZombieTypes)"
					},
					{
						"Row": "3",
						"Type": "RTID(lostcity_crystalskull@ZombieTypes)"
					},
					{
						"Row": "2",
						"Type": "RTID(eighties@ZombieTypes)"
					},
					{
						"Row": "3",
						"Type": "RTID(eighties@ZombieTypes)"
					}
				]
			}
		},
		{
			"aliases": [
				"Wave2"
			],
			"objclass": "SpawnZombiesJitteredWaveActionProps",
			"objdata": {
				"Zombies": [
					{
						"Row": "4",
						"Type": "RTID(eighties_armor1@ZombieTypes)"
					},
					{
						"Row": "2",
						"Type": "RTID(eighties@ZombieTypes)"
					},
					{
						"Row": "2",
						"Type": "RTID(eighties_breakdancer@ZombieTypes)"
					},
					{
						"Row": "3",
						"Type": "RTID(eighties@ZombieTypes)"
					},
					{
						"Row": "3",
						"Type": "RTID(eighties_breakdancer@ZombieTypes)"
					}
				]
			}
		},
		{
			"aliases": [
				"Wave3"
			],
			"objclass": "SpawnZombiesJitteredWaveActionProps",
			"objdata": {
				"Zombies": [
					{
						"Row": "1",
						"Type": "RTID(beach_surfer@ZombieTypes)"
					},
					{
						"Row": "5",
						"Type": "RTID(eighties_armor1@ZombieTypes)"
					},
					{
						"Row": "2",
						"Type": "RTID(eighties@ZombieTypes)"
					},
					{
						"Row": "2",
						"Type": "RTID(eighties_breakdancer@ZombieTypes)"
					}
				]
			}
		},
		{
			"aliases": [
				"Wave4"
			],
			"objclass": "SpawnZombiesJitteredWaveActionProps",
			"objdata": {
				"AdditionalPlantfood": 1,
				"Zombies": [
					{
						"Row": "1",
						"Type": "RTID(iceage_hunter@ZombieTypes)"
					},
					{
						"Row": "5",
						"Type": "RTID(iceage_hunter@ZombieTypes)"
					},
					{
						"Row": "2",
						"Type": "RTID(iceage_hunter@ZombieTypes)"
					}
				]
			}
		},
		{
			"aliases": [
				"Wave5"
			],
			"objclass": "SpawnZombiesJitteredWaveActionProps",
			"objdata": {
				"Zombies": [
					{
						"Row": "3",
						"Type": "RTID(cannon@ZombieTypes)"
					},
					{
						"Row": "2",
						"Type": "RTID(cannon@ZombieTypes)"
					},
					{
						"Row": "1",
						"Type": "RTID(cannon@ZombieTypes)"
					}
				]
			}
		},
		{
			"aliases": [
				"Wave6"
			],
			"objclass": "SpawnZombiesJitteredWaveActionProps",
			"objdata": {
				"Zombies": [
					{
						"Row": "4",
						"Type": "RTID(beach_surfer@ZombieTypes)"
					},
					{
						"Row": "3",
						"Type": "RTID(iceage_hunter@ZombieTypes)"
					},
					{
						"Row": "4",
						"Type": "RTID(eighties_breakdancer@ZombieTypes)"
					}
				]
			}
		},
		{
			"aliases": [
				"Wave7"
			],
			"objclass": "SpawnZombiesJitteredWaveActionProps",
			"objdata": {
				"AdditionalPlantfood": 1,
				"Zombies": [
					{
						"Row": "4",
						"Type": "RTID(eighties_breakdancer@ZombieTypes)"
					},
					{
						"Row": "5",
						"Type": "RTID(modern_allstar@ZombieTypes)"
					},
					{
						"Row": "2",
						"Type": "RTID(eighties_breakdancer@ZombieTypes)"
					},
					{
						"Row": "1",
						"Type": "RTID(eighties_breakdancer@ZombieTypes)"
					}
				]
			}
		},
		{
			"aliases": [
				"Wave8"
			],
			"objclass": "SpawnZombiesJitteredWaveActionProps",
			"objdata": {
				"Zombies": [
					{
						"Row": "3",
						"Type": "RTID(future_gargantuar@ZombieTypes)"
					}
				]
			}
		},
		{
			"aliases": [
				"Wave9"
			],
			"objclass": "SpawnZombiesJitteredWaveActionProps",
			"objdata": {
				"Zombies": [
					{
						"Row": "3",
						"Type": "RTID(future_protector@ZombieTypes)"
					},
					{
						"Row": "4",
						"Type": "RTID(future_protector@ZombieTypes)"
					},
					{
						"Row": "2",
						"Type": "RTID(future_protector@ZombieTypes)"
					},
					{
						"Row": "1",
						"Type": "RTID(future_protector@ZombieTypes)"
					}
				]
			}
		},
		{
			"aliases": [
				"Wave10"
			],
			"objclass": "SpawnZombiesJitteredWaveActionProps",
			"objdata": {
				"Zombies": [
					{
						"Row": "3",
						"Type": "RTID(cannon@ZombieTypes)"
					},
					{
						"Row": "2",
						"Type": "RTID(cannon@ZombieTypes)"
					},
					{
						"Row": "1",
						"Type": "RTID(cannon@ZombieTypes)"
					}
				]
			}
		},
		{
			"aliases": [
				"Wave11"
			],
			"objclass": "SpawnZombiesJitteredWaveActionProps",
			"objdata": {
				"Zombies": [
					{
						"Row": "1",
						"Type": "RTID(future_protector@ZombieTypes)"
					},
					{
						"Row": "5",
						"Type": "RTID(beach_surfer@ZombieTypes)"
					},
					{
						"Row": "4",
						"Type": "RTID(beach_surfer@ZombieTypes)"
					},
					{
						"Row": "2",
						"Type": "RTID(iceage_hunter@ZombieTypes)"
					}
				]
			}
		},
		{
			"aliases": [
				"Wave12"
			],
			"objclass": "SpawnZombiesJitteredWaveActionProps",
			"objdata": {
				"Zombies": [
					{
						"Type": "RTID(future_gargantuar@ZombieTypes)"
					},
					{
						"Type": "RTID(eighties_breakdancer@ZombieTypes)"
					}
				]
			}
		},
		{
			"aliases": [
				"Wave13"
			],
			"objclass": "SpawnZombiesJitteredWaveActionProps",
			"objdata": {
				"Zombies": [
					{
						"Row": "1",
						"Type": "RTID(beach_surfer@ZombieTypes)"
					},
					{
						"Row": "4",
						"Type": "RTID(future_protector@ZombieTypes)"
					},
					{
						"Row": "2",
						"Type": "RTID(future_protector@ZombieTypes)"
					},
					{
						"Row": "3",
						"Type": "RTID(modern_allstar@ZombieTypes)"
					}
				]
			}
		},
		{
			"aliases": [
				"Wave14"
			],
			"objclass": "SpawnZombiesJitteredWaveActionProps",
			"objdata": {
				"Zombies": [
					{
						"Row": "3",
						"Type": "RTID(future_protector@ZombieTypes)"
					},
					{
						"Type": "RTID(future_gargantuar@ZombieTypes)"
					},
					{
						"Row": "3",
						"Type": "RTID(iceage_hunter@ZombieTypes)"
					}
				]
			}
		},
		{
			"aliases": [
				"Wave15"
			],
			"objclass": "SpawnZombiesJitteredWaveActionProps",
			"objdata": {
				"NotificationEvents": [
					"jam_rap"
				],
				"Zombies": [
					{
						"Row": "5",
						"Type": "RTID(beach_surfer@ZombieTypes)"
					},
					{
						"Row": "4",
						"Type": "RTID(beach_surfer@ZombieTypes)"
					},
					{
						"Row": "3",
						"Type": "RTID(beach_surfer@ZombieTypes)"
					},
					{
						"Row": "2",
						"Type": "RTID(beach_surfer@ZombieTypes)"
					},
					{
						"Row": "5",
						"Type": "RTID(eighties_breakdancer@ZombieTypes)"
					},
					{
						"Row": "4",
						"Type": "RTID(eighties_breakdancer@ZombieTypes)"
					},
					{
						"Row": "3",
						"Type": "RTID(eighties_breakdancer@ZombieTypes)"
					},
					{
						"Row": "1",
						"Type": "RTID(modern_allstar@ZombieTypes)"
					},
					{
						"Type": "RTID(future_gargantuar@ZombieTypes)"
					},
					{
						"Row": "1",
						"Type": "RTID(iceage_hunter@ZombieTypes)"
					}
				]
			}
		},
		{
			"aliases": [
				"NewWaves"
			],
			"objclass": "WaveManagerModuleProperties",
			"objdata": {}
		},
		{
			"aliases": [
				"Wave5GravestoneEvent0"
			],
			"objclass": "SpawnGravestonesWaveActionProps",
			"objdata": {
				"GravestonePool": [
					{
						"Count": 20,
						"Type": "RTID(gravestone_dark@GridItemTypes)"
					},
					{
						"Count": 0,
						"Type": "RTID(gravestoneSunOnDestruction@GridItemTypes)"
					},
					{
						"Count": 0,
						"Type": "RTID(gravestonePlantfoodOnDestruction@GridItemTypes)"
					}
				],
				"SpawnEffectAnimID": "POPANIM_EFFECTS_TOMBSTONE_DARK_SPAWN_EFFECT",
				"SpawnPositionsPool": [
					{
						"mX": 3,
						"mY": 0
					},
					{
						"mX": 4,
						"mY": 0
					},
					{
						"mX": 5,
						"mY": 0
					},
					{
						"mX": 6,
						"mY": 0
					},
					{
						"mX": 7,
						"mY": 0
					},
					{
						"mX": 8,
						"mY": 0
					},
					{
						"mX": 7,
						"mY": 1
					},
					{
						"mX": 8,
						"mY": 1
					},
					{
						"mX": 4,
						"mY": 1
					},
					{
						"mX": 5,
						"mY": 1
					},
					{
						"mX": 6,
						"mY": 1
					},
					{
						"mX": 7,
						"mY": 2
					},
					{
						"mX": 8,
						"mY": 2
					},
					{
						"mX": 5,
						"mY": 2
					},
					{
						"mX": 6,
						"mY": 2
					},
					{
						"mX": 7,
						"mY": 3
					},
					{
						"mX": 8,
						"mY": 3
					},
					{
						"mX": 6,
						"mY": 3
					},
					{
						"mX": 7,
						"mY": 4
					},
					{
						"mX": 8,
						"mY": 4
					}
				],
				"SpawnSoundID": "Play_Zomb_Egypt_TombRaiser_Grave_Rise"
			}
		},
		{
			"aliases": [
				"Wave10GravestoneEvent0"
			],
			"objclass": "SpawnGravestonesWaveActionProps",
			"objdata": {
				"GravestonePool": [
					{
						"Count": 20,
						"Type": "RTID(gravestone_dark@GridItemTypes)"
					},
					{
						"Count": 0,
						"Type": "RTID(gravestoneSunOnDestruction@GridItemTypes)"
					},
					{
						"Count": 0,
						"Type": "RTID(gravestonePlantfoodOnDestruction@GridItemTypes)"
					}
				],
				"SpawnEffectAnimID": "POPANIM_EFFECTS_TOMBSTONE_DARK_SPAWN_EFFECT",
				"SpawnPositionsPool": [
					{
						"mX": 3,
						"mY": 0
					},
					{
						"mX": 4,
						"mY": 0
					},
					{
						"mX": 5,
						"mY": 0
					},
					{
						"mX": 6,
						"mY": 0
					},
					{
						"mX": 7,
						"mY": 0
					},
					{
						"mX": 8,
						"mY": 0
					},
					{
						"mX": 7,
						"mY": 1
					},
					{
						"mX": 8,
						"mY": 1
					},
					{
						"mX": 4,
						"mY": 1
					},
					{
						"mX": 5,
						"mY": 1
					},
					{
						"mX": 6,
						"mY": 1
					},
					{
						"mX": 7,
						"mY": 2
					},
					{
						"mX": 8,
						"mY": 2
					},
					{
						"mX": 5,
						"mY": 2
					},
					{
						"mX": 6,
						"mY": 2
					},
					{
						"mX": 7,
						"mY": 3
					},
					{
						"mX": 8,
						"mY": 3
					},
					{
						"mX": 6,
						"mY": 3
					},
					{
						"mX": 7,
						"mY": 4
					},
					{
						"mX": 8,
						"mY": 4
					}
				],
				"SpawnSoundID": "Play_Zomb_Egypt_TombRaiser_Grave_Rise"
			}
		}
	],
	"version": 1
}