{
	"#comment": "LOD 187 - Cold Snapdragon",
	"objects": [
		{
			"objclass": "LevelDefinition",
			"objdata": {
				"Description": "[PREMIUM_PLANT_QUEST_LOD_DESC]",
				"DraperPromo": "coldsnap",
				"ForceToWorldMap": true,
				"Loot": "RTID(DefaultLoot@LevelModules)",
				"Modules": [
					"RTID(StandardIntro@LevelModules)",
					"RTID(LevelEscalationModule@CurrentLevel)",
					"RTID(WestMowers@LevelModules)",
					"RTID(NewWaves@CurrentLevel)",
					"RTID(DefaultZombieWinCondition@LevelModules)",
					"RTID(ConveyorBelt@CurrentLevel)",
					"RTID(ZombiesDeadWinCon@LevelModules)",
					"RTID(Rails@CurrentLevel)"
				],
				"Name": "[PREMIUM_PLANT_QUEST_LOD_NAME]",
				"NormalPresentTable": "egypt_normal_01",
				"RepeatPlayForceToWorldMap": true,
				"ShinyPresentTable": "egypt_shiny_01",
				"StageModule": "RTID(WestStage@LevelModules)"
			}
		},
		{
			"aliases": [
				"LevelEscalationModule"
			],
			"objclass": "LevelEscalationModuleProperties",
			"objdata": {
				"FlagCount": 3,
				"PlantfoodToSpawnCount": 2,
				"PointIncrementPerWave": 40,
				"StartingPoints": 200,
				"WaveManagerProps": "RTID(WaveManagerProps@CurrentLevel)",
				"WavesPerFlag": 4,
				"ZombiePool": [
					"RTID(dark@ZombieTypes)",
					"RTID(dark_armor1@ZombieTypes)",
					"RTID(dark_armor2@ZombieTypes)",
					"RTID(dark_armor3@ZombieTypes)"
				]
			}
		},
		{
			"aliases": [
				"Rails"
			],
			"objclass": "RailcartProperties",
			"objdata": {
				"RailcartType": "railcart_cowboy",
				"Railcarts": [
					{
						"Column": 0,
						"Row": 2
					}
				],
				"Rails": [
					{
						"Column": 0,
						"RowEnd": 4,
						"RowStart": 0
					}
				]
			}
		},
		{
			"aliases": [
				"Gravestones"
			],
			"objclass": "GravestoneProperties",
			"objdata": {
				"ForceSpawnData": [
					{
						"GridX": 7,
						"GridY": 0
					},
					{
						"GridX": 8,
						"GridY": 0
					},
					{
						"GridX": 6,
						"GridY": 0
					},
					{
						"GridX": 7,
						"GridY": 1
					},
					{
						"GridX": 8,
						"GridY": 1
					},
					{
						"GridX": 6,
						"GridY": 1
					},
					{
						"GridX": 7,
						"GridY": 2
					},
					{
						"GridX": 8,
						"GridY": 2
					},
					{
						"GridX": 6,
						"GridY": 2
					},
					{
						"GridX": 7,
						"GridY": 3
					},
					{
						"GridX": 8,
						"GridY": 3
					},
					{
						"GridX": 6,
						"GridY": 3
					},
					{
						"GridX": 7,
						"GridY": 4
					},
					{
						"GridX": 8,
						"GridY": 4
					},
					{
						"GridX": 6,
						"GridY": 4
					}
				]
			}
		},
		{
			"aliases": [
				"NewWaves"
			],
			"objclass": "WaveManagerModuleProperties",
			"objdata": {}
		},
		{
			"aliases": [
				"ConveyorBelt"
			],
			"objclass": "ConveyorSeedBankProperties",
			"objdata": {
				"DropDelayConditions": [
					{
						"Delay": 4,
						"MaxPackets": 0
					},
					{
						"Delay": 6,
						"MaxPackets": 2
					},
					{
						"Delay": 9,
						"MaxPackets": 4
					},
					{
						"Delay": 12,
						"MaxPackets": 8
					}
				],
				"InitialPlantList": [
					{
						"Level": 10,
						"MaxCount": 1,
						"MaxWeightFactor": 0,
						"PlantType": "draftodil",
						"Weight": 100
					},
					{
						"MaxCount": 1,
						"MaxCountCooldownSeconds": 10,
						"MaxWeightFactor": 0,
						"MinCount": 1,
						"PlantType": "shrinkingviolet",
						"Weight": 60
					}
				],
				"SpeedConditions": [
					{
						"MaxPackets": 0,
						"Speed": 100
					}
				]
			}
		},
		{
			"aliases": [
				"Wave6ModConveyor0"
			],
			"objclass": "ModifyConveyorWaveActionProps",
			"objdata": {
				"Add": [
					{
						"MaxCount": 5,
						"MaxWeightFactor": 0,
						"Type": "RTID(pumpkin@PlantTypes)",
						"Weight": 20
					}
				],
				"Remove": []
			}
		},
		{
			"aliases": [
				"Wave1ModConveyor0"
			],
			"objclass": "ModifyConveyorWaveActionProps",
			"objdata": {
				"Add": [
					{
						"MaxCount": 5,
						"MaxWeightFactor": 0,
						"Type": "RTID(chomper@PlantTypes)",
						"Weight": 20
					}
				],
				"Remove": []
			}
		},
		{
			"aliases": [
				"WaveManagerProps"
			],
			"objclass": "WaveManagerProperties",
			"objdata": {
				"MaxNextWaveHealthPercentage": 0.9,
				"MinNextWaveHealthPercentage": 0.8,
				"Waves": [
					[
						"RTID(Wave1@CurrentLevel)",
						"RTID(Wave1ModConveyor0@CurrentLevel)"
					],
					[
						"RTID(Wave2@CurrentLevel)"
					],
					[
						"RTID(Wave3@CurrentLevel)"
					],
					[
						"RTID(Wave4@CurrentLevel)"
					],
					[
						"RTID(Wave5@CurrentLevel)"
					],
					[
						"RTID(Wave6@CurrentLevel)",
						"RTID(Wave6ModConveyor0@CurrentLevel)"
					],
					[
						"RTID(Wave7@CurrentLevel)",
						"RTID(Wave7ModConveyor0@CurrentLevel)"
					],
					[
						"RTID(Wave8@CurrentLevel)"
					],
					[
						"RTID(Wave9@CurrentLevel)"
					],
					[
						"RTID(Wave10@CurrentLevel)"
					],
					[
						"RTID(Wave11@CurrentLevel)"
					],
					[
						"RTID(Wave12@CurrentLevel)"
					]
				]
			}
		},
		{
			"aliases": [
				"Wave1"
			],
			"objclass": "SpawnZombiesJitteredWaveActionProps",
			"objdata": {
				"Zombies": [
					{
						"Type": "RTID(chicken_battlez@ZombieTypes)"
					}
				]
			}
		},
		{
			"aliases": [
				"Wave2"
			],
			"objclass": "SpawnZombiesJitteredWaveActionProps",
			"objdata": {
				"Zombies": [
					{
						"Type": "RTID(chicken_battlez@ZombieTypes)"
					}
				]
			}
		},
		{
			"aliases": [
				"Wave3"
			],
			"objclass": "SpawnZombiesJitteredWaveActionProps",
			"objdata": {
				"Zombies": [
					{
						"Type": "RTID(chicken_battlez@ZombieTypes)"
					}
				]
			}
		},
		{
			"aliases": [
				"Wave4"
			],
			"objclass": "SpawnZombiesJitteredWaveActionProps",
			"objdata": {
				"Zombies": [
					{
						"Type": "RTID(chicken_battlez@ZombieTypes)"
					}
				]
			}
		},
		{
			"aliases": [
				"Wave5"
			],
			"objclass": "SpawnZombiesJitteredWaveActionProps",
			"objdata": {
				"Zombies": [
					{
						"Type": "RTID(chicken_battlez@ZombieTypes)"
					},
					{
						"Row": "1",
						"Type": "RTID(future_jetpack@ZombieTypes)"
					},
					{
						"Row": "1",
						"Type": "RTID(future_jetpack@ZombieTypes)"
					},
					{
						"Row": "1",
						"Type": "RTID(future_jetpack@ZombieTypes)"
					}
				]
			}
		},
		{
			"aliases": [
				"Wave6"
			],
			"objclass": "SpawnZombiesJitteredWaveActionProps",
			"objdata": {
				"Zombies": [
					{
						"Type": "RTID(chicken_battlez@ZombieTypes)"
					},
					{
						"Type": "RTID(chicken_battlez@ZombieTypes)"
					}
				]
			}
		},
		{
			"aliases": [
				"Wave7"
			],
			"objclass": "SpawnZombiesJitteredWaveActionProps",
			"objdata": {
				"Zombies": [
					{
						"Type": "RTID(chicken_battlez@ZombieTypes)"
					},
					{
						"Row": "5",
						"Type": "RTID(future_jetpack@ZombieTypes)"
					},
					{
						"Row": "5",
						"Type": "RTID(future_jetpack@ZombieTypes)"
					},
					{
						"Row": "5",
						"Type": "RTID(future_jetpack@ZombieTypes)"
					}
				]
			}
		},
		{
			"aliases": [
				"Wave8"
			],
			"objclass": "SpawnZombiesJitteredWaveActionProps",
			"objdata": {
				"Zombies": [
					{
						"Type": "RTID(chicken_battlez@ZombieTypes)"
					},
					{
						"Type": "RTID(future_jetpack_veteran@ZombieTypes)"
					}
				]
			}
		},
		{
			"aliases": [
				"Wave9"
			],
			"objclass": "SpawnZombiesJitteredWaveActionProps",
			"objdata": {
				"Zombies": [
					{
						"Type": "RTID(chicken_battlez@ZombieTypes)"
					},
					{
						"Row": "3",
						"Type": "RTID(future_jetpack@ZombieTypes)"
					},
					{
						"Row": "3",
						"Type": "RTID(future_jetpack@ZombieTypes)"
					},
					{
						"Row": "3",
						"Type": "RTID(future_jetpack@ZombieTypes)"
					},
					{
						"Type": "RTID(chicken_battlez@ZombieTypes)"
					},
					{
						"Type": "RTID(future_jetpack_veteran@ZombieTypes)"
					}
				]
			}
		},
		{
			"aliases": [
				"Wave10"
			],
			"objclass": "SpawnZombiesJitteredWaveActionProps",
			"objdata": {
				"Zombies": [
					{
						"Type": "RTID(chicken_battlez@ZombieTypes)"
					},
					{
						"Row": "4",
						"Type": "RTID(future_jetpack@ZombieTypes)"
					},
					{
						"Row": "4",
						"Type": "RTID(future_jetpack@ZombieTypes)"
					},
					{
						"Row": "4",
						"Type": "RTID(future_jetpack@ZombieTypes)"
					},
					{
						"Row": "2",
						"Type": "RTID(future_jetpack@ZombieTypes)"
					},
					{
						"Row": "2",
						"Type": "RTID(future_jetpack@ZombieTypes)"
					},
					{
						"Row": "2",
						"Type": "RTID(future_jetpack@ZombieTypes)"
					},
					{
						"Type": "RTID(chicken_battlez@ZombieTypes)"
					},
					{
						"Type": "RTID(future_jetpack_veteran@ZombieTypes)"
					},
					{
						"Type": "RTID(chicken_battlez@ZombieTypes)"
					},
					{
						"Type": "RTID(chicken_battlez@ZombieTypes)"
					},
					{
						"Type": "RTID(chicken_battlez@ZombieTypes)"
					},
					{
						"Type": "RTID(chicken_battlez@ZombieTypes)"
					},
					{
						"Type": "RTID(chicken_battlez@ZombieTypes)"
					},
					{
						"Type": "RTID(chicken_battlez@ZombieTypes)"
					}
				]
			}
		},
		{
			"aliases": [
				"Wave11"
			],
			"objclass": "SpawnZombiesJitteredWaveActionProps",
			"objdata": {
				"Zombies": [
					{
						"Type": "RTID(chicken_battlez@ZombieTypes)"
					},
					{
						"Type": "RTID(chicken_battlez@ZombieTypes)"
					},
					{
						"Type": "RTID(chicken_battlez@ZombieTypes)"
					},
					{
						"Type": "RTID(future_jetpack_veteran@ZombieTypes)"
					},
					{
						"Type": "RTID(future_jetpack_veteran@ZombieTypes)"
					},
					{
						"Row": "1",
						"Type": "RTID(future_jetpack@ZombieTypes)"
					},
					{
						"Row": "1",
						"Type": "RTID(future_jetpack@ZombieTypes)"
					},
					{
						"Row": "5",
						"Type": "RTID(future_jetpack@ZombieTypes)"
					},
					{
						"Row": "5",
						"Type": "RTID(future_jetpack@ZombieTypes)"
					},
					{
						"Type": "RTID(chicken_battlez@ZombieTypes)"
					},
					{
						"Type": "RTID(chicken_battlez@ZombieTypes)"
					},
					{
						"Type": "RTID(chicken_battlez@ZombieTypes)"
					},
					{
						"Type": "RTID(chicken_battlez@ZombieTypes)"
					},
					{
						"Type": "RTID(chicken_battlez@ZombieTypes)"
					},
					{
						"Type": "RTID(chicken_battlez@ZombieTypes)"
					}
				]
			}
		},
		{
			"aliases": [
				"Wave12"
			],
			"objclass": "SpawnZombiesJitteredWaveActionProps",
			"objdata": {
				"Zombies": [
					{
						"Row": "5",
						"Type": "RTID(future_jetpack@ZombieTypes)"
					},
					{
						"Row": "4",
						"Type": "RTID(future_jetpack@ZombieTypes)"
					},
					{
						"Row": "3",
						"Type": "RTID(future_jetpack@ZombieTypes)"
					},
					{
						"Row": "2",
						"Type": "RTID(future_jetpack@ZombieTypes)"
					},
					{
						"Row": "1",
						"Type": "RTID(future_jetpack@ZombieTypes)"
					},
					{
						"Type": "RTID(chicken_battlez@ZombieTypes)"
					},
					{
						"Type": "RTID(chicken_battlez@ZombieTypes)"
					},
					{
						"Type": "RTID(chicken_battlez@ZombieTypes)"
					},
					{
						"Type": "RTID(chicken_battlez@ZombieTypes)"
					},
					{
						"Type": "RTID(future_jetpack_veteran@ZombieTypes)"
					},
					{
						"Type": "RTID(future_jetpack_veteran@ZombieTypes)"
					},
					{
						"Type": "RTID(future_jetpack_veteran@ZombieTypes)"
					},
					{
						"Type": "RTID(chicken_battlez@ZombieTypes)"
					},
					{
						"Type": "RTID(chicken_battlez@ZombieTypes)"
					},
					{
						"Type": "RTID(chicken_battlez@ZombieTypes)"
					},
					{
						"Type": "RTID(chicken_battlez@ZombieTypes)"
					},
					{
						"Type": "RTID(chicken_battlez@ZombieTypes)"
					},
					{
						"Type": "RTID(chicken_battlez@ZombieTypes)"
					},
					{
						"Type": "RTID(chicken_battlez@ZombieTypes)"
					},
					{
						"Type": "RTID(chicken_battlez@ZombieTypes)"
					},
					{
						"Type": "RTID(chicken_battlez@ZombieTypes)"
					}
				]
			}
		},
		{
			"aliases": [
				"Wave7ModConveyor0"
			],
			"objclass": "ModifyConveyorWaveActionProps",
			"objdata": {
				"Add": [
					{
						"MaxCount": 6,
						"MaxWeightFactor": 0,
						"Type": "RTID(draftodil@PlantTypes)",
						"Weight": 100
					}
				],
				"Remove": []
			}
		}
	],
	"version": 1
}