{
	"#comment": "INFERNO EQ2",
	"objects": [
		{
			"objclass": "LevelDefinition",
			"objdata": {
				"Description": "[PREMIUM_PLANT_QUEST_LOD_DESC]",
				"ForceToWorldMap": true,
				"Loot": "RTID(DefaultLoot@LevelModules)",
				"Modules": [
					"RTID(StandardIntro@LevelModules)",
					"RTID(LevelEscalationModule@CurrentLevel)",
					"RTID(FrontLawnMowers@LevelModules)",
					"RTID(NewWaves@CurrentLevel)",
					"RTID(DefaultZombieWinCondition@LevelModules)",
					"RTID(ConveyorBelt@CurrentLevel)",
					"RTID(ZombiesDeadWinCon@LevelModules)",
					"RTID(ChallengeModule@CurrentLevel)"
				],
				"Name": "[PREMIUM_PLANT_QUEST_LOD_NAME]",
				"NormalPresentTable": "egypt_normal_01",
				"RepeatPlayForceToWorldMap": true,
				"ShinyPresentTable": "egypt_shiny_01",
				"StageModule": "RTID(FrontLawnStage@LevelModules)"
			}
		},
		{
			"aliases": [
				"ChallengeModule"
			],
			"objclass": "StarChallengeModuleProperties",
			"objdata": {
				"Challenges": [
					[
						"RTID(ZombieDistance@CurrentLevel)"
					]
				],
				"ChallengesAlwaysAvailable": true
			}
		},
		{
			"aliases": [
				"ZombieDistance"
			],
			"objclass": "StarChallengeZombieDistanceProps",
			"objdata": {
				"TargetDistance": 4
			}
		},
		{
			"aliases": [
				"LevelEscalationModule"
			],
			"objclass": "LevelEscalationModuleProperties",
			"objdata": {
				"FlagCount": 3,
				"PlantfoodToSpawnCount": 0,
				"PointIncrementPerWave": 50,
				"StartingPoints": 0,
				"WaveManagerProps": "RTID(WaveManagerProps@CurrentLevel)",
				"WavesPerFlag": 4,
				"ZombiePool": [
					"RTID(modern_newspaper@ZombieTypes)",
					"RTID(pirate_armor2@ZombieTypes)"
				]
			}
		},
		{
			"aliases": [
				"WaveManagerProps"
			],
			"objclass": "WaveManagerProperties",
			"objdata": {
				"FlagWaveInterval": 4,
				"MaxNextWaveHealthPercentage": 0.9,
				"MinNextWaveHealthPercentage": 0.8,
				"WaveCount": 12,
				"WaveSpendingPointIncrement": 200,
				"WaveSpendingPoints": 100,
				"Waves": [
					[
						"RTID(Wave1@CurrentLevel)"
					],
					[
						"RTID(Wave2@CurrentLevel)",
						"RTID(Wave2ModConveyor0@CurrentLevel)"
					],
					[
						"RTID(Wave3@CurrentLevel)"
					],
					[
						"RTID(Wave4@CurrentLevel)"
					],
					[
						"RTID(Wave5@CurrentLevel)"
					],
					[
						"RTID(Wave6@CurrentLevel)"
					],
					[
						"RTID(Wave7@CurrentLevel)"
					],
					[
						"RTID(Wave8@CurrentLevel)"
					],
					[
						"RTID(Wave9@CurrentLevel)"
					],
					[
						"RTID(Wave10@CurrentLevel)"
					],
					[
						"RTID(Wave11@CurrentLevel)"
					],
					[
						"RTID(Wave12@CurrentLevel)"
					]
				]
			}
		},
		{
			"aliases": [
				"Wave1"
			],
			"objclass": "SpawnZombiesJitteredWaveActionProps",
			"objdata": {
				"Zombies": [
					{
						"Row": "1",
						"Type": "RTID(lostcity@ZombieTypes)"
					}
				]
			}
		},
		{
			"aliases": [
				"Wave2"
			],
			"objclass": "SpawnZombiesJitteredWaveActionProps",
			"objdata": {
				"AdditionalPlantfood": 1,
				"Zombies": [
					{
						"Type": "RTID(roman_armor1@ZombieTypes)"
					},
					{
						"Row": "4",
						"Type": "RTID(roman_armor1@ZombieTypes)"
					}
				]
			}
		},
		{
			"aliases": [
				"Wave3"
			],
			"objclass": "SpawnZombiesJitteredWaveActionProps",
			"objdata": {
				"Zombies": [
					{
						"Row": "2",
						"Type": "RTID(roman_armor1@ZombieTypes)"
					},
					{
						"Type": "RTID(lostcity@ZombieTypes)"
					},
					{
						"Type": "RTID(lostcity@ZombieTypes)"
					}
				]
			}
		},
		{
			"aliases": [
				"Wave4"
			],
			"objclass": "SpawnZombiesJitteredWaveActionProps",
			"objdata": {
				"Zombies": [
					{
						"Row": "5",
						"Type": "RTID(roman_armor1@ZombieTypes)"
					},
					{
						"Row": "4",
						"Type": "RTID(pirate_armor2@ZombieTypes)"
					},
					{
						"Row": "2",
						"Type": "RTID(pirate_armor2@ZombieTypes)"
					},
					{
						"Row": "3",
						"Type": "RTID(modern_newspaper@ZombieTypes)"
					},
					{
						"Row": "3",
						"Type": "RTID(pirate_armor2@ZombieTypes)"
					},
					{
						"Row": "1",
						"Type": "RTID(roman_armor1@ZombieTypes)"
					},
					{
						"Row": "3",
						"Type": "RTID(lostcity@ZombieTypes)"
					}
				]
			}
		},
		{
			"aliases": [
				"Wave5"
			],
			"objclass": "SpawnZombiesJitteredWaveActionProps",
			"objdata": {
				"AdditionalPlantfood": 1,
				"Zombies": [
					{
						"Row": "4",
						"Type": "RTID(modern_newspaper@ZombieTypes)"
					},
					{
						"Row": "4",
						"Type": "RTID(roman_armor1@ZombieTypes)"
					},
					{
						"Type": "RTID(lostcity@ZombieTypes)"
					},
					{
						"Row": "2",
						"Type": "RTID(pirate_armor2@ZombieTypes)"
					}
				]
			}
		},
		{
			"aliases": [
				"Wave6"
			],
			"objclass": "SpawnZombiesJitteredWaveActionProps",
			"objdata": {
				"Zombies": [
					{
						"Type": "RTID(modern_newspaper@ZombieTypes)"
					},
					{
						"Row": "5",
						"Type": "RTID(modern_newspaper@ZombieTypes)"
					},
					{
						"Row": "5",
						"Type": "RTID(pirate_armor2@ZombieTypes)"
					},
					{
						"Row": "4",
						"Type": "RTID(roman_armor1@ZombieTypes)"
					},
					{
						"Row": "2",
						"Type": "RTID(roman_armor1@ZombieTypes)"
					}
				]
			}
		},
		{
			"aliases": [
				"Wave7"
			],
			"objclass": "SpawnZombiesJitteredWaveActionProps",
			"objdata": {
				"Zombies": [
					{
						"Type": "RTID(lostcity@ZombieTypes)"
					},
					{
						"Type": "RTID(roman_armor1@ZombieTypes)"
					},
					{
						"Type": "RTID(lostcity@ZombieTypes)"
					},
					{
						"Type": "RTID(roman_armor1@ZombieTypes)"
					},
					{
						"Row": "5",
						"Type": "RTID(pirate_armor2@ZombieTypes)"
					},
					{
						"Row": "1",
						"Type": "RTID(lostcity@ZombieTypes)"
					},
					{
						"Row": "1",
						"Type": "RTID(lostcity@ZombieTypes)"
					}
				]
			}
		},
		{
			"aliases": [
				"Wave8"
			],
			"objclass": "SpawnZombiesJitteredWaveActionProps",
			"objdata": {
				"AdditionalPlantfood": 1,
				"Zombies": [
					{
						"Row": "2",
						"Type": "RTID(modern_allstar@ZombieTypes)"
					},
					{
						"Row": "3",
						"Type": "RTID(modern_newspaper@ZombieTypes)"
					},
					{
						"Row": "4",
						"Type": "RTID(modern_allstar@ZombieTypes)"
					},
					{
						"Type": "RTID(lostcity@ZombieTypes)"
					},
					{
						"Type": "RTID(pirate_armor2@ZombieTypes)"
					},
					{
						"Row": "5",
						"Type": "RTID(roman_armor1@ZombieTypes)"
					},
					{
						"Row": "1",
						"Type": "RTID(roman_armor1@ZombieTypes)"
					},
					{
						"Type": "RTID(roman_armor1@ZombieTypes)"
					},
					{
						"Type": "RTID(roman_armor1@ZombieTypes)"
					},
					{
						"Row": "3",
						"Type": "RTID(chicken_farmer@ZombieTypes)"
					},
					{
						"Type": "RTID(lostcity@ZombieTypes)"
					}
				]
			}
		},
		{
			"aliases": [
				"Wave9"
			],
			"objclass": "SpawnZombiesJitteredWaveActionProps",
			"objdata": {
				"AdditionalPlantfood": 1,
				"Zombies": [
					{
						"Row": "4",
						"Type": "RTID(chicken_farmer@ZombieTypes)"
					},
					{
						"Row": "5",
						"Type": "RTID(pirate_armor2@ZombieTypes)"
					},
					{
						"Type": "RTID(lostcity@ZombieTypes)"
					},
					{
						"Type": "RTID(lostcity@ZombieTypes)"
					},
					{
						"Row": "3",
						"Type": "RTID(chicken_farmer@ZombieTypes)"
					},
					{
						"Type": "RTID(lostcity@ZombieTypes)"
					},
					{
						"Type": "RTID(lostcity@ZombieTypes)"
					},
					{
						"Row": "1",
						"Type": "RTID(pirate_armor2@ZombieTypes)"
					},
					{
						"Type": "RTID(lostcity@ZombieTypes)"
					},
					{
						"Type": "RTID(lostcity@ZombieTypes)"
					},
					{
						"Row": "2",
						"Type": "RTID(chicken_farmer@ZombieTypes)"
					}
				]
			}
		},
		{
			"aliases": [
				"Wave10"
			],
			"objclass": "SpawnZombiesJitteredWaveActionProps",
			"objdata": {
				"AdditionalPlantfood": 1,
				"Zombies": [
					{
						"Type": "RTID(lostcity@ZombieTypes)"
					},
					{
						"Type": "RTID(lostcity@ZombieTypes)"
					},
					{
						"Row": "5",
						"Type": "RTID(modern_newspaper@ZombieTypes)"
					},
					{
						"Row": "4",
						"Type": "RTID(pirate_armor2@ZombieTypes)"
					},
					{
						"Row": "3",
						"Type": "RTID(roman_armor1@ZombieTypes)"
					},
					{
						"Row": "3",
						"Type": "RTID(chicken_farmer@ZombieTypes)"
					},
					{
						"Row": "3",
						"Type": "RTID(roman_armor1@ZombieTypes)"
					},
					{
						"Row": "2",
						"Type": "RTID(pirate_armor2@ZombieTypes)"
					},
					{
						"Row": "1",
						"Type": "RTID(modern_newspaper@ZombieTypes)"
					}
				]
			}
		},
		{
			"aliases": [
				"Wave11"
			],
			"objclass": "SpawnZombiesJitteredWaveActionProps",
			"objdata": {
				"Zombies": [
					{
						"Row": "2",
						"Type": "RTID(modern_allstar@ZombieTypes)"
					},
					{
						"Row": "4",
						"Type": "RTID(modern_allstar@ZombieTypes)"
					}
				]
			}
		},
		{
			"aliases": [
				"Wave12"
			],
			"objclass": "SpawnZombiesJitteredWaveActionProps",
			"objdata": {
				"Zombies": [
					{
						"Row": "5",
						"Type": "RTID(lostcity@ZombieTypes)"
					},
					{
						"Row": "4",
						"Type": "RTID(lostcity@ZombieTypes)"
					},
					{
						"Row": "3",
						"Type": "RTID(lostcity@ZombieTypes)"
					},
					{
						"Row": "2",
						"Type": "RTID(lostcity@ZombieTypes)"
					},
					{
						"Row": "1",
						"Type": "RTID(lostcity@ZombieTypes)"
					},
					{
						"Type": "RTID(modern_allstar@ZombieTypes)"
					},
					{
						"Type": "RTID(modern_newspaper@ZombieTypes)"
					},
					{
						"Type": "RTID(roman_armor1@ZombieTypes)"
					},
					{
						"Type": "RTID(pirate_armor2@ZombieTypes)"
					},
					{
						"Type": "RTID(chicken_farmer@ZombieTypes)"
					},
					{
						"Type": "RTID(modern_newspaper@ZombieTypes)"
					},
					{
						"Type": "RTID(pirate_armor2@ZombieTypes)"
					},
					{
						"Type": "RTID(modern_allstar@ZombieTypes)"
					},
					{
						"Type": "RTID(chicken_farmer@ZombieTypes)"
					},
					{
						"Type": "RTID(pirate_armor2@ZombieTypes)"
					},
					{
						"Type": "RTID(modern_allstar@ZombieTypes)"
					},
					{
						"Type": "RTID(roman_armor1@ZombieTypes)"
					}
				]
			}
		},
		{
			"aliases": [
				"NewWaves"
			],
			"objclass": "WaveManagerModuleProperties",
			"objdata": {}
		},
		{
			"aliases": [
				"ConveyorBelt"
			],
			"objclass": "ConveyorSeedBankProperties",
			"objdata": {
				"DropDelayConditions": [
					{
						"Delay": 4,
						"MaxPackets": 0
					},
					{
						"Delay": 6,
						"MaxPackets": 2
					},
					{
						"Delay": 9,
						"MaxPackets": 4
					},
					{
						"Delay": 12,
						"MaxPackets": 8
					}
				],
				"InitialPlantList": [
					{
						"MaxCount": 3,
						"MaxCountCooldownSeconds": 15,
						"MaxWeightFactor": 0,
						"PlantType": "magnetshroom",
						"Weight": 15
					},
					{
						"MaxCount": 10,
						"MaxCountCooldownSeconds": 10,
						"MinCount": 5,
						"MinWeightFactor": 3,
						"PlantType": "peanut",
						"Weight": 30
					}
				],
				"SpeedConditions": [
					{
						"MaxPackets": 0,
						"Speed": 100
					}
				]
			}
		},
		{
			"aliases": [
				"Wave2ModConveyor0"
			],
			"objclass": "ModifyConveyorWaveActionProps",
			"objdata": {
				"Add": [
					{
						"MaxCount": 10,
						"MaxCountCooldownSeconds": 15,
						"MaxWeightFactor": 0.1,
						"MinCount": 5,
						"MinWeightFactor": 3,
						"Type": "RTID(inferno@PlantTypes)",
						"Weight": 35
					}
				],
				"Remove": []
			}
		}
	],
	"version": 1
}