{
	"#comment": "LOD 251",
	"objects": [
		{
			"objclass": "LevelDefinition",
			"objdata": {
				"Description": "[PREMIUM_PLANT_QUEST_LOD_DESC]",
				"ForceToWorldMap": true,
				"Loot": "RTID(DefaultLoot@LevelModules)",
				"Modules": [
					"RTID(StandardIntro@LevelModules)",
					"RTID(LevelEscalationModule@CurrentLevel)",
					"RTID(FrontLawnMowers@LevelModules)",
					"RTID(NewWaves@CurrentLevel)",
					"RTID(DefaultZombieWinCondition@LevelModules)",
					"RTID(Gravestones@CurrentLevel)",
					"RTID(ConveyorBelt@CurrentLevel)",
					"RTID(ZombiesDeadWinCon@LevelModules)",
					"RTID(FrozenPlantPlacement@CurrentLevel)"
				],
				"Name": "[PREMIUM_PLANT_QUEST_LOD_NAME]",
				"NormalPresentTable": "egypt_normal_01",
				"RepeatPlayForceToWorldMap": true,
				"ShinyPresentTable": "egypt_shiny_01",
				"StageModule": "RTID(FrontLawnStage@LevelModules)"
			}
		},
		{
			"aliases": [
				"FrozenPlantPlacement"
			],
			"objclass": "InitialPlantProperties",
			"objdata": {}
		},
		{
			"aliases": [
				"LevelEscalationModule"
			],
			"objclass": "LevelEscalationModuleProperties",
			"objdata": {
				"FlagCount": 3,
				"PlantfoodToSpawnCount": 3,
				"PointIncrementPerWave": 150,
				"StartingPoints": 0,
				"WaveManagerProps": "RTID(WaveManagerProps@CurrentLevel)",
				"WavesPerFlag": 3,
				"ZombiePool": []
			}
		},
		{
			"aliases": [
				"WaveManagerProps"
			],
			"objclass": "WaveManagerProperties",
			"objdata": {
				"MaxNextWaveHealthPercentage": 0.9,
				"MinNextWaveHealthPercentage": 0.8,
				"Waves": [
					[
						"RTID(Wave1@CurrentLevel)"
					],
					[
						"RTID(Wave2@CurrentLevel)",
						"RTID(Wave2SpiderRainEvent0@CurrentLevel)",
						"RTID(Wave2ModConveyor0@CurrentLevel)"
					],
					[
						"RTID(Wave3@CurrentLevel)",
						"RTID(Wave3ParachuteRainEvent0@CurrentLevel)"
					],
					[
						"RTID(Wave4@CurrentLevel)",
						"RTID(Wave4RaidingPartyEvent0@CurrentLevel)",
						"RTID(Wave4ModConveyor0@CurrentLevel)"
					],
					[
						"RTID(Wave5@CurrentLevel)",
						"RTID(Wave5DinoTimeEvent0@CurrentLevel)",
						"RTID(Wave5DinoTimeEvent1@CurrentLevel)"
					],
					[
						"RTID(Wave6@CurrentLevel)",
						"RTID(Wave6RaidingPartyEvent0@CurrentLevel)"
					],
					[
						"RTID(Wave7@CurrentLevel)",
						"RTID(Wave7SpiderRainEvent0@CurrentLevel)"
					],
					[
						"RTID(Wave8@CurrentLevel)",
						"RTID(Wave8ParachuteRainEvent0@CurrentLevel)",
						"RTID(Wave8DinoTimeEvent0@CurrentLevel)",
						"RTID(Wave8DinoTimeEvent1@CurrentLevel)",
						"RTID(Wave8DinoTimeEvent2@CurrentLevel)"
					],
					[
						"RTID(Wave9@CurrentLevel)"
					]
				]
			}
		},
		{
			"aliases": [
				"Wave1"
			],
			"objclass": "SpawnZombiesJitteredWaveActionProps",
			"objdata": {
				"Zombies": [
					{
						"Row": "1",
						"Type": "RTID(dark_imp@ZombieTypes)"
					},
					{
						"Row": "3",
						"Type": "RTID(dark_imp@ZombieTypes)"
					},
					{
						"Row": "5",
						"Type": "RTID(dark_imp@ZombieTypes)"
					}
				]
			}
		},
		{
			"aliases": [
				"Wave2"
			],
			"objclass": "SpawnZombiesJitteredWaveActionProps",
			"objdata": {
				"Zombies": [
					{
						"Row": "1",
						"Type": "RTID(dino_imp@ZombieTypes)"
					},
					{
						"Row": "2",
						"Type": "RTID(dino_imp@ZombieTypes)"
					},
					{
						"Row": "4",
						"Type": "RTID(dino_imp@ZombieTypes)"
					},
					{
						"Row": "5",
						"Type": "RTID(dino_imp@ZombieTypes)"
					},
					{
						"Type": "RTID(modern_allstar@ZombieTypes)"
					}
				]
			}
		},
		{
			"aliases": [
				"Wave3"
			],
			"objclass": "SpawnZombiesJitteredWaveActionProps",
			"objdata": {
				"AdditionalPlantfood": 1,
				"Zombies": [
					{
						"Row": "1",
						"Type": "RTID(tutorial@ZombieTypes)"
					},
					{
						"Row": "2",
						"Type": "RTID(iceage_imp@ZombieTypes)"
					},
					{
						"Row": "3",
						"Type": "RTID(iceage_imp@ZombieTypes)"
					},
					{
						"Row": "4",
						"Type": "RTID(iceage_imp@ZombieTypes)"
					},
					{
						"Row": "5",
						"Type": "RTID(iceage_imp@ZombieTypes)"
					}
				]
			}
		},
		{
			"aliases": [
				"Wave4"
			],
			"objclass": "SpawnZombiesJitteredWaveActionProps",
			"objdata": {
				"AdditionalPlantfood": 1,
				"Zombies": [
					{
						"Row": "1",
						"Type": "RTID(lostcity_imp@ZombieTypes)"
					},
					{
						"Row": "2",
						"Type": "RTID(lostcity_imp@ZombieTypes)"
					},
					{
						"Row": "3",
						"Type": "RTID(tutorial@ZombieTypes)"
					},
					{
						"Row": "4",
						"Type": "RTID(lostcity_imp@ZombieTypes)"
					},
					{
						"Row": "5",
						"Type": "RTID(lostcity_imp@ZombieTypes)"
					},
					{
						"Type": "RTID(modern_allstar@ZombieTypes)"
					},
					{
						"Type": "RTID(modern_allstar@ZombieTypes)"
					}
				]
			}
		},
		{
			"aliases": [
				"Wave5"
			],
			"objclass": "SpawnZombiesJitteredWaveActionProps",
			"objdata": {
				"Zombies": [
					{
						"Type": "RTID(cannon@ZombieTypes)"
					},
					{
						"Type": "RTID(prospector@ZombieTypes)"
					},
					{
						"Type": "RTID(prospector@ZombieTypes)"
					}
				]
			}
		},
		{
			"aliases": [
				"Wave6"
			],
			"objclass": "SpawnZombiesJitteredWaveActionProps",
			"objdata": {
				"AdditionalPlantfood": 1,
				"Zombies": [
					{
						"Type": "RTID(tutorial@ZombieTypes)"
					},
					{
						"Type": "RTID(eighties_imp@ZombieTypes)"
					},
					{
						"Type": "RTID(beach_imp@ZombieTypes)"
					},
					{
						"Type": "RTID(modern_allstar@ZombieTypes)"
					}
				]
			}
		},
		{
			"aliases": [
				"Wave7"
			],
			"objclass": "SpawnZombiesJitteredWaveActionProps",
			"objdata": {
				"Zombies": [
					{
						"Row": "2",
						"Type": "RTID(modern_superfanimp@ZombieTypes)"
					},
					{
						"Row": "2",
						"Type": "RTID(modern_allstar@ZombieTypes)"
					},
					{
						"Row": "3",
						"Type": "RTID(modern_superfanimp@ZombieTypes)"
					},
					{
						"Row": "3",
						"Type": "RTID(modern_allstar@ZombieTypes)"
					},
					{
						"Row": "5",
						"Type": "RTID(modern_superfanimp@ZombieTypes)"
					},
					{
						"Row": "5",
						"Type": "RTID(modern_allstar@ZombieTypes)"
					}
				]
			}
		},
		{
			"aliases": [
				"Wave8"
			],
			"objclass": "SpawnZombiesJitteredWaveActionProps",
			"objdata": {
				"Zombies": [
					{
						"Type": "RTID(prospector@ZombieTypes)"
					},
					{
						"Type": "RTID(cannon@ZombieTypes)"
					},
					{
						"Type": "RTID(cannon@ZombieTypes)"
					},
					{
						"Type": "RTID(prospector@ZombieTypes)"
					}
				]
			}
		},
		{
			"aliases": [
				"Wave9"
			],
			"objclass": "SpawnZombiesJitteredWaveActionProps",
			"objdata": {
				"Zombies": [
					{
						"Type": "RTID(dark_imp@ZombieTypes)"
					},
					{
						"Type": "RTID(dino_imp@ZombieTypes)"
					},
					{
						"Type": "RTID(iceage_imp@ZombieTypes)"
					},
					{
						"Type": "RTID(lostcity_imp@ZombieTypes)"
					},
					{
						"Type": "RTID(eighties_imp@ZombieTypes)"
					},
					{
						"Type": "RTID(beach_imp@ZombieTypes)"
					},
					{
						"Type": "RTID(modern_superfanimp@ZombieTypes)"
					}
				]
			}
		},
		{
			"aliases": [
				"Gravestones"
			],
			"objclass": "GravestoneProperties",
			"objdata": {}
		},
		{
			"aliases": [
				"NewWaves"
			],
			"objclass": "WaveManagerModuleProperties",
			"objdata": {}
		},
		{
			"aliases": [
				"ConveyorBelt"
			],
			"objclass": "ConveyorSeedBankProperties",
			"objdata": {
				"DropDelayConditions": [
					{
						"Delay": 2,
						"MaxPackets": 0
					},
					{
						"Delay": 2,
						"MaxPackets": 2
					},
					{
						"Delay": 9,
						"MaxPackets": 4
					},
					{
						"Delay": 12,
						"MaxPackets": 8
					}
				],
				"InitialPlantList": [
					{
						"PlantType": "grimrose",
						"Weight": 10
					}
				],
				"SpeedConditions": [
					{
						"MaxPackets": 0,
						"Speed": 100
					}
				]
			}
		},
		{
			"aliases": [
				"Wave2SpiderRainEvent0"
			],
			"objclass": "SpiderRainZombieSpawnerProps",
			"objdata": {
				"ColumnEnd": "8",
				"ColumnStart": "4",
				"GroupSize": "2",
				"SpiderCount": 2,
				"SpiderZombieName": "future_imp",
				"TimeBeforeFullSpawn": "1",
				"TimeBetweenGroups": "0.2",
				"WaveStartMessage": "[WARNING_SPIDERRAIN]",
				"ZombieFallTime": "1.5"
			}
		},
		{
			"aliases": [
				"Wave3ParachuteRainEvent0"
			],
			"objclass": "ParachuteRainZombieSpawnerProps",
			"objdata": {
				"ColumnEnd": "8",
				"ColumnStart": "4",
				"GroupSize": "2",
				"SpiderCount": "4",
				"SpiderZombieName": "lostcity_lostpilot",
				"TimeBeforeFullSpawn": "1",
				"TimeBetweenGroups": "0.2",
				"WaveStartMessage": "[WARNING_PARACHUTERAIN]",
				"ZombieFallTime": "1.5"
			}
		},
		{
			"aliases": [
				"Wave4RaidingPartyEvent0"
			],
			"objclass": "RaidingPartyZombieSpawnerProps",
			"objdata": {
				"GroupSize": "1",
				"SwashbucklerCount": "5",
				"TimeBetweenGroups": "1"
			}
		},
		{
			"aliases": [
				"Wave6RaidingPartyEvent0"
			],
			"objclass": "RaidingPartyZombieSpawnerProps",
			"objdata": {
				"GroupSize": "1",
				"SwashbucklerCount": "5",
				"TimeBetweenGroups": "1"
			}
		},
		{
			"aliases": [
				"Wave7SpiderRainEvent0"
			],
			"objclass": "SpiderRainZombieSpawnerProps",
			"objdata": {
				"ColumnEnd": 5,
				"ColumnStart": 3,
				"GroupSize": "2",
				"SpiderCount": 8,
				"SpiderZombieName": "future_imp",
				"TimeBeforeFullSpawn": "1",
				"TimeBetweenGroups": "0.2",
				"WaveStartMessage": "[WARNING_SPIDERRAIN]",
				"ZombieFallTime": "1.5"
			}
		},
		{
			"aliases": [
				"Wave8ParachuteRainEvent0"
			],
			"objclass": "ParachuteRainZombieSpawnerProps",
			"objdata": {
				"ColumnEnd": "8",
				"ColumnStart": "4",
				"GroupSize": "2",
				"SpiderCount": "4",
				"SpiderZombieName": "lostcity_lostpilot",
				"TimeBeforeFullSpawn": "1",
				"TimeBetweenGroups": "0.2",
				"WaveStartMessage": "[WARNING_PARACHUTERAIN]",
				"ZombieFallTime": "1.5"
			}
		},
		{
			"aliases": [
				"Wave8DinoTimeEvent0"
			],
			"objclass": "DinoWaveActionProps",
			"objdata": {
				"DinoRow": 0,
				"DinoType": "raptor",
				"DinoWaveDuration": "0"
			}
		},
		{
			"aliases": [
				"Wave8DinoTimeEvent1"
			],
			"objclass": "DinoWaveActionProps",
			"objdata": {
				"DinoRow": 2,
				"DinoType": "raptor",
				"DinoWaveDuration": "0"
			}
		},
		{
			"aliases": [
				"Wave8DinoTimeEvent2"
			],
			"objclass": "DinoWaveActionProps",
			"objdata": {
				"DinoRow": 4,
				"DinoType": "raptor",
				"DinoWaveDuration": "0"
			}
		},
		{
			"aliases": [
				"Wave2ModConveyor0"
			],
			"objclass": "ModifyConveyorWaveActionProps",
			"objdata": {
				"Add": [
					{
						"Type": "RTID(explodeonut@PlantTypes)",
						"Weight": 5
					}
				],
				"Remove": []
			}
		},
		{
			"aliases": [
				"Wave5DinoTimeEvent0"
			],
			"objclass": "DinoWaveActionProps",
			"objdata": {
				"DinoRow": 1,
				"DinoType": "tyranno",
				"DinoWaveDuration": "0"
			}
		},
		{
			"aliases": [
				"Wave5DinoTimeEvent1"
			],
			"objclass": "DinoWaveActionProps",
			"objdata": {
				"DinoRow": 3,
				"DinoType": "tyranno",
				"DinoWaveDuration": "0"
			}
		},
		{
			"aliases": [
				"Wave4ModConveyor0"
			],
			"objclass": "ModifyConveyorWaveActionProps",
			"objdata": {
				"Add": [
					{
						"MaxCount": 5,
						"MaxCountCooldownSeconds": 0.1,
						"MinCount": 4,
						"MinWeightFactor": 2,
						"Type": "RTID(laser_bean@PlantTypes)",
						"Weight": 10
					}
				],
				"Remove": []
			}
		}
	],
	"version": 1
}