{
	"#comment": "LOD template level. Delete unnecessary Modules (e.g. Challenge, Frozen)",
	"objects": [
		{
			"objclass": "LevelDefinition",
			"objdata": {
				"Description": "[PREMIUM_PLANT_QUEST_LOD_DESC]",
				"ForceToWorldMap": true,
				"Loot": "RTID(DefaultLoot@LevelModules)",
				"Modules": [
					"RTID(StandardIntro@LevelModules)",
					"RTID(LevelEscalationModule@CurrentLevel)",
					"RTID(FrontLawnMowers@LevelModules)",
					"RTID(DefaultSunDropper@LevelModules)",
					"RTID(NewWaves@CurrentLevel)",
					"RTID(DefaultZombieWinCondition@LevelModules)",
					"RTID(Gravestones@CurrentLevel)",
					"RTID(SeedBank@CurrentLevel)",
					"RTID(FrozenPlantPlacement@CurrentLevel)",
					"RTID(ZombiesDeadWinCon@LevelModules)"
				],
				"Name": "[PREMIUM_PLANT_QUEST_LOD_NAME]",
				"NormalPresentTable": "egypt_normal_01",
				"RepeatPlayForceToWorldMap": true,
				"ShinyPresentTable": "egypt_shiny_01",
				"StageModule": "RTID(FrontLawnStage@LevelModules)"
			}
		},
		{
			"aliases": [
				"SeedBank"
			],
			"objclass": "SeedBankProperties",
			"objdata": {
				"PresetPlantList": [
					{
						"Level": -1,
						"PlantType": "pyrevine"
					},
					{
						"Level": -1,
						"PlantType": "sunflower"
					},
					{
						"Level": -1,
						"PlantType": "wallnut"
					},
					{
						"Level": -1,
						"PlantType": "stunion"
					},
					{
						"Level": -1,
						"PlantType": "peashooter"
					}
				],
				"SelectionMethod": "preset"
			}
		},
		{
			"aliases": [
				"FrozenPlantPlacement"
			],
			"objclass": "InitialPlantProperties",
			"objdata": {
				"InitialPlantPlacements": [
					{
						"GridX": 1,
						"GridY": 1,
						"TypeName": "sunflower"
					},
					{
						"GridX": 1,
						"GridY": 2,
						"TypeName": "sunflower"
					},
					{
						"GridX": 1,
						"GridY": 3,
						"TypeName": "sunflower"
					},
					{
						"GridX": 5,
						"GridY": 2,
						"TypeName": "peashooter"
					},
					{
						"GridX": 5,
						"GridY": 2,
						"TypeName": "pyrevine"
					},
					{
						"Condition": "icecubed",
						"GridX": 6,
						"GridY": 2,
						"TypeName": "wallnut"
					}
				]
			}
		},
		{
			"aliases": [
				"LevelEscalationModule"
			],
			"objclass": "LevelEscalationModuleProperties",
			"objdata": {
				"FlagCount": 3,
				"PlantfoodToSpawnCount": 3,
				"PointIncrementPerWave": 0,
				"StartingPoints": 0,
				"WaveManagerProps": "RTID(WaveManagerProps@CurrentLevel)",
				"WavesPerFlag": 3,
				"ZombiePool": [
					"RTID(tutorial_armor1@ZombieTypes)",
					"RTID(lostcity_excavator@ZombieTypes)",
					"RTID(tutorial_armor2@ZombieTypes)",
					"RTID(dark_juggler@ZombieTypes)",
					"RTID(lostcity_crystalskull@ZombieTypes)",
					"RTID(tutorial@ZombieTypes)",
					"RTID(iceage_troglobite_1block@ZombieTypes)"
				]
			}
		},
		{
			"aliases": [
				"WaveManagerProps"
			],
			"objclass": "WaveManagerProperties",
			"objdata": {
				"MaxNextWaveHealthPercentage": 0.9,
				"MinNextWaveHealthPercentage": 0.8,
				"Waves": [
					[
						"RTID(Wave1@CurrentLevel)"
					],
					[
						"RTID(Wave2@CurrentLevel)"
					],
					[
						"RTID(Wave3@CurrentLevel)"
					],
					[
						"RTID(Wave4@CurrentLevel)",
						"RTID(Wave4FrostWindEvent0@CurrentLevel)"
					],
					[
						"RTID(Wave5@CurrentLevel)"
					],
					[
						"RTID(Wave6@CurrentLevel)"
					],
					[
						"RTID(Wave7@CurrentLevel)",
						"RTID(Wave7FrostWindEvent0@CurrentLevel)"
					],
					[
						"RTID(Wave8@CurrentLevel)",
						"RTID(Wave8FrostWindEvent0@CurrentLevel)"
					],
					[
						"RTID(Wave9@CurrentLevel)"
					],
					[
						"RTID(Wave10@CurrentLevel)"
					],
					[
						"RTID(Wave11@CurrentLevel)"
					],
					[
						"RTID(Wave12@CurrentLevel)",
						"RTID(Wave12FrostWindEvent0@CurrentLevel)"
					]
				]
			}
		},
		{
			"aliases": [
				"Wave1"
			],
			"objclass": "SpawnZombiesJitteredWaveActionProps",
			"objdata": {
				"Zombies": [
					{
						"Row": "3",
						"Type": "RTID(tutorial_armor1@ZombieTypes)"
					},
					{
						"Row": "2",
						"Type": "RTID(tutorial@ZombieTypes)"
					}
				]
			}
		},
		{
			"aliases": [
				"Wave2"
			],
			"objclass": "SpawnZombiesJitteredWaveActionProps",
			"objdata": {
				"Zombies": [
					{
						"Row": "3",
						"Type": "RTID(tutorial@ZombieTypes)"
					},
					{
						"Row": "5",
						"Type": "RTID(tutorial_armor1@ZombieTypes)"
					}
				]
			}
		},
		{
			"aliases": [
				"Wave3"
			],
			"objclass": "SpawnZombiesJitteredWaveActionProps",
			"objdata": {
				"AdditionalPlantfood": 1,
				"DynamicPlantfood": [
					1,
					1,
					1,
					1,
					1,
					1,
					1
				],
				"Zombies": [
					{
						"Row": "1",
						"Type": "RTID(tutorial@ZombieTypes)"
					},
					{
						"Row": "3",
						"Type": "RTID(tutorial_armor2@ZombieTypes)"
					},
					{
						"Row": "5",
						"Type": "RTID(tutorial@ZombieTypes)"
					}
				]
			}
		},
		{
			"aliases": [
				"Wave4"
			],
			"objclass": "SpawnZombiesJitteredWaveActionProps",
			"objdata": {
				"Zombies": [
					{
						"Row": "4",
						"Type": "RTID(tutorial_armor1@ZombieTypes)"
					},
					{
						"Row": "3",
						"Type": "RTID(tutorial_armor1@ZombieTypes)"
					}
				]
			}
		},
		{
			"aliases": [
				"Wave5"
			],
			"objclass": "SpawnZombiesJitteredWaveActionProps",
			"objdata": {
				"Zombies": [
					{
						"Row": "3",
						"Type": "RTID(tutorial_armor1@ZombieTypes)"
					},
					{
						"Row": "2",
						"Type": "RTID(tutorial@ZombieTypes)"
					}
				]
			}
		},
		{
			"aliases": [
				"Wave6"
			],
			"objclass": "SpawnZombiesJitteredWaveActionProps",
			"objdata": {
				"AdditionalPlantfood": 1,
				"DynamicPlantfood": [
					1,
					1,
					1,
					1,
					1,
					1,
					1
				],
				"Zombies": [
					{
						"Row": "1",
						"Type": "RTID(dark_juggler@ZombieTypes)"
					},
					{
						"Row": "1",
						"Type": "RTID(tutorial@ZombieTypes)"
					},
					{
						"Row": "1",
						"Type": "RTID(dark_juggler@ZombieTypes)"
					}
				]
			}
		},
		{
			"aliases": [
				"Wave7"
			],
			"objclass": "SpawnZombiesJitteredWaveActionProps",
			"objdata": {
				"Zombies": [
					{
						"Row": "2",
						"Type": "RTID(tutorial@ZombieTypes)"
					},
					{
						"Row": "2",
						"Type": "RTID(tutorial@ZombieTypes)"
					},
					{
						"Row": "1",
						"Type": "RTID(camel_twohump@ZombieTypes)"
					},
					{
						"Row": "4",
						"Type": "RTID(camel_twohump@ZombieTypes)"
					},
					{
						"Row": "5",
						"Type": "RTID(tutorial@ZombieTypes)"
					},
					{
						"Row": "5",
						"Type": "RTID(tutorial@ZombieTypes)"
					}
				]
			}
		},
		{
			"aliases": [
				"Wave8"
			],
			"objclass": "SpawnZombiesJitteredWaveActionProps",
			"objdata": {
				"Zombies": [
					{
						"Row": "3",
						"Type": "RTID(tutorial_armor1@ZombieTypes)"
					}
				]
			}
		},
		{
			"aliases": [
				"Wave9"
			],
			"objclass": "SpawnZombiesJitteredWaveActionProps",
			"objdata": {
				"AdditionalPlantfood": 1,
				"Zombies": [
					{
						"Row": "1",
						"Type": "RTID(tutorial@ZombieTypes)"
					},
					{
						"Row": "1",
						"Type": "RTID(tutorial@ZombieTypes)"
					},
					{
						"Row": "2",
						"Type": "RTID(dark_juggler@ZombieTypes)"
					},
					{
						"Row": "3",
						"Type": "RTID(tutorial@ZombieTypes)"
					},
					{
						"Row": "3",
						"Type": "RTID(tutorial@ZombieTypes)"
					},
					{
						"Row": "4",
						"Type": "RTID(dark_juggler@ZombieTypes)"
					},
					{
						"Row": "5",
						"Type": "RTID(dark_wizard@ZombieTypes)"
					}
				]
			}
		},
		{
			"aliases": [
				"Gravestones"
			],
			"objclass": "GravestoneProperties",
			"objdata": {}
		},
		{
			"aliases": [
				"NewWaves"
			],
			"objclass": "WaveManagerModuleProperties",
			"objdata": {}
		},
		{
			"aliases": [
				"Wave10"
			],
			"objclass": "SpawnZombiesJitteredWaveActionProps",
			"objdata": {
				"Zombies": [
					{
						"Row": "5",
						"Type": "RTID(tutorial_armor1@ZombieTypes)"
					},
					{
						"Row": "2",
						"Type": "RTID(camel_twohump@ZombieTypes)"
					}
				]
			}
		},
		{
			"aliases": [
				"Wave11"
			],
			"objclass": "SpawnZombiesJitteredWaveActionProps",
			"objdata": {
				"AdditionalPlantfood": 1,
				"DynamicPlantfood": [
					1,
					1,
					1,
					1,
					1,
					1,
					1
				],
				"Zombies": [
					{
						"Row": "2",
						"Type": "RTID(disco_mech@ZombieTypes)"
					}
				]
			}
		},
		{
			"aliases": [
				"Wave12"
			],
			"objclass": "SpawnZombiesJitteredWaveActionProps",
			"objdata": {
				"Zombies": [
					{
						"Row": "1",
						"Type": "RTID(tutorial@ZombieTypes)"
					},
					{
						"Row": "1",
						"Type": "RTID(tutorial_armor2@ZombieTypes)"
					},
					{
						"Row": "4",
						"Type": "RTID(tutorial_armor2@ZombieTypes)"
					},
					{
						"Row": "4",
						"Type": "RTID(tutorial_armor2@ZombieTypes)"
					},
					{
						"Type": "RTID(tutorial@ZombieTypes)"
					},
					{
						"Type": "RTID(iceage_troglobite_1block@ZombieTypes)"
					}
				]
			}
		},
		{
			"aliases": [
				"Wave8FrostWindEvent0"
			],
			"objclass": "FrostWindWaveActionProps",
			"objdata": {
				"Winds": [
					{
						"Direction": "right",
						"Row": 0
					},
					{
						"Direction": "right",
						"Row": 0
					}
				]
			}
		},
		{
			"aliases": [
				"Wave4FrostWindEvent0"
			],
			"objclass": "FrostWindWaveActionProps",
			"objdata": {
				"Winds": [
					{
						"Direction": "right",
						"Row": 4
					},
					{
						"Direction": "right",
						"Row": 4
					}
				]
			}
		},
		{
			"aliases": [
				"Wave7FrostWindEvent0"
			],
			"objclass": "FrostWindWaveActionProps",
			"objdata": {
				"Winds": [
					{
						"Direction": "right",
						"Row": 2
					},
					{
						"Direction": "right",
						"Row": 2
					}
				]
			}
		},
		{
			"aliases": [
				"Wave12FrostWindEvent0"
			],
			"objclass": "FrostWindWaveActionProps",
			"objdata": {
				"Winds": [
					{
						"Direction": "right",
						"Row": 1
					},
					{
						"Direction": "right",
						"Row": 1
					},
					{
						"Direction": "right",
						"Row": 3
					},
					{
						"Direction": "right",
						"Row": 3
					}
				]
			}
		}
	],
	"version": 1
}