{
	"#comment": "LOD 231",
	"objects": [
		{
			"objclass": "LevelDefinition",
			"objdata": {
				"Description": "[PREMIUM_PLANT_QUEST_LOD_DESC]",
				"Loot": "RTID(DefaultLoot@LevelModules)",
				"Modules": [
					"RTID(StandardIntro@LevelModules)",
					"RTID(LevelEscalationModule@CurrentLevel)",
					"RTID(IceageMowers@LevelModules)",
					"RTID(NewWaves@CurrentLevel)",
					"RTID(DefaultZombieWinCondition@LevelModules)",
					"RTID(ConveyorBelt@CurrentLevel)",
					"RTID(ZombiesDeadWinCon@LevelModules)",
					"RTID(FrozenPlantPlacement@CurrentLevel)",
					"RTID(FrozenZombiePlacement@CurrentLevel)"
				],
				"Name": "[PREMIUM_PLANT_QUEST_LOD_NAME]",
				"NormalPresentTable": "egypt_normal_01",
				"ShinyPresentTable": "egypt_shiny_01",
				"ForceToWorldMap": true,
				"RepeatPlayForceToWorldMap": true,
				"StageModule": "RTID(IceageStage@LevelModules)"
			}
		},
		{
			"aliases": [
				"FrozenPlantPlacement"
			],
			"objclass": "InitialPlantProperties",
			"objdata": {
				"InitialPlantPlacements": [
					{
						"Condition": "icecubed",
						"GridX": 0,
						"GridY": 0,
						"TypeName": "cabbagepult"
					},
					{
						"Condition": "icecubed",
						"GridX": 0,
						"GridY": 1,
						"TypeName": "cabbagepult"
					},
					{
						"Condition": "icecubed",
						"GridX": 0,
						"GridY": 2,
						"TypeName": "cabbagepult"
					},
					{
						"Condition": "icecubed",
						"GridX": 0,
						"GridY": 3,
						"TypeName": "cabbagepult"
					},
					{
						"Condition": "icecubed",
						"GridX": 0,
						"GridY": 4,
						"TypeName": "cabbagepult"
					}
				]
			}
		},
		{
			"aliases": [
				"FrozenZombiePlacement"
			],
			"objclass": "InitialZombieProperties",
			"objdata": {
				"InitialZombiePlacements": [
					{
						"Condition": "icecubed",
						"GridX": 7,
						"GridY": 0,
						"TypeName": "future_armor1"
					},
					{
						"Condition": "icecubed",
						"GridX": 8,
						"GridY": 0,
						"TypeName": "future_armor2"
					},
					{
						"Condition": "icecubed",
						"GridX": 4,
						"GridY": 0,
						"TypeName": "future_imp"
					},
					{
						"Condition": "icecubed",
						"GridX": 5,
						"GridY": 0,
						"TypeName": "future_imp"
					},
					{
						"Condition": "icecubed",
						"GridX": 6,
						"GridY": 0,
						"TypeName": "future"
					},
					{
						"Condition": "icecubed",
						"GridX": 7,
						"GridY": 1,
						"TypeName": "future_armor1"
					},
					{
						"Condition": "icecubed",
						"GridX": 8,
						"GridY": 1,
						"TypeName": "future_armor2"
					},
					{
						"Condition": "icecubed",
						"GridX": 4,
						"GridY": 1,
						"TypeName": "future_imp"
					},
					{
						"Condition": "icecubed",
						"GridX": 5,
						"GridY": 1,
						"TypeName": "future_imp"
					},
					{
						"Condition": "icecubed",
						"GridX": 6,
						"GridY": 1,
						"TypeName": "future"
					},
					{
						"Condition": "icecubed",
						"GridX": 7,
						"GridY": 2,
						"TypeName": "future_armor1"
					},
					{
						"Condition": "icecubed",
						"GridX": 8,
						"GridY": 2,
						"TypeName": "future_armor2"
					},
					{
						"Condition": "icecubed",
						"GridX": 4,
						"GridY": 2,
						"TypeName": "future_imp"
					},
					{
						"Condition": "icecubed",
						"GridX": 5,
						"GridY": 2,
						"TypeName": "future_imp"
					},
					{
						"Condition": "icecubed",
						"GridX": 6,
						"GridY": 2,
						"TypeName": "future"
					},
					{
						"Condition": "icecubed",
						"GridX": 7,
						"GridY": 3,
						"TypeName": "future_armor1"
					},
					{
						"Condition": "icecubed",
						"GridX": 8,
						"GridY": 3,
						"TypeName": "future_armor2"
					},
					{
						"Condition": "icecubed",
						"GridX": 4,
						"GridY": 3,
						"TypeName": "future_imp"
					},
					{
						"Condition": "icecubed",
						"GridX": 5,
						"GridY": 3,
						"TypeName": "future_imp"
					},
					{
						"Condition": "icecubed",
						"GridX": 6,
						"GridY": 3,
						"TypeName": "future"
					},
					{
						"Condition": "icecubed",
						"GridX": 7,
						"GridY": 4,
						"TypeName": "future_armor1"
					},
					{
						"Condition": "icecubed",
						"GridX": 8,
						"GridY": 4,
						"TypeName": "future_armor2"
					},
					{
						"Condition": "icecubed",
						"GridX": 4,
						"GridY": 4,
						"TypeName": "future_imp"
					},
					{
						"Condition": "icecubed",
						"GridX": 5,
						"GridY": 4,
						"TypeName": "future_imp"
					},
					{
						"Condition": "icecubed",
						"GridX": 6,
						"GridY": 4,
						"TypeName": "future"
					}
				]
			}
		},
		{
			"aliases": [
				"LevelEscalationModule"
			],
			"objclass": "LevelEscalationModuleProperties",
			"objdata": {
				"FlagCount": 2,
				"PlantfoodToSpawnCount": 0,
				"PointIncrementPerWave": 225,
				"StartingPoints": 300,
				"WaveManagerProps": "RTID(WaveManagerProps@CurrentLevel)",
				"WavesPerFlag": 5,
				"ZombiePool": [
					"RTID(iceage_troglobite@ZombieTypes)",
					"RTID(iceage_dodo@ZombieTypes)",
					"RTID(iceage_troglobite_2block@ZombieTypes)"
				]
			}
		},
		{
			"aliases": [
				"WaveManagerProps"
			],
			"objclass": "WaveManagerProperties",
			"objdata": {
				"MaxNextWaveHealthPercentage": 0.9,
				"MinNextWaveHealthPercentage": 0.8,
				"Waves": [
					[
						"RTID(Wave1@CurrentLevel)"
					],
					[
						"RTID(Wave2@CurrentLevel)"
					],
					[
						"RTID(Wave3@CurrentLevel)"
					],
					[
						"RTID(Wave4@CurrentLevel)",
						"RTID(Wave4PortalsEvent0@CurrentLevel)"
					],
					[
						"RTID(Wave5@CurrentLevel)"
					],
					[
						"RTID(Wave6@CurrentLevel)"
					],
					[
						"RTID(Wave7@CurrentLevel)",
						"RTID(Wave7PortalsEvent0@CurrentLevel)"
					],
					[
						"RTID(Wave8@CurrentLevel)"
					],
					[
						"RTID(Wave9@CurrentLevel)",
						"RTID(Wave9PortalsEvent0@CurrentLevel)"
					],
					[
						"RTID(Wave10@CurrentLevel)"
					]
				]
			}
		},
		{
			"aliases": [
				"Wave1"
			],
			"objclass": "SpawnZombiesJitteredWaveActionProps",
			"objdata": {
				"Zombies": [
					{
						"Type": "RTID(iceage@ZombieTypes)"
					}
				]
			}
		},
		{
			"aliases": [
				"Wave2"
			],
			"objclass": "SpawnZombiesJitteredWaveActionProps",
			"objdata": {
				"AdditionalPlantfood": 0,
				"Zombies": [
					{
						"Type": "RTID(iceage@ZombieTypes)"
					},
					{
						"Type": "RTID(iceage_troglobite_1block@ZombieTypes)"
					},
					{
						"Type": "RTID(iceage_troglobite_1block@ZombieTypes)"
					}
				]
			}
		},
		{
			"aliases": [
				"Wave3"
			],
			"objclass": "SpawnZombiesJitteredWaveActionProps",
			"objdata": {
				"Zombies": [
					{
						"Type": "RTID(iceage_dodo@ZombieTypes)"
					},
					{
						"Type": "RTID(iceage_troglobite_2block@ZombieTypes)"
					}
				]
			}
		},
		{
			"aliases": [
				"Wave4"
			],
			"objclass": "SpawnZombiesJitteredWaveActionProps",
			"objdata": {
				"AdditionalPlantfood": 1,
				"Zombies": [
					{
						"Type": "RTID(iceage_armor1@ZombieTypes)"
					},
					{
						"Type": "RTID(iceage_troglobite_2block@ZombieTypes)"
					}
				]
			}
		},
		{
			"aliases": [
				"Wave5"
			],
			"objclass": "SpawnZombiesJitteredWaveActionProps",
			"objdata": {
				"Zombies": [
					{
						"Type": "RTID(iceage_armor1@ZombieTypes)"
					}
				]
			}
		},
		{
			"aliases": [
				"Wave6"
			],
			"objclass": "SpawnZombiesJitteredWaveActionProps",
			"objdata": {
				"AdditionalPlantfood": 1,
				"Zombies": [
					{
						"Type": "RTID(iceage_armor1@ZombieTypes)"
					},
					{
						"Type": "RTID(iceage_troglobite_2block@ZombieTypes)"
					}
				]
			}
		},
		{
			"aliases": [
				"Wave7"
			],
			"objclass": "SpawnZombiesJitteredWaveActionProps",
			"objdata": {
				"Zombies": [
					{
						"Type": "RTID(iceage_armor1@ZombieTypes)"
					},
					{
						"Type": "RTID(iceage_troglobite_2block@ZombieTypes)"
					}
				]
			}
		},
		{
			"aliases": [
				"Wave8"
			],
			"objclass": "SpawnZombiesJitteredWaveActionProps",
			"objdata": {
				"AdditionalPlantfood": 1,
				"Zombies": [
					{
						"Type": "RTID(iceage_armor2@ZombieTypes)"
					},
					{
						"Type": "RTID(iceage_troglobite@ZombieTypes)"
					}
				]
			}
		},
		{
			"aliases": [
				"Wave9"
			],
			"objclass": "SpawnZombiesJitteredWaveActionProps",
			"objdata": {
				"Zombies": [
					{
						"Type": "RTID(iceage_armor1@ZombieTypes)"
					}
				]
			}
		},
		{
			"aliases": [
				"Wave10"
			],
			"objclass": "SpawnZombiesJitteredWaveActionProps",
			"objdata": {
				"Zombies": [
					{
						"Type": "RTID(iceage_armor2@ZombieTypes)"
					}
				]
			}
		},
		{
			"aliases": [
				"NewWaves"
			],
			"objclass": "WaveManagerModuleProperties",
			"objdata": {}
		},
		{
			"aliases": [
				"ConveyorBelt"
			],
			"objclass": "ConveyorSeedBankProperties",
			"objdata": {
				"DropDelayConditions": [
					{
						"Delay": 4,
						"MaxPackets": 0
					},
					{
						"Delay": 6,
						"MaxPackets": 2
					},
					{
						"Delay": 9,
						"MaxPackets": 4
					},
					{
						"Delay": 12,
						"MaxPackets": 8
					}
				],
				"InitialPlantList": [
					{
						"MaxCount": 10,
						"MaxWeightFactor": 0.25,
						"PlantType": "wasabiwhip",
						"Weight": 40
					}
				],
				"SpeedConditions": [
					{
						"MaxPackets": 0,
						"Speed": 100
					}
				]
			}
		},
		{
			"aliases": [
				"Wave4PortalsEvent0"
			],
			"objclass": "SpawnModernPortalsWaveActionProps",
			"objdata": {
				"PortalColumn": 5,
				"PortalRow": 4,
				"PortalType": "future_2",
				"SpawnEffectAnimID": "",
				"SpawnSoundID": ""
			}
		},
		{
			"aliases": [
				"Wave7PortalsEvent0"
			],
			"objclass": "SpawnModernPortalsWaveActionProps",
			"objdata": {
				"PortalColumn": 5,
				"PortalRow": 1,
				"PortalType": "future_2",
				"SpawnEffectAnimID": "",
				"SpawnSoundID": ""
			}
		},
		{
			"aliases": [
				"Wave9PortalsEvent0"
			],
			"objclass": "SpawnModernPortalsWaveActionProps",
			"objdata": {
				"PortalColumn": 5,
				"PortalRow": 3,
				"PortalType": "future_2",
				"SpawnEffectAnimID": "",
				"SpawnSoundID": ""
			}
		}
	],
	"version": 1
}