{
	"#comment": "Missile-toe LOD 308",
	"objects": [
		{
			"objclass": "LevelDefinition",
			"objdata": {
				"Description": "[PREMIUM_PLANT_QUEST_LOD_DESC]",
				"FirstIntroNarrative": "MISSILETOE_LOD",
				"Loot": "RTID(DefaultLoot@LevelModules)",
				"Modules": [
					"RTID(StandardIntro@LevelModules)",
					"RTID(LevelEscalationModule@CurrentLevel)",
					"RTID(FrontLawnMowers@LevelModules)",
					"RTID(NewWaves@CurrentLevel)",
					"RTID(DefaultZombieWinCondition@LevelModules)",
					"RTID(Gravestones@CurrentLevel)",
					"RTID(ConveyorBelt@CurrentLevel)",
					"RTID(ZombiesDeadWinCon@LevelModules)"
				],
				"Name": "[PREMIUM_PLANT_QUEST_LOD_NAME]",
				"NormalPresentTable": "egypt_normal_01",
				"ShinyPresentTable": "egypt_shiny_01",
				"ForceToWorldMap": true,
				"RepeatPlayForceToWorldMap": true,
				"StageModule": "RTID(FrontLawnStage@LevelModules)"
			}
		},
		{
			"aliases": [
				"LevelEscalationModule"
			],
			"objclass": "LevelEscalationModuleProperties",
			"objdata": {
				"FlagCount": 1,
				"PlantfoodToSpawnCount": 0,
				"PointIncrementPerWave": 175,
				"StartingPoints": 200,
				"WaveManagerProps": "RTID(WaveManagerProps@CurrentLevel)",
				"WavesPerFlag": 9,
				"ZombiePool": [
					"RTID(tutorial_armor2@ZombieTypes)",
					"RTID(poncho@ZombieTypes)"
				]
			}
		},
		{
			"aliases": [
				"ConveyorBelt"
			],
			"objclass": "ConveyorSeedBankProperties",
			"objdata": {
				"DropDelayConditions": [
					{
						"Delay": 3,
						"MaxPackets": 0
					},
					{
						"Delay": 6,
						"MaxPackets": 2
					},
					{
						"Delay": 9,
						"MaxPackets": 4
					},
					{
						"Delay": 12,
						"MaxPackets": 8
					}
				],
				"InitialPlantList": [
					{
						"MaxCount": 10,
						"MaxCountCooldownSeconds": 10,
						"MaxWeightFactor": 0,
						"PlantType": "garlic",
						"Weight": 10
					},
					{
						"MaxCount": 3,
						"MaxCountCooldownSeconds": 10,
						"MaxWeightFactor": 0.03,
						"MinCount": 1,
						"MinWeightFactor": 50,
						"PlantType": "missiletoe",
						"Weight": 40
					},
					{
						"PlantType": "stunion",
						"Weight": 10
					},
					{
						"MaxCount": 1,
						"MaxCountCooldownSeconds": 25,
						"MaxWeightFactor": 0.2,
						"MinCount": 1,
						"MinWeightFactor": 50,
						"PlantType": "wallnut",
						"Weight": 10
					}
				],
				"SpeedConditions": [
					{
						"MaxPackets": 0,
						"Speed": 100
					}
				]
			}
		},
		{
			"aliases": [
				"WaveManagerProps"
			],
			"objclass": "WaveManagerProperties",
			"objdata": {
				"FlagWaveInterval": 3,
				"MaxNextWaveHealthPercentage": 0.9,
				"MinNextWaveHealthPercentage": 0.8,
				"WaveCount": 9,
				"WaveSpendingPointIncrement": 300,
				"WaveSpendingPoints": 200,
				"Waves": [
					[
						"RTID(Wave1@CurrentLevel)"
					],
					[
						"RTID(Wave2@CurrentLevel)"
					],
					[
						"RTID(Wave3@CurrentLevel)"
					],
					[
						"RTID(Wave4@CurrentLevel)"
					],
					[
						"RTID(Wave5@CurrentLevel)"
					],
					[
						"RTID(Wave6@CurrentLevel)"
					],
					[
						"RTID(Wave7@CurrentLevel)"
					],
					[
						"RTID(Wave8@CurrentLevel)"
					],
					[
						"RTID(Wave9@CurrentLevel)"
					]
				]
			}
		},
		{
			"aliases": [
				"Wave1"
			],
			"objclass": "SpawnZombiesJitteredWaveActionProps",
			"objdata": {
				"AdditionalPlantfood": 1,
				"ZombieSpawnPattern": "ZombieSpawnerPatternStaggered",
				"Zombies": [
					{
						"Row": "5",
						"Type": "RTID(dark_imp@ZombieTypes)"
					},
					{
						"Row": "5",
						"Type": "RTID(tutorial@ZombieTypes)"
					},
					{
						"Row": "5",
						"Type": "RTID(tutorial@ZombieTypes)"
					}
				]
			}
		},
		{
			"aliases": [
				"Wave2"
			],
			"objclass": "SpawnZombiesJitteredWaveActionProps",
			"objdata": {
				"AdditionalPlantfood": 1,
				"ZombieSpawnPattern": "ZombieSpawnerPatternStaggered",
				"Zombies": [
					{
						"Row": "2",
						"Type": "RTID(tutorial@ZombieTypes)"
					},
					{
						"Row": "2",
						"Type": "RTID(tutorial_armor1@ZombieTypes)"
					},
					{
						"Row": "1",
						"Type": "RTID(tutorial_armor2@ZombieTypes)"
					},
					{
						"Row": "1",
						"Type": "RTID(tutorial_armor1@ZombieTypes)"
					},
					{
						"Row": "1",
						"Type": "RTID(tutorial_armor2@ZombieTypes)"
					},
					{
						"Row": "1",
						"Type": "RTID(camel_twohump@ZombieTypes)"
					}
				]
			}
		},
		{
			"aliases": [
				"Wave3"
			],
			"objclass": "SpawnZombiesJitteredWaveActionProps",
			"objdata": {
				"AdditionalPlantfood": 0,
				"ZombieSpawnPattern": "ZombieSpawnerPatternStaggered",
				"Zombies": [
					{
						"Row": "4",
						"Type": "RTID(dark_imp@ZombieTypes)"
					},
					{
						"Row": "4",
						"Type": "RTID(poncho@ZombieTypes)"
					},
					{
						"Row": "4",
						"Type": "RTID(poncho@ZombieTypes)"
					},
					{
						"Row": "1",
						"Type": "RTID(tutorial_armor1@ZombieTypes)"
					},
					{
						"Row": "1",
						"Type": "RTID(tutorial@ZombieTypes)"
					},
					{
						"Row": "1",
						"Type": "RTID(tutorial_armor1@ZombieTypes)"
					},
					{
						"Row": "1",
						"Type": "RTID(tutorial_armor2@ZombieTypes)"
					}
				]
			}
		},
		{
			"aliases": [
				"Wave4"
			],
			"objclass": "SpawnZombiesJitteredWaveActionProps",
			"objdata": {
				"AdditionalPlantfood": 1,
				"ZombieSpawnPattern": "ZombieSpawnerPatternStaggered",
				"Zombies": [
					{
						"Row": "2",
						"Type": "RTID(dark_imp@ZombieTypes)"
					},
					{
						"Row": "1",
						"Type": "RTID(tutorial_armor1@ZombieTypes)"
					},
					{
						"Row": "4",
						"Type": "RTID(tutorial_armor2@ZombieTypes)"
					},
					{
						"Row": "5",
						"Type": "RTID(tutorial_armor1@ZombieTypes)"
					},
					{
						"Row": "2",
						"Type": "RTID(tutorial_armor2@ZombieTypes)"
					},
					{
						"Row": "1",
						"Type": "RTID(tutorial@ZombieTypes)"
					},
					{
						"Row": "5",
						"Type": "RTID(tutorial_armor1@ZombieTypes)"
					},
					{
						"Row": "3",
						"Type": "RTID(poncho@ZombieTypes)"
					},
					{
						"Row": "4",
						"Type": "RTID(camel_twohump@ZombieTypes)"
					}
				]
			}
		},
		{
			"aliases": [
				"Wave5"
			],
			"objclass": "SpawnZombiesJitteredWaveActionProps",
			"objdata": {
				"AdditionalPlantfood": 0,
				"ZombieSpawnPattern": "ZombieSpawnerPatternStaggered",
				"Zombies": [
					{
						"Row": "4",
						"Type": "RTID(dark_imp@ZombieTypes)"
					},
					{
						"Row": "4",
						"Type": "RTID(poncho@ZombieTypes)"
					},
					{
						"Row": "3",
						"Type": "RTID(dark_imp@ZombieTypes)"
					},
					{
						"Row": "2",
						"Type": "RTID(tutorial_armor1@ZombieTypes)"
					},
					{
						"Row": "1",
						"Type": "RTID(tutorial_armor1@ZombieTypes)"
					},
					{
						"Row": "1",
						"Type": "RTID(tutorial_armor1@ZombieTypes)"
					}
				]
			}
		},
		{
			"aliases": [
				"Wave6"
			],
			"objclass": "SpawnZombiesJitteredWaveActionProps",
			"objdata": {
				"AdditionalPlantfood": 1,
				"ZombieSpawnPattern": "ZombieSpawnerPatternStaggered",
				"Zombies": [
					{
						"Row": "1",
						"Type": "RTID(poncho@ZombieTypes)"
					},
					{
						"Row": "1",
						"Type": "RTID(dark_imp@ZombieTypes)"
					},
					{
						"Row": "1",
						"Type": "RTID(camel_twohump@ZombieTypes)"
					},
					{
						"Row": "5",
						"Type": "RTID(tutorial_armor2@ZombieTypes)"
					},
					{
						"Row": "5",
						"Type": "RTID(poncho@ZombieTypes)"
					},
					{
						"Row": "5",
						"Type": "RTID(tutorial_armor2@ZombieTypes)"
					}
				]
			}
		},
		{
			"aliases": [
				"Wave7"
			],
			"objclass": "SpawnZombiesJitteredWaveActionProps",
			"objdata": {
				"AdditionalPlantfood": 0,
				"ZombieSpawnPattern": "ZombieSpawnerPatternStaggered",
				"Zombies": [
					{
						"Row": "4",
						"Type": "RTID(tutorial_armor1@ZombieTypes)"
					},
					{
						"Row": "4",
						"Type": "RTID(poncho@ZombieTypes)"
					},
					{
						"Row": "4",
						"Type": "RTID(tutorial_armor1@ZombieTypes)"
					},
					{
						"Row": "2",
						"Type": "RTID(poncho@ZombieTypes)"
					},
					{
						"Row": "2",
						"Type": "RTID(dark_imp@ZombieTypes)"
					},
					{
						"Row": "2",
						"Type": "RTID(camel_twohump@ZombieTypes)"
					}
				]
			}
		},
		{
			"aliases": [
				"Wave8"
			],
			"objclass": "SpawnZombiesJitteredWaveActionProps",
			"objdata": {
				"AdditionalPlantfood": 1,
				"ZombieSpawnPattern": "ZombieSpawnerPatternStaggered",
				"Zombies": [
					{
						"Row": "3",
						"Type": "RTID(tutorial_armor2@ZombieTypes)"
					},
					{
						"Row": "3",
						"Type": "RTID(tutorial_armor2@ZombieTypes)"
					},
					{
						"Row": "3",
						"Type": "RTID(tutorial_armor2@ZombieTypes)"
					},
					{
						"Row": "5",
						"Type": "RTID(tutorial_armor2@ZombieTypes)"
					},
					{
						"Row": "5",
						"Type": "RTID(tutorial_armor2@ZombieTypes)"
					},
					{
						"Row": "5",
						"Type": "RTID(camel_twohump@ZombieTypes)"
					},
					{
						"Row": "2",
						"Type": "RTID(tutorial_armor2@ZombieTypes)"
					},
					{
						"Row": "2",
						"Type": "RTID(tutorial_armor2@ZombieTypes)"
					},
					{
						"Row": "2",
						"Type": "RTID(tutorial_armor2@ZombieTypes)"
					}
				]
			}
		},
		{
			"aliases": [
				"Wave9"
			],
			"objclass": "SpawnZombiesJitteredWaveActionProps",
			"objdata": {
				"AdditionalPlantfood": 0,
				"ZombieSpawnPattern": "ZombieSpawnerPatternStaggered",
				"Zombies": [
					{
						"Type": "RTID(poncho@ZombieTypes)"
					},
					{
						"Type": "RTID(poncho@ZombieTypes)"
					},
					{
						"Row": "1",
						"Type": "RTID(tutorial_armor1@ZombieTypes)"
					},
					{
						"Row": "1",
						"Type": "RTID(poncho@ZombieTypes)"
					},
					{
						"Row": "4",
						"Type": "RTID(tutorial_armor1@ZombieTypes)"
					},
					{
						"Row": "4",
						"Type": "RTID(camel_twohump@ZombieTypes)"
					},
					{
						"Row": "1",
						"Type": "RTID(tutorial_armor1@ZombieTypes)"
					},
					{
						"Row": "5",
						"Type": "RTID(poncho@ZombieTypes)"
					},
					{
						"Row": "5",
						"Type": "RTID(poncho@ZombieTypes)"
					},
					{
						"Row": "2",
						"Type": "RTID(poncho@ZombieTypes)"
					},
					{
						"Row": "2",
						"Type": "RTID(camel_twohump@ZombieTypes)"
					},
					{
						"Row": "3",
						"Type": "RTID(tutorial_armor2@ZombieTypes)"
					},
					{
						"Row": "3",
						"Type": "RTID(poncho@ZombieTypes)"
					},
					{
						"Row": "3",
						"Type": "RTID(tutorial_armor2@ZombieTypes)"
					},
					{
						"Row": "3",
						"Type": "RTID(poncho@ZombieTypes)"
					},
					{
						"Row": "5",
						"Type": "RTID(dark_imp@ZombieTypes)"
					}
				]
			}
		},
		{
			"aliases": [
				"Gravestones"
			],
			"objclass": "GravestoneProperties",
			"objdata": {
				"ForceSpawnData": [
					{
						"GridX": 0,
						"GridY": 0
					},
					{
						"GridX": 1,
						"GridY": 0
					},
					{
						"GridX": 2,
						"GridY": 0
					},
					{
						"GridX": 3,
						"GridY": 0
					},
					{
						"GridX": 4,
						"GridY": 0
					},
					{
						"GridX": 5,
						"GridY": 0
					},
					{
						"GridX": 6,
						"GridY": 0
					},
					{
						"GridX": 7,
						"GridY": 0
					},
					{
						"GridX": 8,
						"GridY": 0
					},
					{
						"GridX": 1,
						"GridY": 1
					},
					{
						"GridX": 2,
						"GridY": 1
					},
					{
						"GridX": 3,
						"GridY": 1
					},
					{
						"GridX": 4,
						"GridY": 1
					},
					{
						"GridX": 5,
						"GridY": 1
					},
					{
						"GridX": 6,
						"GridY": 1
					},
					{
						"GridX": 7,
						"GridY": 1
					},
					{
						"GridX": 8,
						"GridY": 1
					},
					{
						"GridX": 2,
						"GridY": 2
					},
					{
						"GridX": 3,
						"GridY": 2
					},
					{
						"GridX": 4,
						"GridY": 2
					},
					{
						"GridX": 5,
						"GridY": 2
					},
					{
						"GridX": 6,
						"GridY": 2
					},
					{
						"GridX": 7,
						"GridY": 2
					},
					{
						"GridX": 8,
						"GridY": 2
					},
					{
						"GridX": 1,
						"GridY": 3
					},
					{
						"GridX": 2,
						"GridY": 3
					},
					{
						"GridX": 3,
						"GridY": 3
					},
					{
						"GridX": 4,
						"GridY": 3
					},
					{
						"GridX": 5,
						"GridY": 3
					},
					{
						"GridX": 6,
						"GridY": 3
					},
					{
						"GridX": 7,
						"GridY": 3
					},
					{
						"GridX": 8,
						"GridY": 3
					},
					{
						"GridX": 0,
						"GridY": 4
					},
					{
						"GridX": 1,
						"GridY": 4
					},
					{
						"GridX": 2,
						"GridY": 4
					},
					{
						"GridX": 3,
						"GridY": 4
					},
					{
						"GridX": 4,
						"GridY": 4
					},
					{
						"GridX": 5,
						"GridY": 4
					},
					{
						"GridX": 6,
						"GridY": 4
					},
					{
						"GridX": 7,
						"GridY": 4
					},
					{
						"GridX": 8,
						"GridY": 4
					}
				]
			}
		},
		{
			"aliases": [
				"NewWaves"
			],
			"objclass": "WaveManagerModuleProperties",
			"objdata": {}
		}
	],
	"version": 1
}