{
	"#comment": "Level Of The Day Test 3",
	"objects": [
		{
			"objclass": "LevelDefinition",
			"objdata": {
				"Description": "[PLAYERS_TRIP_TO_LOD]",
				"Loot": "RTID(DefaultLoot@LevelModules)",
				"RepeatPlayForceToWorldMap": true,
				"ForceToWorldMap": true,
				"Modules": [
					"RTID(StandardIntro@LevelModules)",
					"RTID(LevelEscalationModule@CurrentLevel)",
					"RTID(FrontLawnMowers@LevelModules)",
					"RTID(NewWaves@CurrentLevel)",
					"RTID(DefaultZombieWinCondition@LevelModules)",
					"RTID(ConveyorBelt@CurrentLevel)",
					"RTID(ZombiesDeadWinCon@LevelModules)"
				],
				"Name": "[LOD_LEVEL_NAME]",
				"NormalPresentTable": "egypt_normal_01",
				"ShinyPresentTable": "egypt_shiny_01",
				"StageModule": "RTID(FrontLawnStage@LevelModules)"
			}
		},
		{
			"aliases": [
				"LevelEscalationModule"
			],
			"objclass": "LevelEscalationModuleProperties",
			"objdata": {
				"FlagCount": 3,
				"PlantfoodToSpawnCount": 0,
				"PointIncrementPerWave": 350,
				"StartingPoints": 400,
				"WaveManagerProps": "RTID(WaveManagerProps@CurrentLevel)",
				"WavesPerFlag": 4,
				"ZombiePool": []
			}
		},
		{
			"aliases": [
				"WaveManagerProps"
			],
			"objclass": "WaveManagerProperties",
			"objdata": {
				"FlagWaveInterval": 4,
				"MaxNextWaveHealthPercentage": 0.9,
				"MinNextWaveHealthPercentage": 0.8,
				"WaveCount": 12,
				"Waves": [
					[
						"RTID(Wave1@CurrentLevel)"
					],
					[
						"RTID(Wave2@CurrentLevel)"
					],
					[
						"RTID(Wave3@CurrentLevel)"
					],
					[
						"RTID(Wave4@CurrentLevel)"
					],
					[
						"RTID(Wave5@CurrentLevel)"
					],
					[
						"RTID(Wave6@CurrentLevel)"
					],
					[
						"RTID(Wave7@CurrentLevel)"
					],
					[
						"RTID(Wave8@CurrentLevel)"
					],
					[
						"RTID(Wave9@CurrentLevel)"
					],
					[
						"RTID(Wave10@CurrentLevel)"
					],
					[
						"RTID(Wave11@CurrentLevel)"
					],
					[
						"RTID(Wave12@CurrentLevel)"
					]
				]
			}
		},
		{
			"aliases": [
				"Wave1"
			],
			"objclass": "SpawnZombiesJitteredWaveActionProps",
			"objdata": {
				"AdditionalPlantfood": 0,
				"Zombies": [
					{
						"Type": "RTID(tomb_raiser@ZombieTypes)"
					}
				]
			}
		},
		{
			"aliases": [
				"Wave2"
			],
			"objclass": "SpawnZombiesJitteredWaveActionProps",
			"objdata": {
				"AdditionalPlantfood": 0,
				"Zombies": [
					{
						"Type": "RTID(modern_newspaper@ZombieTypes)"
					}
				]
			}
		},
		{
			"aliases": [
				"Wave3"
			],
			"objclass": "SpawnZombiesJitteredWaveActionProps",
			"objdata": {
				"AdditionalPlantfood": 0,
				"Zombies": [
					{
						"Row": "1",
						"Type": "RTID(tomb_raiser@ZombieTypes)"
					},
					{
						"Row": "5",
						"Type": "RTID(modern_newspaper@ZombieTypes)"
					}
				]
			}
		},
		{
			"aliases": [
				"Wave4"
			],
			"objclass": "SpawnZombiesJitteredWaveActionProps",
			"objdata": {
				"AdditionalPlantfood": 0,
				"Zombies": [
					{
						"Type": "RTID(dark_armor3@ZombieTypes)"
					},
					{
						"Type": "RTID(tomb_raiser@ZombieTypes)"
					}
				]
			}
		},
		{
			"aliases": [
				"Wave5"
			],
			"objclass": "SpawnZombiesJitteredWaveActionProps",
			"objdata": {
				"AdditionalPlantfood": 1,
				"Zombies": [
					{
						"Row": "4",
						"Type": "RTID(tomb_raiser@ZombieTypes)"
					},
					{
						"Row": "2",
						"Type": "RTID(tomb_raiser@ZombieTypes)"
					}
				]
			}
		},
		{
			"aliases": [
				"Wave6"
			],
			"objclass": "SpawnZombiesJitteredWaveActionProps",
			"objdata": {
				"AdditionalPlantfood": 0,
				"Zombies": [
					{
						"Row": "3",
						"Type": "RTID(tomb_raiser@ZombieTypes)"
					},
					{
						"Row": "3",
						"Type": "RTID(dark_armor3@ZombieTypes)"
					}
				]
			}
		},
		{
			"aliases": [
				"Wave7"
			],
			"objclass": "SpawnZombiesJitteredWaveActionProps",
			"objdata": {
				"AdditionalPlantfood": 1,
				"Zombies": [
					{
						"Row": "5",
						"Type": "RTID(tomb_raiser@ZombieTypes)"
					},
					{
						"Row": "1",
						"Type": "RTID(tomb_raiser@ZombieTypes)"
					}
				]
			}
		},
		{
			"aliases": [
				"Wave8"
			],
			"objclass": "SpawnZombiesJitteredWaveActionProps",
			"objdata": {
				"AdditionalPlantfood": 0,
				"Zombies": [
					{
						"Row": "1",
						"Type": "RTID(chicken_farmer@ZombieTypes)"
					},
					{
						"Row": "2",
						"Type": "RTID(chicken_farmer@ZombieTypes)"
					},
					{
						"Row": "3",
						"Type": "RTID(dark_wizard@ZombieTypes)"
					},
					{
						"Row": "4",
						"Type": "RTID(chicken_farmer@ZombieTypes)"
					},
					{
						"Row": "5",
						"Type": "RTID(chicken_farmer@ZombieTypes)"
					}
				]
			}
		},
		{
			"aliases": [
				"Wave9"
			],
			"objclass": "SpawnZombiesJitteredWaveActionProps",
			"objdata": {
				"AdditionalPlantfood": 1,
				"Zombies": [
					{
						"Type": "RTID(tomb_raiser@ZombieTypes)"
					},
					{
						"Type": "RTID(dark_armor3@ZombieTypes)"
					},
					{
						"Type": "RTID(tomb_raiser@ZombieTypes)"
					},
					{
						"Type": "RTID(dark_armor3@ZombieTypes)"
					}
				]
			}
		},
		{
			"aliases": [
				"NewWaves"
			],
			"objclass": "WaveManagerModuleProperties",
			"objdata": {}
		},
		{
			"aliases": [
				"ConveyorBelt"
			],
			"objclass": "ConveyorSeedBankProperties",
			"objdata": {
				"DropDelayConditions": [
					{
						"Delay": 3,
						"MaxPackets": 0
					},
					{
						"Delay": 6,
						"MaxPackets": 2
					},
					{
						"Delay": 9,
						"MaxPackets": 4
					},
					{
						"Delay": 12,
						"MaxPackets": 8
					}
				],
				"InitialPlantList": [
					{
						"MaxCount": 5,
						"MaxWeightFactor": 0.05,
						"PlantType": "bowlingbulb",
						"Weight": 100
					},
					{
						"PlantType": "pvine",
						"Weight": 40
					},
					{
						"MaxCount": 5,
						"MaxWeightFactor": 0.05,
						"PlantType": "redstinger",
						"Weight": 100
					}
				],
				"SpeedConditions": [
					{
						"MaxPackets": 0,
						"Speed": 100
					}
				]
			}
		},
		{
			"aliases": [
				"Wave10"
			],
			"objclass": "SpawnZombiesJitteredWaveActionProps",
			"objdata": {
				"AdditionalPlantfood": 0,
				"Zombies": [
					{
						"Type": "RTID(chicken_farmer@ZombieTypes)"
					},
					{
						"Type": "RTID(chicken_farmer@ZombieTypes)"
					},
					{
						"Type": "RTID(chicken_farmer@ZombieTypes)"
					}
				]
			}
		},
		{
			"aliases": [
				"Wave11"
			],
			"objclass": "SpawnZombiesJitteredWaveActionProps",
			"objdata": {
				"AdditionalPlantfood": 1,
				"Zombies": [
					{
						"Type": "RTID(tomb_raiser@ZombieTypes)"
					},
					{
						"Type": "RTID(tomb_raiser@ZombieTypes)"
					},
					{
						"Type": "RTID(tomb_raiser@ZombieTypes)"
					},
					{
						"Type": "RTID(tomb_raiser@ZombieTypes)"
					},
					{
						"Type": "RTID(tomb_raiser@ZombieTypes)"
					}
				]
			}
		},
		{
			"aliases": [
				"Wave12"
			],
			"objclass": "SpawnZombiesJitteredWaveActionProps",
			"objdata": {
				"AdditionalPlantfood": 0,
				"Zombies": [
					{
						"Type": "RTID(dark_wizard@ZombieTypes)"
					},
					{
						"Type": "RTID(dark_wizard@ZombieTypes)"
					},
					{
						"Type": "RTID(tomb_raiser@ZombieTypes)"
					},
					{
						"Row": "3",
						"Type": "RTID(eighties_gargantuar@ZombieTypes)"
					},
					{
						"Row": "2",
						"Type": "RTID(chicken_farmer@ZombieTypes)"
					},
					{
						"Row": "4",
						"Type": "RTID(chicken_farmer@ZombieTypes)"
					},
					{
						"Row": "5",
						"Type": "RTID(chicken_farmer@ZombieTypes)"
					},
					{
						"Row": "1",
						"Type": "RTID(chicken_farmer@ZombieTypes)"
					}
				]
			}
		}
	],
	"version": 1
}