{
	"#comment": "Premium Quest - Sapfling",
	"objects": [
		{
			"objclass": "LevelDefinition",
			"objdata": {
				"Description": "[PREMIUM_PLANT_QUEST_LOD_DESC]",
				"DraperPromo": "sapfling",
				"ForceToWorldMap": true,
				"Loot": "RTID(DefaultLoot@LevelModules)",
				"Modules": [
					"RTID(StandardIntro@LevelModules)",
					"RTID(LevelEscalationModule@CurrentLevel)",
					"RTID(FrontLawnMowers@LevelModules)",
					"RTID(NewWaves@CurrentLevel)",
					"RTID(DefaultZombieWinCondition@LevelModules)",
					"RTID(Gravestones@CurrentLevel)",
					"RTID(ConveyorBelt@CurrentLevel)",
					"RTID(ZombiesDeadWinCon@LevelModules)"
				],
				"Name": "[PREMIUM_PLANT_QUEST_LOD_NAME]",
				"NormalPresentTable": "egypt_normal_01",
				"RepeatPlayForceToWorldMap": true,
				"ShinyPresentTable": "egypt_shiny_01",
				"StageModule": "RTID(FrontLawnStage@LevelModules)"
			}
		},
		{
			"aliases": [
				"WaveManagerProps"
			],
			"objclass": "WaveManagerProperties",
			"objdata": {
				"FlagWaveInterval": 5,
				"MaxNextWaveHealthPercentage": 0.9,
				"MinNextWaveHealthPercentage": 0.8,
				"WaveCount": 10,
				"Waves": [
					[
						"RTID(Wave1@CurrentLevel)",
						"RTID(Wave1ModConveyor0@CurrentLevel)"
					],
					[
						"RTID(Wave2@CurrentLevel)",
						"RTID(Wave2DinoTimeEvent0@CurrentLevel)"
					],
					[
						"RTID(Wave3@CurrentLevel)"
					],
					[
						"RTID(Wave4@CurrentLevel)",
						"RTID(Wave4DinoTimeEvent0@CurrentLevel)",
						"RTID(Wave4DinoTimeEvent1@CurrentLevel)"
					],
					[
						"RTID(Wave5@CurrentLevel)"
					],
					[
						"RTID(Wave6@CurrentLevel)",
						"RTID(Wave6DinoTimeEvent0@CurrentLevel)",
						"RTID(Wave6DinoTimeEvent1@CurrentLevel)",
						"RTID(Wave6DinoTimeEvent2@CurrentLevel)"
					],
					[
						"RTID(Wave7@CurrentLevel)"
					],
					[
						"RTID(Wave8@CurrentLevel)",
						"RTID(Wave8DinoTimeEvent0@CurrentLevel)",
						"RTID(Wave8DinoTimeEvent1@CurrentLevel)"
					],
					[
						"RTID(Wave9@CurrentLevel)",
						"RTID(Wave9DinoTimeEvent0@CurrentLevel)",
						"RTID(Wave9DinoTimeEvent1@CurrentLevel)",
						"RTID(Wave9DinoTimeEvent2@CurrentLevel)",
						"RTID(Wave9DinoTimeEvent3@CurrentLevel)",
						"RTID(Wave9DinoTimeEvent4@CurrentLevel)"
					],
					[
						"RTID(Wave10@CurrentLevel)",
						"RTID(Wave10DinoTimeEvent0@CurrentLevel)",
						"RTID(Wave10DinoTimeEvent1@CurrentLevel)",
						"RTID(Wave10DinoTimeEvent2@CurrentLevel)"
					]
				]
			}
		},
		{
			"aliases": [
				"Wave1"
			],
			"objclass": "SpawnZombiesJitteredWaveActionProps",
			"objdata": {
				"AdditionalPlantfood": 0,
				"Zombies": [
					{
						"Row": "1",
						"Type": "RTID(dino@ZombieTypes)"
					}
				]
			}
		},
		{
			"aliases": [
				"Wave2"
			],
			"objclass": "SpawnZombiesJitteredWaveActionProps",
			"objdata": {
				"AdditionalPlantfood": 1,
				"Zombies": [
					{
						"Row": "1",
						"Type": "RTID(dark_juggler@ZombieTypes)"
					},
					{
						"Row": "2",
						"Type": "RTID(dino@ZombieTypes)"
					},
					{
						"Row": "3",
						"Type": "RTID(dino_armor1@ZombieTypes)"
					},
					{
						"Row": "4",
						"Type": "RTID(dino_armor1@ZombieTypes)"
					},
					{
						"Row": "5",
						"Type": "RTID(dino_armor2@ZombieTypes)"
					}
				]
			}
		},
		{
			"aliases": [
				"Wave3"
			],
			"objclass": "SpawnZombiesJitteredWaveActionProps",
			"objdata": {
				"Zombies": [
					{
						"Type": "RTID(pirate_captain@ZombieTypes)"
					}
				]
			}
		},
		{
			"aliases": [
				"Wave4"
			],
			"objclass": "SpawnZombiesJitteredWaveActionProps",
			"objdata": {
				"Zombies": [
					{
						"Row": "1",
						"Type": "RTID(dino_armor2@ZombieTypes)"
					},
					{
						"Type": "RTID(dark_juggler@ZombieTypes)"
					},
					{
						"Row": "5",
						"Type": "RTID(dino_armor2@ZombieTypes)"
					}
				]
			}
		},
		{
			"aliases": [
				"Wave5"
			],
			"objclass": "SpawnZombiesJitteredWaveActionProps",
			"objdata": {
				"AdditionalPlantfood": 1,
				"Zombies": [
					{
						"Type": "RTID(dark_juggler@ZombieTypes)"
					},
					{
						"Type": "RTID(dark_juggler@ZombieTypes)"
					}
				]
			}
		},
		{
			"aliases": [
				"Wave6"
			],
			"objclass": "SpawnZombiesJitteredWaveActionProps",
			"objdata": {
				"AdditionalPlantfood": 0,
				"Zombies": [
					{
						"Row": "2",
						"Type": "RTID(dino_armor2@ZombieTypes)"
					},
					{
						"Row": "3",
						"Type": "RTID(dino_armor2@ZombieTypes)"
					},
					{
						"Row": "4",
						"Type": "RTID(dino_armor2@ZombieTypes)"
					},
					{
						"Type": "RTID(pirate_captain@ZombieTypes)"
					},
					{
						"Type": "RTID(pirate_captain@ZombieTypes)"
					}
				]
			}
		},
		{
			"aliases": [
				"Wave7"
			],
			"objclass": "SpawnZombiesJitteredWaveActionProps",
			"objdata": {
				"Zombies": [
					{
						"Type": "RTID(dark_juggler@ZombieTypes)"
					}
				]
			}
		},
		{
			"aliases": [
				"Wave8"
			],
			"objclass": "SpawnZombiesJitteredWaveActionProps",
			"objdata": {
				"AdditionalPlantfood": 1,
				"Zombies": [
					{
						"Type": "RTID(dark_juggler@ZombieTypes)"
					}
				]
			}
		},
		{
			"aliases": [
				"Wave9"
			],
			"objclass": "SpawnZombiesJitteredWaveActionProps",
			"objdata": {
				"Zombies": [
					{
						"Type": "RTID(pirate_captain@ZombieTypes)"
					},
					{
						"Type": "RTID(pirate_captain@ZombieTypes)"
					},
					{
						"Type": "RTID(pirate_captain@ZombieTypes)"
					}
				]
			}
		},
		{
			"aliases": [
				"LevelEscalationModule"
			],
			"objclass": "LevelEscalationModuleProperties",
			"objdata": {
				"FlagCount": 3,
				"PlantfoodToSpawnCount": 0,
				"PointIncrementPerWave": 150,
				"StartingPoints": 200,
				"WaveManagerProps": "RTID(WaveManagerProps@CurrentLevel)",
				"WavesPerFlag": 3,
				"ZombiePool": [
					"RTID(dino@ZombieTypes)",
					"RTID(dino_armor1@ZombieTypes)",
					"RTID(dino_armor2@ZombieTypes)"
				]
			}
		},
		{
			"aliases": [
				"Gravestones"
			],
			"objclass": "GravestoneProperties",
			"objdata": {
				"ForceSpawnData": [
					{
						"GridX": 8,
						"GridY": 2
					},
					{
						"GridX": 2,
						"GridY": 2
					},
					{
						"GridX": 4,
						"GridY": 2
					},
					{
						"GridX": 6,
						"GridY": 2
					}
				]
			}
		},
		{
			"aliases": [
				"NewWaves"
			],
			"objclass": "WaveManagerModuleProperties",
			"objdata": {}
		},
		{
			"aliases": [
				"ConveyorBelt"
			],
			"objclass": "ConveyorSeedBankProperties",
			"objdata": {
				"DropDelayConditions": [
					{
						"Delay": 3,
						"MaxPackets": 0
					},
					{
						"Delay": 6,
						"MaxPackets": 2
					},
					{
						"Delay": 9,
						"MaxPackets": 4
					},
					{
						"Delay": 12,
						"MaxPackets": 8
					}
				],
				"InitialPlantList": [
					{
						"PlantType": "pumpkin",
						"Weight": 20
					},
					{
						"PlantType": "splitpea",
						"Weight": 20
					}
				],
				"SpeedConditions": [
					{
						"MaxPackets": 0,
						"Speed": 100
					}
				]
			}
		},
		{
			"aliases": [
				"Wave10"
			],
			"objclass": "SpawnZombiesJitteredWaveActionProps",
			"objdata": {
				"AdditionalPlantfood": 1,
				"Zombies": [
					{
						"Row": "1",
						"Type": "RTID(dino_armor2@ZombieTypes)"
					},
					{
						"Type": "RTID(dark_juggler@ZombieTypes)"
					},
					{
						"Row": "3",
						"Type": "RTID(dino_armor2@ZombieTypes)"
					},
					{
						"Type": "RTID(pirate_captain@ZombieTypes)"
					},
					{
						"Type": "RTID(dark_juggler@ZombieTypes)"
					},
					{
						"Row": "5",
						"Type": "RTID(dino_armor2@ZombieTypes)"
					}
				]
			}
		},
		{
			"aliases": [
				"Wave2DinoTimeEvent0"
			],
			"objclass": "DinoWaveActionProps",
			"objdata": {
				"DinoRow": 0,
				"DinoType": "raptor",
				"DinoWaveDuration": "0"
			}
		},
		{
			"aliases": [
				"Wave4DinoTimeEvent0"
			],
			"objclass": "DinoWaveActionProps",
			"objdata": {
				"DinoRow": 4,
				"DinoType": "ptero",
				"DinoWaveDuration": "0"
			}
		},
		{
			"aliases": [
				"Wave6DinoTimeEvent0"
			],
			"objclass": "DinoWaveActionProps",
			"objdata": {
				"DinoRow": 1,
				"DinoType": "ptero",
				"DinoWaveDuration": "0"
			}
		},
		{
			"aliases": [
				"Wave6DinoTimeEvent1"
			],
			"objclass": "DinoWaveActionProps",
			"objdata": {
				"DinoRow": 2,
				"DinoType": "ptero",
				"DinoWaveDuration": "0"
			}
		},
		{
			"aliases": [
				"Wave6DinoTimeEvent2"
			],
			"objclass": "DinoWaveActionProps",
			"objdata": {
				"DinoRow": 3,
				"DinoType": "ptero",
				"DinoWaveDuration": "0"
			}
		},
		{
			"aliases": [
				"Wave8DinoTimeEvent0"
			],
			"objclass": "DinoWaveActionProps",
			"objdata": {
				"DinoRow": 0,
				"DinoType": "raptor",
				"DinoWaveDuration": "0"
			}
		},
		{
			"aliases": [
				"Wave8DinoTimeEvent1"
			],
			"objclass": "DinoWaveActionProps",
			"objdata": {
				"DinoRow": 4,
				"DinoType": "raptor",
				"DinoWaveDuration": 0
			}
		},
		{
			"aliases": [
				"Wave9DinoTimeEvent0"
			],
			"objclass": "DinoWaveActionProps",
			"objdata": {
				"DinoRow": 0,
				"DinoType": "raptor",
				"DinoWaveDuration": "0"
			}
		},
		{
			"aliases": [
				"Wave9DinoTimeEvent1"
			],
			"objclass": "DinoWaveActionProps",
			"objdata": {
				"DinoRow": 1,
				"DinoType": "raptor",
				"DinoWaveDuration": "0"
			}
		},
		{
			"aliases": [
				"Wave9DinoTimeEvent2"
			],
			"objclass": "DinoWaveActionProps",
			"objdata": {
				"DinoRow": 2,
				"DinoType": "raptor",
				"DinoWaveDuration": "0"
			}
		},
		{
			"aliases": [
				"Wave9DinoTimeEvent3"
			],
			"objclass": "DinoWaveActionProps",
			"objdata": {
				"DinoRow": 3,
				"DinoType": "raptor",
				"DinoWaveDuration": 0
			}
		},
		{
			"aliases": [
				"Wave9DinoTimeEvent4"
			],
			"objclass": "DinoWaveActionProps",
			"objdata": {
				"DinoRow": 4,
				"DinoType": "raptor",
				"DinoWaveDuration": "0"
			}
		},
		{
			"aliases": [
				"Wave1ModConveyor0"
			],
			"objclass": "ModifyConveyorWaveActionProps",
			"objdata": {
				"Add": [
					{
						"Type": "RTID(shadowshroom@PlantTypes)",
						"Weight": 10
					},
					{
						"Type": "RTID(spikerock@PlantTypes)",
						"Weight": 10
					}
				],
				"Remove": []
			}
		},
		{
			"aliases": [
				"Wave4DinoTimeEvent1"
			],
			"objclass": "DinoWaveActionProps",
			"objdata": {
				"DinoRow": 0,
				"DinoType": "ptero",
				"DinoWaveDuration": "0"
			}
		},
		{
			"aliases": [
				"Wave10DinoTimeEvent0"
			],
			"objclass": "DinoWaveActionProps",
			"objdata": {
				"DinoRow": 0,
				"DinoType": "ptero",
				"DinoWaveDuration": "0"
			}
		},
		{
			"aliases": [
				"Wave10DinoTimeEvent1"
			],
			"objclass": "DinoWaveActionProps",
			"objdata": {
				"DinoRow": 2,
				"DinoType": "ptero",
				"DinoWaveDuration": "0"
			}
		},
		{
			"aliases": [
				"Wave10DinoTimeEvent2"
			],
			"objclass": "DinoWaveActionProps",
			"objdata": {
				"DinoRow": 4,
				"DinoType": "ptero",
				"DinoWaveDuration": "0"
			}
		}
	],
	"version": 1
}