{
	"#comment": "LOD template level. Delete unnecessary Modules (e.g. Challenge, Frozen)",
	"objects": [
		{
			"objclass": "LevelDefinition",
			"objdata": {
				"Description": "[PREMIUM_PLANT_QUEST_LOD_DESC]",
				"Loot": "RTID(DefaultLoot@LevelModules)",
				"Modules": [
					"RTID(StandardIntro@LevelModules)",
					"RTID(LevelEscalationModule@CurrentLevel)",
					"RTID(FrontLawnMowers@LevelModules)",
					"RTID(NewWaves@CurrentLevel)",
					"RTID(DefaultZombieWinCondition@LevelModules)",
					"RTID(Gravestones@CurrentLevel)",
					"RTID(ConveyorBelt@CurrentLevel)",
					"RTID(ZombiesDeadWinCon@LevelModules)",
					"RTID(FrozenPlantPlacement@CurrentLevel)",
					"RTID(FrozenZombiePlacement@CurrentLevel)"
				],
				"Name": "[PREMIUM_PLANT_QUEST_LOD_NAME]",
				"NormalPresentTable": "egypt_normal_01",
				"ShinyPresentTable": "egypt_shiny_01",
				"ForceToWorldMap": true,
				"RepeatPlayForceToWorldMap": true,
				"StageModule": "RTID(FrontLawnStage@LevelModules)"
			}
		},
		{
			"aliases": [
				"FrozenPlantPlacement"
			],
			"objclass": "InitialPlantProperties",
			"objdata": {}
		},
		{
			"aliases": [
				"FrozenZombiePlacement"
			],
			"objclass": "InitialZombieProperties",
			"objdata": {
				"InitialZombiePlacements": [
					{
						"Condition": "icecubed",
						"GridX": 6,
						"GridY": 0,
						"TypeName": "beach_octopus"
					},
					{
						"Condition": "icecubed",
						"GridX": 6,
						"GridY": 1,
						"TypeName": "beach_octopus"
					},
					{
						"Condition": "icecubed",
						"GridX": 6,
						"GridY": 2,
						"TypeName": "beach_octopus"
					},
					{
						"Condition": "icecubed",
						"GridX": 6,
						"GridY": 3,
						"TypeName": "beach_octopus"
					},
					{
						"Condition": "icecubed",
						"GridX": 6,
						"GridY": 4,
						"TypeName": "beach_octopus"
					}
				]
			}
		},
		{
			"aliases": [
				"LevelEscalationModule"
			],
			"objclass": "LevelEscalationModuleProperties",
			"objdata": {
				"FlagCount": 3,
				"PlantfoodToSpawnCount": 3,
				"PointIncrementPerWave": 0,
				"StartingPoints": 0,
				"WaveManagerProps": "RTID(WaveManagerProps@CurrentLevel)",
				"WavesPerFlag": 3,
				"ZombiePool": [
					"RTID(mummy_armor1@ZombieTypes)",
					"RTID(mummy@ZombieTypes)",
					"RTID(mummy_armor2@ZombieTypes)"
				]
			}
		},
		{
			"aliases": [
				"WaveManagerProps"
			],
			"objclass": "WaveManagerProperties",
			"objdata": {
				"FlagWaveInterval": 5,
				"MaxNextWaveHealthPercentage": 0.9,
				"MinNextWaveHealthPercentage": 0.8,
				"WaveCount": 10,
				"Waves": [
					[
						"RTID(Wave1@CurrentLevel)",
						"RTID(Wave1ModConveyor0@CurrentLevel)"
					],
					[
						"RTID(Wave2@CurrentLevel)"
					],
					[
						"RTID(Wave3@CurrentLevel)"
					],
					[
						"RTID(Wave4@CurrentLevel)"
					],
					[
						"RTID(Wave5@CurrentLevel)"
					],
					[
						"RTID(Wave6@CurrentLevel)"
					],
					[
						"RTID(Wave7@CurrentLevel)"
					],
					[
						"RTID(Wave8@CurrentLevel)"
					],
					[
						"RTID(Wave9@CurrentLevel)"
					],
					[
						"RTID(Wave10@CurrentLevel)",
						"RTID(Wave10ModConveyor0@CurrentLevel)"
					]
				]
			}
		},
		{
			"aliases": [
				"Wave1"
			],
			"objclass": "SpawnZombiesJitteredWaveActionProps",
			"objdata": {
				"Zombies": [
					{
						"Row": "3",
						"Type": "RTID(beach_octopus@ZombieTypes)"
					}
				]
			}
		},
		{
			"aliases": [
				"Wave2"
			],
			"objclass": "SpawnZombiesJitteredWaveActionProps",
			"objdata": {
				"Zombies": [
					{
						"Row": "2",
						"Type": "RTID(dark_wizard@ZombieTypes)"
					},
					{
						"Row": "4",
						"Type": "RTID(dark_wizard@ZombieTypes)"
					}
				]
			}
		},
		{
			"aliases": [
				"Wave3"
			],
			"objclass": "SpawnZombiesJitteredWaveActionProps",
			"objdata": {
				"AdditionalPlantfood": 1,
				"Zombies": [
					{
						"Row": "1",
						"Type": "RTID(beach_octopus@ZombieTypes)"
					},
					{
						"Row": "5",
						"Type": "RTID(beach_octopus@ZombieTypes)"
					}
				]
			}
		},
		{
			"aliases": [
				"Wave4"
			],
			"objclass": "SpawnZombiesJitteredWaveActionProps",
			"objdata": {
				"Zombies": [
					{
						"Row": "1",
						"Type": "RTID(dark_wizard@ZombieTypes)"
					},
					{
						"Row": "5",
						"Type": "RTID(dark_wizard@ZombieTypes)"
					}
				]
			}
		},
		{
			"aliases": [
				"Wave5"
			],
			"objclass": "SpawnZombiesJitteredWaveActionProps",
			"objdata": {
				"Zombies": [
					{
						"Row": "2",
						"Type": "RTID(beach_octopus@ZombieTypes)"
					},
					{
						"Row": "4",
						"Type": "RTID(beach_octopus@ZombieTypes)"
					}
				]
			}
		},
		{
			"aliases": [
				"Wave6"
			],
			"objclass": "SpawnZombiesJitteredWaveActionProps",
			"objdata": {
				"AdditionalPlantfood": 1,
				"Zombies": [
					{
						"Row": "1",
						"Type": "RTID(dark_wizard@ZombieTypes)"
					},
					{
						"Row": "1",
						"Type": "RTID(beach_octopus@ZombieTypes)"
					},
					{
						"Row": "3",
						"Type": "RTID(dark_wizard@ZombieTypes)"
					},
					{
						"Row": "5",
						"Type": "RTID(dark_wizard@ZombieTypes)"
					},
					{
						"Row": "5",
						"Type": "RTID(beach_octopus@ZombieTypes)"
					}
				]
			}
		},
		{
			"aliases": [
				"Wave7"
			],
			"objclass": "SpawnZombiesJitteredWaveActionProps",
			"objdata": {
				"Zombies": [
					{
						"Row": "1",
						"Type": "RTID(dark_wizard@ZombieTypes)"
					},
					{
						"Row": "2",
						"Type": "RTID(dark_wizard@ZombieTypes)"
					},
					{
						"Row": "4",
						"Type": "RTID(treasureyeti@ZombieTypes)"
					},
					{
						"Row": "5",
						"Type": "RTID(dark_wizard@ZombieTypes)"
					}
				]
			}
		},
		{
			"aliases": [
				"Wave8"
			],
			"objclass": "SpawnZombiesJitteredWaveActionProps",
			"objdata": {
				"Zombies": [
					{
						"Row": "3",
						"Type": "RTID(beach_octopus@ZombieTypes)"
					}
				]
			}
		},
		{
			"aliases": [
				"Wave9"
			],
			"objclass": "SpawnZombiesJitteredWaveActionProps",
			"objdata": {
				"AdditionalPlantfood": 1,
				"Zombies": [
					{
						"Row": "1",
						"Type": "RTID(beach_octopus@ZombieTypes)"
					},
					{
						"Row": "2",
						"Type": "RTID(dark_wizard@ZombieTypes)"
					},
					{
						"Row": "3",
						"Type": "RTID(beach_octopus@ZombieTypes)"
					},
					{
						"Row": "4",
						"Type": "RTID(dark_wizard@ZombieTypes)"
					},
					{
						"Row": "5",
						"Type": "RTID(beach_octopus@ZombieTypes)"
					}
				]
			}
		},
		{
			"aliases": [
				"Gravestones"
			],
			"objclass": "GravestoneProperties",
			"objdata": {}
		},
		{
			"aliases": [
				"NewWaves"
			],
			"objclass": "WaveManagerModuleProperties",
			"objdata": {}
		},
		{
			"aliases": [
				"ConveyorBelt"
			],
			"objclass": "ConveyorSeedBankProperties",
			"objdata": {
				"DropDelayConditions": [
					{
						"Delay": 3,
						"MaxPackets": 0
					},
					{
						"Delay": 6,
						"MaxPackets": 2
					},
					{
						"Delay": 9,
						"MaxPackets": 4
					},
					{
						"Delay": 12,
						"MaxPackets": 8
					}
				],
				"InitialPlantList": [
					{
						"PlantType": "powerlily",
						"Weight": 10
					},
					{
						"PlantType": "primalpotatomine",
						"Weight": 50
					},
					{
						"PlantType": "sporeshroom",
						"Weight": 100
					}
				],
				"SpeedConditions": [
					{
						"MaxPackets": 0,
						"Speed": 100
					}
				]
			}
		},
		{
			"aliases": [
				"Wave10"
			],
			"objclass": "SpawnZombiesJitteredWaveActionProps",
			"objdata": {
				"Zombies": [
					{
						"Row": "1",
						"Type": "RTID(dark_wizard@ZombieTypes)"
					},
					{
						"Row": "2",
						"Type": "RTID(dark_wizard@ZombieTypes)"
					},
					{
						"Row": "3",
						"Type": "RTID(dark_wizard@ZombieTypes)"
					},
					{
						"Row": "4",
						"Type": "RTID(dark_wizard@ZombieTypes)"
					},
					{
						"Row": "5",
						"Type": "RTID(dark_wizard@ZombieTypes)"
					},
					{
						"Row": "1",
						"Type": "RTID(beach_octopus@ZombieTypes)"
					},
					{
						"Row": "2",
						"Type": "RTID(beach_octopus@ZombieTypes)"
					},
					{
						"Row": "3",
						"Type": "RTID(beach_octopus@ZombieTypes)"
					},
					{
						"Row": "4",
						"Type": "RTID(beach_octopus@ZombieTypes)"
					},
					{
						"Row": "5",
						"Type": "RTID(beach_octopus@ZombieTypes)"
					}
				]
			}
		},
		{
			"aliases": [
				"Wave10ModConveyor0"
			],
			"objclass": "ModifyConveyorWaveActionProps",
			"objdata": {
				"Add": [],
				"Remove": [
					{
						"Type": "RTID(guacodile@PlantTypes)"
					}
				]
			}
		},
		{
			"aliases": [
				"Wave1ModConveyor0"
			],
			"objclass": "ModifyConveyorWaveActionProps",
			"objdata": {
				"Add": [
					{
						"MaxCount": 5,
						"MaxCountCooldownSeconds": 20,
						"Type": "RTID(citron@PlantTypes)",
						"Weight": 100
					}
				],
				"Remove": []
			}
		}
	],
	"version": 1
}