{
	"#comment": "Scoring Playtest - Right Gradient - No Quickstart",
	"objects": [
		{
			"objclass": "LevelDefinition",
			"objdata": {
				"Description": "",
				"DisablePlantBoosts": true,
				"GridItemLevel": 1,
				"LevelNumber": 1,
				"LevelPowerupSet": "LevelPowerupsDisabled",
				"Loot": "RTID(NoLoot@LevelModules)",
				"LossModule": "RTID(JoustOutro@LevelModules)",
				"Modules": [
					"RTID(DefaultSunDropper@LevelModules)",
					"RTID(ZombiesDeadWinCon@LevelModules)",
					"RTID(JoustDarkMowers@LevelModules)",
					"RTID(SeedBank@CurrentLevel)",
					"RTID(JoustZombieWinCondition@LevelModules)",
					"RTID(NewWaves@CurrentLevel)",
					"RTID(LevelScoring@CurrentLevel)",
					"RTID(ScoreTiles@CurrentLevel)",
					"RTID(ChallengeModule@CurrentLevel)",
					"RTID(LastStand@CurrentLevel)",
					"RTID(LevelDifficultyScaling@CurrentLevel)",
					"RTID(JoustModule@CurrentLevel)",
					"RTID(JoustPointOfLoss@LevelModules)",
					"RTID(ZombieResistances@CurrentLevel)",
					"RTID(Boosterama@LevelModules)"
				],
				"Name": "",
				"NormalPresentTable": "dark_normal_01",
				"ShinyPresentTable": "dark_shiny_01",
				"StageModule": "RTID(JoustStage@LevelModules)",
				"SuppressAccountUpgrades": true,
				"SuppressDynamicTutorial": true,
				"SuppressPlantfoodPurchase": true,
				"VictoryModule": "RTID(JoustOutro@LevelModules)"
			}
		},
		{
			"aliases": [
				"SeedBank"
			],
			"objclass": "SeedBankProperties",
			"objdata": {
				"PlantExcludeList": [
					"blover"
				],
				"PresetPlantList": [
					{
						"Level": -1,
						"PlantType": "witchhazel"
					}
				],
				"SelectionMethod": "chooser"
			}
		},
		{
			"aliases": [
				"ZombieResistances"
			],
			"objclass": "ZombieResistancesModuleProperties",
			"objdata": {
				"FamilyResistances": {
					"global": [
						{
							"#comment": "200% damage and condition",
							"FamilyType": "bombardmint",
							"DamageResistance": 2.0,
							"ConditionResistance": 2.0
						},
						{
							"#comment": "half damage, half condition",
							"FamilyType": "spearmint",
							"DamageResistance": 0.5,
							"ConditionResistance": 0.5
						}
					]
				}
			}
		},
		{
			"aliases": [
				"JoustModule"
			],
			"objclass": "JoustGameModuleProperties",
			"objdata": {
				"LeagueModifiers": [
					{
						"AddTimeLimit": 0,
						"AddZombieLevel": 0,
						"LeagueThreshold": 1
					},
					{
						"AddTimeLimit": 0,
						"AddZombieLevel": 1,
						"LeagueThreshold": 2
					},
					{
						"AddTimeLimit": 0,
						"AddZombieLevel": 2,
						"LeagueThreshold": 3
					},
					{
						"AddTimeLimit": 0,
						"AddZombieLevel": 3,
						"LeagueThreshold": 4
					},
					{
						"AddTimeLimit": 0,
						"AddZombieLevel": 4,
						"LeagueThreshold": 5
					},
					{
						"AddTimeLimit": 0,
						"AddZombieLevel": 5,
						"LeagueThreshold": 6
					},
					{
						"AddTimeLimit": 0,
						"AddZombieLevel": 6,
						"LeagueThreshold": 7
					},
					{
						"AddTimeLimit": 0,
						"AddZombieLevel": 7,
						"LeagueThreshold": 8
					},
					{
						"AddTimeLimit": 0,
						"AddZombieLevel": 8,
						"LeagueThreshold": 9
					}
				],
				"TimeLimit": 180,
				"LevelLoadouts": {
					"Loadouts": [
						[
							{
								"PlantType": "witchhazel",
								"PlantLevel": 0,
								"IsImitater": false
							},
							{
								"PlantType": "powerplant",
								"PlantLevel": 0,
								"IsImitater": false
							},
							{
								"PlantType": "primalsunflower",
								"PlantLevel": 0,
								"IsImitater": false
							},
							{
								"PlantType": "powerlily",
								"PlantLevel": 0,
								"IsImitater": false
							},
							{
								"PlantType": "primalpotatomine",
								"PlantLevel": 0,
								"IsImitater": false
							},
							{
								"PlantType": "goldbloom",
								"PlantLevel": 0,
								"IsImitater": false
							}
						],
						[
							{
								"PlantType": "witchhazel",
								"PlantLevel": 0,
								"IsImitater": false
							},
							{
								"PlantType": "shadowpeashooter",
								"PlantLevel": 0,
								"IsImitater": false
							},
							{
								"PlantType": "moonflower",
								"PlantLevel": 0,
								"IsImitater": false
							},
							{
								"PlantType": "goldbloom",
								"PlantLevel": 0,
								"IsImitater": false
							},
							{
								"PlantType": "dusklobber",
								"PlantLevel": 0,
								"IsImitater": false
							},
							{
								"PlantType": "explodeonut",
								"PlantLevel": 0,
								"IsImitater": false
							}
						],
						[
							{
								"PlantType": "witchhazel",
								"PlantLevel": 0,
								"IsImitater": false
							},
							{
								"PlantType": "primalsunflower",
								"PlantLevel": 0,
								"IsImitater": false
							},
							{
								"PlantType": "sapfling",
								"PlantLevel": 0,
								"IsImitater": false
							},
							{
								"PlantType": "explodeonut",
								"PlantLevel": 0,
								"IsImitater": false
							},
							{
								"PlantType": "applemortar",
								"PlantLevel": 0,
								"IsImitater": false
							},
							{
								"PlantType": "bowlingbulb",
								"PlantLevel": 0,
								"IsImitater": false
							}
						]
					]
				}
			}
		},
		{
			"aliases": [
				"LevelDifficultyScaling"
			],
			"objclass": "LevelDifficultyScalingModuleProperties",
			"objdata": {
				"DifficultyRulesType": "DifficultyTestHighDecay"
			}
		},
		{
			"aliases": [
				"ChallengeModule"
			],
			"objclass": "StarChallengeModuleProperties",
			"objdata": {
				"Challenges": [
					[
						"RTID(BeatTheLevel@CurrentLevel)",
						"RTID(ReachTheScore@CurrentLevel)"
					]
				],
				"ChallengesAlwaysAvailable": true
			}
		},
		{
			"aliases": [
				"ReachTheScore"
			],
			"objclass": "StarChallengeTargetScoreProps",
			"objdata": {
				"Description": "[STARCHALLENGE_TARGET_SCORE]",
				"DescriptionFailure": "[STARCHALLENGE_TARGET_SCORE_FAILURE]",
				"DescriptiveName": "[STARCHALLENGE_TARGET_SCORE_NAME]",
				"TargetScore": 1000
			}
		},
		{
			"aliases": [
				"BeatTheLevel"
			],
			"objclass": "StarChallengeBeatTheLevelProps",
			"objdata": {
				"Description": "[STARCHALLENGE_LASTSTAND_MINIGAME]",
				"DescriptiveName": "[STARCHALLENGE_LASTSTAND_MINIGAME_NAME]"
			}
		},
		{
			"aliases": [
				"BeatTheLevel"
			],
			"objclass": "StarChallengeBeatTheLevelProps",
			"objdata": {
				"Description": "[STARCHALLENGE_EVILSHROOMS]",
				"DescriptiveName": "[STARCHALLENGE_EVILSHROOMS_NAME]"
			}
		},
		{
			"aliases": [
				"LastStand"
			],
			"objclass": "LastStandMinigameProperties",
			"objdata": {
				"StartingPlantfood": 3,
				"StartingSun": 500
			}
		},
		{
			"aliases": [
				"LevelScoring"
			],
			"objclass": "LevelScoringModuleProperties",
			"objdata": {
				"PlantBonusMultiplier": 0.1,
				"PlantBonuses": [],
				"ScoringRulesType": "Battlez",
				"StartingPlantfood": 3
			}
		},
		{
			"aliases": [
				"ScoreTiles"
			],
			"objclass": "InitialGridItemProperties",
			"objdata": {
				"InitialGridItemPlacements": [
					{
						"GridX": 8,
						"GridY": 0,
						"TypeName": "score_5x_tile"
					},
					{
						"GridX": 8,
						"GridY": 1,
						"TypeName": "score_5x_tile"
					},
					{
						"GridX": 8,
						"GridY": 2,
						"TypeName": "score_5x_tile"
					},
					{
						"GridX": 8,
						"GridY": 3,
						"TypeName": "score_5x_tile"
					},
					{
						"GridX": 8,
						"GridY": 4,
						"TypeName": "score_5x_tile"
					},
					{
						"GridX": 7,
						"GridY": 0,
						"TypeName": "score_5x_tile"
					},
					{
						"GridX": 7,
						"GridY": 1,
						"TypeName": "score_5x_tile"
					},
					{
						"GridX": 7,
						"GridY": 2,
						"TypeName": "score_5x_tile"
					},
					{
						"GridX": 7,
						"GridY": 3,
						"TypeName": "score_5x_tile"
					},
					{
						"GridX": 7,
						"GridY": 4,
						"TypeName": "score_5x_tile"
					},
					{
						"GridX": 6,
						"GridY": 0,
						"TypeName": "score_3x_tile"
					},
					{
						"GridX": 6,
						"GridY": 1,
						"TypeName": "score_3x_tile"
					},
					{
						"GridX": 6,
						"GridY": 2,
						"TypeName": "score_3x_tile"
					},
					{
						"GridX": 6,
						"GridY": 3,
						"TypeName": "score_3x_tile"
					},
					{
						"GridX": 6,
						"GridY": 4,
						"TypeName": "score_3x_tile"
					},
					{
						"GridX": 5,
						"GridY": 0,
						"TypeName": "score_3x_tile"
					},
					{
						"GridX": 5,
						"GridY": 1,
						"TypeName": "score_3x_tile"
					},
					{
						"GridX": 5,
						"GridY": 2,
						"TypeName": "score_3x_tile"
					},
					{
						"GridX": 5,
						"GridY": 3,
						"TypeName": "score_3x_tile"
					},
					{
						"GridX": 5,
						"GridY": 4,
						"TypeName": "score_3x_tile"
					},
					{
						"GridX": 4,
						"GridY": 0,
						"TypeName": "score_2x_tile"
					},
					{
						"GridX": 4,
						"GridY": 1,
						"TypeName": "score_2x_tile"
					},
					{
						"GridX": 4,
						"GridY": 2,
						"TypeName": "score_2x_tile"
					},
					{
						"GridX": 4,
						"GridY": 3,
						"TypeName": "score_2x_tile"
					},
					{
						"GridX": 4,
						"GridY": 4,
						"TypeName": "score_2x_tile"
					},
					{
						"GridX": 3,
						"GridY": 0,
						"TypeName": "score_2x_tile"
					},
					{
						"GridX": 3,
						"GridY": 1,
						"TypeName": "score_2x_tile"
					},
					{
						"GridX": 3,
						"GridY": 2,
						"TypeName": "score_2x_tile"
					},
					{
						"GridX": 3,
						"GridY": 3,
						"TypeName": "score_2x_tile"
					},
					{
						"GridX": 3,
						"GridY": 4,
						"TypeName": "score_2x_tile"
					}
				]
			}
		},
		{
			"aliases": [
				"NewWaves"
			],
			"objclass": "WaveManagerModuleProperties",
			"objdata": {
				"DynamicZombies": [
					{
						"PointIncrementPerWave": -1,
						"StartingPoints": -1,
						"StartingWave": 1,
						"ZombiePool": [
							"RTID(foodfight_armor2@ZombieTypes)",
							"RTID(cowboy_armor4@ZombieTypes)",
							"RTID(dino_armor4@ZombieTypes)",
							"RTID(future_armor4@ZombieTypes)",
							"RTID(iceage_armor3@ZombieTypes)",
							"RTID(mummy_armor4@ZombieTypes)",
							"RTID(pirate_armor4@ZombieTypes)",
							"RTID(tutorial_armor4@ZombieTypes)"
						]
					},
					{
						"PointIncrementPerWave": -1,
						"StartingPoints": -1,
						"StartingWave": 1,
						"ZombiePool": [
							"RTID(foodfight_armor2@ZombieTypes)",
							"RTID(cowboy_armor4@ZombieTypes)",
							"RTID(dino_armor4@ZombieTypes)",
							"RTID(future_armor4@ZombieTypes)",
							"RTID(iceage_armor3@ZombieTypes)",
							"RTID(mummy_armor4@ZombieTypes)",
							"RTID(pirate_armor4@ZombieTypes)",
							"RTID(tutorial_armor4@ZombieTypes)"
						]
					},
					{
						"PointIncrementPerWave": -1,
						"StartingPoints": -1,
						"StartingWave": 1,
						"ZombiePool": [
							"RTID(foodfight_armor2@ZombieTypes)",
							"RTID(cowboy_armor4@ZombieTypes)",
							"RTID(dino_armor4@ZombieTypes)",
							"RTID(future_armor4@ZombieTypes)",
							"RTID(iceage_armor3@ZombieTypes)",
							"RTID(mummy_armor4@ZombieTypes)",
							"RTID(pirate_armor4@ZombieTypes)",
							"RTID(tutorial_armor4@ZombieTypes)"
						]
					},
					{
						"PointIncrementPerWave": 250,
						"StartingPoints": 175,
						"StartingWave": 1,
						"ZombiePool": [
							"RTID(foodfight_armor2@ZombieTypes)",
							"RTID(cowboy_armor4@ZombieTypes)",
							"RTID(dino_armor4@ZombieTypes)",
							"RTID(future_armor4@ZombieTypes)",
							"RTID(iceage_armor3@ZombieTypes)",
							"RTID(mummy_armor4@ZombieTypes)",
							"RTID(pirate_armor4@ZombieTypes)",
							"RTID(tutorial_armor4@ZombieTypes)"
						]
					},
					{
						"PointIncrementPerWave": 1,
						"StartingPoints": 1,
						"StartingWave": 1,
						"ZombiePool": [
							"RTID(foodfight_armor2@ZombieTypes)",
							"RTID(cowboy_armor4@ZombieTypes)",
							"RTID(dino_armor4@ZombieTypes)",
							"RTID(future_armor4@ZombieTypes)",
							"RTID(iceage_armor3@ZombieTypes)",
							"RTID(mummy_armor4@ZombieTypes)",
							"RTID(pirate_armor4@ZombieTypes)",
							"RTID(tutorial_armor4@ZombieTypes)"
						]
					},
					{
						"PointIncrementPerWave": 1,
						"StartingPoints": 1,
						"StartingWave": 1,
						"ZombiePool": [
							"RTID(foodfight_armor2@ZombieTypes)",
							"RTID(cowboy_armor4@ZombieTypes)",
							"RTID(dino_armor4@ZombieTypes)",
							"RTID(future_armor4@ZombieTypes)",
							"RTID(iceage_armor3@ZombieTypes)",
							"RTID(mummy_armor4@ZombieTypes)",
							"RTID(pirate_armor4@ZombieTypes)",
							"RTID(tutorial_armor4@ZombieTypes)"
						]
					},
					{
						"PointIncrementPerWave": 1,
						"StartingPoints": 1,
						"StartingWave": 1,
						"ZombiePool": [
							"RTID(foodfight_armor2@ZombieTypes)",
							"RTID(cowboy_armor4@ZombieTypes)",
							"RTID(dino_armor4@ZombieTypes)",
							"RTID(future_armor4@ZombieTypes)",
							"RTID(iceage_armor3@ZombieTypes)",
							"RTID(mummy_armor4@ZombieTypes)",
							"RTID(pirate_armor4@ZombieTypes)",
							"RTID(tutorial_armor4@ZombieTypes)"
						]
					}
				],
				"WaveManagerProps": "RTID(WaveManagerProps@CurrentLevel)"
			}
		},
		{
			"aliases": [
				"WaveManagerProps"
			],
			"objclass": "WaveManagerProperties",
			"objdata": {
				"FlagWaveInterval": 12,
				"WaveCount": 36,
				"WaveSpendingPointIncrement": 150,
				"WaveSpendingPoints": 0,
				"Waves": [
					[
						"RTID(Wave1@CurrentLevel)"
					],
					[
						"RTID(Wave2@CurrentLevel)"
					],
					[
						"RTID(Wave3@CurrentLevel)"
					],
					[
						"RTID(Wave4@CurrentLevel)"
					],
					[
						"RTID(Wave5@CurrentLevel)"
					],
					[
						"RTID(Wave6@CurrentLevel)"
					],
					[
						"RTID(Wave7@CurrentLevel)"
					],
					[
						"RTID(Wave8@CurrentLevel)",
						"RTID(Wave8StormEvent0@CurrentLevel)"
					],
					[
						"RTID(Wave9@CurrentLevel)"
					],
					[
						"RTID(Wave10@CurrentLevel)",
						"RTID(Wave10HamsterStormEvent@CurrentLevel)"
					],
					[
						"RTID(Wave11@CurrentLevel)"
					],
					[
						"RTID(Wave12@CurrentLevel)"
					],
					[
						"RTID(Wave13@CurrentLevel)"
					],
					[
						"RTID(Wave14@CurrentLevel)",
						"RTID(Wave14StormEvent0@CurrentLevel)"
					],
					[
						"RTID(Wave15@CurrentLevel)"
					],
					[
						"RTID(Wave16@CurrentLevel)",
						"RTID(Wave16HamsterStormEvent@CurrentLevel)"
					],
					[
						"RTID(Wave17@CurrentLevel)"
					],
					[
						"RTID(Wave18@CurrentLevel)",
						"RTID(Wave18StormEvent0@CurrentLevel)"
					],
					[
						"RTID(Wave19@CurrentLevel)"
					],
					[
						"RTID(Wave20@CurrentLevel)",
						"RTID(Wave20StormEvent0@CurrentLevel)"
					],
					[
						"RTID(Wave21@CurrentLevel)",
						"RTID(Wave21HamsterStormEvent@CurrentLevel)"
					],
					[
						"RTID(Wave22@CurrentLevel)",
						"RTID(Wave22StormEvent0@CurrentLevel)"
					],
					[
						"RTID(Wave23@CurrentLevel)"
					],
					[
						"RTID(Wave24@CurrentLevel)",
						"RTID(Wave24StormEvent0@CurrentLevel)"
					],
					[
						"RTID(Wave25@CurrentLevel)",
						"RTID(Wave25HamsterStormEvent@CurrentLevel)"
					],
					[
						"RTID(Wave26@CurrentLevel)"
					],
					[
						"RTID(Wave27@CurrentLevel)"
					],
					[
						"RTID(Wave28@CurrentLevel)"
					],
					[
						"RTID(Wave29@CurrentLevel)"
					],
					[
						"RTID(Wave30@CurrentLevel)",
						"RTID(Wave30HamsterStormEvent@CurrentLevel)"
					],
					[
						"RTID(Wave31@CurrentLevel)"
					],
					[
						"RTID(Wave32@CurrentLevel)"
					],
					[
						"RTID(Wave33@CurrentLevel)"
					],
					[
						"RTID(Wave34@CurrentLevel)"
					],
					[
						"RTID(Wave35@CurrentLevel)"
					],
					[
						"RTID(Wave36@CurrentLevel)"
					]
				],
				"WavesAlwaysRandomized": true
			}
		},
		{
			"aliases": [
				"Wave10HamsterStormEvent"
			],
			"objclass": "HamsterZombieSpawnerProps",
			"objdata": {
				"ColumnEnd": 4,
				"ColumnStart": 3,
				"GroupSize": 1,
				"TimeBetweenGroups": 1,
				"Zombies": [
					{
						"Type": "RTID(hamster_ball@ZombieTypes)",
						"ZombieInsideBallType": "RTID(chicken_farmer@ZombieTypes)",
						"HasPlantfood": true,
						"Behavior": 1,
						"SpeedBeforeImpact": 0.5
					}
				]
			}
		},
		{
			"aliases": [
				"Wave16HamsterStormEvent"
			],
			"objclass": "HamsterZombieSpawnerProps",
			"objdata": {
				"ColumnEnd": 4,
				"ColumnStart": 3,
				"GroupSize": 1,
				"TimeBetweenGroups": 1,
				"Zombies": [
					{
						"Type": "RTID(hamster_ball@ZombieTypes)",
						"ZombieInsideBallType": "RTID(chicken_farmer@ZombieTypes)",
						"HasPlantfood": true,
						"Behavior": 1,
						"SpeedBeforeImpact": 0.5
					}
				]
			}
		},
		{
			"aliases": [
				"Wave21HamsterStormEvent"
			],
			"objclass": "HamsterZombieSpawnerProps",
			"objdata": {
				"ColumnEnd": 4,
				"ColumnStart": 3,
				"GroupSize": 1,
				"TimeBetweenGroups": 1,
				"Zombies": [
					{
						"Type": "RTID(hamster_ball@ZombieTypes)",
						"ZombieInsideBallType": "RTID(chicken_farmer@ZombieTypes)",
						"HasPlantfood": true,
						"Behavior": 1,
						"SpeedBeforeImpact": 0.5
					}
				]
			}
		},
		{
			"aliases": [
				"Wave25HamsterStormEvent"
			],
			"objclass": "HamsterZombieSpawnerProps",
			"objdata": {
				"ColumnEnd": 4,
				"ColumnStart": 3,
				"GroupSize": 2,
				"TimeBetweenGroups": 1,
				"Zombies": [
					{
						"Type": "RTID(hamster_ball@ZombieTypes)",
						"ZombieInsideBallType": "RTID(chicken_farmer@ZombieTypes)",
						"HasPlantfood": true,
						"Behavior": 1,
						"SpeedBeforeImpact": 0.5
					},
					{
						"Type": "RTID(hamster_ball@ZombieTypes)",
						"ZombieInsideBallType": "RTID(chicken_farmer@ZombieTypes)",
						"HasPlantfood": true,
						"Behavior": 1,
						"SpeedBeforeImpact": 0.5
					}
				]
			}
		},
		{
			"aliases": [
				"Wave30HamsterStormEvent"
			],
			"objclass": "HamsterZombieSpawnerProps",
			"objdata": {
				"ColumnEnd": 4,
				"ColumnStart": 3,
				"GroupSize": 1,
				"TimeBetweenGroups": 1,
				"Zombies": [
					{
						"Type": "RTID(hamster_ball@ZombieTypes)",
						"ZombieInsideBallType": "RTID(chicken_farmer@ZombieTypes)",
						"HasPlantfood": true,
						"Behavior": 1,
						"SpeedBeforeImpact": 0.5
					}
				]
			}
		},
		{
			"aliases": [
				"Wave1"
			],
			"objclass": "SpawnZombiesJitteredWaveActionProps",
			"objdata": {
				"Zombies": [
					{
						"Type": "RTID(foodfight@ZombieTypes)"
					}
				]
			}
		},
		{
			"aliases": [
				"Wave2"
			],
			"objclass": "SpawnZombiesJitteredWaveActionProps",
			"objdata": {
				"Zombies": [
					{
						"Type": "RTID(foodfight@ZombieTypes)"
					},
					{
						"Type": "RTID(foodfight@ZombieTypes)"
					},
					{
						"Type": "RTID(foodfight@ZombieTypes)"
					}
				]
			}
		},
		{
			"aliases": [
				"Wave3"
			],
			"objclass": "SpawnZombiesJitteredWaveActionProps",
			"objdata": {
				"AdditionalPlantfood": 0,
				"Zombies": [
					{
						"Type": "RTID(foodfight_armor1@ZombieTypes)"
					},
					{
						"Type": "RTID(foodfight@ZombieTypes)"
					},
					{
						"Type": "RTID(foodfight_armor1@ZombieTypes)"
					}
				]
			}
		},
		{
			"aliases": [
				"Wave4"
			],
			"objclass": "SpawnZombiesJitteredWaveActionProps",
			"objdata": {
				"Zombies": [
					{
						"Type": "RTID(foodfight_armor1@ZombieTypes)"
					},
					{
						"Type": "RTID(foodfight_armor1@ZombieTypes)"
					},
					{
						"Type": "RTID(foodfight_armor2@ZombieTypes)"
					}
				]
			}
		},
		{
			"aliases": [
				"Wave5"
			],
			"objclass": "SpawnZombiesJitteredWaveActionProps",
			"objdata": {
				"Zombies": [
					{
						"Type": "RTID(foodfight_armor1@ZombieTypes)"
					},
					{
						"Type": "RTID(foodfight_armor2@ZombieTypes)"
					},
					{
						"Type": "RTID(foodfight_armor2@ZombieTypes)"
					}
				]
			}
		},
		{
			"aliases": [
				"Wave6"
			],
			"objclass": "SpawnZombiesJitteredWaveActionProps",
			"objdata": {
				"AdditionalPlantfood": 0,
				"Zombies": [
					{
						"Type": "RTID(foodfight_armor2@ZombieTypes)"
					},
					{
						"Type": "RTID(foodfight_armor2@ZombieTypes)"
					},
					{
						"Type": "RTID(foodfight_armor2@ZombieTypes)"
					}
				]
			}
		},
		{
			"aliases": [
				"Wave7"
			],
			"objclass": "SpawnZombiesJitteredWaveActionProps",
			"objdata": {
				"Zombies": [
					{
						"Type": "RTID(foodfight@ZombieTypes)"
					},
					{
						"Type": "RTID(foodfight@ZombieTypes)"
					},
					{
						"Type": "RTID(foodfight_armor1@ZombieTypes)"
					},
					{
						"Type": "RTID(foodfight_armor1@ZombieTypes)"
					},
					{
						"Type": "RTID(foodfight_armor2@ZombieTypes)"
					},
					{
						"Type": "RTID(foodfight_armor2@ZombieTypes)"
					},
					{
						"Type": "RTID(foodfight_armor2@ZombieTypes)"
					}
				]
			}
		},
		{
			"aliases": [
				"Wave8"
			],
			"objclass": "SpawnZombiesJitteredWaveActionProps",
			"objdata": {
				"Zombies": []
			}
		},
		{
			"aliases": [
				"Wave9"
			],
			"objclass": "SpawnZombiesJitteredWaveActionProps",
			"objdata": {}
		},
		{
			"aliases": [
				"Wave10"
			],
			"objclass": "SpawnZombiesJitteredWaveActionProps",
			"objdata": {}
		},
		{
			"aliases": [
				"Wave11"
			],
			"objclass": "SpawnZombiesJitteredWaveActionProps",
			"objdata": {}
		},
		{
			"aliases": [
				"Wave12"
			],
			"objclass": "SpawnZombiesJitteredWaveActionProps",
			"objdata": {}
		},
		{
			"aliases": [
				"Wave13"
			],
			"objclass": "SpawnZombiesJitteredWaveActionProps",
			"objdata": {}
		},
		{
			"aliases": [
				"Wave14"
			],
			"objclass": "SpawnZombiesJitteredWaveActionProps",
			"objdata": {
				"Zombies": []
			}
		},
		{
			"aliases": [
				"Wave15"
			],
			"objclass": "SpawnZombiesJitteredWaveActionProps",
			"objdata": {
				"AdditionalPlantfood": 0
			}
		},
		{
			"aliases": [
				"Wave16"
			],
			"objclass": "SpawnZombiesJitteredWaveActionProps",
			"objdata": {}
		},
		{
			"aliases": [
				"Wave17"
			],
			"objclass": "SpawnZombiesJitteredWaveActionProps",
			"objdata": {}
		},
		{
			"aliases": [
				"Wave18"
			],
			"objclass": "SpawnZombiesJitteredWaveActionProps",
			"objdata": {
				"Zombies": []
			}
		},
		{
			"aliases": [
				"Wave19"
			],
			"objclass": "SpawnZombiesJitteredWaveActionProps",
			"objdata": {}
		},
		{
			"aliases": [
				"Wave20"
			],
			"objclass": "SpawnZombiesJitteredWaveActionProps",
			"objdata": {
				"AdditionalPlantfood": 0,
				"Zombies": []
			}
		},
		{
			"aliases": [
				"Wave21"
			],
			"objclass": "SpawnZombiesJitteredWaveActionProps",
			"objdata": {}
		},
		{
			"aliases": [
				"Wave22"
			],
			"objclass": "SpawnZombiesJitteredWaveActionProps",
			"objdata": {
				"Zombies": []
			}
		},
		{
			"aliases": [
				"Wave23"
			],
			"objclass": "SpawnZombiesJitteredWaveActionProps",
			"objdata": {}
		},
		{
			"aliases": [
				"Wave24"
			],
			"objclass": "SpawnZombiesJitteredWaveActionProps",
			"objdata": {
				"AdditionalPlantfood": 0,
				"Zombies": []
			}
		},
		{
			"aliases": [
				"Wave25"
			],
			"objclass": "SpawnZombiesJitteredWaveActionProps",
			"objdata": {}
		},
		{
			"aliases": [
				"Wave26"
			],
			"objclass": "SpawnZombiesJitteredWaveActionProps",
			"objdata": {}
		},
		{
			"aliases": [
				"Wave27"
			],
			"objclass": "SpawnZombiesJitteredWaveActionProps",
			"objdata": {}
		},
		{
			"aliases": [
				"Wave28"
			],
			"objclass": "SpawnZombiesJitteredWaveActionProps",
			"objdata": {}
		},
		{
			"aliases": [
				"Wave29"
			],
			"objclass": "SpawnZombiesJitteredWaveActionProps",
			"objdata": {}
		},
		{
			"aliases": [
				"Wave30"
			],
			"objclass": "SpawnZombiesJitteredWaveActionProps",
			"objdata": {}
		},
		{
			"aliases": [
				"Wave31"
			],
			"objclass": "SpawnZombiesJitteredWaveActionProps",
			"objdata": {}
		},
		{
			"aliases": [
				"Wave32"
			],
			"objclass": "SpawnZombiesJitteredWaveActionProps",
			"objdata": {
				"AdditionalPlantfood": 0
			}
		},
		{
			"aliases": [
				"Wave33"
			],
			"objclass": "SpawnZombiesJitteredWaveActionProps",
			"objdata": {}
		},
		{
			"aliases": [
				"Wave34"
			],
			"objclass": "SpawnZombiesJitteredWaveActionProps",
			"objdata": {}
		},
		{
			"aliases": [
				"Wave35"
			],
			"objclass": "SpawnZombiesJitteredWaveActionProps",
			"objdata": {}
		},
		{
			"aliases": [
				"Wave36"
			],
			"objclass": "SpawnZombiesJitteredWaveActionProps",
			"objdata": {
				"AdditionalPlantfood": 0
			}
		},
		{
			"aliases": [
				"Wave8StormEvent0"
			],
			"objclass": "StormZombieSpawnerProps",
			"objdata": {
				"ColumnEnd": "8",
				"ColumnStart": "4",
				"GroupSize": 1,
				"TimeBetweenGroups": "3",
				"Type": "sandstorm",
				"Zombies": [
					{
						"Type": "RTID(pirate_gargantuar@ZombieTypes)"
					}
				]
			}
		},
		{
			"aliases": [
				"Wave14StormEvent0"
			],
			"objclass": "StormZombieSpawnerProps",
			"objdata": {
				"ColumnEnd": "8",
				"ColumnStart": "4",
				"GroupSize": 1,
				"TimeBetweenGroups": "3",
				"Type": "sandstorm",
				"Zombies": [
					{
						"Type": "RTID(pirate_gargantuar@ZombieTypes)"
					}
				]
			}
		},
		{
			"aliases": [
				"Wave18StormEvent0"
			],
			"objclass": "StormZombieSpawnerProps",
			"objdata": {
				"ColumnEnd": "8",
				"ColumnStart": "4",
				"GroupSize": 1,
				"TimeBetweenGroups": "3",
				"Type": "sandstorm",
				"Zombies": [
					{
						"Type": "RTID(pirate_gargantuar@ZombieTypes)"
					}
				]
			}
		},
		{
			"aliases": [
				"Wave20StormEvent0"
			],
			"objclass": "StormZombieSpawnerProps",
			"objdata": {
				"ColumnEnd": "8",
				"ColumnStart": "4",
				"GroupSize": 1,
				"TimeBetweenGroups": "3",
				"Type": "sandstorm",
				"Zombies": [
					{
						"Type": "RTID(pirate_gargantuar@ZombieTypes)"
					}
				]
			}
		},
		{
			"aliases": [
				"Wave22StormEvent0"
			],
			"objclass": "StormZombieSpawnerProps",
			"objdata": {
				"ColumnEnd": "8",
				"ColumnStart": "4",
				"GroupSize": 1,
				"TimeBetweenGroups": "3",
				"Type": "sandstorm",
				"Zombies": [
					{
						"Type": "RTID(pirate_gargantuar@ZombieTypes)"
					}
				]
			}
		},
		{
			"aliases": [
				"Wave24StormEvent0"
			],
			"objclass": "StormZombieSpawnerProps",
			"objdata": {
				"ColumnEnd": "8",
				"ColumnStart": "4",
				"GroupSize": 1,
				"TimeBetweenGroups": "3",
				"Type": "sandstorm",
				"Zombies": [
					{
						"Type": "RTID(pirate_gargantuar@ZombieTypes)"
					},
					{
						"Type": "RTID(pirate_gargantuar@ZombieTypes)"
					}
				]
			}
		}
	],
	"version": 1
}