{
	"#comment": "Scoring Playtest - Right Gradient - No Quickstart",
	"objects": [
		{
			"objclass": "LevelDefinition",
			"objdata": {
				"Description": "",
				"GridItemLevel": 1,
				"DisablePlantBoosts": true,
				"LevelNumber": 1,
				"LevelPowerupSet": "LevelPowerupsDisabled",
				"Loot": "RTID(NoLoot@LevelModules)",
				"LossModule": "RTID(JoustOutro@LevelModules)",
				"Modules": [
					"RTID(ZombiesDeadWinCon@LevelModules)",
					"RTID(JoustDarkMowers@LevelModules)",
					"RTID(SeedBank@CurrentLevel)",
					"RTID(JoustZombieWinCondition@LevelModules)",
					"RTID(NewWaves@CurrentLevel)",
					"RTID(LevelScoring@CurrentLevel)",
					"RTID(ScoreTiles@CurrentLevel)",
					"RTID(ChallengeModule@CurrentLevel)",
					"RTID(LastStand@CurrentLevel)",
					"RTID(LevelDifficultyScaling@CurrentLevel)",
					"RTID(JoustModule@CurrentLevel)",
					"RTID(TreadmillGeneralZombie3MinModule@LevelModules)",
					"RTID(JoustPointOfLoss@LevelModules)",
					"RTID(ZombieResistances@CurrentLevel)",
					"RTID(Boosterama@LevelModules)"
				],
				"Name": "",
				"NormalPresentTable": "dark_normal_01",
				"ShinyPresentTable": "dark_shiny_01",
				"StageModule": "RTID(JoustStage@LevelModules)",
				"SuppressAccountUpgrades": true,
				"SuppressDynamicTutorial": true,
				"SuppressPlantfoodPurchase": true,
				"VictoryModule": "RTID(JoustOutro@LevelModules)"
			}
		},
		{
			"aliases": [
				"SeedBank"
			],
			"objclass": "SeedBankProperties",
			"objdata": {
				"PlantExcludeList": [],
				"PresetPlantList": [
					{
						"Level": -1,
						"PlantType": "poisonpeashooter"
					}
				],
				"SelectionMethod": "chooser"
			}
		},
		{
			"aliases": [
				"ZombieResistances"
			],
			"objclass": "ZombieResistancesModuleProperties",
			"objdata": {
				"FamilyResistances": {
					"global": [
						{
							"#comment": "200% damage and condition",
							"FamilyType": "ailmint",
							"DamageResistance": 2.0,
							"ConditionResistance": 2.0
						},
						{
							"#comment": "200% damage and condition",
							"FamilyType": "containmint",
							"DamageResistance": 2.0,
							"ConditionResistance": 2.0
						},
						{
							"#comment": "50% damage and condition",
							"FamilyType": "wintermint",
							"DamageResistance": 0.5,
							"ConditionResistance": 0.5
						}
					]
				}
			}
		},
		{
			"aliases": [
				"JoustModule"
			],
			"objclass": "JoustGameModuleProperties",
			"objdata": {
				"LeagueModifiers": [
					{
						"AddTimeLimit": 0,
						"AddZombieLevel": 0,
						"LeagueThreshold": 1
					},
					{
						"AddTimeLimit": 0,
						"AddZombieLevel": 1,
						"LeagueThreshold": 2
					},
					{
						"AddTimeLimit": 0,
						"AddZombieLevel": 2,
						"LeagueThreshold": 3
					},
					{
						"AddTimeLimit": 0,
						"AddZombieLevel": 3,
						"LeagueThreshold": 4
					},
					{
						"AddTimeLimit": 0,
						"AddZombieLevel": 4,
						"LeagueThreshold": 5
					},
					{
						"AddTimeLimit": 0,
						"AddZombieLevel": 5,
						"LeagueThreshold": 6
					},
					{
						"AddTimeLimit": 0,
						"AddZombieLevel": 6,
						"LeagueThreshold": 7
					},
					{
						"AddTimeLimit": 0,
						"AddZombieLevel": 7,
						"LeagueThreshold": 8
					},
					{
						"AddTimeLimit": 0,
						"AddZombieLevel": 8,
						"LeagueThreshold": 9
					}
				],
				"PeriodOfWavesToLoop": 4,
				"TimeLimit": 180,
				"WaveSetsToAppend": 20,
				"SuggestedLoadout": "",
				"LevelLoadouts": {
					"Loadouts": [
						[
							{
								"PlantType": "poisonpeashooter",
								"PlantLevel": 0,
								"IsImitater": false
							},
							{
								"PlantType": "primalsunflower",
								"PlantLevel": 0,
								"IsImitater": false
							},
							{
								"PlantType": "primalpotatomine",
								"PlantLevel": 0,
								"IsImitater": false
							},
							{
								"PlantType": "ailmint",
								"PlantLevel": 0,
								"IsImitater": false
							},
							{
								"PlantType": "aloe",
								"PlantLevel": 0,
								"IsImitater": false
							},
							{
								"PlantType": "jalapeno",
								"PlantLevel": 0,
								"IsImitater": false
							}
						],
						[
							{
								"PlantType": "aloe",
								"PlantLevel": 0,
								"IsImitater": false
							},
							{
								"PlantType": "ailmint",
								"PlantLevel": 0,
								"IsImitater": false
							},
							{
								"PlantType": "fumeshroom",
								"PlantLevel": 0,
								"IsImitater": false
							},
							{
								"PlantType": "caulipower",
								"PlantLevel": 0,
								"IsImitater": false
							},
							{
								"PlantType": "goldbloom",
								"PlantLevel": 0,
								"IsImitater": false
							},
							{
								"PlantType": "moonflower",
								"PlantLevel": 0,
								"IsImitater": false
							}
						]
					]
				}
			}
		},
		{
			"aliases": [
				"LevelDifficultyScaling"
			],
			"objclass": "LevelDifficultyScalingModuleProperties",
			"objdata": {
				"DifficultyRulesType": "DifficultyTestHighDecay",
				"ZombieLevelSwaps": []
			}
		},
		{
			"aliases": [
				"ChallengeModule"
			],
			"objclass": "StarChallengeModuleProperties",
			"objdata": {
				"Challenges": [
					[
						"RTID(BeatTheLevel@CurrentLevel)",
						"RTID(ReachTheScore@CurrentLevel)"
					]
				],
				"ChallengesAlwaysAvailable": true
			}
		},
		{
			"aliases": [
				"ReachTheScore"
			],
			"objclass": "StarChallengeTargetScoreProps",
			"objdata": {
				"Description": "[STARCHALLENGE_TARGET_SCORE]",
				"DescriptionFailure": "[STARCHALLENGE_TARGET_SCORE_FAILURE]",
				"DescriptiveName": "[STARCHALLENGE_TARGET_SCORE_NAME]",
				"TargetScore": 1000
			}
		},
		{
			"aliases": [
				"BeatTheLevel"
			],
			"objclass": "StarChallengeBeatTheLevelProps",
			"objdata": {
				"Description": "[STARCHALLENGE_LASTSTAND_MINIGAME]",
				"DescriptiveName": "[STARCHALLENGE_LASTSTAND_MINIGAME_NAME]"
			}
		},
		{
			"aliases": [
				"LastStand"
			],
			"objclass": "LastStandMinigameProperties",
			"objdata": {
				"StartingPlantfood": 3,
				"StartingSun": 0
			}
		},
		{
			"aliases": [
				"LevelScoring"
			],
			"objclass": "LevelScoringModuleProperties",
			"objdata": {
				"PlantBonusMultiplier": 0.1,
				"PlantBonuses": [],
				"ScoringRulesType": "Battlez",
				"StartingPlantfood": 3
			}
		},
		{
			"aliases": [
				"ScoreTiles"
			],
			"objclass": "InitialGridItemProperties",
			"objdata": {
				"InitialGridItemPlacements": [
					{
						"GridX": 8,
						"GridY": 0,
						"TypeName": "score_5x_tile"
					},
					{
						"GridX": 8,
						"GridY": 1,
						"TypeName": "score_5x_tile"
					},
					{
						"GridX": 8,
						"GridY": 2,
						"TypeName": "score_5x_tile"
					},
					{
						"GridX": 8,
						"GridY": 3,
						"TypeName": "score_5x_tile"
					},
					{
						"GridX": 8,
						"GridY": 4,
						"TypeName": "score_5x_tile"
					},
					{
						"GridX": 7,
						"GridY": 0,
						"TypeName": "score_5x_tile"
					},
					{
						"GridX": 7,
						"GridY": 1,
						"TypeName": "score_5x_tile"
					},
					{
						"GridX": 7,
						"GridY": 2,
						"TypeName": "score_5x_tile"
					},
					{
						"GridX": 7,
						"GridY": 3,
						"TypeName": "score_5x_tile"
					},
					{
						"GridX": 7,
						"GridY": 4,
						"TypeName": "score_5x_tile"
					},
					{
						"GridX": 6,
						"GridY": 0,
						"TypeName": "score_3x_tile"
					},
					{
						"GridX": 6,
						"GridY": 1,
						"TypeName": "score_3x_tile"
					},
					{
						"GridX": 6,
						"GridY": 2,
						"TypeName": "score_3x_tile"
					},
					{
						"GridX": 6,
						"GridY": 3,
						"TypeName": "score_3x_tile"
					},
					{
						"GridX": 6,
						"GridY": 4,
						"TypeName": "score_3x_tile"
					},
					{
						"GridX": 5,
						"GridY": 0,
						"TypeName": "score_3x_tile"
					},
					{
						"GridX": 5,
						"GridY": 1,
						"TypeName": "score_3x_tile"
					},
					{
						"GridX": 5,
						"GridY": 2,
						"TypeName": "score_3x_tile"
					},
					{
						"GridX": 5,
						"GridY": 3,
						"TypeName": "score_3x_tile"
					},
					{
						"GridX": 5,
						"GridY": 4,
						"TypeName": "score_3x_tile"
					},
					{
						"GridX": 4,
						"GridY": 0,
						"TypeName": "score_2x_tile"
					},
					{
						"GridX": 4,
						"GridY": 1,
						"TypeName": "score_2x_tile"
					},
					{
						"GridX": 4,
						"GridY": 2,
						"TypeName": "score_2x_tile"
					},
					{
						"GridX": 4,
						"GridY": 3,
						"TypeName": "score_2x_tile"
					},
					{
						"GridX": 4,
						"GridY": 4,
						"TypeName": "score_2x_tile"
					},
					{
						"GridX": 3,
						"GridY": 0,
						"TypeName": "score_2x_tile"
					},
					{
						"GridX": 3,
						"GridY": 1,
						"TypeName": "score_2x_tile"
					},
					{
						"GridX": 3,
						"GridY": 2,
						"TypeName": "score_2x_tile"
					},
					{
						"GridX": 3,
						"GridY": 3,
						"TypeName": "score_2x_tile"
					},
					{
						"GridX": 3,
						"GridY": 4,
						"TypeName": "score_2x_tile"
					}
				]
			}
		},
		{
			"aliases": [
				"NewWaves"
			],
			"objclass": "WaveManagerModuleProperties",
			"objdata": {
				"DynamicZombies": [
					{
						"PointIncrementPerWave": -1,
						"StartingPoints": -1,
						"StartingWave": 1,
						"ZombiePool": [
							"RTID(future_jetpack_veteran@ZombieTypes)",
							"RTID(lostcity_excavator@ZombieTypes)",
							"RTID(pirate_captain@ZombieTypes)",
							"RTID(lostcity_crystalskull@ZombieTypes)",
							"RTID(mummy@ZombieTypes)",
							"RTID(mummy_armor1@ZombieTypes)",
							"RTID(mummy_armor2@ZombieTypes)",
							"RTID(mummy_armor4@ZombieTypes)"
						]
					},
					{
						"PointIncrementPerWave": -1,
						"StartingPoints": -1,
						"StartingWave": 1,
						"ZombiePool": [
							"RTID(future_jetpack_veteran@ZombieTypes)",
							"RTID(lostcity_excavator@ZombieTypes)",
							"RTID(pirate_captain@ZombieTypes)",
							"RTID(lostcity_crystalskull@ZombieTypes)",
							"RTID(lostcity_bug@ZombieTypes)",
							"RTID(lostcity_armor1@ZombieTypes)",
							"RTID(lostcity_armor2@ZombieTypes)",
							"RTID(pirate_armor4@ZombieTypes)"
						]
					},
					{
						"PointIncrementPerWave": -1,
						"StartingPoints": -1,
						"StartingWave": 1,
						"ZombiePool": [
							"RTID(future_jetpack_veteran@ZombieTypes)",
							"RTID(lostcity_excavator@ZombieTypes)",
							"RTID(pirate_captain@ZombieTypes)",
							"RTID(lostcity_crystalskull@ZombieTypes)",
							"RTID(lostcity_bug@ZombieTypes)",
							"RTID(lostcity_armor1@ZombieTypes)",
							"RTID(lostcity_armor2@ZombieTypes)",
							"RTID(pirate_armor4@ZombieTypes)"
						]
					},
					{
						"PointIncrementPerWave": 50,
						"StartingPoints": 2250,
						"StartingWave": 1,
						"ZombiePool": [
							"RTID(future_jetpack_veteran@ZombieTypes)",
							"RTID(lostcity_excavator@ZombieTypes)",
							"RTID(pirate_captain@ZombieTypes)",
							"RTID(lostcity_crystalskull@ZombieTypes)",
							"RTID(lostcity_bug@ZombieTypes)",
							"RTID(lostcity_armor1@ZombieTypes)",
							"RTID(lostcity_armor2@ZombieTypes)",
							"RTID(pirate_armor4@ZombieTypes)"
						]
					},
					{
						"PointIncrementPerWave": 1,
						"StartingPoints": 1,
						"StartingWave": 1,
						"ZombiePool": [
							"RTID(future_jetpack_veteran@ZombieTypes)",
							"RTID(lostcity_excavator@ZombieTypes)",
							"RTID(pirate_captain@ZombieTypes)",
							"RTID(lostcity_crystalskull@ZombieTypes)",
							"RTID(lostcity_bug@ZombieTypes)",
							"RTID(lostcity_armor1@ZombieTypes)",
							"RTID(lostcity_armor2@ZombieTypes)",
							"RTID(pirate_armor4@ZombieTypes)"
						]
					},
					{
						"PointIncrementPerWave": 1,
						"StartingPoints": 1,
						"StartingWave": 1,
						"ZombiePool": [
							"RTID(future_jetpack_veteran@ZombieTypes)",
							"RTID(lostcity_excavator@ZombieTypes)",
							"RTID(pirate_captain@ZombieTypes)",
							"RTID(lostcity_crystalskull@ZombieTypes)",
							"RTID(lostcity_bug@ZombieTypes)",
							"RTID(lostcity_armor1@ZombieTypes)",
							"RTID(lostcity_armor2@ZombieTypes)",
							"RTID(pirate_armor4@ZombieTypes)"
						]
					},
					{
						"PointIncrementPerWave": 1,
						"StartingPoints": 1,
						"StartingWave": 1,
						"ZombiePool": [
							"RTID(future_jetpack_veteran@ZombieTypes)",
							"RTID(lostcity_excavator@ZombieTypes)",
							"RTID(pirate_captain@ZombieTypes)",
							"RTID(lostcity_crystalskull@ZombieTypes)",
							"RTID(lostcity_bug@ZombieTypes)",
							"RTID(lostcity_armor1@ZombieTypes)",
							"RTID(lostcity_armor2@ZombieTypes)",
							"RTID(pirate_armor4@ZombieTypes)"
						]
					}
				],
				"WaveManagerProps": "RTID(WaveManagerProps@CurrentLevel)"
			}
		},
		{
			"aliases": [
				"WaveManagerProps"
			],
			"objclass": "WaveManagerProperties",
			"objdata": {
				"FlagWaveInterval": 10,
				"WaveCount": 10,
				"WaveSpendingPointIncrement": 150,
				"WaveSpendingPoints": 0,
				"Waves": [
					[
						"RTID(Wave1@CurrentLevel)",
						"RTID(Wave1SunDropperEvent0@CurrentLevel)",
						"RTID(Wave1SunDropperEvent1@CurrentLevel)",
						"RTID(Wave1SunDropperEvent2@CurrentLevel)"
					],
					[
						"RTID(Wave2@CurrentLevel)"
					],
					[
						"RTID(Wave3@CurrentLevel)"
					],
					[
						"RTID(Wave4@CurrentLevel)",
						"RTID(Wave4HamsterStormEvent@CurrentLevel)"
					],
					[
						"RTID(Wave5@CurrentLevel)"
					],
					[
						"RTID(Wave6@CurrentLevel)"
					],
					[
						"RTID(Wave7@CurrentLevel)"
					],
					[
						"RTID(Wave8@CurrentLevel)",
						"RTID(Wave8SunDropperEvent0@CurrentLevel)"
					],
					[
						"RTID(Wave9@CurrentLevel)",
						"RTID(Wave9HamsterStormEvent@CurrentLevel)"
					],
					[
						"RTID(Wave10@CurrentLevel)"
					]
				],
				"WavesAlwaysRandomized": true
			}
		},
		{
			"aliases": [
				"Wave4HamsterStormEvent"
			],
			"objclass": "HamsterZombieSpawnerProps",
			"objdata": {
				"ColumnEnd": 6,
				"ColumnStart": 3,
				"GroupSize": 1,
				"TimeBetweenGroups": 1,
				"Zombies": [
					{
						"Type": "RTID(hamster_ball@ZombieTypes)",
						"ZombieInsideBallType": "RTID(dark_wizard@ZombieTypes)",
						"HasPlantfood": false,
						"Behavior": 2,
						"SpeedBeforeImpact": 0.5
					}
				]
			}
		},
		{
			"aliases": [
				"Wave6HamsterStormEvent"
			],
			"objclass": "HamsterZombieSpawnerProps",
			"objdata": {
				"ColumnEnd": 4,
				"ColumnStart": 3,
				"GroupSize": 1,
				"TimeBetweenGroups": 1,
				"Zombies": [
					{
						"Type": "RTID(hamster_ball@ZombieTypes)",
						"ZombieInsideBallType": "RTID(dark_wizard@ZombieTypes)",
						"HasPlantfood": false,
						"Behavior": 1,
						"SpeedBeforeImpact": 1.0
					}
				]
			}
		},
		{
			"aliases": [
				"Wave9HamsterStormEvent"
			],
			"objclass": "HamsterZombieSpawnerProps",
			"objdata": {
				"ColumnEnd": 3,
				"ColumnStart": 3,
				"GroupSize": 1,
				"TimeBetweenGroups": 1,
				"Zombies": [
					{
						"Type": "RTID(hamster_ball@ZombieTypes)",
						"ZombieInsideBallType": "RTID(dark_wizard@ZombieTypes)",
						"HasPlantfood": false,
						"Behavior": 1,
						"SpeedBeforeImpact": 1.0
					}
				]
			}
		},
		{
			"aliases": [
				"Wave1"
			],
			"objclass": "SpawnZombiesJitteredWaveActionProps",
			"objdata": {}
		},
		{
			"aliases": [
				"Wave2"
			],
			"objclass": "SpawnZombiesJitteredWaveActionProps",
			"objdata": {}
		},
		{
			"aliases": [
				"Wave3"
			],
			"objclass": "SpawnZombiesJitteredWaveActionProps",
			"objdata": {}
		},
		{
			"aliases": [
				"Wave4"
			],
			"objclass": "SpawnZombiesJitteredWaveActionProps",
			"objdata": {}
		},
		{
			"aliases": [
				"Wave5"
			],
			"objclass": "SpawnZombiesJitteredWaveActionProps",
			"objdata": {}
		},
		{
			"aliases": [
				"Wave6"
			],
			"objclass": "SpawnZombiesJitteredWaveActionProps",
			"objdata": {}
		},
		{
			"aliases": [
				"Wave7"
			],
			"objclass": "SpawnZombiesJitteredWaveActionProps",
			"objdata": {}
		},
		{
			"aliases": [
				"Wave8"
			],
			"objclass": "SpawnZombiesJitteredWaveActionProps",
			"objdata": {}
		},
		{
			"aliases": [
				"Wave9"
			],
			"objclass": "SpawnZombiesJitteredWaveActionProps",
			"objdata": {}
		},
		{
			"aliases": [
				"Wave10"
			],
			"objclass": "SpawnZombiesJitteredWaveActionProps",
			"objdata": {}
		},
		{
			"aliases": [
				"Wave1SunDropperEvent0"
			],
			"objclass": "SunDropperWaveActionProps",
			"objdata": {
				"SunAmountToDrop": 1700
			}
		},
		{
			"aliases": [
				"Wave1SunDropperEvent1"
			],
			"objclass": "SunDropperWaveActionProps",
			"objdata": {
				"SunAmountToDrop": 1700
			}
		},
		{
			"aliases": [
				"Wave1SunDropperEvent2"
			],
			"objclass": "SunDropperWaveActionProps",
			"objdata": {
				"SunAmountToDrop": 1700
			}
		},
		{
			"aliases": [
				"Wave8SunDropperEvent0"
			],
			"objclass": "SunDropperWaveActionProps",
			"objdata": {
				"SunAmountToDrop": 350
			}
		}
	],
	"version": 1
}