{
	"#comment": "Scoring Playtest - Right Gradient - No Quickstart",
	"objects": [
		{
			"objclass": "LevelDefinition",
			"objdata": {
				"Description": "",
				"DisablePlantBoosts": true,
				"GridItemLevel": 1,
				"LevelNumber": 1,
				"LevelPowerupSet": "LevelPowerupsDisabled",
				"Loot": "RTID(NoLoot@LevelModules)",
				"LossModule": "RTID(JoustOutro@LevelModules)",
				"Modules": [
					"RTID(DefaultSunDropper@LevelModules)",
					"RTID(ZombiesDeadWinCon@LevelModules)",
					"RTID(JoustDarkMowers@LevelModules)",
					"RTID(SeedBank@CurrentLevel)",
					"RTID(JoustZombieWinCondition@LevelModules)",
					"RTID(NewWaves@CurrentLevel)",
					"RTID(LevelScoring@CurrentLevel)",
					"RTID(ScoreTiles@CurrentLevel)",
					"RTID(ChallengeModule@CurrentLevel)",
					"RTID(LastStand@CurrentLevel)",
					"RTID(LevelDifficultyScaling@CurrentLevel)",
					"RTID(JoustModule@CurrentLevel)",
					"RTID(JoustPointOfLoss@LevelModules)",
					"RTID(ZombieResistances@CurrentLevel)"
				],
				"Name": "",
				"NormalPresentTable": "dark_normal_01",
				"ShinyPresentTable": "dark_shiny_01",
				"StageModule": "RTID(JoustStage@LevelModules)",
				"SuppressAccountUpgrades": true,
				"SuppressDynamicTutorial": true,
				"SuppressPlantfoodPurchase": true,
				"VictoryModule": "RTID(JoustOutro@LevelModules)"
			}
		},
		{
			"aliases": [
				"SeedBank"
			],
			"objclass": "SeedBankProperties",
			"objdata": {
				"ExcludeListSunProducers": false,
				"PlantExcludeList": [],
				"PresetPlantList": [
					{
						"Level": -1,
						"PlantType": "stickybombrice"
					}
				],
				"SelectionMethod": "chooser"
			}
		},
		{
			"aliases": [
				"ZombieResistances"
			],
			"objclass": "ZombieResistancesModuleProperties",
			"objdata": {
				"FamilyResistances": {
					"global": [
						{
							"#comment": "200% damage and condition",
							"ConditionResistance": 2,
							"DamageResistance": 2,
							"FamilyType": "armamint"
						},
						{
							"#comment": "200% damage and condition",
							"ConditionResistance": 2,
							"DamageResistance": 2,
							"FamilyType": "appeasemint"
						}
					]
				}
			}
		},
		{
			"aliases": [
				"JoustModule"
			],
			"objclass": "JoustGameModuleProperties",
			"objdata": {
				"LeagueModifiers": [
					{
						"AddTimeLimit": 0,
						"AddZombieLevel": 0,
						"LeagueThreshold": 1
					},
					{
						"AddTimeLimit": 0,
						"AddZombieLevel": 1,
						"LeagueThreshold": 2
					},
					{
						"AddTimeLimit": 0,
						"AddZombieLevel": 2,
						"LeagueThreshold": 3
					},
					{
						"AddTimeLimit": 0,
						"AddZombieLevel": 3,
						"LeagueThreshold": 4
					},
					{
						"AddTimeLimit": 0,
						"AddZombieLevel": 4,
						"LeagueThreshold": 5
					},
					{
						"AddTimeLimit": 0,
						"AddZombieLevel": 5,
						"LeagueThreshold": 6
					},
					{
						"AddTimeLimit": 0,
						"AddZombieLevel": 6,
						"LeagueThreshold": 7
					},
					{
						"AddTimeLimit": 0,
						"AddZombieLevel": 7,
						"LeagueThreshold": 8
					},
					{
						"AddTimeLimit": 0,
						"AddZombieLevel": 8,
						"LeagueThreshold": 9
					}
				],
				"LevelLoadouts": {
					"Loadouts": [
						[
							{
								"IsImitater": false,
								"PlantLevel": 0,
								"PlantType": "aloe"
							},
							{
								"IsImitater": false,
								"PlantLevel": 0,
								"PlantType": "armamint"
							},
							{
								"IsImitater": false,
								"PlantLevel": 0,
								"PlantType": "turkeypult"
							},
							{
								"IsImitater": false,
								"PlantLevel": 0,
								"PlantType": "laser_bean"
							},
							{
								"IsImitater": false,
								"PlantLevel": 0,
								"PlantType": "holonut"
							},
							{
								"IsImitater": false,
								"PlantLevel": 0,
								"PlantType": "primalsunflower"
							}
						],
						[
							{
								"IsImitater": false,
								"PlantLevel": 0,
								"PlantType": "aloe"
							},
							{
								"IsImitater": false,
								"PlantLevel": 0,
								"PlantType": "shinevine"
							},
							{
								"IsImitater": false,
								"PlantLevel": 0,
								"PlantType": "armamint"
							},
							{
								"IsImitater": false,
								"PlantLevel": 0,
								"PlantType": "hurrikale"
							},
							{
								"IsImitater": false,
								"PlantLevel": 0,
								"PlantType": "chardguard"
							},
							{
								"IsImitater": false,
								"PlantLevel": 0,
								"PlantType": "olivepit"
							}
						],
						[
							{
								"IsImitater": false,
								"PlantLevel": 0,
								"PlantType": "aloe"
							},
							{
								"IsImitater": false,
								"PlantLevel": 0,
								"PlantType": "chardguard"
							},
							{
								"IsImitater": false,
								"PlantLevel": 0,
								"PlantType": "powerplant"
							},
							{
								"IsImitater": false,
								"PlantLevel": 0,
								"PlantType": "armamint"
							},
							{
								"IsImitater": false,
								"PlantLevel": 0,
								"PlantType": "powerlily"
							},
							{
								"IsImitater": false,
								"PlantLevel": 0,
								"PlantType": "goldbloom"
							}
						]
					]
				},
				"PeriodOfWavesToLoop": 6,
				"SuggestedLoadout": "",
				"TimeLimit": 120,
				"WaveSetsToAppend": 24
			}
		},
		{
			"aliases": [
				"LevelDifficultyScaling"
			],
			"objclass": "LevelDifficultyScalingModuleProperties",
			"objdata": {
				"DifficultyRulesType": "DifficultyTestHighDecay",
				"ZombieLevelSwaps": [
					{
						"Level": 3,
						"Swaps": [
							{
								"From": "RTID(roman@ZombieTypes)",
								"To": [
									"RTID(roman@ZombieTypes)",
									"RTID(roman_armor1@ZombieTypes)"
								]
							},
							{
								"From": "RTID(roman_armor1@ZombieTypes)",
								"To": [
									"RTID(roman@ZombieTypes)",
									"RTID(roman_armor1@ZombieTypes)",
									"RTID(roman_armor2@ZombieTypes)"
								]
							},
							{
								"From": "RTID(roman_armor2@ZombieTypes)",
								"To": [
									"RTID(roman_armor1@ZombieTypes)",
									"RTID(roman_armor2@ZombieTypes)",
									"RTID(roman_armor3@ZombieTypes)"
								]
							},
							{
								"From": "RTID(roman_shield_triad@ZombieTypes)",
								"To": [
									"RTID(roman_shield_triad@ZombieTypes)",
									"RTID(roman@ZombieTypes)"
								]
							}
						]
					},
					{
						"Level": 6,
						"Swaps": [
							{
								"From": "RTID(roman@ZombieTypes)",
								"To": [
									"RTID(roman@ZombieTypes)",
									"RTID(roman_armor1@ZombieTypes)",
									"RTID(roman_armor2@ZombieTypes)"
								]
							},
							{
								"From": "RTID(roman_armor1@ZombieTypes)",
								"To": [
									"RTID(roman_armor1@ZombieTypes)",
									"RTID(roman_armor2@ZombieTypes)",
									"RTID(roman_armor3@ZombieTypes)"
								]
							},
							{
								"From": "RTID(roman_armor2@ZombieTypes)",
								"To": [
									"RTID(roman_armor2@ZombieTypes)",
									"RTID(roman_armor3@ZombieTypes)",
									"RTID(roman_armor4@ZombieTypes)"
								]
							},
							{
								"From": "RTID(roman_shield_triad@ZombieTypes)",
								"To": [
									"RTID(roman_shield_triad@ZombieTypes)",
									"RTID(lostcity_relichunter@ZombieTypes)"
								]
							}
						]
					},
					{
						"Level": 8,
						"Swaps": [
							{
								"From": "RTID(roman@ZombieTypes)",
								"To": [
									"RTID(roman_armor1@ZombieTypes)",
									"RTID(roman_armor2@ZombieTypes)"
								]
							},
							{
								"From": "RTID(roman_armor1@ZombieTypes)",
								"To": [
									"RTID(roman_armor2@ZombieTypes)",
									"RTID(roman_armor3@ZombieTypes)"
								]
							},
							{
								"From": "RTID(roman_armor2@ZombieTypes)",
								"To": [
									"RTID(roman_armor3@ZombieTypes)",
									"RTID(roman_armor4@ZombieTypes)"
								]
							},
							{
								"From": "RTID(roman_shield_triad@ZombieTypes)",
								"To": [
									"RTID(eighties_breakdancer@ZombieTypes)",
									"RTID(lostcity_relichunter@ZombieTypes)",
									"RTID(cowboy_gargantuar@ZombieTypes)"
								]
							}
						]
					},
					{
						"Level": 10,
						"Swaps": [
							{
								"From": "RTID(roman@ZombieTypes)",
								"To": [
									"RTID(roman_armor3@ZombieTypes)",
									"RTID(roman_armor2@ZombieTypes)"
								]
							},
							{
								"From": "RTID(roman_armor1@ZombieTypes)",
								"To": [
									"RTID(lostcity_relichunter@ZombieTypes)",
									"RTID(roman_armor4@ZombieTypes)",
									"RTID(roman_armor3@ZombieTypes)"
								]
							},
							{
								"From": "RTID(roman_armor2@ZombieTypes)",
								"To": [
									"RTID(eighties_breakdancer@ZombieTypes)",
									"RTID(roman_armor3@ZombieTypes)",
									"RTID(roman_armor4@ZombieTypes)"
								]
							},
							{
								"From": "RTID(roman_shield_triad@ZombieTypes)",
								"To": [
									"RTID(modern_allstar@ZombieTypes)",
									"RTID(roman_gargantuar@ZombieTypes)"
								]
							}
						]
					}
				]
			}
		},
		{
			"aliases": [
				"ChallengeModule"
			],
			"objclass": "StarChallengeModuleProperties",
			"objdata": {
				"Challenges": [
					[
						"RTID(BeatTheLevel@CurrentLevel)",
						"RTID(ReachTheScore@CurrentLevel)"
					]
				],
				"ChallengesAlwaysAvailable": true
			}
		},
		{
			"aliases": [
				"ReachTheScore"
			],
			"objclass": "StarChallengeTargetScoreProps",
			"objdata": {
				"Description": "[STARCHALLENGE_TARGET_SCORE]",
				"DescriptionFailure": "[STARCHALLENGE_TARGET_SCORE_FAILURE]",
				"DescriptiveName": "[STARCHALLENGE_TARGET_SCORE_NAME]",
				"TargetScore": 1000
			}
		},
		{
			"aliases": [
				"BeatTheLevel"
			],
			"objclass": "StarChallengeBeatTheLevelProps",
			"objdata": {
				"Description": "[STARCHALLENGE_LASTSTAND_MINIGAME]",
				"DescriptiveName": "[STARCHALLENGE_LASTSTAND_MINIGAME_NAME]"
			}
		},
		{
			"aliases": [
				"LastStand"
			],
			"objclass": "LastStandMinigameProperties",
			"objdata": {
				"StartingPlantfood": 0,
				"StartingSun": 1425
			}
		},
		{
			"aliases": [
				"LevelScoring"
			],
			"objclass": "LevelScoringModuleProperties",
			"objdata": {
				"PlantBonusMultiplier": 0.1,
				"PlantBonuses": [],
				"ScoringRulesType": "Battlez",
				"StartingPlantfood": 0
			}
		},
		{
			"aliases": [
				"ScoreTiles"
			],
			"objclass": "InitialGridItemProperties",
			"objdata": {
				"InitialGridItemPlacements": [
					{
						"GridX": 8,
						"GridY": 0,
						"TypeName": "score_5x_tile"
					},
					{
						"GridX": 8,
						"GridY": 1,
						"TypeName": "score_5x_tile"
					},
					{
						"GridX": 8,
						"GridY": 2,
						"TypeName": "score_5x_tile"
					},
					{
						"GridX": 8,
						"GridY": 3,
						"TypeName": "score_5x_tile"
					},
					{
						"GridX": 8,
						"GridY": 4,
						"TypeName": "score_5x_tile"
					},
					{
						"GridX": 7,
						"GridY": 0,
						"TypeName": "score_5x_tile"
					},
					{
						"GridX": 7,
						"GridY": 1,
						"TypeName": "score_5x_tile"
					},
					{
						"GridX": 7,
						"GridY": 2,
						"TypeName": "score_5x_tile"
					},
					{
						"GridX": 7,
						"GridY": 3,
						"TypeName": "score_5x_tile"
					},
					{
						"GridX": 7,
						"GridY": 4,
						"TypeName": "score_5x_tile"
					},
					{
						"GridX": 6,
						"GridY": 0,
						"TypeName": "score_3x_tile"
					},
					{
						"GridX": 6,
						"GridY": 1,
						"TypeName": "score_3x_tile"
					},
					{
						"GridX": 6,
						"GridY": 2,
						"TypeName": "score_3x_tile"
					},
					{
						"GridX": 6,
						"GridY": 3,
						"TypeName": "score_3x_tile"
					},
					{
						"GridX": 6,
						"GridY": 4,
						"TypeName": "score_3x_tile"
					},
					{
						"GridX": 5,
						"GridY": 0,
						"TypeName": "score_3x_tile"
					},
					{
						"GridX": 5,
						"GridY": 1,
						"TypeName": "score_3x_tile"
					},
					{
						"GridX": 5,
						"GridY": 2,
						"TypeName": "score_3x_tile"
					},
					{
						"GridX": 5,
						"GridY": 3,
						"TypeName": "score_3x_tile"
					},
					{
						"GridX": 5,
						"GridY": 4,
						"TypeName": "score_3x_tile"
					},
					{
						"GridX": 4,
						"GridY": 0,
						"TypeName": "score_2x_tile"
					},
					{
						"GridX": 4,
						"GridY": 1,
						"TypeName": "score_2x_tile"
					},
					{
						"GridX": 4,
						"GridY": 2,
						"TypeName": "score_2x_tile"
					},
					{
						"GridX": 4,
						"GridY": 3,
						"TypeName": "score_2x_tile"
					},
					{
						"GridX": 4,
						"GridY": 4,
						"TypeName": "score_2x_tile"
					},
					{
						"GridX": 3,
						"GridY": 0,
						"TypeName": "score_2x_tile"
					},
					{
						"GridX": 3,
						"GridY": 1,
						"TypeName": "score_2x_tile"
					},
					{
						"GridX": 3,
						"GridY": 2,
						"TypeName": "score_2x_tile"
					},
					{
						"GridX": 3,
						"GridY": 3,
						"TypeName": "score_2x_tile"
					},
					{
						"GridX": 3,
						"GridY": 4,
						"TypeName": "score_2x_tile"
					}
				]
			}
		},
		{
			"aliases": [
				"NewWaves"
			],
			"objclass": "WaveManagerModuleProperties",
			"objdata": {
				"DynamicZombies": [
					{
						"PointIncrementPerWave": -1,
						"StartingPoints": -1,
						"StartingWave": 1,
						"ZombiePool": [
							"RTID(roman@ZombieTypes)",
							"RTID(roman_armor1@ZombieTypes)",
							"RTID(roman_armor2@ZombieTypes)"
						]
					},
					{
						"PointIncrementPerWave": -1,
						"StartingPoints": -1,
						"StartingWave": 1,
						"ZombiePool": [
							"RTID(roman@ZombieTypes)",
							"RTID(roman_armor1@ZombieTypes)",
							"RTID(roman_armor2@ZombieTypes)"
						]
					},
					{
						"PointIncrementPerWave": -1,
						"StartingPoints": -1,
						"StartingWave": 1,
						"ZombiePool": [
							"RTID(roman@ZombieTypes)",
							"RTID(roman_armor1@ZombieTypes)",
							"RTID(roman_armor2@ZombieTypes)"
						]
					},
					{
						"MaxPoints": 3250,
						"PointIncrementPerWave": 200,
						"StartingPoints": 500,
						"StartingWave": 0,
						"ZombiePool": [
							"RTID(roman@ZombieTypes)",
							"RTID(roman_armor1@ZombieTypes)",
							"RTID(roman_armor2@ZombieTypes)"
						]
					},
					{
						"PointIncrementPerWave": 1,
						"StartingPoints": 1,
						"StartingWave": 1,
						"ZombiePool": [
							"RTID(roman@ZombieTypes)",
							"RTID(roman_armor1@ZombieTypes)",
							"RTID(roman_armor2@ZombieTypes)"
						]
					},
					{
						"PointIncrementPerWave": 1,
						"StartingPoints": 1,
						"StartingWave": 1,
						"ZombiePool": [
							"RTID(roman@ZombieTypes)",
							"RTID(roman_armor1@ZombieTypes)",
							"RTID(roman_armor2@ZombieTypes)"
						]
					},
					{
						"PointIncrementPerWave": 1,
						"StartingPoints": 1,
						"StartingWave": 1,
						"ZombiePool": [
							"RTID(roman@ZombieTypes)",
							"RTID(roman_armor2@ZombieTypes)"
						]
					}
				],
				"WaveManagerProps": "RTID(WaveManagerProps@CurrentLevel)"
			}
		},
		{
			"aliases": [
				"WaveManagerProps"
			],
			"objclass": "WaveManagerProperties",
			"objdata": {
				"FlagWaveInterval": 120,
				"WaveCount": 12,
				"WaveSpendingPointIncrement": 150,
				"WaveSpendingPoints": 0,
				"Waves": [
					[
						"RTID(Wave1@CurrentLevel)",
						"RTID(Wave1GravestoneEvent0@CurrentLevel)"
					],
					[
						"RTID(Wave2@CurrentLevel)",
						"RTID(Wave2GravestoneEvent0@CurrentLevel)",
						"RTID(Wave2GraveSpawnEvent0@CurrentLevel)"
					],
					[
						"RTID(Wave3@CurrentLevel)",
						"RTID(Wave3GravestoneEvent0@CurrentLevel)",
						"RTID(Wave3GraveSpawnEvent0@CurrentLevel)"
					],
					[
						"RTID(Wave4@CurrentLevel)",
						"RTID(Wave4GravestoneEvent0@CurrentLevel)",
						"RTID(Wave4GraveSpawnEvent0@CurrentLevel)"
					],
					[
						"RTID(Wave5@CurrentLevel)",
						"RTID(Wave5GravestoneEvent0@CurrentLevel)",
						"RTID(Wave5GraveSpawnEvent0@CurrentLevel)"
					],
					[
						"RTID(Wave6@CurrentLevel)",
						"RTID(Wave6GravestoneEvent0@CurrentLevel)",
						"RTID(Wave6GraveSpawnEvent0@CurrentLevel)"
					],
					[
						"RTID(Wave7@CurrentLevel)",
						"RTID(Wave7GravestoneEvent0@CurrentLevel)",
						"RTID(Wave7GraveSpawnEvent0@CurrentLevel)"
					],
					[
						"RTID(Wave8@CurrentLevel)",
						"RTID(Wave8GravestoneEvent0@CurrentLevel)",
						"RTID(Wave8GraveSpawnEvent0@CurrentLevel)"
					],
					[
						"RTID(Wave9@CurrentLevel)",
						"RTID(Wave9GravestoneEvent0@CurrentLevel)",
						"RTID(Wave9GraveSpawnEvent0@CurrentLevel)"
					],
					[
						"RTID(Wave10@CurrentLevel)",
						"RTID(Wave10GravestoneEvent0@CurrentLevel)",
						"RTID(Wave10GraveSpawnEvent0@CurrentLevel)"
					],
					[
						"RTID(Wave11@CurrentLevel)",
						"RTID(Wave11GravestoneEvent0@CurrentLevel)",
						"RTID(Wave11GraveSpawnEvent0@CurrentLevel)"
					],
					[
						"RTID(Wave12@CurrentLevel)",
						"RTID(Wave12GravestoneEvent0@CurrentLevel)",
						"RTID(Wave12GraveSpawnEvent0@CurrentLevel)"
					]
				],
				"WavesAlwaysRandomized": true
			}
		},
		{
			"aliases": [
				"Wave1"
			],
			"objclass": "SpawnZombiesJitteredWaveActionProps",
			"objdata": {
				"ForcedCondition": {
					"Condition": "suncarrier100",
					"Duration": 30
				},
				"Zombies": [
					{
						"Row": "3",
						"Type": "RTID(roman_shield_triad@ZombieTypes)"
					}
				]
			}
		},
		{
			"aliases": [
				"Wave2"
			],
			"objclass": "SpawnZombiesJitteredWaveActionProps",
			"objdata": {
				"ForcedCondition": {
					"Condition": "suncarrier100",
					"Duration": 25
				},
				"Zombies": [
					{
						"Row": "5",
						"Type": "RTID(roman_shield_triad@ZombieTypes)"
					},
					{
						"Row": "1",
						"Type": "RTID(roman_shield_triad@ZombieTypes)"
					}
				]
			}
		},
		{
			"aliases": [
				"Wave3"
			],
			"objclass": "SpawnZombiesJitteredWaveActionProps",
			"objdata": {
				"ForcedCondition": {
					"Condition": "suncarrier100",
					"Duration": 20
				},
				"Zombies": [
					{
						"Row": "5",
						"Type": "RTID(roman_shield_triad@ZombieTypes)"
					},
					{
						"Row": "3",
						"Type": "RTID(roman_shield_triad@ZombieTypes)"
					},
					{
						"Row": "1",
						"Type": "RTID(roman_shield_triad@ZombieTypes)"
					}
				]
			}
		},
		{
			"aliases": [
				"Wave4"
			],
			"objclass": "SpawnZombiesJitteredWaveActionProps",
			"objdata": {
				"ForcedCondition": {
					"Condition": "suncarrier100",
					"Duration": 20
				},
				"Zombies": [
					{
						"Row": "5",
						"Type": "RTID(roman_shield_triad@ZombieTypes)"
					},
					{
						"Row": "1",
						"Type": "RTID(roman_shield_triad@ZombieTypes)"
					}
				]
			}
		},
		{
			"aliases": [
				"Wave5"
			],
			"objclass": "SpawnZombiesJitteredWaveActionProps",
			"objdata": {
				"ForcedCondition": {
					"Condition": "suncarrier100",
					"Duration": 20
				},
				"Zombies": [
					{
						"Row": "3",
						"Type": "RTID(roman_shield_triad@ZombieTypes)"
					},
					{
						"Row": "3",
						"Type": "RTID(roman_shield_triad@ZombieTypes)"
					}
				]
			}
		},
		{
			"aliases": [
				"Wave6"
			],
			"objclass": "SpawnZombiesJitteredWaveActionProps",
			"objdata": {
				"ForcedCondition": {
					"Condition": "suncarrier100",
					"Duration": 20
				},
				"Zombies": [
					{
						"Row": "5",
						"Type": "RTID(roman_shield_triad@ZombieTypes)"
					},
					{
						"Row": "1",
						"Type": "RTID(roman_shield_triad@ZombieTypes)"
					},
					{
						"Row": "5",
						"Type": "RTID(roman_shield_triad@ZombieTypes)"
					},
					{
						"Type": "RTID(future_protector@ZombieTypes)"
					},
					{
						"Type": "RTID(future_protector@ZombieTypes)"
					}
				]
			}
		},
		{
			"aliases": [
				"Wave7"
			],
			"objclass": "SpawnZombiesJitteredWaveActionProps",
			"objdata": {
				"AdditionalPlantfood": 1,
				"ForcedCondition": {
					"Condition": "suncarrier100",
					"Duration": 20
				},
				"Zombies": [
					{
						"Row": "1",
						"Type": "RTID(roman_shield_triad@ZombieTypes)"
					},
					{
						"Row": "1",
						"Type": "RTID(roman_shield_triad@ZombieTypes)"
					},
					{
						"Row": "5",
						"Type": "RTID(roman_shield_triad@ZombieTypes)"
					}
				]
			}
		},
		{
			"aliases": [
				"Wave8"
			],
			"objclass": "SpawnZombiesJitteredWaveActionProps",
			"objdata": {
				"ForcedCondition": {
					"Condition": "suncarrier100",
					"Duration": 20
				},
				"Zombies": [
					{
						"Row": "1",
						"Type": "RTID(roman_shield_triad@ZombieTypes)"
					},
					{
						"Row": "5",
						"Type": "RTID(roman_shield_triad@ZombieTypes)"
					},
					{
						"Row": "3",
						"Type": "RTID(roman_shield_triad@ZombieTypes)"
					}
				]
			}
		},
		{
			"aliases": [
				"Wave9"
			],
			"objclass": "SpawnZombiesJitteredWaveActionProps",
			"objdata": {
				"ForcedCondition": {
					"Condition": "suncarrier100",
					"Duration": 20
				},
				"Zombies": [
					{
						"Type": "RTID(future_protector@ZombieTypes)"
					},
					{
						"Type": "RTID(future_protector@ZombieTypes)"
					},
					{
						"Row": "3",
						"Type": "RTID(roman_shield_triad@ZombieTypes)"
					},
					{
						"Row": "3",
						"Type": "RTID(roman_shield_triad@ZombieTypes)"
					},
					{
						"Row": "1",
						"Type": "RTID(roman_shield_triad@ZombieTypes)"
					},
					{
						"Row": "5",
						"Type": "RTID(roman_shield_triad@ZombieTypes)"
					}
				]
			}
		},
		{
			"aliases": [
				"Wave10"
			],
			"objclass": "SpawnZombiesJitteredWaveActionProps",
			"objdata": {
				"ForcedCondition": {
					"Condition": "suncarrier100",
					"Duration": 20
				},
				"Zombies": [
					{
						"Row": "5",
						"Type": "RTID(roman_shield_triad@ZombieTypes)"
					},
					{
						"Row": "5",
						"Type": "RTID(roman_shield_triad@ZombieTypes)"
					},
					{
						"Row": "1",
						"Type": "RTID(roman_shield_triad@ZombieTypes)"
					},
					{
						"Row": "1",
						"Type": "RTID(roman_shield_triad@ZombieTypes)"
					}
				]
			}
		},
		{
			"aliases": [
				"Wave11"
			],
			"objclass": "SpawnZombiesJitteredWaveActionProps",
			"objdata": {
				"ForcedCondition": {
					"Condition": "suncarrier100",
					"Duration": 20
				},
				"Zombies": [
					{
						"Row": "5",
						"Type": "RTID(roman_shield_triad@ZombieTypes)"
					},
					{
						"Row": "5",
						"Type": "RTID(roman_shield_triad@ZombieTypes)"
					},
					{
						"Row": "1",
						"Type": "RTID(roman_shield_triad@ZombieTypes)"
					},
					{
						"Row": "1",
						"Type": "RTID(roman_shield_triad@ZombieTypes)"
					}
				]
			}
		},
		{
			"aliases": [
				"Wave12"
			],
			"objclass": "SpawnZombiesJitteredWaveActionProps",
			"objdata": {
				"ForcedCondition": {
					"Condition": "suncarrier100",
					"Duration": 20
				},
				"Zombies": [
					{
						"Type": "RTID(modern_allstar@ZombieTypes)"
					},
					{
						"Row": "1",
						"Type": "RTID(roman_shield_triad@ZombieTypes)"
					},
					{
						"Row": "3",
						"Type": "RTID(roman_shield_triad@ZombieTypes)"
					},
					{
						"Row": "3",
						"Type": "RTID(roman_shield_triad@ZombieTypes)"
					},
					{
						"Row": "5",
						"Type": "RTID(roman_shield_triad@ZombieTypes)"
					}
				]
			}
		},
		{
			"aliases": [
				"Wave1GravestoneEvent0"
			],
			"objclass": "SpawnGravestonesWaveActionProps",
			"objdata": {
				"GravestonePool": [
					{
						"Count": 3,
						"Type": "RTID(gravestone_dark@GridItemTypes)"
					},
					{
						"Count": 0,
						"Type": "RTID(gravestoneSunOnDestruction@GridItemTypes)"
					},
					{
						"Count": 0,
						"Type": "RTID(gravestonePlantfoodOnDestruction@GridItemTypes)"
					}
				],
				"SpawnEffectAnimID": "POPANIM_EFFECTS_TOMBSTONE_DARK_SPAWN_EFFECT",
				"SpawnPositionsPool": [
					{
						"mX": 2,
						"mY": 0
					},
					{
						"mX": 2,
						"mY": 1
					},
					{
						"mX": 2,
						"mY": 2
					},
					{
						"mX": 2,
						"mY": 3
					},
					{
						"mX": 2,
						"mY": 4
					},
					{
						"mX": 3,
						"mY": 0
					},
					{
						"mX": 3,
						"mY": 1
					},
					{
						"mX": 3,
						"mY": 2
					},
					{
						"mX": 3,
						"mY": 3
					},
					{
						"mX": 3,
						"mY": 4
					},
					{
						"mX": 4,
						"mY": 0
					},
					{
						"mX": 4,
						"mY": 1
					},
					{
						"mX": 4,
						"mY": 2
					},
					{
						"mX": 4,
						"mY": 3
					},
					{
						"mX": 4,
						"mY": 4
					},
					{
						"mX": 5,
						"mY": 0
					},
					{
						"mX": 5,
						"mY": 1
					},
					{
						"mX": 5,
						"mY": 2
					},
					{
						"mX": 5,
						"mY": 3
					},
					{
						"mX": 5,
						"mY": 4
					},
					{
						"mX": 6,
						"mY": 0
					},
					{
						"mX": 6,
						"mY": 1
					},
					{
						"mX": 6,
						"mY": 2
					},
					{
						"mX": 6,
						"mY": 3
					},
					{
						"mX": 6,
						"mY": 4
					},
					{
						"mX": 7,
						"mY": 0
					},
					{
						"mX": 7,
						"mY": 1
					},
					{
						"mX": 7,
						"mY": 2
					},
					{
						"mX": 7,
						"mY": 3
					},
					{
						"mX": 7,
						"mY": 4
					},
					{
						"mX": 8,
						"mY": 0
					},
					{
						"mX": 8,
						"mY": 1
					},
					{
						"mX": 8,
						"mY": 2
					},
					{
						"mX": 8,
						"mY": 3
					},
					{
						"mX": 8,
						"mY": 4
					}
				],
				"SpawnSoundID": "Play_Zomb_Egypt_TombRaiser_Grave_Rise"
			}
		},
		{
			"aliases": [
				"Wave2GraveSpawnEvent0"
			],
			"objclass": "SpawnZombiesFromGridItemSpawnerProps",
			"objdata": {
				"AdditionalPlantfood": "0",
				"GridTypes": [
					"RTID(gravestone_dark@GridItemTypes)",
					"RTID(gravestoneSunOnDestruction@GridItemTypes)",
					"RTID(gravestonePlantfoodOnDestruction@GridItemTypes)"
				],
				"WaveStartMessage": "[WARNING_GRAVESTONE_SPAWN]",
				"ZombieSpawnWaitTime": "1",
				"Zombies": [
					{
						"Type": "RTID(dark_juggler@ZombieTypes)"
					}
				]
			}
		},
		{
			"aliases": [
				"Wave2GravestoneEvent0"
			],
			"objclass": "SpawnGravestonesWaveActionProps",
			"objdata": {
				"GravestonePool": [
					{
						"Count": 3,
						"Type": "RTID(gravestone_dark@GridItemTypes)"
					},
					{
						"Count": 0,
						"Type": "RTID(gravestoneSunOnDestruction@GridItemTypes)"
					},
					{
						"Count": 0,
						"Type": "RTID(gravestonePlantfoodOnDestruction@GridItemTypes)"
					}
				],
				"SpawnEffectAnimID": "POPANIM_EFFECTS_TOMBSTONE_DARK_SPAWN_EFFECT",
				"SpawnPositionsPool": [
					{
						"mX": 5,
						"mY": 0
					},
					{
						"mX": 5,
						"mY": 1
					},
					{
						"mX": 5,
						"mY": 2
					},
					{
						"mX": 5,
						"mY": 3
					},
					{
						"mX": 5,
						"mY": 4
					},
					{
						"mX": 6,
						"mY": 0
					},
					{
						"mX": 6,
						"mY": 1
					},
					{
						"mX": 6,
						"mY": 2
					},
					{
						"mX": 6,
						"mY": 3
					},
					{
						"mX": 6,
						"mY": 4
					},
					{
						"mX": 7,
						"mY": 0
					},
					{
						"mX": 7,
						"mY": 1
					},
					{
						"mX": 7,
						"mY": 2
					},
					{
						"mX": 7,
						"mY": 3
					},
					{
						"mX": 7,
						"mY": 4
					},
					{
						"mX": 8,
						"mY": 0
					},
					{
						"mX": 8,
						"mY": 1
					},
					{
						"mX": 8,
						"mY": 2
					},
					{
						"mX": 8,
						"mY": 3
					},
					{
						"mX": 8,
						"mY": 4
					}
				],
				"SpawnSoundID": "Play_Zomb_Egypt_TombRaiser_Grave_Rise"
			}
		},
		{
			"aliases": [
				"Wave3GravestoneEvent0"
			],
			"objclass": "SpawnGravestonesWaveActionProps",
			"objdata": {
				"GravestonePool": [
					{
						"Count": 2,
						"Type": "RTID(gravestone_dark@GridItemTypes)"
					},
					{
						"Count": 0,
						"Type": "RTID(gravestoneSunOnDestruction@GridItemTypes)"
					},
					{
						"Count": 1,
						"Type": "RTID(gravestonePlantfoodOnDestruction@GridItemTypes)"
					}
				],
				"SpawnEffectAnimID": "POPANIM_EFFECTS_TOMBSTONE_DARK_SPAWN_EFFECT",
				"SpawnPositionsPool": [
					{
						"mX": 4,
						"mY": 0
					},
					{
						"mX": 4,
						"mY": 1
					},
					{
						"mX": 4,
						"mY": 2
					},
					{
						"mX": 4,
						"mY": 3
					},
					{
						"mX": 4,
						"mY": 4
					},
					{
						"mX": 5,
						"mY": 0
					},
					{
						"mX": 5,
						"mY": 1
					},
					{
						"mX": 5,
						"mY": 2
					},
					{
						"mX": 5,
						"mY": 3
					},
					{
						"mX": 5,
						"mY": 4
					},
					{
						"mX": 6,
						"mY": 0
					},
					{
						"mX": 6,
						"mY": 1
					},
					{
						"mX": 6,
						"mY": 2
					},
					{
						"mX": 6,
						"mY": 3
					},
					{
						"mX": 6,
						"mY": 4
					},
					{
						"mX": 7,
						"mY": 0
					},
					{
						"mX": 7,
						"mY": 1
					},
					{
						"mX": 7,
						"mY": 2
					},
					{
						"mX": 7,
						"mY": 3
					},
					{
						"mX": 7,
						"mY": 4
					},
					{
						"mX": 8,
						"mY": 0
					},
					{
						"mX": 8,
						"mY": 1
					},
					{
						"mX": 8,
						"mY": 2
					},
					{
						"mX": 8,
						"mY": 3
					},
					{
						"mX": 8,
						"mY": 4
					}
				],
				"SpawnSoundID": "Play_Zomb_Egypt_TombRaiser_Grave_Rise"
			}
		},
		{
			"aliases": [
				"Wave4GravestoneEvent0"
			],
			"objclass": "SpawnGravestonesWaveActionProps",
			"objdata": {
				"GravestonePool": [
					{
						"Count": 3,
						"Type": "RTID(gravestone_dark@GridItemTypes)"
					},
					{
						"Count": 0,
						"Type": "RTID(gravestoneSunOnDestruction@GridItemTypes)"
					},
					{
						"Count": 0,
						"Type": "RTID(gravestonePlantfoodOnDestruction@GridItemTypes)"
					}
				],
				"SpawnEffectAnimID": "POPANIM_EFFECTS_TOMBSTONE_DARK_SPAWN_EFFECT",
				"SpawnPositionsPool": [
					{
						"mX": 3,
						"mY": 0
					},
					{
						"mX": 3,
						"mY": 1
					},
					{
						"mX": 3,
						"mY": 2
					},
					{
						"mX": 3,
						"mY": 3
					},
					{
						"mX": 3,
						"mY": 4
					},
					{
						"mX": 4,
						"mY": 0
					},
					{
						"mX": 4,
						"mY": 1
					},
					{
						"mX": 4,
						"mY": 2
					},
					{
						"mX": 4,
						"mY": 3
					},
					{
						"mX": 4,
						"mY": 4
					},
					{
						"mX": 5,
						"mY": 0
					},
					{
						"mX": 5,
						"mY": 1
					},
					{
						"mX": 5,
						"mY": 2
					},
					{
						"mX": 5,
						"mY": 3
					},
					{
						"mX": 5,
						"mY": 4
					},
					{
						"mX": 6,
						"mY": 0
					},
					{
						"mX": 6,
						"mY": 1
					},
					{
						"mX": 6,
						"mY": 2
					},
					{
						"mX": 6,
						"mY": 3
					},
					{
						"mX": 6,
						"mY": 4
					},
					{
						"mX": 7,
						"mY": 0
					},
					{
						"mX": 7,
						"mY": 1
					},
					{
						"mX": 7,
						"mY": 2
					},
					{
						"mX": 7,
						"mY": 3
					},
					{
						"mX": 7,
						"mY": 4
					},
					{
						"mX": 8,
						"mY": 0
					},
					{
						"mX": 8,
						"mY": 1
					},
					{
						"mX": 8,
						"mY": 2
					},
					{
						"mX": 8,
						"mY": 3
					},
					{
						"mX": 8,
						"mY": 4
					}
				],
				"SpawnSoundID": "Play_Zomb_Egypt_TombRaiser_Grave_Rise"
			}
		},
		{
			"aliases": [
				"Wave4GraveSpawnEvent0"
			],
			"objclass": "SpawnZombiesFromGridItemSpawnerProps",
			"objdata": {
				"AdditionalPlantfood": "0",
				"GridTypes": [
					"RTID(gravestone_dark@GridItemTypes)",
					"RTID(gravestoneSunOnDestruction@GridItemTypes)",
					"RTID(gravestonePlantfoodOnDestruction@GridItemTypes)"
				],
				"WaveStartMessage": "[WARNING_GRAVESTONE_SPAWN]",
				"ZombieSpawnWaitTime": "1",
				"Zombies": [
					{
						"Type": "RTID(eighties_mc@ZombieTypes)"
					}
				]
			}
		},
		{
			"aliases": [
				"Wave3GraveSpawnEvent0"
			],
			"objclass": "SpawnZombiesFromGridItemSpawnerProps",
			"objdata": {
				"AdditionalPlantfood": "0",
				"GridTypes": [
					"RTID(gravestone_dark@GridItemTypes)",
					"RTID(gravestoneSunOnDestruction@GridItemTypes)",
					"RTID(gravestonePlantfoodOnDestruction@GridItemTypes)"
				],
				"WaveStartMessage": "[WARNING_GRAVESTONE_SPAWN]",
				"ZombieSpawnWaitTime": "1",
				"Zombies": [
					{
						"Type": "RTID(eighties_breakdancer@ZombieTypes)"
					}
				]
			}
		},
		{
			"aliases": [
				"Wave5GraveSpawnEvent0"
			],
			"objclass": "SpawnZombiesFromGridItemSpawnerProps",
			"objdata": {
				"AdditionalPlantfood": "0",
				"GridTypes": [
					"RTID(gravestone_dark@GridItemTypes)",
					"RTID(gravestoneSunOnDestruction@GridItemTypes)",
					"RTID(gravestonePlantfoodOnDestruction@GridItemTypes)"
				],
				"WaveStartMessage": "[WARNING_GRAVESTONE_SPAWN]",
				"ZombieSpawnWaitTime": "1",
				"Zombies": [
					{
						"Type": "RTID(eighties_breakdancer@ZombieTypes)"
					}
				]
			}
		},
		{
			"aliases": [
				"Wave6GraveSpawnEvent0"
			],
			"objclass": "SpawnZombiesFromGridItemSpawnerProps",
			"objdata": {
				"AdditionalPlantfood": "0",
				"GridTypes": [
					"RTID(gravestone_dark@GridItemTypes)",
					"RTID(gravestoneSunOnDestruction@GridItemTypes)",
					"RTID(gravestonePlantfoodOnDestruction@GridItemTypes)"
				],
				"WaveStartMessage": "[WARNING_GRAVESTONE_SPAWN]",
				"ZombieSpawnWaitTime": "1",
				"Zombies": [
					{
						"Type": "RTID(dark_juggler@ZombieTypes)"
					}
				]
			}
		},
		{
			"aliases": [
				"Wave7GraveSpawnEvent0"
			],
			"objclass": "SpawnZombiesFromGridItemSpawnerProps",
			"objdata": {
				"AdditionalPlantfood": "0",
				"GridTypes": [
					"RTID(gravestone_dark@GridItemTypes)",
					"RTID(gravestoneSunOnDestruction@GridItemTypes)",
					"RTID(gravestonePlantfoodOnDestruction@GridItemTypes)"
				],
				"WaveStartMessage": "[WARNING_GRAVESTONE_SPAWN]",
				"ZombieSpawnWaitTime": "1",
				"Zombies": [
					{
						"Type": "RTID(eighties_breakdancer@ZombieTypes)"
					}
				]
			}
		},
		{
			"aliases": [
				"Wave8GraveSpawnEvent0"
			],
			"objclass": "SpawnZombiesFromGridItemSpawnerProps",
			"objdata": {
				"AdditionalPlantfood": "0",
				"GridTypes": [
					"RTID(gravestone_dark@GridItemTypes)",
					"RTID(gravestoneSunOnDestruction@GridItemTypes)",
					"RTID(gravestonePlantfoodOnDestruction@GridItemTypes)"
				],
				"WaveStartMessage": "[WARNING_GRAVESTONE_SPAWN]",
				"ZombieSpawnWaitTime": "1",
				"Zombies": [
					{
						"Type": "RTID(eighties_mc@ZombieTypes)"
					},
					{
						"Type": "RTID(eighties_breakdancer@ZombieTypes)"
					}
				]
			}
		},
		{
			"aliases": [
				"Wave9GraveSpawnEvent0"
			],
			"objclass": "SpawnZombiesFromGridItemSpawnerProps",
			"objdata": {
				"AdditionalPlantfood": "0",
				"GridTypes": [
					"RTID(gravestone_dark@GridItemTypes)",
					"RTID(gravestoneSunOnDestruction@GridItemTypes)",
					"RTID(gravestonePlantfoodOnDestruction@GridItemTypes)"
				],
				"WaveStartMessage": "[WARNING_GRAVESTONE_SPAWN]",
				"ZombieSpawnWaitTime": "1",
				"Zombies": [
					{
						"Type": "RTID(dark_juggler@ZombieTypes)"
					}
				]
			}
		},
		{
			"aliases": [
				"Wave10GraveSpawnEvent0"
			],
			"objclass": "SpawnZombiesFromGridItemSpawnerProps",
			"objdata": {
				"AdditionalPlantfood": "0",
				"GridTypes": [
					"RTID(gravestone_dark@GridItemTypes)",
					"RTID(gravestoneSunOnDestruction@GridItemTypes)",
					"RTID(gravestonePlantfoodOnDestruction@GridItemTypes)"
				],
				"WaveStartMessage": "[WARNING_GRAVESTONE_SPAWN]",
				"ZombieSpawnWaitTime": "1",
				"Zombies": [
					{
						"Type": "RTID(eighties_mc@ZombieTypes)"
					},
					{
						"Type": "RTID(eighties_breakdancer@ZombieTypes)"
					}
				]
			}
		},
		{
			"aliases": [
				"Wave11GraveSpawnEvent0"
			],
			"objclass": "SpawnZombiesFromGridItemSpawnerProps",
			"objdata": {
				"AdditionalPlantfood": "0",
				"GridTypes": [
					"RTID(gravestone_dark@GridItemTypes)",
					"RTID(gravestoneSunOnDestruction@GridItemTypes)",
					"RTID(gravestonePlantfoodOnDestruction@GridItemTypes)"
				],
				"WaveStartMessage": "[WARNING_GRAVESTONE_SPAWN]",
				"ZombieSpawnWaitTime": "1",
				"Zombies": [
					{
						"Type": "RTID(eighties_breakdancer@ZombieTypes)"
					}
				]
			}
		},
		{
			"aliases": [
				"Wave12GraveSpawnEvent0"
			],
			"objclass": "SpawnZombiesFromGridItemSpawnerProps",
			"objdata": {
				"AdditionalPlantfood": "0",
				"GridTypes": [
					"RTID(gravestone_dark@GridItemTypes)",
					"RTID(gravestoneSunOnDestruction@GridItemTypes)",
					"RTID(gravestonePlantfoodOnDestruction@GridItemTypes)"
				],
				"WaveStartMessage": "[WARNING_GRAVESTONE_SPAWN]",
				"ZombieSpawnWaitTime": "1",
				"Zombies": [
					{
						"Type": "RTID(dark_juggler@ZombieTypes)"
					},
					{
						"Type": "RTID(dark_juggler@ZombieTypes)"
					}
				]
			}
		},
		{
			"aliases": [
				"Wave5GravestoneEvent0"
			],
			"objclass": "SpawnGravestonesWaveActionProps",
			"objdata": {
				"GravestonePool": [
					{
						"Count": 3,
						"Type": "RTID(gravestone_dark@GridItemTypes)"
					},
					{
						"Count": 0,
						"Type": "RTID(gravestoneSunOnDestruction@GridItemTypes)"
					},
					{
						"Count": 0,
						"Type": "RTID(gravestonePlantfoodOnDestruction@GridItemTypes)"
					}
				],
				"SpawnEffectAnimID": "POPANIM_EFFECTS_TOMBSTONE_DARK_SPAWN_EFFECT",
				"SpawnPositionsPool": [
					{
						"mX": 2,
						"mY": 0
					},
					{
						"mX": 2,
						"mY": 1
					},
					{
						"mX": 2,
						"mY": 2
					},
					{
						"mX": 2,
						"mY": 3
					},
					{
						"mX": 2,
						"mY": 4
					},
					{
						"mX": 3,
						"mY": 0
					},
					{
						"mX": 3,
						"mY": 1
					},
					{
						"mX": 3,
						"mY": 2
					},
					{
						"mX": 3,
						"mY": 3
					},
					{
						"mX": 3,
						"mY": 4
					},
					{
						"mX": 4,
						"mY": 0
					},
					{
						"mX": 4,
						"mY": 1
					},
					{
						"mX": 4,
						"mY": 2
					},
					{
						"mX": 4,
						"mY": 3
					},
					{
						"mX": 4,
						"mY": 4
					},
					{
						"mX": 5,
						"mY": 0
					},
					{
						"mX": 5,
						"mY": 1
					},
					{
						"mX": 5,
						"mY": 2
					},
					{
						"mX": 5,
						"mY": 3
					},
					{
						"mX": 5,
						"mY": 4
					},
					{
						"mX": 6,
						"mY": 0
					},
					{
						"mX": 6,
						"mY": 1
					},
					{
						"mX": 6,
						"mY": 2
					},
					{
						"mX": 6,
						"mY": 3
					},
					{
						"mX": 6,
						"mY": 4
					},
					{
						"mX": 7,
						"mY": 0
					},
					{
						"mX": 7,
						"mY": 1
					},
					{
						"mX": 7,
						"mY": 2
					},
					{
						"mX": 7,
						"mY": 3
					},
					{
						"mX": 7,
						"mY": 4
					},
					{
						"mX": 8,
						"mY": 0
					},
					{
						"mX": 8,
						"mY": 1
					},
					{
						"mX": 8,
						"mY": 2
					},
					{
						"mX": 8,
						"mY": 3
					},
					{
						"mX": 8,
						"mY": 4
					}
				],
				"SpawnSoundID": "Play_Zomb_Egypt_TombRaiser_Grave_Rise"
			}
		},
		{
			"aliases": [
				"Wave6GravestoneEvent0"
			],
			"objclass": "SpawnGravestonesWaveActionProps",
			"objdata": {
				"GravestonePool": [
					{
						"Count": 2,
						"Type": "RTID(gravestone_dark@GridItemTypes)"
					},
					{
						"Count": 0,
						"Type": "RTID(gravestoneSunOnDestruction@GridItemTypes)"
					},
					{
						"Count": 1,
						"Type": "RTID(gravestonePlantfoodOnDestruction@GridItemTypes)"
					}
				],
				"SpawnEffectAnimID": "POPANIM_EFFECTS_TOMBSTONE_DARK_SPAWN_EFFECT",
				"SpawnPositionsPool": [
					{
						"mX": 2,
						"mY": 0
					},
					{
						"mX": 2,
						"mY": 1
					},
					{
						"mX": 2,
						"mY": 2
					},
					{
						"mX": 2,
						"mY": 3
					},
					{
						"mX": 2,
						"mY": 4
					},
					{
						"mX": 3,
						"mY": 0
					},
					{
						"mX": 3,
						"mY": 1
					},
					{
						"mX": 3,
						"mY": 2
					},
					{
						"mX": 3,
						"mY": 3
					},
					{
						"mX": 3,
						"mY": 4
					},
					{
						"mX": 4,
						"mY": 0
					},
					{
						"mX": 4,
						"mY": 1
					},
					{
						"mX": 4,
						"mY": 2
					},
					{
						"mX": 4,
						"mY": 3
					},
					{
						"mX": 4,
						"mY": 4
					},
					{
						"mX": 5,
						"mY": 0
					},
					{
						"mX": 5,
						"mY": 1
					},
					{
						"mX": 5,
						"mY": 2
					},
					{
						"mX": 5,
						"mY": 3
					},
					{
						"mX": 5,
						"mY": 4
					},
					{
						"mX": 6,
						"mY": 0
					},
					{
						"mX": 6,
						"mY": 1
					},
					{
						"mX": 6,
						"mY": 2
					},
					{
						"mX": 6,
						"mY": 3
					},
					{
						"mX": 6,
						"mY": 4
					},
					{
						"mX": 7,
						"mY": 0
					},
					{
						"mX": 7,
						"mY": 1
					},
					{
						"mX": 7,
						"mY": 2
					},
					{
						"mX": 7,
						"mY": 3
					},
					{
						"mX": 7,
						"mY": 4
					},
					{
						"mX": 8,
						"mY": 0
					},
					{
						"mX": 8,
						"mY": 1
					},
					{
						"mX": 8,
						"mY": 2
					},
					{
						"mX": 8,
						"mY": 3
					},
					{
						"mX": 8,
						"mY": 4
					}
				],
				"SpawnSoundID": "Play_Zomb_Egypt_TombRaiser_Grave_Rise"
			}
		},
		{
			"aliases": [
				"Wave7GravestoneEvent0"
			],
			"objclass": "SpawnGravestonesWaveActionProps",
			"objdata": {
				"GravestonePool": [
					{
						"Count": 3,
						"Type": "RTID(gravestone_dark@GridItemTypes)"
					},
					{
						"Count": 0,
						"Type": "RTID(gravestoneSunOnDestruction@GridItemTypes)"
					},
					{
						"Count": 0,
						"Type": "RTID(gravestonePlantfoodOnDestruction@GridItemTypes)"
					}
				],
				"SpawnEffectAnimID": "POPANIM_EFFECTS_TOMBSTONE_DARK_SPAWN_EFFECT",
				"SpawnPositionsPool": [
					{
						"mX": 2,
						"mY": 0
					},
					{
						"mX": 2,
						"mY": 1
					},
					{
						"mX": 2,
						"mY": 2
					},
					{
						"mX": 2,
						"mY": 3
					},
					{
						"mX": 2,
						"mY": 4
					},
					{
						"mX": 3,
						"mY": 0
					},
					{
						"mX": 3,
						"mY": 1
					},
					{
						"mX": 3,
						"mY": 2
					},
					{
						"mX": 3,
						"mY": 3
					},
					{
						"mX": 3,
						"mY": 4
					},
					{
						"mX": 4,
						"mY": 0
					},
					{
						"mX": 4,
						"mY": 1
					},
					{
						"mX": 4,
						"mY": 2
					},
					{
						"mX": 4,
						"mY": 3
					},
					{
						"mX": 4,
						"mY": 4
					},
					{
						"mX": 5,
						"mY": 0
					},
					{
						"mX": 5,
						"mY": 1
					},
					{
						"mX": 5,
						"mY": 2
					},
					{
						"mX": 5,
						"mY": 3
					},
					{
						"mX": 5,
						"mY": 4
					},
					{
						"mX": 6,
						"mY": 0
					},
					{
						"mX": 6,
						"mY": 1
					},
					{
						"mX": 6,
						"mY": 2
					},
					{
						"mX": 6,
						"mY": 3
					},
					{
						"mX": 6,
						"mY": 4
					},
					{
						"mX": 7,
						"mY": 0
					},
					{
						"mX": 7,
						"mY": 1
					},
					{
						"mX": 7,
						"mY": 2
					},
					{
						"mX": 7,
						"mY": 3
					},
					{
						"mX": 7,
						"mY": 4
					},
					{
						"mX": 8,
						"mY": 0
					},
					{
						"mX": 8,
						"mY": 1
					},
					{
						"mX": 8,
						"mY": 2
					},
					{
						"mX": 8,
						"mY": 3
					},
					{
						"mX": 8,
						"mY": 4
					}
				],
				"SpawnSoundID": "Play_Zomb_Egypt_TombRaiser_Grave_Rise"
			}
		},
		{
			"aliases": [
				"Wave8GravestoneEvent0"
			],
			"objclass": "SpawnGravestonesWaveActionProps",
			"objdata": {
				"GravestonePool": [
					{
						"Count": 3,
						"Type": "RTID(gravestone_dark@GridItemTypes)"
					},
					{
						"Count": 0,
						"Type": "RTID(gravestoneSunOnDestruction@GridItemTypes)"
					},
					{
						"Count": 0,
						"Type": "RTID(gravestonePlantfoodOnDestruction@GridItemTypes)"
					}
				],
				"SpawnEffectAnimID": "POPANIM_EFFECTS_TOMBSTONE_DARK_SPAWN_EFFECT",
				"SpawnPositionsPool": [
					{
						"mX": 2,
						"mY": 0
					},
					{
						"mX": 2,
						"mY": 1
					},
					{
						"mX": 2,
						"mY": 2
					},
					{
						"mX": 2,
						"mY": 3
					},
					{
						"mX": 2,
						"mY": 4
					},
					{
						"mX": 3,
						"mY": 0
					},
					{
						"mX": 3,
						"mY": 1
					},
					{
						"mX": 3,
						"mY": 2
					},
					{
						"mX": 3,
						"mY": 3
					},
					{
						"mX": 3,
						"mY": 4
					},
					{
						"mX": 4,
						"mY": 0
					},
					{
						"mX": 4,
						"mY": 1
					},
					{
						"mX": 4,
						"mY": 2
					},
					{
						"mX": 4,
						"mY": 3
					},
					{
						"mX": 4,
						"mY": 4
					},
					{
						"mX": 5,
						"mY": 0
					},
					{
						"mX": 5,
						"mY": 1
					},
					{
						"mX": 5,
						"mY": 2
					},
					{
						"mX": 5,
						"mY": 3
					},
					{
						"mX": 5,
						"mY": 4
					},
					{
						"mX": 6,
						"mY": 0
					},
					{
						"mX": 6,
						"mY": 1
					},
					{
						"mX": 6,
						"mY": 2
					},
					{
						"mX": 6,
						"mY": 3
					},
					{
						"mX": 6,
						"mY": 4
					},
					{
						"mX": 7,
						"mY": 0
					},
					{
						"mX": 7,
						"mY": 1
					},
					{
						"mX": 7,
						"mY": 2
					},
					{
						"mX": 7,
						"mY": 3
					},
					{
						"mX": 7,
						"mY": 4
					},
					{
						"mX": 8,
						"mY": 0
					},
					{
						"mX": 8,
						"mY": 1
					},
					{
						"mX": 8,
						"mY": 2
					},
					{
						"mX": 8,
						"mY": 3
					},
					{
						"mX": 8,
						"mY": 4
					}
				],
				"SpawnSoundID": "Play_Zomb_Egypt_TombRaiser_Grave_Rise"
			}
		},
		{
			"aliases": [
				"Wave9GravestoneEvent0"
			],
			"objclass": "SpawnGravestonesWaveActionProps",
			"objdata": {
				"GravestonePool": [
					{
						"Count": 2,
						"Type": "RTID(gravestone_dark@GridItemTypes)"
					},
					{
						"Count": 0,
						"Type": "RTID(gravestoneSunOnDestruction@GridItemTypes)"
					},
					{
						"Count": 1,
						"Type": "RTID(gravestonePlantfoodOnDestruction@GridItemTypes)"
					}
				],
				"SpawnEffectAnimID": "POPANIM_EFFECTS_TOMBSTONE_DARK_SPAWN_EFFECT",
				"SpawnPositionsPool": [
					{
						"mX": 2,
						"mY": 0
					},
					{
						"mX": 2,
						"mY": 1
					},
					{
						"mX": 2,
						"mY": 2
					},
					{
						"mX": 2,
						"mY": 3
					},
					{
						"mX": 2,
						"mY": 4
					},
					{
						"mX": 3,
						"mY": 0
					},
					{
						"mX": 3,
						"mY": 1
					},
					{
						"mX": 3,
						"mY": 2
					},
					{
						"mX": 3,
						"mY": 3
					},
					{
						"mX": 3,
						"mY": 4
					},
					{
						"mX": 4,
						"mY": 0
					},
					{
						"mX": 4,
						"mY": 1
					},
					{
						"mX": 4,
						"mY": 2
					},
					{
						"mX": 4,
						"mY": 3
					},
					{
						"mX": 4,
						"mY": 4
					},
					{
						"mX": 5,
						"mY": 0
					},
					{
						"mX": 5,
						"mY": 1
					},
					{
						"mX": 5,
						"mY": 2
					},
					{
						"mX": 5,
						"mY": 3
					},
					{
						"mX": 5,
						"mY": 4
					},
					{
						"mX": 6,
						"mY": 0
					},
					{
						"mX": 6,
						"mY": 1
					},
					{
						"mX": 6,
						"mY": 2
					},
					{
						"mX": 6,
						"mY": 3
					},
					{
						"mX": 6,
						"mY": 4
					},
					{
						"mX": 7,
						"mY": 0
					},
					{
						"mX": 7,
						"mY": 1
					},
					{
						"mX": 7,
						"mY": 2
					},
					{
						"mX": 7,
						"mY": 3
					},
					{
						"mX": 7,
						"mY": 4
					},
					{
						"mX": 8,
						"mY": 0
					},
					{
						"mX": 8,
						"mY": 1
					},
					{
						"mX": 8,
						"mY": 2
					},
					{
						"mX": 8,
						"mY": 3
					},
					{
						"mX": 8,
						"mY": 4
					}
				],
				"SpawnSoundID": "Play_Zomb_Egypt_TombRaiser_Grave_Rise"
			}
		},
		{
			"aliases": [
				"Wave10GravestoneEvent0"
			],
			"objclass": "SpawnGravestonesWaveActionProps",
			"objdata": {
				"GravestonePool": [
					{
						"Count": 3,
						"Type": "RTID(gravestone_dark@GridItemTypes)"
					},
					{
						"Count": 0,
						"Type": "RTID(gravestoneSunOnDestruction@GridItemTypes)"
					},
					{
						"Count": 0,
						"Type": "RTID(gravestonePlantfoodOnDestruction@GridItemTypes)"
					}
				],
				"SpawnEffectAnimID": "POPANIM_EFFECTS_TOMBSTONE_DARK_SPAWN_EFFECT",
				"SpawnPositionsPool": [
					{
						"mX": 2,
						"mY": 0
					},
					{
						"mX": 2,
						"mY": 1
					},
					{
						"mX": 2,
						"mY": 2
					},
					{
						"mX": 2,
						"mY": 3
					},
					{
						"mX": 2,
						"mY": 4
					},
					{
						"mX": 3,
						"mY": 0
					},
					{
						"mX": 3,
						"mY": 1
					},
					{
						"mX": 3,
						"mY": 2
					},
					{
						"mX": 3,
						"mY": 3
					},
					{
						"mX": 3,
						"mY": 4
					},
					{
						"mX": 4,
						"mY": 0
					},
					{
						"mX": 4,
						"mY": 1
					},
					{
						"mX": 4,
						"mY": 2
					},
					{
						"mX": 4,
						"mY": 3
					},
					{
						"mX": 4,
						"mY": 4
					},
					{
						"mX": 5,
						"mY": 0
					},
					{
						"mX": 5,
						"mY": 1
					},
					{
						"mX": 5,
						"mY": 2
					},
					{
						"mX": 5,
						"mY": 3
					},
					{
						"mX": 5,
						"mY": 4
					},
					{
						"mX": 6,
						"mY": 0
					},
					{
						"mX": 6,
						"mY": 1
					},
					{
						"mX": 6,
						"mY": 2
					},
					{
						"mX": 6,
						"mY": 3
					},
					{
						"mX": 6,
						"mY": 4
					},
					{
						"mX": 7,
						"mY": 0
					},
					{
						"mX": 7,
						"mY": 1
					},
					{
						"mX": 7,
						"mY": 2
					},
					{
						"mX": 7,
						"mY": 3
					},
					{
						"mX": 7,
						"mY": 4
					},
					{
						"mX": 8,
						"mY": 0
					},
					{
						"mX": 8,
						"mY": 1
					},
					{
						"mX": 8,
						"mY": 2
					},
					{
						"mX": 8,
						"mY": 3
					},
					{
						"mX": 8,
						"mY": 4
					}
				],
				"SpawnSoundID": "Play_Zomb_Egypt_TombRaiser_Grave_Rise"
			}
		},
		{
			"aliases": [
				"Wave11GravestoneEvent0"
			],
			"objclass": "SpawnGravestonesWaveActionProps",
			"objdata": {
				"GravestonePool": [
					{
						"Count": 3,
						"Type": "RTID(gravestone_dark@GridItemTypes)"
					},
					{
						"Count": 0,
						"Type": "RTID(gravestoneSunOnDestruction@GridItemTypes)"
					},
					{
						"Count": 0,
						"Type": "RTID(gravestonePlantfoodOnDestruction@GridItemTypes)"
					}
				],
				"SpawnEffectAnimID": "POPANIM_EFFECTS_TOMBSTONE_DARK_SPAWN_EFFECT",
				"SpawnPositionsPool": [
					{
						"mX": 2,
						"mY": 0
					},
					{
						"mX": 2,
						"mY": 1
					},
					{
						"mX": 2,
						"mY": 2
					},
					{
						"mX": 2,
						"mY": 3
					},
					{
						"mX": 2,
						"mY": 4
					},
					{
						"mX": 3,
						"mY": 0
					},
					{
						"mX": 3,
						"mY": 1
					},
					{
						"mX": 3,
						"mY": 2
					},
					{
						"mX": 3,
						"mY": 3
					},
					{
						"mX": 3,
						"mY": 4
					},
					{
						"mX": 4,
						"mY": 0
					},
					{
						"mX": 4,
						"mY": 1
					},
					{
						"mX": 4,
						"mY": 2
					},
					{
						"mX": 4,
						"mY": 3
					},
					{
						"mX": 4,
						"mY": 4
					},
					{
						"mX": 5,
						"mY": 0
					},
					{
						"mX": 5,
						"mY": 1
					},
					{
						"mX": 5,
						"mY": 2
					},
					{
						"mX": 5,
						"mY": 3
					},
					{
						"mX": 5,
						"mY": 4
					},
					{
						"mX": 6,
						"mY": 0
					},
					{
						"mX": 6,
						"mY": 1
					},
					{
						"mX": 6,
						"mY": 2
					},
					{
						"mX": 6,
						"mY": 3
					},
					{
						"mX": 6,
						"mY": 4
					},
					{
						"mX": 7,
						"mY": 0
					},
					{
						"mX": 7,
						"mY": 1
					},
					{
						"mX": 7,
						"mY": 2
					},
					{
						"mX": 7,
						"mY": 3
					},
					{
						"mX": 7,
						"mY": 4
					},
					{
						"mX": 8,
						"mY": 0
					},
					{
						"mX": 8,
						"mY": 1
					},
					{
						"mX": 8,
						"mY": 2
					},
					{
						"mX": 8,
						"mY": 3
					},
					{
						"mX": 8,
						"mY": 4
					}
				],
				"SpawnSoundID": "Play_Zomb_Egypt_TombRaiser_Grave_Rise"
			}
		},
		{
			"aliases": [
				"Wave12GravestoneEvent0"
			],
			"objclass": "SpawnGravestonesWaveActionProps",
			"objdata": {
				"GravestonePool": [
					{
						"Count": 2,
						"Type": "RTID(gravestone_dark@GridItemTypes)"
					},
					{
						"Count": 0,
						"Type": "RTID(gravestoneSunOnDestruction@GridItemTypes)"
					},
					{
						"Count": 1,
						"Type": "RTID(gravestonePlantfoodOnDestruction@GridItemTypes)"
					}
				],
				"SpawnEffectAnimID": "POPANIM_EFFECTS_TOMBSTONE_DARK_SPAWN_EFFECT",
				"SpawnPositionsPool": [
					{
						"mX": 2,
						"mY": 0
					},
					{
						"mX": 2,
						"mY": 1
					},
					{
						"mX": 2,
						"mY": 2
					},
					{
						"mX": 2,
						"mY": 3
					},
					{
						"mX": 2,
						"mY": 4
					},
					{
						"mX": 3,
						"mY": 0
					},
					{
						"mX": 3,
						"mY": 1
					},
					{
						"mX": 3,
						"mY": 2
					},
					{
						"mX": 3,
						"mY": 3
					},
					{
						"mX": 3,
						"mY": 4
					},
					{
						"mX": 4,
						"mY": 0
					},
					{
						"mX": 4,
						"mY": 1
					},
					{
						"mX": 4,
						"mY": 2
					},
					{
						"mX": 4,
						"mY": 3
					},
					{
						"mX": 4,
						"mY": 4
					},
					{
						"mX": 5,
						"mY": 0
					},
					{
						"mX": 5,
						"mY": 1
					},
					{
						"mX": 5,
						"mY": 2
					},
					{
						"mX": 5,
						"mY": 3
					},
					{
						"mX": 5,
						"mY": 4
					},
					{
						"mX": 6,
						"mY": 0
					},
					{
						"mX": 6,
						"mY": 1
					},
					{
						"mX": 6,
						"mY": 2
					},
					{
						"mX": 6,
						"mY": 3
					},
					{
						"mX": 6,
						"mY": 4
					},
					{
						"mX": 7,
						"mY": 0
					},
					{
						"mX": 7,
						"mY": 1
					},
					{
						"mX": 7,
						"mY": 2
					},
					{
						"mX": 7,
						"mY": 3
					},
					{
						"mX": 7,
						"mY": 4
					},
					{
						"mX": 8,
						"mY": 0
					},
					{
						"mX": 8,
						"mY": 1
					},
					{
						"mX": 8,
						"mY": 2
					},
					{
						"mX": 8,
						"mY": 3
					},
					{
						"mX": 8,
						"mY": 4
					}
				],
				"SpawnSoundID": "Play_Zomb_Egypt_TombRaiser_Grave_Rise"
			}
		}
	],
	"version": 1
}