{
	"#comment": "Scoring Playtest - Right Gradient - No Quickstart",
	"objects": [
		{
			"objclass": "LevelDefinition",
			"objdata": {
				"Description": "",
				"DisablePlantBoosts": true,
				"GridItemLevel": 1,
				"LevelNumber": 1,
				"LevelPowerupSet": "LevelPowerupsDisabled",
				"Loot": "RTID(NoLoot@LevelModules)",
				"LossModule": "RTID(JoustOutro@LevelModules)",
				"Modules": [
					"RTID(VeryFastSunDropper@LevelModules)",
					"RTID(ZombiesDeadWinCon@LevelModules)",
					"RTID(JoustDarkMowers@LevelModules)",
					"RTID(SeedBank@CurrentLevel)",
					"RTID(JoustZombieWinCondition@LevelModules)",
					"RTID(NewWaves@CurrentLevel)",
					"RTID(LevelScoring@CurrentLevel)",
					"RTID(ScoreTiles@CurrentLevel)",
					"RTID(ChallengeModule@CurrentLevel)",
					"RTID(LastStand@CurrentLevel)",
					"RTID(LevelDifficultyScaling@CurrentLevel)",
					"RTID(JoustModule@CurrentLevel)",
					"RTID(JoustPointOfLoss@LevelModules)",
					"RTID(SeedPacketHalfTimeModule@LevelModules)",
					"RTID(ZombossBattle@CurrentLevel)",
					"RTID(ZombieResistances@CurrentLevel)"
				],
				"Name": "",
				"NormalPresentTable": "dark_normal_01",
				"ShinyPresentTable": "dark_shiny_01",
				"StageModule": "RTID(JoustStage@LevelModules)",
				"SuppressAccountUpgrades": true,
				"SuppressDynamicTutorial": true,
				"SuppressPlantfoodPurchase": true,
				"VictoryModule": "RTID(JoustOutro@LevelModules)"
			}
		},
		{
			"aliases": [
				"ZombieResistances"
			],
			"objclass": "ZombieResistancesModuleProperties",
			"objdata": {
				"FamilyResistances": {
					"global": [
						{
							"#comment": "125% damage and condition",
							"ConditionResistance": 1.25,
							"DamageResistance": 1.25,
							"FamilyType": "enchantmint"
						},
						{
							"#comment": "25% damage and condition",
							"ConditionResistance": 0.25,
							"DamageResistance": 0.25,
							"FamilyType": "reinforcemint"
						},
						{
							"#comment": "25% damage and condition",
							"ConditionResistance": 0.25,
							"DamageResistance": 0.25,
							"FamilyType": "containmint"
						}
					]
				}
			}
		},
		{
			"aliases": [
				"ZombossBattle"
			],
			"objclass": "ZombossBattleModuleProperties",
			"objdata": {
				"ReservedColumnCount": 2,
				"ShowInStreetView": true,
				"ZombossDeathColumn": 5,
				"ZombossDeathRow": 3,
				"ZombossMechType": "zombossmech_egypt_battlez",
				"ZombossSpawnGridPosition": {
					"mX": 6,
					"mY": 3
				}
			}
		},
		{
			"aliases": [
				"DoNotPlantBeforeLine"
			],
			"objclass": "MoldColonyChallengeProps",
			"objdata": {
				"Locations": "RTID(Column6_To_Column8@BoardGridMaps)"
			}
		},
		{
			"aliases": [
				"SeedBank"
			],
			"objclass": "SeedBankProperties",
			"objdata": {
				"PlantExcludeList": [
					"enlightenmint"
				],
				"PresetPlantList": [
					{
						"Level": -1,
						"PlantType": "zoybeanpod"
					}
				],
				"SelectionMethod": "chooser"
			}
		},
		{
			"aliases": [
				"JoustModule"
			],
			"objclass": "JoustGameModuleProperties",
			"objdata": {
				"LeagueModifiers": [
					{
						"AddTimeLimit": 0,
						"AddZombieLevel": 0,
						"LeagueThreshold": 1
					},
					{
						"AddTimeLimit": 0,
						"AddZombieLevel": 1,
						"LeagueThreshold": 2
					},
					{
						"AddTimeLimit": 0,
						"AddZombieLevel": 2,
						"LeagueThreshold": 3
					},
					{
						"AddTimeLimit": 0,
						"AddZombieLevel": 3,
						"LeagueThreshold": 4
					},
					{
						"AddTimeLimit": 0,
						"AddZombieLevel": 4,
						"LeagueThreshold": 5
					},
					{
						"AddTimeLimit": 0,
						"AddZombieLevel": 5,
						"LeagueThreshold": 6
					},
					{
						"AddTimeLimit": 0,
						"AddZombieLevel": 6,
						"LeagueThreshold": 7
					},
					{
						"AddTimeLimit": 0,
						"AddZombieLevel": 7,
						"LeagueThreshold": 8
					},
					{
						"AddTimeLimit": 0,
						"AddZombieLevel": 8,
						"LeagueThreshold": 9
					}
				],
				"LevelLoadouts": {
					"Loadouts": [
						[
							{
								"IsImitater": false,
								"PlantLevel": 0,
								"PlantType": "zoybeanpod"
							},
							{
								"IsImitater": false,
								"PlantLevel": 0,
								"PlantType": "coldsnapdragon"
							},
							{
								"IsImitater": false,
								"PlantLevel": 0,
								"PlantType": "cherry_bomb"
							},
							{
								"IsImitater": false,
								"PlantLevel": 0,
								"PlantType": "explodeonut"
							},
							{
								"IsImitater": false,
								"PlantLevel": 0,
								"PlantType": "electricpeashooter"
							},
							{
								"IsImitater": false,
								"PlantLevel": 0,
								"PlantType": "wintermelon"
							}
						],
						[
							{
								"IsImitater": false,
								"PlantLevel": 0,
								"PlantType": "zoybeanpod"
							},
							{
								"IsImitater": false,
								"PlantLevel": 0,
								"PlantType": "powerplant"
							},
							{
								"IsImitater": false,
								"PlantLevel": 0,
								"PlantType": "powerlily"
							},
							{
								"IsImitater": false,
								"PlantLevel": 0,
								"PlantType": "iceburg"
							},
							{
								"IsImitater": false,
								"PlantLevel": 0,
								"PlantType": "citron"
							},
							{
								"IsImitater": false,
								"PlantLevel": 0,
								"PlantType": "primalpotatomine"
							}
						],
						[
							{
								"IsImitater": false,
								"PlantLevel": 0,
								"PlantType": "zoybeanpod"
							},
							{
								"IsImitater": false,
								"PlantLevel": 0,
								"PlantType": "sapfling"
							},
							{
								"IsImitater": false,
								"PlantLevel": 0,
								"PlantType": "powerlily"
							},
							{
								"IsImitater": false,
								"PlantLevel": 0,
								"PlantType": "laser_bean"
							},
							{
								"IsImitater": false,
								"PlantLevel": 0,
								"PlantType": "spikerock"
							},
							{
								"IsImitater": false,
								"PlantLevel": 0,
								"PlantType": "hypnoshroom"
							}
						]
					]
				},
				"PeriodOfWavesToLoop": 5,
				"SuggestedLoadout": "",
				"TimeLimit": 180,
				"WaveSetsToAppend": 20
			}
		},
		{
			"aliases": [
				"LevelDifficultyScaling"
			],
			"objclass": "LevelDifficultyScalingModuleProperties",
			"objdata": {
				"DifficultyRulesType": "DifficultyTestHighDecay"
			}
		},
		{
			"aliases": [
				"ChallengeModule"
			],
			"objclass": "StarChallengeModuleProperties",
			"objdata": {
				"Challenges": [
					[
						"RTID(BeatTheLevel@CurrentLevel)",
						"RTID(ReachTheScore@CurrentLevel)",
						"RTID(DoNotPlantBeforeLine@CurrentLevel)"
					]
				],
				"ChallengesAlwaysAvailable": true
			}
		},
		{
			"aliases": [
				"ReachTheScore"
			],
			"objclass": "StarChallengeTargetScoreProps",
			"objdata": {
				"Description": "[STARCHALLENGE_TARGET_SCORE]",
				"DescriptionFailure": "[STARCHALLENGE_TARGET_SCORE_FAILURE]",
				"DescriptiveName": "[STARCHALLENGE_TARGET_SCORE_ZOMBOSS_NAME]",
				"TargetScore": 1000
			}
		},
		{
			"aliases": [
				"BeatTheLevel"
			],
			"objclass": "StarChallengeBeatTheLevelProps",
			"objdata": {
				"Description": "[STARCHALLENGE_LASTSTAND_MINIGAME]",
				"DescriptiveName": "[STARCHALLENGE_LASTSTAND_MINIGAME_NAME]"
			}
		},
		{
			"aliases": [
				"LastStand"
			],
			"objclass": "LastStandMinigameProperties",
			"objdata": {
				"StartingPlantfood": 3,
				"StartingSun": 1250
			}
		},
		{
			"aliases": [
				"LevelScoring"
			],
			"objclass": "LevelScoringModuleProperties",
			"objdata": {
				"PlantBonusMultiplier": 0.1,
				"PlantBonuses": [],
				"ScoringRulesType": "ZombossBattlez",
				"StartingPlantfood": 3
			}
		},
		{
			"aliases": [
				"ScoreTiles"
			],
			"objclass": "InitialGridItemProperties",
			"objdata": {
				"InitialGridItemPlacements": [
					{
						"GridX": 8,
						"GridY": 0,
						"TypeName": "score_5x_tile"
					},
					{
						"GridX": 8,
						"GridY": 1,
						"TypeName": "score_5x_tile"
					},
					{
						"GridX": 8,
						"GridY": 2,
						"TypeName": "score_5x_tile"
					},
					{
						"GridX": 8,
						"GridY": 3,
						"TypeName": "score_5x_tile"
					},
					{
						"GridX": 8,
						"GridY": 4,
						"TypeName": "score_5x_tile"
					},
					{
						"GridX": 7,
						"GridY": 0,
						"TypeName": "score_5x_tile"
					},
					{
						"GridX": 7,
						"GridY": 1,
						"TypeName": "score_5x_tile"
					},
					{
						"GridX": 7,
						"GridY": 2,
						"TypeName": "score_5x_tile"
					},
					{
						"GridX": 7,
						"GridY": 3,
						"TypeName": "score_5x_tile"
					},
					{
						"GridX": 7,
						"GridY": 4,
						"TypeName": "score_5x_tile"
					},
					{
						"GridX": 6,
						"GridY": 0,
						"TypeName": "score_3x_tile"
					},
					{
						"GridX": 6,
						"GridY": 1,
						"TypeName": "score_3x_tile"
					},
					{
						"GridX": 6,
						"GridY": 2,
						"TypeName": "score_3x_tile"
					},
					{
						"GridX": 6,
						"GridY": 3,
						"TypeName": "score_3x_tile"
					},
					{
						"GridX": 6,
						"GridY": 4,
						"TypeName": "score_3x_tile"
					},
					{
						"GridX": 5,
						"GridY": 0,
						"TypeName": "score_3x_tile"
					},
					{
						"GridX": 5,
						"GridY": 1,
						"TypeName": "score_3x_tile"
					},
					{
						"GridX": 5,
						"GridY": 2,
						"TypeName": "score_3x_tile"
					},
					{
						"GridX": 5,
						"GridY": 3,
						"TypeName": "score_3x_tile"
					},
					{
						"GridX": 5,
						"GridY": 4,
						"TypeName": "score_3x_tile"
					},
					{
						"GridX": 4,
						"GridY": 0,
						"TypeName": "score_2x_tile"
					},
					{
						"GridX": 4,
						"GridY": 1,
						"TypeName": "score_2x_tile"
					},
					{
						"GridX": 4,
						"GridY": 2,
						"TypeName": "score_2x_tile"
					},
					{
						"GridX": 4,
						"GridY": 3,
						"TypeName": "score_2x_tile"
					},
					{
						"GridX": 4,
						"GridY": 4,
						"TypeName": "score_2x_tile"
					},
					{
						"GridX": 3,
						"GridY": 0,
						"TypeName": "score_2x_tile"
					},
					{
						"GridX": 3,
						"GridY": 1,
						"TypeName": "score_2x_tile"
					},
					{
						"GridX": 3,
						"GridY": 2,
						"TypeName": "score_2x_tile"
					},
					{
						"GridX": 3,
						"GridY": 3,
						"TypeName": "score_2x_tile"
					},
					{
						"GridX": 3,
						"GridY": 4,
						"TypeName": "score_2x_tile"
					}
				]
			}
		},
		{
			"aliases": [
				"NewWaves"
			],
			"objclass": "WaveManagerModuleProperties",
			"objdata": {
				"DynamicZombies": [
					{
						"PointIncrementPerWave": -1,
						"StartingPoints": -1,
						"StartingWave": 3,
						"ZombiePool": [
							"RTID(camel_manyhump@ZombieTypes)",
							"RTID(mummy@ZombieTypes)",
							"RTID(mummy_armor1@ZombieTypes)",
							"RTID(mummy_armor2@ZombieTypes)",
							"RTID(mummy_armor4@ZombieTypes)",
							"RTID(pharaoh@ZombieTypes)",
							"RTID(tomb_raiser@ZombieTypes)"
						]
					},
					{
						"PointIncrementPerWave": -1,
						"StartingPoints": -1,
						"StartingWave": 4,
						"ZombiePool": [
							"RTID(camel_manyhump@ZombieTypes)",
							"RTID(mummy@ZombieTypes)",
							"RTID(mummy_armor1@ZombieTypes)",
							"RTID(mummy_armor2@ZombieTypes)",
							"RTID(mummy_armor4@ZombieTypes)",
							"RTID(pharaoh@ZombieTypes)",
							"RTID(tomb_raiser@ZombieTypes)"
						]
					},
					{
						"PointIncrementPerWave": -1,
						"StartingPoints": -1,
						"StartingWave": 5,
						"ZombiePool": [
							"RTID(camel_manyhump@ZombieTypes)",
							"RTID(mummy@ZombieTypes)",
							"RTID(mummy_armor1@ZombieTypes)",
							"RTID(mummy_armor2@ZombieTypes)",
							"RTID(mummy_armor4@ZombieTypes)",
							"RTID(pharaoh@ZombieTypes)",
							"RTID(tomb_raiser@ZombieTypes)"
						]
					},
					{
						"MaxPoints": 3500,
						"PointIncrementPerWave": 150,
						"StartingPoints": 100,
						"StartingWave": 3,
						"ZombiePool": [
							"RTID(camel_manyhump@ZombieTypes)",
							"RTID(mummy@ZombieTypes)",
							"RTID(mummy_armor1@ZombieTypes)",
							"RTID(mummy_armor2@ZombieTypes)",
							"RTID(mummy_armor4@ZombieTypes)",
							"RTID(pharaoh@ZombieTypes)",
							"RTID(tomb_raiser@ZombieTypes)"
						]
					},
					{
						"PointIncrementPerWave": 1,
						"StartingPoints": 1,
						"StartingWave": 5,
						"ZombiePool": [
							"RTID(camel_manyhump@ZombieTypes)",
							"RTID(mummy@ZombieTypes)",
							"RTID(mummy_armor1@ZombieTypes)",
							"RTID(mummy_armor2@ZombieTypes)",
							"RTID(mummy_armor4@ZombieTypes)",
							"RTID(pharaoh@ZombieTypes)",
							"RTID(tomb_raiser@ZombieTypes)"
						]
					},
					{
						"PointIncrementPerWave": 1,
						"StartingPoints": 1,
						"StartingWave": 4,
						"ZombiePool": [
							"RTID(camel_manyhump@ZombieTypes)",
							"RTID(mummy_armor1@ZombieTypes)",
							"RTID(mummy_armor2@ZombieTypes)",
							"RTID(mummy_armor4@ZombieTypes)",
							"RTID(pharaoh@ZombieTypes)",
							"RTID(tomb_raiser@ZombieTypes)"
						]
					},
					{
						"PointIncrementPerWave": 1,
						"StartingPoints": 1,
						"StartingWave": 3,
						"ZombiePool": [
							"RTID(camel_manyhump@ZombieTypes)",
							"RTID(mummy_armor2@ZombieTypes)",
							"RTID(mummy_armor4@ZombieTypes)",
							"RTID(pharaoh@ZombieTypes)",
							"RTID(tomb_raiser@ZombieTypes)"
						]
					}
				],
				"WaveManagerProps": "RTID(WaveManagerProps@CurrentLevel)"
			}
		},
		{
			"aliases": [
				"WaveManagerProps"
			],
			"objclass": "WaveManagerProperties",
			"objdata": {
				"FlagWaveInterval": 100,
				"WaveCount": 10,
				"WaveSpendingPointIncrement": 200,
				"WaveSpendingPoints": 100,
				"Waves": [
					[
						"RTID(Wave1@CurrentLevel)"
					],
					[
						"RTID(Wave2@CurrentLevel)"
					],
					[
						"RTID(Wave3@CurrentLevel)"
					],
					[
						"RTID(Wave4@CurrentLevel)"
					],
					[
						"RTID(Wave5@CurrentLevel)"
					],
					[
						"RTID(Wave6@CurrentLevel)"
					],
					[
						"RTID(Wave7@CurrentLevel)"
					],
					[
						"RTID(Wave8@CurrentLevel)",
						"RTID(Wave8StormEvent0@CurrentLevel)"
					],
					[
						"RTID(Wave9@CurrentLevel)"
					],
					[
						"RTID(Wave10@CurrentLevel)",
						"RTID(Wave10StormEvent0@CurrentLevel)",
						"RTID(Wave10SunDropperEvent0@CurrentLevel)"
					]
				],
				"WavesAlwaysRandomized": true
			}
		},
		{
			"aliases": [
				"Wave1"
			],
			"objclass": "SpawnZombiesJitteredWaveActionProps",
			"objdata": {
				"ForcedCondition": {
					"Condition": "suncarrier50",
					"Duration": 12
				},
				"Zombies": [
					{
						"Type": "RTID(mummy@ZombieTypes)"
					}
				]
			}
		},
		{
			"aliases": [
				"Wave2"
			],
			"objclass": "SpawnZombiesJitteredWaveActionProps",
			"objdata": {
				"ForcedCondition": {
					"Condition": "suncarrier50",
					"Duration": 12
				},
				"Zombies": [
					{
						"Type": "RTID(mummy@ZombieTypes)"
					},
					{
						"Type": "RTID(mummy@ZombieTypes)"
					}
				]
			}
		},
		{
			"aliases": [
				"Wave3"
			],
			"objclass": "SpawnZombiesJitteredWaveActionProps",
			"objdata": {
				"ForcedCondition": {
					"Condition": "suncarrier50",
					"Duration": 12
				},
				"Zombies": [
					{
						"Type": "RTID(mummy_armor1@ZombieTypes)"
					},
					{
						"Type": "RTID(mummy_armor1@ZombieTypes)"
					}
				]
			}
		},
		{
			"aliases": [
				"Wave4"
			],
			"objclass": "SpawnZombiesJitteredWaveActionProps",
			"objdata": {
				"ForcedCondition": {
					"Condition": "suncarrier50",
					"Duration": 12
				},
				"Zombies": [
					{
						"Type": "RTID(mummy_armor2@ZombieTypes)"
					},
					{
						"Type": "RTID(mummy@ZombieTypes)"
					}
				]
			}
		},
		{
			"aliases": [
				"Wave5"
			],
			"objclass": "SpawnZombiesJitteredWaveActionProps",
			"objdata": {
				"ForcedCondition": {
					"Condition": "suncarrier50",
					"Duration": 12
				},
				"Zombies": [
					{
						"Type": "RTID(mummy_armor2@ZombieTypes)"
					},
					{
						"Type": "RTID(mummy@ZombieTypes)"
					},
					{
						"Type": "RTID(mummy_armor2@ZombieTypes)"
					}
				]
			}
		},
		{
			"aliases": [
				"Wave6"
			],
			"objclass": "SpawnZombiesJitteredWaveActionProps",
			"objdata": {
				"ForcedCondition": {
					"Condition": "suncarrier50",
					"Duration": 12
				},
				"Zombies": [
					{
						"Type": "RTID(pharaoh@ZombieTypes)"
					},
					{
						"Type": "RTID(mummy@ZombieTypes)"
					}
				]
			}
		},
		{
			"aliases": [
				"Wave7"
			],
			"objclass": "SpawnZombiesJitteredWaveActionProps",
			"objdata": {
				"ForcedCondition": {
					"Condition": "suncarrier50",
					"Duration": 12
				},
				"Zombies": [
					{
						"Type": "RTID(mummy_armor2@ZombieTypes)"
					},
					{
						"Type": "RTID(mummy@ZombieTypes)"
					}
				]
			}
		},
		{
			"aliases": [
				"Wave8"
			],
			"objclass": "SpawnZombiesJitteredWaveActionProps",
			"objdata": {
				"ForcedCondition": {
					"Condition": "suncarrier50",
					"Duration": 12
				},
				"Zombies": [
					{
						"Type": "RTID(pharaoh@ZombieTypes)"
					},
					{
						"Type": "RTID(mummy@ZombieTypes)"
					},
					{
						"Type": "RTID(mummy@ZombieTypes)"
					}
				]
			}
		},
		{
			"aliases": [
				"Wave9"
			],
			"objclass": "SpawnZombiesJitteredWaveActionProps",
			"objdata": {
				"ForcedCondition": {
					"Condition": "suncarrier50",
					"Duration": 12
				},
				"Zombies": [
					{
						"Type": "RTID(mummy@ZombieTypes)"
					},
					{
						"Type": "RTID(mummy_armor1@ZombieTypes)"
					},
					{
						"Type": "RTID(mummy@ZombieTypes)"
					}
				]
			}
		},
		{
			"aliases": [
				"Wave10"
			],
			"objclass": "SpawnZombiesJitteredWaveActionProps",
			"objdata": {
				"ForcedCondition": {
					"Condition": "suncarrier50",
					"Duration": 12
				},
				"Zombies": [
					{
						"Type": "RTID(mummy_armor2@ZombieTypes)"
					},
					{
						"Type": "RTID(pharaoh@ZombieTypes)"
					},
					{
						"Type": "RTID(mummy@ZombieTypes)"
					}
				]
			}
		},
		{
			"aliases": [
				"Wave10SunDropperEvent0"
			],
			"objclass": "SunDropperWaveActionProps",
			"objdata": {
				"SunAmountToDrop": 350
			}
		},
		{
			"aliases": [
				"Wave10StormEvent0"
			],
			"objclass": "StormZombieSpawnerProps",
			"objdata": {
				"ColumnEnd": 7,
				"ColumnStart": 6,
				"GroupSize": 1,
				"TimeBetweenGroups": 3,
				"Type": "sandstorm",
				"Zombies": [
					{
						"Type": "RTID(explorer@ZombieTypes)"
					},
					{
						"Type": "RTID(explorer@ZombieTypes)"
					}
				]
			}
		},
		{
			"aliases": [
				"Wave8StormEvent0"
			],
			"objclass": "StormZombieSpawnerProps",
			"objdata": {
				"ColumnEnd": 7,
				"ColumnStart": 6,
				"GroupSize": "2",
				"TimeBetweenGroups": "3",
				"Type": "sandstorm",
				"Zombies": [
					{
						"Type": "RTID(tomb_raiser@ZombieTypes)"
					},
					{
						"Type": "RTID(tomb_raiser@ZombieTypes)"
					}
				]
			}
		}
	],
	"version": 1
}