{
	"#comment": "Scoring Playtest - Right Gradient - No Quickstart",
	"objects": [
		{
			"objclass": "LevelDefinition",
			"objdata": {
				"Description": "",
				"DisablePlantBoosts": true,
				"GridItemLevel": 1,
				"LevelNumber": 1,
				"LevelPowerupSet": "LevelPowerupsDisabled",
				"Loot": "RTID(NoLoot@LevelModules)",
				"LossModule": "RTID(JoustOutro@LevelModules)",
				"Modules": [
					"RTID(ZombiesDeadWinCon@LevelModules)",
					"RTID(JoustDarkMowers@LevelModules)",
					"RTID(SeedBank@CurrentLevel)",
					"RTID(JoustZombieWinCondition@LevelModules)",
					"RTID(NewWaves@CurrentLevel)",
					"RTID(LevelScoring@CurrentLevel)",
					"RTID(ScoreTiles@CurrentLevel)",
					"RTID(ChallengeModule@CurrentLevel)",
					"RTID(LastStand@CurrentLevel)",
					"RTID(LevelDifficultyScaling@CurrentLevel)",
					"RTID(JoustModule@CurrentLevel)",
					"RTID(ZombieResistances@CurrentLevel)",
					"RTID(JoustPointOfLoss@LevelModules)"
				],
				"Name": "",
				"NormalPresentTable": "dark_normal_01",
				"ShinyPresentTable": "dark_shiny_01",
				"StageModule": "RTID(JoustStage@LevelModules)",
				"SuppressAccountUpgrades": true,
				"SuppressDynamicTutorial": true,
				"SuppressPlantfoodPurchase": true,
				"VictoryModule": "RTID(JoustOutro@LevelModules)"
			}
		},
		{
			"aliases": [
				"SeedBank"
			],
			"objclass": "SeedBankProperties",
			"objdata": {
				"PlantExcludeList": [
					"blover"
				],
				"PresetPlantList": [
					{
						"Level": -1,
						"PlantType": "toadstool"
					}
				],
				"SelectionMethod": "chooser"
			}
		},
		{
			"aliases": [
				"ZombieResistances"
			],
			"objclass": "ZombieResistancesModuleProperties",
			"objdata": {
				"FamilyResistances": {
					"global": [
						{
							"#comment": "200% damage and condition",
							"ConditionResistance": 2.0,
							"DamageResistance": 2.0,
							"FamilyType": "enlightenmint"
						},
						{
							"#comment": "200% damage and condition",
							"ConditionResistance": 2.0,
							"DamageResistance": 2.0,
							"FamilyType": "spearmint"
						},
						{
							"#comment": "50% damage and condition",
							"ConditionResistance": 0.5,
							"DamageResistance": 0.5,
							"FamilyType": "bombardmint"
						}
					]
				}
			}
		},
		{
			"aliases": [
				"JoustModule"
			],
			"objclass": "JoustGameModuleProperties",
			"objdata": {
				"LeagueModifiers": [
					{
						"LeagueThreshold": 1,
						"AddZombieLevel": 0,
						"AddTimeLimit": 0
					},
					{
						"LeagueThreshold": 2,
						"AddZombieLevel": 1,
						"AddTimeLimit": 0
					},
					{
						"LeagueThreshold": 3,
						"AddZombieLevel": 2,
						"AddTimeLimit": 0
					},
					{
						"LeagueThreshold": 4,
						"AddZombieLevel": 3,
						"AddTimeLimit": 0
					},
					{
						"LeagueThreshold": 5,
						"AddZombieLevel": 4,
						"AddTimeLimit": 0
					},
					{
						"LeagueThreshold": 6,
						"AddZombieLevel": 5,
						"AddTimeLimit": 0
					},
					{
						"LeagueThreshold": 7,
						"AddZombieLevel": 6,
						"AddTimeLimit": 0
					},
					{
						"LeagueThreshold": 8,
						"AddZombieLevel": 7,
						"AddTimeLimit": 0
					},
					{
						"LeagueThreshold": 9,
						"AddZombieLevel": 8,
						"AddTimeLimit": 0
					}
				],
				"TimeLimit": 180,
				"LevelLoadouts": {
					"Loadouts": [
						[
							{
								"PlantType": "toadstool",
								"PlantLevel": 0,
								"IsImitater": false
							},
							{
								"PlantType": "explodeonut",
								"PlantLevel": 0,
								"IsImitater": false
							},
							{
								"PlantType": "moonflower",
								"PlantLevel": 0,
								"IsImitater": false
							},
							{
								"PlantType": "dusklobber",
								"PlantLevel": 0,
								"IsImitater": false
							},
							{
								"PlantType": "goldbloom",
								"PlantLevel": 0,
								"IsImitater": false
							},
							{
								"PlantType": "shadowpeashooter",
								"PlantLevel": 0,
								"IsImitater": false
							}
						],
						[
							{
								"PlantType": "toadstool",
								"PlantLevel": 0,
								"IsImitater": false
							},
							{
								"PlantType": "caulipower",
								"PlantLevel": 0,
								"IsImitater": false
							},
							{
								"PlantType": "moonflower",
								"PlantLevel": 0,
								"IsImitater": false
							},
							{
								"PlantType": "goldbloom",
								"PlantLevel": 0,
								"IsImitater": false
							},
							{
								"PlantType": "explodeonut",
								"PlantLevel": 0,
								"IsImitater": false
							},
							{
								"PlantType": "squash",
								"PlantLevel": 0,
								"IsImitater": false
							}
						]
					]
				}
			}
		},
		{
			"aliases": [
				"LevelDifficultyScaling"
			],
			"objclass": "LevelDifficultyScalingModuleProperties",
			"objdata": {
				"DifficultyRulesType": "DifficultyTestHighDecay"
			}
		},
		{
			"aliases": [
				"ChallengeModule"
			],
			"objclass": "StarChallengeModuleProperties",
			"objdata": {
				"Challenges": [
					[
						"RTID(BeatTheLevel@CurrentLevel)",
						"RTID(ReachTheScore@CurrentLevel)"
					]
				],
				"ChallengesAlwaysAvailable": true
			}
		},
		{
			"aliases": [
				"ReachTheScore"
			],
			"objclass": "StarChallengeTargetScoreProps",
			"objdata": {
				"Description": "[STARCHALLENGE_TARGET_SCORE]",
				"DescriptionFailure": "[STARCHALLENGE_TARGET_SCORE_FAILURE]",
				"DescriptiveName": "[STARCHALLENGE_TARGET_SCORE_NAME]",
				"TargetScore": 1000
			}
		},
		{
			"aliases": [
				"BeatTheLevel"
			],
			"objclass": "StarChallengeBeatTheLevelProps",
			"objdata": {
				"Description": "[STARCHALLENGE_LASTSTAND_MINIGAME]",
				"DescriptiveName": "[STARCHALLENGE_LASTSTAND_MINIGAME_NAME]"
			}
		},
		{
			"aliases": [
				"LastStand"
			],
			"objclass": "LastStandMinigameProperties",
			"objdata": {
				"StartingPlantfood": 3,
				"StartingSun": 1250
			}
		},
		{
			"aliases": [
				"LevelScoring"
			],
			"objclass": "LevelScoringModuleProperties",
			"objdata": {
				"PlantBonusMultiplier": 0.1,
				"PlantBonuses": [],
				"ScoringRulesType": "Battlez",
				"StartingPlantfood": 3
			}
		},
		{
			"aliases": [
				"ScoreTiles"
			],
			"objclass": "InitialGridItemProperties",
			"objdata": {
				"InitialGridItemPlacements": [
					{
						"GridX": 8,
						"GridY": 0,
						"TypeName": "score_5x_tile"
					},
					{
						"GridX": 8,
						"GridY": 1,
						"TypeName": "score_5x_tile"
					},
					{
						"GridX": 8,
						"GridY": 2,
						"TypeName": "score_5x_tile"
					},
					{
						"GridX": 8,
						"GridY": 3,
						"TypeName": "score_5x_tile"
					},
					{
						"GridX": 8,
						"GridY": 4,
						"TypeName": "score_5x_tile"
					},
					{
						"GridX": 7,
						"GridY": 0,
						"TypeName": "score_5x_tile"
					},
					{
						"GridX": 7,
						"GridY": 1,
						"TypeName": "score_5x_tile"
					},
					{
						"GridX": 7,
						"GridY": 2,
						"TypeName": "score_5x_tile"
					},
					{
						"GridX": 7,
						"GridY": 3,
						"TypeName": "score_5x_tile"
					},
					{
						"GridX": 7,
						"GridY": 4,
						"TypeName": "score_5x_tile"
					},
					{
						"GridX": 6,
						"GridY": 0,
						"TypeName": "score_3x_tile"
					},
					{
						"GridX": 6,
						"GridY": 1,
						"TypeName": "score_3x_tile"
					},
					{
						"GridX": 6,
						"GridY": 2,
						"TypeName": "score_3x_tile"
					},
					{
						"GridX": 6,
						"GridY": 3,
						"TypeName": "score_3x_tile"
					},
					{
						"GridX": 6,
						"GridY": 4,
						"TypeName": "score_3x_tile"
					},
					{
						"GridX": 5,
						"GridY": 0,
						"TypeName": "score_3x_tile"
					},
					{
						"GridX": 5,
						"GridY": 1,
						"TypeName": "score_3x_tile"
					},
					{
						"GridX": 5,
						"GridY": 2,
						"TypeName": "score_3x_tile"
					},
					{
						"GridX": 5,
						"GridY": 3,
						"TypeName": "score_3x_tile"
					},
					{
						"GridX": 5,
						"GridY": 4,
						"TypeName": "score_3x_tile"
					},
					{
						"GridX": 4,
						"GridY": 0,
						"TypeName": "score_2x_tile"
					},
					{
						"GridX": 4,
						"GridY": 1,
						"TypeName": "score_2x_tile"
					},
					{
						"GridX": 4,
						"GridY": 2,
						"TypeName": "score_2x_tile"
					},
					{
						"GridX": 4,
						"GridY": 3,
						"TypeName": "score_2x_tile"
					},
					{
						"GridX": 4,
						"GridY": 4,
						"TypeName": "score_2x_tile"
					},
					{
						"GridX": 3,
						"GridY": 0,
						"TypeName": "score_2x_tile"
					},
					{
						"GridX": 3,
						"GridY": 1,
						"TypeName": "score_2x_tile"
					},
					{
						"GridX": 3,
						"GridY": 2,
						"TypeName": "score_2x_tile"
					},
					{
						"GridX": 3,
						"GridY": 3,
						"TypeName": "score_2x_tile"
					},
					{
						"GridX": 3,
						"GridY": 4,
						"TypeName": "score_2x_tile"
					}
				]
			}
		},
		{
			"aliases": [
				"NewWaves"
			],
			"objclass": "WaveManagerModuleProperties",
			"objdata": {
				"DynamicZombies": [
					{
						"PointIncrementPerWave": -1,
						"StartingPoints": -1,
						"StartingWave": 3,
						"ZombiePool": [
							"RTID(dino_bully@ZombieTypes)",
							"RTID(eighties_arcade@ZombieTypes)",
							"RTID(iceage_troglobite_2block@ZombieTypes)",
							"RTID(poncho@ZombieTypes)",
							"RTID(poncho_plate@ZombieTypes)"
						]
					},
					{
						"PointIncrementPerWave": -1,
						"StartingPoints": -1,
						"StartingWave": 4,
						"ZombiePool": [
							"RTID(dino_bully@ZombieTypes)",
							"RTID(eighties_arcade@ZombieTypes)",
							"RTID(iceage_troglobite_2block@ZombieTypes)",
							"RTID(cowboy_armor2@ZombieTypes)"
						]
					},
					{
						"PointIncrementPerWave": -1,
						"StartingPoints": -1,
						"StartingWave": 5,
						"ZombiePool": [
							"RTID(dino_bully@ZombieTypes)",
							"RTID(eighties_arcade@ZombieTypes)",
							"RTID(iceage_troglobite_2block@ZombieTypes)",
							"RTID(cowboy_armor2@ZombieTypes)"
						]
					},
					{
						"PointIncrementPerWave": 200,
						"StartingPoints": 1000,
						"ZombiePool": [
							"RTID(dino_bully@ZombieTypes)",
							"RTID(eighties_arcade@ZombieTypes)",
							"RTID(iceage_troglobite_2block@ZombieTypes)",
							"RTID(cowboy_armor2@ZombieTypes)"
						]
					},
					{
						"PointIncrementPerWave": 1,
						"StartingPoints": 1,
						"StartingWave": 5,
						"ZombiePool": [
							"RTID(dino_bully@ZombieTypes)",
							"RTID(eighties_arcade@ZombieTypes)",
							"RTID(iceage_troglobite_2block@ZombieTypes)",
							"RTID(cowboy_armor2@ZombieTypes)"
						]
					},
					{
						"PointIncrementPerWave": 1,
						"StartingPoints": 1,
						"StartingWave": 4,
						"ZombiePool": [
							"RTID(dino_bully@ZombieTypes)",
							"RTID(eighties_arcade@ZombieTypes)",
							"RTID(iceage_troglobite_2block@ZombieTypes)",
							"RTID(cowboy_armor2@ZombieTypes)"
						]
					},
					{
						"PointIncrementPerWave": 1,
						"StartingPoints": 1,
						"StartingWave": 3,
						"ZombiePool": [
							"RTID(dino_bully@ZombieTypes)",
							"RTID(eighties_arcade@ZombieTypes)",
							"RTID(iceage_troglobite_2block@ZombieTypes)",
							"RTID(cowboy_armor2@ZombieTypes)"
						]
					}
				],
				"WaveManagerProps": "RTID(WaveManagerProps@CurrentLevel)"
			}
		},
		{
			"aliases": [
				"WaveManagerProps"
			],
			"objclass": "WaveManagerProperties",
			"objdata": {
				"FlagWaveInterval": 36,
				"WaveCount": 36,
				"WaveSpendingPointIncrement": 1000,
				"WaveSpendingPoints": 200,
				"Waves": [
					[
						"RTID(Wave1@CurrentLevel)"
					],
					[
						"RTID(Wave2@CurrentLevel)"
					],
					[
						"RTID(Wave3@CurrentLevel)",
						"RTID(Wave3GravestoneEvent0@CurrentLevel)"
					],
					[
						"RTID(Wave4@CurrentLevel)"
					],
					[
						"RTID(Wave5@CurrentLevel)",
						"RTID(Wave5GraveSpawnEvent0@CurrentLevel)"
					],
					[
						"RTID(Wave6@CurrentLevel)"
					],
					[
						"RTID(Wave7@CurrentLevel)",
						"RTID(Wave7GravestoneEvent0@CurrentLevel)"
					],
					[
						"RTID(Wave8@CurrentLevel)"
					],
					[
						"RTID(Wave9@CurrentLevel)",
						"RTID(Wave9GraveSpawnEvent0@CurrentLevel)"
					],
					[
						"RTID(Wave10@CurrentLevel)"
					],
					[
						"RTID(Wave11@CurrentLevel)",
						"RTID(Wave11GravestoneEvent0@CurrentLevel)"
					],
					[
						"RTID(Wave12@CurrentLevel)"
					],
					[
						"RTID(Wave13@CurrentLevel)",
						"RTID(Wave13GraveSpawnEvent0@CurrentLevel)"
					],
					[
						"RTID(Wave14@CurrentLevel)"
					],
					[
						"RTID(Wave15@CurrentLevel)",
						"RTID(Wave15GravestoneEvent0@CurrentLevel)"
					],
					[
						"RTID(Wave16@CurrentLevel)"
					],
					[
						"RTID(Wave17@CurrentLevel)",
						"RTID(Wave17GraveSpawnEvent0@CurrentLevel)"
					],
					[
						"RTID(Wave18@CurrentLevel)"
					],
					[
						"RTID(Wave19@CurrentLevel)",
						"RTID(Wave19GravestoneEvent0@CurrentLevel)"
					],
					[
						"RTID(Wave20@CurrentLevel)"
					],
					[
						"RTID(Wave21@CurrentLevel)",
						"RTID(Wave21GraveSpawnEvent0@CurrentLevel)"
					],
					[
						"RTID(Wave22@CurrentLevel)"
					],
					[
						"RTID(Wave23@CurrentLevel)",
						"RTID(Wave23GravestoneEvent0@CurrentLevel)"
					],
					[
						"RTID(Wave24@CurrentLevel)"
					],
					[
						"RTID(Wave25@CurrentLevel)",
						"RTID(Wave25GraveSpawnEvent0@CurrentLevel)"
					],
					[
						"RTID(Wave26@CurrentLevel)"
					],
					[
						"RTID(Wave27@CurrentLevel)",
						"RTID(Wave27GravestoneEvent0@CurrentLevel)"
					],
					[
						"RTID(Wave28@CurrentLevel)"
					],
					[
						"RTID(Wave29@CurrentLevel)",
						"RTID(Wave29GraveSpawnEvent0@CurrentLevel)"
					],
					[
						"RTID(Wave30@CurrentLevel)"
					],
					[
						"RTID(Wave31@CurrentLevel)",
						"RTID(Wave31GravestoneEvent0@CurrentLevel)"
					],
					[
						"RTID(Wave32@CurrentLevel)"
					],
					[
						"RTID(Wave33@CurrentLevel)",
						"RTID(Wave33GraveSpawnEvent0@CurrentLevel)"
					],
					[
						"RTID(Wave34@CurrentLevel)"
					],
					[
						"RTID(Wave35@CurrentLevel)"
					],
					[
						"RTID(Wave36@CurrentLevel)"
					]
				],
				"WavesAlwaysRandomized": true
			}
		},
		{
			"aliases": [
				"Wave1"
			],
			"objclass": "SpawnZombiesJitteredWaveActionProps",
			"objdata": {}
		},
		{
			"aliases": [
				"Wave2"
			],
			"objclass": "SpawnZombiesJitteredWaveActionProps",
			"objdata": {}
		},
		{
			"aliases": [
				"Wave3"
			],
			"objclass": "SpawnZombiesJitteredWaveActionProps",
			"objdata": {
				"AdditionalPlantfood": 0
			}
		},
		{
			"aliases": [
				"Wave4"
			],
			"objclass": "SpawnZombiesJitteredWaveActionProps",
			"objdata": {
				"AdditionalPlantfood": 0
			}
		},
		{
			"aliases": [
				"Wave5"
			],
			"objclass": "SpawnZombiesJitteredWaveActionProps",
			"objdata": {
				"Zombies": []
			}
		},
		{
			"aliases": [
				"Wave6"
			],
			"objclass": "SpawnZombiesJitteredWaveActionProps",
			"objdata": {}
		},
		{
			"aliases": [
				"Wave7"
			],
			"objclass": "SpawnZombiesJitteredWaveActionProps",
			"objdata": {}
		},
		{
			"aliases": [
				"Wave8"
			],
			"objclass": "SpawnZombiesJitteredWaveActionProps",
			"objdata": {}
		},
		{
			"aliases": [
				"Wave9"
			],
			"objclass": "SpawnZombiesJitteredWaveActionProps",
			"objdata": {
				"Zombies": []
			}
		},
		{
			"aliases": [
				"Wave10"
			],
			"objclass": "SpawnZombiesJitteredWaveActionProps",
			"objdata": {}
		},
		{
			"aliases": [
				"Wave11"
			],
			"objclass": "SpawnZombiesJitteredWaveActionProps",
			"objdata": {}
		},
		{
			"aliases": [
				"Wave12"
			],
			"objclass": "SpawnZombiesJitteredWaveActionProps",
			"objdata": {}
		},
		{
			"aliases": [
				"Wave13"
			],
			"objclass": "SpawnZombiesJitteredWaveActionProps",
			"objdata": {
				"Zombies": []
			}
		},
		{
			"aliases": [
				"Wave14"
			],
			"objclass": "SpawnZombiesJitteredWaveActionProps",
			"objdata": {}
		},
		{
			"aliases": [
				"Wave15"
			],
			"objclass": "SpawnZombiesJitteredWaveActionProps",
			"objdata": {
				"AdditionalPlantfood": 0
			}
		},
		{
			"aliases": [
				"Wave16"
			],
			"objclass": "SpawnZombiesJitteredWaveActionProps",
			"objdata": {}
		},
		{
			"aliases": [
				"Wave17"
			],
			"objclass": "SpawnZombiesJitteredWaveActionProps",
			"objdata": {
				"Zombies": []
			}
		},
		{
			"aliases": [
				"Wave18"
			],
			"objclass": "SpawnZombiesJitteredWaveActionProps",
			"objdata": {
				"Zombies": [
					{
						"Type": "RTID(modern_allstar@ZombieTypes)"
					}
				]
			}
		},
		{
			"aliases": [
				"Wave19"
			],
			"objclass": "SpawnZombiesJitteredWaveActionProps",
			"objdata": {
				"Zombies": [
					{
						"Type": "RTID(modern_allstar@ZombieTypes)"
					}
				]
			}
		},
		{
			"aliases": [
				"Wave20"
			],
			"objclass": "SpawnZombiesJitteredWaveActionProps",
			"objdata": {
				"AdditionalPlantfood": 0,
				"Zombies": [
					{
						"Type": "RTID(modern_allstar@ZombieTypes)"
					}
				]
			}
		},
		{
			"aliases": [
				"Wave21"
			],
			"objclass": "SpawnZombiesJitteredWaveActionProps",
			"objdata": {
				"Zombies": []
			}
		},
		{
			"aliases": [
				"Wave22"
			],
			"objclass": "SpawnZombiesJitteredWaveActionProps",
			"objdata": {
				"Zombies": [
					{
						"Type": "RTID(modern_allstar@ZombieTypes)"
					}
				]
			}
		},
		{
			"aliases": [
				"Wave23"
			],
			"objclass": "SpawnZombiesJitteredWaveActionProps",
			"objdata": {
				"Zombies": [
					{
						"Type": "RTID(modern_allstar@ZombieTypes)"
					}
				]
			}
		},
		{
			"aliases": [
				"Wave24"
			],
			"objclass": "SpawnZombiesJitteredWaveActionProps",
			"objdata": {
				"AdditionalPlantfood": 0,
				"Zombies": [
					{
						"Type": "RTID(modern_allstar@ZombieTypes)"
					}
				]
			}
		},
		{
			"aliases": [
				"Wave25"
			],
			"objclass": "SpawnZombiesJitteredWaveActionProps",
			"objdata": {
				"Zombies": []
			}
		},
		{
			"aliases": [
				"Wave26"
			],
			"objclass": "SpawnZombiesJitteredWaveActionProps",
			"objdata": {
				"Zombies": [
					{
						"Type": "RTID(modern_allstar@ZombieTypes)"
					}
				]
			}
		},
		{
			"aliases": [
				"Wave27"
			],
			"objclass": "SpawnZombiesJitteredWaveActionProps",
			"objdata": {
				"Zombies": [
					{
						"Type": "RTID(modern_allstar@ZombieTypes)"
					}
				]
			}
		},
		{
			"aliases": [
				"Wave28"
			],
			"objclass": "SpawnZombiesJitteredWaveActionProps",
			"objdata": {
				"Zombies": [
					{
						"Type": "RTID(modern_allstar@ZombieTypes)"
					}
				]
			}
		},
		{
			"aliases": [
				"Wave29"
			],
			"objclass": "SpawnZombiesJitteredWaveActionProps",
			"objdata": {
				"Zombies": []
			}
		},
		{
			"aliases": [
				"Wave30"
			],
			"objclass": "SpawnZombiesJitteredWaveActionProps",
			"objdata": {
				"Zombies": [
					{
						"Type": "RTID(modern_allstar@ZombieTypes)"
					}
				]
			}
		},
		{
			"aliases": [
				"Wave31"
			],
			"objclass": "SpawnZombiesJitteredWaveActionProps",
			"objdata": {
				"Zombies": [
					{
						"Type": "RTID(modern_allstar@ZombieTypes)"
					}
				]
			}
		},
		{
			"aliases": [
				"Wave32"
			],
			"objclass": "SpawnZombiesJitteredWaveActionProps",
			"objdata": {
				"AdditionalPlantfood": 0,
				"Zombies": [
					{
						"Type": "RTID(modern_allstar@ZombieTypes)"
					}
				]
			}
		},
		{
			"aliases": [
				"Wave33"
			],
			"objclass": "SpawnZombiesJitteredWaveActionProps",
			"objdata": {
				"Zombies": []
			}
		},
		{
			"aliases": [
				"Wave34"
			],
			"objclass": "SpawnZombiesJitteredWaveActionProps",
			"objdata": {
				"Zombies": [
					{
						"Type": "RTID(modern_allstar@ZombieTypes)"
					}
				]
			}
		},
		{
			"aliases": [
				"Wave35"
			],
			"objclass": "SpawnZombiesJitteredWaveActionProps",
			"objdata": {
				"Zombies": [
					{
						"Type": "RTID(modern_allstar@ZombieTypes)"
					}
				]
			}
		},
		{
			"aliases": [
				"Wave36"
			],
			"objclass": "SpawnZombiesJitteredWaveActionProps",
			"objdata": {
				"AdditionalPlantfood": 0,
				"Zombies": [
					{
						"Type": "RTID(modern_allstar@ZombieTypes)"
					}
				]
			}
		},
		{
			"aliases": [
				"Wave3GravestoneEvent0"
			],
			"objclass": "SpawnGravestonesWaveActionProps",
			"objdata": {
				"GravestonePool": [
					{
						"Count": 0,
						"Type": "RTID(gravestone_dark@GridItemTypes)"
					},
					{
						"Count": 4,
						"Type": "RTID(gravestoneSunOnDestruction@GridItemTypes)"
					},
					{
						"Count": 0,
						"Type": "RTID(gravestonePlantfoodOnDestruction@GridItemTypes)"
					}
				],
				"SpawnEffectAnimID": "POPANIM_EFFECTS_TOMBSTONE_DARK_SPAWN_EFFECT",
				"SpawnPositionsPool": [
					{
						"mX": 3,
						"mY": 0
					},
					{
						"mX": 3,
						"mY": 1
					},
					{
						"mX": 3,
						"mY": 2
					},
					{
						"mX": 3,
						"mY": 3
					},
					{
						"mX": 3,
						"mY": 4
					},
					{
						"mX": 4,
						"mY": 0
					},
					{
						"mX": 4,
						"mY": 1
					},
					{
						"mX": 4,
						"mY": 2
					},
					{
						"mX": 4,
						"mY": 3
					},
					{
						"mX": 4,
						"mY": 4
					},
					{
						"mX": 5,
						"mY": 0
					},
					{
						"mX": 5,
						"mY": 1
					},
					{
						"mX": 5,
						"mY": 2
					},
					{
						"mX": 5,
						"mY": 3
					},
					{
						"mX": 5,
						"mY": 4
					},
					{
						"mX": 6,
						"mY": 0
					},
					{
						"mX": 6,
						"mY": 1
					},
					{
						"mX": 6,
						"mY": 2
					},
					{
						"mX": 6,
						"mY": 3
					},
					{
						"mX": 6,
						"mY": 4
					},
					{
						"mX": 7,
						"mY": 0
					},
					{
						"mX": 7,
						"mY": 1
					},
					{
						"mX": 7,
						"mY": 2
					},
					{
						"mX": 7,
						"mY": 3
					},
					{
						"mX": 7,
						"mY": 4
					},
					{
						"mX": 8,
						"mY": 0
					},
					{
						"mX": 8,
						"mY": 1
					},
					{
						"mX": 8,
						"mY": 2
					},
					{
						"mX": 8,
						"mY": 3
					},
					{
						"mX": 8,
						"mY": 4
					}
				],
				"SpawnSoundID": "Play_Zomb_Egypt_TombRaiser_Grave_Rise"
			}
		},
		{
			"aliases": [
				"Wave5GraveSpawnEvent0"
			],
			"objclass": "SpawnZombiesFromGridItemSpawnerProps",
			"objdata": {
				"AdditionalPlantfood": "0",
				"GridTypes": [
					"RTID(gravestone_dark@GridItemTypes)",
					"RTID(gravestoneSunOnDestruction@GridItemTypes)",
					"RTID(gravestonePlantfoodOnDestruction@GridItemTypes)"
				],
				"WaveStartMessage": "[WARNING_GRAVESTONE_SPAWN]",
				"ZombieSpawnWaitTime": "1",
				"Zombies": [
					{
						"Type": "RTID(dark_wizard@ZombieTypes)"
					},
					{
						"Type": "RTID(dino_bully_veteran@ZombieTypes)"
					},
					{
						"Type": "RTID(pharaoh@ZombieTypes)"
					}
				]
			}
		},
		{
			"aliases": [
				"Wave7GravestoneEvent0"
			],
			"objclass": "SpawnGravestonesWaveActionProps",
			"objdata": {
				"GravestonePool": [
					{
						"Count": 0,
						"Type": "RTID(gravestone_dark@GridItemTypes)"
					},
					{
						"Count": 5,
						"Type": "RTID(gravestoneSunOnDestruction@GridItemTypes)"
					},
					{
						"Count": 0,
						"Type": "RTID(gravestonePlantfoodOnDestruction@GridItemTypes)"
					}
				],
				"SpawnEffectAnimID": "POPANIM_EFFECTS_TOMBSTONE_DARK_SPAWN_EFFECT",
				"SpawnPositionsPool": [
					{
						"mX": 3,
						"mY": 0
					},
					{
						"mX": 3,
						"mY": 1
					},
					{
						"mX": 3,
						"mY": 2
					},
					{
						"mX": 3,
						"mY": 3
					},
					{
						"mX": 3,
						"mY": 4
					},
					{
						"mX": 4,
						"mY": 0
					},
					{
						"mX": 4,
						"mY": 1
					},
					{
						"mX": 4,
						"mY": 2
					},
					{
						"mX": 4,
						"mY": 3
					},
					{
						"mX": 4,
						"mY": 4
					},
					{
						"mX": 5,
						"mY": 0
					},
					{
						"mX": 5,
						"mY": 1
					},
					{
						"mX": 5,
						"mY": 2
					},
					{
						"mX": 5,
						"mY": 3
					},
					{
						"mX": 5,
						"mY": 4
					},
					{
						"mX": 6,
						"mY": 0
					},
					{
						"mX": 6,
						"mY": 1
					},
					{
						"mX": 6,
						"mY": 2
					},
					{
						"mX": 6,
						"mY": 3
					},
					{
						"mX": 6,
						"mY": 4
					},
					{
						"mX": 7,
						"mY": 0
					},
					{
						"mX": 7,
						"mY": 1
					},
					{
						"mX": 7,
						"mY": 2
					},
					{
						"mX": 7,
						"mY": 3
					},
					{
						"mX": 7,
						"mY": 4
					},
					{
						"mX": 8,
						"mY": 0
					},
					{
						"mX": 8,
						"mY": 1
					},
					{
						"mX": 8,
						"mY": 2
					},
					{
						"mX": 8,
						"mY": 3
					},
					{
						"mX": 8,
						"mY": 4
					}
				],
				"SpawnSoundID": "Play_Zomb_Egypt_TombRaiser_Grave_Rise"
			}
		},
		{
			"aliases": [
				"Wave9GraveSpawnEvent0"
			],
			"objclass": "SpawnZombiesFromGridItemSpawnerProps",
			"objdata": {
				"AdditionalPlantfood": "0",
				"GridTypes": [
					"RTID(gravestone_dark@GridItemTypes)",
					"RTID(gravestoneSunOnDestruction@GridItemTypes)",
					"RTID(gravestonePlantfoodOnDestruction@GridItemTypes)"
				],
				"WaveStartMessage": "[WARNING_GRAVESTONE_SPAWN]",
				"ZombieSpawnWaitTime": "1",
				"Zombies": [
					{
						"Type": "RTID(dark_wizard@ZombieTypes)"
					},
					{
						"Type": "RTID(dino_bully_veteran@ZombieTypes)"
					},
					{
						"Type": "RTID(pharaoh@ZombieTypes)"
					}
				]
			}
		},
		{
			"aliases": [
				"Wave11GravestoneEvent0"
			],
			"objclass": "SpawnGravestonesWaveActionProps",
			"objdata": {
				"GravestonePool": [
					{
						"Count": 0,
						"Type": "RTID(gravestone_dark@GridItemTypes)"
					},
					{
						"Count": 5,
						"Type": "RTID(gravestoneSunOnDestruction@GridItemTypes)"
					},
					{
						"Count": 0,
						"Type": "RTID(gravestonePlantfoodOnDestruction@GridItemTypes)"
					}
				],
				"SpawnEffectAnimID": "POPANIM_EFFECTS_TOMBSTONE_DARK_SPAWN_EFFECT",
				"SpawnPositionsPool": [
					{
						"mX": 3,
						"mY": 0
					},
					{
						"mX": 3,
						"mY": 1
					},
					{
						"mX": 3,
						"mY": 2
					},
					{
						"mX": 3,
						"mY": 3
					},
					{
						"mX": 3,
						"mY": 4
					},
					{
						"mX": 4,
						"mY": 0
					},
					{
						"mX": 4,
						"mY": 1
					},
					{
						"mX": 4,
						"mY": 2
					},
					{
						"mX": 4,
						"mY": 3
					},
					{
						"mX": 4,
						"mY": 4
					},
					{
						"mX": 5,
						"mY": 0
					},
					{
						"mX": 5,
						"mY": 1
					},
					{
						"mX": 5,
						"mY": 2
					},
					{
						"mX": 5,
						"mY": 3
					},
					{
						"mX": 5,
						"mY": 4
					},
					{
						"mX": 6,
						"mY": 0
					},
					{
						"mX": 6,
						"mY": 1
					},
					{
						"mX": 6,
						"mY": 2
					},
					{
						"mX": 6,
						"mY": 3
					},
					{
						"mX": 6,
						"mY": 4
					},
					{
						"mX": 7,
						"mY": 0
					},
					{
						"mX": 7,
						"mY": 1
					},
					{
						"mX": 7,
						"mY": 2
					},
					{
						"mX": 7,
						"mY": 3
					},
					{
						"mX": 7,
						"mY": 4
					},
					{
						"mX": 8,
						"mY": 0
					},
					{
						"mX": 8,
						"mY": 1
					},
					{
						"mX": 8,
						"mY": 2
					},
					{
						"mX": 8,
						"mY": 3
					},
					{
						"mX": 8,
						"mY": 4
					}
				],
				"SpawnSoundID": "Play_Zomb_Egypt_TombRaiser_Grave_Rise"
			}
		},
		{
			"aliases": [
				"Wave13GraveSpawnEvent0"
			],
			"objclass": "SpawnZombiesFromGridItemSpawnerProps",
			"objdata": {
				"AdditionalPlantfood": "0",
				"GridTypes": [
					"RTID(gravestone_dark@GridItemTypes)",
					"RTID(gravestoneSunOnDestruction@GridItemTypes)",
					"RTID(gravestonePlantfoodOnDestruction@GridItemTypes)"
				],
				"WaveStartMessage": "[WARNING_GRAVESTONE_SPAWN]",
				"ZombieSpawnWaitTime": "1",
				"Zombies": [
					{
						"Type": "RTID(dark_wizard@ZombieTypes)"
					},
					{
						"Type": "RTID(dino_bully_veteran@ZombieTypes)"
					},
					{
						"Type": "RTID(pharaoh@ZombieTypes)"
					}
				]
			}
		},
		{
			"aliases": [
				"Wave15GravestoneEvent0"
			],
			"objclass": "SpawnGravestonesWaveActionProps",
			"objdata": {
				"GravestonePool": [
					{
						"Count": 0,
						"Type": "RTID(gravestone_dark@GridItemTypes)"
					},
					{
						"Count": 5,
						"Type": "RTID(gravestoneSunOnDestruction@GridItemTypes)"
					},
					{
						"Count": 0,
						"Type": "RTID(gravestonePlantfoodOnDestruction@GridItemTypes)"
					}
				],
				"SpawnEffectAnimID": "POPANIM_EFFECTS_TOMBSTONE_DARK_SPAWN_EFFECT",
				"SpawnPositionsPool": [
					{
						"mX": 3,
						"mY": 0
					},
					{
						"mX": 3,
						"mY": 1
					},
					{
						"mX": 3,
						"mY": 2
					},
					{
						"mX": 3,
						"mY": 3
					},
					{
						"mX": 3,
						"mY": 4
					},
					{
						"mX": 4,
						"mY": 0
					},
					{
						"mX": 4,
						"mY": 1
					},
					{
						"mX": 4,
						"mY": 2
					},
					{
						"mX": 4,
						"mY": 3
					},
					{
						"mX": 4,
						"mY": 4
					},
					{
						"mX": 5,
						"mY": 0
					},
					{
						"mX": 5,
						"mY": 1
					},
					{
						"mX": 5,
						"mY": 2
					},
					{
						"mX": 5,
						"mY": 3
					},
					{
						"mX": 5,
						"mY": 4
					},
					{
						"mX": 6,
						"mY": 0
					},
					{
						"mX": 6,
						"mY": 1
					},
					{
						"mX": 6,
						"mY": 2
					},
					{
						"mX": 6,
						"mY": 3
					},
					{
						"mX": 6,
						"mY": 4
					},
					{
						"mX": 7,
						"mY": 0
					},
					{
						"mX": 7,
						"mY": 1
					},
					{
						"mX": 7,
						"mY": 2
					},
					{
						"mX": 7,
						"mY": 3
					},
					{
						"mX": 7,
						"mY": 4
					},
					{
						"mX": 8,
						"mY": 0
					},
					{
						"mX": 8,
						"mY": 1
					},
					{
						"mX": 8,
						"mY": 2
					},
					{
						"mX": 8,
						"mY": 3
					},
					{
						"mX": 8,
						"mY": 4
					}
				],
				"SpawnSoundID": "Play_Zomb_Egypt_TombRaiser_Grave_Rise"
			}
		},
		{
			"aliases": [
				"Wave17GraveSpawnEvent0"
			],
			"objclass": "SpawnZombiesFromGridItemSpawnerProps",
			"objdata": {
				"AdditionalPlantfood": "0",
				"GridTypes": [
					"RTID(gravestone_dark@GridItemTypes)",
					"RTID(gravestoneSunOnDestruction@GridItemTypes)",
					"RTID(gravestonePlantfoodOnDestruction@GridItemTypes)"
				],
				"WaveStartMessage": "[WARNING_GRAVESTONE_SPAWN]",
				"ZombieSpawnWaitTime": "1",
				"Zombies": [
					{
						"Type": "RTID(dark_wizard@ZombieTypes)"
					},
					{
						"Type": "RTID(dino_bully_veteran@ZombieTypes)"
					},
					{
						"Type": "RTID(pharaoh@ZombieTypes)"
					}
				]
			}
		},
		{
			"aliases": [
				"Wave19GravestoneEvent0"
			],
			"objclass": "SpawnGravestonesWaveActionProps",
			"objdata": {
				"GravestonePool": [
					{
						"Count": 0,
						"Type": "RTID(gravestone_dark@GridItemTypes)"
					},
					{
						"Count": 6,
						"Type": "RTID(gravestoneSunOnDestruction@GridItemTypes)"
					},
					{
						"Count": 0,
						"Type": "RTID(gravestonePlantfoodOnDestruction@GridItemTypes)"
					}
				],
				"SpawnEffectAnimID": "POPANIM_EFFECTS_TOMBSTONE_DARK_SPAWN_EFFECT",
				"SpawnPositionsPool": [
					{
						"mX": 3,
						"mY": 0
					},
					{
						"mX": 3,
						"mY": 1
					},
					{
						"mX": 3,
						"mY": 2
					},
					{
						"mX": 3,
						"mY": 3
					},
					{
						"mX": 3,
						"mY": 4
					},
					{
						"mX": 4,
						"mY": 0
					},
					{
						"mX": 4,
						"mY": 1
					},
					{
						"mX": 4,
						"mY": 2
					},
					{
						"mX": 4,
						"mY": 3
					},
					{
						"mX": 4,
						"mY": 4
					},
					{
						"mX": 5,
						"mY": 0
					},
					{
						"mX": 5,
						"mY": 1
					},
					{
						"mX": 5,
						"mY": 2
					},
					{
						"mX": 5,
						"mY": 3
					},
					{
						"mX": 5,
						"mY": 4
					},
					{
						"mX": 6,
						"mY": 0
					},
					{
						"mX": 6,
						"mY": 1
					},
					{
						"mX": 6,
						"mY": 2
					},
					{
						"mX": 6,
						"mY": 3
					},
					{
						"mX": 6,
						"mY": 4
					},
					{
						"mX": 7,
						"mY": 0
					},
					{
						"mX": 7,
						"mY": 1
					},
					{
						"mX": 7,
						"mY": 2
					},
					{
						"mX": 7,
						"mY": 3
					},
					{
						"mX": 7,
						"mY": 4
					},
					{
						"mX": 8,
						"mY": 0
					},
					{
						"mX": 8,
						"mY": 1
					},
					{
						"mX": 8,
						"mY": 2
					},
					{
						"mX": 8,
						"mY": 3
					},
					{
						"mX": 8,
						"mY": 4
					}
				],
				"SpawnSoundID": "Play_Zomb_Egypt_TombRaiser_Grave_Rise"
			}
		},
		{
			"aliases": [
				"Wave21GraveSpawnEvent0"
			],
			"objclass": "SpawnZombiesFromGridItemSpawnerProps",
			"objdata": {
				"AdditionalPlantfood": "0",
				"GridTypes": [
					"RTID(gravestone_dark@GridItemTypes)",
					"RTID(gravestoneSunOnDestruction@GridItemTypes)",
					"RTID(gravestonePlantfoodOnDestruction@GridItemTypes)"
				],
				"WaveStartMessage": "[WARNING_GRAVESTONE_SPAWN]",
				"ZombieSpawnWaitTime": "1",
				"Zombies": [
					{
						"Type": "RTID(dark_wizard@ZombieTypes)"
					},
					{
						"Type": "RTID(dino_bully_veteran@ZombieTypes)"
					},
					{
						"Type": "RTID(pharaoh@ZombieTypes)"
					}
				]
			}
		},
		{
			"aliases": [
				"Wave23GravestoneEvent0"
			],
			"objclass": "SpawnGravestonesWaveActionProps",
			"objdata": {
				"GravestonePool": [
					{
						"Count": 0,
						"Type": "RTID(gravestone_dark@GridItemTypes)"
					},
					{
						"Count": 6,
						"Type": "RTID(gravestoneSunOnDestruction@GridItemTypes)"
					},
					{
						"Count": 0,
						"Type": "RTID(gravestonePlantfoodOnDestruction@GridItemTypes)"
					}
				],
				"SpawnEffectAnimID": "POPANIM_EFFECTS_TOMBSTONE_DARK_SPAWN_EFFECT",
				"SpawnPositionsPool": [
					{
						"mX": 3,
						"mY": 0
					},
					{
						"mX": 3,
						"mY": 1
					},
					{
						"mX": 3,
						"mY": 2
					},
					{
						"mX": 3,
						"mY": 3
					},
					{
						"mX": 3,
						"mY": 4
					},
					{
						"mX": 4,
						"mY": 0
					},
					{
						"mX": 4,
						"mY": 1
					},
					{
						"mX": 4,
						"mY": 2
					},
					{
						"mX": 4,
						"mY": 3
					},
					{
						"mX": 4,
						"mY": 4
					},
					{
						"mX": 5,
						"mY": 0
					},
					{
						"mX": 5,
						"mY": 1
					},
					{
						"mX": 5,
						"mY": 2
					},
					{
						"mX": 5,
						"mY": 3
					},
					{
						"mX": 5,
						"mY": 4
					},
					{
						"mX": 6,
						"mY": 0
					},
					{
						"mX": 6,
						"mY": 1
					},
					{
						"mX": 6,
						"mY": 2
					},
					{
						"mX": 6,
						"mY": 3
					},
					{
						"mX": 6,
						"mY": 4
					},
					{
						"mX": 7,
						"mY": 0
					},
					{
						"mX": 7,
						"mY": 1
					},
					{
						"mX": 7,
						"mY": 2
					},
					{
						"mX": 7,
						"mY": 3
					},
					{
						"mX": 7,
						"mY": 4
					},
					{
						"mX": 8,
						"mY": 0
					},
					{
						"mX": 8,
						"mY": 1
					},
					{
						"mX": 8,
						"mY": 2
					},
					{
						"mX": 8,
						"mY": 3
					},
					{
						"mX": 8,
						"mY": 4
					}
				],
				"SpawnSoundID": "Play_Zomb_Egypt_TombRaiser_Grave_Rise"
			}
		},
		{
			"aliases": [
				"Wave25GraveSpawnEvent0"
			],
			"objclass": "SpawnZombiesFromGridItemSpawnerProps",
			"objdata": {
				"AdditionalPlantfood": "0",
				"GridTypes": [
					"RTID(gravestone_dark@GridItemTypes)",
					"RTID(gravestoneSunOnDestruction@GridItemTypes)",
					"RTID(gravestonePlantfoodOnDestruction@GridItemTypes)"
				],
				"WaveStartMessage": "[WARNING_GRAVESTONE_SPAWN]",
				"ZombieSpawnWaitTime": "1",
				"Zombies": [
					{
						"Type": "RTID(dark_wizard@ZombieTypes)"
					},
					{
						"Type": "RTID(dino_bully_veteran@ZombieTypes)"
					},
					{
						"Type": "RTID(pharaoh@ZombieTypes)"
					}
				]
			}
		},
		{
			"aliases": [
				"Wave27GravestoneEvent0"
			],
			"objclass": "SpawnGravestonesWaveActionProps",
			"objdata": {
				"GravestonePool": [
					{
						"Count": 0,
						"Type": "RTID(gravestone_dark@GridItemTypes)"
					},
					{
						"Count": 6,
						"Type": "RTID(gravestoneSunOnDestruction@GridItemTypes)"
					},
					{
						"Count": 0,
						"Type": "RTID(gravestonePlantfoodOnDestruction@GridItemTypes)"
					}
				],
				"SpawnEffectAnimID": "POPANIM_EFFECTS_TOMBSTONE_DARK_SPAWN_EFFECT",
				"SpawnPositionsPool": [
					{
						"mX": 3,
						"mY": 0
					},
					{
						"mX": 3,
						"mY": 1
					},
					{
						"mX": 3,
						"mY": 2
					},
					{
						"mX": 3,
						"mY": 3
					},
					{
						"mX": 3,
						"mY": 4
					},
					{
						"mX": 4,
						"mY": 0
					},
					{
						"mX": 4,
						"mY": 1
					},
					{
						"mX": 4,
						"mY": 2
					},
					{
						"mX": 4,
						"mY": 3
					},
					{
						"mX": 4,
						"mY": 4
					},
					{
						"mX": 5,
						"mY": 0
					},
					{
						"mX": 5,
						"mY": 1
					},
					{
						"mX": 5,
						"mY": 2
					},
					{
						"mX": 5,
						"mY": 3
					},
					{
						"mX": 5,
						"mY": 4
					},
					{
						"mX": 6,
						"mY": 0
					},
					{
						"mX": 6,
						"mY": 1
					},
					{
						"mX": 6,
						"mY": 2
					},
					{
						"mX": 6,
						"mY": 3
					},
					{
						"mX": 6,
						"mY": 4
					},
					{
						"mX": 7,
						"mY": 0
					},
					{
						"mX": 7,
						"mY": 1
					},
					{
						"mX": 7,
						"mY": 2
					},
					{
						"mX": 7,
						"mY": 3
					},
					{
						"mX": 7,
						"mY": 4
					},
					{
						"mX": 8,
						"mY": 0
					},
					{
						"mX": 8,
						"mY": 1
					},
					{
						"mX": 8,
						"mY": 2
					},
					{
						"mX": 8,
						"mY": 3
					},
					{
						"mX": 8,
						"mY": 4
					}
				],
				"SpawnSoundID": "Play_Zomb_Egypt_TombRaiser_Grave_Rise"
			}
		},
		{
			"aliases": [
				"Wave29GraveSpawnEvent0"
			],
			"objclass": "SpawnZombiesFromGridItemSpawnerProps",
			"objdata": {
				"AdditionalPlantfood": "0",
				"GridTypes": [
					"RTID(gravestone_dark@GridItemTypes)",
					"RTID(gravestoneSunOnDestruction@GridItemTypes)",
					"RTID(gravestonePlantfoodOnDestruction@GridItemTypes)"
				],
				"WaveStartMessage": "[WARNING_GRAVESTONE_SPAWN]",
				"ZombieSpawnWaitTime": "1",
				"Zombies": [
					{
						"Type": "RTID(dark_wizard@ZombieTypes)"
					},
					{
						"Type": "RTID(dino_bully_veteran@ZombieTypes)"
					},
					{
						"Type": "RTID(pharaoh@ZombieTypes)"
					}
				]
			}
		},
		{
			"aliases": [
				"Wave31GravestoneEvent0"
			],
			"objclass": "SpawnGravestonesWaveActionProps",
			"objdata": {
				"GravestonePool": [
					{
						"Count": 0,
						"Type": "RTID(gravestone_dark@GridItemTypes)"
					},
					{
						"Count": 6,
						"Type": "RTID(gravestoneSunOnDestruction@GridItemTypes)"
					},
					{
						"Count": 0,
						"Type": "RTID(gravestonePlantfoodOnDestruction@GridItemTypes)"
					}
				],
				"SpawnEffectAnimID": "POPANIM_EFFECTS_TOMBSTONE_DARK_SPAWN_EFFECT",
				"SpawnPositionsPool": [
					{
						"mX": 3,
						"mY": 0
					},
					{
						"mX": 3,
						"mY": 1
					},
					{
						"mX": 3,
						"mY": 2
					},
					{
						"mX": 3,
						"mY": 3
					},
					{
						"mX": 3,
						"mY": 4
					},
					{
						"mX": 4,
						"mY": 0
					},
					{
						"mX": 4,
						"mY": 1
					},
					{
						"mX": 4,
						"mY": 2
					},
					{
						"mX": 4,
						"mY": 3
					},
					{
						"mX": 4,
						"mY": 4
					},
					{
						"mX": 5,
						"mY": 0
					},
					{
						"mX": 5,
						"mY": 1
					},
					{
						"mX": 5,
						"mY": 2
					},
					{
						"mX": 5,
						"mY": 3
					},
					{
						"mX": 5,
						"mY": 4
					},
					{
						"mX": 6,
						"mY": 0
					},
					{
						"mX": 6,
						"mY": 1
					},
					{
						"mX": 6,
						"mY": 2
					},
					{
						"mX": 6,
						"mY": 3
					},
					{
						"mX": 6,
						"mY": 4
					},
					{
						"mX": 7,
						"mY": 0
					},
					{
						"mX": 7,
						"mY": 1
					},
					{
						"mX": 7,
						"mY": 2
					},
					{
						"mX": 7,
						"mY": 3
					},
					{
						"mX": 7,
						"mY": 4
					},
					{
						"mX": 8,
						"mY": 0
					},
					{
						"mX": 8,
						"mY": 1
					},
					{
						"mX": 8,
						"mY": 2
					},
					{
						"mX": 8,
						"mY": 3
					},
					{
						"mX": 8,
						"mY": 4
					}
				],
				"SpawnSoundID": "Play_Zomb_Egypt_TombRaiser_Grave_Rise"
			}
		},
		{
			"aliases": [
				"Wave33GraveSpawnEvent0"
			],
			"objclass": "SpawnZombiesFromGridItemSpawnerProps",
			"objdata": {
				"AdditionalPlantfood": "0",
				"GridTypes": [
					"RTID(gravestone_dark@GridItemTypes)",
					"RTID(gravestoneSunOnDestruction@GridItemTypes)",
					"RTID(gravestonePlantfoodOnDestruction@GridItemTypes)"
				],
				"WaveStartMessage": "[WARNING_GRAVESTONE_SPAWN]",
				"ZombieSpawnWaitTime": "1",
				"Zombies": [
					{
						"Type": "RTID(dark_wizard@ZombieTypes)"
					},
					{
						"Type": "RTID(dino_bully_veteran@ZombieTypes)"
					},
					{
						"Type": "RTID(pharaoh@ZombieTypes)"
					}
				]
			}
		}
	],
	"version": 1
}