{
	"#comment": "rift template",
	"objects": [
		{
			"objclass": "LevelDefinition",
			"objdata": {
				"Description": "[PLAYERS_TRIP_TO_RIFT]",
				"DisablePlantBoosts": false,
				"LevelMutator": "RTID(LevelMutator@CurrentLevel)",
				"LevelNumber": "",
				"Loot": "",
				"Modules": [
					"RTID(StandardRiftIntro@LevelModules)",
					"RTID(ZombiesDeadWinCon@LevelModules)",
					"RTID(FutureMowers@LevelModules)",
					"RTID(ConveyorBelt@CurrentLevel)",
					"RTID(DefaultZombieWinCondition@LevelModules)",
					"RTID(NewWaves@CurrentLevel)",
					"RTID(PerkActivator@CurrentLevel)",
					"RTID(WaveDuplicator@CurrentLevel)",
					"RTID(LevelDifficultyScaling@CurrentLevel)"
				],
				"MusicType": "MiniGame_A",
				"Name": "[RIFT_LEVEL_NAME]",
				"NormalPresentTable": "egypt_normal_01",
				"PerksDisabledInLevel": [
					"sunbreak",
					"zombieinhibitorgargantuar",
					"sunbank",
					"applyconditionsuncarrier50",
					"heavywatering"
				],
				"PerksDisabledPerDifficulty": [
					[],
					[],
					[]
				],
				"ShinyPresentTable": "egypt_shiny_01",
				"StageModule": "RTID(RiftStageZcorp@LevelModules)",
				"VictoryModule": "RTID(RiftOutro@LevelModules)"
			}
		},
		{
			"aliases": [
				"WaveDuplicator"
			],
			"objclass": "WaveDuplicatorModuleProperties",
			"objdata": {
				"PeriodOfWavesToLoop": 3,
				"WaveSetsToAppend": 20
			}
		},
		{
			"aliases": [
				"PerkActivator"
			],
			"objclass": "PerkHandlerModuleProperties",
			"objdata": {}
		},
		{
			"aliases": [
				"LevelMutator"
			],
			"objclass": "LevelMutatorModuleProperties",
			"objdata": {
				"MutatorTables": [
					"RTID(MutatorPropsRiftConveyor@LevelMutatorTables)",
					"RTID(LocalChallengeMutator@CurrentLevel)",
					"RTID(LocalMainChallengeMutator@CurrentLevel)"
				]
			}
		},
		{
			"aliases": [
				"LocalMainChallengeMutator"
			],
			"objclass": "LevelMutatorTableProps",
			"objdata": {
				"Tables": [
					{
						"Level": 0,
						"ModuleType": "mainchallenge",
						"Modules": [
							"RTID(LevelTimer1@CurrentLevel)"
						]
					},
					{
						"Level": 1,
						"ModuleType": "mainchallenge",
						"Modules": [
							"RTID(LevelTimer2@CurrentLevel)"
						]
					},
					{
						"Level": 2,
						"ModuleType": "mainchallenge",
						"Modules": [
							"RTID(LevelTimer3@CurrentLevel)"
						]
					}
				]
			}
		},
		{
			"aliases": [
				"LevelTimer1"
			],
			"objclass": "StarChallengeLevelTimerProperties",
			"objdata": {
				"TimeLimit": 120
			}
		},
		{
			"aliases": [
				"LevelTimer2"
			],
			"objclass": "StarChallengeLevelTimerProperties",
			"objdata": {
				"TimeLimit": 150
			}
		},
		{
			"aliases": [
				"LevelTimer3"
			],
			"objclass": "StarChallengeLevelTimerProperties",
			"objdata": {
				"TimeLimit": 180
			}
		},
		{
			"aliases": [
				"LocalChallengeMutator"
			],
			"objclass": "LevelMutatorTableProps",
			"objdata": {
				"Tables": [
					{
						"Level": 0,
						"ModuleType": "bonuschallenge",
						"Modules": [
							"RTID(ProtectThePlant@CurrentLevel)"
						]
					},
					{
						"Level": 1,
						"ModuleType": "bonuschallenge",
						"Modules": [
							"RTID(KillZombies1@CurrentLevel)",
							"RTID(ProtectThePlant@CurrentLevel)"
						]
					},
					{
						"Level": 2,
						"ModuleType": "bonuschallenge",
						"Modules": [
							"RTID(KillZombies2@CurrentLevel)",
							"RTID(ProtectThePlant@CurrentLevel)"
						]
					}
				]
			}
		},
		{
			"aliases": [
				"KillZombies1"
			],
			"objclass": "StarChallengeKillZombiesInTimeProps",
			"objdata": {
				"Time": 150,
				"ZombiesToKill": 150
			}
		},
		{
			"aliases": [
				"KillZombies2"
			],
			"objclass": "StarChallengeKillZombiesInTimeProps",
			"objdata": {
				"Time": 180,
				"ZombiesToKill": 180
			}
		},
		{
			"aliases": [
				"ProtectThePlant"
			],
			"objclass": "ProtectThePlantChallengeProperties",
			"objdata": {
				"MustProtectCount": 1,
				"Plants": [
					{
						"Level": -1,
						"GridX": 3,
						"GridY": 2,
						"PlantType": "homingthistle"
					}
				]
			}
		},
		{
			"aliases": [
				"ConveyorBelt"
			],
			"objclass": "ConveyorSeedBankProperties",
			"objdata": {
				"DropDelayConditions": [
					{
						"Delay": 3,
						"MaxPackets": 0
					},
					{
						"Delay": 6,
						"MaxPackets": 2
					},
					{
						"Delay": 9,
						"MaxPackets": 4
					},
					{
						"Delay": 12,
						"MaxPackets": 8
					}
				],
				"InitialPlantList": [
					{
						"MaxCount": 1,
						"MaxWeightFactor": 0,
						"MinCount": 1,
						"MinWeightFactor": 1,
						"PlantType": "lightningreed",
						"Weight": 20
					},
					{
						"MaxCount": 1,
						"MaxWeightFactor": 0,
						"MinCount": 1,
						"MinWeightFactor": 1,
						"PlantType": "wallnut",
						"Weight": 25
					},
					{
						"MaxCount": 1,
						"MaxWeightFactor": 0,
						"MinCount": 1,
						"MinWeightFactor": 1,
						"PlantType": "peashooter",
						"Weight": 20
					},
					{
						"MaxCount": 1,
						"MaxWeightFactor": 0,
						"MinCount": 1,
						"MinWeightFactor": 1,
						"PlantType": "bonkchoy",
						"Weight": 20
					},
					{
						"MaxCount": 1,
						"MaxWeightFactor": 0,
						"MinCount": 1,
						"MinWeightFactor": 1,
						"PlantType": "fumeshroom",
						"Weight": 20
					},
					{
						"MaxCount": 1,
						"MaxWeightFactor": 0,
						"MinCount": 1,
						"MinWeightFactor": 1,
						"PlantType": "spikeweed",
						"Weight": 20
					},
					{
						"MaxCount": 1,
						"MaxWeightFactor": 0,
						"MinCount": 1,
						"MinWeightFactor": 1,
						"PlantType": "sporeshroom",
						"Weight": 20
					},
					{
						"MaxCount": 1,
						"MaxWeightFactor": 0,
						"MinCount": 1,
						"MinWeightFactor": 1,
						"PlantType": "coconutcannon",
						"Weight": 20
					},
					{
						"MaxCount": 1,
						"MaxWeightFactor": 0,
						"MinCount": 1,
						"MinWeightFactor": 1,
						"PlantType": "pepperpult",
						"Weight": 20
					},
					{
						"MaxCount": 1,
						"MaxWeightFactor": 0,
						"MinCount": 1,
						"MinWeightFactor": 1,
						"PlantType": "stunion",
						"Weight": 20
					},
					{
						"MaxCount": 1,
						"MaxWeightFactor": 0,
						"MinCount": 1,
						"MinWeightFactor": 1,
						"PlantType": "chardguard",
						"Weight": 25
					},
					{
						"MaxCount": 1,
						"MaxWeightFactor": 0,
						"MinCount": 1,
						"MinWeightFactor": 1,
						"PlantType": "laser_bean",
						"Weight": 20
					},
					{
						"MaxCount": 1,
						"MaxWeightFactor": 0,
						"MinCount": 1,
						"MinWeightFactor": 1,
						"PlantType": "bloomerang",
						"Weight": 20
					},
					{
						"MaxCount": 1,
						"MaxWeightFactor": 0,
						"MinCount": 1,
						"MinWeightFactor": 1,
						"PlantType": "celerystalker",
						"Weight": 20
					},
					{
						"MaxCount": 1,
						"MaxWeightFactor": 0,
						"MinCount": 1,
						"MinWeightFactor": 1,
						"PlantType": "redstinger",
						"Weight": 20
					},
					{
						"MaxCount": 1,
						"MaxWeightFactor": 0,
						"MinCount": 1,
						"MinWeightFactor": 1,
						"PlantType": "endurian",
						"Weight": 25
					},
					{
						"MaxCount": 1,
						"MaxWeightFactor": 0,
						"MinCount": 1,
						"MinWeightFactor": 1,
						"PlantType": "kernelpult",
						"Weight": 20
					},
					{
						"MaxCount": 1,
						"MaxWeightFactor": 0,
						"MinCount": 1,
						"MinWeightFactor": 1,
						"PlantType": "guacodile",
						"Weight": 20
					},
					{
						"MaxCount": 1,
						"MaxWeightFactor": 0,
						"MinCount": 1,
						"MinWeightFactor": 1,
						"PlantType": "bowlingbulb",
						"Weight": 20
					},
					{
						"MaxCount": 1,
						"MaxWeightFactor": 0,
						"MinCount": 1,
						"MinWeightFactor": 1,
						"PlantType": "citron",
						"Weight": 20
					},
					{
						"MaxCount": 1,
						"MaxWeightFactor": 0,
						"MinCount": 1,
						"MinWeightFactor": 1,
						"PlantType": "melonpult",
						"Weight": 20
					},
					{
						"MaxCount": 1,
						"MaxWeightFactor": 0,
						"MinCount": 1,
						"MinWeightFactor": 1,
						"PlantType": "cabbagepult",
						"Weight": 20
					},
					{
						"MaxCount": 1,
						"MaxWeightFactor": 0,
						"MinCount": 1,
						"MinWeightFactor": 1,
						"PlantType": "spikerock",
						"Weight": 25
					},
					{
						"MaxCount": 1,
						"MaxWeightFactor": 0,
						"MinCount": 1,
						"MinWeightFactor": 1,
						"PlantType": "springbean",
						"Weight": 20
					},
					{
						"MaxCount": 1,
						"MaxWeightFactor": 0,
						"MinCount": 1,
						"MinWeightFactor": 1,
						"PlantType": "chilibean",
						"Weight": 20
					},
					{
						"MaxCount": 1,
						"MaxWeightFactor": 0,
						"MinCount": 1,
						"MinWeightFactor": 1,
						"PlantType": "phatbeet",
						"Weight": 20
					},
					{
						"MaxCount": 1,
						"MaxWeightFactor": 0,
						"MinCount": 1,
						"MinWeightFactor": 1,
						"PlantType": "splitpea",
						"Weight": 20
					},
					{
						"MaxCount": 1,
						"MaxWeightFactor": 0,
						"MinCount": 1,
						"MinWeightFactor": 1,
						"PlantType": "primalwallnut",
						"Weight": 25
					},
					{
						"MaxCount": 1,
						"MaxWeightFactor": 0,
						"MinCount": 1,
						"MinWeightFactor": 1,
						"PlantType": "stallia",
						"Weight": 20
					},
					{
						"MaxCount": 1,
						"MaxWeightFactor": 0,
						"MinCount": 1,
						"MinWeightFactor": 1,
						"PlantType": "xshot",
						"Weight": 20
					},
					{
						"MaxCount": 1,
						"MaxWeightFactor": 0,
						"MinCount": 1,
						"MinWeightFactor": 1,
						"PlantType": "wintermelon",
						"Weight": 25
					},
					{
						"MaxCount": 1,
						"MaxWeightFactor": 0,
						"MinCount": 1,
						"MinWeightFactor": 1,
						"PlantType": "akee",
						"Weight": 20
					},
					{
						"MaxCount": 1,
						"MaxWeightFactor": 0,
						"MinCount": 1,
						"MinWeightFactor": 1,
						"PlantType": "magnetshroom",
						"Weight": 20
					},
					{
						"MaxCount": 1,
						"MaxWeightFactor": 0,
						"MinCount": 1,
						"MinWeightFactor": 1,
						"PlantType": "threepeater",
						"Weight": 20
					},
					{
						"MaxCount": 1,
						"MaxWeightFactor": 0,
						"MinCount": 1,
						"MinWeightFactor": 1,
						"PlantType": "iceburg",
						"Weight": 30
					},
					{
						"MaxCount": 1,
						"MaxWeightFactor": 0,
						"MinCount": 1,
						"MinWeightFactor": 1,
						"PlantType": "tallnut",
						"Weight": 25
					},
					{
						"MaxCount": 1,
						"MaxWeightFactor": 0,
						"MinCount": 1,
						"MinWeightFactor": 1,
						"PlantType": "primalpeashooter",
						"Weight": 20
					},
					{
						"MaxCount": 1,
						"MaxWeightFactor": 0,
						"MinCount": 1,
						"MinWeightFactor": 1,
						"PlantType": "repeater",
						"Weight": 20
					},
					{
						"MaxCount": 1,
						"MaxWeightFactor": 0,
						"MinCount": 1,
						"MinWeightFactor": 1,
						"PlantType": "snapdragon",
						"Weight": 20
					}
				],
				"SpeedConditions": [
					{
						"MaxPackets": 0,
						"Speed": 100
					}
				]
			}
		},
		{
			"aliases": [
				"LevelDifficultyScaling"
			],
			"objclass": "LevelDifficultyScalingModuleProperties",
			"objdata": {
				"DifficultyRulesType": "RiftDifficulty",
				"ZombieLevelSwaps": [
					{
						"Level": 0,
						"Swaps": [
							{
								"From": "RTID(zcorp@ZombieTypes)",
								"To": [
									"RTID(zcorp@ZombieTypes)",
									"RTID(zcorp_armor1@ZombieTypes)",
									"RTID(zcorp_fem@ZombieTypes)",
									"RTID(zcorp_fem_armor1@ZombieTypes)",
									"RTID(zcorp_armor2@ZombieTypes)",
									"RTID(zcorp_fem_armor2@ZombieTypes)"
								]
							},
							{
								"From": "RTID(zcorp_helpdesk@ZombieTypes)",
								"To": [
									"RTID(zcorp@ZombieTypes)",
									"RTID(zcorp_helpdesk@ZombieTypes)",
									"RTID(zcorp_fem@ZombieTypes)"
								]
							}
						]
					},
					{
						"Level": 4,
						"Swaps": [
							{
								"From": "RTID(zcorp@ZombieTypes)",
								"To": [
									"RTID(zcorp@ZombieTypes)",
									"RTID(zcorp_armor1@ZombieTypes)",
									"RTID(zcorp_fem@ZombieTypes)",
									"RTID(zcorp_fem_armor1@ZombieTypes)",
									"RTID(zcorp_armor2@ZombieTypes)",
									"RTID(zcorp_fem_armor2@ZombieTypes)"
								]
							},
							{
								"From": "RTID(zcorp_helpdesk@ZombieTypes)",
								"To": [
									"RTID(zcorp_armor1@ZombieTypes)",
									"RTID(zcorp_helpdesk@ZombieTypes)",
									"RTID(zcorp_fem_armor1@ZombieTypes)"
								]
							}
						]
					},
					{
						"Level": 7,
						"Swaps": [
							{
								"From": "RTID(zcorp@ZombieTypes)",
								"To": [
									"RTID(zcorp@ZombieTypes)",
									"RTID(zcorp_armor1@ZombieTypes)",
									"RTID(zcorp_fem@ZombieTypes)",
									"RTID(zcorp_fem_armor1@ZombieTypes)",
									"RTID(zcorp_armor2@ZombieTypes)",
									"RTID(zcorp_fem_armor2@ZombieTypes)"
								]
							},
							{
								"From": "RTID(zcorp_helpdesk@ZombieTypes)",
								"To": [
									"RTID(zcorp_armor2@ZombieTypes)",
									"RTID(zcorp_helpdesk@ZombieTypes)",
									"RTID(zcorp_fem_armor2@ZombieTypes)"
								]
							}
						]
					}
				]
			}
		},
		{
			"aliases": [
				"NewWaves"
			],
			"objclass": "WaveManagerModuleProperties",
			"objdata": {
				"DynamicZombies": [
					{},
					{},
					{},
					{
						"MaxPoints": 1500,
						"PointIncrementPerWave": 175,
						"StartingPoints": 350,
						"StartingWave": 0,
						"ZombiePool": [
							"RTID(zcorp_helpdesk@ZombieTypes)",
							"RTID(zcorp@ZombieTypes)"
						]
					},
					{},
					{},
					{}
				],
				"WaveManagerProps": "RTID(WaveManagerProps@CurrentLevel)"
			}
		},
		{
			"aliases": [
				"WaveManagerProps"
			],
			"objclass": "WaveManagerProperties",
			"objdata": {
				"FlagWaveInterval": 3,
				"WaveCount": 12,
				"WaveSpendingPointIncrement": 100,
				"WaveSpendingPoints": 150,
				"Waves": [
					[
						"RTID(Wave1@CurrentLevel)"
					],
					[
						"RTID(Wave2@CurrentLevel)"
					],
					[
						"RTID(Wave3@CurrentLevel)"
					],
					[
						"RTID(Wave4@CurrentLevel)"
					],
					[
						"RTID(Wave5@CurrentLevel)"
					],
					[
						"RTID(Wave6@CurrentLevel)"
					],
					[
						"RTID(Wave7@CurrentLevel)"
					],
					[
						"RTID(Wave8@CurrentLevel)"
					],
					[
						"RTID(Wave9@CurrentLevel)"
					],
					[
						"RTID(Wave10@CurrentLevel)"
					],
					[
						"RTID(Wave11@CurrentLevel)"
					],
					[
						"RTID(Wave12@CurrentLevel)"
					]
				]
			}
		},
		{
			"aliases": [
				"Wave1"
			],
			"objclass": "SpawnZombiesJitteredWaveActionProps",
			"objdata": {
				"Zombies": [
					{
						"Row": "3",
						"Type": "RTID(zcorp@ZombieTypes)"
					}
				]
			}
		},
		{
			"aliases": [
				"Wave2"
			],
			"objclass": "SpawnZombiesJitteredWaveActionProps",
			"objdata": {
				"AdditionalPlantfood": 1,
				"Zombies": [
					{
						"Row": "3",
						"Type": "RTID(zcorp@ZombieTypes)"
					}
				]
			}
		},
		{
			"aliases": [
				"Wave3"
			],
			"objclass": "SpawnZombiesJitteredWaveActionProps",
			"objdata": {
				"Zombies": [
					{
						"Row": "3",
						"Type": "RTID(zcorp@ZombieTypes)"
					}
				]
			}
		},
		{
			"aliases": [
				"Wave4"
			],
			"objclass": "SpawnZombiesJitteredWaveActionProps",
			"objdata": {
				"AdditionalPlantfood": 1,
				"Zombies": [
					{
						"Row": "3",
						"Type": "RTID(zcorp@ZombieTypes)"
					}
				]
			}
		},
		{
			"aliases": [
				"Wave5"
			],
			"objclass": "SpawnZombiesJitteredWaveActionProps",
			"objdata": {
				"Zombies": [
					{
						"Row": "3",
						"Type": "RTID(zcorp@ZombieTypes)"
					}
				]
			}
		},
		{
			"aliases": [
				"Wave6"
			],
			"objclass": "SpawnZombiesJitteredWaveActionProps",
			"objdata": {
				"AdditionalPlantfood": 1,
				"Zombies": [
					{
						"Row": "3",
						"Type": "RTID(zcorp@ZombieTypes)"
					}
				]
			}
		},
		{
			"aliases": [
				"Wave7"
			],
			"objclass": "SpawnZombiesJitteredWaveActionProps",
			"objdata": {
				"Zombies": [
					{
						"Row": "3",
						"Type": "RTID(zcorp@ZombieTypes)"
					}
				]
			}
		},
		{
			"aliases": [
				"Wave8"
			],
			"objclass": "SpawnZombiesJitteredWaveActionProps",
			"objdata": {
				"AdditionalPlantfood": 1,
				"Zombies": [
					{
						"Row": "3",
						"Type": "RTID(zcorp@ZombieTypes)"
					}
				]
			}
		},
		{
			"aliases": [
				"Wave9"
			],
			"objclass": "SpawnZombiesJitteredWaveActionProps",
			"objdata": {
				"Zombies": [
					{
						"Row": "3",
						"Type": "RTID(zcorp@ZombieTypes)"
					}
				]
			}
		},
		{
			"aliases": [
				"Wave10"
			],
			"objclass": "SpawnZombiesJitteredWaveActionProps",
			"objdata": {
				"AdditionalPlantfood": 1,
				"Zombies": [
					{
						"Row": "3",
						"Type": "RTID(zcorp@ZombieTypes)"
					}
				]
			}
		},
		{
			"aliases": [
				"Wave11"
			],
			"objclass": "SpawnZombiesJitteredWaveActionProps",
			"objdata": {
				"Zombies": [
					{
						"Row": "3",
						"Type": "RTID(zcorp@ZombieTypes)"
					}
				]
			}
		},
		{
			"aliases": [
				"Wave12"
			],
			"objclass": "SpawnZombiesJitteredWaveActionProps",
			"objdata": {
				"AdditionalPlantfood": 1,
				"Zombies": [
					{
						"Row": "3",
						"Type": "RTID(zcorp@ZombieTypes)"
					}
				]
			}
		}
	],
	"version": 1
}