{
	"#comment": "rift_186 v1",
	"objects": [
		{
			"objclass": "LevelDefinition",
			"objdata": {
				"Description": "[PLAYERS_TRIP_TO_RIFT]",
				"LevelNumber": "",
				"DisablePlantBoosts": true,
				"Loot": "",
				"Modules": [
					"RTID(ZombiesDeadWinCon@LevelModules)",
					"RTID(EightiesMowers@LevelModules)",
					"RTID(LastStand@CurrentLevel)",
					"RTID(SeedBank@CurrentLevel)",
					"RTID(DefaultZombieWinCondition@LevelModules)",
					"RTID(NewWaves@CurrentLevel)",
					"RTID(PerkActivator@CurrentLevel)",
					"RTID(WaveDuplicator@CurrentLevel)",
					"RTID(LevelDifficultyScaling@CurrentLevel)"
				],
				"MusicType": "MiniGame_A",
				"Name": "[RIFT_LEVEL_NAME]",
				"NormalPresentTable": "egypt_normal_01",
				"ShinyPresentTable": "egypt_shiny_01",
				"VictoryModule": "RTID(RiftOutro@LevelModules)",
				"StageModule": "RTID(EightiesStage@LevelModules)",
				"LevelMutator": "RTID(LevelMutator@CurrentLevel)",
				"PerksDisabledInLevel": [
					"moarscore",
					"bossbustercannon",
					"sunbreak",
					"applyconditionsuncarrier50"
				],
				"PerksDisabledPerDifficulty": [
					[],
					[],
					[]
				]
			}
		},
		{
			"aliases": [
				"WaveDuplicator"
			],
			"objclass": "WaveDuplicatorModuleProperties",
			"objdata": {
				"PeriodOfWavesToLoop": 10,
				"WaveSetsToAppend": 20
			}
		},
		{
			"aliases": [
				"LastStand"
			],
			"objclass": "LastStandMinigameProperties",
			"objdata": {
				"StartingPlantfood": 0,
				"StartingSun": 2000,
				"PreSeedchooserFlow": "rift"
			}
		},
		{
			"aliases": [
				"PerkActivator"
			],
			"objclass": "PerkHandlerModuleProperties",
			"objdata": {}
		},
		{
			"aliases": [
				"LevelMutator"
			],
			"objclass": "LevelMutatorModuleProperties",
			"objdata": {
				"MutatorTables": [
					"RTID(MutatorPropsRiftLastStand@LevelMutatorTables)",
					"RTID(LocalChallengeMutator@CurrentLevel)",
					"RTID(LocalMainChallengeMutator@CurrentLevel)"
				]
			}
		},
		{
			"aliases": [
				"LocalMainChallengeMutator"
			],
			"objclass": "LevelMutatorTableProps",
			"objdata": {
				"Tables": [
					{
						"Level": 0,
						"ModuleType": "mainchallenge",
						"Modules": [
							"RTID(LevelTimer@CurrentLevel)"
						]
					},
					{
						"Level": 1,
						"ModuleType": "mainchallenge",
						"Modules": [
							"RTID(LevelTimer2@CurrentLevel)"
						]
					},
					{
						"Level": 2,
						"ModuleType": "mainchallenge",
						"Modules": [
							"RTID(LevelTimer3@CurrentLevel)"
						]
					}
				]
			}
		},
		{
			"aliases": [
				"LevelTimer"
			],
			"objclass": "StarChallengeLevelTimerProperties",
			"objdata": {
				"TimeLimit": 90
			}
		},
		{
			"aliases": [
				"LevelTimer2"
			],
			"objclass": "StarChallengeLevelTimerProperties",
			"objdata": {
				"TimeLimit": 105
			}
		},
		{
			"aliases": [
				"LevelTimer3"
			],
			"objclass": "StarChallengeLevelTimerProperties",
			"objdata": {
				"TimeLimit": 120
			}
		},
		{
			"aliases": [
				"LocalChallengeMutator"
			],
			"objclass": "LevelMutatorTableProps",
			"objdata": {
				"Tables": [
					{
						"Level": 0,
						"Modules": [
							"RTID(SunUsed@CurrentLevel)"
						],
						"ModuleType": "bonuschallenge"
					},
					{
						"Level": 1,
						"Modules": [
							"RTID(SunUsed1@CurrentLevel)",
							"RTID(DefeatZombiesOfType2@CurrentLevel)"
						],
						"ModuleType": "bonuschallenge"
					},
					{
						"Level": 2,
						"Modules": [
							"RTID(SunUsed2@CurrentLevel)",
							"RTID(DefeatZombiesOfType3@CurrentLevel)"
						],
						"ModuleType": "bonuschallenge"
					}
				]
			}
		},
		{
			"aliases": [
				"SunUsed"
			],
			"objclass": "StarChallengeSunUsedProps",
			"objdata": {
				"MaximumSun": 1825
			}
		},
		{
			"aliases": [
				"SunUsed1"
			],
			"objclass": "StarChallengeSunUsedProps",
			"objdata": {
				"MaximumSun": 1700
			}
		},
		{
			"aliases": [
				"SunUsed2"
			],
			"objclass": "StarChallengeSunUsedProps",
			"objdata": {
				"MaximumSun": 1500
			}
		},
		{
			"aliases": [
				"DefeatZombiesOfType2"
			],
			"objclass": "DefeatZombiesOfTypeChallengeProps",
			"objdata": {
				"Description": "[DEFEAT_X_GARGIMPS]",
				"TypesToKill": {
					"ListType": "includelist",
					"List": [
						"zcorp_imp"
					]
				},
				"NumZombiesToKill": 5
			}
		},
		{
			"aliases": [
				"DefeatZombiesOfType3"
			],
			"objclass": "DefeatZombiesOfTypeChallengeProps",
			"objdata": {
				"Description": "[DEFEAT_X_GARGIMPS]",
				"TypesToKill": {
					"ListType": "includelist",
					"List": [
						"zcorp_imp"
					]
				},
				"NumZombiesToKill": 10
			}
		},
		{
			"aliases": [
				"SeedBank"
			],
			"objclass": "SeedBankProperties",
			"objdata": {
				"PresetPlantList": [],
				"ExcludeListSunProducers": true,
				"PlantExcludeList": [
					"iceburg",
					"puffshroom",
					"melonpult",
					"toadstool",
					"goldleaf",
					"stallia",
					"spearmint",
					"peppermint",
					"appeasemint",
					"enforcemint",
					"concealmint",
					"filamint",
					"wintermint",
					"bombardmint",
					"armamint",
					"ailmint",
					"reinforcemint",
					"containmint",
					"enchantmint",
					"blover"
				],
				"SelectionMethod": "chooser"
			}
		},
		{
			"aliases": [
				"LevelDifficultyScaling"
			],
			"objclass": "LevelDifficultyScalingModuleProperties",
			"objdata": {
				"DifficultyRulesType": "RiftDifficulty",
				"ZombieLevelSwaps": [
					{
						"Level": 0,
						"Swaps": [
							{
								"From": "RTID(eighties_glitter@ZombieTypes)",
								"To": [
									"RTID(eighties_glitter@ZombieTypes)"
								]
							},
							{
								"From": "RTID(eighties@ZombieTypes)",
								"To": [
									"RTID(eighties@ZombieTypes)"
								]
							},
							{
								"From": "RTID(eighties_armor1@ZombieTypes)",
								"To": [
									"RTID(eighties@ZombieTypes)",
									"RTID(eighties_armor1@ZombieTypes)"
								]
							},
							{
								"From": "RTID(eighties_armor2@ZombieTypes)",
								"To": [
									"RTID(eighties_armor1@ZombieTypes)",
									"RTID(eighties_armor2@ZombieTypes)"
								]
							},
							{
								"From": "RTID(eighties_mc@ZombieTypes)",
								"To": [
									"RTID(eighties_mc@ZombieTypes)"
								]
							}
						]
					},
					{
						"Level": 4,
						"Swaps": [
							{
								"From": "RTID(eighties_glitter@ZombieTypes)",
								"To": [
									"RTID(eighties_glitter@ZombieTypes)",
									"RTID(eighties_glitter@ZombieTypes)",
									"RTID(eighties_glitter@ZombieTypes)",
									"RTID(eighties_glitter@ZombieTypes)",
									"RTID(eighties_glitter@ZombieTypes)",
									"RTID(eighties_glitter@ZombieTypes)",
									"RTID(eighties_glitter@ZombieTypes)",
									"RTID(eighties_glitter@ZombieTypes)",
									"RTID(eighties_glitter@ZombieTypes)",
									"RTID(zcorp_consultant@ZombieTypes)"
								]
							},
							{
								"From": "RTID(eighties@ZombieTypes)",
								"To": [
									"RTID(eighties@ZombieTypes)",
									"RTID(eighties_armor1@ZombieTypes)"
								]
							},
							{
								"From": "RTID(eighties_armor1@ZombieTypes)",
								"To": [
									"RTID(eighties@ZombieTypes)",
									"RTID(eighties_armor1@ZombieTypes)",
									"RTID(eighties_armor2@ZombieTypes)"
								]
							},
							{
								"From": "RTID(eighties_armor2@ZombieTypes)",
								"To": [
									"RTID(eighties_armor1@ZombieTypes)",
									"RTID(eighties_armor2@ZombieTypes)"
								]
							},
							{
								"From": "RTID(eighties_mc@ZombieTypes)",
								"To": [
									"RTID(eighties_mc@ZombieTypes)",
									"RTID(eighties_mc@ZombieTypes)",
									"RTID(eighties_mc@ZombieTypes)",
									"RTID(eighties_mc@ZombieTypes)",
									"RTID(eighties_mc@ZombieTypes)",
									"RTID(eighties_mc@ZombieTypes)",
									"RTID(eighties_mc@ZombieTypes)",
									"RTID(eighties_mc@ZombieTypes)",
									"RTID(eighties_mc@ZombieTypes)",
									"RTID(zcorp_helpdesk@ZombieTypes)"
								]
							}
						]
					},
					{
						"Level": 7,
						"Swaps": [
							{
								"From": "RTID(eighties_glitter@ZombieTypes)",
								"To": [
									"RTID(eighties_glitter@ZombieTypes)",
									"RTID(eighties_glitter@ZombieTypes)",
									"RTID(eighties_glitter@ZombieTypes)",
									"RTID(eighties_glitter@ZombieTypes)",
									"RTID(zcorp_consultant@ZombieTypes)"
								]
							},
							{
								"From": "RTID(eighties@ZombieTypes)",
								"To": [
									"RTID(eighties_armor1@ZombieTypes)"
								]
							},
							{
								"From": "RTID(eighties_armor1@ZombieTypes)",
								"To": [
									"RTID(eighties_armor2@ZombieTypes)"
								]
							},
							{
								"From": "RTID(eighties_armor2@ZombieTypes)",
								"To": [
									"RTID(eighties_armor2@ZombieTypes)",
									"RTID(eighties_armor2@ZombieTypes)",
									"RTID(eighties_armor2@ZombieTypes)",
									"RTID(eighties_armor2@ZombieTypes)",
									"RTID(eighties_armor2@ZombieTypes)",
									"RTID(eighties_armor2@ZombieTypes)",
									"RTID(eighties_armor2@ZombieTypes)",
									"RTID(eighties_armor2@ZombieTypes)",
									"RTID(eighties_armor2@ZombieTypes)",
									"RTID(eighties_armor2@ZombieTypes)",
									"RTID(eighties_armor2@ZombieTypes)",
									"RTID(zcorp_gargantuar@ZombieTypes)"
								]
							},
							{
								"From": "RTID(eighties_mc@ZombieTypes)",
								"To": [
									"RTID(eighties_mc@ZombieTypes)",
									"RTID(eighties_mc@ZombieTypes)",
									"RTID(eighties_mc@ZombieTypes)",
									"RTID(eighties_mc@ZombieTypes)",
									"RTID(eighties_mc@ZombieTypes)",
									"RTID(eighties_mc@ZombieTypes)",
									"RTID(zcorp_helpdesk@ZombieTypes)"
								]
							}
						]
					}
				]
			}
		},
		{
			"aliases": [
				"NewWaves"
			],
			"objclass": "WaveManagerModuleProperties",
			"objdata": {
				"ManualStartup": true,
				"DynamicZombies": [
					{},
					{},
					{},
					{
						"MaxPoints": 1000,
						"PointIncrementPerWave": 100,
						"StartingPoints": 0,
						"StartingWave": 0,
						"ZombiePool": [
							"RTID(zcorp_imp@ZombieTypes)"
						]
					},
					{},
					{},
					{}
				],
				"WaveManagerProps": "RTID(WaveManagerProps@CurrentLevel)"
			}
		},
		{
			"aliases": [
				"WaveManagerProps"
			],
			"objclass": "WaveManagerProperties",
			"objdata": {
				"FlagWaveInterval": 100,
				"WaveCount": 10,
				"WaveSpendingPointIncrement": 100,
				"WaveSpendingPoints": 100,
				"Waves": [
					[
						"RTID(Wave1@CurrentLevel)"
					],
					[
						"RTID(Wave2@CurrentLevel)"
					],
					[
						"RTID(Wave3@CurrentLevel)"
					],
					[
						"RTID(Wave4@CurrentLevel)"
					],
					[
						"RTID(Wave5@CurrentLevel)"
					],
					[
						"RTID(Wave6@CurrentLevel)"
					],
					[
						"RTID(Wave7@CurrentLevel)"
					],
					[
						"RTID(Wave8@CurrentLevel)"
					],
					[
						"RTID(Wave9@CurrentLevel)"
					],
					[
						"RTID(Wave10@CurrentLevel)"
					]
				]
			}
		},
		{
			"aliases": [
				"Wave1"
			],
			"objclass": "SpawnZombiesJitteredWaveActionProps",
			"objdata": {
				"NotificationEvents": [
					"jam_pop"
				],
				"Zombies": [
					{
						"Row": "1",
						"Type": "RTID(eighties_glitter@ZombieTypes)"
					},
					{
						"Row": "2",
						"Type": "RTID(eighties_glitter@ZombieTypes)"
					},
					{
						"Row": "3",
						"Type": "RTID(eighties_glitter@ZombieTypes)"
					},
					{
						"Row": "4",
						"Type": "RTID(eighties_glitter@ZombieTypes)"
					},
					{
						"Row": "5",
						"Type": "RTID(eighties_glitter@ZombieTypes)"
					},
					{
						"Row": "1",
						"Type": "RTID(eighties_armor2@ZombieTypes)"
					},
					{
						"Row": "2",
						"Type": "RTID(eighties_armor2@ZombieTypes)"
					},
					{
						"Row": "3",
						"Type": "RTID(eighties_armor2@ZombieTypes)"
					},
					{
						"Row": "4",
						"Type": "RTID(eighties_armor2@ZombieTypes)"
					},
					{
						"Row": "5",
						"Type": "RTID(eighties_armor2@ZombieTypes)"
					},
					{
						"Row": "1",
						"Type": "RTID(eighties_glitter@ZombieTypes)"
					},
					{
						"Row": "2",
						"Type": "RTID(eighties_glitter@ZombieTypes)"
					},
					{
						"Row": "3",
						"Type": "RTID(eighties_glitter@ZombieTypes)"
					},
					{
						"Row": "4",
						"Type": "RTID(eighties_glitter@ZombieTypes)"
					},
					{
						"Row": "5",
						"Type": "RTID(eighties_glitter@ZombieTypes)"
					},
					{
						"Row": "1",
						"Type": "RTID(eighties_armor1@ZombieTypes)"
					},
					{
						"Row": "2",
						"Type": "RTID(eighties_armor1@ZombieTypes)"
					},
					{
						"Row": "3",
						"Type": "RTID(eighties_armor1@ZombieTypes)"
					},
					{
						"Row": "4",
						"Type": "RTID(eighties_armor1@ZombieTypes)"
					},
					{
						"Row": "5",
						"Type": "RTID(eighties_armor1@ZombieTypes)"
					}
				]
			}
		},
		{
			"aliases": [
				"Wave2"
			],
			"objclass": "SpawnZombiesJitteredWaveActionProps",
			"objdata": {
				"Zombies": [
					{
						"Row": "1",
						"Type": "RTID(eighties_armor2@ZombieTypes)"
					},
					{
						"Row": "2",
						"Type": "RTID(eighties_armor2@ZombieTypes)"
					},
					{
						"Row": "3",
						"Type": "RTID(eighties_armor2@ZombieTypes)"
					},
					{
						"Row": "4",
						"Type": "RTID(eighties_armor2@ZombieTypes)"
					},
					{
						"Row": "5",
						"Type": "RTID(eighties_armor2@ZombieTypes)"
					},
					{
						"Row": "1",
						"Type": "RTID(eighties_glitter@ZombieTypes)"
					},
					{
						"Row": "2",
						"Type": "RTID(eighties_glitter@ZombieTypes)"
					},
					{
						"Row": "3",
						"Type": "RTID(eighties_glitter@ZombieTypes)"
					},
					{
						"Row": "4",
						"Type": "RTID(eighties_glitter@ZombieTypes)"
					},
					{
						"Row": "5",
						"Type": "RTID(eighties_glitter@ZombieTypes)"
					},
					{
						"Row": "1",
						"Type": "RTID(eighties_armor2@ZombieTypes)"
					},
					{
						"Row": "2",
						"Type": "RTID(eighties_armor2@ZombieTypes)"
					},
					{
						"Row": "3",
						"Type": "RTID(eighties_armor2@ZombieTypes)"
					},
					{
						"Row": "4",
						"Type": "RTID(eighties_armor2@ZombieTypes)"
					},
					{
						"Row": "5",
						"Type": "RTID(eighties_armor2@ZombieTypes)"
					}
				]
			}
		},
		{
			"aliases": [
				"Wave3"
			],
			"objclass": "SpawnZombiesJitteredWaveActionProps",
			"objdata": {
				"Zombies": [
					{
						"Row": "1",
						"Type": "RTID(eighties_glitter@ZombieTypes)"
					},
					{
						"Row": "2",
						"Type": "RTID(eighties_glitter@ZombieTypes)"
					},
					{
						"Row": "3",
						"Type": "RTID(eighties_glitter@ZombieTypes)"
					},
					{
						"Row": "4",
						"Type": "RTID(eighties_glitter@ZombieTypes)"
					},
					{
						"Row": "5",
						"Type": "RTID(eighties_glitter@ZombieTypes)"
					},
					{
						"Row": "5",
						"Type": "RTID(eighties_armor2@ZombieTypes)"
					},
					{
						"Row": "5",
						"Type": "RTID(eighties_punk@ZombieTypes)"
					},
					{
						"Row": "4",
						"Type": "RTID(eighties_armor2@ZombieTypes)"
					},
					{
						"Row": "4",
						"Type": "RTID(eighties_punk@ZombieTypes)"
					},
					{
						"Row": "3",
						"Type": "RTID(eighties_armor2@ZombieTypes)"
					},
					{
						"Row": "3",
						"Type": "RTID(eighties_punk@ZombieTypes)"
					},
					{
						"Row": "2",
						"Type": "RTID(eighties_armor2@ZombieTypes)"
					},
					{
						"Row": "2",
						"Type": "RTID(eighties_punk@ZombieTypes)"
					},
					{
						"Row": "1",
						"Type": "RTID(eighties_armor2@ZombieTypes)"
					},
					{
						"Row": "1",
						"Type": "RTID(eighties_punk@ZombieTypes)"
					}
				]
			}
		},
		{
			"aliases": [
				"Wave4"
			],
			"objclass": "SpawnZombiesJitteredWaveActionProps",
			"objdata": {
				"NotificationEvents": [
					"jam_punk"
				],
				"Zombies": [
					{
						"Row": "1",
						"Type": "RTID(eighties_armor2@ZombieTypes)"
					},
					{
						"Row": "2",
						"Type": "RTID(eighties_armor2@ZombieTypes)"
					},
					{
						"Row": "3",
						"Type": "RTID(eighties_armor2@ZombieTypes)"
					},
					{
						"Row": "4",
						"Type": "RTID(eighties_armor2@ZombieTypes)"
					},
					{
						"Row": "5",
						"Type": "RTID(eighties_armor2@ZombieTypes)"
					},
					{
						"Row": "1",
						"Type": "RTID(eighties_punk@ZombieTypes)"
					},
					{
						"Row": "2",
						"Type": "RTID(eighties_punk@ZombieTypes)"
					},
					{
						"Row": "3",
						"Type": "RTID(eighties_punk@ZombieTypes)"
					},
					{
						"Row": "4",
						"Type": "RTID(eighties_punk@ZombieTypes)"
					},
					{
						"Row": "5",
						"Type": "RTID(eighties_punk@ZombieTypes)"
					},
					{
						"Row": "1",
						"Type": "RTID(eighties_armor2@ZombieTypes)"
					},
					{
						"Row": "1",
						"Type": "RTID(eighties_punk@ZombieTypes)"
					},
					{
						"Row": "5",
						"Type": "RTID(eighties_armor2@ZombieTypes)"
					},
					{
						"Row": "5",
						"Type": "RTID(eighties_punk@ZombieTypes)"
					}
				]
			}
		},
		{
			"aliases": [
				"Wave5"
			],
			"objclass": "SpawnZombiesJitteredWaveActionProps",
			"objdata": {
				"Zombies": [
					{
						"Row": "1",
						"Type": "RTID(eighties_armor2@ZombieTypes)"
					},
					{
						"Row": "1",
						"Type": "RTID(eighties_armor2@ZombieTypes)"
					},
					{
						"Row": "5",
						"Type": "RTID(eighties_armor2@ZombieTypes)"
					},
					{
						"Row": "5",
						"Type": "RTID(eighties_armor2@ZombieTypes)"
					},
					{
						"Row": "1",
						"Type": "RTID(eighties_punk@ZombieTypes)"
					},
					{
						"Row": "1",
						"Type": "RTID(eighties_punk@ZombieTypes)"
					},
					{
						"Row": "1",
						"Type": "RTID(eighties_glitter@ZombieTypes)"
					},
					{
						"Row": "1",
						"Type": "RTID(eighties_punk@ZombieTypes)"
					},
					{
						"Row": "5",
						"Type": "RTID(eighties_punk@ZombieTypes)"
					},
					{
						"Row": "5",
						"Type": "RTID(eighties_punk@ZombieTypes)"
					},
					{
						"Row": "5",
						"Type": "RTID(eighties_glitter@ZombieTypes)"
					},
					{
						"Row": "5",
						"Type": "RTID(eighties_punk@ZombieTypes)"
					}
				]
			}
		},
		{
			"aliases": [
				"Wave6"
			],
			"objclass": "SpawnZombiesJitteredWaveActionProps",
			"objdata": {
				"NotificationEvents": [
					"jam_pop"
				],
				"Zombies": [
					{
						"Row": "1",
						"Type": "RTID(eighties_armor2@ZombieTypes)"
					},
					{
						"Row": "2",
						"Type": "RTID(eighties_armor2@ZombieTypes)"
					},
					{
						"Row": "3",
						"Type": "RTID(eighties_armor2@ZombieTypes)"
					},
					{
						"Row": "4",
						"Type": "RTID(eighties_armor2@ZombieTypes)"
					},
					{
						"Row": "5",
						"Type": "RTID(eighties_armor2@ZombieTypes)"
					},
					{
						"Row": "1",
						"Type": "RTID(eighties_glitter@ZombieTypes)"
					},
					{
						"Row": "2",
						"Type": "RTID(eighties_glitter@ZombieTypes)"
					},
					{
						"Row": "3",
						"Type": "RTID(eighties_glitter@ZombieTypes)"
					},
					{
						"Row": "4",
						"Type": "RTID(eighties_glitter@ZombieTypes)"
					},
					{
						"Row": "5",
						"Type": "RTID(eighties_glitter@ZombieTypes)"
					},
					{
						"Row": "1",
						"Type": "RTID(eighties_armor2@ZombieTypes)"
					},
					{
						"Row": "2",
						"Type": "RTID(eighties_armor2@ZombieTypes)"
					},
					{
						"Row": "3",
						"Type": "RTID(eighties_armor2@ZombieTypes)"
					},
					{
						"Row": "4",
						"Type": "RTID(eighties_armor2@ZombieTypes)"
					},
					{
						"Row": "5",
						"Type": "RTID(eighties_armor2@ZombieTypes)"
					}
				]
			}
		},
		{
			"aliases": [
				"Wave7"
			],
			"objclass": "SpawnZombiesJitteredWaveActionProps",
			"objdata": {
				"NotificationEvents": [
					"jam_rap"
				],
				"Zombies": [
					{
						"Row": "1",
						"Type": "RTID(eighties_armor2@ZombieTypes)"
					},
					{
						"Row": "2",
						"Type": "RTID(eighties_armor2@ZombieTypes)"
					},
					{
						"Row": "3",
						"Type": "RTID(eighties_armor2@ZombieTypes)"
					},
					{
						"Row": "4",
						"Type": "RTID(eighties_armor2@ZombieTypes)"
					},
					{
						"Row": "5",
						"Type": "RTID(eighties_armor2@ZombieTypes)"
					},
					{
						"Row": "1",
						"Type": "RTID(eighties_glitter@ZombieTypes)"
					},
					{
						"Row": "2",
						"Type": "RTID(eighties_glitter@ZombieTypes)"
					},
					{
						"Row": "3",
						"Type": "RTID(eighties_glitter@ZombieTypes)"
					},
					{
						"Row": "4",
						"Type": "RTID(eighties_glitter@ZombieTypes)"
					},
					{
						"Row": "5",
						"Type": "RTID(eighties_glitter@ZombieTypes)"
					},
					{
						"Row": "1",
						"Type": "RTID(eighties_mc@ZombieTypes)"
					},
					{
						"Row": "2",
						"Type": "RTID(eighties_mc@ZombieTypes)"
					},
					{
						"Row": "3",
						"Type": "RTID(eighties_mc@ZombieTypes)"
					},
					{
						"Row": "4",
						"Type": "RTID(eighties_mc@ZombieTypes)"
					},
					{
						"Row": "5",
						"Type": "RTID(eighties_mc@ZombieTypes)"
					},
					{
						"Row": "1",
						"Type": "RTID(eighties_mc@ZombieTypes)"
					},
					{
						"Row": "2",
						"Type": "RTID(eighties_mc@ZombieTypes)"
					},
					{
						"Row": "3",
						"Type": "RTID(eighties_mc@ZombieTypes)"
					},
					{
						"Row": "4",
						"Type": "RTID(eighties_mc@ZombieTypes)"
					},
					{
						"Row": "5",
						"Type": "RTID(eighties_mc@ZombieTypes)"
					}
				]
			}
		},
		{
			"aliases": [
				"Wave8"
			],
			"objclass": "SpawnZombiesJitteredWaveActionProps",
			"objdata": {
				"AdditionalPlantfood": 1,
				"Zombies": [
					{
						"Row": "1",
						"Type": "RTID(eighties_armor2@ZombieTypes)"
					},
					{
						"Row": "1",
						"Type": "RTID(eighties_mc@ZombieTypes)"
					},
					{
						"Row": "1",
						"Type": "RTID(eighties_mc@ZombieTypes)"
					},
					{
						"Row": "1",
						"Type": "RTID(eighties_glitter@ZombieTypes)"
					},
					{
						"Row": "1",
						"Type": "RTID(eighties_mc@ZombieTypes)"
					},
					{
						"Row": "1",
						"Type": "RTID(eighties_mc@ZombieTypes)"
					},
					{
						"Row": "5",
						"Type": "RTID(eighties_armor2@ZombieTypes)"
					},
					{
						"Row": "5",
						"Type": "RTID(eighties_mc@ZombieTypes)"
					},
					{
						"Row": "5",
						"Type": "RTID(eighties_mc@ZombieTypes)"
					},
					{
						"Row": "5",
						"Type": "RTID(eighties_glitter@ZombieTypes)"
					},
					{
						"Row": "5",
						"Type": "RTID(eighties_mc@ZombieTypes)"
					},
					{
						"Row": "5",
						"Type": "RTID(eighties_mc@ZombieTypes)"
					},
					{
						"Row": "3",
						"Type": "RTID(eighties_armor2@ZombieTypes)"
					},
					{
						"Row": "3",
						"Type": "RTID(eighties_mc@ZombieTypes)"
					},
					{
						"Row": "3",
						"Type": "RTID(eighties_mc@ZombieTypes)"
					},
					{
						"Row": "3",
						"Type": "RTID(eighties_glitter@ZombieTypes)"
					},
					{
						"Row": "3",
						"Type": "RTID(eighties_mc@ZombieTypes)"
					},
					{
						"Row": "3",
						"Type": "RTID(eighties_mc@ZombieTypes)"
					}
				]
			}
		},
		{
			"aliases": [
				"Wave9"
			],
			"objclass": "SpawnZombiesJitteredWaveActionProps",
			"objdata": {
				"NotificationEvents": [
					"jam_pop"
				],
				"Zombies": [
					{
						"Row": "5",
						"Type": "RTID(eighties_armor2@ZombieTypes)"
					},
					{
						"Row": "5",
						"Type": "RTID(eighties_glitter@ZombieTypes)"
					},
					{
						"Row": "5",
						"Type": "RTID(eighties_mc@ZombieTypes)"
					},
					{
						"Row": "4",
						"Type": "RTID(eighties_armor2@ZombieTypes)"
					},
					{
						"Row": "4",
						"Type": "RTID(eighties_glitter@ZombieTypes)"
					},
					{
						"Row": "3",
						"Type": "RTID(eighties_armor2@ZombieTypes)"
					},
					{
						"Row": "3",
						"Type": "RTID(eighties_glitter@ZombieTypes)"
					},
					{
						"Row": "3",
						"Type": "RTID(eighties_mc@ZombieTypes)"
					},
					{
						"Row": "2",
						"Type": "RTID(eighties_armor2@ZombieTypes)"
					},
					{
						"Row": "2",
						"Type": "RTID(eighties_glitter@ZombieTypes)"
					},
					{
						"Row": "2",
						"Type": "RTID(eighties_mc@ZombieTypes)"
					},
					{
						"Row": "1",
						"Type": "RTID(eighties_armor2@ZombieTypes)"
					},
					{
						"Row": "1",
						"Type": "RTID(eighties_glitter@ZombieTypes)"
					},
					{
						"Row": "1",
						"Type": "RTID(eighties_mc@ZombieTypes)"
					}
				]
			}
		},
		{
			"aliases": [
				"Wave10"
			],
			"objclass": "SpawnZombiesJitteredWaveActionProps",
			"objdata": {
				"NotificationEvents": [
					"jam_rap"
				],
				"Zombies": [
					{
						"Row": "5",
						"Type": "RTID(eighties_armor2@ZombieTypes)"
					},
					{
						"Row": "4",
						"Type": "RTID(eighties_armor2@ZombieTypes)"
					},
					{
						"Row": "3",
						"Type": "RTID(eighties_armor2@ZombieTypes)"
					},
					{
						"Row": "2",
						"Type": "RTID(eighties_armor2@ZombieTypes)"
					},
					{
						"Row": "1",
						"Type": "RTID(eighties_armor2@ZombieTypes)"
					},
					{
						"Row": "4",
						"Type": "RTID(eighties_armor2@ZombieTypes)"
					},
					{
						"Row": "5",
						"Type": "RTID(eighties_armor2@ZombieTypes)"
					},
					{
						"Row": "2",
						"Type": "RTID(eighties_armor2@ZombieTypes)"
					},
					{
						"Row": "3",
						"Type": "RTID(eighties_armor2@ZombieTypes)"
					},
					{
						"Row": "1",
						"Type": "RTID(eighties_armor2@ZombieTypes)"
					},
					{
						"Row": "5",
						"Type": "RTID(eighties_mc@ZombieTypes)"
					},
					{
						"Row": "5",
						"Type": "RTID(eighties_mc@ZombieTypes)"
					},
					{
						"Row": "5",
						"Type": "RTID(eighties_mc@ZombieTypes)"
					},
					{
						"Row": "1",
						"Type": "RTID(eighties_mc@ZombieTypes)"
					},
					{
						"Row": "1",
						"Type": "RTID(eighties_mc@ZombieTypes)"
					},
					{
						"Row": "1",
						"Type": "RTID(eighties_mc@ZombieTypes)"
					},
					{
						"Row": "3",
						"Type": "RTID(eighties_mc@ZombieTypes)"
					},
					{
						"Row": "3",
						"Type": "RTID(eighties_mc@ZombieTypes)"
					},
					{
						"Row": "3",
						"Type": "RTID(eighties_mc@ZombieTypes)"
					}
				]
			}
		}
	],
	"version": 1
}