{
	"#comment": "rift template",
	"objects": [
		{
			"objclass": "LevelDefinition",
			"objdata": {
				"Description": "[PLAYERS_TRIP_TO_RIFT]",
				"LevelNumber": "",
				"DisablePlantBoosts": false,
				"Loot": "",
				"Modules": [
					"RTID(DefaultSunDropper@LevelModules)",
					"RTID(StandardRiftIntro@LevelModules)",
					"RTID(ZombiesDeadWinCon@LevelModules)",
					"RTID(IceageMowers@LevelModules)",
					"RTID(SeedBank@CurrentLevel)",
					"RTID(DefaultZombieWinCondition@LevelModules)",
					"RTID(NewWaves@CurrentLevel)",
					"RTID(PerkActivator@CurrentLevel)",
					"RTID(WaveDuplicator@CurrentLevel)",
					"RTID(LevelDifficultyScaling@CurrentLevel)"
				],
				"MusicType": "MiniGame_A",
				"Name": "[RIFT_LEVEL_NAME]",
				"NormalPresentTable": "egypt_normal_01",
				"ShinyPresentTable": "egypt_shiny_01",
				"VictoryModule": "RTID(RiftOutro@LevelModules)",
				"StageModule": "RTID(IceageStage@LevelModules)",
				"LevelMutator": "RTID(LevelMutator@CurrentLevel)",
				"PerksDisabledInLevel": [
					"quickdelivery",
					"zombieinhibitorgargantuar",
					"utilitybelt_cherrybomb",
					"utilitybelt_hypnoshroom",
					"utilitybelt_icebloom",
					"utilitybelt_puffball",
					"utilitybelt_imppear",
					"utilitybelt_hurrikale"
				],
				"PerksDisabledPerDifficulty": [
					[],
					[],
					[]
				],
				"StartingSun": 175
			}
		},
		{
			"aliases": [
				"WaveDuplicator"
			],
			"objclass": "WaveDuplicatorModuleProperties",
			"objdata": {
				"PeriodOfWavesToLoop": 12,
				"WaveSetsToAppend": 20
			}
		},
		{
			"aliases": [
				"PerkActivator"
			],
			"objclass": "PerkHandlerModuleProperties",
			"objdata": {}
		},
		{
			"aliases": [
				"LevelMutator"
			],
			"objclass": "LevelMutatorModuleProperties",
			"objdata": {
				"MutatorTables": [
					"RTID(MutatorPropsRiftNormal@LevelMutatorTables)",
					"RTID(LocalChallengeMutator@CurrentLevel)",
					"RTID(LocalMainChallengeMutator@CurrentLevel)"
				]
			}
		},
		{
			"aliases": [
				"LocalMainChallengeMutator"
			],
			"objclass": "LevelMutatorTableProps",
			"objdata": {
				"Tables": [
					{
						"Level": 0,
						"Modules": [
							"RTID(LevelTimer1@CurrentLevel)"
						],
						"ModuleType": "mainchallenge"
					},
					{
						"Level": 1,
						"Modules": [
							"RTID(LevelTimer2@CurrentLevel)"
						],
						"ModuleType": "mainchallenge"
					},
					{
						"Level": 2,
						"Modules": [
							"RTID(LevelTimer3@CurrentLevel)"
						],
						"ModuleType": "mainchallenge"
					}
				]
			}
		},
		{
			"aliases": [
				"LevelTimer1"
			],
			"objclass": "StarChallengeLevelTimerProperties",
			"objdata": {
				"TimeLimit": 120
			}
		},
		{
			"aliases": [
				"LevelTimer2"
			],
			"objclass": "StarChallengeLevelTimerProperties",
			"objdata": {
				"TimeLimit": 120
			}
		},
		{
			"aliases": [
				"LevelTimer3"
			],
			"objclass": "StarChallengeLevelTimerProperties",
			"objdata": {
				"TimeLimit": 120
			}
		},
		{
			"aliases": [
				"LocalChallengeMutator"
			],
			"objclass": "LevelMutatorTableProps",
			"objdata": {
				"Tables": [
					{
						"Level": 0,
						"ModuleType": "bonuschallenge",
						"Modules": [
							"RTID(ProtectThePlant@CurrentLevel)"
						]
					},
					{
						"Level": 1,
						"ModuleType": "bonuschallenge",
						"Modules": [
							"RTID(DestroyGridItems2@CurrentLevel)",
							"RTID(ProtectThePlant@CurrentLevel)"
						]
					},
					{
						"Level": 2,
						"ModuleType": "bonuschallenge",
						"Modules": [
							"RTID(DestroyGridItems3@CurrentLevel)",
							"RTID(ProtectThePlant@CurrentLevel)"
						]
					}
				]
			}
		},
		{
			"aliases": [
				"DestroyGridItems2"
			],
			"objclass": "DestroyGridItemsChallengeProps",
			"objdata": {
				"GridItemType": "zombietarget_iceblock",
				"GridItemsToDestroy": 50,
				"ChallengeDescription": "[CHALLENGE_DESTROY_ICEBLOCKS]"
			}
		},
		{
			"aliases": [
				"DestroyGridItems3"
			],
			"objclass": "DestroyGridItemsChallengeProps",
			"objdata": {
				"GridItemType": "zombietarget_iceblock",
				"GridItemsToDestroy": 60,
				"ChallengeDescription": "[CHALLENGE_DESTROY_ICEBLOCKS]"
			}
		},
		{
			"aliases": [
				"ProtectThePlant"
			],
			"objclass": "ProtectThePlantChallengeProperties",
			"objdata": {
				"MustProtectCount": 2,
				"Plants": [
					{
						"GridX": 3,
						"GridY": 1,
						"PlantType": "hotdate"
					},
					{
						"GridX": 3,
						"GridY": 3,
						"PlantType": "hotdate"
					}
				]
			}
		},
		{
			"aliases": [
				"SeedBank"
			],
			"objclass": "SeedBankProperties",
			"objdata": {
				"PlantExcludeList": [
					"blover"
				],
				"SelectionMethod": "chooser"
			}
		},
		{
			"aliases": [
				"LevelDifficultyScaling"
			],
			"objclass": "LevelDifficultyScalingModuleProperties",
			"objdata": {
				"DifficultyRulesType": "RiftDifficulty",
				"ZombieLevelSwaps": [
					{
						"Level": 0,
						"Swaps": [
							{
								"From": "RTID(iceage_imp@ZombieTypes)",
								"To": [
									"RTID(iceage_imp@ZombieTypes)",
									"RTID(iceage_imp@ZombieTypes)",
									"RTID(iceage_imp@ZombieTypes)",
									"RTID(iceage_troglobite_1block@ZombieTypes)"
								]
							}
						]
					},
					{
						"Level": 4,
						"Swaps": [
							{
								"From": "RTID(iceage_imp@ZombieTypes)",
								"To": [
									"RTID(iceage_imp@ZombieTypes)",
									"RTID(iceage_imp@ZombieTypes)",
									"RTID(iceage_troglobite_2block@ZombieTypes)"
								]
							}
						]
					},
					{
						"Level": 7,
						"Swaps": [
							{
								"From": "RTID(iceage_imp@ZombieTypes)",
								"To": [
									"RTID(iceage_imp@ZombieTypes)",
									"RTID(iceage_armor3@ZombieTypes)",
									"RTID(iceage_troglobite@ZombieTypes)",
									"RTID(iceage_troglobite@ZombieTypes)"
								]
							}
						]
					}
				]
			}
		},
		{
			"aliases": [
				"NewWaves"
			],
			"objclass": "WaveManagerModuleProperties",
			"objdata": {
				"DynamicZombies": [
					{},
					{},
					{},
					{
						"MaxPoints": 2000,
						"PointIncrementPerWave": 175,
						"StartingPoints": 500,
						"StartingWave": 0,
						"ZombiePool": [
							"RTID(iceage_imp@ZombieTypes)"
						]
					},
					{},
					{},
					{}
				],
				"WaveManagerProps": "RTID(WaveManagerProps@CurrentLevel)"
			}
		},
		{
			"aliases": [
				"WaveManagerProps"
			],
			"objclass": "WaveManagerProperties",
			"objdata": {
				"FlagWaveInterval": 12,
				"WaveCount": 12,
				"WaveSpendingPointIncrement": 100,
				"WaveSpendingPoints": 150,
				"Waves": [
					[
						"RTID(Wave1@CurrentLevel)"
					],
					[
						"RTID(Wave2@CurrentLevel)"
					],
					[
						"RTID(Wave3@CurrentLevel)"
					],
					[
						"RTID(Wave4@CurrentLevel)"
					],
					[
						"RTID(Wave5@CurrentLevel)",
						"RTID(Wave5GravestoneEvent1@CurrentLevel)",
						"RTID(Wave5GravestoneEvent0@CurrentLevel)"
					],
					[
						"RTID(Wave6@CurrentLevel)"
					],
					[
						"RTID(Wave7@CurrentLevel)"
					],
					[
						"RTID(Wave8@CurrentLevel)"
					],
					[
						"RTID(Wave9@CurrentLevel)"
					],
					[
						"RTID(Wave10@CurrentLevel)"
					],
					[
						"RTID(Wave11@CurrentLevel)"
					],
					[
						"RTID(Wave12@CurrentLevel)"
					]
				]
			}
		},
		{
			"aliases": [
				"Wave1"
			],
			"objclass": "SpawnZombiesJitteredWaveActionProps",
			"objdata": {
				"ForcedCondition": {
					"Condition": "speedup4",
					"Duration": 20
				},
				"Zombies": [
					{
						"Row": "3",
						"Type": "RTID(iceage_troglobite_1block@ZombieTypes)"
					}
				]
			}
		},
		{
			"aliases": [
				"Wave2"
			],
			"objclass": "SpawnZombiesJitteredWaveActionProps",
			"objdata": {
				"ForcedCondition": {
					"Condition": "speedup4",
					"Duration": 20
				},
				"Zombies": [
					{
						"Row": "2",
						"Type": "RTID(iceage_troglobite_1block@ZombieTypes)"
					},
					{
						"Row": "4",
						"Type": "RTID(iceage_troglobite_1block@ZombieTypes)"
					}
				]
			}
		},
		{
			"aliases": [
				"Wave3"
			],
			"objclass": "SpawnZombiesJitteredWaveActionProps",
			"objdata": {
				"ForcedCondition": {
					"Condition": "speedup4",
					"Duration": 20
				},
				"Zombies": [
					{
						"Row": "1",
						"Type": "RTID(iceage_troglobite_1block@ZombieTypes)"
					},
					{
						"Row": "3",
						"Type": "RTID(iceage_imp@ZombieTypes)"
					},
					{
						"Row": "3",
						"Type": "RTID(iceage_imp@ZombieTypes)"
					},
					{
						"Row": "5",
						"Type": "RTID(iceage_troglobite_1block@ZombieTypes)"
					}
				]
			}
		},
		{
			"aliases": [
				"Wave4"
			],
			"objclass": "SpawnZombiesJitteredWaveActionProps",
			"objdata": {
				"ForcedCondition": {
					"Condition": "speedup4",
					"Duration": 20
				},
				"Zombies": [
					{
						"Row": "2",
						"Type": "RTID(iceage_troglobite_1block@ZombieTypes)"
					},
					{
						"Row": "4",
						"Type": "RTID(iceage_troglobite_1block@ZombieTypes)"
					}
				]
			}
		},
		{
			"aliases": [
				"Wave5"
			],
			"objclass": "SpawnZombiesJitteredWaveActionProps",
			"objdata": {
				"ForcedCondition": {
					"Condition": "speedup4",
					"Duration": 20
				},
				"Zombies": [
					{
						"Row": "1",
						"Type": "RTID(iceage_hunter@ZombieTypes)"
					},
					{
						"Row": "3",
						"Type": "RTID(iceage_troglobite_1block@ZombieTypes)"
					},
					{
						"Row": "5",
						"Type": "RTID(iceage_hunter@ZombieTypes)"
					}
				]
			}
		},
		{
			"aliases": [
				"Wave6"
			],
			"objclass": "SpawnZombiesJitteredWaveActionProps",
			"objdata": {
				"ForcedCondition": {
					"Condition": "speedup4",
					"Duration": 20
				},
				"Zombies": [
					{
						"Row": "2",
						"Type": "RTID(iceage_troglobite_1block@ZombieTypes)"
					},
					{
						"Row": "4",
						"Type": "RTID(iceage_troglobite_1block@ZombieTypes)"
					}
				]
			}
		},
		{
			"aliases": [
				"Wave7"
			],
			"objclass": "SpawnZombiesJitteredWaveActionProps",
			"objdata": {
				"ForcedCondition": {
					"Condition": "speedup4",
					"Duration": 20
				},
				"Zombies": [
					{
						"Row": "1",
						"Type": "RTID(iceage_troglobite_1block@ZombieTypes)"
					},
					{
						"Row": "3",
						"Type": "RTID(iceage_imp@ZombieTypes)"
					},
					{
						"Row": "3",
						"Type": "RTID(iceage_imp@ZombieTypes)"
					},
					{
						"Row": "5",
						"Type": "RTID(iceage_troglobite_1block@ZombieTypes)"
					}
				]
			}
		},
		{
			"aliases": [
				"Wave8"
			],
			"objclass": "SpawnZombiesJitteredWaveActionProps",
			"objdata": {
				"ForcedCondition": {
					"Condition": "speedup4",
					"Duration": 20
				},
				"Zombies": [
					{
						"Row": "2",
						"Type": "RTID(iceage_troglobite_1block@ZombieTypes)"
					},
					{
						"Row": "4",
						"Type": "RTID(iceage_troglobite_1block@ZombieTypes)"
					}
				]
			}
		},
		{
			"aliases": [
				"Wave9"
			],
			"objclass": "SpawnZombiesJitteredWaveActionProps",
			"objdata": {
				"ForcedCondition": {
					"Condition": "speedup4",
					"Duration": 20
				},
				"Zombies": [
					{
						"Row": "1",
						"Type": "RTID(iceage_hunter@ZombieTypes)"
					},
					{
						"Row": "3",
						"Type": "RTID(iceage_troglobite_1block@ZombieTypes)"
					},
					{
						"Row": "5",
						"Type": "RTID(iceage_hunter@ZombieTypes)"
					}
				]
			}
		},
		{
			"aliases": [
				"Wave10"
			],
			"objclass": "SpawnZombiesJitteredWaveActionProps",
			"objdata": {
				"ForcedCondition": {
					"Condition": "speedup4",
					"Duration": 20
				},
				"Zombies": [
					{
						"Row": "2",
						"Type": "RTID(iceage_troglobite_1block@ZombieTypes)"
					},
					{
						"Row": "4",
						"Type": "RTID(iceage_troglobite_1block@ZombieTypes)"
					}
				]
			}
		},
		{
			"aliases": [
				"Wave11"
			],
			"objclass": "SpawnZombiesJitteredWaveActionProps",
			"objdata": {
				"ForcedCondition": {
					"Condition": "speedup4",
					"Duration": 20
				},
				"Zombies": [
					{
						"Row": "1",
						"Type": "RTID(iceage_troglobite_1block@ZombieTypes)"
					},
					{
						"Row": "5",
						"Type": "RTID(iceage_troglobite_1block@ZombieTypes)"
					}
				]
			}
		},
		{
			"aliases": [
				"Wave12"
			],
			"objclass": "SpawnZombiesJitteredWaveActionProps",
			"objdata": {
				"ForcedCondition": {
					"Condition": "speedup4",
					"Duration": 20
				},
				"Zombies": [
					{
						"Row": "1",
						"Type": "RTID(iceage_troglobite_1block@ZombieTypes)"
					},
					{
						"Row": "2",
						"Type": "RTID(iceage_troglobite_1block@ZombieTypes)"
					},
					{
						"Row": "3",
						"Type": "RTID(iceage_troglobite_1block@ZombieTypes)"
					},
					{
						"Row": "4",
						"Type": "RTID(iceage_troglobite_1block@ZombieTypes)"
					},
					{
						"Row": "5",
						"Type": "RTID(iceage_troglobite_1block@ZombieTypes)"
					}
				]
			}
		},
		{
			"aliases": [
				"Wave5GravestoneEvent0"
			],
			"objclass": "SpawnGravestonesWaveActionProps",
			"objdata": {
				"GravestonePool": [
					{
						"Count": 1,
						"Type": "RTID(slider_down@GridItemTypes)"
					}
				],
				"SpawnPositionsPool": [
					{
						"mX": 6,
						"mY": 0
					}
				],
				"SpawnEffectAnimID": "POPANIM_EFFECTS_TOMBSTONE_DARK_SPAWN_EFFECT",
				"SpawnSoundID": "Play_Zomb_Egypt_TombRaiser_Grave_Rise",
				"DisplacePlants": true,
				"RandomPlacement": false
			}
		},
		{
			"aliases": [
				"Wave5GravestoneEvent1"
			],
			"objclass": "SpawnGravestonesWaveActionProps",
			"objdata": {
				"GravestonePool": [
					{
						"Count": 1,
						"Type": "RTID(slider_up@GridItemTypes)"
					}
				],
				"SpawnPositionsPool": [
					{
						"mX": 6,
						"mY": 4
					}
				],
				"SpawnEffectAnimID": "POPANIM_EFFECTS_TOMBSTONE_DARK_SPAWN_EFFECT",
				"SpawnSoundID": "Play_Zomb_Egypt_TombRaiser_Grave_Rise",
				"DisplacePlants": true,
				"RandomPlacement": false
			}
		}
	],
	"version": 1
}