{
	"#comment": "Level Of The Day",
	"objects": [
		{
			"objclass": "LevelDefinition",
			"objdata": {
				"Description": "[PLAYERS_TRIP_TO_RIFT]",
				"LevelMutator": "RTID(LevelMutator@CurrentLevel)",
				"Loot": "RTID(DefaultLoot@LevelModules)",
				"Modules": [
					"RTID(FrontLawnMowers@LevelModules)",
					"RTID(NewWaves@CurrentLevel)",
					"RTID(DefaultZombieWinCondition@LevelModules)",
					"RTID(Gravestones@CurrentLevel)",
					"RTID(SeedBank@CurrentLevel)",
					"RTID(ZombiesDeadWinCon@LevelModules)",
					"RTID(StandardRiftIntro@LevelModules)",
					"RTID(PerkActivator@CurrentLevel)",
					"RTID(LevelDifficultyScaling@CurrentLevel)"
				],
				"Name": "[RIFT_LEVEL_NAME]",
				"PerksDisabledInLevel": [
					"quickdelivery",
					"utilitybelt_cherrybomb",
					"utilitybelt_hypnoshroom"
				],
				"PerksDisabledPerDifficulty": [
					[],
					[],
					[]
				],
				"StageModule": "RTID(RiftStage@LevelModules)",
				"VictoryModule": "RTID(RiftOutro@LevelModules)"
			}
		},
		{
			"aliases": [
				"SeedBank"
			],
			"objclass": "SeedBankProperties",
			"objdata": {
				"PlantExcludeList": [],
				"SelectionMethod": "chooser"
			}
		},
		{
			"aliases": [
				"WaveManagerProps"
			],
			"objclass": "WaveManagerProperties",
			"objdata": {
				"FlagWaveInterval": 3,
				"MaxNextWaveHealthPercentage": 0.9,
				"MinNextWaveHealthPercentage": 0.8,
				"WaveCount": 9,
				"WaveSpendingPointIncrement": 350,
				"WaveSpendingPoints": 400,
				"Waves": [
					[
						"RTID(Wave1@CurrentLevel)"
					],
					[
						"RTID(Wave2@CurrentLevel)"
					],
					[
						"RTID(Wave3@CurrentLevel)"
					],
					[
						"RTID(Wave4@CurrentLevel)",
						"RTID(Wave4ParachuteRainEvent0@CurrentLevel)"
					],
					[
						"RTID(Wave5@CurrentLevel)"
					],
					[
						"RTID(Wave6@CurrentLevel)"
					],
					[
						"RTID(Wave7@CurrentLevel)",
						"RTID(Wave7ParachuteRainEvent0@CurrentLevel)"
					],
					[
						"RTID(Wave8@CurrentLevel)"
					],
					[
						"RTID(Wave9@CurrentLevel)"
					]
				]
			}
		},
		{
			"aliases": [
				"Wave1"
			],
			"objclass": "SpawnZombiesJitteredWaveActionProps",
			"objdata": {
				"AdditionalPlantfood": 0,
				"Zombies": [
					{
						"Type": "RTID(chicken_farmer@ZombieTypes)"
					}
				]
			}
		},
		{
			"aliases": [
				"Wave2"
			],
			"objclass": "SpawnZombiesJitteredWaveActionProps",
			"objdata": {
				"AdditionalPlantfood": 1,
				"Zombies": [
					{
						"Type": "RTID(chicken_farmer@ZombieTypes)"
					}
				]
			}
		},
		{
			"aliases": [
				"Wave3"
			],
			"objclass": "SpawnZombiesJitteredWaveActionProps",
			"objdata": {
				"Zombies": [
					{
						"Row": "2",
						"Type": "RTID(chicken_farmer@ZombieTypes)"
					},
					{
						"Type": "RTID(barrelroller@ZombieTypes)"
					},
					{
						"Row": "4",
						"Type": "RTID(chicken_farmer@ZombieTypes)"
					}
				]
			}
		},
		{
			"aliases": [
				"Wave4"
			],
			"objclass": "SpawnZombiesJitteredWaveActionProps",
			"objdata": {
				"Zombies": [
					{
						"Type": "RTID(chicken_farmer@ZombieTypes)"
					},
					{
						"Type": "RTID(barrelroller@ZombieTypes)"
					}
				]
			}
		},
		{
			"aliases": [
				"Wave5"
			],
			"objclass": "SpawnZombiesJitteredWaveActionProps",
			"objdata": {
				"AdditionalPlantfood": 1,
				"Zombies": [
					{
						"Type": "RTID(chicken_farmer@ZombieTypes)"
					},
					{
						"Type": "RTID(barrelroller@ZombieTypes)"
					}
				]
			}
		},
		{
			"aliases": [
				"Wave6"
			],
			"objclass": "SpawnZombiesJitteredWaveActionProps",
			"objdata": {
				"Zombies": [
					{
						"Type": "RTID(barrelroller@ZombieTypes)"
					},
					{
						"Type": "RTID(barrelroller@ZombieTypes)"
					},
					{
						"Row": "5",
						"Type": "RTID(chicken_farmer@ZombieTypes)"
					},
					{
						"Row": "3",
						"Type": "RTID(chicken_farmer@ZombieTypes)"
					},
					{
						"Row": "1",
						"Type": "RTID(chicken_farmer@ZombieTypes)"
					}
				]
			}
		},
		{
			"aliases": [
				"Wave7"
			],
			"objclass": "SpawnZombiesJitteredWaveActionProps",
			"objdata": {
				"Zombies": [
					{
						"Type": "RTID(chicken_farmer@ZombieTypes)"
					},
					{
						"Row": "2",
						"Type": "RTID(chicken_farmer@ZombieTypes)"
					},
					{
						"Row": "4",
						"Type": "RTID(chicken_farmer@ZombieTypes)"
					},
					{
						"Type": "RTID(barrelroller@ZombieTypes)"
					}
				]
			}
		},
		{
			"aliases": [
				"Wave8"
			],
			"objclass": "SpawnZombiesJitteredWaveActionProps",
			"objdata": {
				"AdditionalPlantfood": 1,
				"Zombies": [
					{
						"Type": "RTID(chicken_farmer@ZombieTypes)"
					},
					{
						"Row": "3",
						"Type": "RTID(chicken_farmer@ZombieTypes)"
					},
					{
						"Type": "RTID(barrelroller@ZombieTypes)"
					}
				]
			}
		},
		{
			"aliases": [
				"Wave9"
			],
			"objclass": "SpawnZombiesJitteredWaveActionProps",
			"objdata": {
				"Zombies": [
					{
						"Type": "RTID(barrelroller@ZombieTypes)"
					},
					{
						"Type": "RTID(barrelroller@ZombieTypes)"
					},
					{
						"Type": "RTID(barrelroller@ZombieTypes)"
					},
					{
						"Row": "5",
						"Type": "RTID(chicken_farmer@ZombieTypes)"
					},
					{
						"Row": "2",
						"Type": "RTID(chicken_farmer@ZombieTypes)"
					},
					{
						"Row": "1",
						"Type": "RTID(chicken_farmer@ZombieTypes)"
					},
					{
						"Row": "3",
						"Type": "RTID(chicken_farmer@ZombieTypes)"
					},
					{
						"Row": "4",
						"Type": "RTID(chicken_farmer@ZombieTypes)"
					}
				]
			}
		},
		{
			"aliases": [
				"Gravestones"
			],
			"objclass": "GravestoneProperties",
			"objdata": {
				"ForceSpawnData": [
					{
						"GridX": 8,
						"GridY": 0
					},
					{
						"GridX": 6,
						"GridY": 0
					},
					{
						"GridX": 7,
						"GridY": 1
					},
					{
						"GridX": 8,
						"GridY": 2
					},
					{
						"GridX": 6,
						"GridY": 2
					},
					{
						"GridX": 7,
						"GridY": 3
					},
					{
						"GridX": 6,
						"GridY": 4
					},
					{
						"GridX": 8,
						"GridY": 4
					}
				]
			}
		},
		{
			"aliases": [
				"NewWaves"
			],
			"objclass": "WaveManagerModuleProperties",
			"objdata": {
				"DynamicZombies": [
					{},
					{},
					{},
					{
						"PointIncrementPerWave": 200,
						"StartingPoints": 100,
						"StartingWave": 2,
						"ZombiePool": [
							"RTID(barrelroller@ZombieTypes)",
							"RTID(future_jetpack@ZombieTypes)",
							"RTID(seagull@ZombieTypes)",
							"RTID(zcorp@ZombieTypes)",
							"RTID(zcorp_armor1@ZombieTypes)",
							"RTID(zcorp_armor2@ZombieTypes)"
						]
					},
					{},
					{},
					{}
				],
				"WaveManagerProps": "RTID(WaveManagerProps@CurrentLevel)"
			}
		},
		{
			"aliases": [
				"PerkActivator"
			],
			"objclass": "PerkHandlerModuleProperties",
			"objdata": {}
		},
		{
			"aliases": [
				"LevelMutator"
			],
			"objclass": "LevelMutatorModuleProperties",
			"objdata": {
				"MutatorTables": [
					"RTID(MutatorPropsRiftNormal@LevelMutatorTables)",
					"RTID(LocalChallengeMutator@CurrentLevel)",
					"RTID(LocalMainChallengeMutator@CurrentLevel)"
				]
			}
		},
		{
			"aliases": [
				"LocalMainChallengeMutator"
			],
			"objclass": "LevelMutatorTableProps",
			"objdata": {
				"Tables": [
					{
						"Level": 0,
						"ModuleType": "mainchallenge",
						"Modules": [
							"RTID(RiftBeatTheLevelChallenge@LevelModules)"
						]
					},
					{
						"Level": 1,
						"ModuleType": "mainchallenge",
						"Modules": [
							"RTID(RiftBeatTheLevelChallenge@LevelModules)"
						]
					},
					{
						"Level": 2,
						"ModuleType": "mainchallenge",
						"Modules": [
							"RTID(RiftBeatTheLevelChallenge@LevelModules)"
						]
					}
				]
			}
		},
		{
			"aliases": [
				"LocalChallengeMutator"
			],
			"objclass": "LevelMutatorTableProps",
			"objdata": {
				"Tables": [
					{
						"Level": 0,
						"ModuleType": "bonuschallenge",
						"Modules": [
							"RTID(SunUsed1@CurrentLevel)"
						]
					},
					{
						"Level": 1,
						"ModuleType": "bonuschallenge",
						"Modules": [
							"RTID(SunUsed2@CurrentLevel)",
							"RTID(SimultaneousPlants2@CurrentLevel)"
						]
					},
					{
						"Level": 2,
						"ModuleType": "bonuschallenge",
						"Modules": [
							"RTID(SunUsed3@CurrentLevel)",
							"RTID(SimultaneousPlants3@CurrentLevel)"
						]
					}
				]
			}
		},
		{
			"aliases": [
				"SunUsed1"
			],
			"objclass": "StarChallengeSunUsedProps",
			"objdata": {
				"MaximumSun": 2000
			}
		},
		{
			"aliases": [
				"SunUsed2"
			],
			"objclass": "StarChallengeSunUsedProps",
			"objdata": {
				"MaximumSun": 1500
			}
		},
		{
			"aliases": [
				"SunUsed3"
			],
			"objclass": "StarChallengeSunUsedProps",
			"objdata": {
				"MaximumSun": 1000
			}
		},
		{
			"aliases": [
				"SimultaneousPlants2"
			],
			"objclass": "StarChallengeSimultaneousPlantsProps",
			"objdata": {
				"MaximumPlants": 15
			}
		},
		{
			"aliases": [
				"SimultaneousPlants3"
			],
			"objclass": "StarChallengeSimultaneousPlantsProps",
			"objdata": {
				"MaximumPlants": 12
			}
		},
		{
			"aliases": [
				"LevelDifficultyScaling"
			],
			"objclass": "LevelDifficultyScalingModuleProperties",
			"objdata": {
				"DifficultyRulesType": "RiftDifficulty",
				"ZombieLevelSwaps": [
					{
						"Level": 4,
						"Swaps": [
							{
								"From": "RTID(zcorp@ZombieTypes)",
								"To": [
									"RTID(zcorp@ZombieTypes)"
								]
							},
							{
								"From": "RTID(zcorp_armor1@ZombieTypes)",
								"To": [
									"RTID(zcorp_armor1@ZombieTypes)"
								]
							},
							{
								"From": "RTID(zcorp_armor2@ZombieTypes)",
								"To": [
									"RTID(zcorp_armor2@ZombieTypes)"
								]
							}
						]
					},
					{
						"Level": 7,
						"Swaps": [
							{
								"From": "RTID(zcorp@ZombieTypes)",
								"To": [
									"RTID(zcorp@ZombieTypes)",
									"RTID(zcorp_armor1@ZombieTypes)"
								]
							},
							{
								"From": "RTID(zcorp_armor1@ZombieTypes)",
								"To": [
									"RTID(zcorp_armor1@ZombieTypes)",
									"RTID(zcorp_armor2@ZombieTypes)"
								]
							},
							{
								"From": "RTID(zcorp_armor2@ZombieTypes)",
								"To": [
									"RTID(zcorp_armor2@ZombieTypes)"
								]
							}
						]
					},
					{
						"Level": 10,
						"Swaps": [
							{
								"From": "RTID(zcorp@ZombieTypes)",
								"To": [
									"RTID(zcorp_armor1@ZombieTypes)",
									"RTID(zcorp_armor2@ZombieTypes)"
								]
							},
							{
								"From": "RTID(zcorp_armor1@ZombieTypes)",
								"To": [
									"RTID(zcorp_armor2@ZombieTypes)"
								]
							},
							{
								"From": "RTID(zcorp_armor2@ZombieTypes)",
								"To": [
									"RTID(zcorp_armor2@ZombieTypes)"
								]
							}
						]
					}
				]
			}
		},
		{
			"aliases": [
				"Wave4ParachuteRainEvent0"
			],
			"objclass": "ParachuteRainZombieSpawnerProps",
			"objdata": {
				"ColumnEnd": 7,
				"ColumnStart": "4",
				"GroupSize": "2",
				"SpiderCount": 2,
				"SpiderZombieName": "zcorp_helpdesk",
				"TimeBeforeFullSpawn": "1",
				"TimeBetweenGroups": "0.2",
				"WaveStartMessage": "[WARNING_PARACHUTERAIN]",
				"ZombieFallTime": "1.5"
			}
		},
		{
			"aliases": [
				"Wave7ParachuteRainEvent0"
			],
			"objclass": "ParachuteRainZombieSpawnerProps",
			"objdata": {
				"ColumnEnd": "8",
				"ColumnStart": 3,
				"GroupSize": "2",
				"SpiderCount": "4",
				"SpiderZombieName": "zcorp_helpdesk",
				"TimeBeforeFullSpawn": "1",
				"TimeBetweenGroups": "0.2",
				"WaveStartMessage": "[WARNING_PARACHUTERAIN]",
				"ZombieFallTime": "1.5"
			}
		}
	],
	"version": 1
}