{
	"#comment": "Iceage 25",
	"objects": [ {
			"objclass": "LevelDefinition",
			"objdata": {
				"CompletionAchievement": "",
				"Description": "[PLAYERS_TRIP_TO_RIFT]",
				"LevelMutator": "RTID(LevelMutator@CurrentLevel)",
				"LevelNumber": "",
				"Loot": "RTID(DefaultLoot@LevelModules)",
				"Modules": [ "RTID(ConveyorBelt@CurrentLevel)", "RTID(IceageMowers@LevelModules)", "RTID(ZombiesDeadWinCon@LevelModules)", "RTID(DefaultZombieWinCondition@LevelModules)", "RTID(NewWaves@CurrentLevel)", "RTID(SliderPlacement@CurrentLevel)", "RTID(FrozenPlantPlacement@CurrentLevel)", "RTID(FrozenZombiePlacement@CurrentLevel)", "RTID(StandardRiftIntro@LevelModules)", "RTID(PerkActivator@CurrentLevel)", "RTID(LevelDifficultyScaling@CurrentLevel)" ],
				"MusicType": "MiniGame_A",
				"Name": "[RIFT_LEVEL_NAME]",
				"NormalPresentTable": "egypt_normal_01",
				"PerksDisabledInLevel": [ "zombieinhibitorhunter" ],
				"PerksDisabledPerDifficulty": [ [], [], [] ],
				"ShinyPresentTable": "egypt_shiny_01",
				"StageModule": "RTID(IceageStage@LevelModules)",
				"VictoryModule": "RTID(RiftOutro@LevelModules)"
			}
		}, {
			"aliases": [ "SliderPlacement" ],
			"objclass": "InitialGridItemProperties",
			"objdata": {
				"InitialGridItemPlacements": [ {
						"GridX": 6,
						"GridY": 1,
						"TypeName": "slider_up"
					}, {
						"GridX": 6,
						"GridY": 3,
						"TypeName": "slider_down"
					} ]
			}
		}, {
			"aliases": [ "FrozenPlantPlacement" ],
			"objclass": "InitialPlantProperties",
			"objdata": {}
		}, {
			"aliases": [ "FrozenZombiePlacement" ],
			"objclass": "InitialZombieProperties",
			"objdata": {}
		}, {
			"aliases": [ "ConveyorBelt" ],
			"objclass": "ConveyorSeedBankProperties",
			"objdata": {
				"DropDelayConditions": [ {
						"Delay": 3,
						"MaxPackets": 0
					}, {
						"Delay": 6,
						"MaxPackets": 2
					}, {
						"Delay": 9,
						"MaxPackets": 4
					}, {
						"Delay": 12,
						"MaxPackets": 8
					} ],
				"InitialPlantList": [ {
						"PlantType": "xshot",
						"Weight": 55
					} ],
				"SpeedConditions": [ {
						"MaxPackets": 0,
						"Speed": 100
					} ]
			}
		}, {
			"aliases": [ "WaveManagerProps" ],
			"objclass": "WaveManagerProperties",
			"objdata": {
				"FlagWaveInterval": 5,
				"SpawnColEnd": 9,
				"SpawnColStart": 2,
				"SuppressedDynamicZombieWaves": [ 10, 17 ],
				"WaveCount": 10,
				"WaveSpendingPointIncrement": 100,
				"WaveSpendingPoints": 200,
				"Waves": [ [ "RTID(Wave1@CurrentLevel)" ], [ "RTID(Wave2@CurrentLevel)", "RTID(Wave2FrostWindEvent0@CurrentLevel)" ], [ "RTID(Wave3@CurrentLevel)", "RTID(Wave3ModConveyor0@CurrentLevel)" ], [ "RTID(Wave4@CurrentLevel)", "RTID(Wave4StormEvent0@CurrentLevel)" ], [ "RTID(Wave5@CurrentLevel)", "RTID(Wave5ModConveyor0@CurrentLevel)", "RTID(Wave5FrostWindEvent0@CurrentLevel)" ], [ "RTID(Wave6@CurrentLevel)" ], [ "RTID(Wave7@CurrentLevel)", "RTID(Wave7FrostWindEvent0@CurrentLevel)" ], [ "RTID(Wave8@CurrentLevel)", "RTID(Wave8FrostWindEvent0@CurrentLevel)" ], [ "RTID(Wave9@CurrentLevel)", "RTID(Wave9FrostWindEvent0@CurrentLevel)" ], [ "RTID(Wave10@CurrentLevel)", "RTID(Wave10StormEvent0@CurrentLevel)" ] ]
			}
		}, {
			"aliases": [ "Wave1" ],
			"objclass": "SpawnZombiesJitteredWaveActionProps",
			"objdata": {
				"AdditionalPlantfood": 0,
				"Zombies": [ {
						"Row": "5",
						"Type": "RTID(iceage@ZombieTypes)"
					}, {
						"Row": "1",
						"Type": "RTID(iceage@ZombieTypes)"
					} ]
			}
		}, {
			"aliases": [ "Wave2" ],
			"objclass": "SpawnZombiesJitteredWaveActionProps",
			"objdata": {
				"AdditionalPlantfood": 1,
				"DynamicPlantfood": [ 1, 1, 1, 1, 0, 0, 0 ],
				"Zombies": [ {
						"Row": "5",
						"Type": "RTID(iceage@ZombieTypes)"
					}, {
						"Row": "5",
						"Type": "RTID(iceage@ZombieTypes)"
					}, {
						"Row": "1",
						"Type": "RTID(iceage@ZombieTypes)"
					}, {
						"Row": "1",
						"Type": "RTID(iceage@ZombieTypes)"
					} ]
			}
		}, {
			"aliases": [ "Wave3" ],
			"objclass": "SpawnZombiesJitteredWaveActionProps",
			"objdata": {
				"AdditionalPlantfood": 0,
				"Zombies": [ {
						"Row": "5",
						"Type": "RTID(iceage_armor1@ZombieTypes)"
					}, {
						"Row": "3",
						"Type": "RTID(iceage_armor1@ZombieTypes)"
					}, {
						"Row": "1",
						"Type": "RTID(iceage_armor1@ZombieTypes)"
					} ]
			}
		}, {
			"aliases": [ "Wave4" ],
			"objclass": "SpawnZombiesJitteredWaveActionProps",
			"objdata": {
				"AdditionalPlantfood": 1,
				"DynamicPlantfood": [ 1, 1, 1, 1, 1, 1, 1 ],
				"Zombies": [ {
						"Row": "4",
						"Type": "RTID(iceage@ZombieTypes)"
					}, {
						"Row": "2",
						"Type": "RTID(iceage_armor1@ZombieTypes)"
					} ]
			}
		}, {
			"aliases": [ "Wave5" ],
			"objclass": "SpawnZombiesJitteredWaveActionProps",
			"objdata": {
				"AdditionalPlantfood": 0,
				"Zombies": [ {
						"Row": "5",
						"Type": "RTID(iceage@ZombieTypes)"
					}, {
						"Row": "5",
						"Type": "RTID(iceage_troglobite@ZombieTypes)"
					}, {
						"Row": "3",
						"Type": "RTID(iceage_armor2@ZombieTypes)"
					}, {
						"Row": "1",
						"Type": "RTID(iceage_armor1@ZombieTypes)"
					}, {
						"Row": "1",
						"Type": "RTID(iceage_armor3@ZombieTypes)"
					} ]
			}
		}, {
			"aliases": [ "Wave6" ],
			"objclass": "SpawnZombiesJitteredWaveActionProps",
			"objdata": {
				"AdditionalPlantfood": 1,
				"DynamicPlantfood": [ 1, 1, 1, 1, 1, 0, 0 ],
				"Zombies": [ {
						"Row": "4",
						"Type": "RTID(iceage_armor1@ZombieTypes)"
					}, {
						"Row": "2",
						"Type": "RTID(iceage_armor1@ZombieTypes)"
					}, {
						"Row": "1",
						"Type": "RTID(iceage_dodo@ZombieTypes)"
					}, {
						"Row": "1",
						"Type": "RTID(iceage@ZombieTypes)"
					} ]
			}
		}, {
			"aliases": [ "Wave7" ],
			"objclass": "SpawnZombiesJitteredWaveActionProps",
			"objdata": {
				"Zombies": [ {
						"Row": "5",
						"Type": "RTID(iceage_armor1@ZombieTypes)"
					}, {
						"Row": "5",
						"Type": "RTID(iceage@ZombieTypes)"
					}, {
						"Row": "3",
						"Type": "RTID(iceage_armor1@ZombieTypes)"
					}, {
						"Row": "1",
						"Type": "RTID(iceage_armor1@ZombieTypes)"
					}, {
						"Row": "1",
						"Type": "RTID(iceage@ZombieTypes)"
					} ]
			}
		}, {
			"aliases": [ "Wave8" ],
			"objclass": "SpawnZombiesJitteredWaveActionProps",
			"objdata": {
				"AdditionalPlantfood": 1,
				"DynamicPlantfood": [ 1, 1, 1, 1, 1, 1, 1 ],
				"Zombies": [ {
						"Row": "4",
						"Type": "RTID(iceage_armor2@ZombieTypes)"
					}, {
						"Row": "3",
						"Type": "RTID(iceage_troglobite@ZombieTypes)"
					}, {
						"Row": "2",
						"Type": "RTID(iceage_armor2@ZombieTypes)"
					} ]
			}
		}, {
			"aliases": [ "Wave9" ],
			"objclass": "SpawnZombiesJitteredWaveActionProps",
			"objdata": {
				"Zombies": [ {
						"Row": "5",
						"Type": "RTID(iceage_dodo@ZombieTypes)"
					}, {
						"Row": "5",
						"Type": "RTID(iceage_armor1@ZombieTypes)"
					}, {
						"Row": "1",
						"Type": "RTID(iceage_dodo@ZombieTypes)"
					}, {
						"Row": "1",
						"Type": "RTID(iceage_armor1@ZombieTypes)"
					}, {
						"Row": "1",
						"Type": "RTID(iceage_dodo@ZombieTypes)"
					} ]
			}
		}, {
			"aliases": [ "Wave2FrostWindEvent0" ],
			"objclass": "FrostWindWaveActionProps",
			"objdata": {
				"Winds": [ {
						"Direction": "right",
						"Row": "0"
					}, {
						"Direction": "right",
						"Row": 1
					}, {
						"Direction": "right",
						"Row": 2
					}, {
						"Direction": "right",
						"Row": 3
					}, {
						"Direction": "right",
						"Row": 4
					} ]
			}
		}, {
			"aliases": [ "Wave5ModConveyor0" ],
			"objclass": "ModifyConveyorWaveActionProps",
			"objdata": {
				"Add": [ {
						"MaxCount": 1,
						"MaxCountCooldownSeconds": 20,
						"MaxWeightFactor": 10,
						"MinWeightFactor": 0.1,
						"Type": "RTID(pepperpult@PlantTypes)",
						"Weight": 800
					} ],
				"Remove": []
			}
		}, {
			"aliases": [ "Wave5FrostWindEvent0" ],
			"objclass": "FrostWindWaveActionProps",
			"objdata": {
				"Winds": [ {
						"Direction": "right",
						"Row": 0
					}, {
						"Direction": "right",
						"Row": 1
					}, {
						"Direction": "right",
						"Row": 3
					}, {
						"Direction": "right",
						"Row": 4
					} ]
			}
		}, {
			"aliases": [ "Wave3ModConveyor0" ],
			"objclass": "ModifyConveyorWaveActionProps",
			"objdata": {
				"Add": [ {
						"MaxWeightFactor": 10,
						"MinWeightFactor": 0.1,
						"Type": "RTID(stunion@PlantTypes)",
						"Weight": 45
					} ],
				"Remove": []
			}
		}, {
			"aliases": [ "Wave7FrostWindEvent0" ],
			"objclass": "FrostWindWaveActionProps",
			"objdata": {
				"Winds": [ {
						"Direction": "right",
						"Row": "0"
					}, {
						"Direction": "right",
						"Row": 1
					}, {
						"Direction": "right",
						"Row": 2
					}, {
						"Direction": "right",
						"Row": 3
					}, {
						"Direction": "right",
						"Row": 4
					} ]
			}
		}, {
			"aliases": [ "Wave10" ],
			"objclass": "SpawnZombiesJitteredWaveActionProps",
			"objdata": {
				"AdditionalPlantfood": 0,
				"Zombies": [ {
						"Row": "5",
						"Type": "RTID(iceage_armor3@ZombieTypes)"
					}, {
						"Row": "3",
						"Type": "RTID(iceage_armor3@ZombieTypes)"
					}, {
						"Row": "1",
						"Type": "RTID(iceage_armor3@ZombieTypes)"
					} ]
			}
		}, {
			"aliases": [ "Wave9FrostWindEvent0" ],
			"objclass": "FrostWindWaveActionProps",
			"objdata": {
				"Winds": [ {
						"Direction": "right",
						"Row": "0"
					}, {
						"Direction": "right",
						"Row": 1
					}, {
						"Direction": "right",
						"Row": 2
					}, {
						"Direction": "right",
						"Row": 3
					}, {
						"Direction": "right",
						"Row": 4
					} ]
			}
		}, {
			"aliases": [ "Wave8FrostWindEvent0" ],
			"objclass": "FrostWindWaveActionProps",
			"objdata": {
				"Winds": [ {
						"Direction": "right",
						"Row": "0"
					}, {
						"Direction": "right",
						"Row": 1
					}, {
						"Direction": "right",
						"Row": 3
					}, {
						"Direction": "right",
						"Row": 4
					} ]
			}
		}, {
			"aliases": [ "Wave10StormEvent0" ],
			"objclass": "StormZombieSpawnerProps",
			"objdata": {
				"ColumnEnd": 2,
				"ColumnStart": 1,
				"GroupSize": 4,
				"TimeBetweenGroups": "3",
				"Type": "snowstorm",
				"Zombies": [ {
						"Type": "RTID(iceage@ZombieTypes)"
					}, {
						"Type": "RTID(iceage_armor1@ZombieTypes)"
					}, {
						"Type": "RTID(iceage@ZombieTypes)"
					}, {
						"Type": "RTID(iceage_armor1@ZombieTypes)"
					} ]
			}
		}, {
			"aliases": [ "Wave4StormEvent0" ],
			"objclass": "StormZombieSpawnerProps",
			"objdata": {
				"ColumnEnd": 2,
				"ColumnStart": 2,
				"GroupSize": 3,
				"TimeBetweenGroups": 3,
				"Type": "snowstorm",
				"Zombies": [ {
						"Type": "RTID(iceage@ZombieTypes)"
					}, {
						"Type": "RTID(iceage_armor1@ZombieTypes)"
					}, {
						"Type": "RTID(iceage@ZombieTypes)"
					} ]
			}
		}, {
			"aliases": [ "PerkActivator" ],
			"objclass": "PerkHandlerModuleProperties",
			"objdata": {}
		}, {
			"aliases": [ "LevelMutator" ],
			"objclass": "LevelMutatorModuleProperties",
			"objdata": {
				"MutatorTables": [ "RTID(MutatorPropsRift_Worlds@LevelMutatorTables)", "RTID(LocalChallengeMutator@CurrentLevel)", "RTID(LocalMainChallengeMutator@CurrentLevel)" ]
			}
		}, {
			"aliases": [ "LocalMainChallengeMutator" ],
			"objclass": "LevelMutatorTableProps",
			"objdata": {
				"Tables": [ {
						"Level": 0,
						"ModuleType": "mainchallenge",
						"Modules": [ "RTID(RiftBeatTheLevelChallenge@LevelModules)" ]
					}, {
						"Level": 1,
						"ModuleType": "mainchallenge",
						"Modules": [ "RTID(RiftBeatTheLevelChallenge@LevelModules)" ]
					}, {
						"Level": 2,
						"ModuleType": "mainchallenge",
						"Modules": [ "RTID(RiftBeatTheLevelChallenge@LevelModules)" ]
					} ]
			}
		}, {
			"aliases": [ "NewWaves" ],
			"objclass": "WaveManagerModuleProperties",
			"objdata": {
				"DynamicZombies": [ {}, {}, {}, {
						"PointIncrementPerWave": 50,
						"StartingPoints": 0,
						"StartingWave": 0,
						"ZombiePool": [ "RTID(iceage@ZombieTypes)", "RTID(iceage_armor1@ZombieTypes)", "RTID(iceage_armor2@ZombieTypes)" ]
					}, {}, {}, {} ],
				"WaveManagerProps": "RTID(WaveManagerProps@CurrentLevel)"
			}
		}, {
			"aliases": [ "LocalChallengeMutator" ],
			"objclass": "LevelMutatorTableProps",
			"objdata": {
				"Tables": [ {
						"Level": 0,
						"ModuleType": "bonuschallenge",
						"Modules": [ "RTID(ApplyZombieConditions1@CurrentLevel)" ]
					}, {
						"Level": 1,
						"ModuleType": "bonuschallenge",
						"Modules": [ "RTID(ZombieDistance1@CurrentLevel)", "RTID(ApplyZombieConditions2@CurrentLevel)" ]
					}, {
						"Level": 2,
						"ModuleType": "bonuschallenge",
						"Modules": [ "RTID(ZombieDistance2@CurrentLevel)", "RTID(ApplyZombieConditions3@CurrentLevel)" ]
					} ]
			}
		}, {
			"aliases": [ "ZombieDistance1" ],
			"objclass": "StarChallengeZombieDistanceProps",
			"objdata": {
				"TargetDistance": 0.5
			}
		}, {
			"aliases": [ "ZombieDistance2" ],
			"objclass": "StarChallengeZombieDistanceProps",
			"objdata": {
				"TargetDistance": 1
			}
		}, {
			"aliases": [ "ApplyZombieConditions1" ],
			"objclass": "ApplyZombieConditionsChallengeProps",
			"objdata": {
				"ConditionToInflict": [ "stun" ],
				"NumZombieConditionsToApply": 30
			}
		}, {
			"aliases": [ "ApplyZombieConditions2" ],
			"objclass": "ApplyZombieConditionsChallengeProps",
			"objdata": {
				"ConditionToInflict": [ "stun" ],
				"NumZombieConditionsToApply": 35
			}
		}, {
			"aliases": [ "ApplyZombieConditions3" ],
			"objclass": "ApplyZombieConditionsChallengeProps",
			"objdata": {
				"ConditionToInflict": [ "stun" ],
				"NumZombieConditionsToApply": 40
			}
		}, {
			"aliases": [ "LevelDifficultyScaling" ],
			"objclass": "LevelDifficultyScalingModuleProperties",
			"objdata": {
				"DifficultyRulesType": "RiftDifficulty",
				"ZombieLevelSwaps": [ {
						"Level": 4,
						"Swaps": [ {
								"From": "RTID(iceage@ZombieTypes)",
								"To": [ "RTID(iceage@ZombieTypes)" ]
							}, {
								"From": "RTID(iceage_armor1@ZombieTypes)",
								"To": [ "RTID(iceage_armor1@ZombieTypes)", "RTID(iceage@ZombieTypes)" ]
							}, {
								"From": "RTID(iceage_armor2@ZombieTypes)",
								"To": [ "RTID(iceage_armor2@ZombieTypes)", "RTID(iceage_armor1@ZombieTypes)" ]
							}, {
								"From": "RTID(iceage_armor3@ZombieTypes)",
								"To": [ "RTID(iceage_armor2@ZombieTypes)", "RTID(iceage_armor3@ZombieTypes)" ]
							} ]
					}, {
						"Level": 7,
						"Swaps": [ {
								"From": "RTID(iceage@ZombieTypes)",
								"To": [ "RTID(iceage@ZombieTypes)", "RTID(iceage_armor1@ZombieTypes)" ]
							}, {
								"From": "RTID(iceage_armor1@ZombieTypes)",
								"To": [ "RTID(iceage_armor1@ZombieTypes)", "RTID(iceage_armor2@ZombieTypes)" ]
							}, {
								"From": "RTID(iceage_armor2@ZombieTypes)",
								"To": [ "RTID(iceage_armor2@ZombieTypes)", "RTID(iceage_armor3@ZombieTypes)" ]
							}, {
								"From": "RTID(iceage_armor3@ZombieTypes)",
								"To": [ "RTID(iceage_armor3@ZombieTypes)" ]
							} ]
					}, {
						"Level": 10,
						"Swaps": [ {
								"From": "RTID(iceage@ZombieTypes)",
								"To": [ "RTID(iceage@ZombieTypes)", "RTID(iceage_armor1@ZombieTypes)" ]
							}, {
								"From": "RTID(iceage_armor1@ZombieTypes)",
								"To": [ "RTID(iceage_armor1@ZombieTypes)", "RTID(iceage_armor2@ZombieTypes)" ]
							}, {
								"From": "RTID(iceage_armor2@ZombieTypes)",
								"To": [ "RTID(iceage_armor2@ZombieTypes)", "RTID(iceage_armor3@ZombieTypes)" ]
							}, {
								"From": "RTID(iceage_armor3@ZombieTypes)",
								"To": [ "RTID(iceage_armor3@ZombieTypes)" ]
							} ]
					} ]
			}
		} ],
	"version": 1
}