{
	"#comment": "Iceage 27",
	"objects": [ {
			"objclass": "LevelDefinition",
			"objdata": {
				"Description": "[PLAYERS_TRIP_TO_RIFT]",
				"LevelMutator": "RTID(LevelMutator@CurrentLevel)",
				"LevelNumber": "",
				"Loot": "RTID(DefaultLoot@LevelModules)",
				"Modules": [ "RTID(DefaultSunDropper@LevelModules)", "RTID(ZombiesDeadWinCon@LevelModules)", "RTID(IceageMowers@LevelModules)", "RTID(SeedBank@CurrentLevel)", "RTID(DefaultZombieWinCondition@LevelModules)", "RTID(NewWaves@CurrentLevel)", "RTID(SliderPlacement@CurrentLevel)", "RTID(StandardRiftIntro@LevelModules)", "RTID(PerkActivator@CurrentLevel)", "RTID(LevelDifficultyScaling@CurrentLevel)" ],
				"MusicType": "MiniGame_B",
				"Name": "[RIFT_LEVEL_NAME]",
				"NormalPresentTable": "egypt_normal_01",
				"PerksDisabledInLevel": [ "moarscore", "bossbustercannon", "zombieinhibitorballista", "zombieinhibitorprospector", "quickdelivery", "utilitybelt_cherrybomb", "utilitybelt_hypnoshroom", "utilitybelt_hurrikale", "utilitybelt_icebloom", "utilitybelt_puffball", "utilitybelt_imppear" ],
				"PerksDisabledPerDifficulty": [ [], [], [] ],
				"ShinyPresentTable": "egypt_shiny_01",
				"StageModule": "RTID(IceageStage@LevelModules)",
				"VictoryModule": "RTID(RiftOutro@LevelModules)"
			}
		}, {
			"aliases": [ "SliderPlacement" ],
			"objclass": "InitialGridItemProperties",
			"objdata": {
				"InitialGridItemPlacements": [ {
						"GridX": 3,
						"GridY": 0,
						"TypeName": "slider_down"
					}, {
						"GridX": 4,
						"GridY": 1,
						"TypeName": "slider_down"
					}, {
						"GridX": 4,
						"GridY": 3,
						"TypeName": "slider_up"
					}, {
						"GridX": 3,
						"GridY": 4,
						"TypeName": "slider_up"
					} ]
			}
		}, {
			"aliases": [ "SeedBank" ],
			"objclass": "SeedBankProperties",
			"objdata": {
				"SelectionMethod": "chooser"
			}
		}, {
			"aliases": [ "NewWaves" ],
			"objclass": "WaveManagerModuleProperties",
			"objdata": {
				"DynamicZombies": [ {
						"PointIncrementPerWave": -40,
						"StartingPoints": -100,
						"StartingWave": 3,
						"ZombiePool": [ "RTID(iceage@ZombieTypes)", "RTID(iceage_armor1@ZombieTypes)", "RTID(iceage_armor2@ZombieTypes)" ]
					}, {
						"PointIncrementPerWave": -25,
						"StartingPoints": -100,
						"StartingWave": 4,
						"ZombiePool": [ "RTID(iceage@ZombieTypes)", "RTID(iceage_armor1@ZombieTypes)", "RTID(iceage_armor2@ZombieTypes)" ]
					}, {
						"PointIncrementPerWave": -10,
						"StartingPoints": -100,
						"StartingWave": 5,
						"ZombiePool": [ "RTID(iceage@ZombieTypes)", "RTID(iceage_armor1@ZombieTypes)", "RTID(iceage_armor2@ZombieTypes)" ]
					}, {}, {
						"PointIncrementPerWave": 20,
						"StartingPoints": 100,
						"StartingWave": 5,
						"ZombiePool": [ "RTID(iceage@ZombieTypes)", "RTID(iceage_armor1@ZombieTypes)", "RTID(iceage_armor2@ZombieTypes)" ]
					}, {
						"PointIncrementPerWave": 40,
						"StartingPoints": 200,
						"StartingWave": 4,
						"ZombiePool": [ "RTID(iceage_armor1@ZombieTypes)", "RTID(iceage_armor2@ZombieTypes)" ]
					}, {
						"PointIncrementPerWave": 60,
						"StartingPoints": 400,
						"StartingWave": 3,
						"ZombiePool": [ "RTID(iceage_armor2@ZombieTypes)" ]
					} ],
				"WaveManagerProps": "RTID(WaveManagerProps@CurrentLevel)"
			}
		}, {
			"aliases": [ "WaveManagerProps" ],
			"objclass": "WaveManagerProperties",
			"objdata": {
				"FlagWaveInterval": 5,
				"SpawnColEnd": 9,
				"SpawnColStart": 3,
				"WaveCount": 20,
				"WaveSpendingPointIncrement": 100,
				"WaveSpendingPoints": 200,
				"Waves": [ [ "RTID(Wave1@CurrentLevel)" ], [ "RTID(Wave2@CurrentLevel)" ], [ "RTID(Wave3@CurrentLevel)" ], [ "RTID(Wave4@CurrentLevel)" ], [ "RTID(Wave5@CurrentLevel)" ], [ "RTID(Wave6@CurrentLevel)" ], [ "RTID(Wave7@CurrentLevel)" ], [ "RTID(Wave8@CurrentLevel)" ], [ "RTID(Wave9@CurrentLevel)" ], [ "RTID(Wave10@CurrentLevel)" ], [ "RTID(Wave11@CurrentLevel)" ], [ "RTID(Wave12@CurrentLevel)" ], [ "RTID(Wave13@CurrentLevel)" ], [ "RTID(Wave14@CurrentLevel)" ], [ "RTID(Wave15@CurrentLevel)" ], [ "RTID(Wave16@CurrentLevel)" ], [ "RTID(Wave17@CurrentLevel)" ], [ "RTID(Wave18@CurrentLevel)" ], [ "RTID(Wave19@CurrentLevel)" ], [ "RTID(Wave20@CurrentLevel)" ] ]
			}
		}, {
			"aliases": [ "Wave1" ],
			"objclass": "SpawnZombiesJitteredWaveActionProps",
			"objdata": {
				"AdditionalPlantfood": 0,
				"Zombies": [ {
						"Row": "3",
						"Type": "RTID(iceage@ZombieTypes)"
					}, {
						"Row": "4",
						"Type": "RTID(iceage@ZombieTypes)"
					} ]
			}
		}, {
			"aliases": [ "Wave2" ],
			"objclass": "SpawnZombiesJitteredWaveActionProps",
			"objdata": {
				"AdditionalPlantfood": 1,
				"DynamicPlantfood": [ 1, 1, 1, 1, 1, 1, 1 ],
				"Zombies": [ {
						"Row": "2",
						"Type": "RTID(iceage@ZombieTypes)"
					}, {
						"Row": "1",
						"Type": "RTID(iceage@ZombieTypes)"
					}, {
						"Row": "5",
						"Type": "RTID(iceage@ZombieTypes)"
					} ]
			}
		}, {
			"aliases": [ "Wave3" ],
			"objclass": "SpawnZombiesJitteredWaveActionProps",
			"objdata": {
				"AdditionalPlantfood": 0,
				"Zombies": [ {
						"Row": "3",
						"Type": "RTID(iceage_armor1@ZombieTypes)"
					}, {
						"Row": "2",
						"Type": "RTID(iceage_armor1@ZombieTypes)"
					} ]
			}
		}, {
			"aliases": [ "Wave4" ],
			"objclass": "SpawnZombiesJitteredWaveActionProps",
			"objdata": {
				"AdditionalPlantfood": 0,
				"Zombies": [ {
						"Row": "1",
						"Type": "RTID(iceage_armor3@ZombieTypes)"
					}, {
						"Row": "5",
						"Type": "RTID(iceage_armor3@ZombieTypes)"
					} ]
			}
		}, {
			"aliases": [ "Wave5" ],
			"objclass": "SpawnZombiesJitteredWaveActionProps",
			"objdata": {
				"AdditionalPlantfood": 1,
				"DynamicPlantfood": [ 1, 1, 1, 1, 0, 0, 0 ],
				"Zombies": [ {
						"Row": "1",
						"Type": "RTID(iceage_imp@ZombieTypes)"
					}, {
						"Row": "2",
						"Type": "RTID(iceage_imp@ZombieTypes)"
					}, {
						"Row": "5",
						"Type": "RTID(iceage_imp@ZombieTypes)"
					}, {
						"Row": "4",
						"Type": "RTID(iceage_imp@ZombieTypes)"
					}, {
						"Row": "3",
						"Type": "RTID(iceage_imp@ZombieTypes)"
					}, {
						"Row": "2",
						"Type": "RTID(iceage_armor2@ZombieTypes)"
					}, {
						"Row": "4",
						"Type": "RTID(iceage_armor2@ZombieTypes)"
					}, {
						"Row": "3",
						"Type": "RTID(iceage_armor1@ZombieTypes)"
					} ]
			}
		}, {
			"aliases": [ "Wave6" ],
			"objclass": "SpawnZombiesJitteredWaveActionProps",
			"objdata": {
				"AdditionalPlantfood": 0,
				"Zombies": [ {
						"Row": "5",
						"Type": "RTID(iceage_dodo@ZombieTypes)"
					}, {
						"Row": "1",
						"Type": "RTID(iceage_dodo@ZombieTypes)"
					} ]
			}
		}, {
			"aliases": [ "Wave7" ],
			"objclass": "SpawnZombiesJitteredWaveActionProps",
			"objdata": {
				"AdditionalPlantfood": 0,
				"Zombies": [ {
						"Row": "2",
						"Type": "RTID(iceage_dodo@ZombieTypes)"
					}, {
						"Row": "3",
						"Type": "RTID(iceage_dodo@ZombieTypes)"
					}, {
						"Row": "4",
						"Type": "RTID(iceage_dodo@ZombieTypes)"
					} ]
			}
		}, {
			"aliases": [ "Wave8" ],
			"objclass": "SpawnZombiesJitteredWaveActionProps",
			"objdata": {
				"AdditionalPlantfood": 0,
				"Zombies": [ {
						"Row": "2",
						"Type": "RTID(iceage_troglobite@ZombieTypes)"
					}, {
						"Row": "4",
						"Type": "RTID(iceage_troglobite@ZombieTypes)"
					} ]
			}
		}, {
			"aliases": [ "Wave9" ],
			"objclass": "SpawnZombiesJitteredWaveActionProps",
			"objdata": {
				"AdditionalPlantfood": 0,
				"Zombies": [ {
						"Row": "1",
						"Type": "RTID(iceage_troglobite@ZombieTypes)"
					}, {
						"Row": "5",
						"Type": "RTID(iceage_troglobite@ZombieTypes)"
					} ]
			}
		}, {
			"aliases": [ "Wave10" ],
			"objclass": "SpawnZombiesJitteredWaveActionProps",
			"objdata": {
				"AdditionalPlantfood": 0,
				"Zombies": [ {
						"Row": "3",
						"Type": "RTID(iceage_troglobite@ZombieTypes)"
					}, {
						"Row": "3",
						"Type": "RTID(iceage_armor1@ZombieTypes)"
					}, {
						"Row": "2",
						"Type": "RTID(iceage_armor2@ZombieTypes)"
					}, {
						"Row": "4",
						"Type": "RTID(iceage_armor2@ZombieTypes)"
					} ]
			}
		}, {
			"aliases": [ "Wave11" ],
			"objclass": "SpawnZombiesJitteredWaveActionProps",
			"objdata": {
				"Zombies": [ {
						"Row": "5",
						"Type": "RTID(iceage_imp@ZombieTypes)"
					}, {
						"Row": "1",
						"Type": "RTID(iceage_imp@ZombieTypes)"
					}, {
						"Row": "1",
						"Type": "RTID(iceage_dodo@ZombieTypes)"
					}, {
						"Row": "5",
						"Type": "RTID(iceage_dodo@ZombieTypes)"
					} ]
			}
		}, {
			"aliases": [ "Wave12" ],
			"objclass": "SpawnZombiesJitteredWaveActionProps",
			"objdata": {
				"Zombies": [ {
						"Row": "2",
						"Type": "RTID(iceage_troglobite@ZombieTypes)"
					}, {
						"Row": "4",
						"Type": "RTID(iceage_troglobite@ZombieTypes)"
					}, {
						"Row": "3",
						"Type": "RTID(iceage_imp@ZombieTypes)"
					} ]
			}
		}, {
			"aliases": [ "Wave13" ],
			"objclass": "SpawnZombiesJitteredWaveActionProps",
			"objdata": {
				"AdditionalPlantfood": 0,
				"Zombies": [ {
						"Row": "3",
						"Type": "RTID(iceage_hunter@ZombieTypes)"
					}, {
						"Row": "2",
						"Type": "RTID(iceage_armor2@ZombieTypes)"
					}, {
						"Row": "4",
						"Type": "RTID(iceage_armor2@ZombieTypes)"
					} ]
			}
		}, {
			"aliases": [ "Wave14" ],
			"objclass": "SpawnZombiesJitteredWaveActionProps",
			"objdata": {
				"AdditionalPlantfood": 0,
				"ZombieSpawnPattern": "ZombieSpawnerPatternStaggered",
				"Zombies": [ {
						"Row": "5",
						"Type": "RTID(iceage_imp@ZombieTypes)"
					}, {
						"Row": "1",
						"Type": "RTID(iceage_imp@ZombieTypes)"
					}, {
						"Row": "2",
						"Type": "RTID(iceage_hunter@ZombieTypes)"
					}, {
						"Row": "4",
						"Type": "RTID(iceage_hunter@ZombieTypes)"
					}, {
						"Row": "3",
						"Type": "RTID(iceage_armor1@ZombieTypes)"
					} ]
			}
		}, {
			"aliases": [ "Wave15" ],
			"objclass": "SpawnZombiesJitteredWaveActionProps",
			"objdata": {
				"AdditionalPlantfood": 1,
				"DynamicPlantfood": [ 1, 1, 1, 1, 1, 1, 0 ],
				"Zombies": [ {
						"Row": "3",
						"Type": "RTID(iceage_gargantuar@ZombieTypes)"
					}, {
						"Row": "1",
						"Type": "RTID(iceage_hunter@ZombieTypes)"
					}, {
						"Row": "5",
						"Type": "RTID(iceage_hunter@ZombieTypes)"
					}, {
						"Row": "2",
						"Type": "RTID(iceage_imp@ZombieTypes)"
					}, {
						"Row": "4",
						"Type": "RTID(iceage_imp@ZombieTypes)"
					}, {
						"Row": "1",
						"Type": "RTID(iceage_imp@ZombieTypes)"
					}, {
						"Row": "5",
						"Type": "RTID(iceage_imp@ZombieTypes)"
					} ]
			}
		}, {
			"aliases": [ "Wave16" ],
			"objclass": "SpawnZombiesJitteredWaveActionProps",
			"objdata": {
				"AdditionalPlantfood": 0,
				"ZombieSpawnPattern": "ZombieSpawnerPatternStaggered",
				"Zombies": [ {
						"Row": "2",
						"Type": "RTID(iceage_hunter@ZombieTypes)"
					}, {
						"Row": "4",
						"Type": "RTID(iceage_hunter@ZombieTypes)"
					}, {
						"Row": "3",
						"Type": "RTID(iceage_hunter@ZombieTypes)"
					}, {
						"Row": "1",
						"Type": "RTID(iceage_imp@ZombieTypes)"
					}, {
						"Row": "5",
						"Type": "RTID(iceage_imp@ZombieTypes)"
					}, {
						"Row": "1",
						"Type": "RTID(iceage_imp@ZombieTypes)"
					}, {
						"Row": "5",
						"Type": "RTID(iceage_imp@ZombieTypes)"
					} ]
			}
		}, {
			"aliases": [ "Wave17" ],
			"objclass": "SpawnZombiesJitteredWaveActionProps",
			"objdata": {
				"Zombies": [ {
						"Row": "2",
						"Type": "RTID(iceage_troglobite@ZombieTypes)"
					}, {
						"Row": "4",
						"Type": "RTID(iceage_troglobite@ZombieTypes)"
					}, {
						"Row": "1",
						"Type": "RTID(iceage_imp@ZombieTypes)"
					}, {
						"Row": "5",
						"Type": "RTID(iceage_imp@ZombieTypes)"
					}, {
						"Row": "3",
						"Type": "RTID(iceage_imp@ZombieTypes)"
					}, {
						"Row": "2",
						"Type": "RTID(iceage_imp@ZombieTypes)"
					}, {
						"Row": "4",
						"Type": "RTID(iceage_imp@ZombieTypes)"
					} ]
			}
		}, {
			"aliases": [ "Wave18" ],
			"objclass": "SpawnZombiesJitteredWaveActionProps",
			"objdata": {
				"Zombies": [ {
						"Row": "5",
						"Type": "RTID(iceage_imp@ZombieTypes)"
					}, {
						"Row": "1",
						"Type": "RTID(iceage_imp@ZombieTypes)"
					}, {
						"Row": "2",
						"Type": "RTID(iceage_troglobite@ZombieTypes)"
					}, {
						"Row": "3",
						"Type": "RTID(iceage_troglobite@ZombieTypes)"
					}, {
						"Row": "4",
						"Type": "RTID(iceage_troglobite@ZombieTypes)"
					} ]
			}
		}, {
			"aliases": [ "Wave19" ],
			"objclass": "SpawnZombiesJitteredWaveActionProps",
			"objdata": {
				"AdditionalPlantfood": 0,
				"ZombieSpawnPattern": "ZombieSpawnerPatternStaggered",
				"Zombies": [ {
						"Row": "1",
						"Type": "RTID(iceage_dodo@ZombieTypes)"
					}, {
						"Row": "5",
						"Type": "RTID(iceage_dodo@ZombieTypes)"
					}, {
						"Row": "1",
						"Type": "RTID(iceage_dodo@ZombieTypes)"
					}, {
						"Row": "5",
						"Type": "RTID(iceage_dodo@ZombieTypes)"
					} ]
			}
		}, {
			"aliases": [ "Wave20" ],
			"objclass": "SpawnZombiesJitteredWaveActionProps",
			"objdata": {
				"AdditionalPlantfood": 0,
				"Zombies": [ {
						"Row": "3",
						"Type": "RTID(iceage_gargantuar@ZombieTypes)"
					}, {
						"Row": "5",
						"Type": "RTID(iceage_armor3@ZombieTypes)"
					}, {
						"Row": "1",
						"Type": "RTID(iceage_armor3@ZombieTypes)"
					}, {
						"Row": "5",
						"Type": "RTID(iceage_gargantuar@ZombieTypes)"
					}, {
						"Row": "4",
						"Type": "RTID(iceage_armor3@ZombieTypes)"
					} ]
			}
		}, {
			"aliases": [ "PerkActivator" ],
			"objclass": "PerkHandlerModuleProperties",
			"objdata": {}
		}, {
			"aliases": [ "LevelMutator" ],
			"objclass": "LevelMutatorModuleProperties",
			"objdata": {
				"MutatorTables": [ "RTID(MutatorPropsRift_Worlds@LevelMutatorTables)", "RTID(LocalChallengeMutator@CurrentLevel)", "RTID(LocalMainChallengeMutator@CurrentLevel)" ]
			}
		}, {
			"aliases": [ "LocalMainChallengeMutator" ],
			"objclass": "LevelMutatorTableProps",
			"objdata": {
				"Tables": [ {
						"Level": 0,
						"ModuleType": "mainchallenge",
						"Modules": [ "RTID(RiftBeatTheLevelChallenge@LevelModules)" ]
					}, {
						"Level": 1,
						"ModuleType": "mainchallenge",
						"Modules": [ "RTID(RiftBeatTheLevelChallenge@LevelModules)" ]
					}, {
						"Level": 2,
						"ModuleType": "mainchallenge",
						"Modules": [ "RTID(RiftBeatTheLevelChallenge@LevelModules)" ]
					} ]
			}
		}, {
			"aliases": [ "NewWaves" ],
			"objclass": "WaveManagerModuleProperties",
			"objdata": {
				"DynamicZombies": [ {}, {}, {}, {
						"PointIncrementPerWave": 50,
						"StartingPoints": 0,
						"StartingWave": 0,
						"ZombiePool": [ "RTID(iceage@ZombieTypes)", "RTID(iceage_armor1@ZombieTypes)", "RTID(iceage_armor2@ZombieTypes)" ]
					}, {}, {}, {} ],
				"WaveManagerProps": "RTID(WaveManagerProps@CurrentLevel)"
			}
		}, {
			"aliases": [ "LocalChallengeMutator" ],
			"objclass": "LevelMutatorTableProps",
			"objdata": {
				"Tables": [ {
						"Level": 0,
						"ModuleType": "bonuschallenge",
						"Modules": [ "RTID(ProtectThePlant@CurrentLevel)" ]
					}, {
						"Level": 1,
						"ModuleType": "bonuschallenge",
						"Modules": [ "RTID(ProtectThePlant@CurrentLevel)", "RTID(SunProduced2@CurrentLevel)" ]
					}, {
						"Level": 2,
						"ModuleType": "bonuschallenge",
						"Modules": [ "RTID(ProtectThePlant@CurrentLevel)", "RTID(SunProduced3@CurrentLevel)" ]
					} ]
			}
		}, {
			"aliases": [ "ProtectThePlant" ],
			"objclass": "ProtectThePlantChallengeProperties",
			"objdata": {
				"MustProtectCount": 3,
				"Plants": [ {
						"GridX": 2,
						"GridY": 1,
						"PlantType": "xshot"
					}, {
						"GridX": 1,
						"GridY": 2,
						"PlantType": "xshot"
					}, {
						"GridX": 2,
						"GridY": 3,
						"PlantType": "xshot"
					} ]
			}
		}, {
			"aliases": [ "SunProduced2" ],
			"objclass": "StarChallengeSunProducedProps",
			"objdata": {
				"TargetSun": 7000
			}
		}, {
			"aliases": [ "SunProduced3" ],
			"objclass": "StarChallengeSunProducedProps",
			"objdata": {
				"TargetSun": 9000
			}
		}, {
			"aliases": [ "LevelDifficultyScaling" ],
			"objclass": "LevelDifficultyScalingModuleProperties",
			"objdata": {
				"DifficultyRulesType": "RiftDifficulty",
				"ZombieLevelSwaps": [ {
						"Level": 4,
						"Swaps": [ {
								"From": "RTID(iceage@ZombieTypes)",
								"To": [ "RTID(iceage@ZombieTypes)" ]
							}, {
								"From": "RTID(iceage_armor1@ZombieTypes)",
								"To": [ "RTID(iceage_armor1@ZombieTypes)", "RTID(iceage@ZombieTypes)" ]
							}, {
								"From": "RTID(iceage_armor2@ZombieTypes)",
								"To": [ "RTID(iceage_armor2@ZombieTypes)", "RTID(iceage_armor1@ZombieTypes)" ]
							}, {
								"From": "RTID(iceage_armor3@ZombieTypes)",
								"To": [ "RTID(iceage_armor2@ZombieTypes)", "RTID(iceage_armor3@ZombieTypes)" ]
							} ]
					}, {
						"Level": 7,
						"Swaps": [ {
								"From": "RTID(iceage@ZombieTypes)",
								"To": [ "RTID(iceage@ZombieTypes)", "RTID(iceage_armor1@ZombieTypes)" ]
							}, {
								"From": "RTID(iceage_armor1@ZombieTypes)",
								"To": [ "RTID(iceage_armor1@ZombieTypes)", "RTID(iceage_armor2@ZombieTypes)" ]
							}, {
								"From": "RTID(iceage_armor2@ZombieTypes)",
								"To": [ "RTID(iceage_armor2@ZombieTypes)", "RTID(iceage_armor3@ZombieTypes)" ]
							}, {
								"From": "RTID(iceage_armor3@ZombieTypes)",
								"To": [ "RTID(iceage_armor3@ZombieTypes)" ]
							} ]
					}, {
						"Level": 10,
						"Swaps": [ {
								"From": "RTID(iceage@ZombieTypes)",
								"To": [ "RTID(iceage_armor1@ZombieTypes)", "RTID(iceage_armor2@ZombieTypes)" ]
							}, {
								"From": "RTID(iceage_armor1@ZombieTypes)",
								"To": [ "RTID(iceage_armor2@ZombieTypes)", "RTID(iceage_armor3@ZombieTypes)" ]
							}, {
								"From": "RTID(iceage_armor2@ZombieTypes)",
								"To": [ "RTID(iceage_armor3@ZombieTypes)" ]
							}, {
								"From": "RTID(iceage_armor3@ZombieTypes)",
								"To": [ "RTID(iceage_armor3@ZombieTypes)" ]
							} ]
					} ]
			}
		} ],
	"version": 1
}