{
	"#comment": "Rift 6 Dino Zomboss - joust92",
	"objects": [ {
			"objclass": "LevelDefinition",
			"objdata": {
				"Description": "[PLAYERS_TRIP_TO_RIFT]",
				"DisablePlantBoosts": false,
				"GridItemLevel": 1,
				"LevelMutator": "RTID(LevelMutator@CurrentLevel)",
				"LevelNumber": "",
				"LevelPowerupSet": "",
				"Loot": "RTID(NoLoot@LevelModules)",
				"LossModule": "RTID(RiftOutro@LevelModules)",
				"Modules": [ "RTID(DefaultSunDropper@LevelModules)", "RTID(FutureMowers@LevelModules)", "RTID(SeedBank@CurrentLevel)", "RTID(DefaultZombieWinCondition@LevelModules)", "RTID(NewWaves@CurrentLevel)", "RTID(LastStand@CurrentLevel)", "RTID(LevelDifficultyScaling@CurrentLevel)", "RTID(SeedPacketHalfTimeModule@LevelModules)", "RTID(ZombossBattle@CurrentLevel)", "RTID(WaveDuplicator@CurrentLevel)", "RTID(PerkActivator@CurrentLevel)", "RTID(DefaultZombossRiftPointOfLoss@LevelModules)", "RTID(Boosterama@LevelModules)" ],
				"Name": "",
				"NormalPresentTable": "dark_normal_01",
				"PerksDisabledInLevel": [ "moarscore" ],
				"PerksDisabledPerDifficulty": [ [ "zombieinhibitorballista" ], [], [] ],
				"ShinyPresentTable": "dark_shiny_01",
				"StageModule": "RTID(RiftStage@LevelModules)",
				"SuppressAccountUpgrades": true,
				"SuppressDynamicTutorial": true,
				"SuppressPlantfoodPurchase": false,
				"VictoryModule": "RTID(RiftOutro@LevelModules)"
			}
		}, {
			"aliases": [ "PerkActivator" ],
			"objclass": "PerkHandlerModuleProperties",
			"objdata": {}
		}, {
			"aliases": [ "LevelMutator" ],
			"objclass": "LevelMutatorModuleProperties",
			"objdata": {
				"MutatorTables": [ "RTID(MutatorPropsRiftZomboss_Dino@LevelMutatorTables)", "RTID(MutatorRiftZombossBattery1@LevelMutatorTables)", "RTID(MutatorGridRiftMold7@LevelMutatorTables)" ]
			}
		}, {
			"aliases": [ "WaveDuplicator" ],
			"objclass": "WaveDuplicatorModuleProperties",
			"objdata": {
				"PeriodOfWavesToLoop": 5,
				"WaveSetsToAppend": 20
			}
		}, {
			"aliases": [ "ZombossBattle" ],
			"objclass": "ZombossRiftBattleModuleProperties",
			"objdata": {
				"ReservedColumnCount": 2,
				"ShowInStreetView": true,
				"SlideInStreetView": true,
				"ZombossDeathColumn": 5,
				"ZombossDeathRow": 3,
				"ZombossMechType": "zombossmech_dino_rift",
				"ZombossPhases": 3,
				"ZombossSpawnGridPosition": {
					"mX": 6,
					"mY": 3
				}
			}
		}, {
			"aliases": [ "SeedBank" ],
			"objclass": "SeedBankProperties",
			"objdata": {
				"PlantExcludeList": [],
				"PresetPlantList": [ {
						"PlantType": "shadowpeashooter",
						"Level": -1
					} ],
				"SelectionMethod": "chooser"
			}
		}, {
			"aliases": [ "LastStand" ],
			"objclass": "LastStandMinigameProperties",
			"objdata": {
				"PreSeedchooserFlow": "rift",
				"StartingPlantfood": 0,
				"StartingSun": 2550
			}
		}, {
			"aliases": [ "LevelDifficultyScaling" ],
			"objclass": "LevelDifficultyScalingModuleProperties",
			"objdata": {
				"DifficultyRulesType": "RiftDifficulty",
				"ZombieLevelSwaps": [ {
						"Level": 0,
						"Swaps": [ {
								"From": "RTID(dino@ZombieTypes)",
								"To": [ "RTID(roman_imp@ZombieTypes)", "RTID(dino@ZombieTypes)" ]
							}, {
								"From": "RTID(dino_armor1@ZombieTypes)",
								"To": [ "RTID(dino_armor1@ZombieTypes)", "RTID(roman@ZombieTypes)" ]
							}, {
								"From": "RTID(dino_armor2@ZombieTypes)",
								"To": [ "RTID(dino_armor2@ZombieTypes)", "RTID(roman_armor1@ZombieTypes)" ]
							}, {
								"From": "RTID(future_protector@ZombieTypes)",
								"To": [ "RTID(future_protector@ZombieTypes)", "RTID(roman_shield_triad@ZombieTypes)" ]
							}, {
								"From": "RTID(beach_surfer@ZombieTypes)",
								"To": [ "RTID(beach_surfer@ZombieTypes)", "RTID(roman_armor2@ZombieTypes)" ]
							}, {
								"From": "RTID(roman_medusa@ZombieTypes)",
								"To": [ "RTID(roman_armor2@ZombieTypes)", "RTID(roman_medusa@ZombieTypes)" ]
							} ]
					}, {
						"Level": 4,
						"Swaps": [ {
								"From": "RTID(dino@ZombieTypes)",
								"To": [ "RTID(roman_imp@ZombieTypes)", "RTID(dino@ZombieTypes)", "RTID(roman_armor1@ZombieTypes)" ]
							}, {
								"From": "RTID(dino_armor1@ZombieTypes)",
								"To": [ "RTID(dino_armor1@ZombieTypes)", "RTID(roman@ZombieTypes)", "RTID(roman_shield_triad@ZombieTypes)" ]
							}, {
								"From": "RTID(dino_armor2@ZombieTypes)",
								"To": [ "RTID(dino_armor2@ZombieTypes)", "RTID(roman_armor1@ZombieTypes)", "RTID(roman_armor3@ZombieTypes)" ]
							}, {
								"From": "RTID(future_protector@ZombieTypes)",
								"To": [ "RTID(future_protector@ZombieTypes)", "RTID(roman_ballista@ZombieTypes)", "RTID(roman_shield_triad@ZombieTypes)" ]
							}, {
								"From": "RTID(beach_surfer@ZombieTypes)",
								"To": [ "RTID(beach_surfer@ZombieTypes)", "RTID(roman_healer@ZombieTypes)", "RTID(roman_armor2@ZombieTypes)" ]
							}, {
								"From": "RTID(roman_medusa@ZombieTypes)",
								"To": [ "RTID(roman_ballista@ZombieTypes)", "RTID(roman_medusa@ZombieTypes)" ]
							} ]
					}, {
						"Level": 7,
						"Swaps": [ {
								"From": "RTID(dino@ZombieTypes)",
								"To": [ "RTID(roman_shield_triad@ZombieTypes)", "RTID(roman_armor1@ZombieTypes)" ]
							}, {
								"From": "RTID(dino_armor1@ZombieTypes)",
								"To": [ "RTID(dino_armor1@ZombieTypes)", "RTID(roman_armor2@ZombieTypes)", "RTID(roman_shield_triad@ZombieTypes)" ]
							}, {
								"From": "RTID(dino_armor2@ZombieTypes)",
								"To": [ "RTID(dino_armor2@ZombieTypes)", "RTID(roman_shield_triad@ZombieTypes)", "RTID(roman_armor3@ZombieTypes)" ]
							}, {
								"From": "RTID(future_protector@ZombieTypes)",
								"To": [ "RTID(future_protector@ZombieTypes)", "RTID(roman_ballista@ZombieTypes)" ]
							}, {
								"From": "RTID(beach_surfer@ZombieTypes)",
								"To": [ "RTID(beach_surfer@ZombieTypes)", "RTID(roman_healer@ZombieTypes)" ]
							}, {
								"From": "RTID(roman_medusa@ZombieTypes)",
								"To": [ "RTID(roman_medusa@ZombieTypes)", "RTID(roman_ballista@ZombieTypes)" ]
							} ]
					} ]
			}
		}, {
			"aliases": [ "NewWaves" ],
			"objclass": "WaveManagerModuleProperties",
			"objdata": {
				"DynamicZombies": [ {
						"MaxPoints": 1250,
						"PointIncrementPerWave": 75,
						"StartingPoints": 100,
						"StartingWave": 0,
						"ZombiePool": [ "RTID(dino@ZombieTypes)", "RTID(dino_armor1@ZombieTypes)", "RTID(dino_armor2@ZombieTypes)", "RTID(dino_imp@ZombieTypes)" ]
					}, {
						"MaxPoints": 1250,
						"PointIncrementPerWave": 75,
						"StartingPoints": 100,
						"StartingWave": 0,
						"ZombiePool": [ "RTID(dino@ZombieTypes)", "RTID(dino_armor1@ZombieTypes)", "RTID(dino_armor2@ZombieTypes)", "RTID(dino_imp@ZombieTypes)" ]
					}, {
						"MaxPoints": 1250,
						"PointIncrementPerWave": 75,
						"StartingPoints": 100,
						"StartingWave": 0,
						"ZombiePool": [ "RTID(dino@ZombieTypes)", "RTID(dino_armor1@ZombieTypes)", "RTID(dino_armor2@ZombieTypes)", "RTID(dino_imp@ZombieTypes)" ]
					}, {
						"MaxPoints": 1800,
						"PointIncrementPerWave": 75,
						"StartingPoints": 100,
						"StartingWave": 0,
						"ZombiePool": [ "RTID(dino@ZombieTypes)", "RTID(dino_armor1@ZombieTypes)", "RTID(dino_armor2@ZombieTypes)", "RTID(dino_imp@ZombieTypes)" ]
					}, {
						"MaxPoints": 1250,
						"PointIncrementPerWave": 75,
						"StartingPoints": 100,
						"StartingWave": 0,
						"ZombiePool": [ "RTID(dino@ZombieTypes)", "RTID(dino_armor1@ZombieTypes)", "RTID(dino_armor2@ZombieTypes)", "RTID(dino_imp@ZombieTypes)" ]
					}, {
						"MaxPoints": 1250,
						"PointIncrementPerWave": 75,
						"StartingPoints": 100,
						"StartingWave": 0,
						"ZombiePool": [ "RTID(dino@ZombieTypes)", "RTID(dino_armor1@ZombieTypes)", "RTID(dino_armor2@ZombieTypes)", "RTID(dino_imp@ZombieTypes)" ]
					}, {
						"MaxPoints": 1250,
						"PointIncrementPerWave": 75,
						"StartingPoints": 100,
						"StartingWave": 0,
						"ZombiePool": [ "RTID(dino@ZombieTypes)", "RTID(dino_armor2@ZombieTypes)", "RTID(dino_imp@ZombieTypes)" ]
					} ],
				"ManualStartup": true,
				"WaveManagerProps": "RTID(WaveManagerProps@CurrentLevel)"
			}
		}, {
			"aliases": [ "WaveManagerProps" ],
			"objclass": "WaveManagerProperties",
			"objdata": {
				"FlagWaveInterval": 100,
				"WaveCount": 10,
				"WaveSpendingPointIncrement": 200,
				"WaveSpendingPoints": 500,
				"Waves": [ [ "RTID(Wave1@CurrentLevel)" ], [ "RTID(Wave2@CurrentLevel)" ], [ "RTID(Wave3@CurrentLevel)" ], [ "RTID(Wave4@CurrentLevel)" ], [ "RTID(Wave5@CurrentLevel)" ], [ "RTID(Wave6@CurrentLevel)" ], [ "RTID(Wave7@CurrentLevel)" ], [ "RTID(Wave8@CurrentLevel)", "RTID(Wave8StormEvent0@CurrentLevel)" ], [ "RTID(Wave9@CurrentLevel)" ], [ "RTID(Wave10@CurrentLevel)", "RTID(Wave10StormEvent0@CurrentLevel)" ] ],
				"WavesAlwaysRandomized": true
			}
		}, {
			"aliases": [ "Wave1" ],
			"objclass": "SpawnZombiesJitteredWaveActionProps",
			"objdata": {
				"Zombies": [ {
						"Row": "3",
						"Type": "RTID(future_protector@ZombieTypes)"
					} ]
			}
		}, {
			"aliases": [ "Wave2" ],
			"objclass": "SpawnZombiesJitteredWaveActionProps",
			"objdata": {
				"Zombies": [ {
						"Row": "2",
						"Type": "RTID(future_protector@ZombieTypes)"
					}, {
						"Row": "4",
						"Type": "RTID(future_protector@ZombieTypes)"
					} ]
			}
		}, {
			"aliases": [ "Wave3" ],
			"objclass": "SpawnZombiesJitteredWaveActionProps",
			"objdata": {
				"Zombies": [ {
						"Row": "5",
						"Type": "RTID(beach_surfer@ZombieTypes)"
					}, {
						"Row": "1",
						"Type": "RTID(beach_surfer@ZombieTypes)"
					} ]
			}
		}, {
			"aliases": [ "Wave4" ],
			"objclass": "SpawnZombiesJitteredWaveActionProps",
			"objdata": {
				"Zombies": [ {
						"Row": "3",
						"Type": "RTID(roman_medusa@ZombieTypes)"
					} ]
			}
		}, {
			"aliases": [ "Wave5" ],
			"objclass": "SpawnZombiesJitteredWaveActionProps",
			"objdata": {
				"Zombies": [ {
						"Row": "4",
						"Type": "RTID(beach_surfer@ZombieTypes)"
					}, {
						"Row": "2",
						"Type": "RTID(beach_surfer@ZombieTypes)"
					}, {
						"Row": "3",
						"Type": "RTID(beach_surfer@ZombieTypes)"
					} ]
			}
		}, {
			"aliases": [ "Wave6" ],
			"objclass": "SpawnZombiesJitteredWaveActionProps",
			"objdata": {
				"Zombies": [ {
						"Row": "5",
						"Type": "RTID(future_protector@ZombieTypes)"
					}, {
						"Row": "5",
						"Type": "RTID(beach_surfer@ZombieTypes)"
					} ]
			}
		}, {
			"aliases": [ "Wave7" ],
			"objclass": "SpawnZombiesJitteredWaveActionProps",
			"objdata": {
				"Zombies": [ {
						"Row": "1",
						"Type": "RTID(future_protector@ZombieTypes)"
					}, {
						"Row": "1",
						"Type": "RTID(beach_surfer@ZombieTypes)"
					} ]
			}
		}, {
			"aliases": [ "Wave8" ],
			"objclass": "SpawnZombiesJitteredWaveActionProps",
			"objdata": {
				"Zombies": [ {
						"Type": "RTID(roman_ballista@ZombieTypes)"
					}, {
						"Type": "RTID(roman_medusa@ZombieTypes)"
					} ]
			}
		}, {
			"aliases": [ "Wave9" ],
			"objclass": "SpawnZombiesJitteredWaveActionProps",
			"objdata": {
				"Zombies": [ {
						"Row": "5",
						"Type": "RTID(roman_medusa@ZombieTypes)"
					}, {
						"Row": "1",
						"Type": "RTID(roman_medusa@ZombieTypes)"
					} ]
			}
		}, {
			"aliases": [ "Wave10" ],
			"objclass": "SpawnZombiesJitteredWaveActionProps",
			"objdata": {
				"Zombies": [ {
						"Row": "5",
						"Type": "RTID(future_protector@ZombieTypes)"
					}, {
						"Row": "1",
						"Type": "RTID(future_protector@ZombieTypes)"
					} ]
			}
		}, {
			"aliases": [ "Wave10StormEvent0" ],
			"objclass": "StormZombieSpawnerProps",
			"objdata": {
				"ColumnEnd": 7,
				"ColumnStart": 6,
				"GroupSize": 1,
				"TimeBetweenGroups": 3,
				"Type": "sandstorm",
				"Zombies": [ {
						"Type": "RTID(beach_surfer@ZombieTypes)"
					} ]
			}
		}, {
			"aliases": [ "Wave8StormEvent0" ],
			"objclass": "StormZombieSpawnerProps",
			"objdata": {
				"ColumnEnd": 7,
				"ColumnStart": 6,
				"GroupSize": 1,
				"TimeBetweenGroups": "3",
				"Type": "sandstorm",
				"Zombies": [ {
						"Type": "RTID(beach_surfer@ZombieTypes)"
					} ]
			}
		} ],
	"version": 1
}