{
	"#comment": "Cowboy 7.1",
	"objects": [ {
			"objclass": "LevelDefinition",
			"objdata": {
				"Description": "[PLAYERS_TRIP_TO_RIFT]",
				"FirstRewardParam": "spine_cowboy",
				"FirstRewardType": "pinata",
				"LevelMutator": "RTID(LevelMutator@CurrentLevel)",
				"LevelNumber": 15,
				"Loot": "RTID(DefaultLoot@LevelModules)",
				"Modules": [ "RTID(DefaultSunDropper@LevelModules)", "RTID(ZombiesDeadWinCon@LevelModules)", "RTID(WestMowers@LevelModules)", "RTID(CowboyRails@CurrentLevel)", "RTID(SeedBank@CurrentLevel)", "RTID(DefaultZombieWinCondition@LevelModules)", "RTID(NewWaves@CurrentLevel)", "RTID(StandardRiftIntro@LevelModules)", "RTID(PerkActivator@CurrentLevel)", "RTID(LevelDifficultyScaling@CurrentLevel)" ],
				"Name": "[RIFT_LEVEL_NAME]",
				"NormalPresentTable": "cowboy_normal_01",
				"PerksDisabledInLevel": [ "moarscore", "bossbustercannon", "quickdelivery", "utilitybelt_cherrybomb", "utilitybelt_hypnoshroom", "utilitybelt_hurrikale", "zombieinhibitorballista", "zombieinhibitorgargantuar" ],
				"PerksDisabledPerDifficulty": [ [], [], [] ],
				"ShinyPresentTable": "cowboy_shiny_01",
				"StageModule": "RTID(WestStage@LevelModules)",
				"VictoryModule": "RTID(RiftOutro@LevelModules)"
			}
		}, {
			"aliases": [ "CowboyRails" ],
			"objclass": "RailcartProperties",
			"objdata": {
				"RailcartType": "railcart_cowboy",
				"Railcarts": [ {
						"Column": 1,
						"Row": 3
					}, {
						"Column": 6,
						"Row": 0
					} ],
				"Rails": [ {
						"Column": 1,
						"RowEnd": 4,
						"RowStart": 0
					}, {
						"Column": 6,
						"RowEnd": 4,
						"RowStart": 0
					} ]
			}
		}, {
			"aliases": [ "SeedBank" ],
			"objclass": "SeedBankProperties",
			"objdata": {
				"SelectionMethod": "chooser"
			}
		}, {
			"aliases": [ "OLDChallengeModule" ],
			"objclass": "StarChallengeModuleProperties",
			"objdata": {
				"Challenges": [ [ "RTID(ZombieDistance@CurrentLevel)" ], [ "RTID(SunProduced@CurrentLevel)", "RTID(DoNotPlantBeforeLine@CurrentLevel)" ], [ "RTID(SunUsed@CurrentLevel)", "RTID(SimultaneousPlants@CurrentLevel)" ] ]
			}
		}, {
			"aliases": [ "ZombieDistance" ],
			"objclass": "StarChallengeZombieDistanceProps",
			"objdata": {
				"TargetDistance": 4
			}
		}, {
			"aliases": [ "SunProduced" ],
			"objclass": "StarChallengeSunProducedProps",
			"objdata": {
				"TargetSun": 3000
			}
		}, {
			"aliases": [ "DoNotPlantBeforeLine" ],
			"objclass": "MoldColonyChallengeProps",
			"objdata": {
				"Locations": "RTID(Column0_To_Column1@BoardGridMaps)"
			}
		}, {
			"aliases": [ "SunUsed" ],
			"objclass": "StarChallengeSunUsedProps",
			"objdata": {
				"MaximumSun": 2500
			}
		}, {
			"aliases": [ "SimultaneousPlants" ],
			"objclass": "StarChallengeSimultaneousPlantsProps",
			"objdata": {
				"MaximumPlants": 14
			}
		}, {
			"aliases": [ "NewWaves" ],
			"objclass": "WaveManagerModuleProperties",
			"objdata": {
				"DynamicZombies": [ {
						"PointIncrementPerWave": -40,
						"StartingPoints": -100,
						"StartingWave": 3,
						"ZombiePool": [ "RTID(cowboy@ZombieTypes)", "RTID(cowboy_armor1@ZombieTypes)", "RTID(cowboy_armor2@ZombieTypes)", "RTID(poncho@ZombieTypes)", "RTID(poncho_no_plate@ZombieTypes)", "RTID(poncho_plate@ZombieTypes)", "RTID(west_bull@ZombieTypes)" ]
					}, {
						"PointIncrementPerWave": -25,
						"StartingPoints": -100,
						"StartingWave": 4,
						"ZombiePool": [ "RTID(cowboy@ZombieTypes)", "RTID(cowboy_armor1@ZombieTypes)", "RTID(cowboy_armor2@ZombieTypes)", "RTID(poncho@ZombieTypes)", "RTID(poncho_no_plate@ZombieTypes)", "RTID(poncho_plate@ZombieTypes)", "RTID(west_bull@ZombieTypes)" ]
					}, {
						"PointIncrementPerWave": -10,
						"StartingPoints": -100,
						"StartingWave": 5,
						"ZombiePool": [ "RTID(cowboy@ZombieTypes)", "RTID(cowboy_armor1@ZombieTypes)", "RTID(cowboy_armor2@ZombieTypes)", "RTID(poncho@ZombieTypes)", "RTID(poncho_no_plate@ZombieTypes)", "RTID(poncho_plate@ZombieTypes)", "RTID(west_bull@ZombieTypes)" ]
					}, {}, {
						"PointIncrementPerWave": 20,
						"StartingPoints": 100,
						"StartingWave": 5,
						"ZombiePool": [ "RTID(cowboy@ZombieTypes)", "RTID(cowboy_armor1@ZombieTypes)", "RTID(cowboy_armor2@ZombieTypes)", "RTID(poncho@ZombieTypes)", "RTID(poncho_no_plate@ZombieTypes)", "RTID(poncho_plate@ZombieTypes)", "RTID(west_bull@ZombieTypes)" ]
					}, {
						"PointIncrementPerWave": 40,
						"StartingPoints": 200,
						"StartingWave": 4,
						"ZombiePool": [ "RTID(cowboy_armor1@ZombieTypes)", "RTID(cowboy_armor2@ZombieTypes)", "RTID(poncho@ZombieTypes)", "RTID(poncho_no_plate@ZombieTypes)", "RTID(poncho_plate@ZombieTypes)", "RTID(west_bull@ZombieTypes)" ]
					}, {
						"PointIncrementPerWave": 60,
						"StartingPoints": 400,
						"StartingWave": 3,
						"ZombiePool": [ "RTID(cowboy_armor2@ZombieTypes)", "RTID(poncho@ZombieTypes)", "RTID(poncho_no_plate@ZombieTypes)", "RTID(poncho_plate@ZombieTypes)", "RTID(west_bull@ZombieTypes)" ]
					} ],
				"WaveManagerProps": "RTID(WaveManagerProps@CurrentLevel)"
			}
		}, {
			"aliases": [ "WaveManagerProps" ],
			"objclass": "WaveManagerProperties",
			"objdata": {
				"FlagWaveInterval": 8,
				"WaveCount": 16,
				"WaveSpendingPointIncrement": 50,
				"WaveSpendingPoints": 100,
				"Waves": [ [ "RTID(Wave1@CurrentLevel)" ], [ "RTID(Wave2@CurrentLevel)" ], [ "RTID(Wave3@CurrentLevel)" ], [ "RTID(Wave4@CurrentLevel)" ], [ "RTID(Wave5@CurrentLevel)" ], [ "RTID(Wave6@CurrentLevel)" ], [ "RTID(Wave7@CurrentLevel)" ], [ "RTID(Wave8@CurrentLevel)" ], [ "RTID(Wave9@CurrentLevel)" ], [ "RTID(Wave10@CurrentLevel)" ], [ "RTID(Wave11@CurrentLevel)" ], [ "RTID(Wave12@CurrentLevel)" ], [ "RTID(Wave13@CurrentLevel)" ], [ "RTID(Wave14@CurrentLevel)" ], [ "RTID(Wave15@CurrentLevel)" ], [ "RTID(Wave16@CurrentLevel)" ] ]
			}
		}, {
			"aliases": [ "Wave1" ],
			"objclass": "SpawnZombiesJitteredWaveActionProps",
			"objdata": {
				"Zombies": [ {
						"Type": "RTID(cowboy@ZombieTypes)"
					} ]
			}
		}, {
			"aliases": [ "Wave2" ],
			"objclass": "SpawnZombiesJitteredWaveActionProps",
			"objdata": {
				"Zombies": [ {
						"Type": "RTID(cowboy@ZombieTypes)"
					} ]
			}
		}, {
			"aliases": [ "Wave3" ],
			"objclass": "SpawnZombiesJitteredWaveActionProps",
			"objdata": {
				"Zombies": [ {
						"Type": "RTID(cowboy@ZombieTypes)"
					}, {
						"Type": "RTID(cowboy@ZombieTypes)"
					} ]
			}
		}, {
			"aliases": [ "Wave4" ],
			"objclass": "SpawnZombiesJitteredWaveActionProps",
			"objdata": {
				"AdditionalPlantfood": 1,
				"DynamicPlantfood": [ 1, 1, 1, 1, 0, 0, 0 ],
				"Zombies": [ {
						"Type": "RTID(cowboy@ZombieTypes)"
					}, {
						"Type": "RTID(cowboy_armor1@ZombieTypes)"
					} ]
			}
		}, {
			"aliases": [ "Wave5" ],
			"objclass": "SpawnZombiesJitteredWaveActionProps",
			"objdata": {
				"Zombies": [ {
						"Type": "RTID(poncho_plate@ZombieTypes)"
					} ]
			}
		}, {
			"aliases": [ "Wave6" ],
			"objclass": "SpawnZombiesJitteredWaveActionProps",
			"objdata": {
				"AdditionalPlantfood": 1,
				"Zombies": [ {
						"Type": "RTID(cowboy_armor1@ZombieTypes)"
					}, {
						"Type": "RTID(cowboy@ZombieTypes)"
					} ]
			}
		}, {
			"aliases": [ "Wave7" ],
			"objclass": "SpawnZombiesJitteredWaveActionProps",
			"objdata": {
				"Zombies": [ {
						"NOTE": "was bull rider",
						"Type": "RTID(west_bull@ZombieTypes)"
					} ]
			}
		}, {
			"aliases": [ "Wave8" ],
			"objclass": "SpawnZombiesJitteredWaveActionProps",
			"objdata": {
				"AdditionalPlantfood": 1,
				"Zombies": [ {
						"Type": "RTID(cowboy_armor1@ZombieTypes)"
					}, {
						"Type": "RTID(cowboy@ZombieTypes)"
					}, {
						"Type": "RTID(cowboy_armor1@ZombieTypes)"
					}, {
						"Type": "RTID(poncho@ZombieTypes)"
					}, {
						"Type": "RTID(poncho_no_plate@ZombieTypes)"
					}, {
						"Type": "RTID(cowboy@ZombieTypes)"
					} ]
			}
		}, {
			"aliases": [ "Wave9" ],
			"objclass": "SpawnZombiesJitteredWaveActionProps",
			"objdata": {
				"Zombies": [ {
						"Type": "RTID(cowboy@ZombieTypes)"
					}, {
						"Type": "RTID(cowboy@ZombieTypes)"
					}, {
						"Type": "RTID(cowboy_armor1@ZombieTypes)"
					}, {
						"Type": "RTID(cowboy@ZombieTypes)"
					} ]
			}
		}, {
			"aliases": [ "Wave10" ],
			"objclass": "SpawnZombiesJitteredWaveActionProps",
			"objdata": {
				"Zombies": [ {
						"Type": "RTID(cowboy_armor2@ZombieTypes)"
					}, {
						"Type": "RTID(cowboy_armor1@ZombieTypes)"
					} ]
			}
		}, {
			"aliases": [ "Wave11" ],
			"objclass": "SpawnZombiesJitteredWaveActionProps",
			"objdata": {
				"AdditionalPlantfood": 1,
				"DynamicPlantfood": [ 1, 1, 1, 1, 1, 0, 0 ],
				"Zombies": [ {
						"Row": "5",
						"Type": "RTID(poncho@ZombieTypes)"
					}, {
						"Row": "3",
						"Type": "RTID(poncho_plate@ZombieTypes)"
					} ]
			}
		}, {
			"aliases": [ "Wave12" ],
			"objclass": "SpawnZombiesJitteredWaveActionProps",
			"objdata": {
				"Zombies": [ {
						"Row": "2",
						"Type": "RTID(poncho_no_plate@ZombieTypes)"
					}, {
						"Type": "RTID(cowboy@ZombieTypes)"
					}, {
						"Type": "RTID(cowboy_armor1@ZombieTypes)"
					}, {
						"Row": "4",
						"Type": "RTID(poncho@ZombieTypes)"
					} ]
			}
		}, {
			"aliases": [ "Wave13" ],
			"objclass": "SpawnZombiesJitteredWaveActionProps",
			"objdata": {
				"Zombies": [ {
						"Type": "RTID(cowboy@ZombieTypes)"
					}, {
						"Type": "RTID(cowboy_armor1@ZombieTypes)"
					}, {
						"Type": "RTID(cowboy@ZombieTypes)"
					}, {
						"Type": "RTID(poncho_no_plate@ZombieTypes)"
					} ]
			}
		}, {
			"aliases": [ "Wave14" ],
			"objclass": "SpawnZombiesJitteredWaveActionProps",
			"objdata": {
				"Zombies": [ {
						"Type": "RTID(poncho_plate@ZombieTypes)"
					}, {
						"Type": "RTID(cowboy_armor1@ZombieTypes)"
					}, {
						"Type": "RTID(cowboy@ZombieTypes)"
					} ]
			}
		}, {
			"aliases": [ "Wave15" ],
			"objclass": "SpawnZombiesJitteredWaveActionProps",
			"objdata": {
				"AdditionalPlantfood": 1,
				"Zombies": [ {
						"Type": "RTID(poncho@ZombieTypes)"
					}, {
						"Type": "RTID(cowboy@ZombieTypes)"
					}, {
						"Type": "RTID(cowboy@ZombieTypes)"
					}, {
						"Type": "RTID(cowboy@ZombieTypes)"
					}, {
						"Type": "RTID(cowboy_armor1@ZombieTypes)"
					} ]
			}
		}, {
			"aliases": [ "Wave16" ],
			"objclass": "SpawnZombiesJitteredWaveActionProps",
			"objdata": {
				"AdditionalPlantfood": 1,
				"DynamicPlantfood": [ 1, 1, 1, 1, 0, 0, 0 ],
				"Zombies": [ {
						"Type": "RTID(west_bull@ZombieTypes)"
					}, {
						"Type": "RTID(cowboy@ZombieTypes)"
					}, {
						"Type": "RTID(poncho_plate@ZombieTypes)"
					}, {
						"Type": "RTID(cowboy@ZombieTypes)"
					}, {
						"Type": "RTID(cowboy_armor1@ZombieTypes)"
					}, {
						"Type": "RTID(cowboy@ZombieTypes)"
					}, {
						"Type": "RTID(poncho_no_plate@ZombieTypes)"
					}, {
						"Type": "RTID(poncho@ZombieTypes)"
					} ]
			}
		}, {
			"aliases": [ "PerkActivator" ],
			"objclass": "PerkHandlerModuleProperties",
			"objdata": {}
		}, {
			"aliases": [ "LevelMutator" ],
			"objclass": "LevelMutatorModuleProperties",
			"objdata": {
				"MutatorTables": [ "RTID(MutatorPropsRift_Worlds@LevelMutatorTables)", "RTID(LocalChallengeMutator@CurrentLevel)", "RTID(LocalMainChallengeMutator@CurrentLevel)" ]
			}
		}, {
			"aliases": [ "LocalMainChallengeMutator" ],
			"objclass": "LevelMutatorTableProps",
			"objdata": {
				"Tables": [ {
						"Level": 0,
						"ModuleType": "mainchallenge",
						"Modules": [ "RTID(RiftBeatTheLevelChallenge@LevelModules)" ]
					}, {
						"Level": 1,
						"ModuleType": "mainchallenge",
						"Modules": [ "RTID(RiftBeatTheLevelChallenge@LevelModules)" ]
					}, {
						"Level": 2,
						"ModuleType": "mainchallenge",
						"Modules": [ "RTID(RiftBeatTheLevelChallenge@LevelModules)" ]
					} ]
			}
		}, {
			"aliases": [ "LocalChallengeMutator" ],
			"objclass": "LevelMutatorTableProps",
			"objdata": {
				"Tables": [ {
						"Level": 0,
						"ModuleType": "bonuschallenge",
						"Modules": [ "RTID(ZombieDistance@CurrentLevel)" ]
					}, {
						"Level": 1,
						"ModuleType": "bonuschallenge",
						"Modules": [ "RTID(ZombieDistance@CurrentLevel)", "RTID(SunUsed2@CurrentLevel)" ]
					}, {
						"Level": 2,
						"ModuleType": "bonuschallenge",
						"Modules": [ "RTID(ZombieDistance@CurrentLevel)", "RTID(SunUsed3@CurrentLevel)" ]
					} ]
			}
		}, {
			"aliases": [ "ZombieDistance" ],
			"objclass": "StarChallengeZombieDistanceProps",
			"objdata": {
				"TargetDistance": 4
			}
		}, {
			"aliases": [ "SunUsed2" ],
			"objclass": "StarChallengeSunUsedProps",
			"objdata": {
				"MaximumSun": 2000
			}
		}, {
			"aliases": [ "SunUsed3" ],
			"objclass": "StarChallengeSunUsedProps",
			"objdata": {
				"MaximumSun": 1500
			}
		}, {
			"aliases": [ "SimultaneousPlants3" ],
			"objclass": "StarChallengeSimultaneousPlantsProps",
			"objdata": {
				"MaximumPlants": 15
			}
		}, {
			"aliases": [ "LevelDifficultyScaling" ],
			"objclass": "LevelDifficultyScalingModuleProperties",
			"objdata": {
				"DifficultyRulesType": "RiftDifficulty",
				"ZombieLevelSwaps": [ {
						"Level": 0,
						"Swaps": [ {
								"From": "RTID(cowboy@ZombieTypes)",
								"To": [ "RTID(cowboy@ZombieTypes)" ]
							}, {
								"From": "RTID(cowboy_armor1@ZombieTypes)",
								"To": [ "RTID(cowboy_armor1@ZombieTypes)" ]
							}, {
								"From": "RTID(cowboy_armor2@ZombieTypes)",
								"To": [ "RTID(cowboy_armor2@ZombieTypes)" ]
							} ]
					}, {
						"Level": 4,
						"Swaps": [ {
								"From": "RTID(cowboy@ZombieTypes)",
								"To": [ "RTID(cowboy@ZombieTypes)", "RTID(cowboy_armor1@ZombieTypes)" ]
							}, {
								"From": "RTID(cowboy_armor1@ZombieTypes)",
								"To": [ "RTID(cowboy_armor1@ZombieTypes)", "RTID(cowboy_armor2@ZombieTypes)", "RTID(chicken_farmer@ZombieTypes)" ]
							}, {
								"From": "RTID(cowboy_armor2@ZombieTypes)",
								"To": [ "RTID(cowboy_armor2@ZombieTypes)", "RTID(cowboy_armor4@ZombieTypes)", "RTID(chicken_farmer@ZombieTypes)" ]
							} ]
					}, {
						"Level": 7,
						"Swaps": [ {
								"From": "RTID(cowboy@ZombieTypes)",
								"To": [ "RTID(cowboy_armor1@ZombieTypes)", "RTID(cowboy_armor2@ZombieTypes)" ]
							}, {
								"From": "RTID(cowboy_armor1@ZombieTypes)",
								"To": [ "RTID(cowboy_armor2@ZombieTypes)", "RTID(chicken_farmer@ZombieTypes)", "RTID(cowboy_armor4@ZombieTypes)" ]
							}, {
								"From": "RTID(cowboy_armor2@ZombieTypes)",
								"To": [ "RTID(cowboy_armor4@ZombieTypes)", "RTID(cowboy_armor4@ZombieTypes)", "RTID(cowboy_armor4@ZombieTypes)", "RTID(chicken_farmer@ZombieTypes)" ]
							} ]
					} ]
			}
		} ],
	"version": 1
}