{
	"#comment": "Cowboy 33 v1",
	"objects": [
		{
			"objclass": "LevelDefinition",
			"objdata": {
				"Description": "[PLAYERS_TRIP_TO_RIFT]",
				"LevelNumber": "",
				"DisablePlantBoosts": false,
				"Loot": "",
				"Modules": [
					"RTID(DefaultSunDropper@LevelModules)",
					"RTID(StandardRiftIntro@LevelModules)",
					"RTID(ZombiesDeadWinCon@LevelModules)",
					"RTID(WestMowers@LevelModules)",
					"RTID(SeedBank@CurrentLevel)",
					"RTID(DefaultZombieWinCondition@LevelModules)",
					"RTID(NewWaves@CurrentLevel)",
					"RTID(Rails@CurrentLevel)",
					"RTID(PerkActivator@CurrentLevel)",
					"RTID(WaveDuplicator@CurrentLevel)",
					"RTID(WaveDistributor@CurrentLevel)",
					"RTID(FrozenPlantPlacement@CurrentLevel)",
					"RTID(LevelDifficultyScaling@CurrentLevel)"
				],
				"MusicType": "MiniGame_A",
				"Name": "[RIFT_LEVEL_NAME]",
				"NormalPresentTable": "egypt_normal_01",
				"ShinyPresentTable": "egypt_shiny_01",
				"VictoryModule": "RTID(RiftOutro@LevelModules)",
				"StageModule": "RTID(WestStage@LevelModules)",
				"LevelMutator": "RTID(LevelMutator@CurrentLevel)",
				"PerksDisabledInLevel": [
					"moarscore",
					"bossbustercannon"
				],
				"PerksDisabledPerDifficulty": [
					[
						"zombieinhibitorballista"
					],
					[],
					[]
				]
			}
		},
		{
			"aliases": [
				"FrozenPlantPlacement"
			],
			"objclass": "InitialPlantProperties",
			"objdata": {
				"InitialPlantPlacements": [
					{
						"GridX": 2,
						"GridY": 0,
						"Level": -1,
						"TypeName": "twinsunflower"
					},
					{
						"GridX": 2,
						"GridY": 1,
						"Level": -1,
						"TypeName": "twinsunflower"
					},
					{
						"GridX": 2,
						"GridY": 2,
						"Level": -1,
						"TypeName": "twinsunflower"
					},
					{
						"GridX": 2,
						"GridY": 3,
						"Level": -1,
						"TypeName": "twinsunflower"
					},
					{
						"GridX": 2,
						"GridY": 4,
						"Level": -1,
						"TypeName": "twinsunflower"
					},
					{
						"GridX": 2,
						"GridY": 0,
						"Level": -1,
						"TypeName": "pumpkin"
					},
					{
						"GridX": 2,
						"GridY": 1,
						"Level": -1,
						"TypeName": "pumpkin"
					},
					{
						"GridX": 2,
						"GridY": 2,
						"Level": -1,
						"TypeName": "pumpkin"
					},
					{
						"GridX": 2,
						"GridY": 3,
						"Level": -1,
						"TypeName": "pumpkin"
					},
					{
						"GridX": 2,
						"GridY": 4,
						"Level": -1,
						"TypeName": "pumpkin"
					}
				]
			}
		},
		{
			"aliases": [
				"WaveDuplicator"
			],
			"objclass": "WaveDuplicatorModuleProperties",
			"objdata": {
				"PeriodOfWavesToLoop": 4,
				"WaveSetsToAppend": 20
			}
		},
		{
			"aliases": [
				"WaveDistributor"
			],
			"objclass": "WaveDistributorModuleProperties",
			"objdata": {
				"WavesToDistribute": [
					"RTID(DynamicZombies@CurrentLevel)"
				],
				"Count": 10,
				"Pattern": "even"
			}
		},
		{
			"aliases": [
				"DynamicZombies"
			],
			"objclass": "SpawnZombiesJitteredWaveActionProps",
			"objdata": {
				"AdditionalPlantfood": 0,
				"Zombies": [
					{
						"Type": "RTID(chicken_battlez@ZombieTypes)"
					},
					{
						"Type": "RTID(chicken_farmer@ZombieTypes)"
					}
				]
			}
		},
		{
			"aliases": [
				"PerkActivator"
			],
			"objclass": "PerkHandlerModuleProperties",
			"objdata": {}
		},
		{
			"aliases": [
				"LevelMutator"
			],
			"objclass": "LevelMutatorModuleProperties",
			"objdata": {
				"MutatorTables": [
					"RTID(MutatorPropsRiftNormal@LevelMutatorTables)",
					"RTID(LocalChallengeMutator@CurrentLevel)",
					"RTID(LocalMainChallengeMutator@CurrentLevel)"
				]
			}
		},
		{
			"aliases": [
				"LocalMainChallengeMutator"
			],
			"objclass": "LevelMutatorTableProps",
			"objdata": {
				"Tables": [
					{
						"Level": 0,
						"Modules": [
							"RTID(LevelTimer@CurrentLevel)"
						],
						"ModuleType": "mainchallenge"
					},
					{
						"Level": 1,
						"Modules": [
							"RTID(LevelTimer@CurrentLevel)"
						],
						"ModuleType": "mainchallenge"
					},
					{
						"Level": 2,
						"Modules": [
							"RTID(LevelTimer@CurrentLevel)"
						],
						"ModuleType": "mainchallenge"
					}
				]
			}
		},
		{
			"aliases": [
				"LevelTimer"
			],
			"objclass": "StarChallengeLevelTimerProperties",
			"objdata": {
				"TimeLimit": 150
			}
		},
		{
			"aliases": [
				"LocalChallengeMutator"
			],
			"objclass": "LevelMutatorTableProps",
			"objdata": {
				"Tables": [
					{
						"Level": 0,
						"Modules": [
							"RTID(DefeatZombiesOfType1@CurrentLevel)"
						],
						"ModuleType": "bonuschallenge"
					},
					{
						"Level": 1,
						"Modules": [
							"RTID(DefeatZombiesOfType2@CurrentLevel)",
							"RTID(ZombieDistance2@CurrentLevel)"
						],
						"ModuleType": "bonuschallenge"
					},
					{
						"Level": 2,
						"Modules": [
							"RTID(DefeatZombiesOfType3@CurrentLevel)",
							"RTID(ZombieDistance3@CurrentLevel)"
						],
						"ModuleType": "bonuschallenge"
					}
				]
			}
		},
		{
			"aliases": [
				"ZombieDistance2"
			],
			"objclass": "StarChallengeZombieDistanceProps",
			"objdata": {
				"TargetDistance": 3
			}
		},
		{
			"aliases": [
				"ZombieDistance3"
			],
			"objclass": "StarChallengeZombieDistanceProps",
			"objdata": {
				"TargetDistance": 5
			}
		},
		{
			"aliases": [
				"DefeatZombiesOfType1"
			],
			"objclass": "DefeatZombiesOfTypeChallengeProps",
			"objdata": {
				"Description": "[DEFEAT_X_CHICKENS]",
				"TypesToKill": {
					"ListType": "includelist",
					"List": [
						"chicken",
						"chicken_battlez"
					]
				},
				"NumZombiesToKill": 999
			}
		},
		{
			"aliases": [
				"DefeatZombiesOfType2"
			],
			"objclass": "DefeatZombiesOfTypeChallengeProps",
			"objdata": {
				"Description": "[DEFEAT_X_CHICKENS]",
				"TypesToKill": {
					"ListType": "includelist",
					"List": [
						"chicken",
						"chicken_battlez"
					]
				},
				"NumZombiesToKill": 950
			}
		},
		{
			"aliases": [
				"DefeatZombiesOfType3"
			],
			"objclass": "DefeatZombiesOfTypeChallengeProps",
			"objdata": {
				"Description": "[DEFEAT_X_CHICKENS]",
				"TypesToKill": {
					"ListType": "includelist",
					"List": [
						"chicken",
						"chicken_battlez"
					]
				},
				"NumZombiesToKill": 850
			}
		},
		{
			"aliases": [
				"LevelDifficultyScaling"
			],
			"objclass": "LevelDifficultyScalingModuleProperties",
			"objdata": {
				"DifficultyRulesType": "RiftDifficulty",
				"ZombieLevelSwaps": [
					{
						"Level": 0,
						"Swaps": [
							{
								"From": "RTID(poncho_plate@ZombieTypes)",
								"To": [
									"RTID(roman_imp@ZombieTypes)",
									"RTID(roman@ZombieTypes)",
									"RTID(poncho_plate@ZombieTypes)"
								]
							},
							{
								"From": "RTID(prospector@ZombieTypes)",
								"To": [
									"RTID(roman_shield_triad@ZombieTypes)",
									"RTID(prospector@ZombieTypes)"
								]
							},
							{
								"From": "RTID(cowboy_gargantuar@ZombieTypes)",
								"To": [
									"RTID(cowboy_gargantuar@ZombieTypes)",
									"RTID(roman_gargantuar@ZombieTypes)",
									"RTID(roman_armor1@ZombieTypes)",
									"RTID(roman_armor2@ZombieTypes)",
									"RTID(roman_shield_triad@ZombieTypes)"
								]
							},
							{
								"From": "RTID(west_bull_veteran@ZombieTypes)",
								"To": [
									"RTID(west_bull@ZombieTypes)",
									"RTID(roman_shield_triad@ZombieTypes)"
								]
							},
							{
								"From": "RTID(cowboy_armor4@ZombieTypes)",
								"To": [
									"RTID(roman_shield_triad@ZombieTypes)",
									"RTID(cowboy_armor4@ZombieTypes)",
									"RTID(poncho_plate@ZombieTypes)",
									"RTID(roman_armor2@ZombieTypes)"
								]
							},
							{
								"From": "RTID(piano@ZombieTypes)",
								"To": [
									"RTID(roman_ballista@ZombieTypes)"
								]
							},
							{
								"From": "RTID(piano@ZombieTypes)",
								"To": [
									"RTID(piano@ZombieTypes)"
								]
							}
						]
					},
					{
						"Level": 4,
						"Swaps": [
							{
								"From": "RTID(poncho_plate@ZombieTypes)",
								"To": [
									"RTID(roman_armor2@ZombieTypes)",
									"RTID(roman_armor1@ZombieTypes)",
									"RTID(poncho_plate@ZombieTypes)"
								]
							},
							{
								"From": "RTID(prospector@ZombieTypes)",
								"To": [
									"RTID(roman_shield_triad@ZombieTypes)",
									"RTID(prospector@ZombieTypes)"
								]
							},
							{
								"From": "RTID(cowboy_gargantuar@ZombieTypes)",
								"To": [
									"RTID(cowboy_gargantuar@ZombieTypes)",
									"RTID(roman_gargantuar@ZombieTypes)",
									"RTID(roman_ballista@ZombieTypes)"
								]
							},
							{
								"From": "RTID(west_bull_veteran@ZombieTypes)",
								"To": [
									"RTID(west_bull@ZombieTypes)",
									"RTID(west_bull@ZombieTypes)",
									"RTID(west_bull@ZombieTypes)",
									"RTID(west_bull@ZombieTypes)",
									"RTID(west_bull_veteran@ZombieTypes)"
								]
							},
							{
								"From": "RTID(cowboy_armor4@ZombieTypes)",
								"To": [
									"RTID(roman_shield_triad@ZombieTypes)",
									"RTID(cowboy_armor4@ZombieTypes)",
									"RTID(cowboy_armor4@ZombieTypes)",
									"RTID(cowboy_armor4@ZombieTypes)",
									"RTID(poncho_plate@ZombieTypes)",
									"RTID(roman_armor2@ZombieTypes)"
								]
							},
							{
								"From": "RTID(piano@ZombieTypes)",
								"To": [
									"RTID(piano@ZombieTypes)",
									"RTID(roman_ballista@ZombieTypes)"
								]
							}
						]
					},
					{
						"Level": 7,
						"Swaps": [
							{
								"From": "RTID(poncho_plate@ZombieTypes)",
								"To": [
									"RTID(poncho_plate@ZombieTypes)",
									"RTID(roman_armor2@ZombieTypes)",
									"RTID(roman_shield_triad@ZombieTypes)"
								]
							},
							{
								"From": "RTID(cowboy_gargantuar@ZombieTypes)",
								"To": [
									"RTID(roman_gargantuar@ZombieTypes)"
								]
							},
							{
								"From": "RTID(west_bull@ZombieTypes)",
								"To": [
									"RTID(west_bull_veteran@ZombieTypes)",
									"RTID(west_bull_veteran@ZombieTypes)",
									"RTID(west_bull@ZombieTypes)"
								]
							},
							{
								"From": "RTID(cowboy_armor4@ZombieTypes)",
								"To": [
									"RTID(cowboy_armor4@ZombieTypes)"
								]
							},
							{
								"From": "RTID(piano@ZombieTypes)",
								"To": [
									"RTID(roman_ballista@ZombieTypes)"
								]
							}
						]
					}
				]
			}
		},
		{
			"aliases": [
				"SeedBank"
			],
			"objclass": "SeedBankProperties",
			"objdata": {
				"ExcludeListSunProducers": true,
				"PlantExcludeList": [],
				"SelectionMethod": "chooser"
			}
		},
		{
			"aliases": [
				"Rails"
			],
			"objclass": "RailcartProperties",
			"objdata": {
				"RailcartType": "railcart_cowboy",
				"Railcarts": [
					{
						"Column": 1,
						"Row": 1
					},
					{
						"Column": 3,
						"Row": 3
					},
					{
						"Column": 4,
						"Row": 1
					}
				],
				"Rails": [
					{
						"Column": 1,
						"RowEnd": 2,
						"RowStart": 0
					},
					{
						"Column": 3,
						"RowEnd": 4,
						"RowStart": 2
					},
					{
						"Column": 4,
						"RowEnd": 1,
						"RowStart": 0
					}
				]
			}
		},
		{
			"aliases": [
				"NewWaves"
			],
			"objclass": "WaveManagerModuleProperties",
			"objdata": {
				"DynamicZombies": [
					{
						"PointIncrementPerWave": 0,
						"StartingPoints": 0,
						"StartingWave": 0,
						"ZombiePool": []
					},
					{
						"PointIncrementPerWave": 0,
						"StartingPoints": 0,
						"StartingWave": 0,
						"ZombiePool": []
					},
					{
						"PointIncrementPerWave": 0,
						"StartingPoints": 0,
						"StartingWave": 0,
						"ZombiePool": []
					},
					{
						"MaxPoints": 750,
						"PointIncrementPerWave": 75,
						"StartingPoints": 50,
						"StartingWave": 2,
						"ZombiePool": [
							"RTID(chicken_battlez@ZombieTypes)"
						]
					},
					{
						"PointIncrementPerWave": 0,
						"StartingPoints": 0,
						"StartingWave": 0,
						"ZombiePool": []
					},
					{
						"PointIncrementPerWave": 0,
						"StartingPoints": 0,
						"StartingWave": 0,
						"ZombiePool": []
					},
					{
						"PointIncrementPerWave": 0,
						"StartingPoints": 0,
						"StartingWave": 0,
						"ZombiePool": []
					}
				],
				"WaveManagerProps": "RTID(WaveManagerProps@CurrentLevel)"
			}
		},
		{
			"aliases": [
				"WaveManagerProps"
			],
			"objclass": "WaveManagerProperties",
			"objdata": {
				"FlagWaveInterval": 4,
				"FlagWaveVeteranOverrideTypes": [
					1,
					1,
					1
				],
				"WaveCount": 12,
				"WaveSpendingPointIncrement": 300,
				"WaveSpendingPoints": 600,
				"Waves": [
					[
						"RTID(Wave1@CurrentLevel)"
					],
					[
						"RTID(Wave2@CurrentLevel)"
					],
					[
						"RTID(Wave3@CurrentLevel)"
					],
					[
						"RTID(Wave4@CurrentLevel)"
					],
					[
						"RTID(Wave5@CurrentLevel)"
					],
					[
						"RTID(Wave6@CurrentLevel)"
					],
					[
						"RTID(Wave7@CurrentLevel)"
					],
					[
						"RTID(Wave8@CurrentLevel)"
					],
					[
						"RTID(Wave9@CurrentLevel)"
					],
					[
						"RTID(Wave10@CurrentLevel)"
					],
					[
						"RTID(Wave11@CurrentLevel)"
					],
					[
						"RTID(Wave12@CurrentLevel)"
					]
				],
				"WavesAlwaysRandomized": true
			}
		},
		{
			"aliases": [
				"Wave1"
			],
			"objclass": "SpawnZombiesJitteredWaveActionProps",
			"objdata": {
				"AdditionalPlantfood": 0,
				"Zombies": [
					{
						"Type": "RTID(cowboy_armor4@ZombieTypes)"
					}
				]
			}
		},
		{
			"aliases": [
				"Wave2"
			],
			"objclass": "SpawnZombiesJitteredWaveActionProps",
			"objdata": {
				"Zombies": [
					{
						"Type": "RTID(west_bull@ZombieTypes)"
					},
					{
						"Type": "RTID(chicken_farmer@ZombieTypes)"
					}
				]
			}
		},
		{
			"aliases": [
				"Wave3"
			],
			"objclass": "SpawnZombiesJitteredWaveActionProps",
			"objdata": {
				"AdditionalPlantfood": 1,
				"Zombies": [
					{
						"Type": "RTID(west_bull_veteran@ZombieTypes)"
					}
				]
			}
		},
		{
			"aliases": [
				"Wave4"
			],
			"objclass": "SpawnZombiesJitteredWaveActionProps",
			"objdata": {
				"AdditionalPlantfood": 0,
				"Zombies": [
					{
						"Row": "5",
						"Type": "RTID(west_bull_veteran@ZombieTypes)"
					},
					{
						"Row": "3",
						"Type": "RTID(west_bull_veteran@ZombieTypes)"
					},
					{
						"Row": "1",
						"Type": "RTID(west_bull_veteran@ZombieTypes)"
					}
				]
			}
		},
		{
			"aliases": [
				"Wave5"
			],
			"objclass": "SpawnZombiesJitteredWaveActionProps",
			"objdata": {
				"AdditionalPlantfood": 1,
				"Zombies": [
					{
						"Row": "4",
						"Type": "RTID(piano@ZombieTypes)"
					},
					{
						"Row": "4",
						"Type": "RTID(chicken_farmer@ZombieTypes)"
					},
					{
						"Row": "3",
						"Type": "RTID(chicken_farmer@ZombieTypes)"
					},
					{
						"Row": "2",
						"Type": "RTID(chicken_farmer@ZombieTypes)"
					},
					{
						"Row": "1",
						"Type": "RTID(chicken_farmer@ZombieTypes)"
					},
					{
						"Row": "5",
						"Type": "RTID(chicken_farmer@ZombieTypes)"
					},
					{
						"Row": "5",
						"Type": "RTID(chicken_farmer@ZombieTypes)"
					}
				]
			}
		},
		{
			"aliases": [
				"Wave6"
			],
			"objclass": "SpawnZombiesJitteredWaveActionProps",
			"objdata": {
				"AdditionalPlantfood": 0,
				"Zombies": [
					{
						"Row": "3",
						"Type": "RTID(poncho_plate@ZombieTypes)"
					},
					{
						"Row": "2",
						"Type": "RTID(cowboy_armor4@ZombieTypes)"
					},
					{
						"Row": "4",
						"Type": "RTID(cowboy_armor4@ZombieTypes)"
					},
					{
						"Row": "3",
						"Type": "RTID(piano@ZombieTypes)"
					},
					{
						"Row": "3",
						"Type": "RTID(poncho_plate@ZombieTypes)"
					}
				]
			}
		},
		{
			"aliases": [
				"Wave7"
			],
			"objclass": "SpawnZombiesJitteredWaveActionProps",
			"objdata": {
				"Zombies": [
					{
						"Type": "RTID(cowboy_gargantuar@ZombieTypes)"
					},
					{
						"Row": "3",
						"Type": "RTID(chicken_farmer@ZombieTypes)"
					},
					{
						"Row": "3",
						"Type": "RTID(prospector@ZombieTypes)"
					}
				]
			}
		},
		{
			"aliases": [
				"Wave8"
			],
			"objclass": "SpawnZombiesJitteredWaveActionProps",
			"objdata": {
				"AdditionalPlantfood": 1,
				"Zombies": [
					{
						"Row": "5",
						"Type": "RTID(west_bull_veteran@ZombieTypes)"
					},
					{
						"Row": "4",
						"Type": "RTID(west_bull_veteran@ZombieTypes)"
					},
					{
						"Row": "3",
						"Type": "RTID(west_bull_veteran@ZombieTypes)"
					},
					{
						"Row": "2",
						"Type": "RTID(west_bull_veteran@ZombieTypes)"
					},
					{
						"Row": "1",
						"Type": "RTID(west_bull_veteran@ZombieTypes)"
					},
					{
						"Row": "1",
						"Type": "RTID(piano@ZombieTypes)"
					}
				]
			}
		},
		{
			"aliases": [
				"Wave9"
			],
			"objclass": "SpawnZombiesJitteredWaveActionProps",
			"objdata": {
				"AdditionalPlantfood": 0,
				"Zombies": [
					{
						"Row": "1",
						"Type": "RTID(prospector@ZombieTypes)"
					},
					{
						"Row": "2",
						"Type": "RTID(prospector@ZombieTypes)"
					},
					{
						"Row": "3",
						"Type": "RTID(chicken_farmer@ZombieTypes)"
					},
					{
						"Row": "4",
						"Type": "RTID(prospector@ZombieTypes)"
					},
					{
						"Row": "5",
						"Type": "RTID(prospector@ZombieTypes)"
					},
					{
						"Row": "4",
						"Type": "RTID(chicken_farmer@ZombieTypes)"
					},
					{
						"Row": "2",
						"Type": "RTID(chicken_farmer@ZombieTypes)"
					},
					{
						"Row": "3",
						"Type": "RTID(chicken_farmer@ZombieTypes)"
					}
				]
			}
		},
		{
			"aliases": [
				"Wave10"
			],
			"objclass": "SpawnZombiesJitteredWaveActionProps",
			"objdata": {
				"AdditionalPlantfood": 0,
				"Zombies": [
					{
						"Row": "5",
						"Type": "RTID(piano@ZombieTypes)"
					},
					{
						"Row": "1",
						"Type": "RTID(chicken_farmer@ZombieTypes)"
					},
					{
						"Row": "2",
						"Type": "RTID(prospector@ZombieTypes)"
					},
					{
						"Row": "3",
						"Type": "RTID(prospector@ZombieTypes)"
					},
					{
						"Row": "4",
						"Type": "RTID(prospector@ZombieTypes)"
					},
					{
						"Row": "5",
						"Type": "RTID(chicken_farmer@ZombieTypes)"
					},
					{
						"Row": "2",
						"Type": "RTID(chicken_farmer@ZombieTypes)"
					},
					{
						"Row": "3",
						"Type": "RTID(chicken_farmer@ZombieTypes)"
					},
					{
						"Row": "4",
						"Type": "RTID(chicken_farmer@ZombieTypes)"
					}
				]
			}
		},
		{
			"aliases": [
				"Wave11"
			],
			"objclass": "SpawnZombiesJitteredWaveActionProps",
			"objdata": {
				"AdditionalPlantfood": 0,
				"Zombies": [
					{
						"Row": "1",
						"Type": "RTID(west_bull_veteran@ZombieTypes)"
					},
					{
						"Row": "5",
						"Type": "RTID(cowboy_gargantuar@ZombieTypes)"
					},
					{
						"Row": "5",
						"Type": "RTID(prospector@ZombieTypes)"
					}
				]
			}
		},
		{
			"aliases": [
				"Wave12"
			],
			"objclass": "SpawnZombiesJitteredWaveActionProps",
			"objdata": {
				"AdditionalPlantfood": 0,
				"Zombies": [
					{
						"Row": "3",
						"Type": "RTID(west_bull_veteran@ZombieTypes)"
					},
					{
						"Row": "4",
						"Type": "RTID(west_bull_veteran@ZombieTypes)"
					},
					{
						"Row": "2",
						"Type": "RTID(west_bull_veteran@ZombieTypes)"
					},
					{
						"Row": "5",
						"Type": "RTID(cowboy_armor4@ZombieTypes)"
					},
					{
						"Row": "3",
						"Type": "RTID(cowboy_armor4@ZombieTypes)"
					},
					{
						"Row": "1",
						"Type": "RTID(cowboy_armor4@ZombieTypes)"
					},
					{
						"Row": "1",
						"Type": "RTID(cowboy_armor4@ZombieTypes)"
					},
					{
						"Row": "4",
						"Type": "RTID(chicken_farmer@ZombieTypes)"
					},
					{
						"Row": "3",
						"Type": "RTID(chicken_farmer@ZombieTypes)"
					},
					{
						"Row": "2",
						"Type": "RTID(chicken_farmer@ZombieTypes)"
					},
					{
						"Row": "5",
						"Type": "RTID(prospector@ZombieTypes)"
					},
					{
						"Row": "1",
						"Type": "RTID(prospector@ZombieTypes)"
					},
					{
						"Row": "2",
						"Type": "RTID(prospector@ZombieTypes)"
					},
					{
						"Row": "3",
						"Type": "RTID(prospector@ZombieTypes)"
					},
					{
						"Row": "4",
						"Type": "RTID(prospector@ZombieTypes)"
					}
				]
			}
		}
	],
	"version": 1
}