{
	"#comment": "Dark 19",
	"objects": [
		{
			"objclass": "LevelDefinition",
			"objdata": {
				"Description": "[PLAYERS_TRIP_TO_RIFT]",
				"DisablePlantBoosts": false,
				"LevelNumber": "",
				"Loot": "",
				"Modules": [
					"RTID(DefaultSunDropper@LevelModules)",
					"RTID(StandardRiftIntro@LevelModules)",
					"RTID(ZombiesDeadWinCon@LevelModules)",
					"RTID(DarkMowers@LevelModules)",
					"RTID(Gravestones@CurrentLevel)",
					"RTID(SeedBank@CurrentLevel)",
					"RTID(DefaultZombieWinCondition@LevelModules)",
					"RTID(NewWaves@CurrentLevel)",
					"RTID(PerkActivator@CurrentLevel)",
					"RTID(LevelDifficultyScaling@CurrentLevel)"
				],
				"MusicType": "MiniGame_B",
				"Name": "[RIFT_LEVEL_NAME]",
				"NormalPresentTable": "egypt_normal_01",
				"ShinyPresentTable": "egypt_shiny_01",
				"VictoryModule": "RTID(RiftOutro@LevelModules)",
				"StageModule": "RTID(DarkStage@LevelModules)",
				"LevelMutator": "RTID(LevelMutator@CurrentLevel)",
				"PerksDisabledInLevel": [
					"moarscore",
					"bossbustercannon"
				],
				"PerksDisabledPerDifficulty": [
					[
						"zombieinhibitorballista"
					],
					[],
					[]
				]
			}
		},
		{
			"aliases": [
				"PerkActivator"
			],
			"objclass": "PerkHandlerModuleProperties",
			"objdata": {}
		},
		{
			"aliases": [
				"LevelMutator"
			],
			"objclass": "LevelMutatorModuleProperties",
			"objdata": {
				"MutatorTables": [
					"RTID(MutatorPropsRiftNormal@LevelMutatorTables)",
					"RTID(LocalChallengeMutator@CurrentLevel)",
					"RTID(LocalMainChallengeMutator@CurrentLevel)"
				]
			}
		},
		{
			"aliases": [
				"LocalMainChallengeMutator"
			],
			"objclass": "LevelMutatorTableProps",
			"objdata": {
				"Tables": [
					{
						"Level": 0,
						"Modules": [
							"RTID(BeatTheLevel@CurrentLevel)"
						],
						"ModuleType": "mainchallenge"
					},
					{
						"Level": 1,
						"Modules": [
							"RTID(BeatTheLevel@CurrentLevel)"
						],
						"ModuleType": "mainchallenge"
					},
					{
						"Level": 2,
						"Modules": [
							"RTID(BeatTheLevel@CurrentLevel)"
						],
						"ModuleType": "mainchallenge"
					}
				]
			}
		},
		{
			"aliases": [
				"Gravestones"
			],
			"objclass": "GravestoneProperties",
			"objdata": {
				"ForceSpawnData": [
					{
						"GridX": 4,
						"GridY": 0,
						"TypeName": "gravestone_dark"
					},
					{
						"GridX": 7,
						"GridY": 1,
						"TypeName": "gravestone_dark"
					},
					{
						"GridX": 2,
						"GridY": 1,
						"TypeName": "gravestoneSunOnDestruction"
					},
					{
						"GridX": 8,
						"GridY": 2,
						"TypeName": "gravestoneSunOnDestruction"
					},
					{
						"GridX": 8,
						"GridY": 3,
						"TypeName": "gravestone_dark"
					},
					{
						"GridX": 3,
						"GridY": 4,
						"TypeName": "gravestoneSunOnDestruction"
					}
				]
			}
		},
		{
			"aliases": [
				"ProtectThePlant"
			],
			"objclass": "ProtectThePlantChallengeProperties",
			"objdata": {
				"MustProtectCount": 3,
				"Plants": [
					{
						"GridX": 5,
						"GridY": 0,
						"PlantType": "magnetshroom"
					},
					{
						"GridX": 5,
						"GridY": 2,
						"PlantType": "magnetshroom"
					},
					{
						"GridX": 5,
						"GridY": 4,
						"PlantType": "magnetshroom"
					}
				]
			}
		},
		{
			"aliases": [
				"LocalChallengeMutator"
			],
			"objclass": "LevelMutatorTableProps",
			"objdata": {
				"Tables": [
					{
						"Level": 0,
						"Modules": [
							"RTID(ProtectThePlant@CurrentLevel)"
						],
						"ModuleType": "bonuschallenge"
					},
					{
						"Level": 1,
						"Modules": [
							"RTID(ProtectThePlant@CurrentLevel)",
							"RTID(ZombieDistance2@CurrentLevel)"
						],
						"ModuleType": "bonuschallenge"
					},
					{
						"Level": 2,
						"Modules": [
							"RTID(ProtectThePlant@CurrentLevel)",
							"RTID(ZombieDistance3@CurrentLevel)"
						],
						"ModuleType": "bonuschallenge"
					}
				]
			}
		},
		{
			"aliases": [
				"ZombieDistance2"
			],
			"objclass": "StarChallengeZombieDistanceProps",
			"objdata": {
				"TargetDistance": 4
			}
		},
		{
			"aliases": [
				"ZombieDistance3"
			],
			"objclass": "StarChallengeZombieDistanceProps",
			"objdata": {
				"TargetDistance": 5
			}
		},
		{
			"aliases": [
				"LevelDifficultyScaling"
			],
			"objclass": "LevelDifficultyScalingModuleProperties",
			"objdata": {
				"DifficultyRulesType": "RiftDifficulty",
				"ZombieLevelSwaps": [
					{
						"Level": 0,
						"Swaps": [
							{
								"From": "RTID(dark@ZombieTypes)",
								"To": [
									"RTID(dark@ZombieTypes)"
								]
							},
							{
								"From": "RTID(dark_armor1@ZombieTypes)",
								"To": [
									"RTID(roman_armor1@ZombieTypes)",
									"RTID(roman@ZombieTypes)"
								]
							},
							{
								"From": "RTID(dark_armor2@ZombieTypes)",
								"To": [
									"RTID(dark_armor1@ZombieTypes)",
									"RTID(roman_armor2@ZombieTypes)"
								]
							},
							{
								"From": "RTID(dark_armor3@ZombieTypes)",
								"To": [
									"RTID(dark_armor2@ZombieTypes)",
									"RTID(roman_armor3@ZombieTypes)"
								]
							},
							{
								"From": "RTID(dark_gargantuar@ZombieTypes)",
								"To": [
									"RTID(dark_gargantuar@ZombieTypes)"
								]
							}
						]
					},
					{
						"Level": 4,
						"Swaps": [
							{
								"From": "RTID(dark@ZombieTypes)",
								"To": [
									"RTID(dark@ZombieTypes)",
									"RTID(roman_armor1@ZombieTypes)"
								]
							},
							{
								"From": "RTID(dark_armor1@ZombieTypes)",
								"To": [
									"RTID(dark_armor1@ZombieTypes)",
									"RTID(roman_armor2@ZombieTypes)"
								]
							},
							{
								"From": "RTID(dark_armor2@ZombieTypes)",
								"To": [
									"RTID(roman_armor2@ZombieTypes)",
									"RTID(dark_armor3@ZombieTypes)"
								]
							},
							{
								"From": "RTID(dark_armor3@ZombieTypes)",
								"To": [
									"RTID(dark_armor2@ZombieTypes)",
									"RTID(roman_armor3@ZombieTypes)",
									"RTID(roman_armor4@ZombieTypes)"
								]
							},
							{
								"From": "RTID(dark_gargantuar@ZombieTypes)",
								"To": [
									"RTID(roman_ballista@ZombieTypes)"
								]
							}
						]
					},
					{
						"Level": 7,
						"Swaps": [
							{
								"From": "RTID(dark@ZombieTypes)",
								"To": [
									"RTID(dark@ZombieTypes)",
									"RTID(roman_armor1@ZombieTypes)",
									"RTID(roman_armor2@ZombieTypes)"
								]
							},
							{
								"From": "RTID(dark_armor1@ZombieTypes)",
								"To": [
									"RTID(dark_armor2@ZombieTypes)",
									"RTID(roman_armor3@ZombieTypes)"
								]
							},
							{
								"From": "RTID(dark_armor2@ZombieTypes)",
								"To": [
									"RTID(roman_armor3@ZombieTypes)",
									"RTID(roman_armor4@ZombieTypes)"
								]
							},
							{
								"From": "RTID(dark_armor3@ZombieTypes)",
								"To": [
									"RTID(roman_armor3@ZombieTypes)",
									"RTID(roman_armor4@ZombieTypes)"
								]
							},
							{
								"From": "RTID(dark_gargantuar@ZombieTypes)",
								"To": [
									"RTID(roman_ballista@ZombieTypes)"
								]
							}
						]
					}
				]
			}
		},
		{
			"aliases": [
				"BeatTheLevel"
			],
			"objclass": "StarChallengeBeatTheLevelProps",
			"objdata": {
				"Description": "[STARCHALLENGE_RIFT_NORMAL]",
				"DescriptiveName": "[STARCHALLENGE_RIFT_NORMAL_NAME]"
			}
		},
		{
			"aliases": [
				"SeedBank"
			],
			"objclass": "SeedBankProperties",
			"objdata": {
				"SelectionMethod": "chooser"
			}
		},
		{
			"aliases": [
				"NewWaves"
			],
			"objclass": "WaveManagerModuleProperties",
			"objdata": {
				"DynamicZombies": [
					{
						"PointIncrementPerWave": -40,
						"StartingPoints": -100,
						"StartingWave": 3,
						"ZombiePool": [
							"RTID(dark@ZombieTypes)",
							"RTID(dark_armor1@ZombieTypes)",
							"RTID(dark_armor2@ZombieTypes)",
							"RTID(dark_armor3@ZombieTypes)",
							"RTID(dark_juggler@ZombieTypes)",
							"RTID(dark_king@ZombieTypes)",
							"RTID(dark_wizard@ZombieTypes)"
						]
					},
					{
						"PointIncrementPerWave": -25,
						"StartingPoints": -100,
						"StartingWave": 4,
						"ZombiePool": [
							"RTID(dark@ZombieTypes)",
							"RTID(dark_armor1@ZombieTypes)",
							"RTID(dark_armor2@ZombieTypes)",
							"RTID(dark_armor3@ZombieTypes)",
							"RTID(dark_juggler@ZombieTypes)",
							"RTID(dark_king@ZombieTypes)",
							"RTID(dark_wizard@ZombieTypes)"
						]
					},
					{
						"PointIncrementPerWave": -10,
						"StartingPoints": -100,
						"StartingWave": 5,
						"ZombiePool": [
							"RTID(dark@ZombieTypes)",
							"RTID(dark_armor1@ZombieTypes)",
							"RTID(dark_armor2@ZombieTypes)",
							"RTID(dark_armor3@ZombieTypes)",
							"RTID(dark_juggler@ZombieTypes)",
							"RTID(dark_king@ZombieTypes)",
							"RTID(dark_wizard@ZombieTypes)"
						]
					},
					{
						"MaxPoints": 1000,
						"PointIncrementPerWave": 100,
						"StartingPoints": 100,
						"StartingWave": 3,
						"ZombiePool": [
							"RTID(dark@ZombieTypes)",
							"RTID(dark_armor1@ZombieTypes)",
							"RTID(dark_armor2@ZombieTypes)",
							"RTID(dark_armor3@ZombieTypes)",
							"RTID(dark_juggler@ZombieTypes)",
							"RTID(dark_king@ZombieTypes)",
							"RTID(dark_wizard@ZombieTypes)"
						]
					},
					{
						"PointIncrementPerWave": 20,
						"StartingPoints": 100,
						"StartingWave": 5,
						"ZombiePool": [
							"RTID(dark@ZombieTypes)",
							"RTID(dark_armor1@ZombieTypes)",
							"RTID(dark_armor2@ZombieTypes)",
							"RTID(dark_armor3@ZombieTypes)",
							"RTID(dark_juggler@ZombieTypes)",
							"RTID(dark_king@ZombieTypes)",
							"RTID(dark_wizard@ZombieTypes)"
						]
					},
					{
						"PointIncrementPerWave": 40,
						"StartingPoints": 200,
						"StartingWave": 4,
						"ZombiePool": [
							"RTID(dark_armor1@ZombieTypes)",
							"RTID(dark_armor2@ZombieTypes)",
							"RTID(dark_armor3@ZombieTypes)",
							"RTID(dark_juggler@ZombieTypes)",
							"RTID(dark_king@ZombieTypes)",
							"RTID(dark_wizard@ZombieTypes)"
						]
					},
					{
						"PointIncrementPerWave": 60,
						"StartingPoints": 400,
						"StartingWave": 3,
						"ZombiePool": [
							"RTID(dark_armor2@ZombieTypes)",
							"RTID(dark_armor3@ZombieTypes)",
							"RTID(dark_juggler@ZombieTypes)",
							"RTID(dark_king@ZombieTypes)",
							"RTID(dark_wizard@ZombieTypes)"
						]
					}
				],
				"WaveManagerProps": "RTID(WaveManagerProps@CurrentLevel)"
			}
		},
		{
			"aliases": [
				"WaveManagerProps"
			],
			"objclass": "WaveManagerProperties",
			"objdata": {
				"FlagWaveInterval": 9,
				"SpawnColEnd": 9,
				"SpawnColStart": 3,
				"WaveCount": 18,
				"WaveSpendingPointIncrement": 75,
				"WaveSpendingPoints": 100,
				"Waves": [
					[
						"RTID(Wave1@CurrentLevel)"
					],
					[
						"RTID(Wave2@CurrentLevel)"
					],
					[
						"RTID(Wave3@CurrentLevel)"
					],
					[
						"RTID(Wave4@CurrentLevel)"
					],
					[
						"RTID(Wave5@CurrentLevel)"
					],
					[
						"RTID(Wave6@CurrentLevel)"
					],
					[
						"RTID(Wave7@CurrentLevel)"
					],
					[
						"RTID(Wave8@CurrentLevel)"
					],
					[
						"RTID(Wave9@CurrentLevel)",
						"RTID(Wave9GravestoneEvent0@CurrentLevel)"
					],
					[
						"RTID(Wave10@CurrentLevel)",
						"RTID(Wave10GraveSpawnEvent0@CurrentLevel)"
					],
					[
						"RTID(Wave11@CurrentLevel)"
					],
					[
						"RTID(Wave12@CurrentLevel)"
					],
					[
						"RTID(Wave13@CurrentLevel)"
					],
					[
						"RTID(Wave14@CurrentLevel)"
					],
					[
						"RTID(Wave15@CurrentLevel)"
					],
					[
						"RTID(Wave16@CurrentLevel)"
					],
					[
						"RTID(Wave17@CurrentLevel)"
					],
					[
						"RTID(Wave18@CurrentLevel)"
					]
				]
			}
		},
		{
			"aliases": [
				"Wave1"
			],
			"objclass": "SpawnZombiesJitteredWaveActionProps",
			"objdata": {
				"Zombies": [
					{
						"Type": "RTID(dark@ZombieTypes)"
					}
				]
			}
		},
		{
			"aliases": [
				"Wave2"
			],
			"objclass": "SpawnZombiesJitteredWaveActionProps",
			"objdata": {
				"Zombies": [
					{
						"Type": "RTID(dark@ZombieTypes)"
					},
					{
						"Type": "RTID(dark@ZombieTypes)"
					}
				]
			}
		},
		{
			"aliases": [
				"Wave3"
			],
			"objclass": "SpawnZombiesJitteredWaveActionProps",
			"objdata": {
				"Zombies": [
					{
						"Row": "3",
						"Type": "RTID(dark_armor3@ZombieTypes)"
					},
					{
						"Row": "5",
						"Type": "RTID(dark_armor3@ZombieTypes)"
					},
					{
						"Row": "1",
						"Type": "RTID(dark_armor3@ZombieTypes)"
					}
				]
			}
		},
		{
			"aliases": [
				"Wave4"
			],
			"objclass": "SpawnZombiesJitteredWaveActionProps",
			"objdata": {
				"Zombies": [
					{
						"Type": "RTID(dark@ZombieTypes)"
					},
					{
						"Type": "RTID(dark_armor1@ZombieTypes)"
					}
				]
			}
		},
		{
			"aliases": [
				"Wave5"
			],
			"objclass": "SpawnZombiesJitteredWaveActionProps",
			"objdata": {
				"Zombies": [
					{
						"Type": "RTID(dark@ZombieTypes)"
					},
					{
						"Type": "RTID(dark_armor1@ZombieTypes)"
					}
				]
			}
		},
		{
			"aliases": [
				"Wave6"
			],
			"objclass": "SpawnZombiesJitteredWaveActionProps",
			"objdata": {
				"Zombies": [
					{
						"Type": "RTID(dark_wizard@ZombieTypes)"
					},
					{
						"Type": "RTID(dark@ZombieTypes)"
					},
					{
						"Type": "RTID(dark@ZombieTypes)"
					},
					{
						"Type": "RTID(dark@ZombieTypes)"
					}
				]
			}
		},
		{
			"aliases": [
				"Wave7"
			],
			"objclass": "SpawnZombiesJitteredWaveActionProps",
			"objdata": {
				"Zombies": [
					{
						"Row": "3",
						"Type": "RTID(dark_king@ZombieTypes)"
					},
					{
						"Type": "RTID(dark_armor1@ZombieTypes)"
					}
				]
			}
		},
		{
			"aliases": [
				"Wave8"
			],
			"objclass": "SpawnZombiesJitteredWaveActionProps",
			"objdata": {
				"AdditionalPlantfood": 1,
				"Zombies": [
					{
						"Type": "RTID(dark@ZombieTypes)"
					},
					{
						"Row": "4",
						"Type": "RTID(dark_armor1@ZombieTypes)"
					},
					{
						"Row": "2",
						"Type": "RTID(dark_armor1@ZombieTypes)"
					}
				]
			}
		},
		{
			"aliases": [
				"Wave9"
			],
			"objclass": "SpawnZombiesJitteredWaveActionProps",
			"objdata": {
				"Zombies": [
					{
						"Row": "5",
						"Type": "RTID(dark_armor2@ZombieTypes)"
					},
					{
						"Row": "1",
						"Type": "RTID(dark_armor2@ZombieTypes)"
					},
					{
						"Row": "3",
						"Type": "RTID(dark_armor3@ZombieTypes)"
					}
				]
			}
		},
		{
			"aliases": [
				"Wave10"
			],
			"objclass": "SpawnZombiesJitteredWaveActionProps",
			"objdata": {
				"Zombies": [
					{
						"Type": "RTID(dark@ZombieTypes)"
					}
				]
			}
		},
		{
			"aliases": [
				"Wave11"
			],
			"objclass": "SpawnZombiesJitteredWaveActionProps",
			"objdata": {
				"Zombies": [
					{
						"Type": "RTID(dark_juggler@ZombieTypes)"
					},
					{
						"Type": "RTID(dark_juggler@ZombieTypes)"
					},
					{
						"Type": "RTID(dark_juggler@ZombieTypes)"
					}
				]
			}
		},
		{
			"aliases": [
				"Wave12"
			],
			"objclass": "SpawnZombiesJitteredWaveActionProps",
			"objdata": {
				"Zombies": [
					{
						"Row": "5",
						"Type": "RTID(dark_armor1@ZombieTypes)"
					},
					{
						"Row": "1",
						"Type": "RTID(dark_armor1@ZombieTypes)"
					},
					{
						"Type": "RTID(dark_armor2@ZombieTypes)"
					},
					{
						"Type": "RTID(dark_armor2@ZombieTypes)"
					}
				]
			}
		},
		{
			"aliases": [
				"Wave13"
			],
			"objclass": "SpawnZombiesJitteredWaveActionProps",
			"objdata": {
				"Zombies": [
					{
						"Row": "4",
						"Type": "RTID(dark_king@ZombieTypes)"
					},
					{
						"Row": "2",
						"Type": "RTID(dark_king@ZombieTypes)"
					},
					{
						"Type": "RTID(dark@ZombieTypes)"
					},
					{
						"Type": "RTID(dark@ZombieTypes)"
					},
					{
						"Type": "RTID(dark@ZombieTypes)"
					},
					{
						"Type": "RTID(dark@ZombieTypes)"
					}
				]
			}
		},
		{
			"aliases": [
				"Wave14"
			],
			"objclass": "SpawnZombiesJitteredWaveActionProps",
			"objdata": {
				"Zombies": [
					{
						"Row": "3",
						"Type": "RTID(dark_armor2@ZombieTypes)"
					},
					{
						"Row": "1",
						"Type": "RTID(dark_armor2@ZombieTypes)"
					},
					{
						"Row": "5",
						"Type": "RTID(dark_armor2@ZombieTypes)"
					}
				]
			}
		},
		{
			"aliases": [
				"Wave15"
			],
			"objclass": "SpawnZombiesJitteredWaveActionProps",
			"objdata": {
				"Zombies": [
					{
						"Type": "RTID(dark@ZombieTypes)"
					},
					{
						"Type": "RTID(dark@ZombieTypes)"
					},
					{
						"Type": "RTID(dark_wizard@ZombieTypes)"
					},
					{
						"Type": "RTID(dark_wizard@ZombieTypes)"
					},
					{
						"Type": "RTID(dark_wizard@ZombieTypes)"
					}
				]
			}
		},
		{
			"aliases": [
				"Wave16"
			],
			"objclass": "SpawnZombiesJitteredWaveActionProps",
			"objdata": {
				"Zombies": [
					{
						"Row": "4",
						"Type": "RTID(dark_armor1@ZombieTypes)"
					},
					{
						"Row": "2",
						"Type": "RTID(dark_armor1@ZombieTypes)"
					},
					{
						"Row": "5",
						"Type": "RTID(dark_armor3@ZombieTypes)"
					},
					{
						"Row": "1",
						"Type": "RTID(dark_armor3@ZombieTypes)"
					}
				]
			}
		},
		{
			"aliases": [
				"Wave17"
			],
			"objclass": "SpawnZombiesJitteredWaveActionProps",
			"objdata": {
				"Zombies": [
					{
						"Type": "RTID(dark_juggler@ZombieTypes)"
					},
					{
						"Type": "RTID(dark_juggler@ZombieTypes)"
					},
					{
						"Type": "RTID(dark_armor1@ZombieTypes)"
					},
					{
						"Type": "RTID(dark_armor1@ZombieTypes)"
					},
					{
						"Type": "RTID(dark_armor2@ZombieTypes)"
					}
				]
			}
		},
		{
			"aliases": [
				"Wave10GravestoneEvent0"
			],
			"objclass": "SpawnGravestonesWaveActionProps",
			"objdata": {
				"GravestonePool": [
					{
						"Count": 3,
						"Type": "RTID(gravestone_dark@GridItemTypes)"
					}
				],
				"SpawnEffectAnimID": "POPANIM_EFFECTS_TOMBSTONE_DARK_SPAWN_EFFECT",
				"SpawnPositionsPool": [
					{
						"mX": 4,
						"mY": 0
					},
					{
						"mX": 4,
						"mY": 1
					},
					{
						"mX": 4,
						"mY": 2
					},
					{
						"mX": 4,
						"mY": 3
					},
					{
						"mX": 4,
						"mY": 4
					},
					{
						"mX": 5,
						"mY": 0
					},
					{
						"mX": 5,
						"mY": 1
					},
					{
						"mX": 5,
						"mY": 2
					},
					{
						"mX": 5,
						"mY": 3
					},
					{
						"mX": 5,
						"mY": 4
					},
					{
						"mX": 6,
						"mY": 0
					},
					{
						"mX": 6,
						"mY": 1
					},
					{
						"mX": 6,
						"mY": 2
					},
					{
						"mX": 6,
						"mY": 3
					},
					{
						"mX": 6,
						"mY": 4
					},
					{
						"mX": 7,
						"mY": 0
					},
					{
						"mX": 7,
						"mY": 1
					},
					{
						"mX": 7,
						"mY": 2
					},
					{
						"mX": 7,
						"mY": 3
					},
					{
						"mX": 7,
						"mY": 4
					},
					{
						"mX": 8,
						"mY": 0
					},
					{
						"mX": 8,
						"mY": 1
					},
					{
						"mX": 8,
						"mY": 2
					},
					{
						"mX": 8,
						"mY": 3
					},
					{
						"mX": 8,
						"mY": 4
					}
				],
				"SpawnSoundID": "Play_Zomb_Egypt_TombRaiser_Grave_Rise"
			}
		},
		{
			"aliases": [
				"Wave10GravestoneEvent1"
			],
			"objclass": "SpawnGravestonesWaveActionProps",
			"objdata": {
				"GravestonePool": [
					{
						"Count": 1,
						"Type": "RTID(gravestoneZombieTimeSpawner_wideImp@GridItemTypes)"
					}
				],
				"SpawnEffectAnimID": "POPANIM_EFFECTS_TOMBSTONE_DARK_SPAWN_EFFECT",
				"SpawnPositionsPool": [
					{
						"mX": 7,
						"mY": 0
					},
					{
						"mX": 7,
						"mY": 1
					},
					{
						"mX": 7,
						"mY": 2
					},
					{
						"mX": 7,
						"mY": 3
					},
					{
						"mX": 7,
						"mY": 4
					}
				],
				"SpawnSoundID": "Play_Zomb_Egypt_TombRaiser_Grave_Rise"
			}
		},
		{
			"aliases": [
				"Wave17GravestoneEvent0"
			],
			"objclass": "SpawnGravestonesWaveActionProps",
			"objdata": {
				"GravestonePool": [
					{
						"Count": 2,
						"Type": "RTID(gravestoneZombieTimeSpawner_wideImp@GridItemTypes)"
					}
				],
				"SpawnEffectAnimID": "POPANIM_EFFECTS_TOMBSTONE_DARK_SPAWN_EFFECT",
				"SpawnPositionsPool": [
					{
						"mX": 6,
						"mY": 0
					},
					{
						"mX": 6,
						"mY": 1
					},
					{
						"mX": 6,
						"mY": 2
					},
					{
						"mX": 6,
						"mY": 3
					},
					{
						"mX": 6,
						"mY": 4
					},
					{
						"mX": 7,
						"mY": 0
					},
					{
						"mX": 7,
						"mY": 1
					},
					{
						"mX": 7,
						"mY": 2
					},
					{
						"mX": 7,
						"mY": 3
					},
					{
						"mX": 7,
						"mY": 4
					}
				],
				"SpawnSoundID": "Play_Zomb_Egypt_TombRaiser_Grave_Rise"
			}
		},
		{
			"aliases": [
				"Wave16GravestoneEvent0"
			],
			"objclass": "SpawnGravestonesWaveActionProps",
			"objdata": {
				"GravestonePool": [
					{
						"Count": 2,
						"Type": "RTID(gravestoneZombieTimeSpawner_wideImp@GridItemTypes)"
					}
				],
				"SpawnEffectAnimID": "POPANIM_EFFECTS_TOMBSTONE_DARK_SPAWN_EFFECT",
				"SpawnPositionsPool": [
					{
						"mX": 6,
						"mY": 0
					},
					{
						"mX": 6,
						"mY": 1
					},
					{
						"mX": 6,
						"mY": 2
					},
					{
						"mX": 6,
						"mY": 3
					},
					{
						"mX": 6,
						"mY": 4
					},
					{
						"mX": 7,
						"mY": 0
					},
					{
						"mX": 7,
						"mY": 1
					},
					{
						"mX": 7,
						"mY": 2
					},
					{
						"mX": 7,
						"mY": 3
					},
					{
						"mX": 7,
						"mY": 4
					}
				],
				"SpawnSoundID": "Play_Zomb_Egypt_TombRaiser_Grave_Rise"
			}
		},
		{
			"aliases": [
				"Wave15GravestoneEvent0"
			],
			"objclass": "SpawnGravestonesWaveActionProps",
			"objdata": {
				"GravestonePool": [
					{
						"Count": 2,
						"Type": "RTID(gravestoneZombieTimeSpawner_wideImp@GridItemTypes)"
					}
				],
				"SpawnEffectAnimID": "POPANIM_EFFECTS_TOMBSTONE_DARK_SPAWN_EFFECT",
				"SpawnPositionsPool": [
					{
						"mX": 6,
						"mY": 0
					},
					{
						"mX": 6,
						"mY": 1
					},
					{
						"mX": 6,
						"mY": 2
					},
					{
						"mX": 6,
						"mY": 3
					},
					{
						"mX": 6,
						"mY": 4
					},
					{
						"mX": 7,
						"mY": 0
					},
					{
						"mX": 7,
						"mY": 1
					},
					{
						"mX": 7,
						"mY": 2
					},
					{
						"mX": 7,
						"mY": 3
					},
					{
						"mX": 7,
						"mY": 4
					}
				],
				"SpawnSoundID": "Play_Zomb_Egypt_TombRaiser_Grave_Rise"
			}
		},
		{
			"aliases": [
				"Wave14GravestoneEvent0"
			],
			"objclass": "SpawnGravestonesWaveActionProps",
			"objdata": {
				"GravestonePool": [
					{
						"Count": 2,
						"Type": "RTID(gravestoneZombieTimeSpawner_wideImp@GridItemTypes)"
					}
				],
				"RTID(gravestoneZombieTimeSpawner_wideImp@GridItemTypes)": 2,
				"SpawnEffectAnimID": "POPANIM_EFFECTS_TOMBSTONE_DARK_SPAWN_EFFECT",
				"SpawnPositionsPool": [
					{
						"mX": 6,
						"mY": 0
					},
					{
						"mX": 6,
						"mY": 1
					},
					{
						"mX": 6,
						"mY": 2
					},
					{
						"mX": 6,
						"mY": 3
					},
					{
						"mX": 6,
						"mY": 4
					},
					{
						"mX": 7,
						"mY": 0
					},
					{
						"mX": 7,
						"mY": 1
					},
					{
						"mX": 7,
						"mY": 2
					},
					{
						"mX": 7,
						"mY": 3
					},
					{
						"mX": 7,
						"mY": 4
					}
				],
				"SpawnSoundID": "Play_Zomb_Egypt_TombRaiser_Grave_Rise",
				"maxX": 7,
				"minX": 6
			}
		},
		{
			"aliases": [
				"Wave18"
			],
			"objclass": "SpawnZombiesJitteredWaveActionProps",
			"objdata": {
				"Zombies": [
					{
						"Row": "4",
						"Type": "RTID(dark_gargantuar@ZombieTypes)"
					},
					{
						"Row": "2",
						"Type": "RTID(dark_gargantuar@ZombieTypes)"
					}
				]
			}
		},
		{
			"aliases": [
				"Wave9GravestoneEvent0"
			],
			"objclass": "SpawnGravestonesWaveActionProps",
			"objdata": {
				"GravestonePool": [
					{
						"Count": 2,
						"Type": "RTID(gravestone_dark@GridItemTypes)"
					},
					{
						"Count": 4,
						"Type": "RTID(gravestoneSunOnDestruction@GridItemTypes)"
					},
					{
						"Count": 0,
						"Type": "RTID(gravestonePlantfoodOnDestruction@GridItemTypes)"
					}
				],
				"SpawnEffectAnimID": "POPANIM_EFFECTS_TOMBSTONE_DARK_SPAWN_EFFECT",
				"SpawnPositionsPool": [
					{
						"mX": 7,
						"mY": 0
					},
					{
						"mX": 7,
						"mY": 1
					},
					{
						"mX": 7,
						"mY": 2
					},
					{
						"mX": 7,
						"mY": 3
					},
					{
						"mX": 7,
						"mY": 4
					},
					{
						"mX": 8,
						"mY": 0
					},
					{
						"mX": 8,
						"mY": 1
					},
					{
						"mX": 8,
						"mY": 2
					},
					{
						"mX": 8,
						"mY": 3
					},
					{
						"mX": 8,
						"mY": 4
					}
				],
				"SpawnSoundID": "Play_Zomb_Egypt_TombRaiser_Grave_Rise"
			}
		},
		{
			"aliases": [
				"Wave10GraveSpawnEvent0"
			],
			"objclass": "SpawnZombiesFromGridItemSpawnerProps",
			"objdata": {
				"AdditionalPlantfood": "0",
				"GridTypes": [
					"RTID(gravestone_dark@GridItemTypes)",
					"RTID(gravestoneSunOnDestruction@GridItemTypes)",
					"RTID(gravestonePlantfoodOnDestruction@GridItemTypes)"
				],
				"WaveStartMessage": "[WARNING_GRAVESTONE_SPAWN]",
				"ZombieSpawnWaitTime": "1",
				"Zombies": [
					{
						"Type": "RTID(dark_imp@ZombieTypes)"
					},
					{
						"Type": "RTID(dark_imp@ZombieTypes)"
					},
					{
						"Type": "RTID(dark_imp@ZombieTypes)"
					},
					{
						"Type": "RTID(dark_imp@ZombieTypes)"
					},
					{
						"Type": "RTID(dark_imp@ZombieTypes)"
					}
				]
			}
		}
	],
	"version": 1
}