{
	"###": "This Map Create By SPC-Util : Map-Designer",
	"version": 1,
	"objects": [ {
			"objclass": "WorldData",
			"objdata": {
				"m_worldName": "egypt",
				"m_boundingRect": {
					"mX": -819,
					"mY": -103,
					"mWidth": 9020,
					"mHeight": 978
				},
				"m_worldId": 2,
				"m_resGroupID": 1,
				"m_creationTime": 59295684,
				"m_mapPieces": [ {
						"m_eventType": "island",
						"m_imageID": 0,
						"m_parallaxLayer": 0,
						"m_drawLayer": 0,
						"m_position": {
							"x": -13.0625,
							"y": 74
						},
						"m_scaleX": 1,
						"m_scaleY": 1,
						"m_rotationAngle": 0,
						"m_isArtFlipped": false
					}, {
						"m_eventType": "island",
						"m_imageID": 24,
						"m_parallaxLayer": 5,
						"m_drawLayer": 0,
						"m_position": {
							"x": 2189.918701,
							"y": 146
						},
						"m_scaleX": 0.3,
						"m_scaleY": 0.3,
						"m_rotationAngle": 0,
						"m_isArtFlipped": false
					}, {
						"m_eventType": "island",
						"m_imageID": 23,
						"m_parallaxLayer": 5,
						"m_drawLayer": 0,
						"m_position": {
							"x": 1781.324951,
							"y": 167
						},
						"m_scaleX": 0.2,
						"m_scaleY": 0.2,
						"m_rotationAngle": 0,
						"m_isArtFlipped": false
					}, {
						"m_eventType": "island",
						"m_imageID": 2,
						"m_parallaxLayer": 0,
						"m_drawLayer": 0,
						"m_position": {
							"x": 1610.9375,
							"y": 102
						},
						"m_scaleX": 0.9,
						"m_scaleY": 0.9,
						"m_rotationAngle": 0,
						"m_isArtFlipped": false
					}, {
						"m_eventType": "island",
						"m_imageID": 4,
						"m_parallaxLayer": 0,
						"m_drawLayer": 0,
						"m_position": {
							"x": 195.3125,
							"y": 334
						},
						"m_scaleX": 1,
						"m_scaleY": 1,
						"m_rotationAngle": 0,
						"m_isArtFlipped": false
					}, {
						"m_eventType": "island",
						"m_imageID": 4,
						"m_parallaxLayer": 0,
						"m_drawLayer": -1,
						"m_position": {
							"x": 335.9375,
							"y": 399
						},
						"m_scaleX": 0.8,
						"m_scaleY": 0.8,
						"m_rotationAngle": 0,
						"m_isArtFlipped": false
					}, {
						"m_eventType": "island",
						"m_imageID": 4,
						"m_parallaxLayer": 0,
						"m_drawLayer": 0,
						"m_position": {
							"x": 613.28125,
							"y": 380
						},
						"m_scaleX": 0.7,
						"m_scaleY": 0.7,
						"m_rotationAngle": 0,
						"m_isArtFlipped": false
					}, {
						"m_eventType": "island",
						"m_imageID": 8,
						"m_parallaxLayer": 0,
						"m_drawLayer": 0,
						"m_position": {
							"x": 738.28125,
							"y": 282
						},
						"m_scaleX": 1,
						"m_scaleY": 1,
						"m_rotationAngle": 0,
						"m_isArtFlipped": false
					}, {
						"m_eventType": "island",
						"m_imageID": 8,
						"m_parallaxLayer": 0,
						"m_drawLayer": 0,
						"m_position": {
							"x": 871.0937500000001,
							"y": 198
						},
						"m_scaleX": 1,
						"m_scaleY": 1,
						"m_rotationAngle": 0,
						"m_isArtFlipped": false
					}, {
						"m_eventType": "island",
						"m_imageID": 4,
						"m_parallaxLayer": 0,
						"m_drawLayer": -1,
						"m_position": {
							"x": 1028.90625,
							"y": 175
						},
						"m_scaleX": 1,
						"m_scaleY": 1,
						"m_rotationAngle": 0,
						"m_isArtFlipped": false
					}, {
						"m_eventType": "island",
						"m_imageID": 8,
						"m_parallaxLayer": 0,
						"m_drawLayer": 0,
						"m_position": {
							"x": 1200.78125,
							"y": 175
						},
						"m_scaleX": 1,
						"m_scaleY": 1,
						"m_rotationAngle": 0,
						"m_isArtFlipped": false
					}, {
						"m_eventType": "island",
						"m_imageID": 4,
						"m_parallaxLayer": 0,
						"m_drawLayer": 0,
						"m_position": {
							"x": 1335.15625,
							"y": 234
						},
						"m_scaleX": 1,
						"m_scaleY": 1,
						"m_rotationAngle": 0,
						"m_isArtFlipped": false
					}, {
						"m_eventType": "island",
						"m_imageID": 4,
						"m_parallaxLayer": 0,
						"m_drawLayer": 0,
						"m_position": {
							"x": 1455.46875,
							"y": 300
						},
						"m_scaleX": 1,
						"m_scaleY": 1,
						"m_rotationAngle": 0,
						"m_isArtFlipped": false
					}, {
						"m_eventType": "island",
						"m_imageID": 4,
						"m_parallaxLayer": 0,
						"m_drawLayer": 0,
						"m_position": {
							"x": 1732.03125,
							"y": 296
						},
						"m_scaleX": 1,
						"m_scaleY": 1,
						"m_rotationAngle": 0,
						"m_isArtFlipped": false
					}, {
						"m_eventType": "island",
						"m_imageID": 4,
						"m_parallaxLayer": 0,
						"m_drawLayer": 0,
						"m_position": {
							"x": 2006.25,
							"y": 219
						},
						"m_scaleX": 1,
						"m_scaleY": 1,
						"m_rotationAngle": 0,
						"m_isArtFlipped": false
					}, {
						"m_eventType": "island",
						"m_imageID": 3,
						"m_parallaxLayer": 0,
						"m_drawLayer": 0,
						"m_position": {
							"x": 2146.875,
							"y": 279
						},
						"m_scaleX": 1,
						"m_scaleY": 1,
						"m_rotationAngle": 0,
						"m_isArtFlipped": false
					}, {
						"m_eventType": "island",
						"m_imageID": 8,
						"m_parallaxLayer": 0,
						"m_drawLayer": 0,
						"m_position": {
							"x": 2271.09375,
							"y": 362
						},
						"m_scaleX": 0.7,
						"m_scaleY": 0.7,
						"m_rotationAngle": 0,
						"m_isArtFlipped": false
					}, {
						"m_eventType": "island",
						"m_imageID": 8,
						"m_parallaxLayer": 0,
						"m_drawLayer": 0,
						"m_position": {
							"x": 2405.90625,
							"y": 390
						},
						"m_scaleX": 1,
						"m_scaleY": 1,
						"m_rotationAngle": 0,
						"m_isArtFlipped": false
					}, {
						"m_eventType": "island",
						"m_imageID": 4,
						"m_parallaxLayer": 0,
						"m_drawLayer": 0,
						"m_position": {
							"x": 2578.125,
							"y": 383
						},
						"m_scaleX": 1,
						"m_scaleY": 1,
						"m_rotationAngle": 0,
						"m_isArtFlipped": false
					}, {
						"m_eventType": "island",
						"m_imageID": 4,
						"m_parallaxLayer": 0,
						"m_drawLayer": 0,
						"m_position": {
							"x": 2707.8125,
							"y": 303
						},
						"m_scaleX": 1,
						"m_scaleY": 1,
						"m_rotationAngle": 0,
						"m_isArtFlipped": false
					}, {
						"m_eventType": "island",
						"m_imageID": 8,
						"m_parallaxLayer": 0,
						"m_drawLayer": 1,
						"m_position": {
							"x": 2864.0625,
							"y": 250
						},
						"m_scaleX": 1,
						"m_scaleY": 1,
						"m_rotationAngle": 0,
						"m_isArtFlipped": false
					}, {
						"m_eventType": "island",
						"m_imageID": 8,
						"m_parallaxLayer": 0,
						"m_drawLayer": 1,
						"m_position": {
							"x": 3013.28125,
							"y": 267
						},
						"m_scaleX": 1,
						"m_scaleY": 1,
						"m_rotationAngle": 0,
						"m_isArtFlipped": false
					}, {
						"m_eventType": "island",
						"m_imageID": 4,
						"m_parallaxLayer": 0,
						"m_drawLayer": 0,
						"m_position": {
							"x": 3131.25,
							"y": 350
						},
						"m_scaleX": 1,
						"m_scaleY": 1,
						"m_rotationAngle": 0,
						"m_isArtFlipped": false
					}, {
						"m_eventType": "island",
						"m_imageID": 3,
						"m_parallaxLayer": 0,
						"m_drawLayer": 0,
						"m_position": {
							"x": 3290.625,
							"y": 402
						},
						"m_scaleX": 1,
						"m_scaleY": 1,
						"m_rotationAngle": 0,
						"m_isArtFlipped": false
					}, {
						"m_eventType": "island",
						"m_imageID": 4,
						"m_parallaxLayer": 0,
						"m_drawLayer": 0,
						"m_position": {
							"x": 3462.5,
							"y": 396
						},
						"m_scaleX": 1,
						"m_scaleY": 1,
						"m_rotationAngle": 0,
						"m_isArtFlipped": false
					}, {
						"m_eventType": "island",
						"m_imageID": 21,
						"m_parallaxLayer": 9,
						"m_drawLayer": 0,
						"m_position": {
							"x": -223.958817,
							"y": 121
						},
						"m_scaleX": 0.7,
						"m_scaleY": 0.7,
						"m_rotationAngle": 0,
						"m_isArtFlipped": false
					}, {
						"m_eventType": "island",
						"m_imageID": 22,
						"m_parallaxLayer": 9,
						"m_drawLayer": 2,
						"m_position": {
							"x": -39.724258,
							"y": 192
						},
						"m_scaleX": 0.7,
						"m_scaleY": 0.7,
						"m_rotationAngle": 0,
						"m_isArtFlipped": false
					}, {
						"m_eventType": "island",
						"m_imageID": 6,
						"m_parallaxLayer": 0,
						"m_drawLayer": -1,
						"m_position": {
							"x": 1881.25,
							"y": 247
						},
						"m_scaleX": 1,
						"m_scaleY": 1,
						"m_rotationAngle": 0,
						"m_isArtFlipped": false
					}, {
						"m_eventType": "island",
						"m_imageID": 4,
						"m_parallaxLayer": 0,
						"m_drawLayer": 0,
						"m_position": {
							"x": 3616.40625,
							"y": 339
						},
						"m_scaleX": 0.8,
						"m_scaleY": 0.8,
						"m_rotationAngle": 0,
						"m_isArtFlipped": false
					}, {
						"m_eventType": "island",
						"m_imageID": 4,
						"m_parallaxLayer": 0,
						"m_drawLayer": 0,
						"m_position": {
							"x": 3753.125,
							"y": 248
						},
						"m_scaleX": 1,
						"m_scaleY": 1,
						"m_rotationAngle": 0,
						"m_isArtFlipped": false
					}, {
						"m_eventType": "island",
						"m_imageID": 4,
						"m_parallaxLayer": 0,
						"m_drawLayer": 0,
						"m_position": {
							"x": 3887.5,
							"y": 213
						},
						"m_scaleX": 1,
						"m_scaleY": 1,
						"m_rotationAngle": 0,
						"m_isArtFlipped": false
					}, {
						"m_eventType": "island",
						"m_imageID": 4,
						"m_parallaxLayer": 0,
						"m_drawLayer": 0,
						"m_position": {
							"x": 4039.84375,
							"y": 263
						},
						"m_scaleX": 1,
						"m_scaleY": 1,
						"m_rotationAngle": 0,
						"m_isArtFlipped": false
					}, {
						"m_eventType": "island",
						"m_imageID": 8,
						"m_parallaxLayer": 0,
						"m_drawLayer": 1,
						"m_position": {
							"x": 4175.78125,
							"y": 306
						},
						"m_scaleX": 1,
						"m_scaleY": 1,
						"m_rotationAngle": 0,
						"m_isArtFlipped": false
					}, {
						"m_eventType": "island",
						"m_imageID": 8,
						"m_parallaxLayer": 0,
						"m_drawLayer": 1,
						"m_position": {
							"x": 4296.875,
							"y": 368
						},
						"m_scaleX": 1,
						"m_scaleY": 1,
						"m_rotationAngle": 0,
						"m_isArtFlipped": false
					}, {
						"m_eventType": "island",
						"m_imageID": 4,
						"m_parallaxLayer": 0,
						"m_drawLayer": 0,
						"m_position": {
							"x": 4419.53125,
							"y": 399
						},
						"m_scaleX": 0.8,
						"m_scaleY": 0.8,
						"m_rotationAngle": 0,
						"m_isArtFlipped": false
					}, {
						"m_eventType": "island",
						"m_imageID": 4,
						"m_parallaxLayer": 0,
						"m_drawLayer": 0,
						"m_position": {
							"x": 4574.218749999999,
							"y": 350
						},
						"m_scaleX": 1,
						"m_scaleY": 1,
						"m_rotationAngle": 0,
						"m_isArtFlipped": false
					}, {
						"m_eventType": "island",
						"m_imageID": 4,
						"m_parallaxLayer": 0,
						"m_drawLayer": 0,
						"m_position": {
							"x": 4693.75,
							"y": 269
						},
						"m_scaleX": 1,
						"m_scaleY": 1,
						"m_rotationAngle": 0,
						"m_isArtFlipped": false
					}, {
						"m_eventType": "island",
						"m_imageID": 4,
						"m_parallaxLayer": 0,
						"m_drawLayer": 0,
						"m_position": {
							"x": 4821.093749999999,
							"y": 243
						},
						"m_scaleX": 0.9,
						"m_scaleY": 0.9,
						"m_rotationAngle": 0,
						"m_isArtFlipped": false
					}, {
						"m_eventType": "island",
						"m_imageID": 4,
						"m_parallaxLayer": 0,
						"m_drawLayer": 0,
						"m_position": {
							"x": 4972.65625,
							"y": 235
						},
						"m_scaleX": 1,
						"m_scaleY": 1,
						"m_rotationAngle": 0,
						"m_isArtFlipped": false
					}, {
						"m_eventType": "island",
						"m_imageID": 4,
						"m_parallaxLayer": 0,
						"m_drawLayer": -1,
						"m_position": {
							"x": 870.3125,
							"y": 214
						},
						"m_scaleX": 1,
						"m_scaleY": 1,
						"m_rotationAngle": 0,
						"m_isArtFlipped": false
					}, {
						"m_eventType": "island",
						"m_imageID": 11,
						"m_parallaxLayer": 0,
						"m_drawLayer": -1,
						"m_position": {
							"x": 905.46875,
							"y": 242
						},
						"m_scaleX": 1,
						"m_scaleY": 1,
						"m_rotationAngle": 0,
						"m_isArtFlipped": false
					}, {
						"m_eventType": "island",
						"m_imageID": 11,
						"m_parallaxLayer": 0,
						"m_drawLayer": -1,
						"m_position": {
							"x": 711.7187500000001,
							"y": 328
						},
						"m_scaleX": 1,
						"m_scaleY": 1,
						"m_rotationAngle": 0,
						"m_isArtFlipped": true
					}, {
						"m_eventType": "island",
						"m_imageID": 3,
						"m_parallaxLayer": 0,
						"m_drawLayer": 0,
						"m_position": {
							"x": 499.21875,
							"y": 392
						},
						"m_scaleX": 1,
						"m_scaleY": 1,
						"m_rotationAngle": 0,
						"m_isArtFlipped": false
					}, {
						"m_eventType": "island",
						"m_imageID": 5,
						"m_parallaxLayer": 0,
						"m_drawLayer": 0,
						"m_position": {
							"x": 471.875,
							"y": 442
						},
						"m_scaleX": 1,
						"m_scaleY": 1,
						"m_rotationAngle": 0,
						"m_isArtFlipped": true
					}, {
						"m_eventType": "island",
						"m_imageID": 10,
						"m_parallaxLayer": 0,
						"m_drawLayer": -1,
						"m_position": {
							"x": 1173.4375,
							"y": 210
						},
						"m_scaleX": 1,
						"m_scaleY": 1,
						"m_rotationAngle": 0,
						"m_isArtFlipped": false
					}, {
						"m_eventType": "island",
						"m_imageID": 11,
						"m_parallaxLayer": 0,
						"m_drawLayer": -1,
						"m_position": {
							"x": 1231.25,
							"y": 221
						},
						"m_scaleX": 1,
						"m_scaleY": 1,
						"m_rotationAngle": 0,
						"m_isArtFlipped": false
					}, {
						"m_eventType": "island",
						"m_imageID": 8,
						"m_parallaxLayer": 0,
						"m_drawLayer": 0,
						"m_position": {
							"x": 1028.125,
							"y": 174
						},
						"m_scaleX": 0.7,
						"m_scaleY": 0.7,
						"m_rotationAngle": 0,
						"m_isArtFlipped": false
					}, {
						"m_eventType": "island",
						"m_imageID": 4,
						"m_parallaxLayer": 0,
						"m_drawLayer": -1,
						"m_position": {
							"x": 737.5312499999998,
							"y": 294
						},
						"m_scaleX": 1,
						"m_scaleY": 1,
						"m_rotationAngle": 0,
						"m_isArtFlipped": false
					}, {
						"m_eventType": "island",
						"m_imageID": 21,
						"m_parallaxLayer": 9,
						"m_drawLayer": -2,
						"m_position": {
							"x": 123.0411379999999,
							"y": 56
						},
						"m_scaleX": 0.7,
						"m_scaleY": 0.7,
						"m_rotationAngle": 0,
						"m_isArtFlipped": false
					}, {
						"m_eventType": "island",
						"m_imageID": 13,
						"m_parallaxLayer": 10,
						"m_drawLayer": 0,
						"m_position": {
							"x": -406.8813479999999,
							"y": 47
						},
						"m_scaleX": 0.9,
						"m_scaleY": 0.9,
						"m_rotationAngle": 0,
						"m_isArtFlipped": false
					}, {
						"m_eventType": "island",
						"m_imageID": 4,
						"m_parallaxLayer": 0,
						"m_drawLayer": 0,
						"m_position": {
							"x": 1851.5625,
							"y": 234
						},
						"m_scaleX": 1,
						"m_scaleY": 1,
						"m_rotationAngle": 0,
						"m_isArtFlipped": false
					}, {
						"m_eventType": "island",
						"m_imageID": 8,
						"m_parallaxLayer": 0,
						"m_drawLayer": 0,
						"m_position": {
							"x": 2271.09375,
							"y": 358
						},
						"m_scaleX": 1,
						"m_scaleY": 1,
						"m_rotationAngle": 0,
						"m_isArtFlipped": false
					}, {
						"m_eventType": "island",
						"m_imageID": 7,
						"m_parallaxLayer": 0,
						"m_drawLayer": 1,
						"m_position": {
							"x": 2682.03125,
							"y": 360
						},
						"m_scaleX": 1,
						"m_scaleY": 1,
						"m_rotationAngle": 0,
						"m_isArtFlipped": false
					}, {
						"m_eventType": "island",
						"m_imageID": 10,
						"m_parallaxLayer": 0,
						"m_drawLayer": 0,
						"m_position": {
							"x": 2842.1875,
							"y": 286
						},
						"m_scaleX": 1,
						"m_scaleY": 1,
						"m_rotationAngle": 0,
						"m_isArtFlipped": false
					}, {
						"m_eventType": "island",
						"m_imageID": 11,
						"m_parallaxLayer": 0,
						"m_drawLayer": 0,
						"m_position": {
							"x": 2897.65625,
							"y": 295
						},
						"m_scaleX": 1,
						"m_scaleY": 1,
						"m_rotationAngle": 0,
						"m_isArtFlipped": false
					}, {
						"m_eventType": "island",
						"m_imageID": 10,
						"m_parallaxLayer": 0,
						"m_drawLayer": 0,
						"m_position": {
							"x": 3036.71875,
							"y": 300
						},
						"m_scaleX": 1,
						"m_scaleY": 1,
						"m_rotationAngle": 0,
						"m_isArtFlipped": true
					}, {
						"m_eventType": "island",
						"m_imageID": 8,
						"m_parallaxLayer": 0,
						"m_drawLayer": 0,
						"m_position": {
							"x": 3132.8125,
							"y": 353
						},
						"m_scaleX": 0.7,
						"m_scaleY": 0.7,
						"m_rotationAngle": 0,
						"m_isArtFlipped": false
					}, {
						"m_eventType": "island",
						"m_imageID": 5,
						"m_parallaxLayer": 0,
						"m_drawLayer": 0,
						"m_position": {
							"x": 3778.125,
							"y": 296
						},
						"m_scaleX": 1,
						"m_scaleY": 1,
						"m_rotationAngle": 0,
						"m_isArtFlipped": false
					}, {
						"m_eventType": "island",
						"m_imageID": 8,
						"m_parallaxLayer": 0,
						"m_drawLayer": 1,
						"m_position": {
							"x": 4042.1875,
							"y": 245
						},
						"m_scaleX": 1,
						"m_scaleY": 1,
						"m_rotationAngle": 0,
						"m_isArtFlipped": false
					}, {
						"m_eventType": "island",
						"m_imageID": 9,
						"m_parallaxLayer": 0,
						"m_drawLayer": 1,
						"m_position": {
							"x": 4172.65625,
							"y": 296
						},
						"m_scaleX": 1,
						"m_scaleY": 1,
						"m_rotationAngle": 0,
						"m_isArtFlipped": false
					}, {
						"m_eventType": "island",
						"m_imageID": 10,
						"m_parallaxLayer": 0,
						"m_drawLayer": 0,
						"m_position": {
							"x": 4275.78125,
							"y": 402
						},
						"m_scaleX": 1,
						"m_scaleY": 1,
						"m_rotationAngle": 0,
						"m_isArtFlipped": false
					}, {
						"m_eventType": "island",
						"m_imageID": 5,
						"m_parallaxLayer": 0,
						"m_drawLayer": -1,
						"m_position": {
							"x": 4197.65625,
							"y": 352
						},
						"m_scaleX": 1,
						"m_scaleY": 1,
						"m_rotationAngle": 0,
						"m_isArtFlipped": false
					}, {
						"m_eventType": "island",
						"m_imageID": 22,
						"m_parallaxLayer": 9,
						"m_drawLayer": 0,
						"m_position": {
							"x": -590.740051,
							"y": 143
						},
						"m_scaleX": 0.7,
						"m_scaleY": 0.7,
						"m_rotationAngle": 0,
						"m_isArtFlipped": false
					}, {
						"m_eventType": "island",
						"m_imageID": 24,
						"m_parallaxLayer": 6,
						"m_drawLayer": -1,
						"m_position": {
							"x": -69.59758,
							"y": 211
						},
						"m_scaleX": 0.4,
						"m_scaleY": 0.4,
						"m_rotationAngle": 0,
						"m_isArtFlipped": false
					}, {
						"m_eventType": "island",
						"m_imageID": 23,
						"m_parallaxLayer": 4,
						"m_drawLayer": -1,
						"m_position": {
							"x": 2516.935303,
							"y": 236
						},
						"m_scaleX": 0.6,
						"m_scaleY": 0.6,
						"m_rotationAngle": 0,
						"m_isArtFlipped": false
					}, {
						"m_eventType": "island",
						"m_imageID": 4,
						"m_parallaxLayer": 0,
						"m_drawLayer": 0,
						"m_position": {
							"x": 2326.5625,
							"y": 257
						},
						"m_scaleX": 1,
						"m_scaleY": 1,
						"m_rotationAngle": 0,
						"m_isArtFlipped": false
					}, {
						"m_eventType": "island",
						"m_imageID": 15,
						"m_parallaxLayer": 0,
						"m_drawLayer": -1,
						"m_position": {
							"x": 2415.625,
							"y": 276
						},
						"m_scaleX": 1,
						"m_scaleY": 1,
						"m_rotationAngle": 0,
						"m_isArtFlipped": false
					}, {
						"m_eventType": "island",
						"m_imageID": 4,
						"m_parallaxLayer": 0,
						"m_drawLayer": 0,
						"m_position": {
							"x": 2437.5,
							"y": 313
						},
						"m_scaleX": 1,
						"m_scaleY": 1,
						"m_rotationAngle": 0,
						"m_isArtFlipped": false
					}, {
						"m_eventType": "island",
						"m_imageID": 4,
						"m_parallaxLayer": 0,
						"m_drawLayer": 0,
						"m_position": {
							"x": 2490.625,
							"y": 335
						},
						"m_scaleX": 1,
						"m_scaleY": 1,
						"m_rotationAngle": 0,
						"m_isArtFlipped": false
					}, {
						"m_eventType": "island",
						"m_imageID": 4,
						"m_parallaxLayer": 0,
						"m_drawLayer": 0,
						"m_position": {
							"x": 2540.625,
							"y": 301
						},
						"m_scaleX": 1,
						"m_scaleY": 1,
						"m_rotationAngle": 0,
						"m_isArtFlipped": false
					}, {
						"m_eventType": "island",
						"m_imageID": 4,
						"m_parallaxLayer": 0,
						"m_drawLayer": 0,
						"m_position": {
							"x": 2587.5,
							"y": 271
						},
						"m_scaleX": 1,
						"m_scaleY": 1,
						"m_rotationAngle": 0,
						"m_isArtFlipped": false
					}, {
						"m_eventType": "island",
						"m_imageID": 4,
						"m_parallaxLayer": 0,
						"m_drawLayer": 0,
						"m_position": {
							"x": 2372.65625,
							"y": 234
						},
						"m_scaleX": 1,
						"m_scaleY": 1,
						"m_rotationAngle": 0,
						"m_isArtFlipped": false
					}, {
						"m_eventType": "island",
						"m_imageID": 6,
						"m_parallaxLayer": 0,
						"m_drawLayer": 0,
						"m_position": {
							"x": 2361.71875,
							"y": 300
						},
						"m_scaleX": 1,
						"m_scaleY": 1,
						"m_rotationAngle": 0,
						"m_isArtFlipped": false
					}, {
						"m_eventType": "island",
						"m_imageID": 5,
						"m_parallaxLayer": 0,
						"m_drawLayer": 0,
						"m_position": {
							"x": 2589.0625,
							"y": 335
						},
						"m_scaleX": 1,
						"m_scaleY": 1,
						"m_rotationAngle": 0,
						"m_isArtFlipped": false
					}, {
						"m_eventType": "island",
						"m_imageID": 27,
						"m_parallaxLayer": 6,
						"m_drawLayer": 1,
						"m_position": {
							"x": -48.660088,
							"y": 206
						},
						"m_scaleX": 0.4,
						"m_scaleY": 0.4,
						"m_rotationAngle": 0,
						"m_isArtFlipped": false
					}, {
						"m_eventType": "island",
						"m_imageID": 28,
						"m_parallaxLayer": 4,
						"m_drawLayer": 1,
						"m_position": {
							"x": 1815.685181,
							"y": 162
						},
						"m_scaleX": 0.6,
						"m_scaleY": 0.6,
						"m_rotationAngle": 0,
						"m_isArtFlipped": true
					}, {
						"m_eventType": "island",
						"m_imageID": 16,
						"m_parallaxLayer": 4,
						"m_drawLayer": 3,
						"m_position": {
							"x": 1885.372559,
							"y": 157
						},
						"m_scaleX": 0.4,
						"m_scaleY": 0.4,
						"m_rotationAngle": 345,
						"m_isArtFlipped": false
					}, {
						"m_eventType": "island",
						"m_imageID": 16,
						"m_parallaxLayer": 4,
						"m_drawLayer": 2,
						"m_position": {
							"x": 1850.997559,
							"y": 175
						},
						"m_scaleX": 0.3,
						"m_scaleY": 0.3,
						"m_rotationAngle": 15,
						"m_isArtFlipped": false
					}, {
						"m_eventType": "island",
						"m_imageID": 20,
						"m_parallaxLayer": 4,
						"m_drawLayer": 1,
						"m_position": {
							"x": 2569.279053,
							"y": 225
						},
						"m_scaleX": 0.5,
						"m_scaleY": 0.5,
						"m_rotationAngle": 0,
						"m_isArtFlipped": false
					}, {
						"m_eventType": "island",
						"m_imageID": 34,
						"m_parallaxLayer": 4,
						"m_drawLayer": 0,
						"m_position": {
							"x": 2495.060303,
							"y": 215
						},
						"m_scaleX": 0.5,
						"m_scaleY": 0.5,
						"m_rotationAngle": 0,
						"m_isArtFlipped": false
					}, {
						"m_eventType": "island",
						"m_imageID": 33,
						"m_parallaxLayer": 4,
						"m_drawLayer": 0,
						"m_position": {
							"x": 2430.997803,
							"y": 238
						},
						"m_scaleX": 0.4,
						"m_scaleY": 0.4,
						"m_rotationAngle": 0,
						"m_isArtFlipped": false
					}, {
						"m_eventType": "island",
						"m_imageID": 27,
						"m_parallaxLayer": 5,
						"m_drawLayer": 1,
						"m_position": {
							"x": 1782.887451,
							"y": 158
						},
						"m_scaleX": 0.2,
						"m_scaleY": 0.2,
						"m_rotationAngle": 0,
						"m_isArtFlipped": false
					}, {
						"m_eventType": "island",
						"m_imageID": 26,
						"m_parallaxLayer": 5,
						"m_drawLayer": 1,
						"m_position": {
							"x": 2194.606200999999,
							"y": 132
						},
						"m_scaleX": 0.37,
						"m_scaleY": 0.37,
						"m_rotationAngle": 355,
						"m_isArtFlipped": false
					}, {
						"m_eventType": "island",
						"m_imageID": 27,
						"m_parallaxLayer": 4,
						"m_drawLayer": -1,
						"m_position": {
							"x": 2523.185303,
							"y": 209
						},
						"m_scaleX": 0.6,
						"m_scaleY": 0.6,
						"m_rotationAngle": 0,
						"m_isArtFlipped": false
					}, {
						"m_eventType": "island",
						"m_imageID": 17,
						"m_parallaxLayer": 6,
						"m_drawLayer": 2,
						"m_position": {
							"x": -25.847578,
							"y": 240
						},
						"m_scaleX": 0.4,
						"m_scaleY": 0.4,
						"m_rotationAngle": 0,
						"m_isArtFlipped": true
					}, {
						"m_eventType": "island",
						"m_imageID": 17,
						"m_parallaxLayer": 6,
						"m_drawLayer": 2,
						"m_position": {
							"x": -51.472569,
							"y": 230
						},
						"m_scaleX": 0.6,
						"m_scaleY": 0.6,
						"m_rotationAngle": 0,
						"m_isArtFlipped": false
					}, {
						"m_eventType": "island",
						"m_imageID": 18,
						"m_parallaxLayer": 6,
						"m_drawLayer": 2,
						"m_position": {
							"x": -79.597572,
							"y": 229
						},
						"m_scaleX": 0.4,
						"m_scaleY": 0.4,
						"m_rotationAngle": 0,
						"m_isArtFlipped": true
					}, {
						"m_eventType": "island",
						"m_imageID": 16,
						"m_parallaxLayer": 4,
						"m_drawLayer": 1,
						"m_position": {
							"x": 2545.060303,
							"y": 222
						},
						"m_scaleX": 0.2,
						"m_scaleY": 0.2,
						"m_rotationAngle": 15,
						"m_isArtFlipped": false
					}, {
						"m_eventType": "island",
						"m_imageID": 16,
						"m_parallaxLayer": 4,
						"m_drawLayer": 1,
						"m_position": {
							"x": 2606.779053,
							"y": 250
						},
						"m_scaleX": 0.2,
						"m_scaleY": 0.2,
						"m_rotationAngle": 350,
						"m_isArtFlipped": false
					}, {
						"m_eventType": "island",
						"m_imageID": 23,
						"m_parallaxLayer": 7,
						"m_drawLayer": 0,
						"m_position": {
							"x": -289.4263,
							"y": 179
						},
						"m_scaleX": 0.2,
						"m_scaleY": 0.2,
						"m_rotationAngle": 0,
						"m_isArtFlipped": false
					}, {
						"m_eventType": "island",
						"m_imageID": 24,
						"m_parallaxLayer": 8,
						"m_drawLayer": 0,
						"m_position": {
							"x": -97.223854,
							"y": 150
						},
						"m_scaleX": 0.2,
						"m_scaleY": 0.2,
						"m_rotationAngle": 0,
						"m_isArtFlipped": false
					}, {
						"m_eventType": "island",
						"m_imageID": 25,
						"m_parallaxLayer": 8,
						"m_drawLayer": 0,
						"m_position": {
							"x": 1.369858,
							"y": 161
						},
						"m_scaleX": 0.2,
						"m_scaleY": 0.2,
						"m_rotationAngle": 0,
						"m_isArtFlipped": false
					}, {
						"m_eventType": "island",
						"m_imageID": 24,
						"m_parallaxLayer": 8,
						"m_drawLayer": -1,
						"m_position": {
							"x": -39.255142,
							"y": 125
						},
						"m_scaleX": 0.2,
						"m_scaleY": 0.2,
						"m_rotationAngle": 0,
						"m_isArtFlipped": false
					}, {
						"m_eventType": "island",
						"m_imageID": 26,
						"m_parallaxLayer": 8,
						"m_drawLayer": 1,
						"m_position": {
							"x": -28.317642,
							"y": 113
						},
						"m_scaleX": 0.3,
						"m_scaleY": 0.3,
						"m_rotationAngle": 355,
						"m_isArtFlipped": false
					}, {
						"m_eventType": "island",
						"m_imageID": 16,
						"m_parallaxLayer": 8,
						"m_drawLayer": 4,
						"m_position": {
							"x": -71.56601,
							"y": 139
						},
						"m_scaleX": 0.2,
						"m_scaleY": 0.2,
						"m_rotationAngle": 0,
						"m_isArtFlipped": false
					}, {
						"m_eventType": "island",
						"m_imageID": 16,
						"m_parallaxLayer": 8,
						"m_drawLayer": 2,
						"m_position": {
							"x": 12.02774,
							"y": 132
						},
						"m_scaleX": 0.2,
						"m_scaleY": 0.2,
						"m_rotationAngle": 345,
						"m_isArtFlipped": false
					}, {
						"m_eventType": "island",
						"m_imageID": 16,
						"m_parallaxLayer": 8,
						"m_drawLayer": 2,
						"m_position": {
							"x": -125.47226,
							"y": 135
						},
						"m_scaleX": 0.2,
						"m_scaleY": 0.2,
						"m_rotationAngle": 0,
						"m_isArtFlipped": false
					}, {
						"m_eventType": "island",
						"m_imageID": 16,
						"m_parallaxLayer": 8,
						"m_drawLayer": 2,
						"m_position": {
							"x": -87.97226,
							"y": 130
						},
						"m_scaleX": 0.2,
						"m_scaleY": 0.2,
						"m_rotationAngle": 0,
						"m_isArtFlipped": false
					}, {
						"m_eventType": "island",
						"m_imageID": 16,
						"m_parallaxLayer": 8,
						"m_drawLayer": 2,
						"m_position": {
							"x": -62.97226,
							"y": 131
						},
						"m_scaleX": 0.1,
						"m_scaleY": 0.1,
						"m_rotationAngle": 0,
						"m_isArtFlipped": false
					}, {
						"m_eventType": "island",
						"m_imageID": 16,
						"m_parallaxLayer": 8,
						"m_drawLayer": 2,
						"m_position": {
							"x": -1.25351,
							"y": 138
						},
						"m_scaleX": 0.2,
						"m_scaleY": 0.2,
						"m_rotationAngle": 0,
						"m_isArtFlipped": false
					}, {
						"m_eventType": "island",
						"m_imageID": 16,
						"m_parallaxLayer": 8,
						"m_drawLayer": 2,
						"m_position": {
							"x": -21.56601,
							"y": 105
						},
						"m_scaleX": 0.2,
						"m_scaleY": 0.2,
						"m_rotationAngle": 0,
						"m_isArtFlipped": false
					}, {
						"m_eventType": "island",
						"m_imageID": 20,
						"m_parallaxLayer": 8,
						"m_drawLayer": 3,
						"m_position": {
							"x": -41.09726,
							"y": 100
						},
						"m_scaleX": 0.4,
						"m_scaleY": 0.4,
						"m_rotationAngle": 0,
						"m_isArtFlipped": false
					}, {
						"m_eventType": "island",
						"m_imageID": 25,
						"m_parallaxLayer": 4,
						"m_drawLayer": 0,
						"m_position": {
							"x": 1817.560059,
							"y": 208
						},
						"m_scaleX": 0.6,
						"m_scaleY": 0.6,
						"m_rotationAngle": 0,
						"m_isArtFlipped": false
					}, {
						"m_eventType": "island",
						"m_imageID": 6,
						"m_parallaxLayer": 0,
						"m_drawLayer": 1,
						"m_position": {
							"x": 522.6562499999998,
							"y": 432
						},
						"m_scaleX": 1,
						"m_scaleY": 1,
						"m_rotationAngle": 0,
						"m_isArtFlipped": true
					}, {
						"m_eventType": "island",
						"m_imageID": 7,
						"m_parallaxLayer": 0,
						"m_drawLayer": 0,
						"m_position": {
							"x": 5750.4375,
							"y": 316
						},
						"m_scaleX": 1,
						"m_scaleY": 1,
						"m_rotationAngle": 0,
						"m_isArtFlipped": false
					}, {
						"m_eventType": "island",
						"m_imageID": 4,
						"m_parallaxLayer": 0,
						"m_drawLayer": 0,
						"m_position": {
							"x": 5130.468749999999,
							"y": 284
						},
						"m_scaleX": 0.8,
						"m_scaleY": 0.8,
						"m_rotationAngle": 0,
						"m_isArtFlipped": false
					}, {
						"m_eventType": "island",
						"m_imageID": 7,
						"m_parallaxLayer": 0,
						"m_drawLayer": 0,
						"m_position": {
							"x": 5799.218749999999,
							"y": 266
						},
						"m_scaleX": 0.5,
						"m_scaleY": 0.5,
						"m_rotationAngle": 0,
						"m_isArtFlipped": false
					}, {
						"m_eventType": "island",
						"m_imageID": 7,
						"m_parallaxLayer": 0,
						"m_drawLayer": 0,
						"m_position": {
							"x": 5588.28125,
							"y": 314
						},
						"m_scaleX": 0.5,
						"m_scaleY": 0.5,
						"m_rotationAngle": 0,
						"m_isArtFlipped": false,
						"m_rotationRate": 0
					}, {
						"m_eventType": "island",
						"m_imageID": 8,
						"m_parallaxLayer": 0,
						"m_drawLayer": 0,
						"m_position": {
							"x": 5812.76563,
							"y": 274
						},
						"m_scaleX": 1,
						"m_scaleY": 1,
						"m_rotationAngle": 0,
						"m_isArtFlipped": false,
						"m_rotationRate": 0
					}, {
						"m_eventType": "island",
						"m_imageID": 10,
						"m_parallaxLayer": 0,
						"m_drawLayer": 0,
						"m_position": {
							"x": 5804.3125,
							"y": 323
						},
						"m_scaleX": 1,
						"m_scaleY": 1,
						"m_rotationAngle": 0,
						"m_isArtFlipped": false,
						"m_rotationRate": 0
					}, {
						"m_eventType": "island",
						"m_imageID": 4,
						"m_parallaxLayer": 0,
						"m_drawLayer": 0,
						"m_position": {
							"x": 5825.375,
							"y": 270
						},
						"m_scaleX": 1,
						"m_scaleY": 1,
						"m_rotationAngle": 0,
						"m_isArtFlipped": false,
						"m_rotationRate": 0
					}, {
						"m_eventType": "island",
						"m_imageID": 4,
						"m_parallaxLayer": 0,
						"m_drawLayer": 0,
						"m_position": {
							"x": 5925.26563,
							"y": 221
						},
						"m_scaleX": 1,
						"m_scaleY": 1,
						"m_rotationAngle": 0,
						"m_isArtFlipped": false,
						"m_rotationRate": 0
					}, {
						"m_eventType": "island",
						"m_imageID": 5,
						"m_parallaxLayer": 0,
						"m_drawLayer": 0,
						"m_position": {
							"x": 5778.875,
							"y": 262
						},
						"m_scaleX": 1,
						"m_scaleY": 1,
						"m_rotationAngle": 0,
						"m_isArtFlipped": false,
						"m_rotationRate": 0
					}, {
						"m_eventType": "island",
						"m_imageID": 3,
						"m_parallaxLayer": 0,
						"m_drawLayer": 0,
						"m_position": {
							"x": 6044.047,
							"y": 217
						},
						"m_scaleX": 1,
						"m_scaleY": 1,
						"m_rotationAngle": 0,
						"m_isArtFlipped": false,
						"m_rotationRate": 0
					}, {
						"m_eventType": "island",
						"m_imageID": 9,
						"m_parallaxLayer": 0,
						"m_drawLayer": 0,
						"m_position": {
							"x": 6041.828,
							"y": 211
						},
						"m_scaleX": 1,
						"m_scaleY": 1,
						"m_rotationAngle": 0,
						"m_isArtFlipped": false,
						"m_rotationRate": 0
					}, {
						"m_eventType": "island",
						"m_imageID": 6,
						"m_parallaxLayer": 0,
						"m_drawLayer": 0,
						"m_position": {
							"x": 6012.75,
							"y": 263
						},
						"m_scaleX": 1,
						"m_scaleY": 1,
						"m_rotationAngle": 0,
						"m_isArtFlipped": false,
						"m_rotationRate": 0
					}, {
						"m_eventType": "island",
						"m_imageID": 4,
						"m_parallaxLayer": 0,
						"m_drawLayer": 0,
						"m_position": {
							"x": 6115.234379999998,
							"y": 246
						},
						"m_scaleX": 1,
						"m_scaleY": 1,
						"m_rotationAngle": 0,
						"m_isArtFlipped": true,
						"m_rotationRate": 0
					}, {
						"m_eventType": "island",
						"m_imageID": 8,
						"m_parallaxLayer": 0,
						"m_drawLayer": 0,
						"m_position": {
							"x": 6247.65625,
							"y": 285
						},
						"m_scaleX": 1,
						"m_scaleY": 1,
						"m_rotationAngle": 0,
						"m_isArtFlipped": false,
						"m_rotationRate": 0
					}, {
						"m_eventType": "island",
						"m_imageID": 4,
						"m_parallaxLayer": 0,
						"m_drawLayer": 0,
						"m_position": {
							"x": 6382.03125,
							"y": 323
						},
						"m_scaleX": 1,
						"m_scaleY": 1,
						"m_rotationAngle": 0,
						"m_isArtFlipped": true,
						"m_rotationRate": 0
					}, {
						"m_eventType": "island",
						"m_imageID": 4,
						"m_parallaxLayer": 0,
						"m_drawLayer": 0,
						"m_position": {
							"x": 6527.734379999998,
							"y": 344
						},
						"m_scaleX": 1,
						"m_scaleY": 1,
						"m_rotationAngle": 0,
						"m_isArtFlipped": false,
						"m_rotationRate": 0
					}, {
						"m_eventType": "island",
						"m_imageID": 8,
						"m_parallaxLayer": 0,
						"m_drawLayer": 0,
						"m_position": {
							"x": 6671.484379999998,
							"y": 325
						},
						"m_scaleX": 1,
						"m_scaleY": 1,
						"m_rotationAngle": 0,
						"m_isArtFlipped": false,
						"m_rotationRate": 0
					}, {
						"m_eventType": "island",
						"m_imageID": 8,
						"m_parallaxLayer": 0,
						"m_drawLayer": 0,
						"m_position": {
							"x": 6792.968749999999,
							"y": 290
						},
						"m_scaleX": 1,
						"m_scaleY": 1,
						"m_rotationAngle": 0,
						"m_isArtFlipped": true,
						"m_rotationRate": 0
					}, {
						"m_eventType": "island",
						"m_imageID": 8,
						"m_parallaxLayer": 0,
						"m_drawLayer": 0,
						"m_position": {
							"x": 6951.953,
							"y": 264
						},
						"m_scaleX": 1,
						"m_scaleY": 1,
						"m_rotationAngle": 0,
						"m_isArtFlipped": false,
						"m_rotationRate": 0
					}, {
						"m_eventType": "island",
						"m_imageID": 4,
						"m_parallaxLayer": 0,
						"m_drawLayer": 0,
						"m_position": {
							"x": 7245.703,
							"y": 275
						},
						"m_scaleX": 1,
						"m_scaleY": 1,
						"m_rotationAngle": 0,
						"m_isArtFlipped": false,
						"m_rotationRate": 0
					}, {
						"m_eventType": "island",
						"m_imageID": 7,
						"m_parallaxLayer": 0,
						"m_drawLayer": 0,
						"m_position": {
							"x": 6148.828,
							"y": 233
						},
						"m_scaleX": 1,
						"m_scaleY": 1,
						"m_rotationAngle": 0,
						"m_isArtFlipped": false,
						"m_rotationRate": 0
					}, {
						"m_eventType": "island",
						"m_imageID": 37,
						"m_parallaxLayer": 0,
						"m_drawLayer": 0,
						"m_position": {
							"x": 6082.8125,
							"y": 310
						},
						"m_scaleX": 1,
						"m_scaleY": 1,
						"m_rotationAngle": 0,
						"m_isArtFlipped": false,
						"m_rotationRate": 0
					}, {
						"m_eventType": "island",
						"m_imageID": 41,
						"m_parallaxLayer": 0,
						"m_drawLayer": 0,
						"m_position": {
							"x": 6455.078,
							"y": 379
						},
						"m_scaleX": 1,
						"m_scaleY": 1,
						"m_rotationAngle": 0,
						"m_isArtFlipped": false,
						"m_rotationRate": 0
					}, {
						"m_eventType": "island",
						"m_imageID": 41,
						"m_parallaxLayer": 0,
						"m_drawLayer": 0,
						"m_position": {
							"x": 6418.359379999999,
							"y": 415
						},
						"m_scaleX": 1,
						"m_scaleY": 1,
						"m_rotationAngle": 0,
						"m_isArtFlipped": false,
						"m_rotationRate": 0
					}, {
						"m_eventType": "island",
						"m_imageID": 17,
						"m_parallaxLayer": 0,
						"m_drawLayer": 1,
						"m_position": {
							"x": 7079.6875,
							"y": 205
						},
						"m_scaleX": 1,
						"m_scaleY": 1,
						"m_rotationAngle": 0,
						"m_isArtFlipped": false,
						"m_rotationRate": 0
					}, {
						"m_eventType": "island",
						"m_imageID": 3,
						"m_parallaxLayer": 0,
						"m_drawLayer": 0,
						"m_position": {
							"x": 7097.26563,
							"y": 249
						},
						"m_scaleX": 1,
						"m_scaleY": 1,
						"m_rotationAngle": 0,
						"m_isArtFlipped": false,
						"m_rotationRate": 0
					}, {
						"m_eventType": "island",
						"m_imageID": 9,
						"m_parallaxLayer": 0,
						"m_drawLayer": 0,
						"m_position": {
							"x": 6795.3125,
							"y": 280
						},
						"m_scaleX": 1,
						"m_scaleY": 1,
						"m_rotationAngle": 0,
						"m_isArtFlipped": true,
						"m_rotationRate": 0
					}, {
						"m_eventType": "island",
						"m_imageID": 11,
						"m_parallaxLayer": 0,
						"m_drawLayer": 0,
						"m_position": {
							"x": 6684.76563,
							"y": 380
						},
						"m_scaleX": 1,
						"m_scaleY": 1,
						"m_rotationAngle": 0,
						"m_isArtFlipped": false,
						"m_rotationRate": 0
					}, {
						"m_eventType": "island",
						"m_imageID": 36,
						"m_parallaxLayer": 0,
						"m_drawLayer": 0,
						"m_position": {
							"x": 6526.172,
							"y": 173
						},
						"m_scaleX": 1,
						"m_scaleY": 1,
						"m_rotationAngle": 0,
						"m_isArtFlipped": false,
						"m_rotationRate": 0
					}, {
						"m_eventType": "island",
						"m_imageID": 42,
						"m_parallaxLayer": 0,
						"m_drawLayer": 0,
						"m_position": {
							"x": 7099.218749999999,
							"y": 333
						},
						"m_scaleX": 1,
						"m_scaleY": 1,
						"m_rotationAngle": 0,
						"m_isArtFlipped": false,
						"m_rotationRate": 0
					}, {
						"m_eventType": "island",
						"m_imageID": 43,
						"m_parallaxLayer": 0,
						"m_drawLayer": 0,
						"m_position": {
							"x": 7171.093749999999,
							"y": 290
						},
						"m_scaleX": 1,
						"m_scaleY": 1,
						"m_rotationAngle": 0,
						"m_isArtFlipped": true,
						"m_rotationRate": 0
					}, {
						"m_eventType": "island",
						"m_imageID": 38,
						"m_parallaxLayer": 10,
						"m_drawLayer": 0,
						"m_position": {
							"x": -194.807434,
							"y": 192
						},
						"m_scaleX": 1,
						"m_scaleY": 1,
						"m_rotationAngle": 0,
						"m_isArtFlipped": false,
						"m_rotationRate": 0
					}, {
						"m_eventType": "island",
						"m_imageID": 10,
						"m_parallaxLayer": 0,
						"m_drawLayer": -2,
						"m_position": {
							"x": 6917.1875,
							"y": 279
						},
						"m_scaleX": 1,
						"m_scaleY": 1,
						"m_rotationAngle": 0,
						"m_isArtFlipped": false,
						"m_rotationRate": 0
					}, {
						"m_eventType": "island",
						"m_imageID": 6,
						"m_parallaxLayer": 0,
						"m_drawLayer": -1,
						"m_position": {
							"x": 6955.078,
							"y": 300
						},
						"m_scaleX": 1,
						"m_scaleY": 1,
						"m_rotationAngle": 0,
						"m_isArtFlipped": true,
						"m_rotationRate": 0
					}, {
						"m_eventType": "island",
						"m_imageID": 5,
						"m_parallaxLayer": 0,
						"m_drawLayer": -1,
						"m_position": {
							"x": 6821.875,
							"y": 326
						},
						"m_scaleX": 1,
						"m_scaleY": 1,
						"m_rotationAngle": 0,
						"m_isArtFlipped": false,
						"m_rotationRate": 0
					}, {
						"m_eventType": "island",
						"m_imageID": 3,
						"m_parallaxLayer": 0,
						"m_drawLayer": -1,
						"m_position": {
							"x": 6793.75,
							"y": 325
						},
						"m_scaleX": 0.6,
						"m_scaleY": 0.6,
						"m_rotationAngle": 0,
						"m_isArtFlipped": true,
						"m_rotationRate": 0
					}, {
						"m_eventType": "island",
						"m_imageID": 7,
						"m_parallaxLayer": 0,
						"m_drawLayer": -1,
						"m_position": {
							"x": 6635.547,
							"y": 365
						},
						"m_scaleX": 1,
						"m_scaleY": 1,
						"m_rotationAngle": 0,
						"m_isArtFlipped": false,
						"m_rotationRate": 0
					}, {
						"m_eventType": "island",
						"m_imageID": 7,
						"m_parallaxLayer": 0,
						"m_drawLayer": -1,
						"m_position": {
							"x": 6657.8125,
							"y": 377
						},
						"m_scaleX": 1,
						"m_scaleY": 1,
						"m_rotationAngle": 0,
						"m_isArtFlipped": false,
						"m_rotationRate": 0
					}, {
						"m_eventType": "island",
						"m_imageID": 7,
						"m_parallaxLayer": 0,
						"m_drawLayer": -2,
						"m_position": {
							"x": 6650.78125,
							"y": 378
						},
						"m_scaleX": 1,
						"m_scaleY": 1,
						"m_rotationAngle": 0,
						"m_isArtFlipped": true,
						"m_rotationRate": 0
					}, {
						"m_eventType": "island",
						"m_imageID": 8,
						"m_parallaxLayer": 0,
						"m_drawLayer": -1,
						"m_position": {
							"x": 6226.5625,
							"y": 294
						},
						"m_scaleX": 1,
						"m_scaleY": 1,
						"m_rotationAngle": 0,
						"m_isArtFlipped": false,
						"m_rotationRate": 0
					}, {
						"m_eventType": "island",
						"m_imageID": 8,
						"m_parallaxLayer": 0,
						"m_drawLayer": -2,
						"m_position": {
							"x": 6243.75,
							"y": 307
						},
						"m_scaleX": 1,
						"m_scaleY": 1,
						"m_rotationAngle": 0,
						"m_isArtFlipped": false,
						"m_rotationRate": 0
					}, {
						"m_eventType": "island",
						"m_imageID": 11,
						"m_parallaxLayer": 0,
						"m_drawLayer": -3,
						"m_position": {
							"x": 6255.078,
							"y": 360
						},
						"m_scaleX": 1,
						"m_scaleY": 1,
						"m_rotationAngle": 0,
						"m_isArtFlipped": false,
						"m_rotationRate": 0
					}, {
						"m_eventType": "island",
						"m_imageID": 37,
						"m_parallaxLayer": 0,
						"m_drawLayer": 0,
						"m_position": {
							"x": 6810.9375,
							"y": 409
						},
						"m_scaleX": 1,
						"m_scaleY": 1,
						"m_rotationAngle": 0,
						"m_isArtFlipped": false,
						"m_rotationRate": 0
					}, {
						"m_eventType": "island",
						"m_imageID": 37,
						"m_parallaxLayer": 0,
						"m_drawLayer": 0,
						"m_position": {
							"x": 6516.40625,
							"y": 414
						},
						"m_scaleX": 1,
						"m_scaleY": 1,
						"m_rotationAngle": 0,
						"m_isArtFlipped": false,
						"m_rotationRate": 0
					}, {
						"m_eventType": "island",
						"m_imageID": 37,
						"m_parallaxLayer": 0,
						"m_drawLayer": 0,
						"m_position": {
							"x": 7005.859379999999,
							"y": 332
						},
						"m_scaleX": 1,
						"m_scaleY": 1,
						"m_rotationAngle": 0,
						"m_isArtFlipped": false,
						"m_rotationRate": 0
					}, {
						"m_eventType": "island",
						"m_imageID": 42,
						"m_parallaxLayer": 0,
						"m_drawLayer": 0,
						"m_position": {
							"x": 6131.828,
							"y": 321
						},
						"m_scaleX": 1,
						"m_scaleY": 1,
						"m_rotationAngle": 0,
						"m_isArtFlipped": true,
						"m_rotationRate": 0
					}, {
						"m_eventType": "island",
						"m_imageID": 17,
						"m_parallaxLayer": 0,
						"m_drawLayer": 1,
						"m_position": {
							"x": 5957.9375,
							"y": 184
						},
						"m_scaleX": 1,
						"m_scaleY": 1,
						"m_rotationAngle": 0,
						"m_isArtFlipped": true,
						"m_rotationRate": 0
					}, {
						"m_eventType": "island",
						"m_imageID": 22,
						"m_parallaxLayer": 9,
						"m_drawLayer": 0,
						"m_position": {
							"x": 650.727844,
							"y": 157
						},
						"m_scaleX": 1,
						"m_scaleY": 1,
						"m_rotationAngle": 0,
						"m_isArtFlipped": false,
						"m_rotationRate": 0
					}, {
						"m_eventType": "island",
						"m_imageID": 19,
						"m_parallaxLayer": 0,
						"m_drawLayer": -1,
						"m_position": {
							"x": 6910.15625,
							"y": 196
						},
						"m_scaleX": 1,
						"m_scaleY": 1,
						"m_rotationAngle": 0,
						"m_isArtFlipped": false,
						"m_rotationRate": 0
					}, {
						"m_eventType": "island",
						"m_imageID": 24,
						"m_parallaxLayer": 8,
						"m_drawLayer": 0,
						"m_position": {
							"x": 1121.341308999999,
							"y": 159
						},
						"m_scaleX": 0.31,
						"m_scaleY": 0.31,
						"m_rotationAngle": 0,
						"m_isArtFlipped": false,
						"m_rotationRate": 0
					}, {
						"m_eventType": "island",
						"m_imageID": 27,
						"m_parallaxLayer": 8,
						"m_drawLayer": 1,
						"m_position": {
							"x": 1137.747559,
							"y": 158
						},
						"m_scaleX": 0.3,
						"m_scaleY": 0.3,
						"m_rotationAngle": 0,
						"m_isArtFlipped": false,
						"m_rotationRate": 0
					}, {
						"m_eventType": "island",
						"m_imageID": 34,
						"m_parallaxLayer": 8,
						"m_drawLayer": 2,
						"m_position": {
							"x": 1096.341308999999,
							"y": 123
						},
						"m_scaleX": 0.7,
						"m_scaleY": 0.7,
						"m_rotationAngle": 0,
						"m_isArtFlipped": false,
						"m_rotationRate": 0
					}, {
						"m_eventType": "island",
						"m_imageID": 40,
						"m_parallaxLayer": 8,
						"m_drawLayer": 2,
						"m_position": {
							"x": 1160.794433999999,
							"y": 209
						},
						"m_scaleX": 1,
						"m_scaleY": 1,
						"m_rotationAngle": 0,
						"m_isArtFlipped": false,
						"m_rotationRate": 0
					}, {
						"m_eventType": "island",
						"m_imageID": 40,
						"m_parallaxLayer": 4,
						"m_drawLayer": 3,
						"m_position": {
							"x": 1839.591308999998,
							"y": 272
						},
						"m_scaleX": 1,
						"m_scaleY": 1,
						"m_rotationAngle": 0,
						"m_isArtFlipped": false
					}, {
						"m_eventType": "island",
						"m_imageID": 23,
						"m_parallaxLayer": 4,
						"m_drawLayer": 0,
						"m_position": {
							"x": 3186.544433999999,
							"y": 173
						},
						"m_scaleX": 0.7,
						"m_scaleY": 0.7,
						"m_rotationAngle": 0,
						"m_isArtFlipped": false,
						"m_rotationRate": 0
					}, {
						"m_eventType": "island",
						"m_imageID": 26,
						"m_parallaxLayer": 4,
						"m_drawLayer": 1,
						"m_position": {
							"x": 3168.966308999999,
							"y": 132
						},
						"m_scaleX": 0.6,
						"m_scaleY": 0.6,
						"m_rotationAngle": 0,
						"m_isArtFlipped": false,
						"m_rotationRate": 0
					}, {
						"m_eventType": "island",
						"m_imageID": 28,
						"m_parallaxLayer": 4,
						"m_drawLayer": 1,
						"m_position": {
							"x": 3231.075683999999,
							"y": 150
						},
						"m_scaleX": 0.5,
						"m_scaleY": 0.5,
						"m_rotationAngle": 0,
						"m_isArtFlipped": false,
						"m_rotationRate": 0
					}, {
						"m_eventType": "island",
						"m_imageID": 16,
						"m_parallaxLayer": 4,
						"m_drawLayer": 2,
						"m_position": {
							"x": 3142.013184,
							"y": 138
						},
						"m_scaleX": 0.5,
						"m_scaleY": 0.5,
						"m_rotationAngle": 20,
						"m_isArtFlipped": false,
						"m_rotationRate": 0
					}, {
						"m_eventType": "island",
						"m_imageID": 16,
						"m_parallaxLayer": 4,
						"m_drawLayer": 2,
						"m_position": {
							"x": 3183.028808999999,
							"y": 153
						},
						"m_scaleX": 0.4,
						"m_scaleY": 0.4,
						"m_rotationAngle": 345,
						"m_isArtFlipped": true,
						"m_rotationRate": 0
					}, {
						"m_eventType": "island",
						"m_imageID": 18,
						"m_parallaxLayer": 4,
						"m_drawLayer": 4,
						"m_position": {
							"x": 3247.872559,
							"y": 192
						},
						"m_scaleX": 0.6,
						"m_scaleY": 0.6,
						"m_rotationAngle": 0,
						"m_isArtFlipped": false,
						"m_rotationRate": 0
					}, {
						"m_eventType": "island",
						"m_imageID": 46,
						"m_parallaxLayer": 4,
						"m_drawLayer": 3,
						"m_position": {
							"x": 3198.653808999999,
							"y": 207
						},
						"m_scaleX": 1,
						"m_scaleY": 1,
						"m_rotationAngle": 0,
						"m_isArtFlipped": false,
						"m_rotationRate": 0
					}, {
						"m_eventType": "island",
						"m_imageID": 17,
						"m_parallaxLayer": 4,
						"m_drawLayer": 3,
						"m_position": {
							"x": 3159.591309,
							"y": 210
						},
						"m_scaleX": 0.5,
						"m_scaleY": 0.35,
						"m_rotationAngle": 0,
						"m_isArtFlipped": false,
						"m_rotationRate": 0
					}, {
						"m_eventType": "island",
						"m_imageID": 19,
						"m_parallaxLayer": -4,
						"m_drawLayer": 0,
						"m_position": {
							"x": 8566.268555,
							"y": 375
						},
						"m_scaleX": 1.5,
						"m_scaleY": 1.5,
						"m_rotationAngle": 0,
						"m_isArtFlipped": false,
						"m_rotationRate": 9
					}, {
						"m_eventType": "island",
						"m_imageID": 7,
						"m_parallaxLayer": -4,
						"m_drawLayer": 0,
						"m_position": {
							"x": 10874.706055,
							"y": 455
						},
						"m_scaleX": 1,
						"m_scaleY": 1,
						"m_rotationAngle": 0,
						"m_isArtFlipped": false,
						"m_rotationRate": 18
					}, {
						"m_eventType": "island",
						"m_imageID": 45,
						"m_parallaxLayer": 0,
						"m_drawLayer": 0,
						"m_position": {
							"x": 1592.96875,
							"y": 443
						},
						"m_scaleX": 1,
						"m_scaleY": 1,
						"m_rotationAngle": 0,
						"m_isArtFlipped": false,
						"m_rotationRate": 0
					}, {
						"m_eventType": "island",
						"m_imageID": 42,
						"m_parallaxLayer": 0,
						"m_drawLayer": 4,
						"m_position": {
							"x": 176.8400000000001,
							"y": 411
						},
						"m_scaleX": 1,
						"m_scaleY": 1,
						"m_rotationAngle": 0,
						"m_isArtFlipped": false,
						"m_rotationRate": 0
					}, {
						"m_eventType": "island",
						"m_imageID": 42,
						"m_parallaxLayer": 0,
						"m_drawLayer": 4,
						"m_position": {
							"x": 754.84,
							"y": 359
						},
						"m_scaleX": 1,
						"m_scaleY": 1,
						"m_rotationAngle": 0,
						"m_isArtFlipped": true,
						"m_rotationRate": 0
					}, {
						"m_eventType": "island",
						"m_imageID": 42,
						"m_parallaxLayer": 0,
						"m_drawLayer": 4,
						"m_position": {
							"x": 1439.02,
							"y": 377
						},
						"m_scaleX": 1,
						"m_scaleY": 1,
						"m_rotationAngle": 0,
						"m_isArtFlipped": false,
						"m_rotationRate": 0
					}, {
						"m_eventType": "island",
						"m_imageID": 42,
						"m_parallaxLayer": 0,
						"m_drawLayer": 4,
						"m_position": {
							"x": 2129.94,
							"y": 355
						},
						"m_scaleX": 1,
						"m_scaleY": 1,
						"m_rotationAngle": 0,
						"m_isArtFlipped": false,
						"m_rotationRate": 0
					}, {
						"m_eventType": "island",
						"m_imageID": 42,
						"m_parallaxLayer": 0,
						"m_drawLayer": 4,
						"m_position": {
							"x": 2388.94,
							"y": 464
						},
						"m_scaleX": 1,
						"m_scaleY": 1,
						"m_rotationAngle": 0,
						"m_isArtFlipped": false,
						"m_rotationRate": 0
					}, {
						"m_eventType": "island",
						"m_imageID": 42,
						"m_parallaxLayer": 0,
						"m_drawLayer": 4,
						"m_position": {
							"x": 2998.04,
							"y": 344
						},
						"m_scaleX": 1,
						"m_scaleY": 1,
						"m_rotationAngle": 0,
						"m_isArtFlipped": false,
						"m_rotationRate": 0
					}, {
						"m_eventType": "island",
						"m_imageID": 42,
						"m_parallaxLayer": 0,
						"m_drawLayer": 4,
						"m_position": {
							"x": 3274.04,
							"y": 477
						},
						"m_scaleX": 1,
						"m_scaleY": 1,
						"m_rotationAngle": 0,
						"m_isArtFlipped": false,
						"m_rotationRate": 0
					}, {
						"m_eventType": "island",
						"m_imageID": 41,
						"m_parallaxLayer": 0,
						"m_drawLayer": 0,
						"m_position": {
							"x": 3343.02,
							"y": 479
						},
						"m_scaleX": 1,
						"m_scaleY": 1,
						"m_rotationAngle": 0,
						"m_isArtFlipped": false,
						"m_rotationRate": 0
					}, {
						"m_eventType": "island",
						"m_imageID": 41,
						"m_parallaxLayer": 0,
						"m_drawLayer": 0,
						"m_position": {
							"x": 3407.02,
							"y": 477
						},
						"m_scaleX": 1,
						"m_scaleY": 1,
						"m_rotationAngle": 0,
						"m_isArtFlipped": true,
						"m_rotationRate": 0
					}, {
						"m_eventType": "island",
						"m_imageID": 44,
						"m_parallaxLayer": 3,
						"m_drawLayer": 0,
						"m_position": {
							"x": 2339.419922,
							"y": 275
						},
						"m_scaleX": 1,
						"m_scaleY": 1,
						"m_rotationAngle": 0,
						"m_isArtFlipped": false,
						"m_rotationRate": 0
					}, {
						"m_eventType": "island",
						"m_imageID": 41,
						"m_parallaxLayer": 0,
						"m_drawLayer": 0,
						"m_position": {
							"x": 3565.42,
							"y": 403
						},
						"m_scaleX": 1,
						"m_scaleY": 1,
						"m_rotationAngle": 0,
						"m_isArtFlipped": true,
						"m_rotationRate": 0
					}, {
						"m_eventType": "island",
						"m_imageID": 42,
						"m_parallaxLayer": 0,
						"m_drawLayer": 0,
						"m_position": {
							"x": 4558.32,
							"y": 424
						},
						"m_scaleX": 1,
						"m_scaleY": 1,
						"m_rotationAngle": 0,
						"m_isArtFlipped": false,
						"m_rotationRate": 0
					}, {
						"m_eventType": "island",
						"m_imageID": 42,
						"m_parallaxLayer": 0,
						"m_drawLayer": 0,
						"m_position": {
							"x": 4955,
							"y": 313
						},
						"m_scaleX": 1,
						"m_scaleY": 1,
						"m_rotationAngle": 0,
						"m_isArtFlipped": false,
						"m_rotationRate": 0
					}, {
						"m_eventType": "island",
						"m_imageID": 41,
						"m_parallaxLayer": 0,
						"m_drawLayer": 0,
						"m_position": {
							"x": 5038,
							"y": 311
						},
						"m_scaleX": 1,
						"m_scaleY": 1,
						"m_rotationAngle": 0,
						"m_isArtFlipped": false,
						"m_rotationRate": 0
					} ],
				"m_eventList": [ {
						"m_position": {
							"x": 62.350006,
							"y": 296.100006
						},
						"m_eventId": 1,
						"m_eventType": "level",
						"m_name": "egypt_level_1",
						"m_parentEvent": "",
						"m_unlockedFrom": "tutorial_level_tutorial4",
						"m_visibleFrom": "",
						"m_autoVisible": true,
						"m_isChallengeType": false,
						"m_dataString": "egypt1",
						"m_levelNodeType": "normal",
						"m_displayText": "1",
						"m_unlockedNarrationID": "",
						"m_completedNarrationID": "egypt_worldmap_intro",
						"m_worldMapTutorial": "map_intro",
						"m_worldMapTutorialVisibleWhen": "cleared",
						"m_toggleName": ""
					}, {
						"m_position": {
							"x": 196,
							"y": 371
						},
						"m_eventId": 2,
						"m_eventType": "level",
						"m_name": "egypt_level_2",
						"m_parentEvent": "egypt_level_1",
						"m_unlockedFrom": "",
						"m_visibleFrom": "",
						"m_autoVisible": true,
						"m_isChallengeType": false,
						"m_dataString": "egypt2",
						"m_levelNodeType": "normal",
						"m_displayText": "2",
						"m_unlockedNarrationID": "",
						"m_completedNarrationID": "almanac_intro",
						"m_worldMapTutorial": "almanac_intro",
						"m_worldMapTutorialVisibleWhen": "cleared",
						"m_toggleName": ""
					}, {
						"m_position": {
							"x": 500,
							"y": 431
						},
						"m_eventId": 3,
						"m_eventType": "level",
						"m_name": "egypt_level_3",
						"m_parentEvent": "egypt_rewardplant_cabbagepult",
						"m_unlockedFrom": "",
						"m_visibleFrom": "",
						"m_autoVisible": true,
						"m_isChallengeType": false,
						"m_dataString": "egypt3",
						"m_levelNodeType": "normal",
						"m_displayText": "3",
						"m_unlockedNarrationID": "",
						"m_completedNarrationID": "",
						"m_worldMapTutorial": "continue_egypt",
						"m_worldMapTutorialVisibleWhen": "unlocked",
						"m_toggleName": ""
					}, {
						"m_position": {
							"x": 2400,
							"y": 428
						},
						"m_eventId": 4,
						"m_eventType": "level",
						"m_name": "egypt_level_12",
						"m_parentEvent": "egypt_rewardgiftbox_2",
						"m_unlockedFrom": "",
						"m_visibleFrom": "",
						"m_autoVisible": true,
						"m_isChallengeType": false,
						"m_dataString": "egypt12",
						"m_levelNodeType": "normal",
						"m_displayText": "12",
						"m_unlockedNarrationID": "",
						"m_completedNarrationID": "",
						"m_worldMapTutorial": "none",
						"m_worldMapTutorialVisibleWhen": "unlocked",
						"m_toggleName": ""
					}, {
						"m_position": {
							"x": 1451,
							"y": 334
						},
						"m_eventId": 5,
						"m_eventType": "level",
						"m_name": "egypt_level_7",
						"m_parentEvent": "egypt_rewardgiftbox_1",
						"m_unlockedFrom": "",
						"m_visibleFrom": "",
						"m_autoVisible": true,
						"m_isChallengeType": false,
						"m_dataString": "egypt7",
						"m_levelNodeType": "minigame",
						"m_displayText": "7",
						"m_unlockedNarrationID": "",
						"m_completedNarrationID": "",
						"m_worldMapTutorial": "none",
						"m_worldMapTutorialVisibleWhen": "unlocked",
						"m_toggleName": ""
					}, {
						"m_position": {
							"x": 1200,
							"y": 207
						},
						"m_eventId": 6,
						"m_eventType": "level",
						"m_name": "egypt_level_6",
						"m_parentEvent": "egypt_rewardplant_iceburg",
						"m_unlockedFrom": "",
						"m_visibleFrom": "",
						"m_autoVisible": true,
						"m_isChallengeType": false,
						"m_dataString": "egypt6",
						"m_levelNodeType": "normal",
						"m_displayText": "6",
						"m_unlockedNarrationID": "",
						"m_completedNarrationID": "",
						"m_worldMapTutorial": "none",
						"m_worldMapTutorialVisibleWhen": "unlocked",
						"m_toggleName": ""
					}, {
						"m_position": {
							"x": 869,
							"y": 234
						},
						"m_eventId": 7,
						"m_eventType": "level",
						"m_name": "egypt_level_5",
						"m_parentEvent": "egypt_level_4",
						"m_unlockedFrom": "",
						"m_visibleFrom": "",
						"m_autoVisible": true,
						"m_isChallengeType": false,
						"m_dataString": "egypt5",
						"m_levelNodeType": "minigame",
						"m_displayText": "5",
						"m_unlockedNarrationID": "",
						"m_completedNarrationID": "store_intro",
						"m_worldMapTutorial": "store_intro",
						"m_worldMapTutorialVisibleWhen": "cleared",
						"m_toggleName": ""
					}, {
						"m_position": {
							"x": 1728,
							"y": 333
						},
						"m_eventId": 8,
						"m_eventType": "level",
						"m_name": "egypt_level_9",
						"m_parentEvent": "egypt_level_8",
						"m_unlockedFrom": "",
						"m_visibleFrom": "",
						"m_autoVisible": true,
						"m_isChallengeType": false,
						"m_dataString": "egypt9",
						"m_levelNodeType": "normal",
						"m_displayText": "9",
						"m_unlockedNarrationID": "",
						"m_completedNarrationID": "",
						"m_worldMapTutorial": "none",
						"m_worldMapTutorialVisibleWhen": "unlocked",
						"m_toggleName": ""
					}, {
						"m_position": {
							"x": 2007,
							"y": 254
						},
						"m_eventId": 9,
						"m_eventType": "level",
						"m_name": "egypt_level_10",
						"m_parentEvent": "egypt_rewardplant_gravebuster",
						"m_unlockedFrom": "",
						"m_visibleFrom": "",
						"m_autoVisible": true,
						"m_isChallengeType": false,
						"m_dataString": "egypt10",
						"m_levelNodeType": "normal",
						"m_displayText": "10",
						"m_unlockedNarrationID": "",
						"m_completedNarrationID": "",
						"m_worldMapTutorial": "none",
						"m_worldMapTutorialVisibleWhen": "unlocked",
						"m_toggleName": ""
					}, {
						"m_position": {
							"x": 2148,
							"y": 314
						},
						"m_eventId": 10,
						"m_eventType": "level",
						"m_name": "egypt_level_11",
						"m_parentEvent": "egypt_level_10",
						"m_unlockedFrom": "",
						"m_visibleFrom": "",
						"m_autoVisible": true,
						"m_isChallengeType": false,
						"m_dataString": "egypt11",
						"m_levelNodeType": "minigame",
						"m_displayText": "11",
						"m_unlockedNarrationID": "",
						"m_completedNarrationID": "",
						"m_worldMapTutorial": "none",
						"m_worldMapTutorialVisibleWhen": "unlocked",
						"m_toggleName": ""
					}, {
						"m_position": {
							"x": 614,
							"y": 393
						},
						"m_eventId": 11,
						"m_eventType": "plant",
						"m_name": "egypt_rewardplant_bloomerang",
						"m_parentEvent": "egypt_level_3",
						"m_unlockedFrom": "",
						"m_visibleFrom": "",
						"m_autoVisible": true,
						"m_isChallengeType": false,
						"m_dataString": "bloomerang"
					}, {
						"m_position": {
							"x": 334,
							"y": 425
						},
						"m_eventId": 12,
						"m_eventType": "plant",
						"m_name": "egypt_rewardplant_cabbagepult",
						"m_parentEvent": "egypt_level_2",
						"m_unlockedFrom": "",
						"m_visibleFrom": "",
						"m_autoVisible": true,
						"m_isChallengeType": false,
						"m_dataString": "cabbagepult"
					}, {
						"m_position": {
							"x": 1009,
							"y": -142
						},
						"m_eventId": 13,
						"m_eventType": "key_gate",
						"m_name": "egypt_keygate_chal_protect",
						"m_parentEvent": "",
						"m_unlockedFrom": "",
						"m_visibleFrom": "",
						"m_autoVisible": true,
						"m_isChallengeType": false,
						"m_cost": 3
					}, {
						"m_position": {
							"x": 1852,
							"y": 263
						},
						"m_eventId": 14,
						"m_eventType": "plant",
						"m_name": "egypt_rewardplant_gravebuster",
						"m_parentEvent": "egypt_level_9",
						"m_unlockedFrom": "",
						"m_visibleFrom": "",
						"m_autoVisible": true,
						"m_isChallengeType": false,
						"m_dataString": "gravebuster"
					}, {
						"m_position": {
							"x": 1025,
							"y": 193
						},
						"m_eventId": 15,
						"m_eventType": "plant",
						"m_name": "egypt_rewardplant_iceburg",
						"m_parentEvent": "egypt_level_5",
						"m_unlockedFrom": "",
						"m_visibleFrom": "",
						"m_autoVisible": true,
						"m_isChallengeType": false,
						"m_dataString": "iceburg"
					}, {
						"m_position": {
							"x": 2710,
							"y": 331
						},
						"m_eventId": 17,
						"m_eventType": "plant",
						"m_name": "egypt_rewardplant_bonkchoy",
						"m_parentEvent": "egypt_level_13",
						"m_unlockedFrom": "",
						"m_visibleFrom": "",
						"m_autoVisible": true,
						"m_isChallengeType": false,
						"m_dataString": "bonkchoy"
					}, {
						"m_position": {
							"x": 4042,
							"y": 274
						},
						"m_eventId": 18,
						"m_eventType": "plant",
						"m_name": "egypt_rewardplant_repeater",
						"m_parentEvent": "egypt_level_19",
						"m_unlockedFrom": "",
						"m_visibleFrom": "",
						"m_autoVisible": true,
						"m_isChallengeType": false,
						"m_dataString": "repeater"
					}, {
						"m_position": {
							"x": 3011,
							"y": 301
						},
						"m_eventId": 19,
						"m_eventType": "level",
						"m_name": "egypt_level_15",
						"m_parentEvent": "egypt_level_14",
						"m_unlockedFrom": "",
						"m_visibleFrom": "",
						"m_autoVisible": true,
						"m_isChallengeType": false,
						"m_dataString": "egypt15",
						"m_levelNodeType": "minigame",
						"m_displayText": "15",
						"m_unlockedNarrationID": "",
						"m_completedNarrationID": "",
						"m_worldMapTutorial": "none",
						"m_worldMapTutorialVisibleWhen": "unlocked",
						"m_toggleName": ""
					}, {
						"m_position": {
							"x": 2582,
							"y": 414
						},
						"m_eventId": 20,
						"m_eventType": "level",
						"m_name": "egypt_level_13",
						"m_parentEvent": "egypt_level_12",
						"m_unlockedFrom": "",
						"m_visibleFrom": "",
						"m_autoVisible": true,
						"m_isChallengeType": false,
						"m_dataString": "egypt13",
						"m_levelNodeType": "normal",
						"m_displayText": "13",
						"m_unlockedNarrationID": "",
						"m_completedNarrationID": "",
						"m_worldMapTutorial": "none",
						"m_worldMapTutorialVisibleWhen": "unlocked",
						"m_toggleName": ""
					}, {
						"m_position": {
							"x": 2863,
							"y": 282
						},
						"m_eventId": 22,
						"m_eventType": "level",
						"m_name": "egypt_level_14",
						"m_parentEvent": "egypt_rewardplant_bonkchoy",
						"m_unlockedFrom": "",
						"m_visibleFrom": "",
						"m_autoVisible": true,
						"m_isChallengeType": false,
						"m_dataString": "egypt14",
						"m_levelNodeType": "normal",
						"m_displayText": "14",
						"m_unlockedNarrationID": "",
						"m_completedNarrationID": "",
						"m_worldMapTutorial": "none",
						"m_worldMapTutorialVisibleWhen": "unlocked",
						"m_toggleName": ""
					}, {
						"m_position": {
							"x": 1479.419922,
							"y": -135.099976
						},
						"m_eventId": 23,
						"m_eventType": "key_gate",
						"m_name": "egypt_keygate_chal_preset",
						"m_parentEvent": "",
						"m_unlockedFrom": "",
						"m_visibleFrom": "",
						"m_autoVisible": true,
						"m_isChallengeType": false,
						"m_cost": 4
					}, {
						"m_position": {
							"x": 3289,
							"y": 439
						},
						"m_eventId": 24,
						"m_eventType": "level",
						"m_name": "egypt_level_16",
						"m_parentEvent": "egypt_rewardgiftbox_3",
						"m_unlockedFrom": "",
						"m_visibleFrom": "",
						"m_autoVisible": true,
						"m_isChallengeType": false,
						"m_dataString": "egypt16",
						"m_levelNodeType": "minigame",
						"m_displayText": "16",
						"m_unlockedNarrationID": "",
						"m_completedNarrationID": "",
						"m_worldMapTutorial": "none",
						"m_worldMapTutorialVisibleWhen": "unlocked",
						"m_toggleName": ""
					}, {
						"m_position": {
							"x": 3464,
							"y": 427
						},
						"m_eventId": 25,
						"m_eventType": "level",
						"m_name": "egypt_level_17",
						"m_parentEvent": "egypt_level_16",
						"m_unlockedFrom": "",
						"m_visibleFrom": "",
						"m_autoVisible": true,
						"m_isChallengeType": false,
						"m_dataString": "egypt17",
						"m_levelNodeType": "normal",
						"m_displayText": "17",
						"m_unlockedNarrationID": "",
						"m_completedNarrationID": "",
						"m_worldMapTutorial": "none",
						"m_worldMapTutorialVisibleWhen": "unlocked",
						"m_toggleName": ""
					}, {
						"m_position": {
							"x": 3755,
							"y": 282
						},
						"m_eventId": 26,
						"m_eventType": "level",
						"m_name": "egypt_level_18",
						"m_parentEvent": "egypt_rewardupgrade_mini_chal_reward",
						"m_unlockedFrom": "",
						"m_visibleFrom": "",
						"m_autoVisible": true,
						"m_isChallengeType": false,
						"m_dataString": "egypt18",
						"m_levelNodeType": "minigame",
						"m_displayText": "18",
						"m_unlockedNarrationID": "",
						"m_completedNarrationID": "",
						"m_worldMapTutorial": "none",
						"m_worldMapTutorialVisibleWhen": "unlocked",
						"m_toggleName": ""
					}, {
						"m_position": {
							"x": 5128,
							"y": 307
						},
						"m_eventId": 27,
						"m_eventType": "plant",
						"m_name": "egypt_rewardplant_egyptchall3end",
						"m_parentEvent": "egypt_level_24",
						"m_unlockedFrom": "",
						"m_visibleFrom": "",
						"m_autoVisible": true,
						"m_isChallengeType": false,
						"m_dataString": "twinsunflower"
					}, {
						"m_position": {
							"x": 4578,
							"y": 382
						},
						"m_eventId": 29,
						"m_eventType": "level",
						"m_name": "egypt_level_22",
						"m_parentEvent": "egypt_rewardupgrade_chal_4_reward",
						"m_unlockedFrom": "",
						"m_visibleFrom": "",
						"m_autoVisible": true,
						"m_isChallengeType": false,
						"m_dataString": "egypt22",
						"m_levelNodeType": "normal",
						"m_displayText": "22",
						"m_unlockedNarrationID": "",
						"m_completedNarrationID": "",
						"m_worldMapTutorial": "none",
						"m_worldMapTutorialVisibleWhen": "unlocked",
						"m_toggleName": ""
					}, {
						"m_position": {
							"x": 4693,
							"y": 307
						},
						"m_eventId": 30,
						"m_eventType": "level",
						"m_name": "egypt_level_23",
						"m_parentEvent": "egypt_level_22",
						"m_unlockedFrom": "",
						"m_visibleFrom": "",
						"m_autoVisible": true,
						"m_isChallengeType": false,
						"m_dataString": "egypt23",
						"m_levelNodeType": "minigame",
						"m_displayText": "23",
						"m_unlockedNarrationID": "",
						"m_completedNarrationID": "",
						"m_worldMapTutorial": "none",
						"m_worldMapTutorialVisibleWhen": "unlocked",
						"m_toggleName": ""
					}, {
						"m_position": {
							"x": 4973,
							"y": 266
						},
						"m_eventId": 31,
						"m_eventType": "level",
						"m_name": "egypt_level_24",
						"m_parentEvent": "egypt_rewardgiftbox_4",
						"m_unlockedFrom": "",
						"m_visibleFrom": "",
						"m_autoVisible": true,
						"m_isChallengeType": false,
						"m_dataString": "egypt24",
						"m_levelNodeType": "minigame",
						"m_displayText": "24",
						"m_unlockedNarrationID": "",
						"m_completedNarrationID": "",
						"m_worldMapTutorial": "none",
						"m_worldMapTutorialVisibleWhen": "unlocked",
						"m_toggleName": ""
					}, {
						"m_position": {
							"x": 4417,
							"y": 424
						},
						"m_eventId": 32,
						"m_eventType": "upgrade",
						"m_name": "egypt_rewardupgrade_chal_4_reward",
						"m_parentEvent": "egypt_level_21",
						"m_unlockedFrom": "",
						"m_visibleFrom": "",
						"m_autoVisible": true,
						"m_isChallengeType": false,
						"m_dataString": "starting_sun_lvl1"
					}, {
						"m_position": {
							"x": 1339.329956,
							"y": -130.8999629999999
						},
						"m_eventId": 33,
						"m_eventType": "key_gate",
						"m_name": "egypt_keygate_chal_laststand",
						"m_parentEvent": "",
						"m_unlockedFrom": "",
						"m_visibleFrom": "",
						"m_autoVisible": true,
						"m_isChallengeType": false,
						"m_cost": 5
					}, {
						"m_position": {
							"x": 2458,
							"y": 201
						},
						"m_eventId": 34,
						"m_eventType": "level",
						"m_name": "egypt_level_dangerroom",
						"m_parentEvent": "",
						"m_unlockedFrom": "egypt_level_12",
						"m_visibleFrom": "",
						"m_autoVisible": true,
						"m_isChallengeType": false,
						"m_dataString": "egypt_dangerroom",
						"m_levelNodeType": "danger",
						"m_displayText": "10002",
						"m_unlockedNarrationID": "",
						"m_completedNarrationID": "",
						"m_worldMapTutorial": "none",
						"m_worldMapTutorialVisibleWhen": "unlocked",
						"m_toggleName": ""
					}, {
						"m_position": {
							"x": 1603,
							"y": 435
						},
						"m_eventId": 35,
						"m_eventType": "level",
						"m_name": "egypt_level_8",
						"m_parentEvent": "egypt_level_7",
						"m_unlockedFrom": "",
						"m_visibleFrom": "",
						"m_autoVisible": true,
						"m_isChallengeType": false,
						"m_dataString": "egypt8",
						"m_levelNodeType": "miniboss",
						"m_displayText": "8",
						"m_unlockedNarrationID": "",
						"m_completedNarrationID": "",
						"m_worldMapTutorial": "none",
						"m_worldMapTutorialVisibleWhen": "unlocked",
						"m_toggleName": ""
					}, {
						"m_position": {
							"x": 3887,
							"y": 247
						},
						"m_eventId": 36,
						"m_eventType": "level",
						"m_name": "egypt_level_19",
						"m_parentEvent": "egypt_level_18",
						"m_unlockedFrom": "",
						"m_visibleFrom": "",
						"m_autoVisible": true,
						"m_isChallengeType": false,
						"m_dataString": "egypt19",
						"m_levelNodeType": "normal",
						"m_displayText": "19",
						"m_unlockedNarrationID": "",
						"m_completedNarrationID": "",
						"m_worldMapTutorial": "none",
						"m_worldMapTutorialVisibleWhen": "unlocked",
						"m_toggleName": ""
					}, {
						"m_position": {
							"x": 4175,
							"y": 338
						},
						"m_eventId": 37,
						"m_eventType": "level",
						"m_name": "egypt_level_20",
						"m_parentEvent": "egypt_rewardplant_repeater",
						"m_unlockedFrom": "",
						"m_visibleFrom": "",
						"m_autoVisible": true,
						"m_isChallengeType": false,
						"m_dataString": "egypt20",
						"m_levelNodeType": "minigame",
						"m_displayText": "20",
						"m_unlockedNarrationID": "",
						"m_completedNarrationID": "",
						"m_worldMapTutorial": "none",
						"m_worldMapTutorialVisibleWhen": "unlocked",
						"m_toggleName": ""
					}, {
						"m_position": {
							"x": 3615,
							"y": 367
						},
						"m_eventId": 38,
						"m_eventType": "upgrade",
						"m_name": "egypt_rewardupgrade_mini_chal_reward",
						"m_parentEvent": "egypt_level_17",
						"m_unlockedFrom": "",
						"m_visibleFrom": "",
						"m_autoVisible": true,
						"m_isChallengeType": false,
						"m_dataString": "pf_slots_lvl1"
					}, {
						"m_position": {
							"x": 1199.23999,
							"y": -126.699966
						},
						"m_eventId": 39,
						"m_eventType": "key_gate",
						"m_name": "egypt_keygate_chal_minigame",
						"m_parentEvent": "",
						"m_unlockedFrom": "",
						"m_visibleFrom": "",
						"m_autoVisible": true,
						"m_isChallengeType": false,
						"m_cost": 4
					}, {
						"m_position": {
							"x": 736,
							"y": 314
						},
						"m_eventId": 40,
						"m_eventType": "level",
						"m_name": "egypt_level_4",
						"m_parentEvent": "egypt_rewardplant_bloomerang",
						"m_unlockedFrom": "",
						"m_visibleFrom": "",
						"m_autoVisible": true,
						"m_isChallengeType": false,
						"m_dataString": "egypt4",
						"m_levelNodeType": "minigame",
						"m_displayText": "4",
						"m_unlockedNarrationID": "",
						"m_completedNarrationID": "",
						"m_worldMapTutorial": "none",
						"m_worldMapTutorialVisibleWhen": "unlocked",
						"m_toggleName": ""
					}, {
						"m_position": {
							"x": 870,
							"y": -136
						},
						"m_eventId": 41,
						"m_eventType": "key_gate",
						"m_name": "egypt_keygate_chal_0",
						"m_parentEvent": "",
						"m_unlockedFrom": "",
						"m_visibleFrom": "",
						"m_autoVisible": true,
						"m_isChallengeType": false,
						"m_cost": 1
					}, {
						"m_position": {
							"x": 4296,
							"y": 403
						},
						"m_eventId": 42,
						"m_eventType": "level",
						"m_name": "egypt_level_21",
						"m_parentEvent": "egypt_level_20",
						"m_unlockedFrom": "",
						"m_visibleFrom": "",
						"m_autoVisible": true,
						"m_isChallengeType": false,
						"m_dataString": "egypt21",
						"m_levelNodeType": "minigame",
						"m_displayText": "21",
						"m_unlockedNarrationID": "",
						"m_completedNarrationID": "",
						"m_worldMapTutorial": "none",
						"m_worldMapTutorialVisibleWhen": "unlocked",
						"m_toggleName": ""
					}, {
						"m_position": {
							"x": 758,
							"y": -146
						},
						"m_eventId": 44,
						"m_eventType": "star_gate",
						"m_name": "egypt_stargate_start",
						"m_parentEvent": "",
						"m_unlockedFrom": "",
						"m_visibleFrom": "",
						"m_autoVisible": true,
						"m_isChallengeType": false,
						"m_cost": 0
					}, {
						"m_position": {
							"x": 1137,
							"y": -268
						},
						"m_eventId": 45,
						"m_eventType": "star_gate",
						"m_name": "egypt_stargate_exit",
						"m_parentEvent": "",
						"m_unlockedFrom": "egypt_level_8",
						"m_visibleFrom": "egypt_stargate_start",
						"m_autoVisible": true,
						"m_isChallengeType": false,
						"m_cost": 8
					}, {
						"m_position": {
							"x": 1335,
							"y": 265
						},
						"m_eventId": 76,
						"m_eventType": "giftbox",
						"m_name": "egypt_rewardgiftbox_1",
						"m_parentEvent": "egypt_level_6",
						"m_unlockedFrom": "",
						"m_visibleFrom": "",
						"m_autoVisible": true,
						"m_isChallengeType": false
					}, {
						"m_position": {
							"x": 2271,
							"y": 382
						},
						"m_eventId": 78,
						"m_eventType": "giftbox",
						"m_name": "egypt_rewardgiftbox_2",
						"m_parentEvent": "egypt_level_11",
						"m_unlockedFrom": "",
						"m_visibleFrom": "",
						"m_autoVisible": true,
						"m_isChallengeType": false
					}, {
						"m_position": {
							"x": 3132,
							"y": 372
						},
						"m_eventId": 79,
						"m_eventType": "giftbox",
						"m_name": "egypt_rewardgiftbox_3",
						"m_parentEvent": "egypt_level_15",
						"m_unlockedFrom": "",
						"m_visibleFrom": "",
						"m_autoVisible": true,
						"m_isChallengeType": false
					}, {
						"m_position": {
							"x": 4820,
							"y": 270
						},
						"m_eventId": 80,
						"m_eventType": "giftbox",
						"m_name": "egypt_rewardgiftbox_4",
						"m_parentEvent": "egypt_level_23",
						"m_unlockedFrom": "",
						"m_visibleFrom": "",
						"m_autoVisible": true,
						"m_isChallengeType": false
					}, {
						"m_position": {
							"x": 2384,
							"y": 200
						},
						"m_eventId": 81,
						"m_eventType": "doodad",
						"m_name": "",
						"m_parentEvent": "",
						"m_unlockedFrom": "",
						"m_visibleFrom": "",
						"m_autoVisible": false,
						"m_isChallengeType": false
					}, {
						"m_position": {
							"x": 2465,
							"y": 143
						},
						"m_eventId": 82,
						"m_eventType": "doodad",
						"m_name": "",
						"m_parentEvent": "",
						"m_unlockedFrom": "",
						"m_visibleFrom": "",
						"m_autoVisible": false,
						"m_isChallengeType": false
					}, {
						"m_position": {
							"x": 2570,
							"y": 251
						},
						"m_eventId": 83,
						"m_eventType": "doodad",
						"m_name": "",
						"m_parentEvent": "",
						"m_unlockedFrom": "",
						"m_visibleFrom": "",
						"m_autoVisible": false,
						"m_isChallengeType": false
					}, {
						"m_position": {
							"x": 5470,
							"y": 455
						},
						"m_eventId": 84,
						"m_eventType": "level",
						"m_name": "egypt_level_boss",
						"m_parentEvent": "egypt_rewardplant_egyptchall3end",
						"m_unlockedFrom": "",
						"m_visibleFrom": "",
						"m_autoVisible": true,
						"m_isChallengeType": false,
						"m_dataString": "egypt25",
						"m_levelNodeType": "boss",
						"m_displayText": "25",
						"m_unlockedNarrationID": "",
						"m_completedNarrationID": "",
						"m_worldMapTutorial": "none",
						"m_worldMapTutorialVisibleWhen": "unlocked",
						"m_toggleName": ""
					}, {
						"m_position": {
							"x": 5824,
							"y": 301
						},
						"m_eventId": 85,
						"m_eventType": "level",
						"m_name": "egypt_level_26",
						"m_parentEvent": "egypt_level_boss",
						"m_unlockedFrom": "",
						"m_visibleFrom": "",
						"m_autoVisible": true,
						"m_isChallengeType": false,
						"m_dataString": "egypt26",
						"m_levelNodeType": "normal",
						"m_displayText": "26",
						"m_unlockedNarrationID": "",
						"m_completedNarrationID": "",
						"m_worldMapTutorial": "none",
						"m_worldMapTutorialVisibleWhen": "unlocked",
						"m_toggleName": ""
					}, {
						"m_position": {
							"x": 5930,
							"y": 254
						},
						"m_eventId": 86,
						"m_eventType": "level",
						"m_name": "egypt_level_27",
						"m_parentEvent": "egypt_level_26",
						"m_unlockedFrom": "",
						"m_visibleFrom": "",
						"m_autoVisible": true,
						"m_isChallengeType": false,
						"m_dataString": "egypt27",
						"m_levelNodeType": "normal",
						"m_displayText": "27",
						"m_unlockedNarrationID": "",
						"m_completedNarrationID": "",
						"m_worldMapTutorial": "none",
						"m_worldMapTutorialVisibleWhen": "unlocked",
						"m_toggleName": ""
					}, {
						"m_position": {
							"x": 6042,
							"y": 249
						},
						"m_eventId": 87,
						"m_eventType": "giftbox",
						"m_name": "egypt_rewardgiftbox_5",
						"m_parentEvent": "egypt_level_27",
						"m_unlockedFrom": "",
						"m_visibleFrom": "",
						"m_autoVisible": true,
						"m_isChallengeType": false
					}, {
						"m_position": {
							"x": 6120,
							"y": 278
						},
						"m_eventId": 88,
						"m_eventType": "level",
						"m_name": "egypt_level_28",
						"m_parentEvent": "egypt_rewardgiftbox_5",
						"m_unlockedFrom": "",
						"m_visibleFrom": "",
						"m_autoVisible": true,
						"m_isChallengeType": false,
						"m_dataString": "egypt28",
						"m_levelNodeType": "minigame",
						"m_displayText": "28",
						"m_unlockedNarrationID": "",
						"m_completedNarrationID": "",
						"m_worldMapTutorial": "none",
						"m_worldMapTutorialVisibleWhen": "unlocked",
						"m_toggleName": ""
					}, {
						"m_position": {
							"x": 6248,
							"y": 317
						},
						"m_eventId": 89,
						"m_eventType": "level",
						"m_name": "egypt_level_29",
						"m_parentEvent": "egypt_level_28",
						"m_unlockedFrom": "",
						"m_visibleFrom": "",
						"m_autoVisible": true,
						"m_isChallengeType": false,
						"m_dataString": "egypt29",
						"m_levelNodeType": "minigame",
						"m_displayText": "29",
						"m_unlockedNarrationID": "",
						"m_completedNarrationID": "",
						"m_worldMapTutorial": "none",
						"m_worldMapTutorialVisibleWhen": "unlocked",
						"m_toggleName": ""
					}, {
						"m_position": {
							"x": 6382,
							"y": 355
						},
						"m_eventId": 90,
						"m_eventType": "level",
						"m_name": "egypt_level_30",
						"m_parentEvent": "egypt_level_29",
						"m_unlockedFrom": "",
						"m_visibleFrom": "",
						"m_autoVisible": true,
						"m_isChallengeType": false,
						"m_dataString": "egypt30",
						"m_levelNodeType": "normal",
						"m_displayText": "30",
						"m_unlockedNarrationID": "",
						"m_completedNarrationID": "",
						"m_worldMapTutorial": "none",
						"m_worldMapTutorialVisibleWhen": "unlocked",
						"m_toggleName": ""
					}, {
						"m_position": {
							"x": 6528,
							"y": 371
						},
						"m_eventId": 91,
						"m_eventType": "giftbox",
						"m_name": "egypt_rewardgiftbox_6",
						"m_parentEvent": "egypt_level_30",
						"m_unlockedFrom": "",
						"m_visibleFrom": "",
						"m_autoVisible": true,
						"m_isChallengeType": false
					}, {
						"m_position": {
							"x": 6669,
							"y": 358
						},
						"m_eventId": 92,
						"m_eventType": "level",
						"m_name": "egypt_level_31",
						"m_parentEvent": "egypt_rewardgiftbox_6",
						"m_unlockedFrom": "",
						"m_visibleFrom": "",
						"m_autoVisible": true,
						"m_isChallengeType": false,
						"m_dataString": "egypt31",
						"m_levelNodeType": "normal",
						"m_displayText": "31",
						"m_unlockedNarrationID": "",
						"m_completedNarrationID": "",
						"m_worldMapTutorial": "none",
						"m_worldMapTutorialVisibleWhen": "unlocked",
						"m_toggleName": ""
					}, {
						"m_position": {
							"x": 6800,
							"y": 320
						},
						"m_eventId": 93,
						"m_eventType": "level",
						"m_name": "egypt_level_32",
						"m_parentEvent": "egypt_level_31",
						"m_unlockedFrom": "",
						"m_visibleFrom": "",
						"m_autoVisible": true,
						"m_isChallengeType": false,
						"m_dataString": "egypt32",
						"m_levelNodeType": "minigame",
						"m_displayText": "32",
						"m_unlockedNarrationID": "",
						"m_completedNarrationID": "",
						"m_worldMapTutorial": "none",
						"m_worldMapTutorialVisibleWhen": "unlocked",
						"m_toggleName": ""
					}, {
						"m_position": {
							"x": 6951,
							"y": 297
						},
						"m_eventId": 94,
						"m_eventType": "level",
						"m_name": "egypt_level_33",
						"m_parentEvent": "egypt_level_32",
						"m_unlockedFrom": "",
						"m_visibleFrom": "",
						"m_autoVisible": true,
						"m_isChallengeType": false,
						"m_dataString": "egypt33",
						"m_levelNodeType": "minigame",
						"m_displayText": "33",
						"m_unlockedNarrationID": "",
						"m_completedNarrationID": "",
						"m_worldMapTutorial": "none",
						"m_worldMapTutorialVisibleWhen": "unlocked",
						"m_toggleName": ""
					}, {
						"m_position": {
							"x": 7098,
							"y": 282
						},
						"m_eventId": 95,
						"m_eventType": "level",
						"m_name": "egypt_level_34",
						"m_parentEvent": "egypt_level_33",
						"m_unlockedFrom": "",
						"m_visibleFrom": "",
						"m_autoVisible": true,
						"m_isChallengeType": false,
						"m_dataString": "egypt34",
						"m_levelNodeType": "minigame",
						"m_displayText": "34",
						"m_unlockedNarrationID": "",
						"m_completedNarrationID": "",
						"m_worldMapTutorial": "none",
						"m_worldMapTutorialVisibleWhen": "unlocked",
						"m_toggleName": ""
					}, {
						"m_position": {
							"x": 7245,
							"y": 303
						},
						"m_eventId": 96,
						"m_eventType": "giftbox",
						"m_name": "egypt_rewardgiftbox_7",
						"m_parentEvent": "egypt_level_34",
						"m_unlockedFrom": "",
						"m_visibleFrom": "",
						"m_autoVisible": true,
						"m_isChallengeType": false
					}, {
						"m_position": {
							"x": 7663,
							"y": 448
						},
						"m_eventId": 97,
						"m_eventType": "level",
						"m_name": "egypt_level_boss_2",
						"m_parentEvent": "egypt_rewardgiftbox_7",
						"m_unlockedFrom": "",
						"m_visibleFrom": "",
						"m_autoVisible": true,
						"m_isChallengeType": false,
						"m_dataString": "egypt35",
						"m_levelNodeType": "boss",
						"m_displayText": "",
						"m_unlockedNarrationID": "",
						"m_completedNarrationID": "",
						"m_worldMapTutorial": "none",
						"m_worldMapTutorialVisibleWhen": "unlocked",
						"m_toggleName": ""
					} ]
			}
		} ]
}