{
	"#comment": "Scoring Playtest - Right Gradient - No Quickstart",
	"objects": [ {
			"objclass": "LevelDefinition",
			"objdata": {
				"Description": "",
				"DisablePlantBoosts": true,
				"GridItemLevel": 1,
				"LevelNumber": 1,
				"LevelPowerupSet": "LevelPowerupsDisabled",
				"Loot": "RTID(NoLoot@LevelModules)",
				"LossModule": "RTID(JoustOutro@LevelModules)",
				"Modules": [ "RTID(DefaultSunDropper@LevelModules)", "RTID(ZombiesDeadWinCon@LevelModules)", "RTID(JoustDarkMowers@LevelModules)", "RTID(SeedBank@CurrentLevel)", "RTID(JoustZombieWinCondition@LevelModules)", "RTID(NewWaves@CurrentLevel)", "RTID(LevelScoring@CurrentLevel)", "RTID(ScoreTiles@CurrentLevel)", "RTID(ChallengeModule@CurrentLevel)", "RTID(LastStand@CurrentLevel)", "RTID(LevelDifficultyScaling@CurrentLevel)", "RTID(JoustModule@CurrentLevel)", "RTID(JoustPointOfLoss@LevelModules)", "RTID(ZombieResistances@CurrentLevel)" ],
				"Name": "",
				"NormalPresentTable": "dark_normal_01",
				"ShinyPresentTable": "dark_shiny_01",
				"StageModule": "RTID(JoustStage@LevelModules)",
				"SuppressAccountUpgrades": true,
				"SuppressDynamicTutorial": true,
				"SuppressPlantfoodPurchase": true,
				"VictoryModule": "RTID(JoustOutro@LevelModules)"
			}
		}, {
			"aliases": [ "SeedBank" ],
			"objclass": "SeedBankProperties",
			"objdata": {
				"PresetPlantList": [ {
						"Level": -1,
						"PlantType": "starfruit"
					} ],
				"SelectionMethod": "chooser"
			}
		}, {
			"aliases": [ "ZombieResistances" ],
			"objclass": "ZombieResistancesModuleProperties",
			"objdata": {
				"FamilyResistances": {
					"global": [ {
							"#comment": "200% damage and condition",
							"FamilyType": "appeasemint",
							"DamageResistance": 2.0,
							"ConditionResistance": 2.0
						}, {
							"#comment": "half damage, half condition",
							"FamilyType": "wintermint",
							"DamageResistance": 0.5,
							"ConditionResistance": 0.5
						} ]
				}
			}
		}, {
			"aliases": [ "JoustModule" ],
			"objclass": "JoustGameModuleProperties",
			"objdata": {
				"LeagueModifiers": [ {
						"AddTimeLimit": 0,
						"AddZombieLevel": 0,
						"LeagueThreshold": 1
					}, {
						"AddTimeLimit": 0,
						"AddZombieLevel": 1,
						"LeagueThreshold": 2
					}, {
						"AddTimeLimit": 0,
						"AddZombieLevel": 2,
						"LeagueThreshold": 3
					}, {
						"AddTimeLimit": 0,
						"AddZombieLevel": 3,
						"LeagueThreshold": 4
					}, {
						"AddTimeLimit": 0,
						"AddZombieLevel": 4,
						"LeagueThreshold": 5
					}, {
						"AddTimeLimit": 0,
						"AddZombieLevel": 5,
						"LeagueThreshold": 6
					}, {
						"AddTimeLimit": 0,
						"AddZombieLevel": 6,
						"LeagueThreshold": 7
					}, {
						"AddTimeLimit": 0,
						"AddZombieLevel": 7,
						"LeagueThreshold": 8
					}, {
						"AddTimeLimit": 0,
						"AddZombieLevel": 8,
						"LeagueThreshold": 9
					} ],
				"TimeLimit": 180,
				"SuggestedLoadout": "",
				"LevelLoadouts": {
					"Loadouts": [ [ {
								"PlantType": "starfruit",
								"PlantLevel": 0,
								"IsImitater": false
							}, {
								"PlantType": "primalwallnut",
								"PlantLevel": 0,
								"IsImitater": false
							}, {
								"PlantType": "primalsunflower",
								"PlantLevel": 0,
								"IsImitater": false
							}, {
								"PlantType": "primalpotatomine",
								"PlantLevel": 0,
								"IsImitater": false
							}, {
								"PlantType": "primalpeashooter",
								"PlantLevel": 0,
								"IsImitater": false
							}, {
								"PlantType": "appeasemint",
								"PlantLevel": 0,
								"IsImitater": false
							} ], [ {
								"PlantType": "starfruit",
								"PlantLevel": 0,
								"IsImitater": false
							}, {
								"PlantType": "moonflower",
								"PlantLevel": 0,
								"IsImitater": false
							}, {
								"PlantType": "goldbloom",
								"PlantLevel": 0,
								"IsImitater": false
							}, {
								"PlantType": "shadowshroom",
								"PlantLevel": 0,
								"IsImitater": false
							}, {
								"PlantType": "dusklobber",
								"PlantLevel": 0,
								"IsImitater": false
							}, {
								"PlantType": "explodeonut",
								"PlantLevel": 0,
								"IsImitater": false
							} ], [ {
								"PlantType": "starfruit",
								"PlantLevel": 0,
								"IsImitater": false
							}, {
								"PlantType": "moonflower",
								"PlantLevel": 0,
								"IsImitater": false
							}, {
								"PlantType": "dusklobber",
								"PlantLevel": 0,
								"IsImitater": false
							}, {
								"PlantType": "primalpotatomine",
								"PlantLevel": 0,
								"IsImitater": false
							}, {
								"PlantType": "wallnut",
								"PlantLevel": 0,
								"IsImitater": false
							}, {
								"PlantType": "spikeweed",
								"PlantLevel": 0,
								"IsImitater": false
							} ] ]
				}
			}
		}, {
			"aliases": [ "LevelDifficultyScaling" ],
			"objclass": "LevelDifficultyScalingModuleProperties",
			"objdata": {
				"DifficultyRulesType": "DifficultyTestHighDecay",
				"ZombieLevelSwaps": [ {
						"Level": 1,
						"Swaps": [ {
								"From": "RTID(tutorial@ZombieTypes)",
								"To": [ "RTID(tutorial@ZombieTypes)", "RTID(eighties_punk@ZombieTypes)", "RTID(ra@ZombieTypes)", "RTID(lostcity_bug@ZombieTypes)", "RTID(tutorial_armor1@ZombieTypes)", "RTID(camel_onehump@ZombieTypes)", "RTID(poncho@ZombieTypes)", "RTID(modern_newspaper@ZombieTypes)", "RTID(tutorial_armor2@ZombieTypes)", "RTID(pharaoh@ZombieTypes)", "RTID(dino_armor3@ZombieTypes)", "RTID(camel_manyhump@ZombieTypes)", "RTID(beach_surfer@ZombieTypes)", "RTID(lostcity_excavator@ZombieTypes)", "RTID(tomb_raiser@ZombieTypes)", "RTID(future_protector@ZombieTypes)", "RTID(dark_wizard@ZombieTypes)", "RTID(beach_octopus@ZombieTypes)", "RTID(lostcity_crystalskull@ZombieTypes)", "RTID(iceage_gargantuar@ZombieTypes)" ]
							} ]
					} ]
			}
		}, {
			"aliases": [ "ChallengeModule" ],
			"objclass": "StarChallengeModuleProperties",
			"objdata": {
				"Challenges": [ [ "RTID(BeatTheLevel@CurrentLevel)", "RTID(ReachTheScore@CurrentLevel)" ] ],
				"ChallengesAlwaysAvailable": true
			}
		}, {
			"aliases": [ "ReachTheScore" ],
			"objclass": "StarChallengeTargetScoreProps",
			"objdata": {
				"Description": "[STARCHALLENGE_TARGET_SCORE]",
				"DescriptionFailure": "[STARCHALLENGE_TARGET_SCORE_FAILURE]",
				"DescriptiveName": "[STARCHALLENGE_TARGET_SCORE_NAME]",
				"TargetScore": 1000
			}
		}, {
			"aliases": [ "BeatTheLevel" ],
			"objclass": "StarChallengeBeatTheLevelProps",
			"objdata": {
				"Description": "[STARCHALLENGE_LASTSTAND_MINIGAME]",
				"DescriptiveName": "[STARCHALLENGE_LASTSTAND_MINIGAME_NAME]"
			}
		}, {
			"aliases": [ "LastStand" ],
			"objclass": "LastStandMinigameProperties",
			"objdata": {
				"StartingPlantfood": 3,
				"StartingSun": 1200
			}
		}, {
			"aliases": [ "LevelScoring" ],
			"objclass": "LevelScoringModuleProperties",
			"objdata": {
				"PlantBonusMultiplier": 0.1,
				"PlantBonuses": [],
				"ScoringRulesType": "Battlez",
				"StartingPlantfood": 3
			}
		}, {
			"aliases": [ "ScoreTiles" ],
			"objclass": "InitialGridItemProperties",
			"objdata": {
				"InitialGridItemPlacements": [ {
						"GridX": 8,
						"GridY": 0,
						"TypeName": "score_5x_tile"
					}, {
						"GridX": 8,
						"GridY": 1,
						"TypeName": "score_5x_tile"
					}, {
						"GridX": 8,
						"GridY": 2,
						"TypeName": "score_5x_tile"
					}, {
						"GridX": 8,
						"GridY": 3,
						"TypeName": "score_5x_tile"
					}, {
						"GridX": 8,
						"GridY": 4,
						"TypeName": "score_5x_tile"
					}, {
						"GridX": 7,
						"GridY": 0,
						"TypeName": "score_5x_tile"
					}, {
						"GridX": 7,
						"GridY": 1,
						"TypeName": "score_5x_tile"
					}, {
						"GridX": 7,
						"GridY": 2,
						"TypeName": "score_5x_tile"
					}, {
						"GridX": 7,
						"GridY": 3,
						"TypeName": "score_5x_tile"
					}, {
						"GridX": 7,
						"GridY": 4,
						"TypeName": "score_5x_tile"
					}, {
						"GridX": 6,
						"GridY": 0,
						"TypeName": "score_3x_tile"
					}, {
						"GridX": 6,
						"GridY": 1,
						"TypeName": "score_3x_tile"
					}, {
						"GridX": 6,
						"GridY": 2,
						"TypeName": "score_3x_tile"
					}, {
						"GridX": 6,
						"GridY": 3,
						"TypeName": "score_3x_tile"
					}, {
						"GridX": 6,
						"GridY": 4,
						"TypeName": "score_3x_tile"
					}, {
						"GridX": 5,
						"GridY": 0,
						"TypeName": "score_3x_tile"
					}, {
						"GridX": 5,
						"GridY": 1,
						"TypeName": "score_3x_tile"
					}, {
						"GridX": 5,
						"GridY": 2,
						"TypeName": "score_3x_tile"
					}, {
						"GridX": 5,
						"GridY": 3,
						"TypeName": "score_3x_tile"
					}, {
						"GridX": 5,
						"GridY": 4,
						"TypeName": "score_3x_tile"
					}, {
						"GridX": 4,
						"GridY": 0,
						"TypeName": "score_2x_tile"
					}, {
						"GridX": 4,
						"GridY": 1,
						"TypeName": "score_2x_tile"
					}, {
						"GridX": 4,
						"GridY": 2,
						"TypeName": "score_2x_tile"
					}, {
						"GridX": 4,
						"GridY": 3,
						"TypeName": "score_2x_tile"
					}, {
						"GridX": 4,
						"GridY": 4,
						"TypeName": "score_2x_tile"
					}, {
						"GridX": 3,
						"GridY": 0,
						"TypeName": "score_2x_tile"
					}, {
						"GridX": 3,
						"GridY": 1,
						"TypeName": "score_2x_tile"
					}, {
						"GridX": 3,
						"GridY": 2,
						"TypeName": "score_2x_tile"
					}, {
						"GridX": 3,
						"GridY": 3,
						"TypeName": "score_2x_tile"
					}, {
						"GridX": 3,
						"GridY": 4,
						"TypeName": "score_2x_tile"
					} ]
			}
		}, {
			"aliases": [ "NewWaves" ],
			"objclass": "WaveManagerModuleProperties",
			"objdata": {
				"DynamicZombies": [ {
						"PointIncrementPerWave": -1,
						"StartingPoints": -1,
						"StartingWave": 1,
						"ZombiePool": [ "RTID(tutorial@ZombieTypes)" ]
					}, {
						"PointIncrementPerWave": -1,
						"StartingPoints": -1,
						"StartingWave": 1,
						"ZombiePool": [ "RTID(tutorial@ZombieTypes)" ]
					}, {
						"PointIncrementPerWave": -1,
						"StartingPoints": -1,
						"StartingWave": 1,
						"ZombiePool": [ "RTID(tutorial@ZombieTypes)" ]
					}, {
						"PointIncrementPerWave": 10,
						"StartingPoints": 500,
						"StartingWave": 1,
						"ZombiePool": [ "RTID(tutorial@ZombieTypes)" ]
					}, {
						"PointIncrementPerWave": 1,
						"StartingPoints": 1,
						"StartingWave": 1,
						"ZombiePool": [ "RTID(tutorial@ZombieTypes)" ]
					}, {
						"PointIncrementPerWave": 1,
						"StartingPoints": 1,
						"StartingWave": 1,
						"ZombiePool": []
					}, {
						"PointIncrementPerWave": 1,
						"StartingPoints": 1,
						"StartingWave": 1,
						"ZombiePool": []
					} ],
				"WaveManagerProps": "RTID(WaveManagerProps@CurrentLevel)"
			}
		}, {
			"aliases": [ "WaveManagerProps" ],
			"objclass": "WaveManagerProperties",
			"objdata": {
				"FlagWaveInterval": 50,
				"WaveCount": 50,
				"WaveSpendingPointIncrement": 150,
				"WaveSpendingPoints": 0,
				"Waves": [ [ "RTID(Wave1@CurrentLevel)" ], [ "RTID(Wave2@CurrentLevel)" ], [ "RTID(Wave3@CurrentLevel)" ], [ "RTID(Wave4@CurrentLevel)" ], [ "RTID(Wave5@CurrentLevel)" ], [ "RTID(Wave6@CurrentLevel)" ], [ "RTID(Wave7@CurrentLevel)" ], [ "RTID(Wave8@CurrentLevel)", "RTID(Wave8HamsterStormEvent@CurrentLevel)" ], [ "RTID(Wave9@CurrentLevel)" ], [ "RTID(Wave10@CurrentLevel)" ], [ "RTID(Wave11@CurrentLevel)" ], [ "RTID(Wave12@CurrentLevel)" ], [ "RTID(Wave13@CurrentLevel)" ], [ "RTID(Wave14@CurrentLevel)" ], [ "RTID(Wave15@CurrentLevel)" ], [ "RTID(Wave16@CurrentLevel)", "RTID(Wave16HamsterStormEvent@CurrentLevel)" ], [ "RTID(Wave17@CurrentLevel)" ], [ "RTID(Wave18@CurrentLevel)" ], [ "RTID(Wave19@CurrentLevel)" ], [ "RTID(Wave20@CurrentLevel)" ], [ "RTID(Wave21@CurrentLevel)" ], [ "RTID(Wave22@CurrentLevel)" ], [ "RTID(Wave23@CurrentLevel)" ], [ "RTID(Wave24@CurrentLevel)", "RTID(Wave24HamsterStormEvent@CurrentLevel)" ], [ "RTID(Wave25@CurrentLevel)" ], [ "RTID(Wave26@CurrentLevel)" ], [ "RTID(Wave27@CurrentLevel)" ], [ "RTID(Wave28@CurrentLevel)" ], [ "RTID(Wave29@CurrentLevel)" ], [ "RTID(Wave30@CurrentLevel)" ], [ "RTID(Wave31@CurrentLevel)" ], [ "RTID(Wave32@CurrentLevel)", "RTID(Wave32HamsterStormEvent@CurrentLevel)" ], [ "RTID(Wave33@CurrentLevel)" ], [ "RTID(Wave34@CurrentLevel)" ], [ "RTID(Wave35@CurrentLevel)" ], [ "RTID(Wave36@CurrentLevel)" ], [ "RTID(Wave37@CurrentLevel)" ], [ "RTID(Wave38@CurrentLevel)" ], [ "RTID(Wave39@CurrentLevel)" ], [ "RTID(Wave40@CurrentLevel)", "RTID(Wave40HamsterStormEvent@CurrentLevel)" ], [ "RTID(Wave41@CurrentLevel)" ], [ "RTID(Wave42@CurrentLevel)" ], [ "RTID(Wave43@CurrentLevel)" ], [ "RTID(Wave44@CurrentLevel)" ], [ "RTID(Wave45@CurrentLevel)" ], [ "RTID(Wave46@CurrentLevel)" ], [ "RTID(Wave47@CurrentLevel)" ], [ "RTID(Wave48@CurrentLevel)", "RTID(Wave48HamsterStormEvent@CurrentLevel)" ], [ "RTID(Wave49@CurrentLevel)" ], [ "RTID(Wave50@CurrentLevel)" ] ],
				"WavesAlwaysRandomized": true
			}
		}, {
			"aliases": [ "Wave8HamsterStormEvent" ],
			"objclass": "HamsterZombieSpawnerProps",
			"objdata": {
				"ColumnEnd": 4,
				"ColumnStart": 3,
				"GroupSize": 1,
				"TimeBetweenGroups": 1,
				"Zombies": [ {
						"Type": "RTID(hamster_ball@ZombieTypes)",
						"ZombieInsideBallType": "RTID(eighties_boombox@ZombieTypes)",
						"HasPlantfood": true,
						"Behavior": 1,
						"SpeedBeforeImpact": 0.5
					} ]
			}
		}, {
			"aliases": [ "Wave16HamsterStormEvent" ],
			"objclass": "HamsterZombieSpawnerProps",
			"objdata": {
				"ColumnEnd": 4,
				"ColumnStart": 3,
				"GroupSize": 1,
				"TimeBetweenGroups": 1,
				"Zombies": [ {
						"Type": "RTID(hamster_ball@ZombieTypes)",
						"ZombieInsideBallType": "RTID(eighties_boombox@ZombieTypes)",
						"HasPlantfood": true,
						"Behavior": 1,
						"SpeedBeforeImpact": 0.5
					} ]
			}
		}, {
			"aliases": [ "Wave24HamsterStormEvent" ],
			"objclass": "HamsterZombieSpawnerProps",
			"objdata": {
				"ColumnEnd": 4,
				"ColumnStart": 3,
				"GroupSize": 1,
				"TimeBetweenGroups": 1,
				"Zombies": [ {
						"Type": "RTID(hamster_ball@ZombieTypes)",
						"ZombieInsideBallType": "RTID(eighties_boombox@ZombieTypes)",
						"HasPlantfood": true,
						"Behavior": 1,
						"SpeedBeforeImpact": 0.5
					} ]
			}
		}, {
			"aliases": [ "Wave32HamsterStormEvent" ],
			"objclass": "HamsterZombieSpawnerProps",
			"objdata": {
				"ColumnEnd": 4,
				"ColumnStart": 3,
				"GroupSize": 1,
				"TimeBetweenGroups": 1,
				"Zombies": [ {
						"Type": "RTID(hamster_ball@ZombieTypes)",
						"ZombieInsideBallType": "RTID(eighties_boombox@ZombieTypes)",
						"HasPlantfood": true,
						"Behavior": 1,
						"SpeedBeforeImpact": 0.5
					} ]
			}
		}, {
			"aliases": [ "Wave40HamsterStormEvent" ],
			"objclass": "HamsterZombieSpawnerProps",
			"objdata": {
				"ColumnEnd": 4,
				"ColumnStart": 3,
				"GroupSize": 1,
				"TimeBetweenGroups": 1,
				"Zombies": [ {
						"Type": "RTID(hamster_ball@ZombieTypes)",
						"ZombieInsideBallType": "RTID(eighties_boombox@ZombieTypes)",
						"HasPlantfood": true,
						"Behavior": 1,
						"SpeedBeforeImpact": 0.5
					} ]
			}
		}, {
			"aliases": [ "Wave48HamsterStormEvent" ],
			"objclass": "HamsterZombieSpawnerProps",
			"objdata": {
				"ColumnEnd": 4,
				"ColumnStart": 3,
				"GroupSize": 1,
				"TimeBetweenGroups": 1,
				"Zombies": [ {
						"Type": "RTID(hamster_ball@ZombieTypes)",
						"ZombieInsideBallType": "RTID(eighties_boombox@ZombieTypes)",
						"HasPlantfood": true,
						"Behavior": 1,
						"SpeedBeforeImpact": 0.5
					} ]
			}
		}, {
			"aliases": [ "Wave1" ],
			"objclass": "SpawnZombiesJitteredWaveActionProps",
			"objdata": {}
		}, {
			"aliases": [ "Wave2" ],
			"objclass": "SpawnZombiesJitteredWaveActionProps",
			"objdata": {}
		}, {
			"aliases": [ "Wave3" ],
			"objclass": "SpawnZombiesJitteredWaveActionProps",
			"objdata": {
				"AdditionalPlantfood": 0
			}
		}, {
			"aliases": [ "Wave4" ],
			"objclass": "SpawnZombiesJitteredWaveActionProps",
			"objdata": {}
		}, {
			"aliases": [ "Wave5" ],
			"objclass": "SpawnZombiesJitteredWaveActionProps",
			"objdata": {}
		}, {
			"aliases": [ "Wave6" ],
			"objclass": "SpawnZombiesJitteredWaveActionProps",
			"objdata": {
				"AdditionalPlantfood": 0
			}
		}, {
			"aliases": [ "Wave7" ],
			"objclass": "SpawnZombiesJitteredWaveActionProps",
			"objdata": {}
		}, {
			"aliases": [ "Wave8" ],
			"objclass": "SpawnZombiesJitteredWaveActionProps",
			"objdata": {}
		}, {
			"aliases": [ "Wave9" ],
			"objclass": "SpawnZombiesJitteredWaveActionProps",
			"objdata": {}
		}, {
			"aliases": [ "Wave10" ],
			"objclass": "SpawnZombiesJitteredWaveActionProps",
			"objdata": {}
		}, {
			"aliases": [ "Wave11" ],
			"objclass": "SpawnZombiesJitteredWaveActionProps",
			"objdata": {}
		}, {
			"aliases": [ "Wave12" ],
			"objclass": "SpawnZombiesJitteredWaveActionProps",
			"objdata": {}
		}, {
			"aliases": [ "Wave13" ],
			"objclass": "SpawnZombiesJitteredWaveActionProps",
			"objdata": {}
		}, {
			"aliases": [ "Wave14" ],
			"objclass": "SpawnZombiesJitteredWaveActionProps",
			"objdata": {}
		}, {
			"aliases": [ "Wave15" ],
			"objclass": "SpawnZombiesJitteredWaveActionProps",
			"objdata": {}
		}, {
			"aliases": [ "Wave16" ],
			"objclass": "SpawnZombiesJitteredWaveActionProps",
			"objdata": {}
		}, {
			"aliases": [ "Wave17" ],
			"objclass": "SpawnZombiesJitteredWaveActionProps",
			"objdata": {}
		}, {
			"aliases": [ "Wave18" ],
			"objclass": "SpawnZombiesJitteredWaveActionProps",
			"objdata": {}
		}, {
			"aliases": [ "Wave19" ],
			"objclass": "SpawnZombiesJitteredWaveActionProps",
			"objdata": {}
		}, {
			"aliases": [ "Wave20" ],
			"objclass": "SpawnZombiesJitteredWaveActionProps",
			"objdata": {}
		}, {
			"aliases": [ "Wave21" ],
			"objclass": "SpawnZombiesJitteredWaveActionProps",
			"objdata": {}
		}, {
			"aliases": [ "Wave22" ],
			"objclass": "SpawnZombiesJitteredWaveActionProps",
			"objdata": {}
		}, {
			"aliases": [ "Wave23" ],
			"objclass": "SpawnZombiesJitteredWaveActionProps",
			"objdata": {}
		}, {
			"aliases": [ "Wave24" ],
			"objclass": "SpawnZombiesJitteredWaveActionProps",
			"objdata": {}
		}, {
			"aliases": [ "Wave25" ],
			"objclass": "SpawnZombiesJitteredWaveActionProps",
			"objdata": {}
		}, {
			"aliases": [ "Wave26" ],
			"objclass": "SpawnZombiesJitteredWaveActionProps",
			"objdata": {
				"AdditionalPlantfood": 0
			}
		}, {
			"aliases": [ "Wave27" ],
			"objclass": "SpawnZombiesJitteredWaveActionProps",
			"objdata": {}
		}, {
			"aliases": [ "Wave28" ],
			"objclass": "SpawnZombiesJitteredWaveActionProps",
			"objdata": {}
		}, {
			"aliases": [ "Wave29" ],
			"objclass": "SpawnZombiesJitteredWaveActionProps",
			"objdata": {}
		}, {
			"aliases": [ "Wave30" ],
			"objclass": "SpawnZombiesJitteredWaveActionProps",
			"objdata": {}
		}, {
			"aliases": [ "Wave31" ],
			"objclass": "SpawnZombiesJitteredWaveActionProps",
			"objdata": {}
		}, {
			"aliases": [ "Wave32" ],
			"objclass": "SpawnZombiesJitteredWaveActionProps",
			"objdata": {
				"AdditionalPlantfood": 0
			}
		}, {
			"aliases": [ "Wave33" ],
			"objclass": "SpawnZombiesJitteredWaveActionProps",
			"objdata": {}
		}, {
			"aliases": [ "Wave34" ],
			"objclass": "SpawnZombiesJitteredWaveActionProps",
			"objdata": {}
		}, {
			"aliases": [ "Wave35" ],
			"objclass": "SpawnZombiesJitteredWaveActionProps",
			"objdata": {
				"AdditionalPlantfood": 0
			}
		}, {
			"aliases": [ "Wave36" ],
			"objclass": "SpawnZombiesJitteredWaveActionProps",
			"objdata": {}
		}, {
			"aliases": [ "Wave37" ],
			"objclass": "SpawnZombiesJitteredWaveActionProps",
			"objdata": {}
		}, {
			"aliases": [ "Wave38" ],
			"objclass": "SpawnZombiesJitteredWaveActionProps",
			"objdata": {}
		}, {
			"aliases": [ "Wave39" ],
			"objclass": "SpawnZombiesJitteredWaveActionProps",
			"objdata": {}
		}, {
			"aliases": [ "Wave40" ],
			"objclass": "SpawnZombiesJitteredWaveActionProps",
			"objdata": {}
		}, {
			"aliases": [ "Wave41" ],
			"objclass": "SpawnZombiesJitteredWaveActionProps",
			"objdata": {}
		}, {
			"aliases": [ "Wave42" ],
			"objclass": "SpawnZombiesJitteredWaveActionProps",
			"objdata": {}
		}, {
			"aliases": [ "Wave43" ],
			"objclass": "SpawnZombiesJitteredWaveActionProps",
			"objdata": {
				"AdditionalPlantfood": 0
			}
		}, {
			"aliases": [ "Wave44" ],
			"objclass": "SpawnZombiesJitteredWaveActionProps",
			"objdata": {}
		}, {
			"aliases": [ "Wave45" ],
			"objclass": "SpawnZombiesJitteredWaveActionProps",
			"objdata": {}
		}, {
			"aliases": [ "Wave46" ],
			"objclass": "SpawnZombiesJitteredWaveActionProps",
			"objdata": {}
		}, {
			"aliases": [ "Wave47" ],
			"objclass": "SpawnZombiesJitteredWaveActionProps",
			"objdata": {}
		}, {
			"aliases": [ "Wave48" ],
			"objclass": "SpawnZombiesJitteredWaveActionProps",
			"objdata": {}
		}, {
			"aliases": [ "Wave49" ],
			"objclass": "SpawnZombiesJitteredWaveActionProps",
			"objdata": {
				"AdditionalPlantfood": 0
			}
		}, {
			"aliases": [ "Wave50" ],
			"objclass": "SpawnZombiesJitteredWaveActionProps",
			"objdata": {
				"AdditionalPlantfood": 0
			}
		} ],
	"version": 1
}