{
	"#comment": "Scoring Playtest - Right Gradient - No Quickstart",
	"objects": [ {
			"objclass": "LevelDefinition",
			"objdata": {
				"Description": "",
				"DisablePlantBoosts": true,
				"GridItemLevel": 1,
				"LevelNumber": 1,
				"LevelPowerupSet": "LevelPowerupsDisabled",
				"Loot": "RTID(NoLoot@LevelModules)",
				"LossModule": "RTID(JoustOutro@LevelModules)",
				"Modules": [ "RTID(DefaultSunDropper@LevelModules)", "RTID(ZombiesDeadWinCon@LevelModules)", "RTID(JoustDarkMowers@LevelModules)", "RTID(SeedBank@CurrentLevel)", "RTID(JoustZombieWinCondition@LevelModules)", "RTID(NewWaves@CurrentLevel)", "RTID(LevelScoring@CurrentLevel)", "RTID(ScoreTiles@CurrentLevel)", "RTID(ChallengeModule@CurrentLevel)", "RTID(LastStand@CurrentLevel)", "RTID(LevelDifficultyScaling@CurrentLevel)", "RTID(JoustModule@CurrentLevel)", "RTID(JoustPointOfLoss@LevelModules)", "RTID(ZombieResistances@CurrentLevel)" ],
				"Name": "",
				"NormalPresentTable": "dark_normal_01",
				"ShinyPresentTable": "dark_shiny_01",
				"StageModule": "RTID(JoustStage@LevelModules)",
				"SuppressAccountUpgrades": true,
				"SuppressDynamicTutorial": true,
				"SuppressPlantfoodPurchase": true,
				"VictoryModule": "RTID(JoustOutro@LevelModules)"
			}
		}, {
			"aliases": [ "ZombieResistances" ],
			"objclass": "ZombieResistancesModuleProperties",
			"objdata": {
				"FamilyResistances": {
					"global": [ {
							"#comment": "200% damage and condition",
							"ConditionResistance": 2,
							"DamageResistance": 2,
							"FamilyType": "enforcemint"
						}, {
							"#comment": "200% damage and condition",
							"ConditionResistance": 2,
							"DamageResistance": 2,
							"FamilyType": "appeasemint"
						}, {
							"#comment": "0% damage and condition",
							"ConditionResistance": 0,
							"DamageResistance": 0,
							"FamilyType": "spearmint"
						} ]
				}
			}
		}, {
			"aliases": [ "SeedBank" ],
			"objclass": "SeedBankProperties",
			"objdata": {
				"ExcludeListSunProducers": false,
				"PlantExcludeList": [ "blover", "caulipower" ],
				"PresetPlantList": [ {
						"Level": -1,
						"PlantType": "tumbleweed"
					} ],
				"SelectionMethod": "chooser"
			}
		}, {
			"aliases": [ "JoustModule" ],
			"objclass": "JoustGameModuleProperties",
			"objdata": {
				"LeagueModifiers": [ {
						"AddTimeLimit": 0,
						"AddZombieLevel": 0,
						"LeagueThreshold": 1
					}, {
						"AddTimeLimit": 0,
						"AddZombieLevel": 1,
						"LeagueThreshold": 2
					}, {
						"AddTimeLimit": 0,
						"AddZombieLevel": 2,
						"LeagueThreshold": 3
					}, {
						"AddTimeLimit": 0,
						"AddZombieLevel": 3,
						"LeagueThreshold": 4
					}, {
						"AddTimeLimit": 0,
						"AddZombieLevel": 4,
						"LeagueThreshold": 5
					}, {
						"AddTimeLimit": 0,
						"AddZombieLevel": 5,
						"LeagueThreshold": 6
					}, {
						"AddTimeLimit": 0,
						"AddZombieLevel": 6,
						"LeagueThreshold": 7
					}, {
						"AddTimeLimit": 0,
						"AddZombieLevel": 7,
						"LeagueThreshold": 8
					}, {
						"AddTimeLimit": 0,
						"AddZombieLevel": 8,
						"LeagueThreshold": 9
					} ],
				"LevelLoadouts": {
					"Loadouts": [ [ {
								"IsImitater": false,
								"PlantLevel": 0,
								"PlantType": "tumbleweed"
							}, {
								"IsImitater": false,
								"PlantLevel": 0,
								"PlantType": "appeasemint"
							}, {
								"IsImitater": false,
								"PlantLevel": 0,
								"PlantType": "primalpeashooter"
							}, {
								"IsImitater": false,
								"PlantLevel": 0,
								"PlantType": "sunshroom"
							}, {
								"IsImitater": false,
								"PlantLevel": 0,
								"PlantType": "torchwood"
							}, {
								"IsImitater": false,
								"PlantLevel": 0,
								"PlantType": "bonkchoy"
							} ], [ {
								"IsImitater": false,
								"PlantLevel": 0,
								"PlantType": "tumbleweed"
							}, {
								"IsImitater": false,
								"PlantLevel": 0,
								"PlantType": "primalsunflower"
							}, {
								"IsImitater": false,
								"PlantLevel": 0,
								"PlantType": "powerlily"
							}, {
								"IsImitater": false,
								"PlantLevel": 0,
								"PlantType": "powerplant"
							}, {
								"IsImitater": false,
								"PlantLevel": 0,
								"PlantType": "bowlingbulb"
							}, {
								"IsImitater": false,
								"PlantLevel": 0,
								"PlantType": "appeasemint"
							} ], [ {
								"IsImitater": false,
								"PlantLevel": 0,
								"PlantType": "tumbleweed"
							}, {
								"IsImitater": false,
								"PlantLevel": 0,
								"PlantType": "torchwood"
							}, {
								"IsImitater": false,
								"PlantLevel": 0,
								"PlantType": "peapod"
							}, {
								"IsImitater": false,
								"PlantLevel": 0,
								"PlantType": "snappea"
							}, {
								"IsImitater": false,
								"PlantLevel": 0,
								"PlantType": "appeasemint"
							}, {
								"IsImitater": false,
								"PlantLevel": 0,
								"PlantType": "shinevine"
							} ] ]
				},
				"PeriodOfWavesToLoop": 5,
				"SuggestedLoadout": "",
				"TimeLimit": 180,
				"WaveSetsToAppend": 20
			}
		}, {
			"aliases": [ "LevelDifficultyScaling" ],
			"objclass": "LevelDifficultyScalingModuleProperties",
			"objdata": {
				"DifficultyRulesType": "DifficultyTestHighDecay",
				"ZombieLevelSwaps": [ {
						"Level": 3,
						"Swaps": [ {
								"From": "RTID(cowboy@ZombieTypes)",
								"To": [ "RTID(cowboy_armor1@ZombieTypes)", "RTID(cowboy_armor2@ZombieTypes)" ]
							} ]
					}, {
						"Level": 5,
						"Swaps": [ {
								"From": "RTID(cowboy@ZombieTypes)",
								"To": [ "RTID(eighties_arcade@ZombieTypes)" ]
							} ]
					} ]
			}
		}, {
			"aliases": [ "ChallengeModule" ],
			"objclass": "StarChallengeModuleProperties",
			"objdata": {
				"Challenges": [ [ "RTID(BeatTheLevel@CurrentLevel)", "RTID(ReachTheScore@CurrentLevel)" ] ],
				"ChallengesAlwaysAvailable": true
			}
		}, {
			"aliases": [ "ReachTheScore" ],
			"objclass": "StarChallengeTargetScoreProps",
			"objdata": {
				"Description": "[STARCHALLENGE_TARGET_SCORE]",
				"DescriptionFailure": "[STARCHALLENGE_TARGET_SCORE_FAILURE]",
				"DescriptiveName": "[STARCHALLENGE_TARGET_SCORE_NAME]",
				"TargetScore": 1000
			}
		}, {
			"aliases": [ "BeatTheLevel" ],
			"objclass": "StarChallengeBeatTheLevelProps",
			"objdata": {
				"Description": "[STARCHALLENGE_LASTSTAND_MINIGAME]",
				"DescriptiveName": "[STARCHALLENGE_LASTSTAND_MINIGAME_NAME]"
			}
		}, {
			"aliases": [ "LastStand" ],
			"objclass": "LastStandMinigameProperties",
			"objdata": {
				"StartingPlantfood": 3,
				"StartingSun": 750
			}
		}, {
			"aliases": [ "LevelScoring" ],
			"objclass": "LevelScoringModuleProperties",
			"objdata": {
				"PlantBonusMultiplier": 0.1,
				"PlantBonuses": [],
				"ScoringRulesType": "Battlez",
				"StartingPlantfood": 3
			}
		}, {
			"aliases": [ "ScoreTiles" ],
			"objclass": "InitialGridItemProperties",
			"objdata": {
				"InitialGridItemPlacements": [ {
						"GridX": 8,
						"GridY": 0,
						"TypeName": "score_5x_tile"
					}, {
						"GridX": 8,
						"GridY": 1,
						"TypeName": "score_5x_tile"
					}, {
						"GridX": 8,
						"GridY": 2,
						"TypeName": "score_5x_tile"
					}, {
						"GridX": 8,
						"GridY": 3,
						"TypeName": "score_5x_tile"
					}, {
						"GridX": 8,
						"GridY": 4,
						"TypeName": "score_5x_tile"
					}, {
						"GridX": 7,
						"GridY": 0,
						"TypeName": "score_5x_tile"
					}, {
						"GridX": 7,
						"GridY": 1,
						"TypeName": "score_5x_tile"
					}, {
						"GridX": 7,
						"GridY": 2,
						"TypeName": "score_5x_tile"
					}, {
						"GridX": 7,
						"GridY": 3,
						"TypeName": "score_5x_tile"
					}, {
						"GridX": 7,
						"GridY": 4,
						"TypeName": "score_5x_tile"
					}, {
						"GridX": 6,
						"GridY": 0,
						"TypeName": "score_3x_tile"
					}, {
						"GridX": 6,
						"GridY": 1,
						"TypeName": "score_3x_tile"
					}, {
						"GridX": 6,
						"GridY": 2,
						"TypeName": "score_3x_tile"
					}, {
						"GridX": 6,
						"GridY": 3,
						"TypeName": "score_3x_tile"
					}, {
						"GridX": 6,
						"GridY": 4,
						"TypeName": "score_3x_tile"
					}, {
						"GridX": 5,
						"GridY": 0,
						"TypeName": "score_3x_tile"
					}, {
						"GridX": 5,
						"GridY": 1,
						"TypeName": "score_3x_tile"
					}, {
						"GridX": 5,
						"GridY": 2,
						"TypeName": "score_3x_tile"
					}, {
						"GridX": 5,
						"GridY": 3,
						"TypeName": "score_3x_tile"
					}, {
						"GridX": 5,
						"GridY": 4,
						"TypeName": "score_3x_tile"
					}, {
						"GridX": 4,
						"GridY": 0,
						"TypeName": "score_2x_tile"
					}, {
						"GridX": 4,
						"GridY": 1,
						"TypeName": "score_2x_tile"
					}, {
						"GridX": 4,
						"GridY": 2,
						"TypeName": "score_2x_tile"
					}, {
						"GridX": 4,
						"GridY": 3,
						"TypeName": "score_2x_tile"
					}, {
						"GridX": 4,
						"GridY": 4,
						"TypeName": "score_2x_tile"
					}, {
						"GridX": 3,
						"GridY": 0,
						"TypeName": "score_2x_tile"
					}, {
						"GridX": 3,
						"GridY": 1,
						"TypeName": "score_2x_tile"
					}, {
						"GridX": 3,
						"GridY": 2,
						"TypeName": "score_2x_tile"
					}, {
						"GridX": 3,
						"GridY": 3,
						"TypeName": "score_2x_tile"
					}, {
						"GridX": 3,
						"GridY": 4,
						"TypeName": "score_2x_tile"
					} ]
			}
		}, {
			"aliases": [ "NewWaves" ],
			"objclass": "WaveManagerModuleProperties",
			"objdata": {
				"DynamicZombies": [ {
						"PointIncrementPerWave": -1,
						"StartingPoints": -1,
						"StartingWave": 3,
						"ZombiePool": [ "RTID(cowboy@ZombieTypes)" ]
					}, {
						"PointIncrementPerWave": -1,
						"StartingPoints": -1,
						"StartingWave": 4,
						"ZombiePool": [ "RTID(cowboy@ZombieTypes)" ]
					}, {
						"PointIncrementPerWave": -1,
						"StartingPoints": -1,
						"StartingWave": 5,
						"ZombiePool": [ "RTID(cowboy@ZombieTypes)" ]
					}, {
						"MaxPoints": 900,
						"PointIncrementPerWave": 100,
						"StartingPoints": 0,
						"StartingWave": 3,
						"ZombiePool": [ "RTID(cowboy@ZombieTypes)" ]
					}, {
						"PointIncrementPerWave": 1,
						"StartingPoints": 1,
						"StartingWave": 5,
						"ZombiePool": [ "RTID(cowboy@ZombieTypes)" ]
					}, {
						"PointIncrementPerWave": 1,
						"StartingPoints": 1,
						"StartingWave": 4,
						"ZombiePool": []
					}, {
						"PointIncrementPerWave": 1,
						"StartingPoints": 1,
						"StartingWave": 3,
						"ZombiePool": []
					} ],
				"WaveManagerProps": "RTID(WaveManagerProps@CurrentLevel)"
			}
		}, {
			"aliases": [ "WaveManagerProps" ],
			"objclass": "WaveManagerProperties",
			"objdata": {
				"FlagWaveInterval": 100,
				"WaveCount": 15,
				"WaveSpendingPointIncrement": 200,
				"WaveSpendingPoints": 300,
				"Waves": [ [ "RTID(Wave1@CurrentLevel)" ], [ "RTID(Wave2@CurrentLevel)" ], [ "RTID(Wave3@CurrentLevel)" ], [ "RTID(Wave4@CurrentLevel)" ], [ "RTID(Wave5@CurrentLevel)" ], [ "RTID(Wave6@CurrentLevel)" ], [ "RTID(Wave7@CurrentLevel)" ], [ "RTID(Wave8@CurrentLevel)" ], [ "RTID(Wave9@CurrentLevel)" ], [ "RTID(Wave10@CurrentLevel)" ], [ "RTID(Wave11@CurrentLevel)" ], [ "RTID(Wave12@CurrentLevel)" ], [ "RTID(Wave13@CurrentLevel)" ], [ "RTID(Wave14@CurrentLevel)", "RTID(Wave14RaidingPartyEvent0@CurrentLevel)", "RTID(Wave14GravestoneEvent0@CurrentLevel)" ], [ "RTID(Wave15@CurrentLevel)" ] ],
				"WavesAlwaysRandomized": true
			}
		}, {
			"aliases": [ "Wave1" ],
			"objclass": "SpawnZombiesJitteredWaveActionProps",
			"objdata": {
				"Zombies": [ {
						"Row": "3",
						"Type": "RTID(piano@ZombieTypes)"
					}, {
						"Type": "RTID(cowboy@ZombieTypes)"
					}, {
						"Type": "RTID(cowboy@ZombieTypes)"
					} ]
			}
		}, {
			"aliases": [ "Wave2" ],
			"objclass": "SpawnZombiesJitteredWaveActionProps",
			"objdata": {
				"Zombies": [ {
						"Row": "2",
						"Type": "RTID(cowboy_armor1@ZombieTypes)"
					}, {
						"Row": "1",
						"Type": "RTID(cowboy@ZombieTypes)"
					}, {
						"Row": "3",
						"Type": "RTID(piano@ZombieTypes)"
					}, {
						"Row": "4",
						"Type": "RTID(cowboy_armor1@ZombieTypes)"
					}, {
						"Row": "5",
						"Type": "RTID(cowboy@ZombieTypes)"
					} ]
			}
		}, {
			"aliases": [ "Wave3" ],
			"objclass": "SpawnZombiesJitteredWaveActionProps",
			"objdata": {
				"Zombies": [ {
						"Row": "5",
						"Type": "RTID(cowboy_armor2@ZombieTypes)"
					}, {
						"Type": "RTID(piano@ZombieTypes)"
					}, {
						"Row": "1",
						"Type": "RTID(cowboy_armor2@ZombieTypes)"
					} ]
			}
		}, {
			"aliases": [ "Wave4" ],
			"objclass": "SpawnZombiesJitteredWaveActionProps",
			"objdata": {
				"Zombies": [ {
						"Row": "2",
						"Type": "RTID(piano@ZombieTypes)"
					}, {
						"Row": "4",
						"Type": "RTID(piano@ZombieTypes)"
					}, {
						"Type": "RTID(cowboy_armor4@ZombieTypes)"
					}, {
						"Type": "RTID(poncho@ZombieTypes)"
					}, {
						"Type": "RTID(poncho@ZombieTypes)"
					} ]
			}
		}, {
			"aliases": [ "Wave5" ],
			"objclass": "SpawnZombiesJitteredWaveActionProps",
			"objdata": {
				"AdditionalPlantfood": 1,
				"Zombies": [ {
						"Row": "1",
						"Type": "RTID(cowboy@ZombieTypes)"
					}, {
						"Row": "2",
						"Type": "RTID(poncho@ZombieTypes)"
					}, {
						"Row": "2",
						"Type": "RTID(poncho@ZombieTypes)"
					}, {
						"Row": "3",
						"Type": "RTID(piano@ZombieTypes)"
					}, {
						"Row": "4",
						"Type": "RTID(poncho@ZombieTypes)"
					}, {
						"Row": "4",
						"Type": "RTID(poncho@ZombieTypes)"
					}, {
						"Row": "5",
						"Type": "RTID(cowboy@ZombieTypes)"
					}, {
						"Row": "5",
						"Type": "RTID(cowboy_armor4@ZombieTypes)"
					}, {
						"Row": "5",
						"Type": "RTID(piano@ZombieTypes)"
					}, {
						"Row": "1",
						"Type": "RTID(cowboy_armor4@ZombieTypes)"
					}, {
						"Row": "1",
						"Type": "RTID(piano@ZombieTypes)"
					} ]
			}
		}, {
			"aliases": [ "Wave6" ],
			"objclass": "SpawnZombiesJitteredWaveActionProps",
			"objdata": {
				"Zombies": [ {
						"Row": "1",
						"Type": "RTID(pharaoh@ZombieTypes)"
					}, {
						"Row": "4",
						"Type": "RTID(pharaoh@ZombieTypes)"
					}, {
						"Row": "1",
						"Type": "RTID(pharaoh@ZombieTypes)"
					} ]
			}
		}, {
			"aliases": [ "Wave7" ],
			"objclass": "SpawnZombiesJitteredWaveActionProps",
			"objdata": {
				"Zombies": [ {
						"Row": "2",
						"Type": "RTID(mech_cone@ZombieTypes)"
					}, {
						"Row": "5",
						"Type": "RTID(mech_cone@ZombieTypes)"
					} ]
			}
		}, {
			"aliases": [ "Wave8" ],
			"objclass": "SpawnZombiesJitteredWaveActionProps",
			"objdata": {
				"Zombies": [ {
						"Row": "3",
						"Type": "RTID(barrelroller@ZombieTypes)"
					}, {
						"Type": "RTID(barrelroller@ZombieTypes)"
					}, {
						"Type": "RTID(barrelroller@ZombieTypes)"
					}, {
						"Type": "RTID(barrelroller@ZombieTypes)"
					} ]
			}
		}, {
			"aliases": [ "Wave9" ],
			"objclass": "SpawnZombiesJitteredWaveActionProps",
			"objdata": {
				"Zombies": [ {
						"Row": "4",
						"Type": "RTID(pharaoh@ZombieTypes)"
					}, {
						"Row": "5",
						"Type": "RTID(pharaoh@ZombieTypes)"
					}, {
						"Row": "5",
						"Type": "RTID(mech_cone@ZombieTypes)"
					}, {
						"Row": "1",
						"Type": "RTID(barrelroller@ZombieTypes)"
					} ]
			}
		}, {
			"aliases": [ "Wave10" ],
			"objclass": "SpawnZombiesJitteredWaveActionProps",
			"objdata": {
				"AdditionalPlantfood": 1,
				"Zombies": [ {
						"Row": "2",
						"Type": "RTID(barrelroller@ZombieTypes)"
					}, {
						"Row": "2",
						"Type": "RTID(pharaoh@ZombieTypes)"
					}, {
						"Type": "RTID(cowboy@ZombieTypes)"
					}, {
						"Row": "2",
						"Type": "RTID(mech_cone@ZombieTypes)"
					}, {
						"Type": "RTID(cowboy@ZombieTypes)"
					}, {
						"Row": "3",
						"Type": "RTID(pharaoh@ZombieTypes)"
					}, {
						"Type": "RTID(cowboy@ZombieTypes)"
					}, {
						"Row": "4",
						"Type": "RTID(barrelroller@ZombieTypes)"
					} ]
			}
		}, {
			"aliases": [ "Wave11" ],
			"objclass": "SpawnZombiesJitteredWaveActionProps",
			"objdata": {
				"Zombies": [ {
						"Type": "RTID(cowboy@ZombieTypes)"
					}, {
						"Type": "RTID(cowboy@ZombieTypes)"
					}, {
						"Type": "RTID(chicken_farmer@ZombieTypes)"
					}, {
						"Type": "RTID(poncho@ZombieTypes)"
					}, {
						"Type": "RTID(cowboy_armor1@ZombieTypes)"
					}, {
						"Type": "RTID(cowboy_armor1@ZombieTypes)"
					}, {
						"Type": "RTID(cowboy_armor2@ZombieTypes)"
					}, {
						"Type": "RTID(cowboy_armor2@ZombieTypes)"
					}, {
						"Type": "RTID(cowboy_armor4@ZombieTypes)"
					}, {
						"Type": "RTID(chicken_farmer@ZombieTypes)"
					} ]
			}
		}, {
			"aliases": [ "Wave12" ],
			"objclass": "SpawnZombiesJitteredWaveActionProps",
			"objdata": {
				"Zombies": [ {
						"Row": "1",
						"Type": "RTID(mech_cone@ZombieTypes)"
					}, {
						"Row": "2",
						"Type": "RTID(mech_cone@ZombieTypes)"
					}, {
						"Row": "3",
						"Type": "RTID(piano@ZombieTypes)"
					}, {
						"Row": "4",
						"Type": "RTID(mech_cone@ZombieTypes)"
					}, {
						"Row": "5",
						"Type": "RTID(mech_cone@ZombieTypes)"
					} ]
			}
		}, {
			"aliases": [ "Wave13" ],
			"objclass": "SpawnZombiesJitteredWaveActionProps",
			"objdata": {
				"Zombies": [ {
						"Row": "3",
						"Type": "RTID(dino_gargantuar@ZombieTypes)"
					}, {
						"Row": "5",
						"Type": "RTID(pharaoh@ZombieTypes)"
					}, {
						"Row": "5",
						"Type": "RTID(barrelroller@ZombieTypes)"
					}, {
						"Row": "1",
						"Type": "RTID(pharaoh@ZombieTypes)"
					}, {
						"Row": "1",
						"Type": "RTID(barrelroller@ZombieTypes)"
					} ]
			}
		}, {
			"aliases": [ "Wave14" ],
			"objclass": "SpawnZombiesJitteredWaveActionProps",
			"objdata": {
				"Zombies": [ {
						"Row": "2",
						"Type": "RTID(pharaoh@ZombieTypes)"
					}, {
						"Row": "2",
						"Type": "RTID(pharaoh@ZombieTypes)"
					}, {
						"Row": "2",
						"Type": "RTID(chicken_farmer@ZombieTypes)"
					}, {
						"Row": "3",
						"Type": "RTID(chicken_farmer@ZombieTypes)"
					}, {
						"Row": "4",
						"Type": "RTID(pharaoh@ZombieTypes)"
					}, {
						"Row": "4",
						"Type": "RTID(pharaoh@ZombieTypes)"
					}, {
						"Row": "4",
						"Type": "RTID(chicken_farmer@ZombieTypes)"
					} ]
			}
		}, {
			"aliases": [ "Wave15" ],
			"objclass": "SpawnZombiesJitteredWaveActionProps",
			"objdata": {
				"AdditionalPlantfood": 1,
				"Zombies": [ {
						"Row": "2",
						"Type": "RTID(poncho@ZombieTypes)"
					}, {
						"Row": "2",
						"Type": "RTID(dino_gargantuar@ZombieTypes)"
					}, {
						"Row": "3",
						"Type": "RTID(piano@ZombieTypes)"
					}, {
						"Row": "4",
						"Type": "RTID(dino_gargantuar@ZombieTypes)"
					}, {
						"Row": "5",
						"Type": "RTID(cowboy_armor4@ZombieTypes)"
					}, {
						"Row": "4",
						"Type": "RTID(poncho@ZombieTypes)"
					}, {
						"Row": "1",
						"Type": "RTID(cowboy_armor4@ZombieTypes)"
					} ]
			}
		}, {
			"aliases": [ "Wave14RaidingPartyEvent0" ],
			"objclass": "RaidingPartyZombieSpawnerProps",
			"objdata": {
				"GroupSize": "1",
				"SwashbucklerCount": 10,
				"TimeBetweenGroups": 1
			}
		}, {
			"aliases": [ "Wave14GravestoneEvent0" ],
			"objclass": "SpawnGravestonesWaveActionProps",
			"objdata": {
				"GravestonePool": [ {
						"Count": 4,
						"Type": "RTID(gravestone_dark@GridItemTypes)"
					}, {
						"Count": 0,
						"Type": "RTID(gravestoneSunOnDestruction@GridItemTypes)"
					}, {
						"Count": 1,
						"Type": "RTID(gravestonePlantfoodOnDestruction@GridItemTypes)"
					} ],
				"SpawnEffectAnimID": "POPANIM_EFFECTS_TOMBSTONE_DARK_SPAWN_EFFECT",
				"SpawnPositionsPool": [ {
						"mX": 5,
						"mY": 0
					}, {
						"mX": 5,
						"mY": 1
					}, {
						"mX": 5,
						"mY": 2
					}, {
						"mX": 5,
						"mY": 3
					}, {
						"mX": 5,
						"mY": 4
					} ],
				"SpawnSoundID": "Play_Zomb_Egypt_TombRaiser_Grave_Rise"
			}
		} ],
	"version": 1
}