{
	"#comment": "Scoring Playtest - Right Gradient - No Quickstart",
	"objects": [ {
			"objclass": "LevelDefinition",
			"objdata": {
				"Description": "",
				"DisablePlantBoosts": true,
				"GridItemLevel": 1,
				"LevelNumber": 1,
				"LevelPowerupSet": "LevelPowerupsDisabled",
				"Loot": "RTID(NoLoot@LevelModules)",
				"LossModule": "RTID(JoustOutro@LevelModules)",
				"Modules": [ "RTID(DefaultSunDropper@LevelModules)", "RTID(ZombiesDeadWinCon@LevelModules)", "RTID(JoustDarkMowers@LevelModules)", "RTID(SeedBank@CurrentLevel)", "RTID(JoustZombieWinCondition@LevelModules)", "RTID(NewWaves@CurrentLevel)", "RTID(LevelScoring@CurrentLevel)", "RTID(ScoreTiles@CurrentLevel)", "RTID(ChallengeModule@CurrentLevel)", "RTID(LastStand@CurrentLevel)", "RTID(LevelDifficultyScaling@CurrentLevel)", "RTID(JoustModule@CurrentLevel)", "RTID(JoustPointOfLoss@LevelModules)", "RTID(ZombieResistances@CurrentLevel)", "RTID(CaesarGeneralZombie3MinModule@LevelModules)" ],
				"Name": "",
				"NormalPresentTable": "dark_normal_01",
				"ShinyPresentTable": "dark_shiny_01",
				"StageModule": "RTID(JoustStage@LevelModules)",
				"SuppressAccountUpgrades": true,
				"SuppressDynamicTutorial": true,
				"SuppressPlantfoodPurchase": true,
				"VictoryModule": "RTID(JoustOutro@LevelModules)"
			}
		}, {
			"aliases": [ "SeedBank" ],
			"objclass": "SeedBankProperties",
			"objdata": {
				"ExcludeListSunProducers": false,
				"PlantExcludeList": [ "blover" ],
				"PresetPlantList": [ {
						"Level": -1,
						"PlantType": "olivepit"
					} ],
				"SelectionMethod": "chooser"
			}
		}, {
			"aliases": [ "ZombieResistances" ],
			"objclass": "ZombieResistancesModuleProperties",
			"objdata": {
				"FamilyResistances": {
					"global": [ {
							"#comment": "200% damage and condition",
							"ConditionResistance": 2,
							"DamageResistance": 2,
							"FamilyType": "containmint"
						}, {
							"#comment": "0% damage and condition",
							"ConditionResistance": 0,
							"DamageResistance": 0,
							"FamilyType": "enchantmint"
						}, {
							"#comment": "50% damage and condition",
							"ConditionResistance": 0.5,
							"DamageResistance": 0.5,
							"FamilyType": "wintermint"
						} ]
				}
			}
		}, {
			"aliases": [ "JoustModule" ],
			"objclass": "JoustGameModuleProperties",
			"objdata": {
				"LeagueModifiers": [ {
						"AddTimeLimit": 0,
						"AddZombieLevel": 0,
						"LeagueThreshold": 1
					}, {
						"AddTimeLimit": 0,
						"AddZombieLevel": 1,
						"LeagueThreshold": 2
					}, {
						"AddTimeLimit": 0,
						"AddZombieLevel": 2,
						"LeagueThreshold": 3
					}, {
						"AddTimeLimit": 0,
						"AddZombieLevel": 3,
						"LeagueThreshold": 4
					}, {
						"AddTimeLimit": 0,
						"AddZombieLevel": 4,
						"LeagueThreshold": 5
					}, {
						"AddTimeLimit": 0,
						"AddZombieLevel": 5,
						"LeagueThreshold": 6
					}, {
						"AddTimeLimit": 0,
						"AddZombieLevel": 6,
						"LeagueThreshold": 7
					}, {
						"AddTimeLimit": 0,
						"AddZombieLevel": 7,
						"LeagueThreshold": 8
					}, {
						"AddTimeLimit": 0,
						"AddZombieLevel": 8,
						"LeagueThreshold": 9
					} ],
				"LevelLoadouts": {
					"Loadouts": [ [ {
								"IsImitater": false,
								"PlantLevel": 0,
								"PlantType": "olivepit"
							}, {
								"IsImitater": false,
								"PlantLevel": 0,
								"PlantType": "shinevine"
							}, {
								"IsImitater": false,
								"PlantLevel": 0,
								"PlantType": "ultomato"
							}, {
								"IsImitater": false,
								"PlantLevel": 0,
								"PlantType": "dartichoke"
							}, {
								"IsImitater": false,
								"PlantLevel": 0,
								"PlantType": "containmint"
							}, {
								"IsImitater": false,
								"PlantLevel": 0,
								"PlantType": "tumbleweed"
							} ], [ {
								"IsImitater": false,
								"PlantLevel": 0,
								"PlantType": "olivepit"
							}, {
								"IsImitater": false,
								"PlantLevel": 0,
								"PlantType": "primalpeashooter"
							}, {
								"IsImitater": false,
								"PlantLevel": 0,
								"PlantType": "gumnut"
							}, {
								"IsImitater": false,
								"PlantLevel": 0,
								"PlantType": "shinevine"
							}, {
								"IsImitater": false,
								"PlantLevel": 0,
								"PlantType": "wintermelon"
							}, {
								"IsImitater": false,
								"PlantLevel": 0,
								"PlantType": "powerlily"
							} ], [ {
								"IsImitater": false,
								"PlantLevel": 0,
								"PlantType": "olivepit"
							}, {
								"IsImitater": false,
								"PlantLevel": 0,
								"PlantType": "powerplant"
							}, {
								"IsImitater": false,
								"PlantLevel": 0,
								"PlantType": "powerlily"
							}, {
								"IsImitater": false,
								"PlantLevel": 0,
								"PlantType": "moonflower"
							}, {
								"IsImitater": false,
								"PlantLevel": 0,
								"PlantType": "dusklobber"
							}, {
								"IsImitater": false,
								"PlantLevel": 0,
								"PlantType": "concealmint"
							} ] ]
				},
				"PeriodOfWavesToLoop": 10,
				"SuggestedLoadout": "",
				"TimeLimit": 180,
				"WaveSetsToAppend": 10
			}
		}, {
			"aliases": [ "LevelDifficultyScaling" ],
			"objclass": "LevelDifficultyScalingModuleProperties",
			"objdata": {
				"DifficultyRulesType": "DifficultyTestHighDecay",
				"ZombieLevelSwaps": [ {
						"Level": 3,
						"Swaps": [ {
								"From": "RTID(zcorp@ZombieTypes)",
								"To": [ "RTID(zcorp@ZombieTypes)", "RTID(zcorp_armor1@ZombieTypes)" ]
							}, {
								"From": "RTID(zcorp_armor1@ZombieTypes)",
								"To": [ "RTID(zcorp_armor2@ZombieTypes)", "RTID(zcorp_armor1@ZombieTypes)" ]
							}, {
								"From": "RTID(zcorp_armor2@ZombieTypes)",
								"To": [ "RTID(zcorp_armor2@ZombieTypes)" ]
							} ]
					}, {
						"Level": 5,
						"Swaps": [ {
								"From": "RTID(zcorp@ZombieTypes)",
								"To": [ "RTID(zcorp@ZombieTypes)", "RTID(zcorp_armor1@ZombieTypes)" ]
							}, {
								"From": "RTID(zcorp_armor1@ZombieTypes)",
								"To": [ "RTID(zcorp_armor2@ZombieTypes)", "RTID(zcorp_armor1@ZombieTypes)" ]
							}, {
								"From": "RTID(zcorp_armor2@ZombieTypes)",
								"To": [ "RTID(zcorp_armor2@ZombieTypes)", "RTID(zcorp_armor2@ZombieTypes)", "RTID(zcorp_armor2@ZombieTypes)", "RTID(zcorp_consultant@ZombieTypes)" ]
							} ]
					}, {
						"Level": 7,
						"Swaps": [ {
								"From": "RTID(zcorp@ZombieTypes)",
								"To": [ "RTID(zcorp_armor2@ZombieTypes)", "RTID(zcorp@ZombieTypes)", "RTID(zcorp_armor1@ZombieTypes)" ]
							}, {
								"From": "RTID(zcorp_armor1@ZombieTypes)",
								"To": [ "RTID(zcorp_armor2@ZombieTypes)", "RTID(zcorp_armor2@ZombieTypes)", "RTID(zcorp_armor1@ZombieTypes)" ]
							}, {
								"From": "RTID(zcorp_armor2@ZombieTypes)",
								"To": [ "RTID(zcorp_armor2@ZombieTypes)", "RTID(zcorp_armor2@ZombieTypes)", "RTID(zcorp_consultant@ZombieTypes)", "RTID(roman_shield_triad@ZombieTypes)", "RTID(zcorp_armor2@ZombieTypes)", "RTID(roman_ballista@ZombieTypes)" ]
							} ]
					}, {
						"Level": 9,
						"Swaps": [ {
								"From": "RTID(zcorp@ZombieTypes)",
								"To": [ "RTID(zcorp_armor2@ZombieTypes)", "RTID(zcorp_armor1@ZombieTypes)" ]
							}, {
								"From": "RTID(zcorp_armor1@ZombieTypes)",
								"To": [ "RTID(zcorp_armor2@ZombieTypes)", "RTID(zcorp_armor2@ZombieTypes)" ]
							}, {
								"From": "RTID(roman_armor2@ZombieTypes)",
								"To": [ "RTID(roman_armor4@ZombieTypes)", "RTID(roman_shield_triad@ZombieTypes)", "RTID(roman_armor3@ZombieTypes)", "RTID(roman_medusa@ZombieTypes)", "RTID(roman_armor4@ZombieTypes)", "RTID(roman_shield_triad@ZombieTypes)", "RTID(roman_armor3@ZombieTypes)", "RTID(roman_medusa@ZombieTypes)", "RTID(roman_ballista@ZombieTypes)", "RTID(roman_gargantuar@ZombieTypes)" ]
							} ]
					} ]
			}
		}, {
			"aliases": [ "ChallengeModule" ],
			"objclass": "StarChallengeModuleProperties",
			"objdata": {
				"Challenges": [ [ "RTID(BeatTheLevel@CurrentLevel)", "RTID(ReachTheScore@CurrentLevel)", "RTID(DoNotPlantBeforeLine@CurrentLevel)" ] ],
				"ChallengesAlwaysAvailable": true
			}
		}, {
			"aliases": [ "DoNotPlantBeforeLine" ],
			"objclass": "MoldColonyChallengeProps",
			"objdata": {
				"Locations": "RTID(Mold23@BoardGridMaps)"
			}
		}, {
			"aliases": [ "ReachTheScore" ],
			"objclass": "StarChallengeTargetScoreProps",
			"objdata": {
				"Description": "[STARCHALLENGE_TARGET_SCORE]",
				"DescriptionFailure": "[STARCHALLENGE_TARGET_SCORE_FAILURE]",
				"DescriptiveName": "[STARCHALLENGE_TARGET_SCORE_NAME]",
				"TargetScore": 1000
			}
		}, {
			"aliases": [ "BeatTheLevel" ],
			"objclass": "StarChallengeBeatTheLevelProps",
			"objdata": {
				"Description": "[STARCHALLENGE_LASTSTAND_MINIGAME]",
				"DescriptiveName": "[STARCHALLENGE_LASTSTAND_MINIGAME_NAME]"
			}
		}, {
			"aliases": [ "LastStand" ],
			"objclass": "LastStandMinigameProperties",
			"objdata": {
				"StartingPlantfood": 1,
				"StartingSun": 3000
			}
		}, {
			"aliases": [ "LevelScoring" ],
			"objclass": "LevelScoringModuleProperties",
			"objdata": {
				"PlantBonusMultiplier": 0.1,
				"PlantBonuses": [],
				"ScoringRulesType": "Battlez",
				"StartingPlantfood": 1
			}
		}, {
			"aliases": [ "ScoreTiles" ],
			"objclass": "InitialGridItemProperties",
			"objdata": {
				"InitialGridItemPlacements": [ {
						"GridX": 8,
						"GridY": 0,
						"TypeName": "score_5x_tile"
					}, {
						"GridX": 8,
						"GridY": 1,
						"TypeName": "score_5x_tile"
					}, {
						"GridX": 8,
						"GridY": 2,
						"TypeName": "score_5x_tile"
					}, {
						"GridX": 8,
						"GridY": 3,
						"TypeName": "score_5x_tile"
					}, {
						"GridX": 8,
						"GridY": 4,
						"TypeName": "score_5x_tile"
					}, {
						"GridX": 7,
						"GridY": 0,
						"TypeName": "score_5x_tile"
					}, {
						"GridX": 7,
						"GridY": 1,
						"TypeName": "score_5x_tile"
					}, {
						"GridX": 7,
						"GridY": 2,
						"TypeName": "score_5x_tile"
					}, {
						"GridX": 7,
						"GridY": 3,
						"TypeName": "score_5x_tile"
					}, {
						"GridX": 7,
						"GridY": 4,
						"TypeName": "score_5x_tile"
					}, {
						"GridX": 6,
						"GridY": 0,
						"TypeName": "score_3x_tile"
					}, {
						"GridX": 6,
						"GridY": 1,
						"TypeName": "score_3x_tile"
					}, {
						"GridX": 6,
						"GridY": 2,
						"TypeName": "score_3x_tile"
					}, {
						"GridX": 6,
						"GridY": 3,
						"TypeName": "score_3x_tile"
					}, {
						"GridX": 6,
						"GridY": 4,
						"TypeName": "score_3x_tile"
					}, {
						"GridX": 5,
						"GridY": 0,
						"TypeName": "score_3x_tile"
					}, {
						"GridX": 5,
						"GridY": 1,
						"TypeName": "score_3x_tile"
					}, {
						"GridX": 5,
						"GridY": 2,
						"TypeName": "score_3x_tile"
					}, {
						"GridX": 5,
						"GridY": 3,
						"TypeName": "score_3x_tile"
					}, {
						"GridX": 5,
						"GridY": 4,
						"TypeName": "score_3x_tile"
					}, {
						"GridX": 4,
						"GridY": 0,
						"TypeName": "score_2x_tile"
					}, {
						"GridX": 4,
						"GridY": 1,
						"TypeName": "score_2x_tile"
					}, {
						"GridX": 4,
						"GridY": 2,
						"TypeName": "score_2x_tile"
					}, {
						"GridX": 4,
						"GridY": 3,
						"TypeName": "score_2x_tile"
					}, {
						"GridX": 4,
						"GridY": 4,
						"TypeName": "score_2x_tile"
					}, {
						"GridX": 3,
						"GridY": 0,
						"TypeName": "score_2x_tile"
					}, {
						"GridX": 3,
						"GridY": 1,
						"TypeName": "score_2x_tile"
					}, {
						"GridX": 3,
						"GridY": 2,
						"TypeName": "score_2x_tile"
					}, {
						"GridX": 3,
						"GridY": 3,
						"TypeName": "score_2x_tile"
					}, {
						"GridX": 3,
						"GridY": 4,
						"TypeName": "score_2x_tile"
					} ]
			}
		}, {
			"aliases": [ "NewWaves" ],
			"objclass": "WaveManagerModuleProperties",
			"objdata": {
				"DynamicZombies": [ {
						"PointIncrementPerWave": -1,
						"StartingPoints": -1,
						"StartingWave": 1,
						"ZombiePool": [ "RTID(roman@ZombieTypes)", "RTID(roman_armor1@ZombieTypes)", "RTID(roman_armor2@ZombieTypes)", "RTID(roman_imp@ZombieTypes)" ]
					}, {
						"PointIncrementPerWave": -1,
						"StartingPoints": -1,
						"StartingWave": 1,
						"ZombiePool": [ "RTID(roman@ZombieTypes)", "RTID(roman_armor1@ZombieTypes)", "RTID(roman_armor2@ZombieTypes)", "RTID(roman_imp@ZombieTypes)" ]
					}, {
						"PointIncrementPerWave": -1,
						"StartingPoints": -1,
						"StartingWave": 1,
						"ZombiePool": [ "RTID(roman@ZombieTypes)", "RTID(roman_armor1@ZombieTypes)", "RTID(roman_armor2@ZombieTypes)", "RTID(roman_imp@ZombieTypes)" ]
					}, {
						"MaxPoints": 1600,
						"PointIncrementPerWave": 200,
						"StartingPoints": 300,
						"StartingWave": 0,
						"ZombiePool": [ "RTID(zcorp@ZombieTypes)", "RTID(roman@ZombieTypes)", "RTID(zcorp_fem@ZombieTypes)", "RTID(zcorp_armor1@ZombieTypes)", "RTID(zcorp_fem_armor2@ZombieTypes)", "RTID(zcorp_imp@ZombieTypes)" ]
					}, {
						"PointIncrementPerWave": 1,
						"StartingPoints": 1,
						"StartingWave": 1,
						"ZombiePool": [ "RTID(roman@ZombieTypes)", "RTID(roman_armor1@ZombieTypes)", "RTID(roman_armor2@ZombieTypes)", "RTID(roman_imp@ZombieTypes)" ]
					}, {
						"PointIncrementPerWave": 1,
						"StartingPoints": 1,
						"StartingWave": 1,
						"ZombiePool": [ "RTID(roman@ZombieTypes)", "RTID(roman_armor1@ZombieTypes)", "RTID(roman_armor2@ZombieTypes)", "RTID(roman_imp@ZombieTypes)" ]
					}, {
						"PointIncrementPerWave": 1,
						"StartingPoints": 1,
						"StartingWave": 1,
						"ZombiePool": [ "RTID(roman@ZombieTypes)", "RTID(roman_armor2@ZombieTypes)", "RTID(roman_imp@ZombieTypes)" ]
					} ],
				"WaveManagerProps": "RTID(WaveManagerProps@CurrentLevel)"
			}
		}, {
			"aliases": [ "WaveManagerProps" ],
			"objclass": "WaveManagerProperties",
			"objdata": {
				"FlagWaveInterval": 100,
				"WaveCount": 24,
				"WaveSpendingPointIncrement": 200,
				"WaveSpendingPoints": 500,
				"Waves": [ [ "RTID(Wave1@CurrentLevel)" ], [ "RTID(Wave2@CurrentLevel)" ], [ "RTID(Wave3@CurrentLevel)" ], [ "RTID(Wave4@CurrentLevel)", "RTID(Wave4GravestoneEvent0@CurrentLevel)" ], [ "RTID(Wave5@CurrentLevel)" ], [ "RTID(Wave6@CurrentLevel)", "RTID(Wave6GravestoneEvent0@CurrentLevel)", "RTID(Wave6GraveSpawnEvent0@CurrentLevel)" ], [ "RTID(Wave7@CurrentLevel)" ], [ "RTID(Wave8@CurrentLevel)", "RTID(Wave8GravestoneEvent0@CurrentLevel)" ], [ "RTID(Wave9@CurrentLevel)" ], [ "RTID(Wave10@CurrentLevel)", "RTID(Wave10GravestoneEvent0@CurrentLevel)", "RTID(Wave10GraveSpawnEvent0@CurrentLevel)" ], [ "RTID(Wave11@CurrentLevel)", "RTID(Wave11GravestoneEvent0@CurrentLevel)" ], [ "RTID(Wave12@CurrentLevel)" ], [ "RTID(Wave13@CurrentLevel)", "RTID(Wave13GravestoneEvent0@CurrentLevel)", "RTID(Wave13GraveSpawnEvent0@CurrentLevel)" ], [ "RTID(Wave14@CurrentLevel)", "RTID(Wave14GravestoneEvent0@CurrentLevel)", "RTID(Wave14GraveSpawnEvent0@CurrentLevel)" ], [ "RTID(Wave15@CurrentLevel)" ], [ "RTID(Wave16@CurrentLevel)", "RTID(Wave16GravestoneEvent0@CurrentLevel)", "RTID(Wave16GraveSpawnEvent0@CurrentLevel)" ], [ "RTID(Wave17@CurrentLevel)" ], [ "RTID(Wave18@CurrentLevel)", "RTID(Wave18GravestoneEvent0@CurrentLevel)", "RTID(Wave18GraveSpawnEvent0@CurrentLevel)" ], [ "RTID(Wave19@CurrentLevel)", "RTID(Wave19GravestoneEvent0@CurrentLevel)", "RTID(Wave19GraveSpawnEvent0@CurrentLevel)" ], [ "RTID(Wave20@CurrentLevel)" ], [ "RTID(Wave21@CurrentLevel)" ], [ "RTID(Wave22@CurrentLevel)", "RTID(Wave22GravestoneEvent0@CurrentLevel)", "RTID(Wave22GraveSpawnEvent0@CurrentLevel)" ], [ "RTID(Wave23@CurrentLevel)", "RTID(Wave23GravestoneEvent0@CurrentLevel)", "RTID(Wave23GraveSpawnEvent0@CurrentLevel)" ], [ "RTID(Wave24@CurrentLevel)", "RTID(Wave24GravestoneEvent0@CurrentLevel)" ] ],
				"WavesAlwaysRandomized": true
			}
		}, {
			"aliases": [ "Wave1" ],
			"objclass": "SpawnZombiesJitteredWaveActionProps",
			"objdata": {
				"Zombies": [ {
						"Type": "RTID(roman_healer@ZombieTypes)"
					} ]
			}
		}, {
			"aliases": [ "Wave2" ],
			"objclass": "SpawnZombiesJitteredWaveActionProps",
			"objdata": {
				"Zombies": [ {
						"Type": "RTID(roman_healer@ZombieTypes)"
					} ]
			}
		}, {
			"aliases": [ "Wave3" ],
			"objclass": "SpawnZombiesJitteredWaveActionProps",
			"objdata": {
				"AdditionalPlantfood": 0,
				"Zombies": [ {
						"Type": "RTID(roman_healer@ZombieTypes)"
					} ]
			}
		}, {
			"aliases": [ "Wave4" ],
			"objclass": "SpawnZombiesJitteredWaveActionProps",
			"objdata": {
				"Zombies": [ {
						"Type": "RTID(roman_medusa@ZombieTypes)"
					} ]
			}
		}, {
			"aliases": [ "Wave5" ],
			"objclass": "SpawnZombiesJitteredWaveActionProps",
			"objdata": {
				"Zombies": [ {
						"Row": "1",
						"Type": "RTID(roman_ballista@ZombieTypes)"
					}, {
						"Row": "5",
						"Type": "RTID(roman_ballista@ZombieTypes)"
					} ]
			}
		}, {
			"aliases": [ "Wave6" ],
			"objclass": "SpawnZombiesJitteredWaveActionProps",
			"objdata": {
				"Zombies": [ {
						"Type": "RTID(roman_healer@ZombieTypes)"
					} ]
			}
		}, {
			"aliases": [ "Wave7" ],
			"objclass": "SpawnZombiesJitteredWaveActionProps",
			"objdata": {
				"Zombies": [ {
						"Type": "RTID(roman_healer@ZombieTypes)"
					}, {
						"Row": "5",
						"Type": "RTID(roman_medusa@ZombieTypes)"
					} ]
			}
		}, {
			"aliases": [ "Wave8" ],
			"objclass": "SpawnZombiesJitteredWaveActionProps",
			"objdata": {
				"Zombies": [ {
						"Row": "2",
						"Type": "RTID(zcorp_gargantuar@ZombieTypes)"
					} ]
			}
		}, {
			"aliases": [ "Wave9" ],
			"objclass": "SpawnZombiesJitteredWaveActionProps",
			"objdata": {
				"Zombies": [ {
						"Type": "RTID(zcorp_consultant@ZombieTypes)"
					}, {
						"Row": "1",
						"Type": "RTID(roman_medusa@ZombieTypes)"
					}, {
						"Type": "RTID(roman_healer@ZombieTypes)"
					} ]
			}
		}, {
			"aliases": [ "Wave10" ],
			"objclass": "SpawnZombiesJitteredWaveActionProps",
			"objdata": {
				"Zombies": [ {
						"Type": "RTID(roman_healer@ZombieTypes)"
					}, {
						"Type": "RTID(roman_healer@ZombieTypes)"
					}, {
						"Row": "4",
						"Type": "RTID(roman_medusa@ZombieTypes)"
					} ]
			}
		}, {
			"aliases": [ "Wave11" ],
			"objclass": "SpawnZombiesJitteredWaveActionProps",
			"objdata": {
				"Zombies": [ {
						"Row": "1",
						"Type": "RTID(roman_ballista@ZombieTypes)"
					}, {
						"Row": "5",
						"Type": "RTID(roman_ballista@ZombieTypes)"
					}, {
						"Type": "RTID(roman_healer@ZombieTypes)"
					} ]
			}
		}, {
			"aliases": [ "Wave12" ],
			"objclass": "SpawnZombiesJitteredWaveActionProps",
			"objdata": {
				"Zombies": [ {
						"Row": "4",
						"Type": "RTID(roman_medusa@ZombieTypes)"
					}, {
						"Row": "2",
						"Type": "RTID(roman_medusa@ZombieTypes)"
					}, {
						"Type": "RTID(roman_medusa@ZombieTypes)"
					} ]
			}
		}, {
			"aliases": [ "Wave13" ],
			"objclass": "SpawnZombiesJitteredWaveActionProps",
			"objdata": {
				"AdditionalPlantfood": 0,
				"Zombies": [ {
						"Row": "1",
						"Type": "RTID(roman_medusa@ZombieTypes)"
					}, {
						"Row": "5",
						"Type": "RTID(roman_medusa@ZombieTypes)"
					} ]
			}
		}, {
			"aliases": [ "Wave14" ],
			"objclass": "SpawnZombiesJitteredWaveActionProps",
			"objdata": {
				"Zombies": [ {
						"Type": "RTID(zcorp_gargantuar@ZombieTypes)"
					} ]
			}
		}, {
			"aliases": [ "Wave15" ],
			"objclass": "SpawnZombiesJitteredWaveActionProps",
			"objdata": {
				"Zombies": [ {
						"Row": "4",
						"Type": "RTID(roman_ballista@ZombieTypes)"
					}, {
						"Row": "2",
						"Type": "RTID(roman_ballista@ZombieTypes)"
					} ]
			}
		}, {
			"aliases": [ "Wave16" ],
			"objclass": "SpawnZombiesJitteredWaveActionProps",
			"objdata": {
				"AdditionalPlantfood": 0,
				"Zombies": [ {
						"Type": "RTID(zcorp_consultant@ZombieTypes)"
					} ]
			}
		}, {
			"aliases": [ "Wave17" ],
			"objclass": "SpawnZombiesJitteredWaveActionProps",
			"objdata": {
				"Zombies": [ {
						"Row": "2",
						"Type": "RTID(roman_medusa@ZombieTypes)"
					}, {
						"Row": "3",
						"Type": "RTID(roman_ballista@ZombieTypes)"
					} ]
			}
		}, {
			"aliases": [ "Wave18" ],
			"objclass": "SpawnZombiesJitteredWaveActionProps",
			"objdata": {
				"Zombies": [ {
						"Type": "RTID(zcorp_gargantuar@ZombieTypes)"
					}, {
						"Type": "RTID(roman_medusa@ZombieTypes)"
					} ]
			}
		}, {
			"aliases": [ "Wave19" ],
			"objclass": "SpawnZombiesJitteredWaveActionProps",
			"objdata": {
				"Zombies": [ {
						"Type": "RTID(roman_healer@ZombieTypes)"
					} ]
			}
		}, {
			"aliases": [ "Wave20" ],
			"objclass": "SpawnZombiesJitteredWaveActionProps",
			"objdata": {
				"Zombies": [ {
						"Row": "5",
						"Type": "RTID(roman_ballista@ZombieTypes)"
					}, {
						"Row": "4",
						"Type": "RTID(roman_ballista@ZombieTypes)"
					}, {
						"Row": "3",
						"Type": "RTID(roman_ballista@ZombieTypes)"
					}, {
						"Row": "2",
						"Type": "RTID(roman_ballista@ZombieTypes)"
					}, {
						"Row": "1",
						"Type": "RTID(roman_ballista@ZombieTypes)"
					} ]
			}
		}, {
			"aliases": [ "Wave21" ],
			"objclass": "SpawnZombiesJitteredWaveActionProps",
			"objdata": {
				"AdditionalPlantfood": 0,
				"Zombies": [ {
						"Type": "RTID(roman_healer@ZombieTypes)"
					}, {
						"Type": "RTID(roman_medusa@ZombieTypes)"
					}, {
						"Type": "RTID(roman_medusa@ZombieTypes)"
					} ]
			}
		}, {
			"aliases": [ "Wave22" ],
			"objclass": "SpawnZombiesJitteredWaveActionProps",
			"objdata": {
				"Zombies": [ {
						"Type": "RTID(roman_healer@ZombieTypes)"
					}, {
						"Type": "RTID(zcorp_gargantuar@ZombieTypes)"
					} ]
			}
		}, {
			"aliases": [ "Wave23" ],
			"objclass": "SpawnZombiesJitteredWaveActionProps",
			"objdata": {
				"Zombies": [ {
						"Type": "RTID(roman_healer@ZombieTypes)"
					}, {
						"Type": "RTID(roman_healer@ZombieTypes)"
					} ]
			}
		}, {
			"aliases": [ "Wave24" ],
			"objclass": "SpawnZombiesJitteredWaveActionProps",
			"objdata": {
				"AdditionalPlantfood": 0,
				"Zombies": [ {
						"Type": "RTID(zcorp_gargantuar@ZombieTypes)"
					}, {
						"Type": "RTID(roman_healer@ZombieTypes)"
					}, {
						"Type": "RTID(roman_gargantuar@ZombieTypes)"
					} ]
			}
		}, {
			"aliases": [ "Wave24GravestoneEvent0" ],
			"objclass": "SpawnGravestonesWaveActionProps",
			"objdata": {
				"GravestonePool": [ {
						"Count": 3,
						"Type": "RTID(gravestone_dark@GridItemTypes)"
					}, {
						"Count": 1,
						"Type": "RTID(gravestoneSunOnDestruction@GridItemTypes)"
					}, {
						"Count": 1,
						"Type": "RTID(gravestonePlantfoodOnDestruction@GridItemTypes)"
					} ],
				"SpawnEffectAnimID": "POPANIM_EFFECTS_TOMBSTONE_DARK_SPAWN_EFFECT",
				"SpawnPositionsPool": [ {
						"mX": 5,
						"mY": 0
					}, {
						"mX": 5,
						"mY": 1
					}, {
						"mX": 5,
						"mY": 2
					}, {
						"mX": 5,
						"mY": 3
					}, {
						"mX": 5,
						"mY": 4
					} ],
				"SpawnSoundID": "Play_Zomb_Egypt_TombRaiser_Grave_Rise"
			}
		}, {
			"aliases": [ "Wave4GravestoneEvent0" ],
			"objclass": "SpawnGravestonesWaveActionProps",
			"objdata": {
				"GravestonePool": [ {
						"Count": 4,
						"Type": "RTID(gravestone_dark@GridItemTypes)"
					}, {
						"Count": 1,
						"Type": "RTID(gravestone_battlez_sun@GridItemTypes)"
					}, {
						"Count": 0,
						"Type": "RTID(gravestonePlantfoodOnDestruction@GridItemTypes)"
					} ],
				"SpawnEffectAnimID": "POPANIM_EFFECTS_TOMBSTONE_DARK_SPAWN_EFFECT",
				"SpawnPositionsPool": [ {
						"mX": 5,
						"mY": 0
					}, {
						"mX": 5,
						"mY": 1
					}, {
						"mX": 5,
						"mY": 2
					}, {
						"mX": 5,
						"mY": 3
					}, {
						"mX": 5,
						"mY": 4
					} ],
				"SpawnSoundID": "Play_Zomb_Egypt_TombRaiser_Grave_Rise"
			}
		}, {
			"aliases": [ "Wave11GravestoneEvent0" ],
			"objclass": "SpawnGravestonesWaveActionProps",
			"objdata": {
				"GravestonePool": [ {
						"Count": 2,
						"Type": "RTID(gravestone_dark@GridItemTypes)"
					}, {
						"Count": 2,
						"Type": "RTID(gravestoneSunOnDestruction@GridItemTypes)"
					}, {
						"Count": 1,
						"Type": "RTID(gravestonePlantfoodOnDestruction@GridItemTypes)"
					} ],
				"SpawnEffectAnimID": "POPANIM_EFFECTS_TOMBSTONE_DARK_SPAWN_EFFECT",
				"SpawnPositionsPool": [ {
						"mX": 5,
						"mY": 0
					}, {
						"mX": 5,
						"mY": 1
					}, {
						"mX": 5,
						"mY": 2
					}, {
						"mX": 5,
						"mY": 3
					}, {
						"mX": 5,
						"mY": 4
					} ],
				"SpawnSoundID": "Play_Zomb_Egypt_TombRaiser_Grave_Rise"
			}
		}, {
			"aliases": [ "Wave14GravestoneEvent0" ],
			"objclass": "SpawnGravestonesWaveActionProps",
			"objdata": {
				"GravestonePool": [ {
						"Count": 4,
						"Type": "RTID(gravestone_dark@GridItemTypes)"
					}, {
						"Count": 1,
						"Type": "RTID(gravestone_battlez_sun@GridItemTypes)"
					}, {
						"Count": 0,
						"Type": "RTID(gravestonePlantfoodOnDestruction@GridItemTypes)"
					} ],
				"SpawnEffectAnimID": "POPANIM_EFFECTS_TOMBSTONE_DARK_SPAWN_EFFECT",
				"SpawnPositionsPool": [ {
						"mX": 5,
						"mY": 0
					}, {
						"mX": 5,
						"mY": 1
					}, {
						"mX": 5,
						"mY": 2
					}, {
						"mX": 5,
						"mY": 3
					}, {
						"mX": 5,
						"mY": 4
					} ],
				"SpawnSoundID": "Play_Zomb_Egypt_TombRaiser_Grave_Rise"
			}
		}, {
			"aliases": [ "Wave14GraveSpawnEvent0" ],
			"objclass": "SpawnZombiesFromGridItemSpawnerProps",
			"objdata": {
				"AdditionalPlantfood": "0",
				"GridTypes": [ "RTID(gravestone_dark@GridItemTypes)", "RTID(gravestoneSunOnDestruction@GridItemTypes)", "RTID(gravestonePlantfoodOnDestruction@GridItemTypes)" ],
				"WaveStartMessage": "[WARNING_GRAVESTONE_SPAWN]",
				"ZombieSpawnWaitTime": "1",
				"Zombies": [ {
						"Type": "RTID(roman_healer@ZombieTypes)"
					}, {
						"Type": "RTID(roman_healer@ZombieTypes)"
					}, {
						"Type": "RTID(zcorp@ZombieTypes)"
					} ]
			}
		}, {
			"aliases": [ "Wave19GravestoneEvent0" ],
			"objclass": "SpawnGravestonesWaveActionProps",
			"objdata": {
				"GravestonePool": [ {
						"Count": 4,
						"Type": "RTID(gravestone_dark@GridItemTypes)"
					}, {
						"Count": 1,
						"Type": "RTID(gravestoneSunOnDestruction@GridItemTypes)"
					}, {
						"Count": 0,
						"Type": "RTID(gravestonePlantfoodOnDestruction@GridItemTypes)"
					} ],
				"SpawnEffectAnimID": "POPANIM_EFFECTS_TOMBSTONE_DARK_SPAWN_EFFECT",
				"SpawnPositionsPool": [ {
						"mX": 5,
						"mY": 0
					}, {
						"mX": 5,
						"mY": 1
					}, {
						"mX": 5,
						"mY": 2
					}, {
						"mX": 5,
						"mY": 3
					}, {
						"mX": 5,
						"mY": 4
					} ],
				"SpawnSoundID": "Play_Zomb_Egypt_TombRaiser_Grave_Rise"
			}
		}, {
			"aliases": [ "Wave19GraveSpawnEvent0" ],
			"objclass": "SpawnZombiesFromGridItemSpawnerProps",
			"objdata": {
				"AdditionalPlantfood": "0",
				"GridTypes": [ "RTID(gravestone_dark@GridItemTypes)", "RTID(gravestoneSunOnDestruction@GridItemTypes)", "RTID(gravestonePlantfoodOnDestruction@GridItemTypes)" ],
				"WaveStartMessage": "[WARNING_GRAVESTONE_SPAWN]",
				"ZombieSpawnWaitTime": "1",
				"Zombies": [ {
						"Type": "RTID(roman_healer@ZombieTypes)"
					}, {
						"Type": "RTID(zcorp@ZombieTypes)"
					}, {
						"Type": "RTID(roman_healer@ZombieTypes)"
					}, {
						"Type": "RTID(zcorp@ZombieTypes)"
					} ]
			}
		}, {
			"aliases": [ "Wave23GravestoneEvent0" ],
			"objclass": "SpawnGravestonesWaveActionProps",
			"objdata": {
				"GravestonePool": [ {
						"Count": 4,
						"Type": "RTID(gravestone_dark@GridItemTypes)"
					}, {
						"Count": 1,
						"Type": "RTID(gravestoneSunOnDestruction@GridItemTypes)"
					}, {
						"Count": 0,
						"Type": "RTID(gravestonePlantfoodOnDestruction@GridItemTypes)"
					} ],
				"SpawnEffectAnimID": "POPANIM_EFFECTS_TOMBSTONE_DARK_SPAWN_EFFECT",
				"SpawnPositionsPool": [ {
						"mX": 5,
						"mY": 0
					}, {
						"mX": 5,
						"mY": 1
					}, {
						"mX": 5,
						"mY": 2
					}, {
						"mX": 5,
						"mY": 3
					}, {
						"mX": 5,
						"mY": 4
					} ],
				"SpawnSoundID": "Play_Zomb_Egypt_TombRaiser_Grave_Rise"
			}
		}, {
			"aliases": [ "Wave23GraveSpawnEvent0" ],
			"objclass": "SpawnZombiesFromGridItemSpawnerProps",
			"objdata": {
				"AdditionalPlantfood": "0",
				"GridTypes": [ "RTID(gravestone_dark@GridItemTypes)", "RTID(gravestoneSunOnDestruction@GridItemTypes)", "RTID(gravestonePlantfoodOnDestruction@GridItemTypes)" ],
				"WaveStartMessage": "[WARNING_GRAVESTONE_SPAWN]",
				"ZombieSpawnWaitTime": "1",
				"Zombies": [ {
						"Type": "RTID(zcorp@ZombieTypes)"
					}, {
						"Type": "RTID(roman_healer@ZombieTypes)"
					}, {
						"Type": "RTID(zcorp@ZombieTypes)"
					}, {
						"Type": "RTID(zcorp@ZombieTypes)"
					}, {
						"Type": "RTID(roman_healer@ZombieTypes)"
					} ]
			}
		}, {
			"aliases": [ "Wave6GravestoneEvent0" ],
			"objclass": "SpawnGravestonesWaveActionProps",
			"objdata": {
				"GravestonePool": [ {
						"Count": 4,
						"Type": "RTID(gravestone_dark@GridItemTypes)"
					}, {
						"Count": 1,
						"Type": "RTID(gravestoneSunOnDestruction@GridItemTypes)"
					}, {
						"Count": 0,
						"Type": "RTID(gravestonePlantfoodOnDestruction@GridItemTypes)"
					} ],
				"SpawnEffectAnimID": "POPANIM_EFFECTS_TOMBSTONE_DARK_SPAWN_EFFECT",
				"SpawnPositionsPool": [ {
						"mX": 5,
						"mY": 0
					}, {
						"mX": 5,
						"mY": 1
					}, {
						"mX": 5,
						"mY": 2
					}, {
						"mX": 5,
						"mY": 3
					}, {
						"mX": 5,
						"mY": 4
					} ],
				"SpawnSoundID": "Play_Zomb_Egypt_TombRaiser_Grave_Rise"
			}
		}, {
			"aliases": [ "Wave6GraveSpawnEvent0" ],
			"objclass": "SpawnZombiesFromGridItemSpawnerProps",
			"objdata": {
				"AdditionalPlantfood": "0",
				"GridTypes": [ "RTID(gravestone_dark@GridItemTypes)", "RTID(gravestoneSunOnDestruction@GridItemTypes)", "RTID(gravestonePlantfoodOnDestruction@GridItemTypes)" ],
				"WaveStartMessage": "[WARNING_GRAVESTONE_SPAWN]",
				"ZombieSpawnWaitTime": "1",
				"Zombies": [ {
						"Type": "RTID(zcorp@ZombieTypes)"
					}, {
						"Type": "RTID(zcorp@ZombieTypes)"
					}, {
						"Type": "RTID(roman_healer@ZombieTypes)"
					} ]
			}
		}, {
			"aliases": [ "Wave8GravestoneEvent0" ],
			"objclass": "SpawnGravestonesWaveActionProps",
			"objdata": {
				"GravestonePool": [ {
						"Count": 4,
						"Type": "RTID(gravestone_dark@GridItemTypes)"
					}, {
						"Count": 0,
						"Type": "RTID(gravestoneSunOnDestruction@GridItemTypes)"
					}, {
						"Count": 1,
						"Type": "RTID(gravestone_battlez@GridItemTypes)"
					} ],
				"SpawnEffectAnimID": "POPANIM_EFFECTS_TOMBSTONE_DARK_SPAWN_EFFECT",
				"SpawnPositionsPool": [ {
						"mX": 5,
						"mY": 0
					}, {
						"mX": 5,
						"mY": 1
					}, {
						"mX": 5,
						"mY": 2
					}, {
						"mX": 5,
						"mY": 3
					}, {
						"mX": 5,
						"mY": 4
					} ],
				"SpawnSoundID": "Play_Zomb_Egypt_TombRaiser_Grave_Rise"
			}
		}, {
			"aliases": [ "Wave10GravestoneEvent0" ],
			"objclass": "SpawnGravestonesWaveActionProps",
			"objdata": {
				"GravestonePool": [ {
						"Count": 4,
						"Type": "RTID(gravestone_dark@GridItemTypes)"
					}, {
						"Count": 1,
						"Type": "RTID(gravestoneSunOnDestruction@GridItemTypes)"
					}, {
						"Count": 0,
						"Type": "RTID(gravestonePlantfoodOnDestruction@GridItemTypes)"
					} ],
				"SpawnEffectAnimID": "POPANIM_EFFECTS_TOMBSTONE_DARK_SPAWN_EFFECT",
				"SpawnPositionsPool": [ {
						"mX": 5,
						"mY": 0
					}, {
						"mX": 5,
						"mY": 1
					}, {
						"mX": 5,
						"mY": 2
					}, {
						"mX": 5,
						"mY": 3
					}, {
						"mX": 5,
						"mY": 4
					} ],
				"SpawnSoundID": "Play_Zomb_Egypt_TombRaiser_Grave_Rise"
			}
		}, {
			"aliases": [ "Wave13GravestoneEvent0" ],
			"objclass": "SpawnGravestonesWaveActionProps",
			"objdata": {
				"GravestonePool": [ {
						"Count": 4,
						"Type": "RTID(gravestone_dark@GridItemTypes)"
					}, {
						"Count": 0,
						"Type": "RTID(gravestoneSunOnDestruction@GridItemTypes)"
					}, {
						"Count": 1,
						"Type": "RTID(gravestone_battlez@GridItemTypes)"
					} ],
				"SpawnEffectAnimID": "POPANIM_EFFECTS_TOMBSTONE_DARK_SPAWN_EFFECT",
				"SpawnPositionsPool": [ {
						"mX": 5,
						"mY": 0
					}, {
						"mX": 5,
						"mY": 1
					}, {
						"mX": 5,
						"mY": 2
					}, {
						"mX": 5,
						"mY": 3
					}, {
						"mX": 5,
						"mY": 4
					} ],
				"SpawnSoundID": "Play_Zomb_Egypt_TombRaiser_Grave_Rise"
			}
		}, {
			"aliases": [ "Wave13GraveSpawnEvent0" ],
			"objclass": "SpawnZombiesFromGridItemSpawnerProps",
			"objdata": {
				"AdditionalPlantfood": "0",
				"GridTypes": [ "RTID(gravestone_dark@GridItemTypes)", "RTID(gravestoneSunOnDestruction@GridItemTypes)", "RTID(gravestonePlantfoodOnDestruction@GridItemTypes)" ],
				"WaveStartMessage": "[WARNING_GRAVESTONE_SPAWN]",
				"ZombieSpawnWaitTime": "1",
				"Zombies": [ {
						"Type": "RTID(roman_healer@ZombieTypes)"
					}, {
						"Type": "RTID(roman_healer@ZombieTypes)"
					}, {
						"Type": "RTID(zcorp@ZombieTypes)"
					} ]
			}
		}, {
			"aliases": [ "Wave16GravestoneEvent0" ],
			"objclass": "SpawnGravestonesWaveActionProps",
			"objdata": {
				"GravestonePool": [ {
						"Count": 4,
						"Type": "RTID(gravestone_dark@GridItemTypes)"
					}, {
						"Count": 1,
						"Type": "RTID(gravestoneSunOnDestruction@GridItemTypes)"
					}, {
						"Count": 0,
						"Type": "RTID(gravestonePlantfoodOnDestruction@GridItemTypes)"
					} ],
				"SpawnEffectAnimID": "POPANIM_EFFECTS_TOMBSTONE_DARK_SPAWN_EFFECT",
				"SpawnPositionsPool": [ {
						"mX": 5,
						"mY": 0
					}, {
						"mX": 5,
						"mY": 1
					}, {
						"mX": 5,
						"mY": 2
					}, {
						"mX": 5,
						"mY": 3
					}, {
						"mX": 5,
						"mY": 4
					} ],
				"SpawnSoundID": "Play_Zomb_Egypt_TombRaiser_Grave_Rise"
			}
		}, {
			"aliases": [ "Wave16GraveSpawnEvent0" ],
			"objclass": "SpawnZombiesFromGridItemSpawnerProps",
			"objdata": {
				"AdditionalPlantfood": "0",
				"GridTypes": [ "RTID(gravestone_dark@GridItemTypes)", "RTID(gravestoneSunOnDestruction@GridItemTypes)", "RTID(gravestonePlantfoodOnDestruction@GridItemTypes)" ],
				"WaveStartMessage": "[WARNING_GRAVESTONE_SPAWN]",
				"ZombieSpawnWaitTime": "1",
				"Zombies": [ {
						"Type": "RTID(roman_healer@ZombieTypes)"
					}, {
						"Type": "RTID(zcorp@ZombieTypes)"
					}, {
						"Type": "RTID(roman_healer@ZombieTypes)"
					}, {
						"Type": "RTID(zcorp@ZombieTypes)"
					} ]
			}
		}, {
			"aliases": [ "Wave18GravestoneEvent0" ],
			"objclass": "SpawnGravestonesWaveActionProps",
			"objdata": {
				"GravestonePool": [ {
						"Count": 0,
						"Type": "RTID(gravestone_dark@GridItemTypes)"
					}, {
						"Count": 4,
						"Type": "RTID(gravestoneSunOnDestruction@GridItemTypes)"
					}, {
						"Count": 1,
						"Type": "RTID(gravestone_battlez@GridItemTypes)"
					} ],
				"SpawnEffectAnimID": "POPANIM_EFFECTS_TOMBSTONE_DARK_SPAWN_EFFECT",
				"SpawnPositionsPool": [ {
						"mX": 5,
						"mY": 0
					}, {
						"mX": 5,
						"mY": 1
					}, {
						"mX": 5,
						"mY": 2
					}, {
						"mX": 5,
						"mY": 3
					}, {
						"mX": 5,
						"mY": 4
					} ],
				"SpawnSoundID": "Play_Zomb_Egypt_TombRaiser_Grave_Rise"
			}
		}, {
			"aliases": [ "Wave18GraveSpawnEvent0" ],
			"objclass": "SpawnZombiesFromGridItemSpawnerProps",
			"objdata": {
				"AdditionalPlantfood": "0",
				"GridTypes": [ "RTID(gravestone_dark@GridItemTypes)", "RTID(gravestoneSunOnDestruction@GridItemTypes)", "RTID(gravestonePlantfoodOnDestruction@GridItemTypes)" ],
				"WaveStartMessage": "[WARNING_GRAVESTONE_SPAWN]",
				"ZombieSpawnWaitTime": "1",
				"Zombies": [ {
						"Type": "RTID(roman_healer@ZombieTypes)"
					}, {
						"Type": "RTID(zcorp@ZombieTypes)"
					}, {
						"Type": "RTID(roman_healer@ZombieTypes)"
					}, {
						"Type": "RTID(zcorp@ZombieTypes)"
					} ]
			}
		}, {
			"aliases": [ "Wave22GravestoneEvent0" ],
			"objclass": "SpawnGravestonesWaveActionProps",
			"objdata": {
				"GravestonePool": [ {
						"Count": 4,
						"Type": "RTID(gravestone_dark@GridItemTypes)"
					}, {
						"Count": 0,
						"Type": "RTID(gravestoneSunOnDestruction@GridItemTypes)"
					}, {
						"Count": 1,
						"Type": "RTID(gravestone_battlez@GridItemTypes)"
					} ],
				"SpawnEffectAnimID": "POPANIM_EFFECTS_TOMBSTONE_DARK_SPAWN_EFFECT",
				"SpawnPositionsPool": [ {
						"mX": 5,
						"mY": 0
					}, {
						"mX": 5,
						"mY": 1
					}, {
						"mX": 5,
						"mY": 2
					}, {
						"mX": 5,
						"mY": 3
					}, {
						"mX": 5,
						"mY": 4
					} ],
				"SpawnSoundID": "Play_Zomb_Egypt_TombRaiser_Grave_Rise"
			}
		}, {
			"aliases": [ "Wave22GraveSpawnEvent0" ],
			"objclass": "SpawnZombiesFromGridItemSpawnerProps",
			"objdata": {
				"AdditionalPlantfood": "0",
				"GridTypes": [ "RTID(gravestone_dark@GridItemTypes)", "RTID(gravestoneSunOnDestruction@GridItemTypes)", "RTID(gravestonePlantfoodOnDestruction@GridItemTypes)" ],
				"WaveStartMessage": "[WARNING_GRAVESTONE_SPAWN]",
				"ZombieSpawnWaitTime": "1",
				"Zombies": [ {
						"Type": "RTID(zcorp@ZombieTypes)"
					}, {
						"Type": "RTID(roman_healer@ZombieTypes)"
					}, {
						"Type": "RTID(zcorp@ZombieTypes)"
					}, {
						"Type": "RTID(zcorp@ZombieTypes)"
					}, {
						"Type": "RTID(roman_healer@ZombieTypes)"
					} ]
			}
		}, {
			"aliases": [ "Wave10GraveSpawnEvent0" ],
			"objclass": "SpawnZombiesFromGridItemSpawnerProps",
			"objdata": {
				"AdditionalPlantfood": "0",
				"GridTypes": [ "RTID(gravestone_dark@GridItemTypes)", "RTID(gravestoneSunOnDestruction@GridItemTypes)", "RTID(gravestonePlantfoodOnDestruction@GridItemTypes)" ],
				"WaveStartMessage": "[WARNING_GRAVESTONE_SPAWN]",
				"ZombieSpawnWaitTime": "1",
				"Zombies": [ {
						"Type": "RTID(zcorp@ZombieTypes)"
					}, {
						"Type": "RTID(zcorp@ZombieTypes)"
					} ]
			}
		} ],
	"version": 1
}