{
	"#comment": "Scoring Playtest - Right Gradient - No Quickstart",
	"objects": [ {
			"objclass": "LevelDefinition",
			"objdata": {
				"Description": "",
				"DisablePlantBoosts": true,
				"GridItemLevel": 1,
				"LevelNumber": 1,
				"LevelPowerupSet": "LevelPowerupsDisabled",
				"Loot": "RTID(NoLoot@LevelModules)",
				"LossModule": "RTID(JoustOutro@LevelModules)",
				"Modules": [ "RTID(DefaultSunDropper@LevelModules)", "RTID(ZombiesDeadWinCon@LevelModules)", "RTID(JoustDarkMowers@LevelModules)", "RTID(SeedBank@CurrentLevel)", "RTID(JoustZombieWinCondition@LevelModules)", "RTID(NewWaves@CurrentLevel)", "RTID(LevelScoring@CurrentLevel)", "RTID(ScoreTiles@CurrentLevel)", "RTID(ChallengeModule@CurrentLevel)", "RTID(LastStand@CurrentLevel)", "RTID(LevelDifficultyScaling@CurrentLevel)", "RTID(JoustModule@CurrentLevel)", "RTID(JoustPointOfLoss@LevelModules)", "RTID(ZombieResistances@CurrentLevel)" ],
				"Name": "",
				"NormalPresentTable": "dark_normal_01",
				"ShinyPresentTable": "dark_shiny_01",
				"StageModule": "RTID(JoustStage@LevelModules)",
				"SuppressAccountUpgrades": true,
				"SuppressDynamicTutorial": true,
				"SuppressPlantfoodPurchase": true,
				"VictoryModule": "RTID(JoustOutro@LevelModules)"
			}
		}, {
			"aliases": [ "SeedBank" ],
			"objclass": "SeedBankProperties",
			"objdata": {
				"PresetPlantList": [ {
						"Level": -1,
						"PlantType": "shadowpeashooter"
					} ],
				"SelectionMethod": "chooser"
			}
		}, {
			"aliases": [ "ZombieResistances" ],
			"objclass": "ZombieResistancesModuleProperties",
			"objdata": {
				"FamilyResistances": {
					"global": [ {
							"#comment": "200% damage and condition",
							"ConditionResistance": 2,
							"DamageResistance": 2,
							"FamilyType": "concealmint"
						}, {
							"#comment": "50% damage and condition",
							"ConditionResistance": 0.5,
							"DamageResistance": 0.5,
							"FamilyType": "enforcemint"
						} ]
				}
			}
		}, {
			"aliases": [ "JoustModule" ],
			"objclass": "JoustGameModuleProperties",
			"objdata": {
				"LeagueModifiers": [ {
						"AddTimeLimit": 0,
						"AddZombieLevel": 0,
						"LeagueThreshold": 1
					}, {
						"AddTimeLimit": 0,
						"AddZombieLevel": 1,
						"LeagueThreshold": 2
					}, {
						"AddTimeLimit": 0,
						"AddZombieLevel": 2,
						"LeagueThreshold": 3
					}, {
						"AddTimeLimit": 0,
						"AddZombieLevel": 3,
						"LeagueThreshold": 4
					}, {
						"AddTimeLimit": 0,
						"AddZombieLevel": 4,
						"LeagueThreshold": 5
					}, {
						"AddTimeLimit": 0,
						"AddZombieLevel": 5,
						"LeagueThreshold": 6
					}, {
						"AddTimeLimit": 0,
						"AddZombieLevel": 6,
						"LeagueThreshold": 7
					}, {
						"AddTimeLimit": 0,
						"AddZombieLevel": 7,
						"LeagueThreshold": 8
					}, {
						"AddTimeLimit": 0,
						"AddZombieLevel": 8,
						"LeagueThreshold": 9
					} ],
				"PeriodOfWavesToLoop": 10,
				"TimeLimit": 120,
				"WaveSetsToAppend": 5,
				"SuggestedLoadout": "",
				"LevelLoadouts": {
					"Loadouts": [ [ {
								"PlantType": "concealmint",
								"PlantLevel": 0,
								"IsImitater": false
							}, {
								"PlantType": "wallnut",
								"PlantLevel": 0,
								"IsImitater": false
							}, {
								"PlantType": "moonflower",
								"PlantLevel": 0,
								"IsImitater": false
							}, {
								"PlantType": "spearmint",
								"PlantLevel": 0,
								"IsImitater": false
							}, {
								"PlantType": "peppermint",
								"PlantLevel": 0,
								"IsImitater": false
							}, {
								"PlantType": "goldbloom",
								"PlantLevel": 0,
								"IsImitater": false
							} ], [ {
								"PlantType": "concealmint",
								"PlantLevel": 0,
								"IsImitater": false
							}, {
								"PlantType": "wallnut",
								"PlantLevel": 0,
								"IsImitater": false
							}, {
								"PlantType": "moonflower",
								"PlantLevel": 0,
								"IsImitater": false
							}, {
								"PlantType": "nightshade",
								"PlantLevel": 0,
								"IsImitater": false
							}, {
								"PlantType": "grimrose",
								"PlantLevel": 0,
								"IsImitater": false
							}, {
								"PlantType": "dusklobber",
								"PlantLevel": 0,
								"IsImitater": false
							} ], [ {
								"PlantType": "concealmint",
								"PlantLevel": 0,
								"IsImitater": false
							}, {
								"PlantType": "wallnut",
								"PlantLevel": 0,
								"IsImitater": false
							}, {
								"PlantType": "moonflower",
								"PlantLevel": 0,
								"IsImitater": false
							}, {
								"PlantType": "wintermelon",
								"PlantLevel": 0,
								"IsImitater": false
							}, {
								"PlantType": "grapeshot",
								"PlantLevel": 0,
								"IsImitater": false
							}, {
								"PlantType": "dusklobber",
								"PlantLevel": 0,
								"IsImitater": false
							} ] ]
				}
			}
		}, {
			"aliases": [ "LevelDifficultyScaling" ],
			"objclass": "LevelDifficultyScalingModuleProperties",
			"objdata": {
				"DifficultyRulesType": "DifficultyTestHighDecay",
				"ZombieLevelSwaps": [ {
						"Level": 5,
						"Swaps": [ {
								"From": "RTID(eighties_armor1@ZombieTypes)",
								"To": [ "RTID(cowboy_armor2@ZombieTypes)" ]
							} ]
					}, {
						"Level": 6,
						"Swaps": [ {
								"From": "RTID(eighties_armor1@ZombieTypes)",
								"To": [ "RTID(cowboy_armor2@ZombieTypes)" ]
							}, {
								"From": "RTID(cowboy_armor2@ZombieTypes)",
								"To": [ "RTID(dino_armor3@ZombieTypes)" ]
							} ]
					}, {
						"Level": 7,
						"Swaps": [ {
								"From": "RTID(eighties_armor1@ZombieTypes)",
								"To": [ "RTID(cowboy_armor2@ZombieTypes)", "RTID(lostcity_relichunter@ZombieTypes)" ]
							}, {
								"From": "RTID(cowboy_armor2@ZombieTypes)",
								"To": [ "RTID(dino_armor3@ZombieTypes)", "RTID(lostcity_relichunter@ZombieTypes)" ]
							}, {
								"From": "RTID(dino_armor3@ZombieTypes)",
								"To": [ "RTID(mummy_armor4@ZombieTypes)", "RTID(lostcity_relichunter@ZombieTypes)" ]
							} ]
					}, {
						"Level": 8,
						"Swaps": [ {
								"From": "RTID(eighties_armor1@ZombieTypes)",
								"To": [ "RTID(cowboy_armor2@ZombieTypes)", "RTID(lostcity_relichunter@ZombieTypes)" ]
							}, {
								"From": "RTID(cowboy_armor2@ZombieTypes)",
								"To": [ "RTID(mummy_armor4@ZombieTypes)", "RTID(lostcity_relichunter@ZombieTypes)" ]
							}, {
								"From": "RTID(dino_armor3@ZombieTypes)",
								"To": [ "RTID(future_gargantuar@ZombieTypes)", "RTID(lostcity_relichunter@ZombieTypes)" ]
							} ]
					}, {
						"Level": 9,
						"Swaps": [ {
								"From": "RTID(eighties_armor1@ZombieTypes)",
								"To": [ "RTID(cowboy_armor2@ZombieTypes)", "RTID(lostcity_relichunter@ZombieTypes)" ]
							}, {
								"From": "RTID(cowboy_armor2@ZombieTypes)",
								"To": [ "RTID(mummy_armor4@ZombieTypes)" ]
							}, {
								"From": "RTID(dino_armor3@ZombieTypes)",
								"To": [ "RTID(future_gargantuar@ZombieTypes)" ]
							} ]
					}, {
						"Level": 10,
						"Swaps": [ {
								"From": "RTID(eighties_armor1@ZombieTypes)",
								"To": [ "RTID(cowboy_armor2@ZombieTypes)", "RTID(lostcity_relichunter@ZombieTypes)" ]
							}, {
								"From": "RTID(cowboy_armor2@ZombieTypes)",
								"To": [ "RTID(mummy_armor4@ZombieTypes)" ]
							}, {
								"From": "RTID(dino_armor3@ZombieTypes)",
								"To": [ "RTID(future_gargantuar@ZombieTypes)" ]
							} ]
					} ]
			}
		}, {
			"aliases": [ "ChallengeModule" ],
			"objclass": "StarChallengeModuleProperties",
			"objdata": {
				"Challenges": [ [ "RTID(BeatTheLevel@CurrentLevel)", "RTID(ReachTheScore@CurrentLevel)" ] ],
				"ChallengesAlwaysAvailable": true
			}
		}, {
			"aliases": [ "ReachTheScore" ],
			"objclass": "StarChallengeTargetScoreProps",
			"objdata": {
				"Description": "[STARCHALLENGE_TARGET_SCORE]",
				"DescriptionFailure": "[STARCHALLENGE_TARGET_SCORE_FAILURE]",
				"DescriptiveName": "[STARCHALLENGE_TARGET_SCORE_NAME]",
				"TargetScore": 1000
			}
		}, {
			"aliases": [ "BeatTheLevel" ],
			"objclass": "StarChallengeBeatTheLevelProps",
			"objdata": {
				"Description": "[STARCHALLENGE_LASTSTAND_MINIGAME]",
				"DescriptiveName": "[STARCHALLENGE_LASTSTAND_MINIGAME_NAME]"
			}
		}, {
			"aliases": [ "LastStand" ],
			"objclass": "LastStandMinigameProperties",
			"objdata": {
				"StartingPlantfood": 1,
				"StartingSun": 1275
			}
		}, {
			"aliases": [ "LevelScoring" ],
			"objclass": "LevelScoringModuleProperties",
			"objdata": {
				"PlantBonusMultiplier": 0.1,
				"PlantBonuses": [],
				"ScoringRulesType": "Battlez",
				"StartingPlantfood": 1
			}
		}, {
			"aliases": [ "ScoreTiles" ],
			"objclass": "InitialGridItemProperties",
			"objdata": {
				"InitialGridItemPlacements": [ {
						"GridX": 8,
						"GridY": 0,
						"TypeName": "score_5x_tile"
					}, {
						"GridX": 8,
						"GridY": 1,
						"TypeName": "score_5x_tile"
					}, {
						"GridX": 8,
						"GridY": 2,
						"TypeName": "score_5x_tile"
					}, {
						"GridX": 8,
						"GridY": 3,
						"TypeName": "score_5x_tile"
					}, {
						"GridX": 8,
						"GridY": 4,
						"TypeName": "score_5x_tile"
					}, {
						"GridX": 7,
						"GridY": 0,
						"TypeName": "score_5x_tile"
					}, {
						"GridX": 7,
						"GridY": 1,
						"TypeName": "score_5x_tile"
					}, {
						"GridX": 7,
						"GridY": 2,
						"TypeName": "score_5x_tile"
					}, {
						"GridX": 7,
						"GridY": 3,
						"TypeName": "score_5x_tile"
					}, {
						"GridX": 7,
						"GridY": 4,
						"TypeName": "score_5x_tile"
					}, {
						"GridX": 6,
						"GridY": 0,
						"TypeName": "score_3x_tile"
					}, {
						"GridX": 6,
						"GridY": 1,
						"TypeName": "score_3x_tile"
					}, {
						"GridX": 6,
						"GridY": 2,
						"TypeName": "score_3x_tile"
					}, {
						"GridX": 6,
						"GridY": 3,
						"TypeName": "score_3x_tile"
					}, {
						"GridX": 6,
						"GridY": 4,
						"TypeName": "score_3x_tile"
					}, {
						"GridX": 5,
						"GridY": 0,
						"TypeName": "score_3x_tile"
					}, {
						"GridX": 5,
						"GridY": 1,
						"TypeName": "score_3x_tile"
					}, {
						"GridX": 5,
						"GridY": 2,
						"TypeName": "score_3x_tile"
					}, {
						"GridX": 5,
						"GridY": 3,
						"TypeName": "score_3x_tile"
					}, {
						"GridX": 5,
						"GridY": 4,
						"TypeName": "score_3x_tile"
					}, {
						"GridX": 4,
						"GridY": 0,
						"TypeName": "score_2x_tile"
					}, {
						"GridX": 4,
						"GridY": 1,
						"TypeName": "score_2x_tile"
					}, {
						"GridX": 4,
						"GridY": 2,
						"TypeName": "score_2x_tile"
					}, {
						"GridX": 4,
						"GridY": 3,
						"TypeName": "score_2x_tile"
					}, {
						"GridX": 4,
						"GridY": 4,
						"TypeName": "score_2x_tile"
					}, {
						"GridX": 3,
						"GridY": 0,
						"TypeName": "score_2x_tile"
					}, {
						"GridX": 3,
						"GridY": 1,
						"TypeName": "score_2x_tile"
					}, {
						"GridX": 3,
						"GridY": 2,
						"TypeName": "score_2x_tile"
					}, {
						"GridX": 3,
						"GridY": 3,
						"TypeName": "score_2x_tile"
					}, {
						"GridX": 3,
						"GridY": 4,
						"TypeName": "score_2x_tile"
					} ]
			}
		}, {
			"aliases": [ "NewWaves" ],
			"objclass": "WaveManagerModuleProperties",
			"objdata": {
				"DynamicZombies": [ {
						"PointIncrementPerWave": -1,
						"StartingPoints": -1,
						"StartingWave": 1,
						"ZombiePool": [ "RTID(cowboy_armor2@ZombieTypes)", "RTID(dino_armor3@ZombieTypes)", "RTID(eighties_armor1@ZombieTypes)", "RTID(future_gargantuar@ZombieTypes)", "RTID(future_protector@ZombieTypes)", "RTID(lostcity_jane@ZombieTypes)", "RTID(mummy_armor4@ZombieTypes)" ]
					}, {
						"PointIncrementPerWave": -1,
						"StartingPoints": -1,
						"StartingWave": 1,
						"ZombiePool": [ "RTID(cowboy_armor2@ZombieTypes)", "RTID(dino_armor3@ZombieTypes)", "RTID(eighties_armor1@ZombieTypes)", "RTID(future_gargantuar@ZombieTypes)", "RTID(future_protector@ZombieTypes)", "RTID(lostcity_jane@ZombieTypes)", "RTID(mummy_armor4@ZombieTypes)" ]
					}, {
						"PointIncrementPerWave": -1,
						"StartingPoints": -1,
						"StartingWave": 1,
						"ZombiePool": [ "RTID(cowboy_armor2@ZombieTypes)", "RTID(dino_armor3@ZombieTypes)", "RTID(eighties_armor1@ZombieTypes)", "RTID(future_gargantuar@ZombieTypes)", "RTID(future_protector@ZombieTypes)", "RTID(lostcity_jane@ZombieTypes)", "RTID(mummy_armor4@ZombieTypes)" ]
					}, {
						"PointIncrementPerWave": 250,
						"StartingPoints": 1250,
						"MaxPoints": 20000,
						"StartingWave": 1,
						"ZombiePool": [ "RTID(cowboy_armor2@ZombieTypes)", "RTID(dino_armor3@ZombieTypes)", "RTID(eighties_armor1@ZombieTypes)", "RTID(future_gargantuar@ZombieTypes)", "RTID(future_protector@ZombieTypes)", "RTID(lostcity_jane@ZombieTypes)", "RTID(mummy_armor4@ZombieTypes)" ]
					}, {
						"PointIncrementPerWave": 1,
						"StartingPoints": 1,
						"StartingWave": 1,
						"ZombiePool": [ "RTID(cowboy_armor2@ZombieTypes)", "RTID(dino_armor3@ZombieTypes)", "RTID(eighties_armor1@ZombieTypes)", "RTID(future_gargantuar@ZombieTypes)", "RTID(future_protector@ZombieTypes)", "RTID(lostcity_jane@ZombieTypes)", "RTID(mummy_armor4@ZombieTypes)" ]
					}, {
						"PointIncrementPerWave": 1,
						"StartingPoints": 1,
						"StartingWave": 1,
						"ZombiePool": [ "RTID(cowboy_armor2@ZombieTypes)", "RTID(dino_armor3@ZombieTypes)", "RTID(eighties_armor1@ZombieTypes)", "RTID(future_gargantuar@ZombieTypes)", "RTID(future_protector@ZombieTypes)", "RTID(lostcity_jane@ZombieTypes)", "RTID(mummy_armor4@ZombieTypes)" ]
					}, {
						"PointIncrementPerWave": 1,
						"StartingPoints": 1,
						"StartingWave": 1,
						"ZombiePool": [ "RTID(cowboy_armor2@ZombieTypes)", "RTID(dino_armor3@ZombieTypes)", "RTID(eighties_armor1@ZombieTypes)", "RTID(future_gargantuar@ZombieTypes)", "RTID(future_protector@ZombieTypes)", "RTID(lostcity_jane@ZombieTypes)", "RTID(mummy_armor4@ZombieTypes)" ]
					} ],
				"WaveManagerProps": "RTID(WaveManagerProps@CurrentLevel)"
			}
		}, {
			"aliases": [ "WaveManagerProps" ],
			"objclass": "WaveManagerProperties",
			"objdata": {
				"FlagWaveInterval": 36,
				"WaveCount": 36,
				"WaveSpendingPointIncrement": 150,
				"WaveSpendingPoints": 0,
				"Waves": [ [ "RTID(Wave1@CurrentLevel)", "RTID(Wave1SpiderRainEvent0@CurrentLevel)" ], [ "RTID(Wave2@CurrentLevel)", "RTID(Wave2SpiderRainEvent0@CurrentLevel)" ], [ "RTID(Wave3@CurrentLevel)", "RTID(Wave3SpiderRainEvent0@CurrentLevel)" ], [ "RTID(Wave4@CurrentLevel)", "RTID(Wave4SpiderRainEvent0@CurrentLevel)" ], [ "RTID(Wave5@CurrentLevel)", "RTID(Wave5SpiderRainEvent0@CurrentLevel)" ], [ "RTID(Wave6@CurrentLevel)", "RTID(Wave6SpiderRainEvent0@CurrentLevel)" ], [ "RTID(Wave7@CurrentLevel)", "RTID(Wave7SpiderRainEvent0@CurrentLevel)" ], [ "RTID(Wave8@CurrentLevel)", "RTID(Wave8SpiderRainEvent0@CurrentLevel)" ], [ "RTID(Wave9@CurrentLevel)", "RTID(Wave9SpiderRainEvent0@CurrentLevel)" ], [ "RTID(Wave10@CurrentLevel)", "RTID(Wave10SpiderRainEvent0@CurrentLevel)" ] ],
				"WavesAlwaysRandomized": true
			}
		}, {
			"aliases": [ "Wave1" ],
			"objclass": "SpawnZombiesJitteredWaveActionProps",
			"objdata": {}
		}, {
			"aliases": [ "Wave2" ],
			"objclass": "SpawnZombiesJitteredWaveActionProps",
			"objdata": {}
		}, {
			"aliases": [ "Wave3" ],
			"objclass": "SpawnZombiesJitteredWaveActionProps",
			"objdata": {}
		}, {
			"aliases": [ "Wave4" ],
			"objclass": "SpawnZombiesJitteredWaveActionProps",
			"objdata": {}
		}, {
			"aliases": [ "Wave5" ],
			"objclass": "SpawnZombiesJitteredWaveActionProps",
			"objdata": {}
		}, {
			"aliases": [ "Wave6" ],
			"objclass": "SpawnZombiesJitteredWaveActionProps",
			"objdata": {}
		}, {
			"aliases": [ "Wave7" ],
			"objclass": "SpawnZombiesJitteredWaveActionProps",
			"objdata": {}
		}, {
			"aliases": [ "Wave8" ],
			"objclass": "SpawnZombiesJitteredWaveActionProps",
			"objdata": {}
		}, {
			"aliases": [ "Wave9" ],
			"objclass": "SpawnZombiesJitteredWaveActionProps",
			"objdata": {}
		}, {
			"aliases": [ "Wave10" ],
			"objclass": "SpawnZombiesJitteredWaveActionProps",
			"objdata": {
				"AdditionalPlantfood": 1,
				"Zombies": [ {
						"Row": "3",
						"Type": "RTID(future_protector@ZombieTypes)"
					} ]
			}
		}, {
			"aliases": [ "Wave1SpiderRainEvent0" ],
			"objclass": "SpiderRainZombieSpawnerProps",
			"objdata": {
				"ColumnEnd": "6",
				"ColumnStart": "3",
				"GroupSize": "2",
				"SpiderCount": "4",
				"SpiderZombieName": "future_imp",
				"TimeBeforeFullSpawn": "1",
				"TimeBetweenGroups": "0.2",
				"WaveStartMessage": "[WARNING_SPIDERRAIN]",
				"ZombieFallTime": "1.5"
			}
		}, {
			"aliases": [ "Wave2SpiderRainEvent0" ],
			"objclass": "SpiderRainZombieSpawnerProps",
			"objdata": {
				"ColumnEnd": "7",
				"ColumnStart": "4",
				"GroupSize": "2",
				"SpiderCount": "5",
				"SpiderZombieName": "future_imp",
				"TimeBeforeFullSpawn": "1",
				"TimeBetweenGroups": "0.2",
				"WaveStartMessage": "[WARNING_SPIDERRAIN]",
				"ZombieFallTime": "1.5"
			}
		}, {
			"aliases": [ "Wave3SpiderRainEvent0" ],
			"objclass": "SpiderRainZombieSpawnerProps",
			"objdata": {
				"ColumnEnd": "6",
				"ColumnStart": "3",
				"GroupSize": "2",
				"SpiderCount": "4",
				"SpiderZombieName": "future_imp",
				"TimeBeforeFullSpawn": "1",
				"TimeBetweenGroups": "0.2",
				"WaveStartMessage": "[WARNING_SPIDERRAIN]",
				"ZombieFallTime": "1.5"
			}
		}, {
			"aliases": [ "Wave4SpiderRainEvent0" ],
			"objclass": "SpiderRainZombieSpawnerProps",
			"objdata": {
				"ColumnEnd": "7",
				"ColumnStart": "4",
				"GroupSize": "2",
				"SpiderCount": "6",
				"SpiderZombieName": "future_imp",
				"TimeBeforeFullSpawn": "1",
				"TimeBetweenGroups": "0.2",
				"WaveStartMessage": "[WARNING_SPIDERRAIN]",
				"ZombieFallTime": "1.5"
			}
		}, {
			"aliases": [ "Wave5SpiderRainEvent0" ],
			"objclass": "SpiderRainZombieSpawnerProps",
			"objdata": {
				"ColumnEnd": "6",
				"ColumnStart": "3",
				"GroupSize": "2",
				"SpiderCount": "3",
				"SpiderZombieName": "future_imp",
				"TimeBeforeFullSpawn": "1",
				"TimeBetweenGroups": "0.2",
				"WaveStartMessage": "[WARNING_SPIDERRAIN]",
				"ZombieFallTime": "1.5"
			}
		}, {
			"aliases": [ "Wave6SpiderRainEvent0" ],
			"objclass": "SpiderRainZombieSpawnerProps",
			"objdata": {
				"ColumnEnd": "7",
				"ColumnStart": "4",
				"GroupSize": "2",
				"SpiderCount": "5",
				"SpiderZombieName": "future_imp",
				"TimeBeforeFullSpawn": "1",
				"TimeBetweenGroups": "0.2",
				"WaveStartMessage": "[WARNING_SPIDERRAIN]",
				"ZombieFallTime": "1.5"
			}
		}, {
			"aliases": [ "Wave7SpiderRainEvent0" ],
			"objclass": "SpiderRainZombieSpawnerProps",
			"objdata": {
				"ColumnEnd": "6",
				"ColumnStart": "3",
				"GroupSize": "2",
				"SpiderCount": "4",
				"SpiderZombieName": "future_imp",
				"TimeBeforeFullSpawn": "1",
				"TimeBetweenGroups": "0.2",
				"WaveStartMessage": "[WARNING_SPIDERRAIN]",
				"ZombieFallTime": "1.5"
			}
		}, {
			"aliases": [ "Wave8SpiderRainEvent0" ],
			"objclass": "SpiderRainZombieSpawnerProps",
			"objdata": {
				"ColumnEnd": "6",
				"ColumnStart": "3",
				"GroupSize": "2",
				"SpiderCount": "5",
				"SpiderZombieName": "future_imp",
				"TimeBeforeFullSpawn": "1",
				"TimeBetweenGroups": "0.2",
				"WaveStartMessage": "[WARNING_SPIDERRAIN]",
				"ZombieFallTime": "1.5"
			}
		}, {
			"aliases": [ "Wave9SpiderRainEvent0" ],
			"objclass": "SpiderRainZombieSpawnerProps",
			"objdata": {
				"ColumnEnd": "7",
				"ColumnStart": "4",
				"GroupSize": "2",
				"SpiderCount": "6",
				"SpiderZombieName": "future_imp",
				"TimeBeforeFullSpawn": "1",
				"TimeBetweenGroups": "0.2",
				"WaveStartMessage": "[WARNING_SPIDERRAIN]",
				"ZombieFallTime": "1.5"
			}
		}, {
			"aliases": [ "Wave10SpiderRainEvent0" ],
			"objclass": "SpiderRainZombieSpawnerProps",
			"objdata": {
				"ColumnEnd": "6",
				"ColumnStart": "3",
				"GroupSize": "2",
				"SpiderCount": "3",
				"SpiderZombieName": "future_imp",
				"TimeBeforeFullSpawn": "1",
				"TimeBetweenGroups": "0.2",
				"WaveStartMessage": "[WARNING_SPIDERRAIN]",
				"ZombieFallTime": "1.5"
			}
		} ],
	"version": 1
}