{
	"#comment": "Scoring Playtest - Right Gradient - No Quickstart",
	"objects": [ {
			"objclass": "LevelDefinition",
			"objdata": {
				"Description": "",
				"DisablePlantBoosts": true,
				"GridItemLevel": 1,
				"LevelNumber": 1,
				"LevelPowerupSet": "LevelPowerupsDisabled",
				"Loot": "RTID(NoLoot@LevelModules)",
				"LossModule": "RTID(JoustOutro@LevelModules)",
				"Modules": [ "RTID(FastSunDropper@LevelModules)", "RTID(ZombiesDeadWinCon@LevelModules)", "RTID(JoustDarkMowers@LevelModules)", "RTID(SeedBank@CurrentLevel)", "RTID(JoustZombieWinCondition@LevelModules)", "RTID(NewWaves@CurrentLevel)", "RTID(LevelScoring@CurrentLevel)", "RTID(ScoreTiles@CurrentLevel)", "RTID(ChallengeModule@CurrentLevel)", "RTID(LastStand@CurrentLevel)", "RTID(LevelDifficultyScaling@CurrentLevel)", "RTID(JoustModule@CurrentLevel)", "RTID(JoustPointOfLoss@LevelModules)", "RTID(ZombiePotions@CurrentLevel)", "RTID(ZombieResistances@CurrentLevel)" ],
				"Name": "",
				"NormalPresentTable": "dark_normal_01",
				"ShinyPresentTable": "dark_shiny_01",
				"StageModule": "RTID(JoustStage@LevelModules)",
				"SuppressAccountUpgrades": true,
				"SuppressDynamicTutorial": true,
				"SuppressPlantfoodPurchase": true,
				"VictoryModule": "RTID(JoustOutro@LevelModules)"
			}
		}, {
			"aliases": [ "SeedBank" ],
			"objclass": "SeedBankProperties",
			"objdata": {
				"PresetPlantList": [ {
						"Level": -1,
						"PlantType": "boingsetta"
					} ],
				"SelectionMethod": "chooser"
			}
		}, {
			"aliases": [ "ZombiePotions" ],
			"objclass": "ZombiePotionModuleProperties",
			"objdata": {
				"InitialPotionCount": 1,
				"MaxPotionCount": 1,
				"PotionSpawnTimer": {
					"Max": 3,
					"Min": 3
				},
				"PotionTypes": [ "zombiepotion_speed" ]
			}
		}, {
			"aliases": [ "ZombieResistances" ],
			"objclass": "ZombieResistancesModuleProperties",
			"objdata": {
				"FamilyResistances": {
					"global": [ {
							"#comment": "200% damage and condition",
							"ConditionResistance": 2,
							"DamageResistance": 2,
							"FamilyType": "wintermint"
						}, {
							"#comment": "200% damage and condition",
							"ConditionResistance": 2,
							"DamageResistance": 2,
							"FamilyType": "peppermint"
						} ]
				}
			}
		}, {
			"aliases": [ "JoustModule" ],
			"objclass": "JoustGameModuleProperties",
			"objdata": {
				"LeagueModifiers": [ {
						"AddTimeLimit": 0,
						"AddZombieLevel": 0,
						"LeagueThreshold": 1
					}, {
						"AddTimeLimit": 0,
						"AddZombieLevel": 1,
						"LeagueThreshold": 2
					}, {
						"AddTimeLimit": 0,
						"AddZombieLevel": 2,
						"LeagueThreshold": 3
					}, {
						"AddTimeLimit": 0,
						"AddZombieLevel": 3,
						"LeagueThreshold": 4
					}, {
						"AddTimeLimit": 0,
						"AddZombieLevel": 4,
						"LeagueThreshold": 5
					}, {
						"AddTimeLimit": 0,
						"AddZombieLevel": 5,
						"LeagueThreshold": 6
					}, {
						"AddTimeLimit": 0,
						"AddZombieLevel": 6,
						"LeagueThreshold": 7
					}, {
						"AddTimeLimit": 0,
						"AddZombieLevel": 7,
						"LeagueThreshold": 8
					}, {
						"AddTimeLimit": 0,
						"AddZombieLevel": 8,
						"LeagueThreshold": 9
					} ],
				"LevelLoadouts": {
					"Loadouts": [ [ {
								"IsImitater": false,
								"PlantLevel": 0,
								"PlantType": "aloe"
							}, {
								"IsImitater": false,
								"PlantLevel": 0,
								"PlantType": "sunshroom"
							}, {
								"IsImitater": false,
								"PlantLevel": 0,
								"PlantType": "gravebuster"
							}, {
								"IsImitater": false,
								"PlantLevel": 0,
								"PlantType": "spearmint"
							}, {
								"IsImitater": false,
								"PlantLevel": 0,
								"PlantType": "laser_bean"
							}, {
								"IsImitater": false,
								"PlantLevel": 0,
								"PlantType": "wintermelon"
							} ], [ {
								"IsImitater": false,
								"PlantLevel": 0,
								"PlantType": "aloe"
							}, {
								"IsImitater": false,
								"PlantLevel": 0,
								"PlantType": "primalsunflower"
							}, {
								"IsImitater": false,
								"PlantLevel": 0,
								"PlantType": "bowlingbulb"
							}, {
								"IsImitater": false,
								"PlantLevel": 0,
								"PlantType": "spearmint"
							}, {
								"IsImitater": false,
								"PlantLevel": 0,
								"PlantType": "sapfling"
							}, {
								"IsImitater": false,
								"PlantLevel": 0,
								"PlantType": "peppermint"
							} ], [ {
								"IsImitater": false,
								"PlantLevel": 0,
								"PlantType": "aloe"
							}, {
								"IsImitater": false,
								"PlantLevel": 0,
								"PlantType": "primalsunflower"
							}, {
								"IsImitater": false,
								"PlantLevel": 0,
								"PlantType": "wasabiwhip"
							}, {
								"IsImitater": false,
								"PlantLevel": 0,
								"PlantType": "hurrikale"
							}, {
								"IsImitater": false,
								"PlantLevel": 0,
								"PlantType": "powerlily"
							}, {
								"IsImitater": false,
								"PlantLevel": 0,
								"PlantType": "laser_bean"
							} ] ]
				},
				"PeriodOfWavesToLoop": 9,
				"SuggestedLoadout": "",
				"TimeLimit": 90,
				"WaveSetsToAppend": 20
			}
		}, {
			"aliases": [ "LevelDifficultyScaling" ],
			"objclass": "LevelDifficultyScalingModuleProperties",
			"objdata": {
				"DifficultyRulesType": "DifficultyTestHighDecay",
				"ZombieLevelSwaps": []
			}
		}, {
			"aliases": [ "ChallengeModule" ],
			"objclass": "StarChallengeModuleProperties",
			"objdata": {
				"Challenges": [ [ "RTID(BeatTheLevel@CurrentLevel)", "RTID(ReachTheScore@CurrentLevel)" ] ],
				"ChallengesAlwaysAvailable": true
			}
		}, {
			"aliases": [ "ReachTheScore" ],
			"objclass": "StarChallengeTargetScoreProps",
			"objdata": {
				"Description": "[STARCHALLENGE_TARGET_SCORE]",
				"DescriptionFailure": "[STARCHALLENGE_TARGET_SCORE_FAILURE]",
				"DescriptiveName": "[STARCHALLENGE_TARGET_SCORE_NAME]",
				"TargetScore": 1000
			}
		}, {
			"aliases": [ "BeatTheLevel" ],
			"objclass": "StarChallengeBeatTheLevelProps",
			"objdata": {
				"Description": "[STARCHALLENGE_LASTSTAND_MINIGAME]",
				"DescriptiveName": "[STARCHALLENGE_LASTSTAND_MINIGAME_NAME]"
			}
		}, {
			"aliases": [ "LastStand" ],
			"objclass": "LastStandMinigameProperties",
			"objdata": {
				"StartingPlantfood": 1,
				"StartingSun": 1000
			}
		}, {
			"aliases": [ "LevelScoring" ],
			"objclass": "LevelScoringModuleProperties",
			"objdata": {
				"PlantBonusMultiplier": 0.1,
				"PlantBonuses": [],
				"ScoringRulesType": "Battlez",
				"StartingPlantfood": 1
			}
		}, {
			"aliases": [ "ScoreTiles" ],
			"objclass": "InitialGridItemProperties",
			"objdata": {
				"InitialGridItemPlacements": [ {
						"GridX": 8,
						"GridY": 0,
						"TypeName": "score_5x_tile"
					}, {
						"GridX": 8,
						"GridY": 1,
						"TypeName": "score_5x_tile"
					}, {
						"GridX": 8,
						"GridY": 2,
						"TypeName": "score_5x_tile"
					}, {
						"GridX": 8,
						"GridY": 3,
						"TypeName": "score_5x_tile"
					}, {
						"GridX": 8,
						"GridY": 4,
						"TypeName": "score_5x_tile"
					}, {
						"GridX": 7,
						"GridY": 0,
						"TypeName": "score_5x_tile"
					}, {
						"GridX": 7,
						"GridY": 1,
						"TypeName": "score_5x_tile"
					}, {
						"GridX": 7,
						"GridY": 2,
						"TypeName": "score_5x_tile"
					}, {
						"GridX": 7,
						"GridY": 3,
						"TypeName": "score_5x_tile"
					}, {
						"GridX": 7,
						"GridY": 4,
						"TypeName": "score_5x_tile"
					}, {
						"GridX": 6,
						"GridY": 0,
						"TypeName": "score_3x_tile"
					}, {
						"GridX": 6,
						"GridY": 1,
						"TypeName": "score_3x_tile"
					}, {
						"GridX": 6,
						"GridY": 2,
						"TypeName": "score_3x_tile"
					}, {
						"GridX": 6,
						"GridY": 3,
						"TypeName": "score_3x_tile"
					}, {
						"GridX": 6,
						"GridY": 4,
						"TypeName": "score_3x_tile"
					}, {
						"GridX": 5,
						"GridY": 0,
						"TypeName": "score_3x_tile"
					}, {
						"GridX": 5,
						"GridY": 1,
						"TypeName": "score_3x_tile"
					}, {
						"GridX": 5,
						"GridY": 2,
						"TypeName": "score_3x_tile"
					}, {
						"GridX": 5,
						"GridY": 3,
						"TypeName": "score_3x_tile"
					}, {
						"GridX": 5,
						"GridY": 4,
						"TypeName": "score_3x_tile"
					}, {
						"GridX": 4,
						"GridY": 0,
						"TypeName": "score_2x_tile"
					}, {
						"GridX": 4,
						"GridY": 1,
						"TypeName": "score_2x_tile"
					}, {
						"GridX": 4,
						"GridY": 2,
						"TypeName": "score_2x_tile"
					}, {
						"GridX": 4,
						"GridY": 3,
						"TypeName": "score_2x_tile"
					}, {
						"GridX": 4,
						"GridY": 4,
						"TypeName": "score_2x_tile"
					}, {
						"GridX": 3,
						"GridY": 0,
						"TypeName": "score_2x_tile"
					}, {
						"GridX": 3,
						"GridY": 1,
						"TypeName": "score_2x_tile"
					}, {
						"GridX": 3,
						"GridY": 2,
						"TypeName": "score_2x_tile"
					}, {
						"GridX": 3,
						"GridY": 3,
						"TypeName": "score_2x_tile"
					}, {
						"GridX": 3,
						"GridY": 4,
						"TypeName": "score_2x_tile"
					} ]
			}
		}, {
			"aliases": [ "NewWaves" ],
			"objclass": "WaveManagerModuleProperties",
			"objdata": {
				"DynamicZombies": [ {
						"PointIncrementPerWave": -1,
						"StartingPoints": -1,
						"StartingWave": 1,
						"ZombiePool": [ "RTID(beach_fem_armor2@ZombieTypes)", "RTID(cowboy@ZombieTypes)", "RTID(cowboy_armor4@ZombieTypes)", "RTID(iceage_armor3@ZombieTypes)", "RTID(lostcity_bug@ZombieTypes)", "RTID(piano@ZombieTypes)", "RTID(dino_imp@ZombieTypes)" ]
					}, {
						"PointIncrementPerWave": -1,
						"StartingPoints": -1,
						"StartingWave": 1,
						"ZombiePool": [ "RTID(beach_fem_armor2@ZombieTypes)", "RTID(cowboy@ZombieTypes)", "RTID(cowboy_armor4@ZombieTypes)", "RTID(iceage_armor3@ZombieTypes)", "RTID(lostcity_bug@ZombieTypes)", "RTID(piano@ZombieTypes)", "RTID(dino_imp@ZombieTypes)" ]
					}, {
						"PointIncrementPerWave": -1,
						"StartingPoints": -1,
						"StartingWave": 1,
						"ZombiePool": [ "RTID(beach_fem_armor2@ZombieTypes)", "RTID(cowboy@ZombieTypes)", "RTID(cowboy_armor4@ZombieTypes)", "RTID(iceage_armor3@ZombieTypes)", "RTID(lostcity_bug@ZombieTypes)", "RTID(piano@ZombieTypes)", "RTID(dino_imp@ZombieTypes)" ]
					}, {
						"MaxPoints": 3000,
						"PointIncrementPerWave": 225,
						"StartingPoints": 1200,
						"StartingWave": 0,
						"ZombiePool": [ "RTID(beach_fem_armor2@ZombieTypes)", "RTID(iceage_armor3@ZombieTypes)", "RTID(lostcity_bug@ZombieTypes)", "RTID(tomb_raiser@ZombieTypes)", "RTID(tomb_raiser@ZombieTypes)", "RTID(tomb_raiser@ZombieTypes)", "RTID(dino_imp@ZombieTypes)" ]
					}, {
						"PointIncrementPerWave": 1,
						"StartingPoints": 1,
						"StartingWave": 1,
						"ZombiePool": [ "RTID(beach_fem_armor2@ZombieTypes)", "RTID(cowboy@ZombieTypes)", "RTID(cowboy_armor4@ZombieTypes)", "RTID(iceage_armor3@ZombieTypes)", "RTID(lostcity_bug@ZombieTypes)", "RTID(piano@ZombieTypes)", "RTID(dino_imp@ZombieTypes)" ]
					}, {
						"PointIncrementPerWave": 1,
						"StartingPoints": 1,
						"StartingWave": 1,
						"ZombiePool": [ "RTID(beach_fem_armor2@ZombieTypes)", "RTID(cowboy@ZombieTypes)", "RTID(cowboy_armor4@ZombieTypes)", "RTID(iceage_armor3@ZombieTypes)", "RTID(lostcity_bug@ZombieTypes)", "RTID(piano@ZombieTypes)", "RTID(dino_imp@ZombieTypes)" ]
					}, {
						"PointIncrementPerWave": 1,
						"StartingPoints": 1,
						"StartingWave": 1,
						"ZombiePool": [ "RTID(beach_fem_armor2@ZombieTypes)", "RTID(cowboy@ZombieTypes)", "RTID(cowboy_armor4@ZombieTypes)", "RTID(iceage_armor3@ZombieTypes)", "RTID(lostcity_bug@ZombieTypes)", "RTID(piano@ZombieTypes)", "RTID(dino_imp@ZombieTypes)" ]
					} ],
				"WaveManagerProps": "RTID(WaveManagerProps@CurrentLevel)"
			}
		}, {
			"aliases": [ "WaveManagerProps" ],
			"objclass": "WaveManagerProperties",
			"objdata": {
				"FlagWaveInterval": 100,
				"WaveCount": 100,
				"WaveSpendingPointIncrement": 150,
				"WaveSpendingPoints": 0,
				"Waves": [ [ "RTID(Wave1@CurrentLevel)", "RTID(Wave1GravestoneEvent0@CurrentLevel)" ], [ "RTID(Wave2@CurrentLevel)", "RTID(Wave2GravestoneEvent0@CurrentLevel)", "RTID(Wave2GraveSpawnEvent0@CurrentLevel)" ], [ "RTID(Wave3@CurrentLevel)", "RTID(Wave3SpiderRainEvent0@CurrentLevel)", "RTID(Wave3GravestoneEvent0@CurrentLevel)", "RTID(Wave3GravestoneEvent1@CurrentLevel)", "RTID(Wave3GraveSpawnEvent0@CurrentLevel)" ], [ "RTID(Wave4@CurrentLevel)", "RTID(Wave4GravestoneEvent0@CurrentLevel)", "RTID(Wave4GravestoneEvent1@CurrentLevel)", "RTID(Wave4GraveSpawnEvent0@CurrentLevel)" ], [ "RTID(Wave5@CurrentLevel)", "RTID(Wave5SpiderRainEvent0@CurrentLevel)", "RTID(Wave5GravestoneEvent0@CurrentLevel)", "RTID(Wave5GravestoneEvent1@CurrentLevel)", "RTID(Wave5GraveSpawnEvent0@CurrentLevel)" ], [ "RTID(Wave6@CurrentLevel)", "RTID(Wave6GravestoneEvent0@CurrentLevel)", "RTID(Wave6GravestoneEvent1@CurrentLevel)", "RTID(Wave6GraveSpawnEvent0@CurrentLevel)" ], [ "RTID(Wave7@CurrentLevel)", "RTID(Wave7SpiderRainEvent0@CurrentLevel)", "RTID(Wave7GravestoneEvent0@CurrentLevel)", "RTID(Wave7GravestoneEvent1@CurrentLevel)", "RTID(Wave7GraveSpawnEvent0@CurrentLevel)" ], [ "RTID(Wave8@CurrentLevel)", "RTID(Wave8GravestoneEvent0@CurrentLevel)", "RTID(Wave8GravestoneEvent1@CurrentLevel)", "RTID(Wave8GraveSpawnEvent0@CurrentLevel)" ], [ "RTID(Wave9@CurrentLevel)", "RTID(Wave9SpiderRainEvent0@CurrentLevel)", "RTID(Wave9GravestoneEvent0@CurrentLevel)", "RTID(Wave9GravestoneEvent1@CurrentLevel)", "RTID(Wave9GraveSpawnEvent0@CurrentLevel)" ], [ "RTID(Wave10@CurrentLevel)", "RTID(Wave10GravestoneEvent0@CurrentLevel)", "RTID(Wave10GravestoneEvent1@CurrentLevel)", "RTID(Wave10GraveSpawnEvent0@CurrentLevel)" ] ],
				"WavesAlwaysRandomized": true
			}
		}, {
			"aliases": [ "Wave1" ],
			"objclass": "SpawnZombiesJitteredWaveActionProps",
			"objdata": {}
		}, {
			"aliases": [ "Wave2" ],
			"objclass": "SpawnZombiesJitteredWaveActionProps",
			"objdata": {
				"Zombies": []
			}
		}, {
			"aliases": [ "Wave3" ],
			"objclass": "SpawnZombiesJitteredWaveActionProps",
			"objdata": {
				"AdditionalPlantfood": 0,
				"Zombies": []
			}
		}, {
			"aliases": [ "Wave4" ],
			"objclass": "SpawnZombiesJitteredWaveActionProps",
			"objdata": {
				"Zombies": []
			}
		}, {
			"aliases": [ "Wave5" ],
			"objclass": "SpawnZombiesJitteredWaveActionProps",
			"objdata": {
				"Zombies": []
			}
		}, {
			"aliases": [ "Wave6" ],
			"objclass": "SpawnZombiesJitteredWaveActionProps",
			"objdata": {
				"Zombies": []
			}
		}, {
			"aliases": [ "Wave7" ],
			"objclass": "SpawnZombiesJitteredWaveActionProps",
			"objdata": {
				"AdditionalPlantfood": 0,
				"Zombies": []
			}
		}, {
			"aliases": [ "Wave8" ],
			"objclass": "SpawnZombiesJitteredWaveActionProps",
			"objdata": {
				"Zombies": []
			}
		}, {
			"aliases": [ "Wave9" ],
			"objclass": "SpawnZombiesJitteredWaveActionProps",
			"objdata": {
				"Zombies": []
			}
		}, {
			"aliases": [ "Wave10" ],
			"objclass": "SpawnZombiesJitteredWaveActionProps",
			"objdata": {
				"Zombies": []
			}
		}, {
			"aliases": [ "Wave1GravestoneEvent0" ],
			"objclass": "SpawnGravestonesWaveActionProps",
			"objdata": {
				"GravestonePool": [ {
						"Count": 0,
						"Type": "RTID(gravestone_dark@GridItemTypes)"
					}, {
						"Count": 1,
						"Type": "RTID(gravestoneSunOnDestruction@GridItemTypes)"
					}, {
						"Count": 0,
						"Type": "RTID(gravestonePlantfoodOnDestruction@GridItemTypes)"
					} ],
				"SpawnEffectAnimID": "POPANIM_EFFECTS_TOMBSTONE_DARK_SPAWN_EFFECT",
				"SpawnPositionsPool": [ {
						"mX": 5,
						"mY": 0
					}, {
						"mX": 5,
						"mY": 1
					}, {
						"mX": 5,
						"mY": 2
					}, {
						"mX": 5,
						"mY": 3
					}, {
						"mX": 5,
						"mY": 4
					}, {
						"mX": 6,
						"mY": 0
					}, {
						"mX": 6,
						"mY": 1
					}, {
						"mX": 6,
						"mY": 2
					}, {
						"mX": 6,
						"mY": 3
					}, {
						"mX": 6,
						"mY": 4
					}, {
						"mX": 7,
						"mY": 0
					}, {
						"mX": 7,
						"mY": 1
					}, {
						"mX": 7,
						"mY": 2
					}, {
						"mX": 7,
						"mY": 3
					}, {
						"mX": 7,
						"mY": 4
					}, {
						"mX": 8,
						"mY": 0
					}, {
						"mX": 8,
						"mY": 1
					}, {
						"mX": 8,
						"mY": 2
					}, {
						"mX": 8,
						"mY": 3
					}, {
						"mX": 8,
						"mY": 4
					} ],
				"SpawnSoundID": "Play_Zomb_Egypt_TombRaiser_Grave_Rise"
			}
		}, {
			"aliases": [ "Wave2GravestoneEvent0" ],
			"objclass": "SpawnGravestonesWaveActionProps",
			"objdata": {
				"GravestonePool": [ {
						"Count": 0,
						"Type": "RTID(gravestone_dark@GridItemTypes)"
					}, {
						"Count": 1,
						"Type": "RTID(gravestoneSunOnDestruction@GridItemTypes)"
					}, {
						"Count": 0,
						"Type": "RTID(gravestonePlantfoodOnDestruction@GridItemTypes)"
					} ],
				"SpawnEffectAnimID": "POPANIM_EFFECTS_TOMBSTONE_DARK_SPAWN_EFFECT",
				"SpawnPositionsPool": [ {
						"mX": 4,
						"mY": 0
					}, {
						"mX": 4,
						"mY": 1
					}, {
						"mX": 4,
						"mY": 2
					}, {
						"mX": 4,
						"mY": 3
					}, {
						"mX": 4,
						"mY": 4
					}, {
						"mX": 5,
						"mY": 0
					}, {
						"mX": 5,
						"mY": 1
					}, {
						"mX": 5,
						"mY": 2
					}, {
						"mX": 5,
						"mY": 3
					}, {
						"mX": 5,
						"mY": 4
					}, {
						"mX": 6,
						"mY": 0
					}, {
						"mX": 6,
						"mY": 1
					}, {
						"mX": 6,
						"mY": 2
					}, {
						"mX": 6,
						"mY": 3
					}, {
						"mX": 6,
						"mY": 4
					}, {
						"mX": 7,
						"mY": 0
					}, {
						"mX": 7,
						"mY": 1
					}, {
						"mX": 7,
						"mY": 2
					}, {
						"mX": 7,
						"mY": 3
					}, {
						"mX": 7,
						"mY": 4
					} ],
				"SpawnSoundID": "Play_Zomb_Egypt_TombRaiser_Grave_Rise"
			}
		}, {
			"aliases": [ "Wave3GravestoneEvent0" ],
			"objclass": "SpawnGravestonesWaveActionProps",
			"objdata": {
				"GravestonePool": [ {
						"Count": 0,
						"Type": "RTID(gravestone_dark@GridItemTypes)"
					}, {
						"Count": 1,
						"Type": "RTID(gravestoneSunOnDestruction@GridItemTypes)"
					}, {
						"Count": 0,
						"Type": "RTID(gravestonePlantfoodOnDestruction@GridItemTypes)"
					} ],
				"SpawnEffectAnimID": "POPANIM_EFFECTS_TOMBSTONE_DARK_SPAWN_EFFECT",
				"SpawnPositionsPool": [ {
						"mX": 4,
						"mY": 0
					}, {
						"mX": 4,
						"mY": 1
					}, {
						"mX": 4,
						"mY": 2
					}, {
						"mX": 4,
						"mY": 3
					}, {
						"mX": 4,
						"mY": 4
					}, {
						"mX": 5,
						"mY": 0
					}, {
						"mX": 5,
						"mY": 1
					}, {
						"mX": 5,
						"mY": 2
					}, {
						"mX": 5,
						"mY": 3
					}, {
						"mX": 5,
						"mY": 4
					}, {
						"mX": 6,
						"mY": 0
					}, {
						"mX": 6,
						"mY": 1
					}, {
						"mX": 6,
						"mY": 2
					}, {
						"mX": 6,
						"mY": 3
					}, {
						"mX": 6,
						"mY": 4
					}, {
						"mX": 7,
						"mY": 0
					}, {
						"mX": 7,
						"mY": 1
					}, {
						"mX": 7,
						"mY": 2
					}, {
						"mX": 7,
						"mY": 3
					}, {
						"mX": 7,
						"mY": 4
					}, {
						"mX": 8,
						"mY": 0
					}, {
						"mX": 8,
						"mY": 1
					}, {
						"mX": 8,
						"mY": 2
					}, {
						"mX": 8,
						"mY": 3
					}, {
						"mX": 8,
						"mY": 4
					} ],
				"SpawnSoundID": "Play_Zomb_Egypt_TombRaiser_Grave_Rise"
			}
		}, {
			"aliases": [ "Wave4GravestoneEvent0" ],
			"objclass": "SpawnGravestonesWaveActionProps",
			"objdata": {
				"GravestonePool": [ {
						"Count": 0,
						"Type": "RTID(gravestone_dark@GridItemTypes)"
					}, {
						"Count": 1,
						"Type": "RTID(gravestoneSunOnDestruction@GridItemTypes)"
					}, {
						"Count": 0,
						"Type": "RTID(gravestonePlantfoodOnDestruction@GridItemTypes)"
					} ],
				"RTID(gravestonePlantfoodOnDestruction@GridItemTypes)": 0,
				"RTID(gravestoneSunOnDestruction@GridItemTypes)": 1,
				"RTID(gravestone_dark@GridItemTypes)": 0,
				"SpawnEffectAnimID": "POPANIM_EFFECTS_TOMBSTONE_DARK_SPAWN_EFFECT",
				"SpawnPositionsPool": [ {
						"mX": 3,
						"mY": 0
					}, {
						"mX": 3,
						"mY": 1
					}, {
						"mX": 3,
						"mY": 2
					}, {
						"mX": 3,
						"mY": 3
					}, {
						"mX": 3,
						"mY": 4
					}, {
						"mX": 4,
						"mY": 0
					}, {
						"mX": 4,
						"mY": 1
					}, {
						"mX": 4,
						"mY": 2
					}, {
						"mX": 4,
						"mY": 3
					}, {
						"mX": 4,
						"mY": 4
					}, {
						"mX": 5,
						"mY": 0
					}, {
						"mX": 5,
						"mY": 1
					}, {
						"mX": 5,
						"mY": 2
					}, {
						"mX": 5,
						"mY": 3
					}, {
						"mX": 5,
						"mY": 4
					}, {
						"mX": 6,
						"mY": 0
					}, {
						"mX": 6,
						"mY": 1
					}, {
						"mX": 6,
						"mY": 2
					}, {
						"mX": 6,
						"mY": 3
					}, {
						"mX": 6,
						"mY": 4
					}, {
						"mX": 7,
						"mY": 0
					}, {
						"mX": 7,
						"mY": 1
					}, {
						"mX": 7,
						"mY": 2
					}, {
						"mX": 7,
						"mY": 3
					}, {
						"mX": 7,
						"mY": 4
					}, {
						"mX": 8,
						"mY": 0
					}, {
						"mX": 8,
						"mY": 1
					}, {
						"mX": 8,
						"mY": 2
					}, {
						"mX": 8,
						"mY": 3
					}, {
						"mX": 8,
						"mY": 4
					} ],
				"SpawnSoundID": "Play_Zomb_Egypt_TombRaiser_Grave_Rise",
				"maxX": 8,
				"minX": 3
			}
		}, {
			"aliases": [ "Wave5GravestoneEvent0" ],
			"objclass": "SpawnGravestonesWaveActionProps",
			"objdata": {
				"GravestonePool": [ {
						"Count": 0,
						"Type": "RTID(gravestone_dark@GridItemTypes)"
					}, {
						"Count": 1,
						"Type": "RTID(gravestoneSunOnDestruction@GridItemTypes)"
					}, {
						"Count": 0,
						"Type": "RTID(gravestonePlantfoodOnDestruction@GridItemTypes)"
					} ],
				"SpawnEffectAnimID": "POPANIM_EFFECTS_TOMBSTONE_DARK_SPAWN_EFFECT",
				"SpawnPositionsPool": [ {
						"mX": 3,
						"mY": 0
					}, {
						"mX": 3,
						"mY": 1
					}, {
						"mX": 3,
						"mY": 2
					}, {
						"mX": 3,
						"mY": 3
					}, {
						"mX": 3,
						"mY": 4
					}, {
						"mX": 4,
						"mY": 0
					}, {
						"mX": 4,
						"mY": 1
					}, {
						"mX": 4,
						"mY": 2
					}, {
						"mX": 4,
						"mY": 3
					}, {
						"mX": 4,
						"mY": 4
					}, {
						"mX": 5,
						"mY": 0
					}, {
						"mX": 5,
						"mY": 1
					}, {
						"mX": 5,
						"mY": 2
					}, {
						"mX": 5,
						"mY": 3
					}, {
						"mX": 5,
						"mY": 4
					}, {
						"mX": 6,
						"mY": 0
					}, {
						"mX": 6,
						"mY": 1
					}, {
						"mX": 6,
						"mY": 2
					}, {
						"mX": 6,
						"mY": 3
					}, {
						"mX": 6,
						"mY": 4
					}, {
						"mX": 7,
						"mY": 0
					}, {
						"mX": 7,
						"mY": 1
					}, {
						"mX": 7,
						"mY": 2
					}, {
						"mX": 7,
						"mY": 3
					}, {
						"mX": 7,
						"mY": 4
					}, {
						"mX": 8,
						"mY": 0
					}, {
						"mX": 8,
						"mY": 1
					}, {
						"mX": 8,
						"mY": 2
					}, {
						"mX": 8,
						"mY": 3
					}, {
						"mX": 8,
						"mY": 4
					} ],
				"SpawnSoundID": "Play_Zomb_Egypt_TombRaiser_Grave_Rise"
			}
		}, {
			"aliases": [ "Wave6GravestoneEvent0" ],
			"objclass": "SpawnGravestonesWaveActionProps",
			"objdata": {
				"GravestonePool": [ {
						"Count": 0,
						"Type": "RTID(gravestone_dark@GridItemTypes)"
					}, {
						"Count": 1,
						"Type": "RTID(gravestoneSunOnDestruction@GridItemTypes)"
					}, {
						"Count": 0,
						"Type": "RTID(gravestonePlantfoodOnDestruction@GridItemTypes)"
					} ],
				"RTID(gravestonePlantfoodOnDestruction@GridItemTypes)": 0,
				"RTID(gravestoneSunOnDestruction@GridItemTypes)": 1,
				"RTID(gravestone_dark@GridItemTypes)": 0,
				"SpawnEffectAnimID": "POPANIM_EFFECTS_TOMBSTONE_DARK_SPAWN_EFFECT",
				"SpawnPositionsPool": [ {
						"mX": 3,
						"mY": 0
					}, {
						"mX": 3,
						"mY": 1
					}, {
						"mX": 3,
						"mY": 2
					}, {
						"mX": 3,
						"mY": 3
					}, {
						"mX": 3,
						"mY": 4
					}, {
						"mX": 4,
						"mY": 0
					}, {
						"mX": 4,
						"mY": 1
					}, {
						"mX": 4,
						"mY": 2
					}, {
						"mX": 4,
						"mY": 3
					}, {
						"mX": 4,
						"mY": 4
					}, {
						"mX": 5,
						"mY": 0
					}, {
						"mX": 5,
						"mY": 1
					}, {
						"mX": 5,
						"mY": 2
					}, {
						"mX": 5,
						"mY": 3
					}, {
						"mX": 5,
						"mY": 4
					}, {
						"mX": 6,
						"mY": 0
					}, {
						"mX": 6,
						"mY": 1
					}, {
						"mX": 6,
						"mY": 2
					}, {
						"mX": 6,
						"mY": 3
					}, {
						"mX": 6,
						"mY": 4
					}, {
						"mX": 7,
						"mY": 0
					}, {
						"mX": 7,
						"mY": 1
					}, {
						"mX": 7,
						"mY": 2
					}, {
						"mX": 7,
						"mY": 3
					}, {
						"mX": 7,
						"mY": 4
					}, {
						"mX": 8,
						"mY": 0
					}, {
						"mX": 8,
						"mY": 1
					}, {
						"mX": 8,
						"mY": 2
					}, {
						"mX": 8,
						"mY": 3
					}, {
						"mX": 8,
						"mY": 4
					} ],
				"SpawnSoundID": "Play_Zomb_Egypt_TombRaiser_Grave_Rise",
				"maxX": 8,
				"minX": 3
			}
		}, {
			"aliases": [ "Wave7GravestoneEvent0" ],
			"objclass": "SpawnGravestonesWaveActionProps",
			"objdata": {
				"GravestonePool": [ {
						"Count": 0,
						"Type": "RTID(gravestone_dark@GridItemTypes)"
					}, {
						"Count": 1,
						"Type": "RTID(gravestoneSunOnDestruction@GridItemTypes)"
					}, {
						"Count": 0,
						"Type": "RTID(gravestonePlantfoodOnDestruction@GridItemTypes)"
					} ],
				"SpawnEffectAnimID": "POPANIM_EFFECTS_TOMBSTONE_DARK_SPAWN_EFFECT",
				"SpawnPositionsPool": [ {
						"mX": 3,
						"mY": 0
					}, {
						"mX": 3,
						"mY": 1
					}, {
						"mX": 3,
						"mY": 2
					}, {
						"mX": 3,
						"mY": 3
					}, {
						"mX": 3,
						"mY": 4
					}, {
						"mX": 4,
						"mY": 0
					}, {
						"mX": 4,
						"mY": 1
					}, {
						"mX": 4,
						"mY": 2
					}, {
						"mX": 4,
						"mY": 3
					}, {
						"mX": 4,
						"mY": 4
					}, {
						"mX": 5,
						"mY": 0
					}, {
						"mX": 5,
						"mY": 1
					}, {
						"mX": 5,
						"mY": 2
					}, {
						"mX": 5,
						"mY": 3
					}, {
						"mX": 5,
						"mY": 4
					}, {
						"mX": 6,
						"mY": 0
					}, {
						"mX": 6,
						"mY": 1
					}, {
						"mX": 6,
						"mY": 2
					}, {
						"mX": 6,
						"mY": 3
					}, {
						"mX": 6,
						"mY": 4
					}, {
						"mX": 7,
						"mY": 0
					}, {
						"mX": 7,
						"mY": 1
					}, {
						"mX": 7,
						"mY": 2
					}, {
						"mX": 7,
						"mY": 3
					}, {
						"mX": 7,
						"mY": 4
					}, {
						"mX": 8,
						"mY": 0
					}, {
						"mX": 8,
						"mY": 1
					}, {
						"mX": 8,
						"mY": 2
					}, {
						"mX": 8,
						"mY": 3
					}, {
						"mX": 8,
						"mY": 4
					} ],
				"SpawnSoundID": "Play_Zomb_Egypt_TombRaiser_Grave_Rise"
			}
		}, {
			"aliases": [ "Wave8GravestoneEvent0" ],
			"objclass": "SpawnGravestonesWaveActionProps",
			"objdata": {
				"GravestonePool": [ {
						"Count": 0,
						"Type": "RTID(gravestone_dark@GridItemTypes)"
					}, {
						"Count": 1,
						"Type": "RTID(gravestoneSunOnDestruction@GridItemTypes)"
					}, {
						"Count": 0,
						"Type": "RTID(gravestonePlantfoodOnDestruction@GridItemTypes)"
					} ],
				"SpawnEffectAnimID": "POPANIM_EFFECTS_TOMBSTONE_DARK_SPAWN_EFFECT",
				"SpawnPositionsPool": [ {
						"mX": 3,
						"mY": 0
					}, {
						"mX": 3,
						"mY": 1
					}, {
						"mX": 3,
						"mY": 2
					}, {
						"mX": 3,
						"mY": 3
					}, {
						"mX": 3,
						"mY": 4
					}, {
						"mX": 4,
						"mY": 0
					}, {
						"mX": 4,
						"mY": 1
					}, {
						"mX": 4,
						"mY": 2
					}, {
						"mX": 4,
						"mY": 3
					}, {
						"mX": 4,
						"mY": 4
					}, {
						"mX": 5,
						"mY": 0
					}, {
						"mX": 5,
						"mY": 1
					}, {
						"mX": 5,
						"mY": 2
					}, {
						"mX": 5,
						"mY": 3
					}, {
						"mX": 5,
						"mY": 4
					}, {
						"mX": 6,
						"mY": 0
					}, {
						"mX": 6,
						"mY": 1
					}, {
						"mX": 6,
						"mY": 2
					}, {
						"mX": 6,
						"mY": 3
					}, {
						"mX": 6,
						"mY": 4
					}, {
						"mX": 7,
						"mY": 0
					}, {
						"mX": 7,
						"mY": 1
					}, {
						"mX": 7,
						"mY": 2
					}, {
						"mX": 7,
						"mY": 3
					}, {
						"mX": 7,
						"mY": 4
					}, {
						"mX": 8,
						"mY": 0
					}, {
						"mX": 8,
						"mY": 1
					}, {
						"mX": 8,
						"mY": 2
					}, {
						"mX": 8,
						"mY": 3
					}, {
						"mX": 8,
						"mY": 4
					} ],
				"SpawnSoundID": "Play_Zomb_Egypt_TombRaiser_Grave_Rise"
			}
		}, {
			"aliases": [ "Wave9GravestoneEvent0" ],
			"objclass": "SpawnGravestonesWaveActionProps",
			"objdata": {
				"GravestonePool": [ {
						"Count": 0,
						"Type": "RTID(gravestone_dark@GridItemTypes)"
					}, {
						"Count": 1,
						"Type": "RTID(gravestoneSunOnDestruction@GridItemTypes)"
					}, {
						"Count": 0,
						"Type": "RTID(gravestonePlantfoodOnDestruction@GridItemTypes)"
					} ],
				"SpawnEffectAnimID": "POPANIM_EFFECTS_TOMBSTONE_DARK_SPAWN_EFFECT",
				"SpawnPositionsPool": [ {
						"mX": 3,
						"mY": 0
					}, {
						"mX": 3,
						"mY": 1
					}, {
						"mX": 3,
						"mY": 2
					}, {
						"mX": 3,
						"mY": 3
					}, {
						"mX": 3,
						"mY": 4
					}, {
						"mX": 4,
						"mY": 0
					}, {
						"mX": 4,
						"mY": 1
					}, {
						"mX": 4,
						"mY": 2
					}, {
						"mX": 4,
						"mY": 3
					}, {
						"mX": 4,
						"mY": 4
					}, {
						"mX": 5,
						"mY": 0
					}, {
						"mX": 5,
						"mY": 1
					}, {
						"mX": 5,
						"mY": 2
					}, {
						"mX": 5,
						"mY": 3
					}, {
						"mX": 5,
						"mY": 4
					}, {
						"mX": 6,
						"mY": 0
					}, {
						"mX": 6,
						"mY": 1
					}, {
						"mX": 6,
						"mY": 2
					}, {
						"mX": 6,
						"mY": 3
					}, {
						"mX": 6,
						"mY": 4
					}, {
						"mX": 7,
						"mY": 0
					}, {
						"mX": 7,
						"mY": 1
					}, {
						"mX": 7,
						"mY": 2
					}, {
						"mX": 7,
						"mY": 3
					}, {
						"mX": 7,
						"mY": 4
					}, {
						"mX": 8,
						"mY": 0
					}, {
						"mX": 8,
						"mY": 1
					}, {
						"mX": 8,
						"mY": 2
					}, {
						"mX": 8,
						"mY": 3
					}, {
						"mX": 8,
						"mY": 4
					} ],
				"SpawnSoundID": "Play_Zomb_Egypt_TombRaiser_Grave_Rise"
			}
		}, {
			"aliases": [ "Wave10GravestoneEvent0" ],
			"objclass": "SpawnGravestonesWaveActionProps",
			"objdata": {
				"GravestonePool": [ {
						"Count": 0,
						"Type": "RTID(gravestone_dark@GridItemTypes)"
					}, {
						"Count": 1,
						"Type": "RTID(gravestoneSunOnDestruction@GridItemTypes)"
					}, {
						"Count": 0,
						"Type": "RTID(gravestonePlantfoodOnDestruction@GridItemTypes)"
					} ],
				"SpawnEffectAnimID": "POPANIM_EFFECTS_TOMBSTONE_DARK_SPAWN_EFFECT",
				"SpawnPositionsPool": [ {
						"mX": 3,
						"mY": 0
					}, {
						"mX": 3,
						"mY": 1
					}, {
						"mX": 3,
						"mY": 2
					}, {
						"mX": 3,
						"mY": 3
					}, {
						"mX": 3,
						"mY": 4
					}, {
						"mX": 4,
						"mY": 0
					}, {
						"mX": 4,
						"mY": 1
					}, {
						"mX": 4,
						"mY": 2
					}, {
						"mX": 4,
						"mY": 3
					}, {
						"mX": 4,
						"mY": 4
					}, {
						"mX": 5,
						"mY": 0
					}, {
						"mX": 5,
						"mY": 1
					}, {
						"mX": 5,
						"mY": 2
					}, {
						"mX": 5,
						"mY": 3
					}, {
						"mX": 5,
						"mY": 4
					}, {
						"mX": 6,
						"mY": 0
					}, {
						"mX": 6,
						"mY": 1
					}, {
						"mX": 6,
						"mY": 2
					}, {
						"mX": 6,
						"mY": 3
					}, {
						"mX": 6,
						"mY": 4
					}, {
						"mX": 7,
						"mY": 0
					}, {
						"mX": 7,
						"mY": 1
					}, {
						"mX": 7,
						"mY": 2
					}, {
						"mX": 7,
						"mY": 3
					}, {
						"mX": 7,
						"mY": 4
					}, {
						"mX": 8,
						"mY": 0
					}, {
						"mX": 8,
						"mY": 1
					}, {
						"mX": 8,
						"mY": 2
					}, {
						"mX": 8,
						"mY": 3
					}, {
						"mX": 8,
						"mY": 4
					} ],
				"SpawnSoundID": "Play_Zomb_Egypt_TombRaiser_Grave_Rise"
			}
		}, {
			"aliases": [ "Wave2GraveSpawnEvent0" ],
			"objclass": "SpawnZombiesFromGridItemSpawnerProps",
			"objdata": {
				"AdditionalPlantfood": 0,
				"GridTypes": [ "RTID(gravestone_dark@GridItemTypes)", "RTID(gravestoneSunOnDestruction@GridItemTypes)", "RTID(gravestonePlantfoodOnDestruction@GridItemTypes)" ],
				"WaveStartMessage": "[WARNING_GRAVESTONE_SPAWN]",
				"ZombieSpawnWaitTime": "1",
				"Zombies": [ {
						"Type": "RTID(beach_surfer@ZombieTypes)"
					} ]
			}
		}, {
			"aliases": [ "Wave3GraveSpawnEvent0" ],
			"objclass": "SpawnZombiesFromGridItemSpawnerProps",
			"objdata": {
				"AdditionalPlantfood": "0",
				"GridTypes": [ "RTID(gravestone_dark@GridItemTypes)", "RTID(gravestoneSunOnDestruction@GridItemTypes)", "RTID(gravestonePlantfoodOnDestruction@GridItemTypes)" ],
				"WaveStartMessage": "[WARNING_GRAVESTONE_SPAWN]",
				"ZombieSpawnWaitTime": "1",
				"Zombies": [ {
						"Type": "RTID(eighties_punk@ZombieTypes)"
					}, {
						"Type": "RTID(eighties_punk@ZombieTypes)"
					} ]
			}
		}, {
			"aliases": [ "Wave4GraveSpawnEvent0" ],
			"objclass": "SpawnZombiesFromGridItemSpawnerProps",
			"objdata": {
				"AdditionalPlantfood": "0",
				"GridTypes": [ "RTID(gravestone_dark@GridItemTypes)", "RTID(gravestoneSunOnDestruction@GridItemTypes)", "RTID(gravestonePlantfoodOnDestruction@GridItemTypes)" ],
				"WaveStartMessage": "[WARNING_GRAVESTONE_SPAWN]",
				"ZombieSpawnWaitTime": "1",
				"Zombies": [ {
						"Type": "RTID(beach_surfer@ZombieTypes)"
					}, {
						"Type": "RTID(eighties_punk@ZombieTypes)"
					} ]
			}
		}, {
			"aliases": [ "Wave5GraveSpawnEvent0" ],
			"objclass": "SpawnZombiesFromGridItemSpawnerProps",
			"objdata": {
				"AdditionalPlantfood": "0",
				"GridTypes": [ "RTID(gravestone_dark@GridItemTypes)", "RTID(gravestoneSunOnDestruction@GridItemTypes)", "RTID(gravestonePlantfoodOnDestruction@GridItemTypes)" ],
				"WaveStartMessage": "[WARNING_GRAVESTONE_SPAWN]",
				"ZombieSpawnWaitTime": "1",
				"Zombies": [ {
						"Type": "RTID(eighties_punk@ZombieTypes)"
					}, {
						"Type": "RTID(eighties_punk@ZombieTypes)"
					} ]
			}
		}, {
			"aliases": [ "Wave6GraveSpawnEvent0" ],
			"objclass": "SpawnZombiesFromGridItemSpawnerProps",
			"objdata": {
				"AdditionalPlantfood": "0",
				"GridTypes": [ "RTID(gravestone_dark@GridItemTypes)", "RTID(gravestoneSunOnDestruction@GridItemTypes)", "RTID(gravestonePlantfoodOnDestruction@GridItemTypes)" ],
				"WaveStartMessage": "[WARNING_GRAVESTONE_SPAWN]",
				"ZombieSpawnWaitTime": "1",
				"Zombies": [ {
						"Type": "RTID(beach_surfer@ZombieTypes)"
					}, {
						"Type": "RTID(eighties_punk@ZombieTypes)"
					} ]
			}
		}, {
			"aliases": [ "Wave7GraveSpawnEvent0" ],
			"objclass": "SpawnZombiesFromGridItemSpawnerProps",
			"objdata": {
				"AdditionalPlantfood": "0",
				"GridTypes": [ "RTID(gravestone_dark@GridItemTypes)", "RTID(gravestoneSunOnDestruction@GridItemTypes)", "RTID(gravestonePlantfoodOnDestruction@GridItemTypes)" ],
				"WaveStartMessage": "[WARNING_GRAVESTONE_SPAWN]",
				"ZombieSpawnWaitTime": "1",
				"Zombies": [ {
						"Type": "RTID(eighties_punk@ZombieTypes)"
					}, {
						"Type": "RTID(eighties_punk@ZombieTypes)"
					} ]
			}
		}, {
			"aliases": [ "Wave8GraveSpawnEvent0" ],
			"objclass": "SpawnZombiesFromGridItemSpawnerProps",
			"objdata": {
				"AdditionalPlantfood": "0",
				"GridTypes": [ "RTID(gravestone_dark@GridItemTypes)", "RTID(gravestoneSunOnDestruction@GridItemTypes)", "RTID(gravestonePlantfoodOnDestruction@GridItemTypes)" ],
				"WaveStartMessage": "[WARNING_GRAVESTONE_SPAWN]",
				"ZombieSpawnWaitTime": "1",
				"Zombies": [ {
						"Type": "RTID(beach_surfer@ZombieTypes)"
					}, {
						"Type": "RTID(eighties_punk@ZombieTypes)"
					} ]
			}
		}, {
			"aliases": [ "Wave9GraveSpawnEvent0" ],
			"objclass": "SpawnZombiesFromGridItemSpawnerProps",
			"objdata": {
				"AdditionalPlantfood": "0",
				"GridTypes": [ "RTID(gravestone_dark@GridItemTypes)", "RTID(gravestoneSunOnDestruction@GridItemTypes)", "RTID(gravestonePlantfoodOnDestruction@GridItemTypes)" ],
				"WaveStartMessage": "[WARNING_GRAVESTONE_SPAWN]",
				"ZombieSpawnWaitTime": "1",
				"Zombies": [ {
						"Type": "RTID(eighties_punk@ZombieTypes)"
					}, {
						"Type": "RTID(eighties_punk@ZombieTypes)"
					} ]
			}
		}, {
			"aliases": [ "Wave10GraveSpawnEvent0" ],
			"objclass": "SpawnZombiesFromGridItemSpawnerProps",
			"objdata": {
				"AdditionalPlantfood": "0",
				"GridTypes": [ "RTID(gravestone_dark@GridItemTypes)", "RTID(gravestoneSunOnDestruction@GridItemTypes)", "RTID(gravestonePlantfoodOnDestruction@GridItemTypes)" ],
				"WaveStartMessage": "[WARNING_GRAVESTONE_SPAWN]",
				"ZombieSpawnWaitTime": "1",
				"Zombies": [ {
						"Type": "RTID(beach_surfer@ZombieTypes)"
					}, {
						"Type": "RTID(eighties_punk@ZombieTypes)"
					} ]
			}
		}, {
			"aliases": [ "Wave3GravestoneEvent1" ],
			"objclass": "SpawnGravestonesWaveActionProps",
			"objdata": {
				"GravestonePool": [ {
						"Count": 0,
						"Type": "RTID(gravestone_dark@GridItemTypes)"
					}, {
						"Count": 0,
						"Type": "RTID(gravestoneSunOnDestruction@GridItemTypes)"
					}, {
						"Count": 1,
						"Type": "RTID(gravestonePlantfoodOnDestruction@GridItemTypes)"
					} ],
				"SpawnEffectAnimID": "POPANIM_EFFECTS_TOMBSTONE_DARK_SPAWN_EFFECT",
				"SpawnPositionsPool": [ {
						"mX": 5,
						"mY": 0
					}, {
						"mX": 5,
						"mY": 1
					}, {
						"mX": 5,
						"mY": 2
					}, {
						"mX": 5,
						"mY": 3
					}, {
						"mX": 5,
						"mY": 4
					}, {
						"mX": 6,
						"mY": 0
					}, {
						"mX": 6,
						"mY": 1
					}, {
						"mX": 6,
						"mY": 2
					}, {
						"mX": 6,
						"mY": 3
					}, {
						"mX": 6,
						"mY": 4
					}, {
						"mX": 7,
						"mY": 0
					}, {
						"mX": 7,
						"mY": 1
					}, {
						"mX": 7,
						"mY": 2
					}, {
						"mX": 7,
						"mY": 3
					}, {
						"mX": 7,
						"mY": 4
					}, {
						"mX": 8,
						"mY": 0
					}, {
						"mX": 8,
						"mY": 1
					}, {
						"mX": 8,
						"mY": 2
					}, {
						"mX": 8,
						"mY": 3
					}, {
						"mX": 8,
						"mY": 4
					} ],
				"SpawnSoundID": "Play_Zomb_Egypt_TombRaiser_Grave_Rise"
			}
		}, {
			"aliases": [ "Wave4GravestoneEvent1" ],
			"objclass": "SpawnGravestonesWaveActionProps",
			"objdata": {
				"GravestonePool": [ {
						"Count": 0,
						"Type": "RTID(gravestone_dark@GridItemTypes)"
					}, {
						"Count": 1,
						"Type": "RTID(gravestoneSunOnDestruction@GridItemTypes)"
					}, {
						"Count": 0,
						"Type": "RTID(gravestonePlantfoodOnDestruction@GridItemTypes)"
					} ],
				"RTID(gravestonePlantfoodOnDestruction@GridItemTypes)": 0,
				"RTID(gravestoneSunOnDestruction@GridItemTypes)": 1,
				"RTID(gravestone_dark@GridItemTypes)": 0,
				"SpawnEffectAnimID": "POPANIM_EFFECTS_TOMBSTONE_DARK_SPAWN_EFFECT",
				"SpawnPositionsPool": [ {
						"mX": 5,
						"mY": 0
					}, {
						"mX": 5,
						"mY": 1
					}, {
						"mX": 5,
						"mY": 2
					}, {
						"mX": 5,
						"mY": 3
					}, {
						"mX": 5,
						"mY": 4
					}, {
						"mX": 6,
						"mY": 0
					}, {
						"mX": 6,
						"mY": 1
					}, {
						"mX": 6,
						"mY": 2
					}, {
						"mX": 6,
						"mY": 3
					}, {
						"mX": 6,
						"mY": 4
					}, {
						"mX": 7,
						"mY": 0
					}, {
						"mX": 7,
						"mY": 1
					}, {
						"mX": 7,
						"mY": 2
					}, {
						"mX": 7,
						"mY": 3
					}, {
						"mX": 7,
						"mY": 4
					}, {
						"mX": 8,
						"mY": 0
					}, {
						"mX": 8,
						"mY": 1
					}, {
						"mX": 8,
						"mY": 2
					}, {
						"mX": 8,
						"mY": 3
					}, {
						"mX": 8,
						"mY": 4
					} ],
				"SpawnSoundID": "Play_Zomb_Egypt_TombRaiser_Grave_Rise",
				"maxX": 8,
				"minX": 5
			}
		}, {
			"aliases": [ "Wave5GravestoneEvent1" ],
			"objclass": "SpawnGravestonesWaveActionProps",
			"objdata": {
				"GravestonePool": [ {
						"Count": 0,
						"Type": "RTID(gravestone_dark@GridItemTypes)"
					}, {
						"Count": 1,
						"Type": "RTID(gravestoneSunOnDestruction@GridItemTypes)"
					}, {
						"Count": 0,
						"Type": "RTID(gravestonePlantfoodOnDestruction@GridItemTypes)"
					} ],
				"SpawnEffectAnimID": "POPANIM_EFFECTS_TOMBSTONE_DARK_SPAWN_EFFECT",
				"SpawnPositionsPool": [ {
						"mX": 3,
						"mY": 0
					}, {
						"mX": 3,
						"mY": 1
					}, {
						"mX": 3,
						"mY": 2
					}, {
						"mX": 3,
						"mY": 3
					}, {
						"mX": 3,
						"mY": 4
					}, {
						"mX": 4,
						"mY": 0
					}, {
						"mX": 4,
						"mY": 1
					}, {
						"mX": 4,
						"mY": 2
					}, {
						"mX": 4,
						"mY": 3
					}, {
						"mX": 4,
						"mY": 4
					} ],
				"SpawnSoundID": "Play_Zomb_Egypt_TombRaiser_Grave_Rise"
			}
		}, {
			"aliases": [ "Wave6GravestoneEvent1" ],
			"objclass": "SpawnGravestonesWaveActionProps",
			"objdata": {
				"GravestonePool": [ {
						"Count": 0,
						"Type": "RTID(gravestone_dark@GridItemTypes)"
					}, {
						"Count": 0,
						"Type": "RTID(gravestoneSunOnDestruction@GridItemTypes)"
					}, {
						"Count": 1,
						"Type": "RTID(gravestonePlantfoodOnDestruction@GridItemTypes)"
					} ],
				"RTID(gravestonePlantfoodOnDestruction@GridItemTypes)": 1,
				"RTID(gravestoneSunOnDestruction@GridItemTypes)": 0,
				"RTID(gravestone_dark@GridItemTypes)": 0,
				"SpawnEffectAnimID": "POPANIM_EFFECTS_TOMBSTONE_DARK_SPAWN_EFFECT",
				"SpawnPositionsPool": [ {
						"mX": 5,
						"mY": 0
					}, {
						"mX": 5,
						"mY": 1
					}, {
						"mX": 5,
						"mY": 2
					}, {
						"mX": 5,
						"mY": 3
					}, {
						"mX": 5,
						"mY": 4
					}, {
						"mX": 6,
						"mY": 0
					}, {
						"mX": 6,
						"mY": 1
					}, {
						"mX": 6,
						"mY": 2
					}, {
						"mX": 6,
						"mY": 3
					}, {
						"mX": 6,
						"mY": 4
					}, {
						"mX": 7,
						"mY": 0
					}, {
						"mX": 7,
						"mY": 1
					}, {
						"mX": 7,
						"mY": 2
					}, {
						"mX": 7,
						"mY": 3
					}, {
						"mX": 7,
						"mY": 4
					}, {
						"mX": 8,
						"mY": 0
					}, {
						"mX": 8,
						"mY": 1
					}, {
						"mX": 8,
						"mY": 2
					}, {
						"mX": 8,
						"mY": 3
					}, {
						"mX": 8,
						"mY": 4
					} ],
				"SpawnSoundID": "Play_Zomb_Egypt_TombRaiser_Grave_Rise",
				"maxX": 8,
				"minX": 5
			}
		}, {
			"aliases": [ "Wave7GravestoneEvent1" ],
			"objclass": "SpawnGravestonesWaveActionProps",
			"objdata": {
				"GravestonePool": [ {
						"Count": 0,
						"Type": "RTID(gravestone_dark@GridItemTypes)"
					}, {
						"Count": 1,
						"Type": "RTID(gravestoneSunOnDestruction@GridItemTypes)"
					}, {
						"Count": 0,
						"Type": "RTID(gravestonePlantfoodOnDestruction@GridItemTypes)"
					} ],
				"SpawnEffectAnimID": "POPANIM_EFFECTS_TOMBSTONE_DARK_SPAWN_EFFECT",
				"SpawnPositionsPool": [ {
						"mX": 5,
						"mY": 0
					}, {
						"mX": 5,
						"mY": 1
					}, {
						"mX": 5,
						"mY": 2
					}, {
						"mX": 5,
						"mY": 3
					}, {
						"mX": 5,
						"mY": 4
					}, {
						"mX": 6,
						"mY": 0
					}, {
						"mX": 6,
						"mY": 1
					}, {
						"mX": 6,
						"mY": 2
					}, {
						"mX": 6,
						"mY": 3
					}, {
						"mX": 6,
						"mY": 4
					}, {
						"mX": 7,
						"mY": 0
					}, {
						"mX": 7,
						"mY": 1
					}, {
						"mX": 7,
						"mY": 2
					}, {
						"mX": 7,
						"mY": 3
					}, {
						"mX": 7,
						"mY": 4
					}, {
						"mX": 8,
						"mY": 0
					}, {
						"mX": 8,
						"mY": 1
					}, {
						"mX": 8,
						"mY": 2
					}, {
						"mX": 8,
						"mY": 3
					}, {
						"mX": 8,
						"mY": 4
					} ],
				"SpawnSoundID": "Play_Zomb_Egypt_TombRaiser_Grave_Rise"
			}
		}, {
			"aliases": [ "Wave8GravestoneEvent1" ],
			"objclass": "SpawnGravestonesWaveActionProps",
			"objdata": {
				"GravestonePool": [ {
						"Count": 0,
						"Type": "RTID(gravestone_dark@GridItemTypes)"
					}, {
						"Count": 1,
						"Type": "RTID(gravestoneSunOnDestruction@GridItemTypes)"
					}, {
						"Count": 0,
						"Type": "RTID(gravestonePlantfoodOnDestruction@GridItemTypes)"
					} ],
				"SpawnEffectAnimID": "POPANIM_EFFECTS_TOMBSTONE_DARK_SPAWN_EFFECT",
				"SpawnPositionsPool": [ {
						"mX": 5,
						"mY": 0
					}, {
						"mX": 5,
						"mY": 1
					}, {
						"mX": 5,
						"mY": 2
					}, {
						"mX": 5,
						"mY": 3
					}, {
						"mX": 5,
						"mY": 4
					}, {
						"mX": 6,
						"mY": 0
					}, {
						"mX": 6,
						"mY": 1
					}, {
						"mX": 6,
						"mY": 2
					}, {
						"mX": 6,
						"mY": 3
					}, {
						"mX": 6,
						"mY": 4
					}, {
						"mX": 7,
						"mY": 0
					}, {
						"mX": 7,
						"mY": 1
					}, {
						"mX": 7,
						"mY": 2
					}, {
						"mX": 7,
						"mY": 3
					}, {
						"mX": 7,
						"mY": 4
					}, {
						"mX": 8,
						"mY": 0
					}, {
						"mX": 8,
						"mY": 1
					}, {
						"mX": 8,
						"mY": 2
					}, {
						"mX": 8,
						"mY": 3
					}, {
						"mX": 8,
						"mY": 4
					} ],
				"SpawnSoundID": "Play_Zomb_Egypt_TombRaiser_Grave_Rise"
			}
		}, {
			"aliases": [ "Wave9GravestoneEvent1" ],
			"objclass": "SpawnGravestonesWaveActionProps",
			"objdata": {
				"GravestonePool": [ {
						"Count": 0,
						"Type": "RTID(gravestone_dark@GridItemTypes)"
					}, {
						"Count": 1,
						"Type": "RTID(gravestoneSunOnDestruction@GridItemTypes)"
					}, {
						"Count": 0,
						"Type": "RTID(gravestonePlantfoodOnDestruction@GridItemTypes)"
					} ],
				"SpawnEffectAnimID": "POPANIM_EFFECTS_TOMBSTONE_DARK_SPAWN_EFFECT",
				"SpawnPositionsPool": [ {
						"mX": 5,
						"mY": 0
					}, {
						"mX": 5,
						"mY": 1
					}, {
						"mX": 5,
						"mY": 2
					}, {
						"mX": 5,
						"mY": 3
					}, {
						"mX": 5,
						"mY": 4
					}, {
						"mX": 6,
						"mY": 0
					}, {
						"mX": 6,
						"mY": 1
					}, {
						"mX": 6,
						"mY": 2
					}, {
						"mX": 6,
						"mY": 3
					}, {
						"mX": 6,
						"mY": 4
					}, {
						"mX": 7,
						"mY": 0
					}, {
						"mX": 7,
						"mY": 1
					}, {
						"mX": 7,
						"mY": 2
					}, {
						"mX": 7,
						"mY": 3
					}, {
						"mX": 7,
						"mY": 4
					}, {
						"mX": 8,
						"mY": 0
					}, {
						"mX": 8,
						"mY": 1
					}, {
						"mX": 8,
						"mY": 2
					}, {
						"mX": 8,
						"mY": 3
					}, {
						"mX": 8,
						"mY": 4
					} ],
				"SpawnSoundID": "Play_Zomb_Egypt_TombRaiser_Grave_Rise"
			}
		}, {
			"aliases": [ "Wave10GravestoneEvent1" ],
			"objclass": "SpawnGravestonesWaveActionProps",
			"objdata": {
				"GravestonePool": [ {
						"Count": 0,
						"Type": "RTID(gravestone_dark@GridItemTypes)"
					}, {
						"Count": 0,
						"Type": "RTID(gravestoneSunOnDestruction@GridItemTypes)"
					}, {
						"Count": 1,
						"Type": "RTID(gravestonePlantfoodOnDestruction@GridItemTypes)"
					} ],
				"SpawnEffectAnimID": "POPANIM_EFFECTS_TOMBSTONE_DARK_SPAWN_EFFECT",
				"SpawnPositionsPool": [ {
						"mX": 5,
						"mY": 0
					}, {
						"mX": 5,
						"mY": 1
					}, {
						"mX": 5,
						"mY": 2
					}, {
						"mX": 5,
						"mY": 3
					}, {
						"mX": 5,
						"mY": 4
					}, {
						"mX": 6,
						"mY": 0
					}, {
						"mX": 6,
						"mY": 1
					}, {
						"mX": 6,
						"mY": 2
					}, {
						"mX": 6,
						"mY": 3
					}, {
						"mX": 6,
						"mY": 4
					}, {
						"mX": 7,
						"mY": 0
					}, {
						"mX": 7,
						"mY": 1
					}, {
						"mX": 7,
						"mY": 2
					}, {
						"mX": 7,
						"mY": 3
					}, {
						"mX": 7,
						"mY": 4
					}, {
						"mX": 8,
						"mY": 0
					}, {
						"mX": 8,
						"mY": 1
					}, {
						"mX": 8,
						"mY": 2
					}, {
						"mX": 8,
						"mY": 3
					}, {
						"mX": 8,
						"mY": 4
					} ],
				"SpawnSoundID": "Play_Zomb_Egypt_TombRaiser_Grave_Rise"
			}
		}, {
			"aliases": [ "Wave3SpiderRainEvent0" ],
			"objclass": "SpiderRainZombieSpawnerProps",
			"objdata": {
				"ColumnEnd": "8",
				"ColumnStart": "4",
				"GroupSize": 2,
				"SpiderCount": 1,
				"SpiderZombieName": "future_imp",
				"TimeBeforeFullSpawn": "1",
				"TimeBetweenGroups": "0.2",
				"WaveStartMessage": "[WARNING_SPIDERRAIN]",
				"ZombieFallTime": "1.5"
			}
		}, {
			"aliases": [ "Wave5SpiderRainEvent0" ],
			"objclass": "SpiderRainZombieSpawnerProps",
			"objdata": {
				"ColumnEnd": "8",
				"ColumnStart": "4",
				"GroupSize": "2",
				"SpiderCount": 2,
				"SpiderZombieName": "future_imp",
				"TimeBeforeFullSpawn": "1",
				"TimeBetweenGroups": "0.2",
				"WaveStartMessage": "[WARNING_SPIDERRAIN]",
				"ZombieFallTime": "1.5"
			}
		}, {
			"aliases": [ "Wave7SpiderRainEvent0" ],
			"objclass": "SpiderRainZombieSpawnerProps",
			"objdata": {
				"ColumnEnd": "8",
				"ColumnStart": "4",
				"GroupSize": "2",
				"SpiderCount": 3,
				"SpiderZombieName": "future_imp",
				"TimeBeforeFullSpawn": "1",
				"TimeBetweenGroups": "0.2",
				"WaveStartMessage": "[WARNING_SPIDERRAIN]",
				"ZombieFallTime": "1.5"
			}
		}, {
			"aliases": [ "Wave9SpiderRainEvent0" ],
			"objclass": "SpiderRainZombieSpawnerProps",
			"objdata": {
				"ColumnEnd": "8",
				"ColumnStart": "4",
				"GroupSize": "2",
				"SpiderCount": 3,
				"SpiderZombieName": "future_imp",
				"TimeBeforeFullSpawn": "1",
				"TimeBetweenGroups": "0.2",
				"WaveStartMessage": "[WARNING_SPIDERRAIN]",
				"ZombieFallTime": "1.5"
			}
		} ],
	"version": 1
}