{
	"#comment": "Pirate 17",
	"objects": [ {
			"objclass": "LevelDefinition",
			"objdata": {
				"Description": "[PLAYERS_TRIP_TO_RIFT]",
				"LevelMutator": "RTID(LevelMutator@CurrentLevel)",
				"LevelNumber": 17,
				"Loot": "",
				"Modules": [ "RTID(DefaultSunDropper@LevelModules)", "RTID(ZombiesDeadWinCon@LevelModules)", "RTID(PirateMowers@LevelModules)", "RTID(PiratePlanks@CurrentLevel)", "RTID(SeedBank@CurrentLevel)", "RTID(DefaultZombieWinCondition@LevelModules)", "RTID(StandardRiftIntro@LevelModules)", "RTID(PerkActivator@CurrentLevel)", "RTID(LevelDifficultyScaling@CurrentLevel)", "RTID(NewWaves@CurrentLevel)" ],
				"Name": "[RIFT_LEVEL_NAME]",
				"NormalPresentTable": "pirate_normal_01",
				"PerksDisabledInLevel": [ "bossbustercannon", "quickdelivery", "zombieinhibitorballista", "moarscore", "utilitybelt_cherrybomb" ],
				"PerksDisabledPerDifficulty": [ [], [], [] ],
				"ShinyPresentTable": "pirate_shiny_01",
				"StageModule": "RTID(RiftPirateStage@LevelModules)",
				"VictoryModule": "RTID(RiftOutro@LevelModules)"
			}
		}, {
			"aliases": [ "PiratePlanks" ],
			"objclass": "PiratePlankProperties",
			"objdata": {
				"PlankRows": [ 3, 4 ]
			}
		}, {
			"aliases": [ "SeedBank" ],
			"objclass": "SeedBankProperties",
			"objdata": {
				"SelectionMethod": "chooser",
				"SuggestPlantList": [ [ "primalsunflower", "twinsunflower" ], [ "tallnut", "primalwallnut" ], [ "primalpotatomine", "escaperoot", "cherry_bomb" ], [ "kernelpult", "cabbagepult" ], [ "snapdragon", "bloomerang" ], [ "threepeater", "akee" ], [ "electricblueberry", "lightningreed" ], [ "magnetshroom", "shrinkingviolet" ] ]
			}
		}, {
			"aliases": [ "WaveManagerProps" ],
			"objclass": "WaveManagerProperties",
			"objdata": {
				"FlagWaveInterval": 8,
				"WaveCount": 16,
				"WaveSpendingPointIncrement": 50,
				"WaveSpendingPoints": 100,
				"Waves": [ [ "RTID(Wave1@CurrentLevel)" ], [ "RTID(Wave2@CurrentLevel)" ], [ "RTID(Wave3@CurrentLevel)" ], [ "RTID(Wave4@CurrentLevel)" ], [ "RTID(Wave5@CurrentLevel)" ], [ "RTID(Wave6@CurrentLevel)" ], [ "RTID(Wave7@CurrentLevel)" ], [ "RTID(Wave8@CurrentLevel)" ], [ "RTID(Wave9@CurrentLevel)" ], [ "RTID(Wave10@CurrentLevel)", "RTID(Wave10RaidingPartyEvent0@CurrentLevel)" ], [ "RTID(Wave11@CurrentLevel)" ], [ "RTID(Wave12@CurrentLevel)" ], [ "RTID(Wave13@CurrentLevel)" ], [ "RTID(Wave14@CurrentLevel)" ], [ "RTID(Wave15@CurrentLevel)" ], [ "RTID(Wave16@CurrentLevel)", "RTID(Wave16RaidingPartyEvent0@CurrentLevel)" ] ]
			}
		}, {
			"aliases": [ "Wave1" ],
			"objclass": "SpawnZombiesJitteredWaveActionProps",
			"objdata": {
				"Zombies": [ {
						"Row": "4",
						"Type": "RTID(pirate@ZombieTypes)"
					} ]
			}
		}, {
			"aliases": [ "Wave2" ],
			"objclass": "SpawnZombiesJitteredWaveActionProps",
			"objdata": {
				"Zombies": [ {
						"Row": "5",
						"Type": "RTID(pirate@ZombieTypes)"
					} ]
			}
		}, {
			"aliases": [ "Wave3" ],
			"objclass": "SpawnZombiesJitteredWaveActionProps",
			"objdata": {
				"Zombies": [ {
						"Row": "4",
						"Type": "RTID(pirate_armor1@ZombieTypes)"
					} ]
			}
		}, {
			"aliases": [ "Wave4" ],
			"objclass": "SpawnZombiesJitteredWaveActionProps",
			"objdata": {
				"Zombies": [ {
						"Row": "1",
						"Type": "RTID(swashbuckler@ZombieTypes)"
					}, {
						"Row": "5",
						"Type": "RTID(pirate@ZombieTypes)"
					} ]
			}
		}, {
			"aliases": [ "Wave5" ],
			"objclass": "SpawnZombiesJitteredWaveActionProps",
			"objdata": {
				"AdditionalPlantfood": 0,
				"Zombies": [ {
						"Row": "4",
						"Type": "RTID(pirate@ZombieTypes)"
					}, {
						"Row": "5",
						"Type": "RTID(pirate_armor1@ZombieTypes)"
					} ]
			}
		}, {
			"aliases": [ "Wave6" ],
			"objclass": "SpawnZombiesJitteredWaveActionProps",
			"objdata": {
				"AdditionalPlantfood": 1,
				"DynamicPlantfood": [ 1, 1, 1, 1, 1, 0, 1 ],
				"Zombies": [ {
						"Row": "5",
						"Type": "RTID(pirate@ZombieTypes)"
					}, {
						"Row": "4",
						"Type": "RTID(pirate@ZombieTypes)"
					}, {
						"Row": "5",
						"Type": "RTID(pirate@ZombieTypes)"
					}, {
						"Row": "1",
						"Type": "RTID(seagull@ZombieTypes)"
					} ]
			}
		}, {
			"aliases": [ "Wave7" ],
			"objclass": "SpawnZombiesJitteredWaveActionProps",
			"objdata": {
				"AdditionalPlantfood": 0,
				"Zombies": [ {
						"Row": "3",
						"Type": "RTID(cannon@ZombieTypes)"
					} ]
			}
		}, {
			"aliases": [ "Wave8" ],
			"objclass": "SpawnZombiesJitteredWaveActionProps",
			"objdata": {
				"Zombies": [ {
						"Row": "1",
						"Type": "RTID(swashbuckler@ZombieTypes)"
					}, {
						"Row": "2",
						"Type": "RTID(swashbuckler@ZombieTypes)"
					}, {
						"Row": "3",
						"Type": "RTID(swashbuckler@ZombieTypes)"
					}, {
						"Type": "RTID(pirate_captain@ZombieTypes)"
					}, {
						"Row": "4",
						"Type": "RTID(pirate_armor1@ZombieTypes)"
					} ]
			}
		}, {
			"aliases": [ "Wave9" ],
			"objclass": "SpawnZombiesJitteredWaveActionProps",
			"objdata": {
				"Zombies": [ {
						"Row": "2",
						"Type": "RTID(swashbuckler@ZombieTypes)"
					}, {
						"Row": "3",
						"Type": "RTID(seagull@ZombieTypes)"
					}, {
						"Row": "4",
						"Type": "RTID(pirate@ZombieTypes)"
					}, {
						"Row": "5",
						"Type": "RTID(pirate@ZombieTypes)"
					}, {
						"Row": "5",
						"Type": "RTID(pirate_armor1@ZombieTypes)"
					} ]
			}
		}, {
			"aliases": [ "Wave10" ],
			"objclass": "SpawnZombiesJitteredWaveActionProps",
			"objdata": {
				"Zombies": [ {
						"Row": "5",
						"Type": "RTID(barrelroller@ZombieTypes)"
					}, {
						"Row": "4",
						"Type": "RTID(barrelroller@ZombieTypes)"
					} ]
			}
		}, {
			"aliases": [ "Wave11" ],
			"objclass": "SpawnZombiesJitteredWaveActionProps",
			"objdata": {
				"Zombies": [ {
						"Row": "3",
						"Type": "RTID(seagull@ZombieTypes)"
					}, {
						"Row": "4",
						"Type": "RTID(pirate@ZombieTypes)"
					}, {
						"Row": "5",
						"Type": "RTID(pirate@ZombieTypes)"
					}, {
						"Row": "4",
						"Type": "RTID(pirate@ZombieTypes)"
					}, {
						"Row": "5",
						"Type": "RTID(pirate@ZombieTypes)"
					} ]
			}
		}, {
			"aliases": [ "Wave12" ],
			"objclass": "SpawnZombiesJitteredWaveActionProps",
			"objdata": {
				"Zombies": [ {
						"Row": "1",
						"Type": "RTID(cannon@ZombieTypes)"
					} ]
			}
		}, {
			"aliases": [ "Wave13" ],
			"objclass": "SpawnZombiesJitteredWaveActionProps",
			"objdata": {
				"AdditionalPlantfood": 1,
				"DynamicPlantfood": [ 1, 1, 1, 1, 1, 0, 1 ],
				"Zombies": [ {
						"Row": "4",
						"Type": "RTID(pirate@ZombieTypes)"
					}, {
						"Row": "5",
						"Type": "RTID(pirate@ZombieTypes)"
					}, {
						"Row": "5",
						"Type": "RTID(pirate_armor1@ZombieTypes)"
					}, {
						"Type": "RTID(pirate_captain@ZombieTypes)"
					} ]
			}
		}, {
			"aliases": [ "Wave14" ],
			"objclass": "SpawnZombiesJitteredWaveActionProps",
			"objdata": {
				"Zombies": [ {
						"Row": "2",
						"Type": "RTID(cannon@ZombieTypes)"
					}, {
						"Row": "4",
						"Type": "RTID(pirate@ZombieTypes)"
					}, {
						"Row": "5",
						"Type": "RTID(pirate_armor1@ZombieTypes)"
					} ]
			}
		}, {
			"aliases": [ "Wave15" ],
			"objclass": "SpawnZombiesJitteredWaveActionProps",
			"objdata": {
				"AdditionalPlantfood": 0,
				"Zombies": [ {
						"Row": "5",
						"Type": "RTID(pirate@ZombieTypes)"
					}, {
						"Row": "4",
						"Type": "RTID(pirate@ZombieTypes)"
					}, {
						"Row": "1",
						"Type": "RTID(seagull@ZombieTypes)"
					}, {
						"Row": "2",
						"Type": "RTID(seagull@ZombieTypes)"
					}, {
						"Row": "3",
						"Type": "RTID(seagull@ZombieTypes)"
					}, {
						"Row": "4",
						"Type": "RTID(pirate_armor1@ZombieTypes)"
					} ]
			}
		}, {
			"aliases": [ "Wave16" ],
			"objclass": "SpawnZombiesJitteredWaveActionProps",
			"objdata": {
				"Zombies": [ {
						"Row": "1",
						"Type": "RTID(cannon@ZombieTypes)"
					}, {
						"Row": "3",
						"Type": "RTID(cannon@ZombieTypes)"
					}, {
						"Type": "RTID(pirate_captain@ZombieTypes)"
					}, {
						"Row": "4",
						"Type": "RTID(pirate_armor1@ZombieTypes)"
					}, {
						"Row": "5",
						"Type": "RTID(pirate_armor1@ZombieTypes)"
					} ]
			}
		}, {
			"aliases": [ "Wave10RaidingPartyEvent0" ],
			"objclass": "RaidingPartyZombieSpawnerProps",
			"objdata": {
				"GroupSize": 3,
				"SwashbucklerCount": 3,
				"TimeBetweenGroups": 1
			}
		}, {
			"aliases": [ "Wave16RaidingPartyEvent0" ],
			"objclass": "RaidingPartyZombieSpawnerProps",
			"objdata": {
				"GroupSize": 5,
				"SwashbucklerCount": 5,
				"TimeBetweenGroups": 1
			}
		}, {
			"aliases": [ "PerkActivator" ],
			"objclass": "PerkHandlerModuleProperties",
			"objdata": {}
		}, {
			"aliases": [ "LevelMutator" ],
			"objclass": "LevelMutatorModuleProperties",
			"objdata": {
				"MutatorTables": [ "RTID(MutatorPropsRift_Worlds@LevelMutatorTables)", "RTID(LocalChallengeMutator@CurrentLevel)", "RTID(LocalMainChallengeMutator@CurrentLevel)" ]
			}
		}, {
			"aliases": [ "LocalMainChallengeMutator" ],
			"objclass": "LevelMutatorTableProps",
			"objdata": {
				"Tables": [ {
						"Level": 0,
						"ModuleType": "mainchallenge",
						"Modules": [ "RTID(RiftBeatTheLevelChallenge@LevelModules)" ]
					}, {
						"Level": 1,
						"ModuleType": "mainchallenge",
						"Modules": [ "RTID(RiftBeatTheLevelChallenge@LevelModules)" ]
					}, {
						"Level": 2,
						"ModuleType": "mainchallenge",
						"Modules": [ "RTID(RiftBeatTheLevelChallenge@LevelModules)" ]
					} ]
			}
		}, {
			"aliases": [ "LocalChallengeMutator" ],
			"objclass": "LevelMutatorTableProps",
			"objdata": {
				"Tables": [ {
						"Level": 0,
						"ModuleType": "bonuschallenge",
						"Modules": [ "RTID(ZombieDistance1@CurrentLevel)" ]
					}, {
						"Level": 1,
						"ModuleType": "bonuschallenge",
						"Modules": [ "RTID(ZombieDistance1@CurrentLevel)", "RTID(KillZombies1@CurrentLevel)" ]
					}, {
						"Level": 2,
						"ModuleType": "bonuschallenge",
						"Modules": [ "RTID(ZombieDistance1@CurrentLevel)", "RTID(KillZombies2@CurrentLevel)" ]
					} ]
			}
		}, {
			"aliases": [ "ZombieDistance1" ],
			"objclass": "StarChallengeZombieDistanceProps",
			"objdata": {
				"TargetDistance": 4
			}
		}, {
			"aliases": [ "KillZombies1" ],
			"objclass": "StarChallengeKillZombiesInTimeProps",
			"objdata": {
				"Time": 5,
				"ZombiesToKill": 30
			}
		}, {
			"aliases": [ "KillZombies2" ],
			"objclass": "StarChallengeKillZombiesInTimeProps",
			"objdata": {
				"Time": 1,
				"ZombiesToKill": 30
			}
		}, {
			"aliases": [ "LevelDifficultyScaling" ],
			"objclass": "LevelDifficultyScalingModuleProperties",
			"objdata": {
				"DifficultyRulesType": "RiftDifficulty",
				"ZombieLevelSwaps": [ {
						"Level": 4,
						"Swaps": [ {
								"From": "RTID(pirate@ZombieTypes)",
								"To": [ "RTID(pirate_imp@ZombieTypes)" ]
							}, {
								"From": "RTID(pirate_armor1@ZombieTypes)",
								"To": [ "RTID(pirate@ZombieTypes)" ]
							}, {
								"From": "RTID(pirate_armor2@ZombieTypes)",
								"To": [ "RTID(pirate_armor1@ZombieTypes)" ]
							}, {
								"From": "RTID(pirate_armor4@ZombieTypes)",
								"To": [ "RTID(pirate_armor2@ZombieTypes)" ]
							}, {
								"From": "RTID(pelican@ZombieTypes)",
								"To": [ "RTID(seagull@ZombieTypes)" ]
							} ]
					}, {
						"Level": 7,
						"Swaps": [ {
								"From": "RTID(pirate@ZombieTypes)",
								"To": [ "RTID(pirate@ZombieTypes)" ]
							}, {
								"From": "RTID(pirate_armor1@ZombieTypes)",
								"To": [ "RTID(pirate_armor1@ZombieTypes)" ]
							}, {
								"From": "RTID(pirate_armor2@ZombieTypes)",
								"To": [ "RTID(pirate_armor2@ZombieTypes)" ]
							}, {
								"From": "RTID(pirate_armor4@ZombieTypes)",
								"To": [ "RTID(pirate_armor4@ZombieTypes)", "RTID(pirate_armor4@ZombieTypes)", "RTID(pirate_armor4@ZombieTypes)", "RTID(pirate_armor4@ZombieTypes)", "RTID(pirate_armor4@ZombieTypes)", "RTID(pirate_gargantuar@ZombieTypes)" ]
							}, {
								"From": "RTID(pelican@ZombieTypes)",
								"To": [ "RTID(seagull@ZombieTypes)", "RTID(seagull@ZombieTypes)", "RTID(seagull@ZombieTypes)", "RTID(seagull@ZombieTypes)", "RTID(pelican@ZombieTypes)" ]
							} ]
					}, {
						"Level": 10,
						"Swaps": [ {
								"From": "RTID(pirate@ZombieTypes)",
								"To": [ "RTID(pirate_armor1@ZombieTypes)" ]
							}, {
								"From": "RTID(pirate_armor1@ZombieTypes)",
								"To": [ "RTID(pirate_armor2@ZombieTypes)" ]
							}, {
								"From": "RTID(pirate_armor2@ZombieTypes)",
								"To": [ "RTID(pirate_armor2@ZombieTypes)" ]
							}, {
								"From": "RTID(pirate_armor4@ZombieTypes)",
								"To": [ "RTID(pirate_armor4@ZombieTypes)", "RTID(pirate_armor4@ZombieTypes)", "RTID(pirate_armor4@ZombieTypes)", "RTID(pirate_gargantuar@ZombieTypes)" ]
							}, {
								"From": "RTID(pelican@ZombieTypes)",
								"To": [ "RTID(seagull@ZombieTypes)", "RTID(pelican@ZombieTypes)" ]
							} ]
					} ]
			}
		}, {
			"aliases": [ "NewWaves" ],
			"objclass": "WaveManagerModuleProperties",
			"objdata": {
				"DynamicZombies": [ {
						"MaxPoints": 1650,
						"PointIncrementPerWave": 150,
						"StartingPoints": 100,
						"StartingWave": 1,
						"ZombiePool": [ "RTID(pirate_armor2@ZombieTypes)", "RTID(swashbuckler@ZombieTypes)", "RTID(pirate_armor4@ZombieTypes)", "RTID(pelican@ZombieTypes)", "RTID(barrelroller@ZombieTypes)", "RTID(pirate_captain@ZombieTypes)" ]
					}, {
						"MaxPoints": 1650,
						"PointIncrementPerWave": 150,
						"StartingPoints": 100,
						"StartingWave": 1,
						"ZombiePool": [ "RTID(pirate_armor2@ZombieTypes)", "RTID(swashbuckler@ZombieTypes)", "RTID(pirate_armor4@ZombieTypes)", "RTID(pelican@ZombieTypes)", "RTID(barrelroller@ZombieTypes)", "RTID(pirate_captain@ZombieTypes)" ]
					}, {
						"MaxPoints": 1650,
						"PointIncrementPerWave": 150,
						"StartingPoints": 100,
						"StartingWave": 1,
						"ZombiePool": [ "RTID(pirate_armor2@ZombieTypes)", "RTID(swashbuckler@ZombieTypes)", "RTID(pirate_armor4@ZombieTypes)", "RTID(pelican@ZombieTypes)", "RTID(barrelroller@ZombieTypes)", "RTID(pirate_captain@ZombieTypes)" ]
					}, {
						"MaxPoints": 1650,
						"PointIncrementPerWave": 150,
						"StartingPoints": 100,
						"StartingWave": 1,
						"ZombiePool": [ "RTID(pirate_armor2@ZombieTypes)", "RTID(swashbuckler@ZombieTypes)", "RTID(pirate_armor4@ZombieTypes)", "RTID(pelican@ZombieTypes)", "RTID(barrelroller@ZombieTypes)", "RTID(pirate_captain@ZombieTypes)" ]
					}, {
						"MaxPoints": 1650,
						"PointIncrementPerWave": 150,
						"StartingPoints": 100,
						"StartingWave": 1,
						"ZombiePool": [ "RTID(pirate_armor2@ZombieTypes)", "RTID(swashbuckler@ZombieTypes)", "RTID(pirate_armor4@ZombieTypes)", "RTID(pelican@ZombieTypes)", "RTID(barrelroller@ZombieTypes)", "RTID(pirate_captain@ZombieTypes)" ]
					}, {
						"MaxPoints": 1650,
						"PointIncrementPerWave": 150,
						"StartingPoints": 100,
						"StartingWave": 1,
						"ZombiePool": [ "RTID(pirate_armor2@ZombieTypes)", "RTID(swashbuckler@ZombieTypes)", "RTID(pirate_armor4@ZombieTypes)", "RTID(pelican@ZombieTypes)", "RTID(barrelroller@ZombieTypes)", "RTID(pirate_captain@ZombieTypes)" ]
					}, {
						"MaxPoints": 1650,
						"PointIncrementPerWave": 150,
						"StartingPoints": 100,
						"StartingWave": 1,
						"ZombiePool": [ "RTID(pirate_armor2@ZombieTypes)", "RTID(swashbuckler@ZombieTypes)", "RTID(pirate_armor4@ZombieTypes)", "RTID(pelican@ZombieTypes)", "RTID(barrelroller@ZombieTypes)", "RTID(pirate_captain@ZombieTypes)" ]
					} ],
				"WaveManagerProps": "RTID(WaveManagerProps@CurrentLevel)"
			}
		} ],
	"version": 1
}