{
	"version": 1,
	"objects": [
		{
			"aliases": [
				"JoustScreen"
			],
			"objclass": "HotUIWidgetProperties",
			"objdata": {
				"EntryPoint": true,
				"Name": "JoustScreen",
				"Resources": [
					"CollectableCommon",
					"UI_Joust",
					"UI_Sprouts",
					"UI_Seasons",
					"UI_Seasons_Max"
				],
				"Width": {
					"Value": "820"
				},
				"Height": {
					"Value": "100%"
				},
				"Anchor": {
					"AnchorPoint": "center",
					"Parent": ""
				},
				"Padding": {
					"Left": {
						"Value": "0.0"
					},
					"Top": {
						"Value": "0.0"
					},
					"Right": {
						"Value": "0.0"
					},
					"Bottom": {
						"Value": "0.0"
					}
				},
				"IgnoreMouseInput": true,
				"Children": [
					"RTID(LeftSideElements@.)",
					"RTID(RightSideElements@.)",
					"RTID(TestRiftFunctionality@.)"
				]
			}
		},
		{
			"aliases": [
				"LeftSideElements"
			],
			"objclass": "HotUIWidgetProperties",
			"objdata": {
				"Name": "LeftSideElements",
				"Width": {
					"Value": "475"
				},
				"Height": {
					"Value": "100%"
				},
				"Anchor": {
					"AnchorPoint": "left",
					"OffsetX": {
						"Value": "10"
					},
					"OffsetY": {
						"Value": "0"
					}
				},
				"IgnoreMouseInput": true,
				"Children": [
					"RTID(BackgroundImage@.)",
					"RTID(ButtonContainer@.)",
					"RTID(MintContainer@.)",
					"RTID(JoustSeasonsBadge@.)",
					"RTID(LocalHighScoreText@.)",
					"RTID(WinStreakHolder@.)"
				]
			}
		},
		{
			"aliases": [
				"LocalHighScoreText"
			],
			"objclass": "HotUILabelProperties",
			"objdata": {
				"Name": "LocalHighScoreText",
				"Width": {
					"Value": "250"
				},
				"Height": {
					"Value": "60"
				},
				"Anchor": {
					"AnchorPoint": "topleft",
					"OffsetX": {
						"Value": "5%"
					},
					"OffsetY": {
						"Value": "10%"
					}
				},
				"Label": "$TOPSCORE",
				"HorizontalJustification": "left",
				"VerticalJustification": "top",
				"Font": "BLACK_32_HARDSHADOW",
				"Color": "White"
			}
		},
		{
			"aliases": [
				"RightSideElements"
			],
			"objclass": "HotUIWidgetProperties",
			"objdata": {
				"Name": "RightSideElements",
				"Width": {
					"Value": "325.0"
				},
				"Height": {
					"Value": "100%"
				},
				"Anchor": {
					"AnchorPoint": "right",
					"OffsetX": {
						"Value": "0"
					},
					"OffsetY": {
						"Value": "0"
					}
				},
				"IgnoreMouseInput": true,
				"Children": [
					"RTID(LeaderboardScroll@.)",
					"RTID(LeaderboardHolder@.)",
					"RTID(LeaderboardHeader@.)"
				]
			}
		},
		{
			"aliases": [
				"BackgroundImage"
			],
			"objclass": "HotUIImageProperties",
			"objdata": {
				"Name": "BackgroundImage",
				"Resources": [
					"UI_Joust_Icicles"
				],
				"Width": {
					"Value": "500"
				},
				"Height": {
					"Value": "607"
				},
				"Anchor": {
					"AnchorPoint": "center",
					"OffsetX": {
						"Value": "0"
					},
					"OffsetY": {
						"Value": "140"
					}
				},
				"Image": "IMAGE_UI_JOUST_ICICLE_JOUST_ICICLE",
				"DrawStyle": "stretched"
			}
		},
		{
			"aliases": [
				"MintContainer"
			],
			"objclass": "HotUIWidgetProperties",
			"objdata": {
				"Name": "MintContainer",
				"Width": {
					"Value": "200"
				},
				"Height": {
					"Value": "165"
				},
				"Anchor": {
					"AnchorPoint": "center",
					"OffsetX": {
						"Value": "0"
					},
					"OffsetY": {
						"Value": "-60"
					}
				},
				"IgnoreMouseInput": true,
				"Children": [
					"RTID(MintPlant@.)",
					"RTID(MintPinata@.)",
					"RTID(MintInfoButton@.)"
				]
			}
		},
		{
			"aliases": [
				"MintPlant"
			],
			"objclass": "HotUIAnimProperties",
			"objdata": {
				"Name": "MintPlant",
				"Resources": [
					"$MINTPLANTRESOURCEGROUP"
				],
				"Width": {
					"Value": "content_size"
				},
				"Height": {
					"Value": "content_size"
				},
				"Anchor": {
					"AnchorPoint": "top",
					"OffsetX": {
						"Value": "0.0"
					},
					"OffsetY": {
						"Value": "0.0"
					}
				},
				"PopAnimName": "$MINTPLANTANIMNAME",
				"ScaleOverride": 2.0,
				"InitialAnimationName": "loop",
				"AnimLayersToDisable": [],
				"DrawStyle": "scale_override",
				"IgnoreMouseInput": true
			}
		},
		{
			"aliases": [
				"MintPinata"
			],
			"objclass": "HotUIImageProperties",
			"objdata": {
				"Name": "MintPinata",
				"Resources": [
					"$MINTPINATARESOURCEGROUP"
				],
				"Width": {
					"Value": "content_size"
				},
				"Height": {
					"Value": "content_size"
				},
				"Anchor": {
					"AnchorPoint": "top",
					"OffsetX": {
						"Value": "0"
					},
					"OffsetY": {
						"Value": "-36"
					}
				},
				"Image": "$MINTPINATAIMAGE",
				"ImageScale": 0.7,
				"DrawStyle": "stretched"
			}
		},
		{
			"aliases": [
				"MintInfoButton"
			],
			"objclass": "HotUIButtonProperties",
			"objdata": {
				"Name": "MintInfoButton",
				"Width": {
					"Value": "content_size"
				},
				"Height": {
					"Value": "content_size"
				},
				"Anchor": {
					"AnchorPoint": "top",
					"OffsetX": {
						"Value": "46.0"
					},
					"OffsetY": {
						"Value": "50.0"
					}
				},
				"Label": "i",
				"Font": "Dialog_Button_Label_Font_26",
				"Color": "Dialog_Button_Label_Color",
				"ButtonImageType": "normal",
				"UpImage": "IMAGE_UI_GENERIC_INFO_BUTTON_UP",
				"DownImage": "IMAGE_UI_GENERIC_INFO_BUTTON_DOWN",
				"DownAudio": "Play_UI_Menu_Cancel_Press",
				"UpAudio": "Play_UI_Menu_Cancel_Release",
				"IncludelistID": "JOUST_MINT_INFO_BUTTON"
			}
		},
		{
			"aliases": [
				"ButtonContainer"
			],
			"objclass": "HotUIWidgetProperties",
			"objdata": {
				"Name": "ButtonContainer",
				"Width": {
					"Value": "550"
				},
				"Height": {
					"Value": "100"
				},
				"Anchor": {
					"AnchorPoint": "bottom",
					"OffsetX": {
						"Value": "0"
					},
					"OffsetY": {
						"Value": "-120.0"
					}
				},
				"IgnoreMouseInput": true,
				"Children": [
					"RTID(FreeTicketsButton@.)",
					"RTID(PlayButton@.)",
					"RTID(PlayFreeButton@.)",
					"RTID(HowToPlayButton@.)"
				]
			}
		},
		{
			"aliases": [
				"FreeTicketsButton"
			],
			"objclass": "HotUIButtonProperties",
			"objdata": {
				"Name": "FreeTicketsButton",
				"Width": {
					"Value": "140.0"
				},
				"Height": {
					"Value": "70"
				},
				"Anchor": {
					"AnchorPoint": "bottom",
					"OffsetX": {
						"Value": "-150.0"
					},
					"OffsetY": {
						"Value": "0.0"
					}
				},
				"ButtonImageType": "9slice",
				"UpImage": "IMAGE_UI_GENERIC_BROWNBUTTON",
				"DownImage": "IMAGE_UI_GENERIC_BROWNBUTTON_DOWN",
				"DownAudio": "Play_UI_Menu_Cancel_Press",
				"UpAudio": "Play_UI_Menu_Cancel_Release",
				"IncludelistID": "JOUST_FREE_TICKETS_BUTTON",
				"Children": [
					"RTID(FreeGauntletVideoIcon@.)",
					"RTID(FreeGauntletLabel@.)"
				]
			}
		},
		{
			"aliases": [
				"FreeGauntletLabel"
			],
			"objclass": "HotUILabelProperties",
			"objdata": {
				"Name": "FreeGauntletLabel",
				"Width": {
					"Value": "60%"
				},
				"Height": {
					"Value": "80%"
				},
				"Anchor": {
					"AnchorPoint": "left",
					"OffsetX": {
						"Value": "35%"
					},
					"OffsetY": {
						"Value": "0"
					}
				},
				"Label": "[JOUST_FREE_TICKETS]",
				"Font": "BLACK_28_SHADED",
				"HorizontalJustification": "left",
				"Color": "Dialog_Button_Label_Color"
			}
		},
		{
			"aliases": [
				"FreeGauntletVideoIcon"
			],
			"objclass": "HotUIImageProperties",
			"objdata": {
				"Name": "FreeGauntletVideoIcon",
				"Width": {
					"Value": "25%"
				},
				"Height": {
					"Value": "30"
				},
				"Anchor": {
					"AnchorPoint": "left",
					"OffsetX": {
						"Value": "7%"
					},
					"OffsetY": {
						"Value": "2"
					}
				},
				"Image": "IMAGE_UI_ICON_WATCH_VIDEO",
				"DrawStyle": "stretched_aspectX"
			}
		},
		{
			"aliases": [
				"PlayFreeButton"
			],
			"objclass": "HotUIButtonProperties",
			"objdata": {
				"Name": "PlayFreeButton",
				"Width": {
					"Value": "160"
				},
				"Height": {
					"Value": "90"
				},
				"Anchor": {
					"AnchorPoint": "bottom",
					"OffsetX": {
						"Value": "0.0"
					},
					"OffsetY": {
						"Value": "10.0"
					}
				},
				"Label": "[JOUST_FREE_PLAY]",
				"Font": "BLACK_38_HARDSHADOW",
				"Color": "Dialog_Button_Label_Color",
				"ButtonImageType": "9slice",
				"UpImage": "IMAGE_UI_GENERIC_PURPLEBUTTON",
				"DownImage": "IMAGE_UI_GENERIC_PURPLEBUTTON_DOWN",
				"DownAudio": "Play_UI_Dashboard_Play_Press",
				"UpAudio": "Play_UI_Dashboard_Play_Release",
				"IncludelistID": "JOUST_PLAY_BUTTON"
			}
		},
		{
			"aliases": [
				"PlayButton"
			],
			"objclass": "HotUIButtonProperties",
			"objdata": {
				"Name": "PlayButton",
				"Width": {
					"Value": "160"
				},
				"Height": {
					"Value": "90"
				},
				"Anchor": {
					"AnchorPoint": "bottom",
					"OffsetX": {
						"Value": "0.0"
					},
					"OffsetY": {
						"Value": "10.0"
					}
				},
				"Label": "",
				"Font": "BLACK_32_SHADED",
				"Color": "Dialog_Button_Label_Color",
				"ButtonImageType": "9slice",
				"UpImage": "IMAGE_UI_GENERIC_PURPLEBUTTON",
				"DownImage": "IMAGE_UI_GENERIC_PURPLEBUTTON_DOWN",
				"DownAudio": "Play_UI_Dashboard_Play_Press",
				"UpAudio": "Play_UI_Dashboard_Play_Release",
				"IncludelistID": "JOUST_PLAY_BUTTON",
				"Children": [
					"RTID(PlayGauntletIcon@.)",
					"RTID(PlayGauntletCost@.)",
					"RTID(PlayText@.)",
					"RTID(FreePlayTimer@.)"
				]
			}
		},
		{
			"aliases": [
				"PlayText"
			],
			"objclass": "HotUILabelProperties",
			"objdata": {
				"Name": "PlayText",
				"Width": {
					"Value": "55%"
				},
				"Height": {
					"Value": "75%"
				},
				"Anchor": {
					"AnchorPoint": "left",
					"OffsetX": {
						"Value": "42%"
					},
					"OffsetY": {
						"Value": "0%"
					}
				},
				"Label": "[JOUST_PLAY]",
				"HorizontalJustification": "center",
				"VerticalJustification": "top",
				"Font": "BLACK_38_HARDSHADOW",
				"Color": "White"
			}
		},
		{
			"aliases": [
				"PlayGauntletIcon"
			],
			"objclass": "HotUIImageProperties",
			"objdata": {
				"Name": "PlayGauntletIcon",
				"Resources": [
					"UI_Joust"
				],
				"Width": {
					"Value": "35%"
				},
				"Height": {
					"Value": "35%"
				},
				"Anchor": {
					"AnchorPoint": "left",
					"OffsetX": {
						"Value": "5%"
					},
					"OffsetY": {
						"Value": "-10"
					}
				},
				"Image": "IMAGE_UI_JOUST_ICONS_GAUNTLETS_GAUNTLET",
				"DrawStyle": "stretched_aspectX"
			}
		},
		{
			"aliases": [
				"PlayGauntletCost"
			],
			"objclass": "HotUILabelProperties",
			"objdata": {
				"Name": "PlayGauntletCost",
				"Width": {
					"Value": "20"
				},
				"Height": {
					"Value": "40"
				},
				"Anchor": {
					"AnchorPoint": "left",
					"OffsetX": {
						"Value": "45.0"
					},
					"OffsetY": {
						"Value": "0.0"
					}
				},
				"Label": "x1",
				"HorizontalJustification": "center",
				"VerticalJustification": "center",
				"Font": "BLACK_32_HARDSHADOW",
				"Color": "White"
			}
		},
		{
			"aliases": [
				"FreePlayTimer"
			],
			"objclass": "HotUILabelProperties",
			"objdata": {
				"Name": "FreePlayTimer",
				"Width": {
					"Value": "90%"
				},
				"Height": {
					"Value": "40%"
				},
				"Anchor": {
					"AnchorPoint": "bottom",
					"OffsetX": {
						"Value": "0.0"
					},
					"OffsetY": {
						"Value": "0.0"
					}
				},
				"Label": "[JOUST_FREE_PLAY_TIMER]",
				"HorizontalJustification": "center",
				"VerticalJustification": "center",
				"Font": "BLACK_19_HARDSHADOW",
				"Color": "White"
			}
		},
		{
			"aliases": [
				"HowToPlayButton"
			],
			"objclass": "HotUIButtonProperties",
			"objdata": {
				"Name": "HowToPlayButton",
				"Width": {
					"Value": "140.0"
				},
				"Height": {
					"Value": "70"
				},
				"Anchor": {
					"AnchorPoint": "bottom",
					"OffsetX": {
						"Value": "150.0"
					},
					"OffsetY": {
						"Value": "0.0"
					}
				},
				"Children": [
					"RTID(HowToPlayText@.)"
				],
				"ButtonImageType": "9slice",
				"UpImage": "IMAGE_UI_GENERIC_BROWNBUTTON",
				"DownImage": "IMAGE_UI_GENERIC_BROWNBUTTON_DOWN",
				"DownAudio": "Play_UI_Menu_Cancel_Press",
				"UpAudio": "Play_UI_Menu_Cancel_Release",
				"IncludelistID": "JOUST_HOW_TO_PLAY_BUTTON"
			}
		},
		{
			"aliases": [
				"HowToPlayText"
			],
			"objclass": "HotUILabelProperties",
			"objdata": {
				"Name": "HowToPlayText",
				"Width": {
					"Value": "80%"
				},
				"Height": {
					"Value": "80%"
				},
				"Anchor": {
					"AnchorPoint": "center",
					"OffsetX": {
						"Value": "0.0"
					},
					"OffsetY": {
						"Value": "0.0"
					}
				},
				"Label": "[JOUST_HOW_TO_PLAY]",
				"HorizontalJustification": "center",
				"VerticalJustification": "center",
				"Font": "Dialog_Button_Label_Font_26",
				"Color": "Dialog_Button_Label_Color"
			}
		},
		{
			"aliases": [
				"WinStreakHolder"
			],
			"objclass": "HotUIPrefabProperties",
			"objdata": {
				"Name": "WinStreakHolder",
				"Width": {
					"Value": "600"
				},
				"Height": {
					"Value": "90"
				},
				"Anchor": {
					"AnchorPoint": "bottom",
					"OffsetX": {
						"Value": "0.0"
					},
					"OffsetY": {
						"Value": "-10"
					}
				},
				"IgnoreMouseInput": true,
				"Children": [],
				"UIFileName": "JoustWinStreakDisplay",
				"AdaptorClassName": "AdaptorJoustWinStreakDisplay"
			}
		},
		{
			"aliases": [
				"LeaderboardHolder"
			],
			"objclass": "HotUIWidgetProperties",
			"objdata": {
				"Name": "LeaderboardHolder",
				"Width": {
					"Value": "200.0"
				},
				"Height": {
					"Value": "438"
				},
				"Anchor": {
					"AnchorPoint": "bottom",
					"ParentAnchorPoint": "bottom",
					"OffsetX": {
						"Value": "1"
					},
					"OffsetY": {
						"Value": "10"
					}
				}
			}
		},
		{
			"aliases": [
				"LeaderboardScroll"
			],
			"objclass": "HotUIImageProperties",
			"objdata": {
				"Name": "LeaderboardScroll",
				"Width": {
					"Value": "295.0"
				},
				"Height": {
					"Value": "455"
				},
				"Anchor": {
					"AnchorPoint": "bottom",
					"ParentAnchorPoint": "bottom",
					"OffsetX": {
						"Value": "0"
					},
					"OffsetY": {
						"Value": "10"
					}
				},
				"Resources": [
					"UI_Joust_Leaderboard"
				],
				"Image": "IMAGE_UI_JOUST_LEADERBOARD_LEADERBOARD_SCROLL_MID",
				"DrawType": "3slice_horizontal",
				"DrawStyle": "stretched",
				"Children": []
			}
		},
		{
			"aliases": [
				"LeaderboardHeader"
			],
			"objclass": "HotUIImageProperties",
			"objdata": {
				"Name": "LeaderboardHeader",
				"Width": {
					"Value": "315.0"
				},
				"Height": {
					"Value": "120.0"
				},
				"Anchor": {
					"AnchorPoint": "bottom",
					"ParentAnchorPoint": "bottom",
					"OffsetX": {
						"Value": "0"
					},
					"OffsetY": {
						"Value": "-386.0"
					}
				},
				"IgnoreMouseInput": true,
				"Resources": [
					"UI_Joust_Leaderboard"
				],
				"Image": "IMAGE_UI_JOUST_LEADERBOARD_LEADERBOARD_SCROLL_TOP",
				"DrawType": "normal",
				"DrawStyle": "stretched_aspectX",
				"Children": [
					"RTID(LeaderboardHeaderLabel@.)",
					"RTID(LeaderboardTimeRemainingLabel@.)",
					"RTID(LeagueIcon@.)",
					"RTID(LeagueInfoButton@.)"
				]
			}
		},
		{
			"aliases": [
				"LeagueIcon"
			],
			"objclass": "HotUIImageProperties",
			"objdata": {
				"Name": "LeagueIcon",
				"Resources": [
					"UI_Leagues"
				],
				"Width": {
					"Value": "42"
				},
				"Height": {
					"Value": "80"
				},
				"Anchor": {
					"AnchorPoint": "left",
					"OffsetX": {
						"Value": "43"
					},
					"OffsetY": {
						"Value": "-25"
					}
				},
				"Image": "$LEAGUEICON",
				"DrawStyle": "stretched_aspectX"
			}
		},
		{
			"aliases": [
				"LeaderboardHeaderLabel"
			],
			"objclass": "HotUILabelProperties",
			"objdata": {
				"Name": "LeaderboardHeaderLabel",
				"Width": {
					"Value": "185"
				},
				"Height": {
					"Value": "42"
				},
				"Anchor": {
					"AnchorPoint": "top",
					"ParentAnchorPoint": "top",
					"OffsetX": {
						"Value": "20.0"
					},
					"OffsetY": {
						"Value": "15.0"
					}
				},
				"Label": "Leaderboard",
				"HorizontalJustification": "center",
				"VerticalJustification": "center",
				"Font": "BLACK_38_HARDSHADOW",
				"Color": "Dialog_Header_Yellow"
			}
		},
		{
			"aliases": [
				"LeaderboardTimeRemainingLabel"
			],
			"objclass": "HotUILabelProperties",
			"objdata": {
				"Name": "LeaderboardTimeRemainingLabel",
				"Width": {
					"Value": "180"
				},
				"Height": {
					"Value": "25"
				},
				"Anchor": {
					"AnchorPoint": "top",
					"ParentAnchorPoint": "top",
					"OffsetX": {
						"Value": "20.0"
					},
					"OffsetY": {
						"Value": "57.0"
					}
				},
				"Label": "TimeRemaining",
				"HorizontalJustification": "center",
				"VerticalJustification": "center",
				"Font": "BLACK_32_HARDSHADOW",
				"Color": "White"
			}
		},
		{
			"aliases": [
				"LeagueInfoButton"
			],
			"objclass": "HotUIButtonProperties",
			"objdata": {
				"Name": "LeagueInfoButton",
				"Width": {
					"Value": "content_size"
				},
				"Height": {
					"Value": "content_size"
				},
				"Anchor": {
					"AnchorPoint": "right",
					"OffsetX": {
						"Value": "-15.0"
					},
					"OffsetY": {
						"Value": "-10.0"
					}
				},
				"Label": "i",
				"Font": "Dialog_Button_Label_Font_26",
				"Color": "Dialog_Button_Label_Color",
				"ButtonImageType": "normal",
				"UpImage": "IMAGE_UI_GENERIC_INFO_BUTTON_UP",
				"DownImage": "IMAGE_UI_GENERIC_INFO_BUTTON_DOWN",
				"DownAudio": "Play_UI_Menu_Cancel_Press",
				"UpAudio": "Play_UI_Menu_Cancel_Release",
				"IncludelistID": "JOUST_HOW_TO_PLAY_BUTTON"
			}
		},
		{
			"aliases": [
				"JoustSeasonsBadge"
			],
			"objclass": "HotUIWidgetProperties",
			"objdata": {
				"Name": "JoustSeasonsBadge",
				"Width": {
					"Value": "150"
				},
				"Height": {
					"Value": "150"
				},
				"Anchor": {
					"AnchorPoint": "topleft",
					"ParentAnchorPoint": "topleft",
					"OffsetX": {
						"Value": "25.0"
					},
					"OffsetY": {
						"Value": "130.0"
					}
				},
				"IgnoreMouseInput": true,
				"Children": [
					"RTID(SeasonsShieldImage@.)",
					"RTID(SeasonInfoBackground@.)",
					"RTID(InfoBadge@.)",
					"RTID(JoustSeasonsButton@.)"
				]
			}
		},
		{
			"aliases": [
				"JoustSeasonsButton"
			],
			"objclass": "HotUIButtonProperties",
			"objdata": {
				"Name": "JoustSeasonsButton",
				"Width": {
					"Value": "100%"
				},
				"Height": {
					"Value": "100%"
				},
				"Anchor": {
					"AnchorPoint": "center",
					"ParentAnchorPoint": "center"
				},
				"ButtonImageType": "stretched",
				"UpImage": "IMAGE_UI_GENERIC_BROWNBUTTON",
				"DownImage": "IMAGE_UI_GENERIC_BROWNBUTTON_DOWN",
				"DownAudio": "Play_UI_Menu_Cancel_Press",
				"UpAudio": "Play_UI_Menu_Cancel_Release",
				"IncludelistID": "JOUST_SHOW_SEASONS_POPUP_BUTTON",
				"HideButtonImages": true,
				"ChildrenGlowOnPress": [
					"RTID(SeasonsShieldImage@.)",
					"RTID(SeasonInfoBackground@.)"
				]
			}
		},
		{
			"aliases": [
				"SeasonsShieldImage"
			],
			"objclass": "HotUIImageProperties",
			"objdata": {
				"Name": "SeasonsShieldImage",
				"Resources": [
					"UI_Seasons_Shield"
				],
				"IgnoreMouseInput": true,
				"Width": {
					"Value": "100%"
				},
				"Height": {
					"Value": "50%"
				},
				"Anchor": {
					"AnchorPoint": "top",
					"ParentAnchorPoint": "top"
				},
				"Image": "IMAGE_UI_SEASONS_SHIELD_PVZ2_SEASONS_UIASSET_TITLE_SHIELD",
				"DrawStyle": "stretched_aspectX",
				"Children": [
					"RTID(FeaturedPlantImage@.)"
				]
			}
		},
		{
			"aliases": [
				"FeaturedPlantImage"
			],
			"objclass": "HotUIPlantAnimProperties",
			"objdata": {
				"Name": "FeaturedPlantImage",
				"Width": {
					"Value": "60%"
				},
				"Height": {
					"Value": "75%"
				},
				"Anchor": {
					"AnchorPoint": "top",
					"ParentAnchorPoint": "top",
					"OffsetX": {
						"Value": "-2"
					},
					"OffsetY": {
						"Value": "0"
					}
				},
				"DrawStyle": "scale_override",
				"ScaleOverride": 1.0,
				"PlayStyle": "fixed",
				"IgnoreMouseInput": true
			}
		},
		{
			"aliases": [
				"InfoBadge"
			],
			"objclass": "HotUIButtonProperties",
			"objdata": {
				"Name": "InfoBadge",
				"IgnoreMouseInput": true,
				"Width": {
					"Value": "content_size"
				},
				"Height": {
					"Value": "content_size"
				},
				"Anchor": {
					"AnchorPoint": "right",
					"OffsetX": {
						"Value": "8.0"
					},
					"OffsetY": {
						"Value": "17.0"
					}
				},
				"Label": "i",
				"Font": "Dialog_Button_Label_Font_26",
				"Color": "Dialog_Button_Label_Color",
				"ButtonImageType": "normal",
				"UpImage": "IMAGE_UI_GENERIC_INFO_BUTTON_UP",
				"DownImage": "IMAGE_UI_GENERIC_INFO_BUTTON_DOWN",
				"DownAudio": "Play_UI_Menu_Cancel_Press",
				"UpAudio": "Play_UI_Menu_Cancel_Release",
				"IncludelistID": "JOUST_MINT_INFO_BUTTON"
			}
		},
		{
			"aliases": [
				"SeasonInfoBackground"
			],
			"objclass": "HotUIImageProperties",
			"objdata": {
				"Name": "SeasonInfoBackground",
				"IgnoreMouseInput": true,
				"Width": {
					"Value": "100%"
				},
				"Height": {
					"Value": "100.0"
				},
				"Anchor": {
					"AnchorPoint": "bottom",
					"ParentAnchorPoint": "bottom",
					"OffsetX": {
						"Value": "0.0f"
					},
					"OffsetY": {
						"Value": "0.0f"
					}
				},
				"Children": [
					"RTID(SeasonNameLabel@.)",
					"RTID(SeasonTimerLabel@.)",
					"RTID(SeasonTimer@.)"
				],
				"Resources": [
					"UI_Seasons_Shield"
				],
				"Image": "IMAGE_UI_SEASONS_SHIELD_PVZ2_SEASONS_UIASSET_TITLE_TAB",
				"DrawStyle": "stretched",
				"DrawType": "9slice"
			}
		},
		{
			"aliases": [
				"SeasonNameLabel"
			],
			"objclass": "HotUILabelProperties",
			"objdata": {
				"Name": "SeasonNameLabel",
				"IgnoreMouseInput": true,
				"Width": {
					"Value": "85%"
				},
				"Height": {
					"Value": "45"
				},
				"Anchor": {
					"AnchorPoint": "top",
					"OffsetX": {
						"Value": "-2"
					},
					"OffsetY": {
						"Value": "2"
					}
				},
				"Label": "[SEASON_CURRENT_NAME]",
				"HorizontalJustification": "center",
				"VerticalJustification": "center",
				"Font": "BLACK_19_OUTLINE",
				"Color": "White"
			}
		},
		{
			"aliases": [
				"SeasonTimerLabel"
			],
			"objclass": "HotUILabelProperties",
			"objdata": {
				"Name": "SeasonTimerLabel",
				"IgnoreMouseInput": true,
				"Width": {
					"Value": "60%"
				},
				"Height": {
					"Value": "25"
				},
				"Anchor": {
					"AnchorPoint": "bottom",
					"OffsetX": {
						"Value": "-1"
					}
				},
				"Label": "[SEASON_TIME_LEFT_LABEL]",
				"HorizontalJustification": "center",
				"VerticalJustification": "center",
				"Font": "BLACK_22",
				"Color": "Black"
			}
		},
		{
			"aliases": [
				"SeasonTimer"
			],
			"objclass": "HotUILabelProperties",
			"objdata": {
				"Name": "SeasonTimer",
				"IgnoreMouseInput": true,
				"Width": {
					"Value": "60%"
				},
				"Height": {
					"Value": "28"
				},
				"Anchor": {
					"AnchorPoint": "center",
					"OffsetY": {
						"Value": "10.0"
					},
					"OffsetX": {
						"Value": "-1.0"
					}
				},
				"Label": "[SEASON_TIMER_COUNTDOWN]",
				"HorizontalJustification": "center",
				"VerticalJustification": "center",
				"Font": "BLACK_32_OUTLINE",
				"Color": "White"
			}
		},
		{
			"aliases": [
				"TestRiftFunctionality"
			],
			"objclass": "HotUIPrefabProperties",
			"objdata": {
				"Name": "TestRiftFunctionality",
				"Width": {
					"Value": "600"
				},
				"Height": {
					"Value": "90"
				},
				"Anchor": {
					"AnchorPoint": "bottom",
					"OffsetX": {
						"Value": "0.0"
					},
					"OffsetY": {
						"Value": "-10"
					}
				},
				"IgnoreMouseInput": true,
				"Children": [],
				"AdaptorClassName": "AdaptorRiftScreen"
			}
		}
	]
}