{
	"version": 1,
	"objects": [
		{
			"aliases": [
				"MultiPurchaseItemEntry"
			],
			"objclass": "HotUIWidgetProperties",
			"objdata": {
				"EntryPoint": true,
				"Name": "MultiPurchaseItemEntry",
				"Width": {
					"Value": "130"
				},
				"Height": {
					"Value": "120"
				},
				"Anchor": {
					"AnchorPoint": "center"
				},
				"IgnoreMouseInput": false,
				"Children": [
					"RTID(ItemImage@.)",
					"RTID(ItemSeedPacket@.)",
					"RTID(ItemPlantAnim@.)",
					"RTID(ItemAmountText@.)",
					"RTID(ItemPinataAmountBar@.)",
					"RTID(GuaranteedBackground@.)"
				]
			}
		},
		{
			"aliases": [
				"GuaranteedBackground"
			],
			"objclass": "HotUIImageProperties",
			"objdata": {
				"Name": "GuaranteedBackground",
				"Width": {
					"Value": "90%"
				},
				"Height": {
					"Value": "20"
				},
				"Anchor": {
					"AnchorPoint": "top",
					"ParentAnchorPoint": "top",
					"OffsetX": {
						"Value": "0"
					},
					"OffsetY": {
						"Value": "2"
					}
				},
				"Image": "IMAGE_UI_GENERIC_GUARANTEED_BG",
				"DrawStyle": "3slice_horizontal",
				"Children": [
					"RTID(GuaranteedLabel@.)"
				]
			}
		},
		{
			"aliases": [
				"GuaranteedLabel"
			],
			"objclass": "HotUILabelProperties",
			"objdata": {
				"Name": "GuaranteedLabel",
				"Width": {
					"Value": "100%"
				},
				"Height": {
					"Value": "20"
				},
				"Anchor": {
					"AnchorPoint": "center"
				},
				"Label": "[STORE_MULTI_GUARANTEED]",
				"HorizontalJustification": "center",
				"VerticalJustification": "center",
				"Font": "BLACK_24",
				"Color": "White"
			}
		},
		{
			"aliases": [
				"ItemImage"
			],
			"objclass": "HotUIImageProperties",
			"objdata": {
				"Name": "ItemImage",
				"Width": {
					"Value": "90"
				},
				"Height": {
					"Value": "92"
				},
				"Anchor": {
					"AnchorPoint": "topcenter",
					"ParentAnchorPoint": "topcenter",
					"OffsetX": {
						"Value": "24"
					},
					"OffsetY": {
						"Value": "22"
					}
				},
				"Padding": {
					"Left": {
						"Value": "10.0"
					},
					"Top": {
						"Value": "0.0"
					},
					"Right": {
						"Value": "10.0"
					},
					"Bottom": {
						"Value": "0.0"
					}
				},
				"Image": "$ITEMIMAGE",
				"DrawStyle": "stretched_aspectBoth"
			}
		},
		{
			"aliases": [
				"ItemSeedPacket"
			],
			"objclass": "HotUISeedPacketProperties",
			"objdata": {
				"Name": "ItemSeedPacket",
				"Width": {
					"Value": "76%"
				},
				"Height": {
					"Value": "100"
				},
				"Resources": [],
				"Anchor": {
					"AnchorPoint": "topcenter",
					"ParentAnchorPoint": "topcenter",
					"OffsetX": {
						"Value": "12%"
					},
					"OffsetY": {
						"Value": "33"
					}
				},
				"PacketConfig": {
					"PlantType": "$ITEMSEEDPACKET"
				}
			}
		},
		{
			"aliases": [
				"ItemPlantAnim"
			],
			"objclass": "HotUIPlantAnimProperties",
			"objdata": {
				"Name": "ItemPlantAnim",
				"Width": {
					"Value": "86%"
				},
				"Height": {
					"Value": "100"
				},
				"Resources": [],
				"Anchor": {
					"AnchorPoint": "topcenter",
					"ParentAnchorPoint": "topcenter",
					"OffsetX": {
						"Value": "15"
					},
					"OffsetY": {
						"Value": "16"
					}
				},
				"ScaleOverride": 1.25,
				"DrawStyle": "scale_override",
				"PlantConfig": {
					"PlantType": "$ITEMANIMPLANTTYPE",
					"CostumeLayer": "$ITEMANIMCOSTUMETYPE"
				}
			}
		},
		{
			"aliases": [
				"ItemAmountText"
			],
			"objclass": "HotUILabelProperties",
			"objdata": {
				"Name": "ItemAmountText",
				"Width": {
					"Value": "110"
				},
				"Height": {
					"Value": "50"
				},
				"Anchor": {
					"AnchorPoint": "bottom",
					"ParentAnchorPoint": "bottom",
					"OffsetX": {
						"Value": "20"
					},
					"OffsetY": {
						"Value": "-2"
					}
				},
				"Label": "$DESCRIPTION",
				"HorizontalJustification": "center",
				"VerticalJustification": "center",
				"Font": "BLACK_22_HARDSHADOW",
				"Color": "White"
			}
		},
		{
			"aliases": [
				"ItemPinataAmountBar"
			],
			"objclass": "HotUIImageProperties",
			"objdata": {
				"Name": "ItemPinataAmountBar",
				"Width": {
					"Value": "64%"
				},
				"Height": {
					"Value": "32"
				},
				"Anchor": {
					"AnchorPoint": "bottom",
					"ParentAnchorPoint": "bottom",
					"OffsetY": {
						"Value": "11"
					}
				},
				"Children": [
					"RTID(ItemPinataAmountText@.)",
					"RTID(ItemPinataPacketIcon@.)"
				],
				"Image": "IMAGE_UI_GENERIC_COUNTER_BG",
				"DrawType": "3slice_horizontal",
				"DrawStyle": "normal",
				"Color": "HalfTransparent"
			}
		},
		{
			"aliases": [
				"ItemPinataAmountText"
			],
			"objclass": "HotUILabelProperties",
			"objdata": {
				"Name": "ItemPinataAmountText",
				"Width": {
					"Value": "100%"
				},
				"Height": {
					"Value": "32"
				},
				"Anchor": {
					"AnchorPoint": "center",
					"ParentAnchorPoint": "center",
					"OffsetX": {
						"Value": "14%"
					},
					"OffsetY": {
						"Value": "-2"
					}
				},
				"Label": "$PINATAAMOUNT",
				"HorizontalJustification": "center",
				"VerticalJustification": "center",
				"Font": "BLACK_22_HARDSHADOW",
				"Color": "White"
			}
		},
		{
			"aliases": [
				"ItemPinataPacketIcon"
			],
			"objclass": "HotUIImageProperties",
			"objdata": {
				"Name": "ItemPinataPacketIcon",
				"Width": {
					"Value": "content_size"
				},
				"Height": {
					"Value": "content_size"
				},
				"Anchor": {
					"AnchorPoint": "topleft",
					"ParentAnchorPoint": "topleft",
					"OffsetY": {
						"Value": "-2"
					}
				},
				"Image": "IMAGE_UI_STOREMULTI_SEEDPACKETMINIICON",
				"DrawType": "normal",
				"DrawStyle": "normal",
				"Color": "HalfTransparent"
			}
		}
	]
}