{
	"#comment": "Dark 6",
	"objects": [ {
			"objclass": "LevelDefinition",
			"objdata": {
				"Description": "[PLAYERS_TRIP_TO_RIFT]",
				"FirstRewardParam": "sunbean",
				"FirstRewardType": "unlock_plant",
				"LevelMutator": "RTID(LevelMutator@CurrentLevel)",
				"LevelNumber": 6,
				"Loot": "RTID(DefaultLoot@LevelModules)",
				"Modules": [ "RTID(ZombiesDeadWinCon@LevelModules)", "RTID(DarkMowers@LevelModules)", "RTID(Gravestones@CurrentLevel)", "RTID(SeedBank@CurrentLevel)", "RTID(LastStand@CurrentLevel)", "RTID(DefaultZombieWinCondition@LevelModules)", "RTID(NewWaves@CurrentLevel)", "RTID(PerkActivator@CurrentLevel)", "RTID(LevelDifficultyScaling@CurrentLevel)" ],
				"MusicType": "MiniGame_A",
				"Name": "[RIFT_LEVEL_NAME]",
				"NormalPresentTable": "egypt_normal_01",
				"PerksDisabledInLevel": [ "moarscore", "bossbustercannon", "quickdelivery", "zombieinhibitorballista", "zombieinhibitorgargantuar" ],
				"PerksDisabledPerDifficulty": [ [], [], [] ],
				"ShinyPresentTable": "egypt_shiny_01",
				"StageModule": "RTID(DarkStage@LevelModules)",
				"VictoryModule": "RTID(RiftOutro@LevelModules)"
			}
		}, {
			"aliases": [ "LastStand" ],
			"objclass": "LastStandMinigameProperties",
			"objdata": {
				"PreSeedchooserFlow": "rift",
				"StartingPlantfood": 4,
				"StartingSun": 2000
			}
		}, {
			"aliases": [ "BeatTheLevel" ],
			"objclass": "StarChallengeBeatTheLevelProps",
			"objdata": {
				"Description": "[STARCHALLENGE_LASTSTAND_MINIGAME]",
				"DescriptiveName": "[STARCHALLENGE_LASTSTAND_MINIGAME_NAME]"
			}
		}, {
			"aliases": [ "Gravestones" ],
			"objclass": "GravestoneProperties",
			"objdata": {
				"ForceSpawnData": [ {
						"GridX": 7,
						"GridY": 0,
						"TypeName": "gravestone_dark"
					}, {
						"GridX": 2,
						"GridY": 0,
						"TypeName": "gravestone_dark"
					}, {
						"GridX": 4,
						"GridY": 0,
						"TypeName": "gravestone_dark"
					}, {
						"GridX": 6,
						"GridY": 1,
						"TypeName": "gravestone_dark"
					}, {
						"GridX": 3,
						"GridY": 2,
						"TypeName": "gravestone_dark"
					}, {
						"GridX": 5,
						"GridY": 2,
						"TypeName": "gravestone_dark"
					}, {
						"GridX": 6,
						"GridY": 3,
						"TypeName": "gravestone_dark"
					}, {
						"GridX": 2,
						"GridY": 3,
						"TypeName": "gravestone_dark"
					}, {
						"GridX": 7,
						"GridY": 4,
						"TypeName": "gravestone_dark"
					}, {
						"GridX": 4,
						"GridY": 4,
						"TypeName": "gravestone_dark"
					} ]
			}
		}, {
			"aliases": [ "SeedBank" ],
			"objclass": "SeedBankProperties",
			"objdata": {
				"ExcludeListSunProducers": "true",
				"PlantExcludeList": [ "puffshroom", "iceburg", "gravebuster", "toadstool", "goldleaf", "stallia" ],
				"SelectionMethod": "chooser"
			}
		}, {
			"aliases": [ "NewWaves" ],
			"objclass": "WaveManagerModuleProperties",
			"objdata": {
				"ManualStartup": true,
				"DynamicZombies": [ {
						"PointIncrementPerWave": 0,
						"StartingPoints": 0,
						"StartingWave": 0,
						"ZombiePool": []
					}, {
						"PointIncrementPerWave": 0,
						"StartingPoints": 0,
						"StartingWave": 0,
						"ZombiePool": []
					}, {
						"PointIncrementPerWave": 0,
						"StartingPoints": 0,
						"StartingWave": 0,
						"ZombiePool": []
					}, {
						"MaxPoints": 1000,
						"PointIncrementPerWave": 20,
						"StartingPoints": 100,
						"StartingWave": 3,
						"ZombiePool": [ "RTID(dark@ZombieTypes)", "RTID(dark_armor1@ZombieTypes)", "RTID(dark_armor2@ZombieTypes)" ]
					}, {
						"PointIncrementPerWave": 0,
						"StartingPoints": 0,
						"StartingWave": 0,
						"ZombiePool": []
					}, {
						"PointIncrementPerWave": 0,
						"StartingPoints": 0,
						"StartingWave": 0,
						"ZombiePool": []
					}, {
						"PointIncrementPerWave": 0,
						"StartingPoints": 0,
						"StartingWave": 0,
						"ZombiePool": []
					} ],
				"WaveManagerProps": "RTID(WaveManagerProps@CurrentLevel)"
			}
		}, {
			"aliases": [ "WaveManagerProps" ],
			"objclass": "WaveManagerProperties",
			"objdata": {
				"FlagWaveInterval": 10,
				"WaveCount": 10,
				"WaveSpendingPointIncrement": 50,
				"WaveSpendingPoints": 800,
				"Waves": [ [ "RTID(Wave1@CurrentLevel)" ], [ "RTID(Wave2@CurrentLevel)", "RTID(Wave2GraveSpawnEvent0@CurrentLevel)" ], [ "RTID(Wave3@CurrentLevel)" ], [ "RTID(Wave4@CurrentLevel)", "RTID(Wave4GravestoneEvent0@CurrentLevel)" ], [ "RTID(Wave5@CurrentLevel)", "RTID(Wave5GraveSpawnEvent0@CurrentLevel)" ], [ "RTID(Wave6@CurrentLevel)" ], [ "RTID(Wave7@CurrentLevel)" ], [ "RTID(Wave8@CurrentLevel)", "RTID(Wave8GravestoneEvent0@CurrentLevel)" ], [ "RTID(Wave9@CurrentLevel)", "RTID(Wave9GraveSpawnEvent0@CurrentLevel)" ], [ "RTID(Wave10@CurrentLevel)" ] ]
			}
		}, {
			"aliases": [ "Wave1" ],
			"objclass": "SpawnZombiesJitteredWaveActionProps",
			"objdata": {
				"AdditionalPlantfood": 0,
				"Zombies": [ {
						"Row": "1",
						"Type": "RTID(dark_armor1@ZombieTypes)"
					}, {
						"Row": "5",
						"Type": "RTID(dark_armor1@ZombieTypes)"
					}, {
						"Row": "3",
						"Type": "RTID(dark_armor1@ZombieTypes)"
					}, {
						"Row": "4",
						"Type": "RTID(dark@ZombieTypes)"
					}, {
						"Row": "2",
						"Type": "RTID(dark@ZombieTypes)"
					} ]
			}
		}, {
			"aliases": [ "Wave2" ],
			"objclass": "SpawnZombiesJitteredWaveActionProps",
			"objdata": {
				"AdditionalPlantfood": 0,
				"Zombies": [ {
						"Row": "2",
						"Type": "RTID(dark_juggler@ZombieTypes)"
					}, {
						"Row": "4",
						"Type": "RTID(dark_juggler@ZombieTypes)"
					} ]
			}
		}, {
			"aliases": [ "Wave3" ],
			"objclass": "SpawnZombiesJitteredWaveActionProps",
			"objdata": {
				"Zombies": [ {
						"Row": "1",
						"Type": "RTID(dark_armor2@ZombieTypes)"
					}, {
						"Type": "RTID(dark_armor1@ZombieTypes)"
					}, {
						"Row": "5",
						"Type": "RTID(dark_armor2@ZombieTypes)"
					} ]
			}
		}, {
			"aliases": [ "Wave4" ],
			"objclass": "SpawnZombiesJitteredWaveActionProps",
			"objdata": {
				"Zombies": [ {
						"Type": "RTID(dark_armor1@ZombieTypes)"
					}, {
						"Type": "RTID(dark_armor1@ZombieTypes)"
					}, {
						"Type": "RTID(dark_armor1@ZombieTypes)"
					}, {
						"Type": "RTID(dark_armor1@ZombieTypes)"
					} ]
			}
		}, {
			"aliases": [ "Wave5" ],
			"objclass": "SpawnZombiesJitteredWaveActionProps",
			"objdata": {
				"Zombies": [ {
						"Type": "RTID(dark_armor2@ZombieTypes)"
					} ]
			}
		}, {
			"aliases": [ "Wave6" ],
			"objclass": "SpawnZombiesJitteredWaveActionProps",
			"objdata": {
				"AdditionalPlantfood": 0,
				"Zombies": [ {
						"Type": "RTID(dark@ZombieTypes)"
					}, {
						"Type": "RTID(dark@ZombieTypes)"
					}, {
						"Type": "RTID(dark@ZombieTypes)"
					}, {
						"Type": "RTID(dark_armor2@ZombieTypes)"
					}, {
						"Type": "RTID(dark_armor2@ZombieTypes)"
					} ]
			}
		}, {
			"aliases": [ "Wave7" ],
			"objclass": "SpawnZombiesJitteredWaveActionProps",
			"objdata": {
				"AdditionalPlantfood": 0,
				"Zombies": [ {
						"Row": "2",
						"Type": "RTID(dark_armor2@ZombieTypes)"
					}, {
						"Type": "RTID(dark_armor1@ZombieTypes)"
					}, {
						"Row": "4",
						"Type": "RTID(dark_armor2@ZombieTypes)"
					}, {
						"Type": "RTID(dark_armor1@ZombieTypes)"
					} ]
			}
		}, {
			"aliases": [ "Wave8" ],
			"objclass": "SpawnZombiesJitteredWaveActionProps",
			"objdata": {
				"AdditionalPlantfood": 0,
				"Zombies": [ {
						"Row": "1",
						"Type": "RTID(dark_juggler@ZombieTypes)"
					}, {
						"Row": "5",
						"Type": "RTID(dark_juggler@ZombieTypes)"
					}, {
						"Row": "3",
						"Type": "RTID(dark_juggler@ZombieTypes)"
					}, {
						"Row": "2",
						"Type": "RTID(dark_armor1@ZombieTypes)"
					}, {
						"Row": "4",
						"Type": "RTID(dark_armor1@ZombieTypes)"
					} ]
			}
		}, {
			"aliases": [ "Wave9" ],
			"objclass": "SpawnZombiesJitteredWaveActionProps",
			"objdata": {
				"AdditionalPlantfood": 0,
				"Zombies": [ {
						"Type": "RTID(dark_armor1@ZombieTypes)"
					}, {
						"Type": "RTID(dark_armor1@ZombieTypes)"
					} ]
			}
		}, {
			"aliases": [ "Wave10" ],
			"objclass": "SpawnZombiesJitteredWaveActionProps",
			"objdata": {
				"Zombies": [ {
						"Row": "3",
						"Type": "RTID(dark_armor2@ZombieTypes)"
					}, {
						"Row": "2",
						"Type": "RTID(dark_armor2@ZombieTypes)"
					}, {
						"Row": "4",
						"Type": "RTID(dark_armor2@ZombieTypes)"
					}, {
						"Row": "1",
						"Type": "RTID(dark_armor2@ZombieTypes)"
					}, {
						"Row": "5",
						"Type": "RTID(dark_armor2@ZombieTypes)"
					}, {
						"Type": "RTID(dark_armor1@ZombieTypes)"
					}, {
						"Type": "RTID(dark_armor1@ZombieTypes)"
					}, {
						"Type": "RTID(dark_armor1@ZombieTypes)"
					}, {
						"Type": "RTID(dark_armor1@ZombieTypes)"
					}, {
						"Type": "RTID(dark_armor1@ZombieTypes)"
					} ]
			}
		}, {
			"aliases": [ "Wave3GraveSpawnEvent0" ],
			"objclass": "SpawnZombiesFromGridItemSpawnerProps",
			"objdata": {
				"AdditionalPlantfood": "0",
				"GridTypes": [ "RTID(gravestone_dark@GridItemTypes)", "RTID(gravestoneSunOnDestruction@GridItemTypes)", "RTID(gravestonePlantfoodOnDestruction@GridItemTypes)" ],
				"Zombies": [ {
						"Type": "RTID(dark_imp@ZombieTypes)"
					}, {
						"Type": "RTID(dark_imp@ZombieTypes)"
					}, {
						"Type": "RTID(dark_imp@ZombieTypes)"
					} ]
			}
		}, {
			"aliases": [ "Wave5GravestoneEvent0" ],
			"objclass": "SpawnGravestonesWaveActionProps",
			"objdata": {
				"GravestonePool": [ {
						"Count": 5,
						"Type": "RTID(gravestone_dark@GridItemTypes)"
					}, {
						"Count": 0,
						"Type": "RTID(gravestoneSunOnDestruction@GridItemTypes)"
					}, {
						"Count": 0,
						"Type": "RTID(gravestonePlantfoodOnDestruction@GridItemTypes)"
					} ],
				"SpawnEffectAnimID": "POPANIM_EFFECTS_TOMBSTONE_DARK_SPAWN_EFFECT",
				"SpawnPositionsPool": [ {
						"mX": 6,
						"mY": 0
					}, {
						"mX": 6,
						"mY": 1
					}, {
						"mX": 6,
						"mY": 2
					}, {
						"mX": 6,
						"mY": 3
					}, {
						"mX": 6,
						"mY": 4
					} ],
				"SpawnSoundID": "Play_Zomb_Egypt_TombRaiser_Grave_Rise"
			}
		}, {
			"aliases": [ "Wave6GraveSpawnEvent0" ],
			"objclass": "SpawnZombiesFromGridItemSpawnerProps",
			"objdata": {
				"AdditionalPlantfood": "0",
				"GridTypes": [ "RTID(gravestone_dark@GridItemTypes)", "RTID(gravestoneSunOnDestruction@GridItemTypes)", "RTID(gravestonePlantfoodOnDestruction@GridItemTypes)" ],
				"Zombies": [ {
						"Type": "RTID(dark_imp@ZombieTypes)"
					}, {
						"Type": "RTID(dark_imp@ZombieTypes)"
					}, {
						"Type": "RTID(dark_imp@ZombieTypes)"
					}, {
						"Type": "RTID(dark_imp@ZombieTypes)"
					}, {
						"Type": "RTID(dark_imp@ZombieTypes)"
					} ]
			}
		}, {
			"aliases": [ "Wave4GravestoneEvent0" ],
			"objclass": "SpawnGravestonesWaveActionProps",
			"objdata": {
				"GravestonePool": [ {
						"Count": 5,
						"Type": "RTID(gravestone_dark@GridItemTypes)"
					}, {
						"Count": 0,
						"Type": "RTID(gravestoneSunOnDestruction@GridItemTypes)"
					}, {
						"Count": 0,
						"Type": "RTID(gravestonePlantfoodOnDestruction@GridItemTypes)"
					} ],
				"SpawnEffectAnimID": "POPANIM_EFFECTS_TOMBSTONE_DARK_SPAWN_EFFECT",
				"SpawnPositionsPool": [ {
						"mX": 6,
						"mY": 0
					}, {
						"mX": 6,
						"mY": 1
					}, {
						"mX": 6,
						"mY": 2
					}, {
						"mX": 6,
						"mY": 3
					}, {
						"mX": 6,
						"mY": 4
					} ],
				"SpawnSoundID": "Play_Zomb_Egypt_TombRaiser_Grave_Rise"
			}
		}, {
			"aliases": [ "Wave8GravestoneEvent0" ],
			"objclass": "SpawnGravestonesWaveActionProps",
			"objdata": {
				"GravestonePool": [ {
						"Count": 5,
						"Type": "RTID(gravestone_dark@GridItemTypes)"
					}, {
						"Count": 0,
						"Type": "RTID(gravestoneSunOnDestruction@GridItemTypes)"
					}, {
						"Count": 0,
						"Type": "RTID(gravestonePlantfoodOnDestruction@GridItemTypes)"
					} ],
				"SpawnEffectAnimID": "POPANIM_EFFECTS_TOMBSTONE_DARK_SPAWN_EFFECT",
				"SpawnPositionsPool": [ {
						"mX": 5,
						"mY": 0
					}, {
						"mX": 5,
						"mY": 1
					}, {
						"mX": 5,
						"mY": 2
					}, {
						"mX": 5,
						"mY": 3
					}, {
						"mX": 5,
						"mY": 4
					} ],
				"SpawnSoundID": "Play_Zomb_Egypt_TombRaiser_Grave_Rise"
			}
		}, {
			"aliases": [ "Wave2GraveSpawnEvent0" ],
			"objclass": "SpawnZombiesFromGridItemSpawnerProps",
			"objdata": {
				"AdditionalPlantfood": "0",
				"GridTypes": [ "RTID(gravestone_dark@GridItemTypes)", "RTID(gravestoneSunOnDestruction@GridItemTypes)", "RTID(gravestonePlantfoodOnDestruction@GridItemTypes)" ],
				"Zombies": [ {
						"Type": "RTID(dark_imp@ZombieTypes)"
					}, {
						"Type": "RTID(dark_imp@ZombieTypes)"
					}, {
						"Type": "RTID(dark_imp@ZombieTypes)"
					}, {
						"Type": "RTID(dark_imp@ZombieTypes)"
					} ]
			}
		}, {
			"aliases": [ "Wave5GraveSpawnEvent0" ],
			"objclass": "SpawnZombiesFromGridItemSpawnerProps",
			"objdata": {
				"AdditionalPlantfood": "0",
				"GridTypes": [ "RTID(gravestone_dark@GridItemTypes)", "RTID(gravestoneSunOnDestruction@GridItemTypes)", "RTID(gravestonePlantfoodOnDestruction@GridItemTypes)" ],
				"Zombies": [ {
						"Type": "RTID(dark_imp@ZombieTypes)"
					}, {
						"Type": "RTID(dark_imp@ZombieTypes)"
					}, {
						"Type": "RTID(dark_imp@ZombieTypes)"
					}, {
						"Type": "RTID(dark_imp@ZombieTypes)"
					}, {
						"Type": "RTID(dark_imp@ZombieTypes)"
					}, {
						"Type": "RTID(dark_imp@ZombieTypes)"
					} ]
			}
		}, {
			"aliases": [ "Wave9GraveSpawnEvent0" ],
			"objclass": "SpawnZombiesFromGridItemSpawnerProps",
			"objdata": {
				"AdditionalPlantfood": "0",
				"GridTypes": [ "RTID(gravestone_dark@GridItemTypes)", "RTID(gravestoneSunOnDestruction@GridItemTypes)", "RTID(gravestonePlantfoodOnDestruction@GridItemTypes)" ],
				"Zombies": [ {
						"Type": "RTID(dark_imp@ZombieTypes)"
					}, {
						"Type": "RTID(dark_imp@ZombieTypes)"
					}, {
						"Type": "RTID(dark_imp@ZombieTypes)"
					}, {
						"Type": "RTID(dark_imp@ZombieTypes)"
					}, {
						"Type": "RTID(dark_imp@ZombieTypes)"
					}, {
						"Type": "RTID(dark_imp@ZombieTypes)"
					}, {
						"Type": "RTID(dark_imp@ZombieTypes)"
					}, {
						"Type": "RTID(dark_imp@ZombieTypes)"
					} ]
			}
		}, {
			"aliases": [ "PerkActivator" ],
			"objclass": "PerkHandlerModuleProperties",
			"objdata": {}
		}, {
			"aliases": [ "LevelMutator" ],
			"objclass": "LevelMutatorModuleProperties",
			"objdata": {
				"MutatorTables": [ "RTID(MutatorPropsRift_Worlds@LevelMutatorTables)", "RTID(LocalChallengeMutator@CurrentLevel)", "RTID(LocalMainChallengeMutator@CurrentLevel)" ]
			}
		}, {
			"aliases": [ "LocalMainChallengeMutator" ],
			"objclass": "LevelMutatorTableProps",
			"objdata": {
				"Tables": [ {
						"Level": 0,
						"ModuleType": "mainchallenge",
						"Modules": [ "RTID(RiftBeatTheLevelChallenge@LevelModules)" ]
					}, {
						"Level": 1,
						"ModuleType": "mainchallenge",
						"Modules": [ "RTID(RiftBeatTheLevelChallenge@LevelModules)" ]
					}, {
						"Level": 2,
						"ModuleType": "mainchallenge",
						"Modules": [ "RTID(RiftBeatTheLevelChallenge@LevelModules)" ]
					} ]
			}
		}, {
			"aliases": [ "LocalChallengeMutator" ],
			"objclass": "LevelMutatorTableProps",
			"objdata": {
				"Tables": [ {
						"Level": 0,
						"ModuleType": "bonuschallenge",
						"Modules": [ "RTID(ZombieDistance1@CurrentLevel)" ]
					}, {
						"Level": 1,
						"ModuleType": "bonuschallenge",
						"Modules": [ "RTID(ZombieDistance2@CurrentLevel)", "RTID(KillZombies2@CurrentLevel)" ]
					}, {
						"Level": 2,
						"ModuleType": "bonuschallenge",
						"Modules": [ "RTID(ZombieDistance3@CurrentLevel)", "RTID(KillZombies3@CurrentLevel)" ]
					} ]
			}
		}, {
			"aliases": [ "ZombieDistance1" ],
			"objclass": "StarChallengeZombieDistanceProps",
			"objdata": {
				"TargetDistance": 4
			}
		}, {
			"aliases": [ "ZombieDistance2" ],
			"objclass": "StarChallengeZombieDistanceProps",
			"objdata": {
				"TargetDistance": 5
			}
		}, {
			"aliases": [ "ZombieDistance3" ],
			"objclass": "StarChallengeZombieDistanceProps",
			"objdata": {
				"TargetDistance": 6
			}
		}, {
			"aliases": [ "KillZombies2" ],
			"objclass": "StarChallengeKillZombiesInTimeProps",
			"objdata": {
				"Time": 15,
				"ZombiesToKill": 15
			}
		}, {
			"aliases": [ "KillZombies3" ],
			"objclass": "StarChallengeKillZombiesInTimeProps",
			"objdata": {
				"Time": 15,
				"ZombiesToKill": 25
			}
		}, {
			"aliases": [ "LevelDifficultyScaling" ],
			"objclass": "LevelDifficultyScalingModuleProperties",
			"objdata": {
				"DifficultyRulesType": "RiftDifficulty",
				"ZombieLevelSwaps": [ {
						"Level": 4,
						"Swaps": [ {
								"From": "RTID(dark@ZombieTypes)",
								"To": [ "RTID(dark@ZombieTypes)" ]
							}, {
								"From": "RTID(dark_armor1@ZombieTypes)",
								"To": [ "RTID(dark_armor1@ZombieTypes)" ]
							}, {
								"From": "RTID(dark_armor2@ZombieTypes)",
								"To": [ "RTID(dark_armor2@ZombieTypes)" ]
							}, {
								"From": "RTID(dark_armor3@ZombieTypes)",
								"To": [ "RTID(dark_armor3@ZombieTypes)" ]
							} ]
					}, {
						"Level": 7,
						"Swaps": [ {
								"From": "RTID(dark@ZombieTypes)",
								"To": [ "RTID(dark_armor1@ZombieTypes)" ]
							}, {
								"From": "RTID(dark_armor1@ZombieTypes)",
								"To": [ "RTID(dark_armor2@ZombieTypes)" ]
							}, {
								"From": "RTID(dark_armor2@ZombieTypes)",
								"To": [ "RTID(dark_armor3@ZombieTypes)" ]
							}, {
								"From": "RTID(dark_armor3@ZombieTypes)",
								"To": [ "RTID(dark_armor3@ZombieTypes)" ]
							} ]
					}, {
						"Level": 11,
						"Swaps": [ {
								"From": "RTID(dark@ZombieTypes)",
								"To": [ "RTID(dark_armor2@ZombieTypes)" ]
							}, {
								"From": "RTID(dark_armor1@ZombieTypes)",
								"To": [ "RTID(dark_armor3@ZombieTypes)" ]
							}, {
								"From": "RTID(dark_armor2@ZombieTypes)",
								"To": [ "RTID(dark_armor3@ZombieTypes)" ]
							}, {
								"From": "RTID(dark_armor3@ZombieTypes)",
								"To": [ "RTID(dark_armor3@ZombieTypes)" ]
							} ]
					} ]
			}
		} ],
	"version": 1
}