{
	"#comment": "Dark 16",
	"objects": [ {
			"objclass": "LevelDefinition",
			"objdata": {
				"Description": "[PLAYERS_TRIP_TO_RIFT]",
				"LevelMutator": "RTID(LevelMutator@CurrentLevel)",
				"LevelNumber": 16,
				"Loot": "RTID(DefaultLoot@LevelModules)",
				"Modules": [ "RTID(ZombiesDeadWinCon@LevelModules)", "RTID(DarkMowers@LevelModules)", "RTID(Gravestones@CurrentLevel)", "RTID(SeedBank@CurrentLevel)", "RTID(DefaultZombieWinCondition@LevelModules)", "RTID(NewWaves@CurrentLevel)", "RTID(StandardRiftIntro@LevelModules)", "RTID(PerkActivator@CurrentLevel)", "RTID(LevelDifficultyScaling@CurrentLevel)" ],
				"Name": "[RIFT_LEVEL_NAME]",
				"NormalPresentTable": "egypt_normal_01",
				"PerksDisabledInLevel": [ "bossbustercannon", "quickdelivery" ],
				"PerksDisabledPerDifficulty": [ [], [], [] ],
				"ShinyPresentTable": "egypt_shiny_01",
				"StageModule": "RTID(DarkStage@LevelModules)",
				"VictoryModule": "RTID(RiftOutro@LevelModules)"
			}
		}, {
			"aliases": [ "Gravestones" ],
			"objclass": "GravestoneProperties",
			"objdata": {}
		}, {
			"aliases": [ "SeedBank" ],
			"objclass": "SeedBankProperties",
			"objdata": {
				"SelectionMethod": "chooser"
			}
		}, {
			"aliases": [ "NewWaves" ],
			"objclass": "WaveManagerModuleProperties",
			"objdata": {
				"DynamicZombies": [ {
						"PointIncrementPerWave": 0,
						"StartingPoints": 0,
						"StartingWave": 0,
						"ZombiePool": []
					}, {
						"PointIncrementPerWave": 0,
						"StartingPoints": 0,
						"StartingWave": 0,
						"ZombiePool": []
					}, {
						"PointIncrementPerWave": 0,
						"StartingPoints": 0,
						"StartingWave": 0,
						"ZombiePool": []
					}, {
						"MaxPoints": 1000,
						"PointIncrementPerWave": 20,
						"StartingPoints": 100,
						"StartingWave": 9,
						"ZombiePool": [ "RTID(dark@ZombieTypes)", "RTID(dark_armor1@ZombieTypes)", "RTID(dark_armor2@ZombieTypes)" ]
					}, {
						"PointIncrementPerWave": 0,
						"StartingPoints": 0,
						"StartingWave": 0,
						"ZombiePool": []
					}, {
						"PointIncrementPerWave": 0,
						"StartingPoints": 0,
						"StartingWave": 0,
						"ZombiePool": []
					}, {
						"PointIncrementPerWave": 0,
						"StartingPoints": 0,
						"StartingWave": 0,
						"ZombiePool": []
					} ],
				"WaveManagerProps": "RTID(WaveManagerProps@CurrentLevel)"
			}
		}, {
			"aliases": [ "WaveManagerProps" ],
			"objclass": "WaveManagerProperties",
			"objdata": {
				"FlagWaveInterval": 9,
				"WaveCount": 18,
				"WaveSpendingPointIncrement": 75,
				"WaveSpendingPoints": 100,
				"Waves": [ [ "RTID(Wave1@CurrentLevel)" ], [ "RTID(Wave2@CurrentLevel)" ], [ "RTID(Wave3@CurrentLevel)" ], [ "RTID(Wave4@CurrentLevel)", "RTID(Wave4GravestoneEvent0@CurrentLevel)" ], [ "RTID(Wave5@CurrentLevel)", "RTID(Wave5GraveSpawnEvent0@CurrentLevel)" ], [ "RTID(Wave6@CurrentLevel)" ], [ "RTID(Wave7@CurrentLevel)" ], [ "RTID(Wave8@CurrentLevel)", "RTID(Wave8GravestoneEvent0@CurrentLevel)" ], [ "RTID(Wave9@CurrentLevel)", "RTID(Wave9GraveSpawnEvent0@CurrentLevel)" ], [ "RTID(Wave10@CurrentLevel)" ], [ "RTID(Wave11@CurrentLevel)" ], [ "RTID(Wave12@CurrentLevel)" ], [ "RTID(Wave13@CurrentLevel)", "RTID(Wave13GravestoneEvent0@CurrentLevel)" ], [ "RTID(Wave14@CurrentLevel)", "RTID(Wave14GraveSpawnEvent0@CurrentLevel)" ], [ "RTID(Wave15@CurrentLevel)" ], [ "RTID(Wave16@CurrentLevel)", "RTID(Wave16GravestoneEvent0@CurrentLevel)" ], [ "RTID(Wave17@CurrentLevel)", "RTID(Wave17GraveSpawnEvent0@CurrentLevel)" ], [ "RTID(Wave18@CurrentLevel)" ] ]
			}
		}, {
			"aliases": [ "Wave1" ],
			"objclass": "SpawnZombiesJitteredWaveActionProps",
			"objdata": {
				"AdditionalPlantfood": 0,
				"Zombies": [ {
						"Type": "RTID(dark@ZombieTypes)"
					} ]
			}
		}, {
			"aliases": [ "Wave2" ],
			"objclass": "SpawnZombiesJitteredWaveActionProps",
			"objdata": {
				"Zombies": [ {
						"Type": "RTID(dark@ZombieTypes)"
					}, {
						"Type": "RTID(dark@ZombieTypes)"
					} ]
			}
		}, {
			"aliases": [ "Wave3" ],
			"objclass": "SpawnZombiesJitteredWaveActionProps",
			"objdata": {
				"AdditionalPlantfood": 0,
				"Zombies": [ {
						"Type": "RTID(dark_armor1@ZombieTypes)"
					}, {
						"Type": "RTID(dark@ZombieTypes)"
					} ]
			}
		}, {
			"aliases": [ "Wave4" ],
			"objclass": "SpawnZombiesJitteredWaveActionProps",
			"objdata": {
				"AdditionalPlantfood": 1,
				"DynamicPlantfood": [ 1, 1, 1, 1, 1, 1, 1 ],
				"Zombies": [ {
						"Type": "RTID(dark@ZombieTypes)"
					}, {
						"Type": "RTID(dark@ZombieTypes)"
					}, {
						"Type": "RTID(dark_armor1@ZombieTypes)"
					} ]
			}
		}, {
			"aliases": [ "Wave5" ],
			"objclass": "SpawnZombiesJitteredWaveActionProps",
			"objdata": {
				"Zombies": [ {
						"Type": "RTID(dark@ZombieTypes)"
					}, {
						"Type": "RTID(dark_armor1@ZombieTypes)"
					}, {
						"Type": "RTID(dark@ZombieTypes)"
					} ]
			}
		}, {
			"aliases": [ "Wave6" ],
			"objclass": "SpawnZombiesJitteredWaveActionProps",
			"objdata": {
				"Zombies": [ {
						"Row": "3",
						"Type": "RTID(dark_king@ZombieTypes)"
					}, {
						"Type": "RTID(dark@ZombieTypes)"
					}, {
						"Type": "RTID(dark_armor1@ZombieTypes)"
					} ]
			}
		}, {
			"aliases": [ "Wave7" ],
			"objclass": "SpawnZombiesJitteredWaveActionProps",
			"objdata": {
				"AdditionalPlantfood": 1,
				"DynamicPlantfood": [ 1, 1, 1, 1, 1, 0, 0 ],
				"Zombies": [ {
						"Type": "RTID(dark@ZombieTypes)"
					}, {
						"Type": "RTID(dark@ZombieTypes)"
					}, {
						"Type": "RTID(dark_armor1@ZombieTypes)"
					}, {
						"Type": "RTID(dark_armor1@ZombieTypes)"
					}, {
						"Type": "RTID(dark_wizard@ZombieTypes)"
					} ]
			}
		}, {
			"aliases": [ "Wave8" ],
			"objclass": "SpawnZombiesJitteredWaveActionProps",
			"objdata": {
				"Zombies": [ {
						"Type": "RTID(dark_juggler@ZombieTypes)"
					}, {
						"Type": "RTID(dark_juggler@ZombieTypes)"
					}, {
						"Type": "RTID(dark@ZombieTypes)"
					} ]
			}
		}, {
			"aliases": [ "Wave9" ],
			"objclass": "SpawnZombiesJitteredWaveActionProps",
			"objdata": {
				"AdditionalPlantfood": 0,
				"Zombies": [ {
						"Row": "2",
						"Type": "RTID(dark_king@ZombieTypes)"
					}, {
						"Row": "3",
						"Type": "RTID(dark_armor1@ZombieTypes)"
					}, {
						"Row": "1",
						"Type": "RTID(dark_armor1@ZombieTypes)"
					}, {
						"Row": "5",
						"Type": "RTID(dark_armor1@ZombieTypes)"
					}, {
						"Row": "3",
						"Type": "RTID(dark@ZombieTypes)"
					}, {
						"Row": "1",
						"Type": "RTID(dark@ZombieTypes)"
					}, {
						"Row": "5",
						"Type": "RTID(dark@ZombieTypes)"
					}, {
						"Row": "4",
						"Type": "RTID(dark_king@ZombieTypes)"
					} ]
			}
		}, {
			"aliases": [ "Wave10" ],
			"objclass": "SpawnZombiesJitteredWaveActionProps",
			"objdata": {
				"AdditionalPlantfood": 0,
				"Zombies": [ {
						"Type": "RTID(dark_armor1@ZombieTypes)"
					}, {
						"Type": "RTID(dark_armor1@ZombieTypes)"
					}, {
						"Type": "RTID(dark_armor1@ZombieTypes)"
					}, {
						"Type": "RTID(dark_armor1@ZombieTypes)"
					} ]
			}
		}, {
			"aliases": [ "Wave11" ],
			"objclass": "SpawnZombiesJitteredWaveActionProps",
			"objdata": {
				"AdditionalPlantfood": 0,
				"Zombies": [ {
						"Row": "3",
						"Type": "RTID(dark_armor2@ZombieTypes)"
					}, {
						"Row": "1",
						"Type": "RTID(dark_armor2@ZombieTypes)"
					}, {
						"Row": "5",
						"Type": "RTID(dark_armor2@ZombieTypes)"
					} ]
			}
		}, {
			"aliases": [ "Wave12" ],
			"objclass": "SpawnZombiesJitteredWaveActionProps",
			"objdata": {
				"AdditionalPlantfood": 1,
				"DynamicPlantfood": [ 1, 1, 1, 1, 0, 0, 0 ],
				"Zombies": [ {
						"Type": "RTID(dark_juggler@ZombieTypes)"
					}, {
						"Type": "RTID(dark_juggler@ZombieTypes)"
					}, {
						"Type": "RTID(dark_armor1@ZombieTypes)"
					}, {
						"Type": "RTID(dark_armor1@ZombieTypes)"
					} ]
			}
		}, {
			"aliases": [ "Wave13" ],
			"objclass": "SpawnZombiesJitteredWaveActionProps",
			"objdata": {
				"Zombies": [ {
						"Type": "RTID(dark_armor2@ZombieTypes)"
					}, {
						"Type": "RTID(dark_armor2@ZombieTypes)"
					}, {
						"Type": "RTID(dark_armor3@ZombieTypes)"
					} ]
			}
		}, {
			"aliases": [ "Wave14" ],
			"objclass": "SpawnZombiesJitteredWaveActionProps",
			"objdata": {
				"Zombies": [ {
						"Type": "RTID(dark_armor1@ZombieTypes)"
					}, {
						"Type": "RTID(dark_armor1@ZombieTypes)"
					}, {
						"Type": "RTID(dark_armor1@ZombieTypes)"
					}, {
						"Type": "RTID(dark_armor1@ZombieTypes)"
					} ]
			}
		}, {
			"aliases": [ "Wave15" ],
			"objclass": "SpawnZombiesJitteredWaveActionProps",
			"objdata": {
				"AdditionalPlantfood": 1,
				"DynamicPlantfood": [ 1, 1, 1, 1, 1, 1, 1 ],
				"Zombies": [ {
						"Row": "5",
						"Type": "RTID(dark_juggler@ZombieTypes)"
					}, {
						"Row": "1",
						"Type": "RTID(dark_juggler@ZombieTypes)"
					}, {
						"Row": "2",
						"Type": "RTID(dark_wizard@ZombieTypes)"
					}, {
						"Row": "3",
						"Type": "RTID(dark_juggler@ZombieTypes)"
					}, {
						"Row": "4",
						"Type": "RTID(dark_wizard@ZombieTypes)"
					}, {
						"Type": "RTID(dark_juggler@ZombieTypes)"
					} ]
			}
		}, {
			"aliases": [ "Wave16" ],
			"objclass": "SpawnZombiesJitteredWaveActionProps",
			"objdata": {
				"Zombies": [ {
						"Type": "RTID(dark_armor3@ZombieTypes)"
					}, {
						"Type": "RTID(dark_armor1@ZombieTypes)"
					}, {
						"Type": "RTID(dark_armor1@ZombieTypes)"
					}, {
						"Type": "RTID(dark_armor1@ZombieTypes)"
					}, {
						"Type": "RTID(dark_armor1@ZombieTypes)"
					} ]
			}
		}, {
			"aliases": [ "Wave17" ],
			"objclass": "SpawnZombiesJitteredWaveActionProps",
			"objdata": {
				"AdditionalPlantfood": 1,
				"DynamicPlantfood": [ 1, 1, 1, 1, 1, 1, 0 ],
				"Zombies": [ {
						"Row": "3",
						"Type": "RTID(dark_armor1@ZombieTypes)"
					}, {
						"Row": "2",
						"Type": "RTID(dark_armor1@ZombieTypes)"
					}, {
						"Row": "4",
						"Type": "RTID(dark_armor1@ZombieTypes)"
					}, {
						"Row": "1",
						"Type": "RTID(dark_armor1@ZombieTypes)"
					}, {
						"Row": "5",
						"Type": "RTID(dark_armor1@ZombieTypes)"
					}, {
						"Row": "1",
						"Type": "RTID(dark_king@ZombieTypes)"
					}, {
						"Row": "5",
						"Type": "RTID(dark_king@ZombieTypes)"
					}, {
						"Row": "3",
						"Type": "RTID(dark_king@ZombieTypes)"
					} ]
			}
		}, {
			"aliases": [ "Wave18" ],
			"objclass": "SpawnZombiesJitteredWaveActionProps",
			"objdata": {
				"Zombies": [ {
						"Row": "2",
						"Type": "RTID(dark_armor2@ZombieTypes)"
					}, {
						"Row": "2",
						"Type": "RTID(dark_king@ZombieTypes)"
					}, {
						"Row": "3",
						"Type": "RTID(dark_armor2@ZombieTypes)"
					}, {
						"Row": "1",
						"Type": "RTID(dark_armor2@ZombieTypes)"
					}, {
						"Row": "5",
						"Type": "RTID(dark_armor2@ZombieTypes)"
					}, {
						"Row": "4",
						"Type": "RTID(dark_armor2@ZombieTypes)"
					}, {
						"Row": "4",
						"Type": "RTID(dark_king@ZombieTypes)"
					}, {
						"Row": "2",
						"Type": "RTID(dark_armor1@ZombieTypes)"
					}, {
						"Row": "4",
						"Type": "RTID(dark_armor1@ZombieTypes)"
					}, {
						"Row": "2",
						"Type": "RTID(dark_armor1@ZombieTypes)"
					}, {
						"Row": "4",
						"Type": "RTID(dark_armor1@ZombieTypes)"
					}, {
						"Type": "RTID(dark_armor1@ZombieTypes)"
					}, {
						"Type": "RTID(dark_armor1@ZombieTypes)"
					} ]
			}
		}, {
			"aliases": [ "Wave4GravestoneEvent0" ],
			"objclass": "SpawnGravestonesWaveActionProps",
			"objdata": {
				"GravestonePool": [ {
						"Count": 3,
						"Type": "RTID(gravestone_dark@GridItemTypes)"
					}, {
						"Count": 2,
						"Type": "RTID(gravestoneSunOnDestruction@GridItemTypes)"
					}, {
						"Count": 0,
						"Type": "RTID(gravestonePlantfoodOnDestruction@GridItemTypes)"
					} ],
				"SpawnEffectAnimID": "POPANIM_EFFECTS_TOMBSTONE_DARK_SPAWN_EFFECT",
				"SpawnPositionsPool": [ {
						"mX": 1,
						"mY": 0
					}, {
						"mX": 1,
						"mY": 1
					}, {
						"mX": 1,
						"mY": 2
					}, {
						"mX": 1,
						"mY": 3
					}, {
						"mX": 1,
						"mY": 4
					}, {
						"mX": 2,
						"mY": 0
					}, {
						"mX": 2,
						"mY": 1
					}, {
						"mX": 2,
						"mY": 2
					}, {
						"mX": 2,
						"mY": 3
					}, {
						"mX": 2,
						"mY": 4
					}, {
						"mX": 3,
						"mY": 0
					}, {
						"mX": 3,
						"mY": 1
					}, {
						"mX": 3,
						"mY": 2
					}, {
						"mX": 3,
						"mY": 3
					}, {
						"mX": 3,
						"mY": 4
					}, {
						"mX": 4,
						"mY": 0
					}, {
						"mX": 4,
						"mY": 1
					}, {
						"mX": 4,
						"mY": 2
					}, {
						"mX": 4,
						"mY": 3
					}, {
						"mX": 4,
						"mY": 4
					}, {
						"mX": 5,
						"mY": 0
					}, {
						"mX": 5,
						"mY": 1
					}, {
						"mX": 5,
						"mY": 2
					}, {
						"mX": 5,
						"mY": 3
					}, {
						"mX": 5,
						"mY": 4
					}, {
						"mX": 6,
						"mY": 0
					}, {
						"mX": 6,
						"mY": 1
					}, {
						"mX": 6,
						"mY": 2
					}, {
						"mX": 6,
						"mY": 3
					}, {
						"mX": 6,
						"mY": 4
					}, {
						"mX": 7,
						"mY": 0
					}, {
						"mX": 7,
						"mY": 1
					}, {
						"mX": 7,
						"mY": 2
					}, {
						"mX": 7,
						"mY": 3
					}, {
						"mX": 7,
						"mY": 4
					}, {
						"mX": 8,
						"mY": 0
					}, {
						"mX": 8,
						"mY": 1
					}, {
						"mX": 8,
						"mY": 2
					}, {
						"mX": 8,
						"mY": 3
					}, {
						"mX": 8,
						"mY": 4
					} ],
				"SpawnSoundID": "Play_Zomb_Egypt_TombRaiser_Grave_Rise"
			}
		}, {
			"aliases": [ "Wave16GravestoneEvent0" ],
			"objclass": "SpawnGravestonesWaveActionProps",
			"objdata": {
				"GravestonePool": [ {
						"Count": 5,
						"Type": "RTID(gravestone_dark@GridItemTypes)"
					}, {
						"Count": 0,
						"Type": "RTID(gravestoneSunOnDestruction@GridItemTypes)"
					}, {
						"Count": 0,
						"Type": "RTID(gravestonePlantfoodOnDestruction@GridItemTypes)"
					} ],
				"SpawnEffectAnimID": "POPANIM_EFFECTS_TOMBSTONE_DARK_SPAWN_EFFECT",
				"SpawnPositionsPool": [ {
						"mX": 5,
						"mY": 0
					}, {
						"mX": 5,
						"mY": 1
					}, {
						"mX": 5,
						"mY": 2
					}, {
						"mX": 5,
						"mY": 3
					}, {
						"mX": 5,
						"mY": 4
					} ],
				"SpawnSoundID": "Play_Zomb_Egypt_TombRaiser_Grave_Rise"
			}
		}, {
			"aliases": [ "Wave8GravestoneEvent0" ],
			"objclass": "SpawnGravestonesWaveActionProps",
			"objdata": {
				"GravestonePool": [ {
						"Count": 5,
						"Type": "RTID(gravestone_dark@GridItemTypes)"
					}, {
						"Count": 2,
						"Type": "RTID(gravestoneSunOnDestruction@GridItemTypes)"
					}, {
						"Count": 0,
						"Type": "RTID(gravestonePlantfoodOnDestruction@GridItemTypes)"
					} ],
				"SpawnEffectAnimID": "POPANIM_EFFECTS_TOMBSTONE_DARK_SPAWN_EFFECT",
				"SpawnPositionsPool": [ {
						"mX": 3,
						"mY": 0
					}, {
						"mX": 3,
						"mY": 1
					}, {
						"mX": 3,
						"mY": 2
					}, {
						"mX": 3,
						"mY": 3
					}, {
						"mX": 3,
						"mY": 4
					}, {
						"mX": 4,
						"mY": 0
					}, {
						"mX": 4,
						"mY": 1
					}, {
						"mX": 4,
						"mY": 2
					}, {
						"mX": 4,
						"mY": 3
					}, {
						"mX": 4,
						"mY": 4
					}, {
						"mX": 5,
						"mY": 0
					}, {
						"mX": 5,
						"mY": 1
					}, {
						"mX": 5,
						"mY": 2
					}, {
						"mX": 5,
						"mY": 3
					}, {
						"mX": 5,
						"mY": 4
					}, {
						"mX": 6,
						"mY": 0
					}, {
						"mX": 6,
						"mY": 1
					}, {
						"mX": 6,
						"mY": 2
					}, {
						"mX": 6,
						"mY": 3
					}, {
						"mX": 6,
						"mY": 4
					} ],
				"SpawnSoundID": "Play_Zomb_Egypt_TombRaiser_Grave_Rise"
			}
		}, {
			"aliases": [ "Wave13GravestoneEvent0" ],
			"objclass": "SpawnGravestonesWaveActionProps",
			"objdata": {
				"GravestonePool": [ {
						"Count": 5,
						"Type": "RTID(gravestone_dark@GridItemTypes)"
					}, {
						"Count": 2,
						"Type": "RTID(gravestoneSunOnDestruction@GridItemTypes)"
					}, {
						"Count": 0,
						"Type": "RTID(gravestonePlantfoodOnDestruction@GridItemTypes)"
					} ],
				"SpawnEffectAnimID": "POPANIM_EFFECTS_TOMBSTONE_DARK_SPAWN_EFFECT",
				"SpawnPositionsPool": [ {
						"mX": 4,
						"mY": 0
					}, {
						"mX": 4,
						"mY": 1
					}, {
						"mX": 4,
						"mY": 2
					}, {
						"mX": 4,
						"mY": 3
					}, {
						"mX": 4,
						"mY": 4
					}, {
						"mX": 5,
						"mY": 0
					}, {
						"mX": 5,
						"mY": 1
					}, {
						"mX": 5,
						"mY": 2
					}, {
						"mX": 5,
						"mY": 3
					}, {
						"mX": 5,
						"mY": 4
					}, {
						"mX": 6,
						"mY": 0
					}, {
						"mX": 6,
						"mY": 1
					}, {
						"mX": 6,
						"mY": 2
					}, {
						"mX": 6,
						"mY": 3
					}, {
						"mX": 6,
						"mY": 4
					} ],
				"SpawnSoundID": "Play_Zomb_Egypt_TombRaiser_Grave_Rise"
			}
		}, {
			"aliases": [ "Wave17GraveSpawnEvent0" ],
			"objclass": "SpawnZombiesFromGridItemSpawnerProps",
			"objdata": {
				"AdditionalPlantfood": "0",
				"GridTypes": [ "RTID(gravestone_dark@GridItemTypes)", "RTID(gravestoneSunOnDestruction@GridItemTypes)", "RTID(gravestonePlantfoodOnDestruction@GridItemTypes)" ],
				"WaveStartMessage": "[WARNING_GRAVESTONE_SPAWN]",
				"ZombieSpawnWaitTime": "1",
				"Zombies": [ {
						"Type": "RTID(dark_armor1@ZombieTypes)"
					}, {
						"Type": "RTID(dark_armor1@ZombieTypes)"
					}, {
						"Type": "RTID(dark_armor1@ZombieTypes)"
					} ]
			}
		}, {
			"aliases": [ "Wave14GraveSpawnEvent0" ],
			"objclass": "SpawnZombiesFromGridItemSpawnerProps",
			"objdata": {
				"AdditionalPlantfood": "0",
				"GridTypes": [ "RTID(gravestone_dark@GridItemTypes)", "RTID(gravestoneSunOnDestruction@GridItemTypes)", "RTID(gravestonePlantfoodOnDestruction@GridItemTypes)" ],
				"WaveStartMessage": "[WARNING_GRAVESTONE_SPAWN]",
				"ZombieSpawnWaitTime": "1",
				"Zombies": [ {
						"Type": "RTID(dark_armor2@ZombieTypes)"
					}, {
						"Type": "RTID(dark_armor2@ZombieTypes)"
					}, {
						"Type": "RTID(dark_armor1@ZombieTypes)"
					}, {
						"Type": "RTID(dark@ZombieTypes)"
					} ]
			}
		}, {
			"aliases": [ "Wave5GraveSpawnEvent0" ],
			"objclass": "SpawnZombiesFromGridItemSpawnerProps",
			"objdata": {
				"AdditionalPlantfood": "0",
				"GridTypes": [ "RTID(gravestone_dark@GridItemTypes)", "RTID(gravestoneSunOnDestruction@GridItemTypes)", "RTID(gravestonePlantfoodOnDestruction@GridItemTypes)" ],
				"WaveStartMessage": "[WARNING_GRAVESTONE_SPAWN]",
				"ZombieSpawnWaitTime": "1",
				"Zombies": [ {
						"Type": "RTID(dark_armor1@ZombieTypes)"
					}, {
						"Type": "RTID(dark@ZombieTypes)"
					} ]
			}
		}, {
			"aliases": [ "Wave9GraveSpawnEvent0" ],
			"objclass": "SpawnZombiesFromGridItemSpawnerProps",
			"objdata": {
				"AdditionalPlantfood": "0",
				"GridTypes": [ "RTID(gravestone_dark@GridItemTypes)", "RTID(gravestoneSunOnDestruction@GridItemTypes)", "RTID(gravestonePlantfoodOnDestruction@GridItemTypes)" ],
				"WaveStartMessage": "[WARNING_GRAVESTONE_SPAWN]",
				"ZombieSpawnWaitTime": "1",
				"Zombies": [ {
						"Type": "RTID(dark_armor1@ZombieTypes)"
					}, {
						"Type": "RTID(dark_armor1@ZombieTypes)"
					}, {
						"Type": "RTID(dark@ZombieTypes)"
					}, {
						"Type": "RTID(dark@ZombieTypes)"
					} ]
			}
		}, {
			"aliases": [ "PerkActivator" ],
			"objclass": "PerkHandlerModuleProperties",
			"objdata": {}
		}, {
			"aliases": [ "LevelMutator" ],
			"objclass": "LevelMutatorModuleProperties",
			"objdata": {
				"MutatorTables": [ "RTID(MutatorPropsRift_Worlds@LevelMutatorTables)", "RTID(LocalChallengeMutator@CurrentLevel)", "RTID(LocalMainChallengeMutator@CurrentLevel)" ]
			}
		}, {
			"aliases": [ "LocalMainChallengeMutator" ],
			"objclass": "LevelMutatorTableProps",
			"objdata": {
				"Tables": [ {
						"Level": 0,
						"ModuleType": "mainchallenge",
						"Modules": [ "RTID(RiftBeatTheLevelChallenge@LevelModules)" ]
					}, {
						"Level": 1,
						"ModuleType": "mainchallenge",
						"Modules": [ "RTID(RiftBeatTheLevelChallenge@LevelModules)" ]
					}, {
						"Level": 2,
						"ModuleType": "mainchallenge",
						"Modules": [ "RTID(RiftBeatTheLevelChallenge@LevelModules)" ]
					} ]
			}
		}, {
			"aliases": [ "LocalChallengeMutator" ],
			"objclass": "LevelMutatorTableProps",
			"objdata": {
				"Tables": [ {
						"Level": 0,
						"ModuleType": "bonuschallenge",
						"Modules": [ "RTID(DestroyGridItems@CurrentLevel)" ]
					}, {
						"Level": 1,
						"ModuleType": "bonuschallenge",
						"Modules": [ "RTID(DestroyGridItems@CurrentLevel)", "RTID(DefeatZombiesOfType1@CurrentLevel)" ]
					}, {
						"Level": 2,
						"ModuleType": "bonuschallenge",
						"Modules": [ "RTID(DestroyGridItems@CurrentLevel)", "RTID(DefeatZombiesOfType2@CurrentLevel)" ]
					} ]
			}
		}, {
			"aliases": [ "DestroyGridItems" ],
			"objclass": "DestroyGridItemsChallengeProps",
			"objdata": {
				"GridItemType": "gravestone_dark",
				"GridItemsToDestroy": 22,
				"ChallengeDescription": "[CHALLENGE_DESTROY_GRAVESTONES]"
			}
		}, {
			"aliases": [ "DefeatZombiesOfType1" ],
			"objclass": "DefeatZombiesOfTypeChallengeProps",
			"objdata": {
				"Description": "[DEFEAT_X_KINGS]",
				"TypesToKill": {
					"ListType": "includelist",
					"List": [ "dark_king" ]
				},
				"NumZombiesToKill": 4
			}
		}, {
			"aliases": [ "DefeatZombiesOfType2" ],
			"objclass": "DefeatZombiesOfTypeChallengeProps",
			"objdata": {
				"Description": "[DEFEAT_X_KINGS]",
				"TypesToKill": {
					"ListType": "includelist",
					"List": [ "dark_king" ]
				},
				"NumZombiesToKill": 7
			}
		}, {
			"aliases": [ "LevelDifficultyScaling" ],
			"objclass": "LevelDifficultyScalingModuleProperties",
			"objdata": {
				"DifficultyRulesType": "RiftDifficulty",
				"ZombieLevelSwaps": [ {
						"Level": 4,
						"Swaps": [ {
								"From": "RTID(dark@ZombieTypes)",
								"To": [ "RTID(dark_imp@ZombieTypes)" ]
							}, {
								"From": "RTID(dark_armor1@ZombieTypes)",
								"To": [ "RTID(dark@ZombieTypes)" ]
							}, {
								"From": "RTID(dark_armor2@ZombieTypes)",
								"To": [ "RTID(dark_armor1@ZombieTypes)" ]
							}, {
								"From": "RTID(dark_armor3@ZombieTypes)",
								"To": [ "RTID(dark_armor2@ZombieTypes)" ]
							} ]
					}, {
						"Level": 7,
						"Swaps": [ {
								"From": "RTID(dark@ZombieTypes)",
								"To": [ "RTID(dark@ZombieTypes)" ]
							}, {
								"From": "RTID(dark_armor1@ZombieTypes)",
								"To": [ "RTID(dark_armor1@ZombieTypes)" ]
							}, {
								"From": "RTID(dark_armor2@ZombieTypes)",
								"To": [ "RTID(dark_armor2@ZombieTypes)" ]
							}, {
								"From": "RTID(dark_armor3@ZombieTypes)",
								"To": [ "RTID(dark_armor3@ZombieTypes)", "RTID(dark_armor2@ZombieTypes)" ]
							} ]
					}, {
						"Level": 11,
						"Swaps": [ {
								"From": "RTID(dark@ZombieTypes)",
								"To": [ "RTID(dark@ZombieTypes)" ]
							}, {
								"From": "RTID(dark_armor1@ZombieTypes)",
								"To": [ "RTID(dark_armor1@ZombieTypes)" ]
							}, {
								"From": "RTID(dark_armor2@ZombieTypes)",
								"To": [ "RTID(dark_armor2@ZombieTypes)" ]
							}, {
								"From": "RTID(dark_armor3@ZombieTypes)",
								"To": [ "RTID(dark_armor3@ZombieTypes)", "RTID(dark_juggler@ZombieTypes)" ]
							} ]
					} ]
			}
		} ],
	"version": 1
}