{
	"objects": [ {
			"objclass": "WorldData",
			"objdata": {
				"m_boundingRect": {
					"mHeight": 1000,
					"mWidth": 1600,
					"mX": -150,
					"mY": -100
				},
				"m_creationTime": 0,
				"m_eventList": [ {
						"m_completedNarrationID": "",
						"m_cost": 0,
						"m_dataString": "rifts/rift_101-150/rift_115_1",
						"m_displayText": "1",
						"m_drawLayer": 0,
						"m_eventId": "1",
						"m_eventSubType": "arena",
						"m_eventType": "level",
						"m_filter": 0,
						"m_imageID": 0,
						"m_inheritAssetFilter": "true",
						"m_isArtFlipped": "false",
						"m_isChallengeType": "FALSE",
						"m_levelNodeType": "",
						"m_name": "rifts/rift_101-150/rift_115_1",
						"m_parallaxLayer": 0,
						"m_parentEvent": "",
						"m_position": {
							"x": 100,
							"y": 350
						},
						"m_rotationAngle": 0,
						"m_rotationRate": 0,
						"m_scaleX": 1,
						"m_scaleY": 1,
						"m_toggleName": "",
						"m_unlockedFrom": "",
						"m_unlockedNarrationID": "",
						"m_visibleFrom": "",
						"m_worldMapTutorial": "",
						"m_worldMapTutorialVisibleWhen": ""
					}, {
						"m_completedNarrationID": "",
						"m_cost": 0,
						"m_dataString": "rifts/rift_151-200/rift_177",
						"m_displayText": "2",
						"m_drawLayer": 0,
						"m_eventId": "2",
						"m_eventSubType": "timed",
						"m_eventType": "level",
						"m_filter": 0,
						"m_imageID": 0,
						"m_inheritAssetFilter": "true",
						"m_isArtFlipped": "false",
						"m_isChallengeType": "FALSE",
						"m_levelNodeType": "",
						"m_name": "rifts/rift_151-200/rift_177",
						"m_parallaxLayer": 0,
						"m_parentEvent": "rifts/rift_101-150/rift_115_1",
						"m_position": {
							"x": 375,
							"y": 320
						},
						"m_rotationAngle": 0,
						"m_rotationRate": 0,
						"m_scaleX": 1,
						"m_scaleY": 1,
						"m_toggleName": "",
						"m_unlockedFrom": "",
						"m_unlockedNarrationID": "",
						"m_visibleFrom": "",
						"m_worldMapTutorial": "",
						"m_worldMapTutorialVisibleWhen": ""
					}, {
						"m_completedNarrationID": "",
						"m_cost": 0,
						"m_dataString": "rifts/rift_101-150/rift_108_1",
						"m_displayText": "3",
						"m_drawLayer": 0,
						"m_eventId": "3",
						"m_eventSubType": "conveyor",
						"m_eventType": "level",
						"m_filter": 0,
						"m_imageID": 0,
						"m_inheritAssetFilter": "true",
						"m_isArtFlipped": "false",
						"m_isChallengeType": "FALSE",
						"m_levelNodeType": "",
						"m_name": "rifts/rift_101-150/rift_108_1",
						"m_parallaxLayer": 0,
						"m_parentEvent": "rifts/rift_151-200/rift_177",
						"m_position": {
							"x": 650,
							"y": 310
						},
						"m_rotationAngle": 0,
						"m_rotationRate": 0,
						"m_scaleX": 1,
						"m_scaleY": 1,
						"m_toggleName": "",
						"m_unlockedFrom": "",
						"m_unlockedNarrationID": "",
						"m_visibleFrom": "",
						"m_worldMapTutorial": "",
						"m_worldMapTutorialVisibleWhen": ""
					}, {
						"m_completedNarrationID": "",
						"m_cost": 0,
						"m_dataString": "rifts/rift_151-200/rift_182",
						"m_displayText": "4",
						"m_drawLayer": 0,
						"m_eventId": "4",
						"m_eventSubType": "arena_conveyor",
						"m_eventType": "level",
						"m_filter": 0,
						"m_imageID": 0,
						"m_inheritAssetFilter": "true",
						"m_isArtFlipped": "false",
						"m_isChallengeType": "FALSE",
						"m_levelNodeType": "",
						"m_name": "rifts/rift_151-200/rift_182",
						"m_parallaxLayer": 0,
						"m_parentEvent": "rifts/rift_101-150/rift_108_1",
						"m_position": {
							"x": 925,
							"y": 320
						},
						"m_rotationAngle": 0,
						"m_rotationRate": 0,
						"m_scaleX": 1,
						"m_scaleY": 1,
						"m_toggleName": "",
						"m_unlockedFrom": "",
						"m_unlockedNarrationID": "",
						"m_visibleFrom": "",
						"m_worldMapTutorial": "",
						"m_worldMapTutorialVisibleWhen": ""
					}, {
						"m_completedNarrationID": "",
						"m_cost": 0,
						"m_dataString": "rifts/rift_101-150/rift_131_1",
						"m_displayText": "5",
						"m_drawLayer": 0,
						"m_eventId": "5",
						"m_eventSubType": "conveyor",
						"m_eventType": "level",
						"m_filter": 0,
						"m_imageID": 0,
						"m_inheritAssetFilter": "true",
						"m_isArtFlipped": "false",
						"m_isChallengeType": "FALSE",
						"m_levelNodeType": "",
						"m_name": "rifts/rift_101-150/rift_131_1",
						"m_parallaxLayer": 0,
						"m_parentEvent": "rifts/rift_151-200/rift_182",
						"m_position": {
							"x": 1200,
							"y": 320
						},
						"m_rotationAngle": 0,
						"m_rotationRate": 0,
						"m_scaleX": 1,
						"m_scaleY": 1,
						"m_toggleName": "",
						"m_unlockedFrom": "",
						"m_unlockedNarrationID": "",
						"m_visibleFrom": "",
						"m_worldMapTutorial": "",
						"m_worldMapTutorialVisibleWhen": ""
					} ],
				"m_mapPieces": [ {
						"m_completedNarrationID": "",
						"m_cost": 0,
						"m_dataString": "",
						"m_displayText": "",
						"m_drawLayer": 0,
						"m_eventId": "",
						"m_eventSubType": "",
						"m_eventType": "island",
						"m_filter": 0,
						"m_imageID": 105,
						"m_inheritAssetFilter": "true",
						"m_isArtFlipped": "",
						"m_isChallengeType": "false",
						"m_levelNodeType": "",
						"m_name": "",
						"m_parallaxLayer": 0,
						"m_parentEvent": "",
						"m_position": {
							"x": 80,
							"y": 355
						},
						"m_rotationAngle": 0,
						"m_rotationRate": 0,
						"m_scaleX": 1.2,
						"m_scaleY": 1.2,
						"m_toggleName": "",
						"m_unlockedFrom": "",
						"m_unlockedNarrationID": "",
						"m_visibleFrom": "",
						"m_worldMapTutorial": "",
						"m_worldMapTutorialVisibleWhen": ""
					}, {
						"m_completedNarrationID": "",
						"m_cost": 0,
						"m_dataString": "",
						"m_displayText": "",
						"m_drawLayer": 0,
						"m_eventId": "",
						"m_eventSubType": "",
						"m_eventType": "island",
						"m_filter": 0,
						"m_imageID": 108,
						"m_inheritAssetFilter": "true",
						"m_isArtFlipped": "",
						"m_isChallengeType": "false",
						"m_levelNodeType": "",
						"m_name": "",
						"m_parallaxLayer": 0,
						"m_parentEvent": "",
						"m_position": {
							"x": 370,
							"y": 345
						},
						"m_rotationAngle": 0,
						"m_rotationRate": 0,
						"m_scaleX": 1.2,
						"m_scaleY": 1.2,
						"m_toggleName": "",
						"m_unlockedFrom": "",
						"m_unlockedNarrationID": "",
						"m_visibleFrom": "",
						"m_worldMapTutorial": "",
						"m_worldMapTutorialVisibleWhen": ""
					}, {
						"m_completedNarrationID": "",
						"m_cost": 0,
						"m_dataString": "",
						"m_displayText": "",
						"m_drawLayer": -2,
						"m_eventId": "",
						"m_eventSubType": "",
						"m_eventType": "island",
						"m_filter": 0,
						"m_imageID": 18,
						"m_inheritAssetFilter": "true",
						"m_isArtFlipped": "",
						"m_isChallengeType": "false",
						"m_levelNodeType": "",
						"m_name": "",
						"m_parallaxLayer": 0,
						"m_parentEvent": "",
						"m_position": {
							"x": 650,
							"y": 334
						},
						"m_rotationAngle": 0,
						"m_rotationRate": 0,
						"m_scaleX": 1,
						"m_scaleY": 1,
						"m_toggleName": "",
						"m_unlockedFrom": "",
						"m_unlockedNarrationID": "",
						"m_visibleFrom": "",
						"m_worldMapTutorial": "",
						"m_worldMapTutorialVisibleWhen": ""
					}, {
						"m_completedNarrationID": "",
						"m_cost": 0,
						"m_dataString": "",
						"m_displayText": "",
						"m_drawLayer": -1,
						"m_eventId": "",
						"m_eventSubType": "",
						"m_eventType": "island",
						"m_filter": 0,
						"m_imageID": 17,
						"m_inheritAssetFilter": "true",
						"m_isArtFlipped": "",
						"m_isChallengeType": "false",
						"m_levelNodeType": "",
						"m_name": "",
						"m_parallaxLayer": 0,
						"m_parentEvent": "",
						"m_position": {
							"x": 654,
							"y": 304
						},
						"m_rotationAngle": 0,
						"m_rotationRate": 0,
						"m_scaleX": 1,
						"m_scaleY": 1,
						"m_toggleName": "",
						"m_unlockedFrom": "",
						"m_unlockedNarrationID": "",
						"m_visibleFrom": "",
						"m_worldMapTutorial": "",
						"m_worldMapTutorialVisibleWhen": ""
					}, {
						"m_completedNarrationID": "",
						"m_cost": 0,
						"m_dataString": "",
						"m_displayText": "",
						"m_drawLayer": 0,
						"m_eventId": "",
						"m_eventSubType": "",
						"m_eventType": "island",
						"m_filter": 0,
						"m_imageID": 16,
						"m_inheritAssetFilter": "true",
						"m_isArtFlipped": "",
						"m_isChallengeType": "false",
						"m_levelNodeType": "",
						"m_name": "",
						"m_parallaxLayer": 0,
						"m_parentEvent": "",
						"m_position": {
							"x": 650,
							"y": 284
						},
						"m_rotationAngle": 0,
						"m_rotationRate": 0,
						"m_scaleX": 1,
						"m_scaleY": 1,
						"m_toggleName": "",
						"m_unlockedFrom": "",
						"m_unlockedNarrationID": "",
						"m_visibleFrom": "",
						"m_worldMapTutorial": "",
						"m_worldMapTutorialVisibleWhen": ""
					}, {
						"m_completedNarrationID": "",
						"m_cost": 0,
						"m_dataString": "",
						"m_displayText": "",
						"m_drawLayer": 0,
						"m_eventId": "",
						"m_eventSubType": "",
						"m_eventType": "island",
						"m_filter": 0,
						"m_imageID": 105,
						"m_inheritAssetFilter": "true",
						"m_isArtFlipped": "",
						"m_isChallengeType": "false",
						"m_levelNodeType": "",
						"m_name": "",
						"m_parallaxLayer": 0,
						"m_parentEvent": "",
						"m_position": {
							"x": 905,
							"y": 325
						},
						"m_rotationAngle": 0,
						"m_rotationRate": 0,
						"m_scaleX": 1.2,
						"m_scaleY": 1.2,
						"m_toggleName": "",
						"m_unlockedFrom": "",
						"m_unlockedNarrationID": "",
						"m_visibleFrom": "",
						"m_worldMapTutorial": "",
						"m_worldMapTutorialVisibleWhen": ""
					}, {
						"m_completedNarrationID": "",
						"m_cost": 0,
						"m_dataString": "",
						"m_displayText": "",
						"m_drawLayer": -2,
						"m_eventId": "",
						"m_eventSubType": "",
						"m_eventType": "island",
						"m_filter": 0,
						"m_imageID": 19,
						"m_inheritAssetFilter": "true",
						"m_isArtFlipped": "",
						"m_isChallengeType": "false",
						"m_levelNodeType": "",
						"m_name": "",
						"m_parallaxLayer": 0,
						"m_parentEvent": "",
						"m_position": {
							"x": 1200,
							"y": 352
						},
						"m_rotationAngle": 0,
						"m_rotationRate": 0,
						"m_scaleX": 1,
						"m_scaleY": 1,
						"m_toggleName": "",
						"m_unlockedFrom": "",
						"m_unlockedNarrationID": "",
						"m_visibleFrom": "",
						"m_worldMapTutorial": "",
						"m_worldMapTutorialVisibleWhen": ""
					}, {
						"m_completedNarrationID": "",
						"m_cost": 0,
						"m_dataString": "",
						"m_displayText": "",
						"m_drawLayer": -1,
						"m_eventId": "",
						"m_eventSubType": "",
						"m_eventType": "island",
						"m_filter": 0,
						"m_imageID": 17,
						"m_inheritAssetFilter": "true",
						"m_isArtFlipped": "",
						"m_isChallengeType": "false",
						"m_levelNodeType": "",
						"m_name": "",
						"m_parallaxLayer": 0,
						"m_parentEvent": "",
						"m_position": {
							"x": 1204,
							"y": 314
						},
						"m_rotationAngle": 0,
						"m_rotationRate": 0,
						"m_scaleX": 1,
						"m_scaleY": 1,
						"m_toggleName": "",
						"m_unlockedFrom": "",
						"m_unlockedNarrationID": "",
						"m_visibleFrom": "",
						"m_worldMapTutorial": "",
						"m_worldMapTutorialVisibleWhen": ""
					}, {
						"m_completedNarrationID": "",
						"m_cost": 0,
						"m_dataString": "",
						"m_displayText": "",
						"m_drawLayer": 0,
						"m_eventId": "",
						"m_eventSubType": "",
						"m_eventType": "island",
						"m_filter": 0,
						"m_imageID": 16,
						"m_inheritAssetFilter": "true",
						"m_isArtFlipped": "",
						"m_isChallengeType": "false",
						"m_levelNodeType": "",
						"m_name": "",
						"m_parallaxLayer": 0,
						"m_parentEvent": "",
						"m_position": {
							"x": 1200,
							"y": 294
						},
						"m_rotationAngle": 0,
						"m_rotationRate": 0,
						"m_scaleX": 1,
						"m_scaleY": 1,
						"m_toggleName": "",
						"m_unlockedFrom": "",
						"m_unlockedNarrationID": "",
						"m_visibleFrom": "",
						"m_worldMapTutorial": "",
						"m_worldMapTutorialVisibleWhen": ""
					}, {
						"m_completedNarrationID": "",
						"m_cost": 0,
						"m_dataString": "",
						"m_displayText": "0",
						"m_drawLayer": 0,
						"m_eventId": "0",
						"m_eventSubType": "",
						"m_eventType": "island",
						"m_filter": 0,
						"m_imageID": 79,
						"m_inheritAssetFilter": "true",
						"m_isArtFlipped": "",
						"m_isChallengeType": "FALSE",
						"m_levelNodeType": "",
						"m_name": "",
						"m_parallaxLayer": 10,
						"m_parentEvent": "",
						"m_position": {
							"x": 260,
							"y": 125
						},
						"m_rotationAngle": 0,
						"m_rotationRate": 0,
						"m_scaleX": 1,
						"m_scaleY": 1,
						"m_toggleName": "",
						"m_unlockedFrom": "",
						"m_unlockedNarrationID": "",
						"m_visibleFrom": "",
						"m_worldMapTutorial": "",
						"m_worldMapTutorialVisibleWhen": ""
					}, {
						"m_completedNarrationID": "",
						"m_cost": 0,
						"m_dataString": "",
						"m_displayText": "0",
						"m_drawLayer": 1,
						"m_eventId": "0",
						"m_eventSubType": "",
						"m_eventType": "island",
						"m_filter": 0,
						"m_imageID": 110,
						"m_inheritAssetFilter": "true",
						"m_isArtFlipped": "",
						"m_isChallengeType": "FALSE",
						"m_levelNodeType": "",
						"m_name": "",
						"m_parallaxLayer": 10,
						"m_parentEvent": "",
						"m_position": {
							"x": 255,
							"y": 305
						},
						"m_rotationAngle": 0,
						"m_rotationRate": 0,
						"m_scaleX": 0.5,
						"m_scaleY": 0.5,
						"m_toggleName": "",
						"m_unlockedFrom": "",
						"m_unlockedNarrationID": "",
						"m_visibleFrom": "",
						"m_worldMapTutorial": "",
						"m_worldMapTutorialVisibleWhen": ""
					} ],
				"m_resGroupID": 71,
				"m_version": 1,
				"m_worldId": 71,
				"m_worldName": "rift61"
			},
			"uid": "1.0.0"
		} ],
	"version": 1
}