{
	"#comment": "Zombie Scaling Epic Quest 2a - Level 8",
	"objects": [ {
			"objclass": "LevelDefinition",
			"objdata": {
				"Description": "[PLAYERS_EPIC_QUEST_ZOMBIESCALING_2]",
				"DisablePlantBoosts": true,
				"FirstRewardParam": "free_pinata_elder_expansion_levels",
				"FirstRewardType": "pinata",
				"LevelNumber": 8,
				"Loot": "RTID(DefaultLoot@LevelModules)",
				"Modules": [ "RTID(StandardIntro@LevelModules)", "RTID(DefaultSecurityGourds@LevelModules)", "RTID(DefaultSunDropper@LevelModules)", "RTID(DefaultZombieWinCondition@LevelModules)", "RTID(ZombiesDeadWinCon@LevelModules)", "RTID(GoldTiles@CurrentLevel)", "RTID(SeedBank@CurrentLevel)", "RTID(NewWaves@CurrentLevel)" ],
				"Name": "[EPIC_QUEST_ZOMBIESCALING_LEVELNAME]",
				"NormalPresentTable": "egypt_normal_01",
				"ShinyPresentTable": "egypt_shiny_01",
				"StageModule": "RTID(LostCityStageNoPowerUps@LevelModules)",
				"SuppressAccountUpgrades": true,
				"SuppressPlantfoodPurchase": true,
				"ZombieLevel": 8,
				"GridItemLevel": 8
			}
		}, {
			"aliases": [ "SeedBank" ],
			"objclass": "SeedBankProperties",
			"objdata": {
				"SelectionMethod": "chooser"
			}
		}, {
			"aliases": [ "GoldTiles" ],
			"objclass": "InitialGridItemProperties",
			"objdata": {
				"InitialGridItemPlacements": [ {
						"GridX": 0,
						"GridY": 0,
						"TypeName": "goldtile"
					}, {
						"GridX": 8,
						"GridY": 0,
						"TypeName": "goldtile"
					}, {
						"GridX": 2,
						"GridY": 0,
						"TypeName": "goldtile"
					}, {
						"GridX": 6,
						"GridY": 0,
						"TypeName": "goldtile"
					}, {
						"GridX": 7,
						"GridY": 1,
						"TypeName": "goldtile"
					}, {
						"GridX": 1,
						"GridY": 1,
						"TypeName": "goldtile"
					}, {
						"GridX": 4,
						"GridY": 1,
						"TypeName": "goldtile"
					}, {
						"GridX": 0,
						"GridY": 2,
						"TypeName": "goldtile"
					}, {
						"GridX": 8,
						"GridY": 2,
						"TypeName": "goldtile"
					}, {
						"GridX": 2,
						"GridY": 2,
						"TypeName": "goldtile"
					}, {
						"GridX": 6,
						"GridY": 2,
						"TypeName": "goldtile"
					}, {
						"GridX": 7,
						"GridY": 3,
						"TypeName": "goldtile"
					}, {
						"GridX": 1,
						"GridY": 3,
						"TypeName": "goldtile"
					}, {
						"GridX": 4,
						"GridY": 3,
						"TypeName": "goldtile"
					}, {
						"GridX": 0,
						"GridY": 4,
						"TypeName": "goldtile"
					}, {
						"GridX": 8,
						"GridY": 4,
						"TypeName": "goldtile"
					}, {
						"GridX": 2,
						"GridY": 4,
						"TypeName": "goldtile"
					}, {
						"GridX": 6,
						"GridY": 4,
						"TypeName": "goldtile"
					} ]
			}
		}, {
			"aliases": [ "NewWaves" ],
			"objclass": "WaveManagerModuleProperties",
			"objdata": {
				"DynamicZombies": [ {
						"PointIncrementPerWave": -40,
						"StartingPoints": -100,
						"StartingWave": 3,
						"ZombiePool": [ "RTID(lostcity@ZombieTypes)", "RTID(lostcity_armor1@ZombieTypes)", "RTID(lostcity_armor2@ZombieTypes)" ]
					}, {
						"PointIncrementPerWave": -25,
						"StartingPoints": -100,
						"StartingWave": 4,
						"ZombiePool": [ "RTID(lostcity@ZombieTypes)", "RTID(lostcity_armor1@ZombieTypes)", "RTID(lostcity_armor2@ZombieTypes)" ]
					}, {
						"PointIncrementPerWave": -10,
						"StartingPoints": -100,
						"StartingWave": 5,
						"ZombiePool": [ "RTID(lostcity@ZombieTypes)", "RTID(lostcity_armor1@ZombieTypes)", "RTID(lostcity_armor2@ZombieTypes)" ]
					}, {}, {
						"PointIncrementPerWave": 20,
						"StartingPoints": 100,
						"StartingWave": 5,
						"ZombiePool": [ "RTID(lostcity@ZombieTypes)", "RTID(lostcity_armor1@ZombieTypes)", "RTID(lostcity_armor2@ZombieTypes)" ]
					}, {
						"PointIncrementPerWave": 40,
						"StartingPoints": 200,
						"StartingWave": 4,
						"ZombiePool": [ "RTID(lostcity@ZombieTypes)", "RTID(lostcity_armor1@ZombieTypes)", "RTID(lostcity_armor2@ZombieTypes)" ]
					}, {
						"PointIncrementPerWave": 60,
						"StartingPoints": 400,
						"StartingWave": 3,
						"ZombiePool": [ "RTID(lostcity@ZombieTypes)", "RTID(lostcity_armor2@ZombieTypes)" ]
					} ],
				"WaveManagerProps": "RTID(WaveManagerProps@CurrentLevel)"
			}
		}, {
			"aliases": [ "WaveManagerProps" ],
			"objclass": "WaveManagerProperties",
			"objdata": {
				"FlagWaveInterval": 3,
				"WaveCount": 6,
				"WaveSpendingPointIncrement": 200,
				"WaveSpendingPoints": 100,
				"Waves": [ [ "RTID(Wave1@CurrentLevel)" ], [ "RTID(Wave2@CurrentLevel)" ], [ "RTID(Wave3@CurrentLevel)" ], [ "RTID(Wave4@CurrentLevel)" ], [ "RTID(Wave5@CurrentLevel)" ], [ "RTID(Wave6@CurrentLevel)" ] ]
			}
		}, {
			"aliases": [ "Wave1" ],
			"objclass": "SpawnZombiesJitteredWaveActionProps",
			"objdata": {
				"Zombies": [ {
						"Type": "RTID(lostcity@ZombieTypes)"
					} ]
			}
		}, {
			"aliases": [ "Wave2" ],
			"objclass": "SpawnZombiesJitteredWaveActionProps",
			"objdata": {
				"Zombies": [ {
						"Row": "5",
						"Type": "RTID(lostcity@ZombieTypes)"
					}, {
						"Row": "3",
						"Type": "RTID(lostcity_armor1@ZombieTypes)"
					}, {
						"Type": "RTID(lostcity@ZombieTypes)"
					} ]
			}
		}, {
			"aliases": [ "Wave3" ],
			"objclass": "SpawnZombiesJitteredWaveActionProps",
			"objdata": {
				"AdditionalPlantfood": 0,
				"Zombies": [ {
						"Type": "RTID(lostcity_armor1@ZombieTypes)"
					}, {
						"Type": "RTID(lostcity@ZombieTypes)"
					}, {
						"Row": "3",
						"Type": "RTID(lostcity_impporter@ZombieTypes)"
					}, {
						"Type": "RTID(lostcity_relichunter@ZombieTypes)"
					}, {
						"Type": "RTID(lostcity@ZombieTypes)"
					} ]
			}
		}, {
			"aliases": [ "Wave4" ],
			"objclass": "SpawnZombiesJitteredWaveActionProps",
			"objdata": {
				"AdditionalPlantfood": 0,
				"Zombies": [ {
						"Type": "RTID(lostcity@ZombieTypes)"
					}, {
						"Row": "4",
						"Type": "RTID(lostcity_impporter@ZombieTypes)"
					}, {
						"Row": "2",
						"Type": "RTID(lostcity_impporter@ZombieTypes)"
					} ]
			}
		}, {
			"aliases": [ "Wave5" ],
			"objclass": "SpawnZombiesJitteredWaveActionProps",
			"objdata": {
				"AdditionalPlantfood": 1,
				"Zombies": [ {
						"Type": "RTID(lostcity_armor1@ZombieTypes)"
					}, {
						"Row": "5",
						"Type": "RTID(lostcity_impporter@ZombieTypes)"
					}, {
						"Row": "1",
						"Type": "RTID(lostcity_impporter@ZombieTypes)"
					}, {
						"Type": "RTID(lostcity@ZombieTypes)"
					} ]
			}
		}, {
			"aliases": [ "Wave6" ],
			"objclass": "SpawnZombiesJitteredWaveActionProps",
			"objdata": {
				"AdditionalPlantfood": 0,
				"Zombies": [ {
						"Type": "RTID(lostcity@ZombieTypes)"
					}, {
						"Type": "RTID(lostcity@ZombieTypes)"
					}, {
						"Type": "RTID(lostcity_gargantuar@ZombieTypes)"
					}, {
						"Type": "RTID(lostcity_relichunter@ZombieTypes)"
					}, {
						"Type": "RTID(lostcity_relichunter@ZombieTypes)"
					} ]
			}
		} ],
	"version": 1
}