{
	"#comment": "Zombie Scaling Epic Quest - Level 2",
	"objects": [ {
			"objclass": "LevelDefinition",
			"objdata": {
				"Description": "[PLAYERS_EPIC_QUEST_ZOMBIESCALING]",
				"FirstIntroNarrative": "EPIC_QUEST_ZOMBIESCALING_02_INTRO",
				"LevelNumber": 2,
				"Loot": "RTID(DefaultLoot@LevelModules)",
				"FirstRewardType": "pinata",
				"FirstRewardParam": "free_pinata_elder_expansion_levels",
				"Modules": [ "RTID(StandardIntro@LevelModules)", "RTID(DefaultSunDropper@LevelModules)", "RTID(ZombiesDeadWinCon@LevelModules)", "RTID(SeedBank@CurrentLevel)", "RTID(DefaultZombieWinCondition@LevelModules)", "RTID(NewWaves@CurrentLevel)" ],
				"Name": "[EPIC_QUEST_ZOMBIESCALING_LEVELNAME]",
				"NormalPresentTable": "egypt_normal_01",
				"ShinyPresentTable": "egypt_shiny_01",
				"StageModule": "RTID(ModernStageNoPowerUps@LevelModules)",
				"SuppressAccountUpgrades": true,
				"SuppressPlantfoodPurchase": true,
				"FixedPlantLevel": 1,
				"ZombieLevel": 2,
				"DisablePlantBoosts": true
			}
		}, {
			"aliases": [ "SeedBank" ],
			"objclass": "SeedBankProperties",
			"objdata": {
				"PresetPlantList": [],
				"SelectionMethod": "chooser"
			}
		}, {
			"aliases": [ "NewWaves" ],
			"objclass": "WaveManagerModuleProperties",
			"objdata": {
				"DynamicZombies": [ {
						"PointIncrementPerWave": -40,
						"StartingPoints": -100,
						"StartingWave": 3,
						"ZombiePool": [ "RTID(tutorial@ZombieTypes)", "RTID(tutorial_armor1@ZombieTypes)", "RTID(tutorial_armor2@ZombieTypes)" ]
					}, {
						"PointIncrementPerWave": -25,
						"StartingPoints": -100,
						"StartingWave": 4,
						"ZombiePool": [ "RTID(tutorial@ZombieTypes)", "RTID(tutorial_armor1@ZombieTypes)", "RTID(tutorial_armor2@ZombieTypes)" ]
					}, {
						"PointIncrementPerWave": -10,
						"StartingPoints": -100,
						"StartingWave": 5,
						"ZombiePool": [ "RTID(tutorial@ZombieTypes)", "RTID(tutorial_armor1@ZombieTypes)", "RTID(tutorial_armor2@ZombieTypes)" ]
					}, {}, {
						"PointIncrementPerWave": 20,
						"StartingPoints": 100,
						"StartingWave": 5,
						"ZombiePool": [ "RTID(tutorial@ZombieTypes)", "RTID(tutorial_armor1@ZombieTypes)", "RTID(tutorial_armor2@ZombieTypes)" ]
					}, {
						"PointIncrementPerWave": 40,
						"StartingPoints": 200,
						"StartingWave": 4,
						"ZombiePool": [ "RTID(tutorial_armor1@ZombieTypes)", "RTID(tutorial_armor2@ZombieTypes)" ]
					}, {
						"PointIncrementPerWave": 60,
						"StartingPoints": 400,
						"StartingWave": 3,
						"ZombiePool": [ "RTID(tutorial_armor2@ZombieTypes)" ]
					} ],
				"WaveManagerProps": "RTID(WaveManagerProps@CurrentLevel)"
			}
		}, {
			"aliases": [ "WaveManagerProps" ],
			"objclass": "WaveManagerProperties",
			"objdata": {
				"FlagWaveInterval": 3,
				"WaveCount": 6,
				"WaveSpendingPointIncrement": 150,
				"WaveSpendingPoints": 100,
				"Waves": [ [ "RTID(Wave1@CurrentLevel)" ], [ "RTID(Wave2@CurrentLevel)" ], [ "RTID(Wave3@CurrentLevel)" ], [ "RTID(Wave4@CurrentLevel)" ], [ "RTID(Wave5@CurrentLevel)" ], [ "RTID(Wave6@CurrentLevel)" ] ]
			}
		}, {
			"aliases": [ "Wave1" ],
			"objclass": "SpawnZombiesJitteredWaveActionProps",
			"objdata": {
				"AdditionalPlantfood": 0,
				"Zombies": [ {
						"Type": "RTID(tutorial@ZombieTypes)"
					} ]
			}
		}, {
			"aliases": [ "Wave2" ],
			"objclass": "SpawnZombiesJitteredWaveActionProps",
			"objdata": {
				"AdditionalPlantfood": 1,
				"Zombies": [ {
						"Type": "RTID(tutorial@ZombieTypes)"
					}, {
						"Type": "RTID(tutorial_armor1@ZombieTypes)"
					} ]
			}
		}, {
			"aliases": [ "Wave3" ],
			"objclass": "SpawnZombiesJitteredWaveActionProps",
			"objdata": {
				"AdditionalPlantfood": 0,
				"Zombies": [ {
						"Type": "RTID(tutorial@ZombieTypes)"
					}, {
						"Type": "RTID(tutorial_armor2@ZombieTypes)"
					}, {
						"Row": "4",
						"Type": "RTID(future_jetpack@ZombieTypes)"
					}, {
						"Row": "2",
						"Type": "RTID(future_jetpack@ZombieTypes)"
					} ]
			}
		}, {
			"aliases": [ "Wave4" ],
			"objclass": "SpawnZombiesJitteredWaveActionProps",
			"objdata": {
				"Zombies": [ {
						"Row": "5",
						"Type": "RTID(future_jetpack@ZombieTypes)"
					}, {
						"Row": "1",
						"Type": "RTID(future_jetpack@ZombieTypes)"
					} ]
			}
		}, {
			"aliases": [ "Wave5" ],
			"objclass": "SpawnZombiesJitteredWaveActionProps",
			"objdata": {
				"AdditionalPlantfood": 1,
				"Zombies": [ {
						"Type": "RTID(tutorial@ZombieTypes)"
					}, {
						"Type": "RTID(tutorial_armor2@ZombieTypes)"
					}, {
						"Type": "RTID(tutorial@ZombieTypes)"
					}, {
						"Type": "RTID(tutorial@ZombieTypes)"
					} ]
			}
		}, {
			"aliases": [ "Wave6" ],
			"objclass": "SpawnZombiesJitteredWaveActionProps",
			"objdata": {
				"Zombies": [ {
						"Row": "3",
						"Type": "RTID(tutorial_gargantuar@ZombieTypes)"
					}, {
						"Row": "4",
						"Type": "RTID(future_jetpack@ZombieTypes)"
					}, {
						"Row": "2",
						"Type": "RTID(future_jetpack@ZombieTypes)"
					} ]
			}
		} ],
	"version": 1
}