{
	"#comment": "Rift 1B node 6 - Beach 24 v2",
	"objects": [
		{
			"objclass": "LevelDefinition",
			"objdata": {
				"Description": "[PLAYERS_TRIP_TO_RIFT]",
				"LevelNumber": 8,
				"Loot": "",
				"Modules": [
					"RTID(StandardRiftIntro@LevelModules)",
					"RTID(ZombiesDeadWinCon@LevelModules)",
					"RTID(BeachMowers@LevelModules)",
					"RTID(ConveyorBelt@CurrentLevel)",
					"RTID(DefaultZombieWinCondition@LevelModules)",
					"RTID(NewWaves@CurrentLevel)",
					"RTID(PerkActivator@CurrentLevel)",
					"RTID(LevelDifficultyScaling@CurrentLevel)",
					"RTID(LilypadPlacement@CurrentLevel)",
					"RTID(WaveDuplicator@CurrentLevel)",
					"RTID(Tide@CurrentLevel)",
					"RTID(LevelScoring@CurrentLevel)",
					"RTID(BowlingBulbMinigame@CurrentLevel)"
				],
				"MusicType": "MiniGame_B",
				"Name": "[BEACH_LEVEL_NAME]",
				"NormalPresentTable": "egypt_normal_01",
				"ShinyPresentTable": "egypt_shiny_01",
				"VictoryModule": "RTID(RiftOutro@LevelModules)",
				"StageModule": "RTID(BeachStage@LevelModules)",
				"LevelMutator": "RTID(LevelMutator@CurrentLevel)",
				"PerksDisabledInLevel": [
					"bossbustercannon",
					"zombieinhibitorballista",
					"sunbank",
					"applyconditionplantfood",
					"mineisyours",
					"mineisyours_shinevine",
					"mineisyours_goldbloom"
				],
				"PerksDisabledPerDifficulty": [
					[],
					[],
					[]
				]
			}
		},
		{
			"aliases": [
				"LevelScoring"
			],
			"objclass": "LevelScoringModuleProperties",
			"objdata": {
				"PlantBonusMultiplier": 0.0,
				"PlantBonuses": [],
				"ScoringRulesType": "Rift",
				"StartingPlantfood": 0
			}
		},
		{
			"aliases": [
				"WaveDuplicator"
			],
			"objclass": "WaveDuplicatorModuleProperties",
			"objdata": {
				"PeriodOfWavesToLoop": 6,
				"WaveSetsToAppend": 20
			}
		},
		{
			"aliases": [
				"PerkActivator"
			],
			"objclass": "PerkHandlerModuleProperties",
			"objdata": {}
		},
		{
			"aliases": [
				"LevelMutator"
			],
			"objclass": "LevelMutatorModuleProperties",
			"objdata": {
				"MutatorTables": [
					"RTID(MutatorPropsRiftBowling@LevelMutatorTables)",
					"RTID(LocalChallengeMutator@CurrentLevel)",
					"RTID(LocalMainChallengeMutator@CurrentLevel)"
				]
			}
		},
		{
			"aliases": [
				"LocalMainChallengeMutator"
			],
			"objclass": "LevelMutatorTableProps",
			"objdata": {
				"Tables": [
					{
						"Level": 0,
						"ModuleType": "mainchallenge",
						"Modules": [
							"RTID(LevelTimer@CurrentLevel)"
						]
					},
					{
						"Level": 1,
						"ModuleType": "mainchallenge",
						"Modules": [
							"RTID(LevelTimer@CurrentLevel)"
						]
					},
					{
						"Level": 2,
						"ModuleType": "mainchallenge",
						"Modules": [
							"RTID(LevelTimer@CurrentLevel)"
						]
					}
				]
			}
		},
		{
			"aliases": [
				"LevelTimer"
			],
			"objclass": "StarChallengeLevelTimerProperties",
			"objdata": {
				"TimeLimit": 180
			}
		},
		{
			"aliases": [
				"LocalChallengeMutator"
			],
			"objclass": "LevelMutatorTableProps",
			"objdata": {
				"Tables": [
					{
						"Level": 0,
						"Modules": [
							"RTID(ReachTheScore1@CurrentLevel)"
						],
						"ModuleType": "bonuschallenge"
					},
					{
						"Level": 1,
						"Modules": [
							"RTID(ReachTheScore2@CurrentLevel)",
							"RTID(ZombieDistance2@CurrentLevel)"
						],
						"ModuleType": "bonuschallenge"
					},
					{
						"Level": 2,
						"Modules": [
							"RTID(ReachTheScore3@CurrentLevel)",
							"RTID(ZombieDistance3@CurrentLevel)"
						],
						"ModuleType": "bonuschallenge"
					}
				]
			}
		},
		{
			"aliases": [
				"ReachTheScore1"
			],
			"objclass": "StarChallengeTargetScoreProps",
			"objdata": {
				"Description": "[STARCHALLENGE_SCORE_TO_BEAT]",
				"DescriptionFailure": "[STARCHALLENGE_TARGET_SCORE_FAILURE]",
				"DescriptiveName": "[STARCHALLENGE_TARGET_SCORE_NAME]",
				"TargetScore": 2500000
			}
		},
		{
			"aliases": [
				"ReachTheScore2"
			],
			"objclass": "StarChallengeTargetScoreProps",
			"objdata": {
				"Description": "[STARCHALLENGE_SCORE_TO_BEAT]",
				"DescriptionFailure": "[STARCHALLENGE_TARGET_SCORE_FAILURE]",
				"DescriptiveName": "[STARCHALLENGE_TARGET_SCORE_NAME]",
				"TargetScore": 1750000
			}
		},
		{
			"aliases": [
				"ReachTheScore3"
			],
			"objclass": "StarChallengeTargetScoreProps",
			"objdata": {
				"Description": "[STARCHALLENGE_SCORE_TO_BEAT]",
				"DescriptionFailure": "[STARCHALLENGE_TARGET_SCORE_FAILURE]",
				"DescriptiveName": "[STARCHALLENGE_TARGET_SCORE_NAME]",
				"TargetScore": 1250000
			}
		},
		{
			"aliases": [
				"ZombieDistance2"
			],
			"objclass": "StarChallengeZombieDistanceProps",
			"objdata": {
				"TargetDistance": 0
			}
		},
		{
			"aliases": [
				"ZombieDistance3"
			],
			"objclass": "StarChallengeZombieDistanceProps",
			"objdata": {
				"TargetDistance": 1
			}
		},
		{
			"aliases": [
				"Tide"
			],
			"objclass": "TideProperties",
			"objdata": {
				"ShowTideMarker": false,
				"StartingWaveLocation": 3
			}
		},
		{
			"aliases": [
				"ConveyorBelt"
			],
			"objclass": "ConveyorSeedBankProperties",
			"objdata": {
				"DropDelayConditions": [
					{
						"Delay": 2,
						"MaxPackets": 0
					},
					{
						"Delay": 3,
						"MaxPackets": 2
					},
					{
						"Delay": 4,
						"MaxPackets": 4
					},
					{
						"Delay": 5,
						"MaxPackets": 8
					}
				],
				"InitialPlantList": [
					{
						"MaxCount": 3,
						"MaxCountCooldownSeconds": 6,
						"MaxWeightFactor": 0,
						"PlantType": "tool_projectile_bowlingbulb_explode",
						"Weight": 80
					},
					{
						"MaxCount": 10,
						"MaxCountCooldownSeconds": 5,
						"MaxWeightFactor": 0,
						"MinCount": 3,
						"MinWeightFactor": 2,
						"PlantType": "slingpea",
						"Weight": 20
					},
					{
						"MaxCount": 1,
						"MaxCountCooldownSeconds": 15,
						"MaxWeightFactor": 0,
						"MinCount": 0,
						"MinWeightFactor": 0,
						"PlantType": "armamint",
						"Weight": 10
					},
					{
						"MaxCount": 5,
						"MaxCountCooldownSeconds": 20,
						"MaxWeightFactor": 0,
						"MinCount": 0,
						"MinWeightFactor": 0,
						"PlantType": "chomper",
						"Weight": 10
					}
				],
				"SpeedConditions": [
					{
						"MaxPackets": 0,
						"Speed": 135
					}
				]
			}
		},
		{
			"aliases": [
				"LilypadPlacement"
			],
			"objclass": "InitialGridItemProperties",
			"objdata": {}
		},
		{
			"aliases": [
				"BowlingBulbMinigame"
			],
			"objclass": "BowlingMinigameProperties",
			"objdata": {
				"BowlingFoulLine": 2
			}
		},
		{
			"aliases": [
				"LevelDifficultyScaling"
			],
			"objclass": "LevelDifficultyScalingModuleProperties",
			"objdata": {
				"DifficultyRulesType": "RiftDifficulty",
				"ZombieLevelSwaps": [
					{
						"Level": 0,
						"Swaps": [
							{
								"From": "RTID(beach_imp@ZombieTypes)",
								"To": [
									"RTID(spring_imp@ZombieTypes)",
									"RTID(roman@ZombieTypes)",
									"RTID(beach_imp@ZombieTypes)"
								]
							},
							{
								"From": "RTID(beach_fem@ZombieTypes)",
								"To": [
									"RTID(spring_imp@ZombieTypes)",
									"RTID(roman@ZombieTypes)",
									"RTID(spring@ZombieTypes)"
								]
							},
							{
								"From": "RTID(beach@ZombieTypes)",
								"To": [
									"RTID(spring_imp@ZombieTypes)",
									"RTID(roman@ZombieTypes)",
									"RTID(spring@ZombieTypes)"
								]
							},
							{
								"From": "RTID(beach_fem_armor1@ZombieTypes)",
								"To": [
									"RTID(beach_fem@ZombieTypes)",
									"RTID(roman_armor1@ZombieTypes)",
									"RTID(lostcity_bug_armor1@ZombieTypes)"
								]
							},
							{
								"From": "RTID(beach_armor1@ZombieTypes)",
								"To": [
									"RTID(spring@ZombieTypes)",
									"RTID(roman_armor1@ZombieTypes)",
									"RTID(spring_poncho@ZombieTypes)"
								]
							},
							{
								"From": "RTID(beach_fem_armor2@ZombieTypes)",
								"To": [
									"RTID(beach_fem_armor1@ZombieTypes)",
									"RTID(roman_armor2@ZombieTypes)",
									"RTID(spring_poncho@ZombieTypes)"
								]
							},
							{
								"From": "RTID(beach_armor2@ZombieTypes)",
								"To": [
									"RTID(beach_armor1@ZombieTypes)",
									"RTID(roman_armor2@ZombieTypes)",
									"RTID(spring_poncho@ZombieTypes)"
								]
							},
							{
								"From": "RTID(beach_surfer@ZombieTypes)",
								"To": [
									"RTID(beach_surfer@ZombieTypes)",
									"RTID(roman_shield_triad@ZombieTypes)"
								]
							},
							{
								"From": "RTID(beach_gargantuar@ZombieTypes)",
								"To": [
									"RTID(beach_surfer@ZombieTypes)",
									"RTID(spring_gargantuar@ZombieTypes)"
								]
							}
						]
					},
					{
						"Level": 4,
						"Swaps": [
							{
								"From": "RTID(beach_imp@ZombieTypes)",
								"To": [
									"RTID(spring_imp@ZombieTypes)",
									"RTID(tutorial_armor1@ZombieTypes)",
									"RTID(beach_armor1@ZombieTypes)"
								]
							},
							{
								"From": "RTID(beach_fem@ZombieTypes)",
								"To": [
									"RTID(beach_fem@ZombieTypes)",
									"RTID(roman_armor1@ZombieTypes)",
									"RTID(beach_armor1@ZombieTypes)"
								]
							},
							{
								"From": "RTID(beach@ZombieTypes)",
								"To": [
									"RTID(spring_armor1@ZombieTypes)",
									"RTID(roman_armor1@ZombieTypes)",
									"RTID(roman@ZombieTypes)"
								]
							},
							{
								"From": "RTID(beach_fem_armor1@ZombieTypes)",
								"To": [
									"RTID(beach_fem_armor1@ZombieTypes)",
									"RTID(roman_armor1@ZombieTypes)",
									"RTID(lostcity_bug_armor1@ZombieTypes)"
								]
							},
							{
								"From": "RTID(beach_armor1@ZombieTypes)",
								"To": [
									"RTID(beach_armor1@ZombieTypes)",
									"RTID(roman_armor2@ZombieTypes)",
									"RTID(spring_poncho@ZombieTypes)"
								]
							},
							{
								"From": "RTID(beach_fem_armor2@ZombieTypes)",
								"To": [
									"RTID(beach_fem_armor2@ZombieTypes)",
									"RTID(roman_shield_triad@ZombieTypes)",
									"RTID(spring_poncho@ZombieTypes)"
								]
							},
							{
								"From": "RTID(beach_armor2@ZombieTypes)",
								"To": [
									"RTID(spring_armor2@ZombieTypes)",
									"RTID(roman_shield_triad@ZombieTypes)",
									"RTID(spring_poncho@ZombieTypes)"
								]
							},
							{
								"From": "RTID(beach_surfer@ZombieTypes)",
								"To": [
									"RTID(beach_surfer@ZombieTypes)",
									"RTID(beach_surfer@ZombieTypes)",
									"RTID(beach_surfer@ZombieTypes)",
									"RTID(beach_surfer@ZombieTypes)",
									"RTID(beach_surfer@ZombieTypes)",
									"RTID(beach_surfer@ZombieTypes)",
									"RTID(roman_shield_triad@ZombieTypes)",
									"RTID(roman_shield_triad@ZombieTypes)",
									"RTID(roman_shield_triad@ZombieTypes)",
									"RTID(roman_shield_triad@ZombieTypes)",
									"RTID(roman_shield_triad@ZombieTypes)",
									"RTID(roman_healer@ZombieTypes)"
								]
							},
							{
								"From": "RTID(beach_gargantuar@ZombieTypes)",
								"To": [
									"RTID(spring_gargantuar@ZombieTypes)",
									"RTID(roman_gargantuar@ZombieTypes)"
								]
							}
						]
					},
					{
						"Level": 7,
						"Swaps": [
							{
								"From": "RTID(beach_imp@ZombieTypes)",
								"To": [
									"RTID(spring_imp@ZombieTypes)",
									"RTID(tutorial_armor1@ZombieTypes)",
									"RTID(beach_armor1@ZombieTypes)"
								]
							},
							{
								"From": "RTID(beach_fem@ZombieTypes)",
								"To": [
									"RTID(beach_fem@ZombieTypes)",
									"RTID(roman_armor1@ZombieTypes)",
									"RTID(beach_armor1@ZombieTypes)"
								]
							},
							{
								"From": "RTID(beach@ZombieTypes)",
								"To": [
									"RTID(beach@ZombieTypes)",
									"RTID(roman_armor2@ZombieTypes)",
									"RTID(roman@ZombieTypes)"
								]
							},
							{
								"From": "RTID(beach_fem_armor1@ZombieTypes)",
								"To": [
									"RTID(beach_fem_armor1@ZombieTypes)",
									"RTID(roman_armor2@ZombieTypes)",
									"RTID(lostcity_bug_armor2@ZombieTypes)"
								]
							},
							{
								"From": "RTID(beach_armor1@ZombieTypes)",
								"To": [
									"RTID(beach_armor1@ZombieTypes)",
									"RTID(roman_shield_triad@ZombieTypes)",
									"RTID(spring_poncho@ZombieTypes)"
								]
							},
							{
								"From": "RTID(beach_fem_armor2@ZombieTypes)",
								"To": [
									"RTID(beach_fem_armor2@ZombieTypes)",
									"RTID(roman_shield_triad@ZombieTypes)",
									"RTID(spring_poncho@ZombieTypes)"
								]
							},
							{
								"From": "RTID(beach_armor2@ZombieTypes)",
								"To": [
									"RTID(spring_armor2@ZombieTypes)",
									"RTID(roman_shield_triad@ZombieTypes)",
									"RTID(spring_poncho@ZombieTypes)"
								]
							},
							{
								"From": "RTID(beach_surfer@ZombieTypes)",
								"To": [
									"RTID(beach_surfer@ZombieTypes)",
									"RTID(beach_surfer@ZombieTypes)",
									"RTID(beach_surfer@ZombieTypes)",
									"RTID(beach_surfer@ZombieTypes)",
									"RTID(beach_surfer@ZombieTypes)",
									"RTID(roman_shield_triad@ZombieTypes)",
									"RTID(roman_shield_triad@ZombieTypes)",
									"RTID(roman_shield_triad@ZombieTypes)",
									"RTID(roman_healer@ZombieTypes)"
								]
							},
							{
								"From": "RTID(beach_gargantuar@ZombieTypes)",
								"To": [
									"RTID(roman_gargantuar@ZombieTypes)"
								]
							}
						]
					}
				]
			}
		},
		{
			"aliases": [
				"NewWaves"
			],
			"objclass": "WaveManagerModuleProperties",
			"objdata": {
				"DynamicZombies": [
					{
						"PointIncrementPerWave": -40,
						"StartingPoints": -100,
						"StartingWave": 3,
						"ZombiePool": [
							"RTID(beach@ZombieTypes)",
							"RTID(beach_armor1@ZombieTypes)",
							"RTID(beach_fem_armor2@ZombieTypes)",
							"RTID(roman@ZombieTypes)",
							"RTID(roman_armor1@ZombieTypes)",
							"RTID(roman_armor2@ZombieTypes)",
							"RTID(beach_imp@ZombieTypes)",
							"RTID(beach_snorkel@ZombieTypes)",
							"RTID(beach_surfer@ZombieTypes)"
						]
					},
					{
						"PointIncrementPerWave": -25,
						"StartingPoints": -100,
						"StartingWave": 4,
						"ZombiePool": [
							"RTID(beach@ZombieTypes)",
							"RTID(beach_armor1@ZombieTypes)",
							"RTID(beach_fem_armor2@ZombieTypes)",
							"RTID(roman@ZombieTypes)",
							"RTID(roman_armor1@ZombieTypes)",
							"RTID(roman_armor2@ZombieTypes)",
							"RTID(beach_imp@ZombieTypes)",
							"RTID(beach_snorkel@ZombieTypes)",
							"RTID(beach_surfer@ZombieTypes)"
						]
					},
					{
						"PointIncrementPerWave": -10,
						"StartingPoints": -100,
						"StartingWave": 5,
						"ZombiePool": [
							"RTID(beach@ZombieTypes)",
							"RTID(beach_armor1@ZombieTypes)",
							"RTID(beach_fem_armor2@ZombieTypes)",
							"RTID(roman@ZombieTypes)",
							"RTID(roman_armor1@ZombieTypes)",
							"RTID(roman_armor2@ZombieTypes)",
							"RTID(beach_imp@ZombieTypes)",
							"RTID(beach_snorkel@ZombieTypes)",
							"RTID(beach_surfer@ZombieTypes)"
						]
					},
					{
						"PointIncrementPerWave": 250,
						"StartingPoints": 1000,
						"StartingWave": 2,
						"ZombiePool": [
							"RTID(beach@ZombieTypes)",
							"RTID(beach_armor1@ZombieTypes)",
							"RTID(beach_fem_armor2@ZombieTypes)",
							"RTID(roman@ZombieTypes)",
							"RTID(roman_armor1@ZombieTypes)",
							"RTID(roman_armor2@ZombieTypes)",
							"RTID(beach_imp@ZombieTypes)",
							"RTID(beach_snorkel@ZombieTypes)",
							"RTID(beach_surfer@ZombieTypes)"
						]
					},
					{
						"PointIncrementPerWave": 40,
						"StartingPoints": 200,
						"StartingWave": 4,
						"ZombiePool": [
							"RTID(beach@ZombieTypes)",
							"RTID(beach_armor1@ZombieTypes)",
							"RTID(beach_fem_armor2@ZombieTypes)",
							"RTID(roman@ZombieTypes)",
							"RTID(roman_armor1@ZombieTypes)",
							"RTID(roman_armor2@ZombieTypes)",
							"RTID(beach_imp@ZombieTypes)",
							"RTID(beach_snorkel@ZombieTypes)",
							"RTID(beach_surfer@ZombieTypes)"
						]
					},
					{
						"PointIncrementPerWave": 60,
						"StartingPoints": 400,
						"StartingWave": 3,
						"ZombiePool": [
							"RTID(beach@ZombieTypes)",
							"RTID(beach_armor1@ZombieTypes)",
							"RTID(beach_fem_armor2@ZombieTypes)",
							"RTID(roman@ZombieTypes)",
							"RTID(roman_armor1@ZombieTypes)",
							"RTID(roman_armor2@ZombieTypes)",
							"RTID(beach_imp@ZombieTypes)",
							"RTID(beach_snorkel@ZombieTypes)",
							"RTID(beach_surfer@ZombieTypes)"
						]
					},
					{
						"PointIncrementPerWave": 60,
						"StartingPoints": 400,
						"StartingWave": 3,
						"ZombiePool": [
							"RTID(beach@ZombieTypes)",
							"RTID(beach_armor1@ZombieTypes)",
							"RTID(beach_fem_armor2@ZombieTypes)",
							"RTID(roman@ZombieTypes)",
							"RTID(roman_armor1@ZombieTypes)",
							"RTID(roman_armor2@ZombieTypes)",
							"RTID(beach_imp@ZombieTypes)",
							"RTID(beach_snorkel@ZombieTypes)",
							"RTID(beach_surfer@ZombieTypes)"
						]
					}
				],
				"WaveManagerProps": "RTID(WaveManagerProps@CurrentLevel)"
			}
		},
		{
			"aliases": [
				"WaveManagerProps"
			],
			"objclass": "WaveManagerProperties",
			"objdata": {
				"FlagWaveInterval": 14,
				"WaveCount": 14,
				"WaveSpendingPointIncrement": 100,
				"WaveSpendingPoints": 200,
				"Waves": [
					[
						"RTID(Wave1@CurrentLevel)",
						"RTID(Wave1LowTideEvent0@CurrentLevel)",
						"RTID(Wave1LowTideEvent1@CurrentLevel)",
						"RTID(Wave1LowTideEvent2@CurrentLevel)",
						"RTID(Wave1TidalChangeEvent0@CurrentLevel)"
					],
					[
						"RTID(Wave2@CurrentLevel)",
						"RTID(Wave2TidalChangeEvent0@CurrentLevel)"
					],
					[
						"RTID(Wave3@CurrentLevel)",
						"RTID(Wave3TidalChangeEvent0@CurrentLevel)"
					],
					[
						"RTID(Wave4@CurrentLevel)",
						"RTID(Wave4TidalChangeEvent0@CurrentLevel)"
					],
					[
						"RTID(Wave5@CurrentLevel)"
					],
					[
						"RTID(Wave6@CurrentLevel)"
					],
					[
						"RTID(Wave7@CurrentLevel)"
					],
					[
						"RTID(Wave8@CurrentLevel)"
					],
					[
						"RTID(Wave9@CurrentLevel)",
						"RTID(Wave9TidalChangeEvent0@CurrentLevel)"
					],
					[
						"RTID(Wave10@CurrentLevel)",
						"RTID(Wave10LowTideEvent0@CurrentLevel)",
						"RTID(Wave10LowTideEvent1@CurrentLevel)",
						"RTID(Wave10LowTideEvent2@CurrentLevel)",
						"RTID(Wave10TidalChangeEvent0@CurrentLevel)"
					],
					[
						"RTID(Wave11@CurrentLevel)"
					],
					[
						"RTID(Wave12@CurrentLevel)",
						"RTID(Wave12TidalChangeEvent0@CurrentLevel)"
					],
					[
						"RTID(Wave13@CurrentLevel)",
						"RTID(Wave13TidalChangeEvent0@CurrentLevel)"
					],
					[
						"RTID(Wave14@CurrentLevel)"
					]
				],
				"WavesAlwaysRandomized": true
			}
		},
		{
			"aliases": [
				"Wave1"
			],
			"objclass": "SpawnZombiesJitteredWaveActionProps",
			"objdata": {
				"ZombieSpawnPattern": "ZombieSpawnerPatternStaggered",
				"Zombies": [
					{
						"Row": "1",
						"Type": "RTID(beach_imp@ZombieTypes)"
					},
					{
						"Row": "2",
						"Type": "RTID(beach_imp@ZombieTypes)"
					},
					{
						"Row": "1",
						"Type": "RTID(beach_imp@ZombieTypes)"
					},
					{
						"Row": "3",
						"Type": "RTID(beach_imp@ZombieTypes)"
					}
				]
			}
		},
		{
			"aliases": [
				"Wave2"
			],
			"objclass": "SpawnZombiesJitteredWaveActionProps",
			"objdata": {
				"ZombieSpawnPattern": "ZombieSpawnerPatternStaggered",
				"Zombies": [
					{
						"Row": "3",
						"Type": "RTID(beach@ZombieTypes)"
					},
					{
						"Row": "4",
						"Type": "RTID(beach_fem@ZombieTypes)"
					},
					{
						"Row": "2",
						"Type": "RTID(beach_fem@ZombieTypes)"
					},
					{
						"Row": "5",
						"Type": "RTID(beach_fem@ZombieTypes)"
					},
					{
						"Row": "3",
						"Type": "RTID(beach@ZombieTypes)"
					},
					{
						"Row": "4",
						"Type": "RTID(beach_imp@ZombieTypes)"
					}
				]
			}
		},
		{
			"aliases": [
				"Wave3"
			],
			"objclass": "SpawnZombiesJitteredWaveActionProps",
			"objdata": {
				"ZombieSpawnPattern": "ZombieSpawnerPatternStaggered",
				"Zombies": [
					{
						"Row": "4",
						"Type": "RTID(beach_fem@ZombieTypes)"
					},
					{
						"Row": "5",
						"Type": "RTID(beach@ZombieTypes)"
					},
					{
						"Row": "3",
						"Type": "RTID(beach_imp@ZombieTypes)"
					},
					{
						"Row": "5",
						"Type": "RTID(beach@ZombieTypes)"
					},
					{
						"Row": "4",
						"Type": "RTID(beach_surfer@ZombieTypes)"
					},
					{
						"Row": "2",
						"Type": "RTID(beach@ZombieTypes)"
					}
				]
			}
		},
		{
			"aliases": [
				"Wave4"
			],
			"objclass": "SpawnZombiesJitteredWaveActionProps",
			"objdata": {
				"ZombieSpawnPattern": "ZombieSpawnerPatternStaggered",
				"Zombies": [
					{
						"Row": "4",
						"Type": "RTID(beach_fem@ZombieTypes)"
					},
					{
						"Row": "1",
						"Type": "RTID(beach@ZombieTypes)"
					},
					{
						"Row": "4",
						"Type": "RTID(beach@ZombieTypes)"
					},
					{
						"Row": "1",
						"Type": "RTID(beach_fem@ZombieTypes)"
					},
					{
						"Row": "4",
						"Type": "RTID(beach_imp@ZombieTypes)"
					},
					{
						"Row": "1",
						"Type": "RTID(beach_imp@ZombieTypes)"
					},
					{
						"Row": "4",
						"Type": "RTID(beach@ZombieTypes)"
					},
					{
						"Row": "1",
						"Type": "RTID(beach_fem@ZombieTypes)"
					}
				]
			}
		},
		{
			"aliases": [
				"Wave5"
			],
			"objclass": "SpawnZombiesJitteredWaveActionProps",
			"objdata": {
				"ZombieSpawnPattern": "ZombieSpawnerPatternStaggered",
				"Zombies": [
					{
						"Row": "2",
						"Type": "RTID(beach_surfer@ZombieTypes)"
					},
					{
						"Row": "1",
						"Type": "RTID(beach_armor1@ZombieTypes)"
					},
					{
						"Row": "3",
						"Type": "RTID(beach_fem_armor1@ZombieTypes)"
					},
					{
						"Row": "1",
						"Type": "RTID(beach_armor2@ZombieTypes)"
					},
					{
						"Row": "4",
						"Type": "RTID(beach_fem_armor2@ZombieTypes)"
					}
				]
			}
		},
		{
			"aliases": [
				"Wave6"
			],
			"objclass": "SpawnZombiesJitteredWaveActionProps",
			"objdata": {
				"ZombieSpawnPattern": "ZombieSpawnerPatternStaggered",
				"Zombies": [
					{
						"Row": "2",
						"Type": "RTID(beach_surfer@ZombieTypes)"
					},
					{
						"Row": "3",
						"Type": "RTID(beach_snorkel@ZombieTypes)"
					},
					{
						"Row": "4",
						"Type": "RTID(beach@ZombieTypes)"
					}
				]
			}
		},
		{
			"aliases": [
				"Wave7"
			],
			"objclass": "SpawnZombiesJitteredWaveActionProps",
			"objdata": {
				"ZombieSpawnPattern": "ZombieSpawnerPatternStaggered",
				"Zombies": [
					{
						"Row": "4",
						"Type": "RTID(beach_surfer@ZombieTypes)"
					},
					{
						"Row": "5",
						"Type": "RTID(beach_gargantuar@ZombieTypes)"
					},
					{
						"Row": "3",
						"Type": "RTID(beach_fem@ZombieTypes)"
					},
					{
						"Row": "2",
						"Type": "RTID(beach_fem@ZombieTypes)"
					}
				]
			}
		},
		{
			"aliases": [
				"Wave8"
			],
			"objclass": "SpawnZombiesJitteredWaveActionProps",
			"objdata": {
				"ZombieSpawnPattern": "ZombieSpawnerPatternStaggered",
				"Zombies": [
					{
						"Row": "2",
						"Type": "RTID(beach_surfer@ZombieTypes)"
					},
					{
						"Row": "4",
						"Type": "RTID(beach_snorkel@ZombieTypes)"
					},
					{
						"Row": "3",
						"Type": "RTID(beach_surfer@ZombieTypes)"
					},
					{
						"Row": "1",
						"Type": "RTID(beach_snorkel@ZombieTypes)"
					}
				]
			}
		},
		{
			"aliases": [
				"Wave9"
			],
			"objclass": "SpawnZombiesJitteredWaveActionProps",
			"objdata": {
				"ZombieSpawnPattern": "ZombieSpawnerPatternStaggered",
				"Zombies": [
					{
						"Row": "4",
						"Type": "RTID(beach_surfer@ZombieTypes)"
					},
					{
						"Row": "3",
						"Type": "RTID(beach_snorkel@ZombieTypes)"
					},
					{
						"Row": "1",
						"Type": "RTID(beach_surfer@ZombieTypes)"
					},
					{
						"Row": "2",
						"Type": "RTID(beach_snorkel@ZombieTypes)"
					},
					{
						"Row": "5",
						"Type": "RTID(beach_surfer@ZombieTypes)"
					},
					{
						"Row": "4",
						"Type": "RTID(beach_snorkel@ZombieTypes)"
					},
					{
						"Row": "2",
						"Type": "RTID(beach_surfer@ZombieTypes)"
					}
				]
			}
		},
		{
			"aliases": [
				"Wave10"
			],
			"objclass": "SpawnZombiesJitteredWaveActionProps",
			"objdata": {}
		},
		{
			"aliases": [
				"Wave11"
			],
			"objclass": "SpawnZombiesJitteredWaveActionProps",
			"objdata": {
				"ZombieSpawnPattern": "ZombieSpawnerPatternStaggered",
				"Zombies": [
					{
						"Row": "4",
						"Type": "RTID(beach@ZombieTypes)"
					},
					{
						"Row": "4",
						"Type": "RTID(beach_fem@ZombieTypes)"
					},
					{
						"Row": "2",
						"Type": "RTID(beach@ZombieTypes)"
					},
					{
						"Row": "2",
						"Type": "RTID(beach_fem@ZombieTypes)"
					},
					{
						"Row": "3",
						"Type": "RTID(beach_imp@ZombieTypes)"
					},
					{
						"Row": "2",
						"Type": "RTID(beach_armor2@ZombieTypes)"
					},
					{
						"Row": "4",
						"Type": "RTID(beach_armor2@ZombieTypes)"
					},
					{
						"Row": "1",
						"Type": "RTID(beach_armor1@ZombieTypes)"
					},
					{
						"Row": "5",
						"Type": "RTID(beach_armor1@ZombieTypes)"
					}
				]
			}
		},
		{
			"aliases": [
				"Wave12"
			],
			"objclass": "SpawnZombiesJitteredWaveActionProps",
			"objdata": {
				"ZombieSpawnPattern": "ZombieSpawnerPatternStaggered",
				"Zombies": [
					{
						"Row": "1",
						"Type": "RTID(beach_fem_armor1@ZombieTypes)"
					},
					{
						"Row": "2",
						"Type": "RTID(beach_armor2@ZombieTypes)"
					},
					{
						"Row": "3",
						"Type": "RTID(beach_fem_armor1@ZombieTypes)"
					},
					{
						"Row": "4",
						"Type": "RTID(beach_armor1@ZombieTypes)"
					},
					{
						"Row": "5",
						"Type": "RTID(beach_surfer@ZombieTypes)"
					},
					{
						"Type": "RTID(beach_snorkel@ZombieTypes)"
					},
					{
						"Type": "RTID(beach_snorkel@ZombieTypes)"
					},
					{
						"Type": "RTID(beach_snorkel@ZombieTypes)"
					}
				]
			}
		},
		{
			"aliases": [
				"Wave13"
			],
			"objclass": "SpawnZombiesJitteredWaveActionProps",
			"objdata": {
				"ZombieSpawnPattern": "ZombieSpawnerPatternStaggered",
				"Zombies": [
					{
						"Row": "5",
						"Type": "RTID(beach_fem_armor1@ZombieTypes)"
					},
					{
						"Row": "4",
						"Type": "RTID(beach_armor1@ZombieTypes)"
					},
					{
						"Row": "3",
						"Type": "RTID(beach_fem_armor2@ZombieTypes)"
					},
					{
						"Row": "2",
						"Type": "RTID(beach_surfer@ZombieTypes)"
					},
					{
						"Row": "1",
						"Type": "RTID(beach_fem_armor2@ZombieTypes)"
					},
					{
						"Type": "RTID(beach_snorkel@ZombieTypes)"
					},
					{
						"Type": "RTID(beach_snorkel@ZombieTypes)"
					},
					{
						"Type": "RTID(beach_snorkel@ZombieTypes)"
					}
				]
			}
		},
		{
			"aliases": [
				"Wave14"
			],
			"objclass": "SpawnZombiesJitteredWaveActionProps",
			"objdata": {
				"ZombieSpawnPattern": "ZombieSpawnerPatternStaggered",
				"Zombies": [
					{
						"Row": "1",
						"Type": "RTID(beach_surfer@ZombieTypes)"
					},
					{
						"Row": "5",
						"Type": "RTID(beach_snorkel@ZombieTypes)"
					},
					{
						"Row": "3",
						"Type": "RTID(beach_surfer@ZombieTypes)"
					},
					{
						"Row": "2",
						"Type": "RTID(beach_surfer@ZombieTypes)"
					},
					{
						"Row": "5",
						"Type": "RTID(beach_surfer@ZombieTypes)"
					},
					{
						"Type": "RTID(roman_gargantuar@ZombieTypes)"
					},
					{
						"Row": "4",
						"Type": "RTID(beach_surfer@ZombieTypes)"
					},
					{
						"Row": "2",
						"Type": "RTID(beach_snorkel@ZombieTypes)"
					}
				]
			}
		},
		{
			"aliases": [
				"Wave2TidalChangeEvent0"
			],
			"objclass": "TidalChangeWaveActionProps",
			"objdata": {
				"TidalChange": {
					"ChangeAmount": 3,
					"ChangeType": "absolute"
				}
			}
		},
		{
			"aliases": [
				"Wave3TidalChangeEvent0"
			],
			"objclass": "TidalChangeWaveActionProps",
			"objdata": {
				"TidalChange": {
					"ChangeAmount": 5,
					"ChangeType": "absolute"
				}
			}
		},
		{
			"aliases": [
				"Wave4TidalChangeEvent0"
			],
			"objclass": "TidalChangeWaveActionProps",
			"objdata": {
				"TidalChange": {
					"ChangeAmount": 6,
					"ChangeType": "absolute"
				}
			}
		},
		{
			"aliases": [
				"Wave1LowTideEvent0"
			],
			"objclass": "BeachStageEventZombieSpawnerProps",
			"objdata": {
				"ColumnEnd": 6,
				"ColumnStart": 3,
				"GroupSize": 1,
				"TimeBeforeFullSpawn": 0.5,
				"TimeBetweenGroups": 0.5,
				"WaveStartMessage": "[WARNING_LOW_TIDE]",
				"ZombieCount": 3,
				"ZombieName": "beach_imp"
			}
		},
		{
			"aliases": [
				"Wave1TidalChangeEvent0"
			],
			"objclass": "TidalChangeWaveActionProps",
			"objdata": {
				"TidalChange": {
					"ChangeAmount": 1,
					"ChangeType": "absolute"
				}
			}
		},
		{
			"aliases": [
				"Wave1LowTideEvent1"
			],
			"objclass": "BeachStageEventZombieSpawnerProps",
			"objdata": {
				"ColumnEnd": 7,
				"ColumnStart": 5,
				"GroupSize": 1,
				"TimeBeforeFullSpawn": 1.5,
				"TimeBetweenGroups": 0.5,
				"WaveStartMessage": "[WARNING_LOW_TIDE]",
				"ZombieCount": "4",
				"ZombieName": "beach_fem"
			}
		},
		{
			"aliases": [
				"Wave1LowTideEvent2"
			],
			"objclass": "BeachStageEventZombieSpawnerProps",
			"objdata": {
				"ColumnEnd": "8",
				"ColumnStart": 6,
				"GroupSize": 1,
				"TimeBeforeFullSpawn": 2.5,
				"TimeBetweenGroups": 0.5,
				"WaveStartMessage": "[WARNING_LOW_TIDE]",
				"ZombieCount": 3,
				"ZombieName": "beach"
			}
		},
		{
			"aliases": [
				"Wave10TidalChangeEvent0"
			],
			"objclass": "TidalChangeWaveActionProps",
			"objdata": {
				"TidalChange": {
					"ChangeAmount": 2,
					"ChangeType": "absolute"
				}
			}
		},
		{
			"aliases": [
				"Wave13TidalChangeEvent0"
			],
			"objclass": "TidalChangeWaveActionProps",
			"objdata": {
				"TidalChange": {
					"ChangeAmount": 6,
					"ChangeType": "absolute"
				}
			}
		},
		{
			"aliases": [
				"Wave9TidalChangeEvent0"
			],
			"objclass": "TidalChangeWaveActionProps",
			"objdata": {
				"TidalChange": {
					"ChangeAmount": 4,
					"ChangeType": "absolute"
				}
			}
		},
		{
			"aliases": [
				"Wave10LowTideEvent0"
			],
			"objclass": "BeachStageEventZombieSpawnerProps",
			"objdata": {
				"ColumnEnd": 6,
				"ColumnStart": 3,
				"GroupSize": 2,
				"TimeBeforeFullSpawn": "0.5",
				"TimeBetweenGroups": 0.5,
				"WaveStartMessage": "[WARNING_LOW_TIDE]",
				"ZombieCount": 4,
				"ZombieName": "beach_armor1"
			}
		},
		{
			"aliases": [
				"Wave10LowTideEvent1"
			],
			"objclass": "BeachStageEventZombieSpawnerProps",
			"objdata": {
				"ColumnEnd": 6,
				"ColumnStart": "4",
				"GroupSize": 2,
				"TimeBeforeFullSpawn": 2,
				"TimeBetweenGroups": 0.5,
				"WaveStartMessage": "[WARNING_LOW_TIDE]",
				"ZombieCount": 2,
				"ZombieName": "beach_fem_armor2"
			}
		},
		{
			"aliases": [
				"Wave10LowTideEvent2"
			],
			"objclass": "BeachStageEventZombieSpawnerProps",
			"objdata": {
				"ColumnEnd": 6,
				"ColumnStart": 3,
				"GroupSize": 2,
				"TimeBeforeFullSpawn": 3,
				"TimeBetweenGroups": 0.5,
				"WaveStartMessage": "[WARNING_LOW_TIDE]",
				"ZombieCount": 6,
				"ZombieName": "beach_imp"
			}
		},
		{
			"aliases": [
				"Wave12TidalChangeEvent0"
			],
			"objclass": "TidalChangeWaveActionProps",
			"objdata": {
				"TidalChange": {
					"ChangeAmount": 5,
					"ChangeType": "absolute"
				}
			}
		}
	],
	"version": 1
}