{
	"#comment": "joust2boost",
	"objects": [
		{
			"objclass": "LevelDefinition",
			"objdata": {
				"Description": "[PLAYERS_TRIP_TO_RIFT]",
				"DisablePlantBoosts": false,
				"GridItemLevel": 1,
				"LevelNumber": "",
				"Loot": "RTID(NoLoot@LevelModules)",
				"Modules": [
					"RTID(DefaultSunDropper@LevelModules)",
					"RTID(ZombiesDeadWinCon@LevelModules)",
					"RTID(DefaultZombieWinCondition@LevelModules)",
					"RTID(SeedBank@CurrentLevel)",
					"RTID(NewWaves@CurrentLevel)",
					"RTID(DarkMowers@LevelModules)",
					"RTID(LevelScoring@CurrentLevel)",
					"RTID(ArenaScoreTiles@LevelModules)",
					"RTID(LastStand@CurrentLevel)",
					"RTID(LevelDifficultyScaling@CurrentLevel)",
					"RTID(WaveDuplicator@CurrentLevel)",
					"RTID(PerkActivator@CurrentLevel)",
					"RTID(Boosterama@LevelModules)"
				],
				"Name": "[RIFT_LEVEL_NAME]",
				"NormalPresentTable": "dark_normal_01",
				"ShinyPresentTable": "dark_shiny_01",
				"StageModule": "RTID(JoustStage@LevelModules)",
				"SuppressAccountUpgrades": true,
				"SuppressDynamicTutorial": true,
				"SuppressPlantfoodPurchase": false,
				"LevelMutator": "RTID(LevelMutator@CurrentLevel)",
				"VictoryModule": "RTID(RiftOutro@LevelModules)",
				"PerksDisabledInLevel": [
					"bossbustercannon"
				],
				"PerksDisabledPerDifficulty": [
					[],
					[],
					[]
				]
			}
		},
		{
			"aliases": [
				"WaveDuplicator"
			],
			"objclass": "WaveDuplicatorModuleProperties",
			"objdata": {
				"PeriodOfWavesToLoop": 6,
				"WaveSetsToAppend": 20
			}
		},
		{
			"aliases": [
				"PerkActivator"
			],
			"objclass": "PerkHandlerModuleProperties",
			"objdata": {}
		},
		{
			"aliases": [
				"LevelMutator"
			],
			"objclass": "LevelMutatorModuleProperties",
			"objdata": {
				"MutatorTables": [
					"RTID(MutatorPropsRiftBattlez@LevelMutatorTables)",
					"RTID(LocalChallengeMutator@CurrentLevel)",
					"RTID(LocalMainChallengeMutator@CurrentLevel)"
				]
			}
		},
		{
			"aliases": [
				"LocalMainChallengeMutator"
			],
			"objclass": "LevelMutatorTableProps",
			"objdata": {
				"Tables": [
					{
						"Level": 0,
						"ModuleType": "mainchallenge",
						"Modules": [
							"RTID(LevelTimer@CurrentLevel)"
						]
					},
					{
						"Level": 1,
						"ModuleType": "mainchallenge",
						"Modules": [
							"RTID(LevelTimer@CurrentLevel)"
						]
					},
					{
						"Level": 2,
						"ModuleType": "mainchallenge",
						"Modules": [
							"RTID(LevelTimer@CurrentLevel)"
						]
					}
				]
			}
		},
		{
			"aliases": [
				"LevelTimer"
			],
			"objclass": "StarChallengeLevelTimerProperties",
			"objdata": {
				"TimeLimit": 180
			}
		},
		{
			"aliases": [
				"LocalChallengeMutator"
			],
			"objclass": "LevelMutatorTableProps",
			"objdata": {
				"Tables": [
					{
						"Level": 0,
						"ModuleType": "bonuschallenge",
						"Modules": [
							"RTID(ReachTheScore1@CurrentLevel)"
						]
					},
					{
						"Level": 1,
						"ModuleType": "bonuschallenge",
						"Modules": [
							"RTID(SimultaneousPlants2@CurrentLevel)",
							"RTID(ReachTheScore2@CurrentLevel)"
						]
					},
					{
						"Level": 2,
						"ModuleType": "bonuschallenge",
						"Modules": [
							"RTID(SimultaneousPlants3@CurrentLevel)",
							"RTID(ReachTheScore3@CurrentLevel)"
						]
					}
				]
			}
		},
		{
			"aliases": [
				"ReachTheScore1"
			],
			"objclass": "StarChallengeTargetScoreProps",
			"objdata": {
				"Description": "[STARCHALLENGE_SCORE_TO_BEAT]",
				"DescriptionFailure": "[STARCHALLENGE_TARGET_SCORE_FAILURE]",
				"DescriptiveName": "[STARCHALLENGE_TARGET_SCORE_NAME]",
				"TargetScore": 7500000
			}
		},
		{
			"aliases": [
				"ReachTheScore2"
			],
			"objclass": "StarChallengeTargetScoreProps",
			"objdata": {
				"Description": "[STARCHALLENGE_SCORE_TO_BEAT]",
				"DescriptionFailure": "[STARCHALLENGE_TARGET_SCORE_FAILURE]",
				"DescriptiveName": "[STARCHALLENGE_TARGET_SCORE_NAME]",
				"TargetScore": 25000000
			}
		},
		{
			"aliases": [
				"ReachTheScore3"
			],
			"objclass": "StarChallengeTargetScoreProps",
			"objdata": {
				"Description": "[STARCHALLENGE_SCORE_TO_BEAT]",
				"DescriptionFailure": "[STARCHALLENGE_TARGET_SCORE_FAILURE]",
				"DescriptiveName": "[STARCHALLENGE_TARGET_SCORE_NAME]",
				"TargetScore": 35000000
			}
		},
		{
			"aliases": [
				"SimultaneousPlants2"
			],
			"objclass": "StarChallengeSimultaneousPlantsProps",
			"objdata": {
				"MaximumPlants": 15
			}
		},
		{
			"aliases": [
				"SimultaneousPlants3"
			],
			"objclass": "StarChallengeSimultaneousPlantsProps",
			"objdata": {
				"MaximumPlants": 10
			}
		},
		{
			"aliases": [
				"LevelDifficultyScaling"
			],
			"objclass": "LevelDifficultyScalingModuleProperties",
			"objdata": {
				"DifficultyRulesType": "RiftDifficulty",
				"ZombieLevelSwaps": [
					{
						"Level": 0,
						"Swaps": [
							{
								"From": "RTID(roman@ZombieTypes)",
								"To": [
									"RTID(roman_imp@ZombieTypes)",
									"RTID(roman@ZombieTypes)"
								]
							},
							{
								"From": "RTID(roman_armor1@ZombieTypes)",
								"To": [
									"RTID(roman@ZombieTypes)",
									"RTID(roman_armor1@ZombieTypes)"
								]
							},
							{
								"From": "RTID(roman_armor2@ZombieTypes)",
								"To": [
									"RTID(roman_armor1@ZombieTypes)",
									"RTID(roman_armor2@ZombieTypes)"
								]
							},
							{
								"From": "RTID(roman_shield_triad@ZombieTypes)",
								"To": [
									"RTID(roman_armor2@ZombieTypes)",
									"RTID(roman_shield_triad@ZombieTypes)"
								]
							}
						]
					},
					{
						"Level": 4,
						"Swaps": [
							{
								"From": "RTID(roman@ZombieTypes)",
								"To": [
									"RTID(roman_imp@ZombieTypes)",
									"RTID(roman@ZombieTypes)",
									"RTID(roman_armor1@ZombieTypes)"
								]
							},
							{
								"From": "RTID(roman_armor1@ZombieTypes)",
								"To": [
									"RTID(roman_armor1@ZombieTypes)",
									"RTID(roman_armor2@ZombieTypes)",
									"RTID(roman@ZombieTypes)"
								]
							},
							{
								"From": "RTID(roman_armor2@ZombieTypes)",
								"To": [
									"RTID(roman_armor1@ZombieTypes)",
									"RTID(roman_armor2@ZombieTypes)",
									"RTID(roman_shield_triad@ZombieTypes)"
								]
							}
						]
					},
					{
						"Level": 7,
						"Swaps": [
							{
								"From": "RTID(roman@ZombieTypes)",
								"To": [
									"RTID(roman_armor1@ZombieTypes)",
									"RTID(roman_armor2@ZombieTypes)"
								]
							},
							{
								"From": "RTID(roman_armor1@ZombieTypes)",
								"To": [
									"RTID(roman_armor1@ZombieTypes)",
									"RTID(roman_armor2@ZombieTypes)",
									"RTID(roman_armor2@ZombieTypes)",
									"RTID(roman_armor2@ZombieTypes)"
								]
							},
							{
								"From": "RTID(roman_armor2@ZombieTypes)",
								"To": [
									"RTID(roman_armor2@ZombieTypes)",
									"RTID(roman_shield_triad@ZombieTypes)",
									"RTID(roman_shield_triad@ZombieTypes)",
									"RTID(roman_shield_triad@ZombieTypes)",
									"RTID(roman_shield_triad@ZombieTypes)",
									"RTID(roman_shield_triad@ZombieTypes)"
								]
							}
						]
					}
				]
			}
		},
		{
			"aliases": [
				"SeedBank"
			],
			"objclass": "SeedBankProperties",
			"objdata": {
				"PlantExcludeList": [],
				"PresetPlantList": [],
				"SelectionMethod": "chooser"
			}
		},
		{
			"aliases": [
				"LastStand"
			],
			"objclass": "LastStandMinigameProperties",
			"objdata": {
				"StartingPlantfood": 0,
				"StartingSun": 750,
				"PreSeedchooserFlow": "rift"
			}
		},
		{
			"aliases": [
				"LevelScoring"
			],
			"objclass": "LevelScoringModuleProperties",
			"objdata": {
				"PlantBonusMultiplier": 0.1,
				"PlantBonuses": [],
				"ScoringRulesType": "Rift",
				"StartingPlantfood": 0
			}
		},
		{
			"aliases": [
				"NewWaves"
			],
			"objclass": "WaveManagerModuleProperties",
			"objdata": {
				"DynamicZombies": [
					{
						"MaxPoints": 10000,
						"PointIncrementPerWave": 175,
						"StartingPoints": 500,
						"StartingWave": 0,
						"ZombiePool": [
							"RTID(beach_surfer@ZombieTypes)",
							"RTID(dark_juggler@ZombieTypes)",
							"RTID(dino_gargantuar@ZombieTypes)",
							"RTID(future_jetpack_veteran@ZombieTypes)",
							"RTID(roman@ZombieTypes)",
							"RTID(lostcity_bug_armor2@ZombieTypes)",
							"RTID(eighties_glitter@ZombieTypes)",
							"RTID(pirate_armor4@ZombieTypes)",
							"RTID(roman_armor1@ZombieTypes)",
							"RTID(roman_armor2@ZombieTypes)",
							"RTID(roman_shield_triad@ZombieTypes)"
						]
					},
					{
						"MaxPoints": 10000,
						"PointIncrementPerWave": 175,
						"StartingPoints": 500,
						"StartingWave": 0,
						"ZombiePool": [
							"RTID(beach_surfer@ZombieTypes)",
							"RTID(dark_juggler@ZombieTypes)",
							"RTID(dino_gargantuar@ZombieTypes)",
							"RTID(future_jetpack_veteran@ZombieTypes)",
							"RTID(roman@ZombieTypes)",
							"RTID(lostcity_bug_armor2@ZombieTypes)",
							"RTID(eighties_glitter@ZombieTypes)",
							"RTID(pirate_armor4@ZombieTypes)",
							"RTID(roman_armor1@ZombieTypes)",
							"RTID(roman_armor2@ZombieTypes)",
							"RTID(roman_shield_triad@ZombieTypes)"
						]
					},
					{
						"MaxPoints": 10000,
						"PointIncrementPerWave": 175,
						"StartingPoints": 500,
						"StartingWave": 0,
						"ZombiePool": [
							"RTID(beach_surfer@ZombieTypes)",
							"RTID(dark_juggler@ZombieTypes)",
							"RTID(dino_gargantuar@ZombieTypes)",
							"RTID(future_jetpack_veteran@ZombieTypes)",
							"RTID(roman@ZombieTypes)",
							"RTID(lostcity_bug_armor2@ZombieTypes)",
							"RTID(eighties_glitter@ZombieTypes)",
							"RTID(pirate_armor4@ZombieTypes)",
							"RTID(roman_armor1@ZombieTypes)",
							"RTID(roman_armor2@ZombieTypes)",
							"RTID(roman_shield_triad@ZombieTypes)"
						]
					},
					{
						"MaxPoints": 10000,
						"PointIncrementPerWave": 175,
						"StartingPoints": 500,
						"StartingWave": 0,
						"ZombiePool": [
							"RTID(beach_surfer@ZombieTypes)",
							"RTID(dark_juggler@ZombieTypes)",
							"RTID(dino_gargantuar@ZombieTypes)",
							"RTID(future_jetpack_veteran@ZombieTypes)",
							"RTID(roman@ZombieTypes)",
							"RTID(lostcity_bug_armor2@ZombieTypes)",
							"RTID(eighties_glitter@ZombieTypes)",
							"RTID(pirate_armor4@ZombieTypes)",
							"RTID(roman_armor1@ZombieTypes)",
							"RTID(roman_armor2@ZombieTypes)",
							"RTID(roman_shield_triad@ZombieTypes)"
						]
					},
					{
						"MaxPoints": 10000,
						"PointIncrementPerWave": 175,
						"StartingPoints": 500,
						"StartingWave": 0,
						"ZombiePool": [
							"RTID(beach_surfer@ZombieTypes)",
							"RTID(dark_juggler@ZombieTypes)",
							"RTID(dino_gargantuar@ZombieTypes)",
							"RTID(future_jetpack_veteran@ZombieTypes)",
							"RTID(roman@ZombieTypes)",
							"RTID(lostcity_bug_armor2@ZombieTypes)",
							"RTID(eighties_glitter@ZombieTypes)",
							"RTID(pirate_armor4@ZombieTypes)",
							"RTID(roman_armor1@ZombieTypes)",
							"RTID(roman_armor2@ZombieTypes)",
							"RTID(roman_shield_triad@ZombieTypes)"
						]
					},
					{
						"MaxPoints": 10000,
						"PointIncrementPerWave": 175,
						"StartingPoints": 500,
						"StartingWave": 0,
						"ZombiePool": [
							"RTID(beach_surfer@ZombieTypes)",
							"RTID(dark_juggler@ZombieTypes)",
							"RTID(dino_gargantuar@ZombieTypes)",
							"RTID(future_jetpack_veteran@ZombieTypes)",
							"RTID(roman@ZombieTypes)",
							"RTID(lostcity_bug_armor2@ZombieTypes)",
							"RTID(eighties_glitter@ZombieTypes)",
							"RTID(pirate_armor4@ZombieTypes)",
							"RTID(roman_armor1@ZombieTypes)",
							"RTID(roman_armor2@ZombieTypes)",
							"RTID(roman_shield_triad@ZombieTypes)"
						]
					},
					{
						"MaxPoints": 10000,
						"PointIncrementPerWave": 175,
						"StartingPoints": 500,
						"StartingWave": 0,
						"ZombiePool": [
							"RTID(beach_surfer@ZombieTypes)",
							"RTID(dark_juggler@ZombieTypes)",
							"RTID(dino_gargantuar@ZombieTypes)",
							"RTID(future_jetpack_veteran@ZombieTypes)",
							"RTID(roman@ZombieTypes)",
							"RTID(lostcity_bug_armor2@ZombieTypes)",
							"RTID(eighties_glitter@ZombieTypes)",
							"RTID(pirate_armor4@ZombieTypes)",
							"RTID(roman_armor1@ZombieTypes)",
							"RTID(roman_armor2@ZombieTypes)",
							"RTID(roman_shield_triad@ZombieTypes)"
						]
					}
				],
				"WaveManagerProps": "RTID(WaveManagerProps@CurrentLevel)"
			}
		},
		{
			"aliases": [
				"WaveManagerProps"
			],
			"objclass": "WaveManagerProperties",
			"objdata": {
				"FlagWaveInterval": 18,
				"WaveCount": 36,
				"WaveSpendingPointIncrement": 200,
				"WaveSpendingPoints": 100,
				"Waves": [
					[
						"RTID(Wave1@CurrentLevel)"
					],
					[
						"RTID(Wave2@CurrentLevel)"
					],
					[
						"RTID(Wave3@CurrentLevel)"
					],
					[
						"RTID(Wave4@CurrentLevel)"
					],
					[
						"RTID(Wave5@CurrentLevel)"
					],
					[
						"RTID(Wave6@CurrentLevel)"
					],
					[
						"RTID(Wave7@CurrentLevel)"
					],
					[
						"RTID(Wave8@CurrentLevel)",
						"RTID(Wave8ParachuteRainEvent0@CurrentLevel)"
					],
					[
						"RTID(Wave9@CurrentLevel)"
					],
					[
						"RTID(Wave10@CurrentLevel)"
					],
					[
						"RTID(Wave11@CurrentLevel)"
					],
					[
						"RTID(Wave12@CurrentLevel)"
					],
					[
						"RTID(Wave13@CurrentLevel)"
					],
					[
						"RTID(Wave14@CurrentLevel)"
					],
					[
						"RTID(Wave15@CurrentLevel)"
					],
					[
						"RTID(Wave16@CurrentLevel)",
						"RTID(Wave16ParachuteRainEvent0@CurrentLevel)"
					],
					[
						"RTID(Wave17@CurrentLevel)"
					],
					[
						"RTID(Wave18@CurrentLevel)"
					],
					[
						"RTID(Wave19@CurrentLevel)"
					],
					[
						"RTID(Wave20@CurrentLevel)"
					],
					[
						"RTID(Wave21@CurrentLevel)"
					],
					[
						"RTID(Wave22@CurrentLevel)"
					],
					[
						"RTID(Wave23@CurrentLevel)"
					],
					[
						"RTID(Wave24@CurrentLevel)",
						"RTID(Wave24ParachuteRainEvent0@CurrentLevel)"
					],
					[
						"RTID(Wave25@CurrentLevel)"
					],
					[
						"RTID(Wave26@CurrentLevel)"
					],
					[
						"RTID(Wave27@CurrentLevel)"
					],
					[
						"RTID(Wave28@CurrentLevel)"
					],
					[
						"RTID(Wave29@CurrentLevel)"
					],
					[
						"RTID(Wave30@CurrentLevel)",
						"RTID(Wave30ParachuteRainEvent0@CurrentLevel)"
					],
					[
						"RTID(Wave31@CurrentLevel)"
					],
					[
						"RTID(Wave32@CurrentLevel)"
					],
					[
						"RTID(Wave33@CurrentLevel)"
					],
					[
						"RTID(Wave34@CurrentLevel)"
					],
					[
						"RTID(Wave35@CurrentLevel)"
					],
					[
						"RTID(Wave36@CurrentLevel)",
						"RTID(Wave36ParachuteRainEvent0@CurrentLevel)"
					]
				],
				"WavesAlwaysRandomized": true
			}
		},
		{
			"aliases": [
				"Wave1"
			],
			"objclass": "SpawnZombiesJitteredWaveActionProps",
			"objdata": {
				"Zombies": [
					{
						"Type": "RTID(roman_armor1@ZombieTypes)"
					},
					{
						"Type": "RTID(roman_armor1@ZombieTypes)"
					},
					{
						"Type": "RTID(roman_armor2@ZombieTypes)"
					}
				]
			}
		},
		{
			"aliases": [
				"Wave2"
			],
			"objclass": "SpawnZombiesJitteredWaveActionProps",
			"objdata": {
				"Zombies": [
					{
						"Type": "RTID(roman_armor1@ZombieTypes)"
					},
					{
						"Type": "RTID(roman_armor1@ZombieTypes)"
					},
					{
						"Type": "RTID(roman_armor2@ZombieTypes)"
					},
					{
						"Type": "RTID(roman_armor2@ZombieTypes)"
					}
				]
			}
		},
		{
			"aliases": [
				"Wave3"
			],
			"objclass": "SpawnZombiesJitteredWaveActionProps",
			"objdata": {
				"Zombies": [
					{
						"Type": "RTID(roman_armor1@ZombieTypes)"
					},
					{
						"Type": "RTID(roman_armor1@ZombieTypes)"
					},
					{
						"Type": "RTID(roman_armor2@ZombieTypes)"
					},
					{
						"Type": "RTID(roman_armor2@ZombieTypes)"
					},
					{
						"Type": "RTID(roman_armor2@ZombieTypes)"
					}
				]
			}
		},
		{
			"aliases": [
				"Wave4"
			],
			"objclass": "SpawnZombiesJitteredWaveActionProps",
			"objdata": {
				"Zombies": [
					{
						"Type": "RTID(roman_armor1@ZombieTypes)"
					},
					{
						"Row": "1",
						"Type": "RTID(roman_armor1@ZombieTypes)"
					},
					{
						"Type": "RTID(roman_armor2@ZombieTypes)"
					},
					{
						"Type": "RTID(roman_armor2@ZombieTypes)"
					},
					{
						"Type": "RTID(roman_armor2@ZombieTypes)"
					}
				]
			}
		},
		{
			"aliases": [
				"Wave5"
			],
			"objclass": "SpawnZombiesJitteredWaveActionProps",
			"objdata": {
				"Zombies": [
					{
						"Type": "RTID(roman_armor1@ZombieTypes)"
					},
					{
						"Row": "1",
						"Type": "RTID(roman_armor1@ZombieTypes)"
					},
					{
						"Type": "RTID(roman_armor2@ZombieTypes)"
					},
					{
						"Type": "RTID(roman_armor2@ZombieTypes)"
					},
					{
						"Type": "RTID(roman_armor2@ZombieTypes)"
					}
				]
			}
		},
		{
			"aliases": [
				"Wave6"
			],
			"objclass": "SpawnZombiesJitteredWaveActionProps",
			"objdata": {
				"Zombies": [
					{
						"Type": "RTID(roman_armor1@ZombieTypes)"
					},
					{
						"Type": "RTID(roman_armor1@ZombieTypes)"
					},
					{
						"Type": "RTID(roman_armor2@ZombieTypes)"
					},
					{
						"Type": "RTID(roman_armor2@ZombieTypes)"
					},
					{
						"Type": "RTID(roman_armor2@ZombieTypes)"
					}
				]
			}
		},
		{
			"aliases": [
				"Wave7"
			],
			"objclass": "SpawnZombiesJitteredWaveActionProps",
			"objdata": {
				"Zombies": [
					{
						"Type": "RTID(roman_armor1@ZombieTypes)"
					},
					{
						"Type": "RTID(roman_armor1@ZombieTypes)"
					},
					{
						"Type": "RTID(roman_armor2@ZombieTypes)"
					},
					{
						"Type": "RTID(roman_armor2@ZombieTypes)"
					},
					{
						"Type": "RTID(roman_armor2@ZombieTypes)"
					}
				]
			}
		},
		{
			"aliases": [
				"Wave8"
			],
			"objclass": "SpawnZombiesJitteredWaveActionProps",
			"objdata": {
				"Zombies": [
					{
						"Type": "RTID(roman_armor1@ZombieTypes)"
					},
					{
						"Type": "RTID(roman_armor1@ZombieTypes)"
					},
					{
						"Type": "RTID(roman_armor2@ZombieTypes)"
					},
					{
						"Type": "RTID(roman_shield_triad@ZombieTypes)"
					},
					{
						"Type": "RTID(roman_shield_triad@ZombieTypes)"
					}
				]
			}
		},
		{
			"aliases": [
				"Wave9"
			],
			"objclass": "SpawnZombiesJitteredWaveActionProps",
			"objdata": {
				"Zombies": [
					{
						"Type": "RTID(roman_armor1@ZombieTypes)"
					},
					{
						"Type": "RTID(roman_armor1@ZombieTypes)"
					},
					{
						"Type": "RTID(roman_armor2@ZombieTypes)"
					},
					{
						"Type": "RTID(roman_shield_triad@ZombieTypes)"
					},
					{
						"Type": "RTID(roman_shield_triad@ZombieTypes)"
					}
				]
			}
		},
		{
			"aliases": [
				"Wave10"
			],
			"objclass": "SpawnZombiesJitteredWaveActionProps",
			"objdata": {
				"AdditionalPlantfood": 1,
				"Zombies": [
					{
						"Type": "RTID(roman_armor1@ZombieTypes)"
					},
					{
						"Type": "RTID(roman_armor1@ZombieTypes)"
					},
					{
						"Type": "RTID(roman_armor2@ZombieTypes)"
					},
					{
						"Type": "RTID(roman_shield_triad@ZombieTypes)"
					},
					{
						"Type": "RTID(roman_shield_triad@ZombieTypes)"
					}
				]
			}
		},
		{
			"aliases": [
				"Wave11"
			],
			"objclass": "SpawnZombiesJitteredWaveActionProps",
			"objdata": {
				"Zombies": [
					{
						"Type": "RTID(roman_armor1@ZombieTypes)"
					},
					{
						"Type": "RTID(roman_armor1@ZombieTypes)"
					},
					{
						"Type": "RTID(roman_armor2@ZombieTypes)"
					},
					{
						"Type": "RTID(roman_shield_triad@ZombieTypes)"
					},
					{
						"Type": "RTID(roman_shield_triad@ZombieTypes)"
					}
				]
			}
		},
		{
			"aliases": [
				"Wave12"
			],
			"objclass": "SpawnZombiesJitteredWaveActionProps",
			"objdata": {
				"Zombies": [
					{
						"Type": "RTID(roman_armor1@ZombieTypes)"
					},
					{
						"Type": "RTID(roman_armor1@ZombieTypes)"
					},
					{
						"Type": "RTID(roman_armor2@ZombieTypes)"
					},
					{
						"Type": "RTID(roman_shield_triad@ZombieTypes)"
					},
					{
						"Type": "RTID(roman_shield_triad@ZombieTypes)"
					}
				]
			}
		},
		{
			"aliases": [
				"Wave13"
			],
			"objclass": "SpawnZombiesJitteredWaveActionProps",
			"objdata": {
				"Zombies": [
					{
						"Type": "RTID(roman_armor1@ZombieTypes)"
					},
					{
						"Type": "RTID(roman_armor1@ZombieTypes)"
					},
					{
						"Type": "RTID(roman_armor2@ZombieTypes)"
					},
					{
						"Type": "RTID(roman_shield_triad@ZombieTypes)"
					},
					{
						"Type": "RTID(roman_shield_triad@ZombieTypes)"
					}
				]
			}
		},
		{
			"aliases": [
				"Wave14"
			],
			"objclass": "SpawnZombiesJitteredWaveActionProps",
			"objdata": {
				"Zombies": [
					{
						"Type": "RTID(roman_armor1@ZombieTypes)"
					},
					{
						"Type": "RTID(roman_armor1@ZombieTypes)"
					},
					{
						"Type": "RTID(roman_armor2@ZombieTypes)"
					},
					{
						"Type": "RTID(roman_shield_triad@ZombieTypes)"
					},
					{
						"Type": "RTID(roman_shield_triad@ZombieTypes)"
					}
				]
			}
		},
		{
			"aliases": [
				"Wave15"
			],
			"objclass": "SpawnZombiesJitteredWaveActionProps",
			"objdata": {
				"Zombies": [
					{
						"Type": "RTID(roman_armor1@ZombieTypes)"
					},
					{
						"Type": "RTID(roman_armor1@ZombieTypes)"
					},
					{
						"Type": "RTID(roman_armor2@ZombieTypes)"
					},
					{
						"Type": "RTID(roman_shield_triad@ZombieTypes)"
					},
					{
						"Type": "RTID(roman_shield_triad@ZombieTypes)"
					}
				]
			}
		},
		{
			"aliases": [
				"Wave16"
			],
			"objclass": "SpawnZombiesJitteredWaveActionProps",
			"objdata": {
				"Zombies": [
					{
						"Type": "RTID(roman_armor1@ZombieTypes)"
					},
					{
						"Type": "RTID(roman_armor1@ZombieTypes)"
					},
					{
						"Type": "RTID(roman_armor2@ZombieTypes)"
					},
					{
						"Type": "RTID(roman_shield_triad@ZombieTypes)"
					},
					{
						"Type": "RTID(roman_shield_triad@ZombieTypes)"
					}
				]
			}
		},
		{
			"aliases": [
				"Wave17"
			],
			"objclass": "SpawnZombiesJitteredWaveActionProps",
			"objdata": {
				"Zombies": [
					{
						"Type": "RTID(roman_armor1@ZombieTypes)"
					},
					{
						"Type": "RTID(roman_armor1@ZombieTypes)"
					},
					{
						"Type": "RTID(roman_armor2@ZombieTypes)"
					},
					{
						"Type": "RTID(roman_shield_triad@ZombieTypes)"
					},
					{
						"Type": "RTID(roman_shield_triad@ZombieTypes)"
					}
				]
			}
		},
		{
			"aliases": [
				"Wave18"
			],
			"objclass": "SpawnZombiesJitteredWaveActionProps",
			"objdata": {
				"Zombies": [
					{
						"Type": "RTID(roman_armor1@ZombieTypes)"
					},
					{
						"Type": "RTID(roman_armor1@ZombieTypes)"
					},
					{
						"Type": "RTID(roman_armor2@ZombieTypes)"
					},
					{
						"Type": "RTID(roman_shield_triad@ZombieTypes)"
					},
					{
						"Type": "RTID(roman_shield_triad@ZombieTypes)"
					},
					{
						"Type": "RTID(roman_armor1@ZombieTypes)"
					},
					{
						"Type": "RTID(roman_armor1@ZombieTypes)"
					},
					{
						"Type": "RTID(roman_armor2@ZombieTypes)"
					},
					{
						"Type": "RTID(roman_shield_triad@ZombieTypes)"
					},
					{
						"Type": "RTID(roman_shield_triad@ZombieTypes)"
					}
				]
			}
		},
		{
			"aliases": [
				"Wave19"
			],
			"objclass": "SpawnZombiesJitteredWaveActionProps",
			"objdata": {
				"Zombies": [
					{
						"Type": "RTID(roman_armor1@ZombieTypes)"
					},
					{
						"Type": "RTID(roman_armor1@ZombieTypes)"
					},
					{
						"Type": "RTID(roman_armor2@ZombieTypes)"
					},
					{
						"Type": "RTID(roman_shield_triad@ZombieTypes)"
					},
					{
						"Type": "RTID(roman_shield_triad@ZombieTypes)"
					}
				]
			}
		},
		{
			"aliases": [
				"Wave20"
			],
			"objclass": "SpawnZombiesJitteredWaveActionProps",
			"objdata": {
				"Zombies": [
					{
						"Type": "RTID(roman_armor1@ZombieTypes)"
					},
					{
						"Type": "RTID(roman_armor1@ZombieTypes)"
					},
					{
						"Type": "RTID(roman_armor2@ZombieTypes)"
					},
					{
						"Type": "RTID(roman_shield_triad@ZombieTypes)"
					},
					{
						"Type": "RTID(roman_shield_triad@ZombieTypes)"
					}
				]
			}
		},
		{
			"aliases": [
				"Wave21"
			],
			"objclass": "SpawnZombiesJitteredWaveActionProps",
			"objdata": {
				"Zombies": [
					{
						"Type": "RTID(roman_armor1@ZombieTypes)"
					},
					{
						"Type": "RTID(roman_armor1@ZombieTypes)"
					},
					{
						"Type": "RTID(roman_armor2@ZombieTypes)"
					},
					{
						"Type": "RTID(roman_shield_triad@ZombieTypes)"
					},
					{
						"Type": "RTID(roman_shield_triad@ZombieTypes)"
					}
				]
			}
		},
		{
			"aliases": [
				"Wave22"
			],
			"objclass": "SpawnZombiesJitteredWaveActionProps",
			"objdata": {
				"Zombies": [
					{
						"Type": "RTID(roman_armor1@ZombieTypes)"
					},
					{
						"Type": "RTID(roman_armor1@ZombieTypes)"
					},
					{
						"Type": "RTID(roman_armor2@ZombieTypes)"
					},
					{
						"Type": "RTID(roman_shield_triad@ZombieTypes)"
					},
					{
						"Type": "RTID(roman_shield_triad@ZombieTypes)"
					}
				]
			}
		},
		{
			"aliases": [
				"Wave23"
			],
			"objclass": "SpawnZombiesJitteredWaveActionProps",
			"objdata": {
				"Zombies": [
					{
						"Type": "RTID(roman_armor1@ZombieTypes)"
					},
					{
						"Type": "RTID(roman_armor1@ZombieTypes)"
					},
					{
						"Type": "RTID(roman_armor2@ZombieTypes)"
					},
					{
						"Type": "RTID(roman_shield_triad@ZombieTypes)"
					},
					{
						"Type": "RTID(roman_shield_triad@ZombieTypes)"
					}
				]
			}
		},
		{
			"aliases": [
				"Wave24"
			],
			"objclass": "SpawnZombiesJitteredWaveActionProps",
			"objdata": {
				"AdditionalPlantfood": 1,
				"Zombies": [
					{
						"Type": "RTID(roman_armor1@ZombieTypes)"
					},
					{
						"Type": "RTID(roman_armor1@ZombieTypes)"
					},
					{
						"Type": "RTID(roman_armor2@ZombieTypes)"
					},
					{
						"Type": "RTID(roman_shield_triad@ZombieTypes)"
					},
					{
						"Type": "RTID(roman_shield_triad@ZombieTypes)"
					}
				]
			}
		},
		{
			"aliases": [
				"Wave25"
			],
			"objclass": "SpawnZombiesJitteredWaveActionProps",
			"objdata": {
				"Zombies": [
					{
						"Type": "RTID(roman_armor1@ZombieTypes)"
					},
					{
						"Type": "RTID(roman_armor1@ZombieTypes)"
					},
					{
						"Type": "RTID(roman_armor2@ZombieTypes)"
					},
					{
						"Type": "RTID(roman_shield_triad@ZombieTypes)"
					},
					{
						"Type": "RTID(roman_shield_triad@ZombieTypes)"
					}
				]
			}
		},
		{
			"aliases": [
				"Wave26"
			],
			"objclass": "SpawnZombiesJitteredWaveActionProps",
			"objdata": {
				"Zombies": [
					{
						"Type": "RTID(roman_armor1@ZombieTypes)"
					},
					{
						"Type": "RTID(roman_armor1@ZombieTypes)"
					},
					{
						"Type": "RTID(roman_armor2@ZombieTypes)"
					},
					{
						"Type": "RTID(roman_shield_triad@ZombieTypes)"
					},
					{
						"Type": "RTID(roman_shield_triad@ZombieTypes)"
					}
				]
			}
		},
		{
			"aliases": [
				"Wave27"
			],
			"objclass": "SpawnZombiesJitteredWaveActionProps",
			"objdata": {
				"Zombies": [
					{
						"Type": "RTID(roman_armor1@ZombieTypes)"
					},
					{
						"Type": "RTID(roman_armor1@ZombieTypes)"
					},
					{
						"Type": "RTID(roman_armor2@ZombieTypes)"
					},
					{
						"Type": "RTID(roman_shield_triad@ZombieTypes)"
					},
					{
						"Type": "RTID(roman_shield_triad@ZombieTypes)"
					}
				]
			}
		},
		{
			"aliases": [
				"Wave28"
			],
			"objclass": "SpawnZombiesJitteredWaveActionProps",
			"objdata": {
				"Zombies": [
					{
						"Type": "RTID(roman_armor1@ZombieTypes)"
					},
					{
						"Type": "RTID(roman_armor1@ZombieTypes)"
					},
					{
						"Type": "RTID(roman_armor2@ZombieTypes)"
					},
					{
						"Type": "RTID(roman_shield_triad@ZombieTypes)"
					},
					{
						"Type": "RTID(roman_shield_triad@ZombieTypes)"
					}
				]
			}
		},
		{
			"aliases": [
				"Wave29"
			],
			"objclass": "SpawnZombiesJitteredWaveActionProps",
			"objdata": {
				"Zombies": [
					{
						"Type": "RTID(roman_armor1@ZombieTypes)"
					},
					{
						"Type": "RTID(roman_armor1@ZombieTypes)"
					},
					{
						"Type": "RTID(roman_armor2@ZombieTypes)"
					},
					{
						"Type": "RTID(roman_shield_triad@ZombieTypes)"
					},
					{
						"Type": "RTID(roman_shield_triad@ZombieTypes)"
					}
				]
			}
		},
		{
			"aliases": [
				"Wave30"
			],
			"objclass": "SpawnZombiesJitteredWaveActionProps",
			"objdata": {
				"Zombies": [
					{
						"Type": "RTID(roman_armor1@ZombieTypes)"
					},
					{
						"Type": "RTID(roman_armor1@ZombieTypes)"
					},
					{
						"Type": "RTID(roman_armor2@ZombieTypes)"
					},
					{
						"Type": "RTID(roman_shield_triad@ZombieTypes)"
					},
					{
						"Type": "RTID(roman_shield_triad@ZombieTypes)"
					}
				]
			}
		},
		{
			"aliases": [
				"Wave31"
			],
			"objclass": "SpawnZombiesJitteredWaveActionProps",
			"objdata": {
				"Zombies": [
					{
						"Type": "RTID(roman_armor1@ZombieTypes)"
					},
					{
						"Type": "RTID(roman_armor1@ZombieTypes)"
					},
					{
						"Type": "RTID(roman_armor2@ZombieTypes)"
					},
					{
						"Type": "RTID(roman_shield_triad@ZombieTypes)"
					},
					{
						"Type": "RTID(roman_shield_triad@ZombieTypes)"
					}
				]
			}
		},
		{
			"aliases": [
				"Wave32"
			],
			"objclass": "SpawnZombiesJitteredWaveActionProps",
			"objdata": {
				"Zombies": [
					{
						"Type": "RTID(roman_armor1@ZombieTypes)"
					},
					{
						"Type": "RTID(roman_armor1@ZombieTypes)"
					},
					{
						"Type": "RTID(roman_armor2@ZombieTypes)"
					},
					{
						"Type": "RTID(roman_shield_triad@ZombieTypes)"
					},
					{
						"Type": "RTID(roman_shield_triad@ZombieTypes)"
					}
				]
			}
		},
		{
			"aliases": [
				"Wave33"
			],
			"objclass": "SpawnZombiesJitteredWaveActionProps",
			"objdata": {
				"Zombies": [
					{
						"Type": "RTID(roman_armor1@ZombieTypes)"
					},
					{
						"Type": "RTID(roman_armor1@ZombieTypes)"
					},
					{
						"Type": "RTID(roman_armor2@ZombieTypes)"
					},
					{
						"Type": "RTID(roman_shield_triad@ZombieTypes)"
					},
					{
						"Type": "RTID(roman_shield_triad@ZombieTypes)"
					}
				]
			}
		},
		{
			"aliases": [
				"Wave34"
			],
			"objclass": "SpawnZombiesJitteredWaveActionProps",
			"objdata": {
				"Zombies": [
					{
						"Type": "RTID(roman_armor1@ZombieTypes)"
					},
					{
						"Type": "RTID(roman_armor1@ZombieTypes)"
					},
					{
						"Type": "RTID(roman_armor2@ZombieTypes)"
					},
					{
						"Type": "RTID(roman_shield_triad@ZombieTypes)"
					},
					{
						"Type": "RTID(roman_shield_triad@ZombieTypes)"
					}
				]
			}
		},
		{
			"aliases": [
				"Wave35"
			],
			"objclass": "SpawnZombiesJitteredWaveActionProps",
			"objdata": {
				"Zombies": [
					{
						"Type": "RTID(roman_armor1@ZombieTypes)"
					},
					{
						"Type": "RTID(roman_armor1@ZombieTypes)"
					},
					{
						"Type": "RTID(roman_armor2@ZombieTypes)"
					},
					{
						"Type": "RTID(roman_shield_triad@ZombieTypes)"
					},
					{
						"Type": "RTID(roman_shield_triad@ZombieTypes)"
					}
				]
			}
		},
		{
			"aliases": [
				"Wave36"
			],
			"objclass": "SpawnZombiesJitteredWaveActionProps",
			"objdata": {
				"Zombies": [
					{
						"Type": "RTID(roman_armor1@ZombieTypes)"
					},
					{
						"Type": "RTID(roman_armor1@ZombieTypes)"
					},
					{
						"Type": "RTID(roman_armor2@ZombieTypes)"
					},
					{
						"Type": "RTID(roman_shield_triad@ZombieTypes)"
					},
					{
						"Type": "RTID(roman_shield_triad@ZombieTypes)"
					},
					{
						"Type": "RTID(roman_armor1@ZombieTypes)"
					},
					{
						"Type": "RTID(roman_armor1@ZombieTypes)"
					},
					{
						"Type": "RTID(roman_armor2@ZombieTypes)"
					},
					{
						"Type": "RTID(roman_shield_triad@ZombieTypes)"
					},
					{
						"Type": "RTID(roman_shield_triad@ZombieTypes)"
					},
					{
						"Type": "RTID(roman_armor1@ZombieTypes)"
					},
					{
						"Type": "RTID(roman_armor1@ZombieTypes)"
					},
					{
						"Type": "RTID(roman_armor2@ZombieTypes)"
					},
					{
						"Type": "RTID(roman_shield_triad@ZombieTypes)"
					},
					{
						"Type": "RTID(roman_shield_triad@ZombieTypes)"
					}
				]
			}
		},
		{
			"aliases": [
				"Wave8ParachuteRainEvent0"
			],
			"objclass": "ParachuteRainZombieSpawnerProps",
			"objdata": {
				"ColumnEnd": "8",
				"ColumnStart": 2,
				"GroupSize": 3,
				"SpiderCount": 3,
				"SpiderZombieName": "lostcity_lostpilot",
				"TimeBeforeFullSpawn": "1",
				"TimeBetweenGroups": "0.2",
				"WaveStartMessage": "[WARNING_PARACHUTERAIN]",
				"ZombieFallTime": "1.5"
			}
		},
		{
			"aliases": [
				"Wave16ParachuteRainEvent0"
			],
			"objclass": "ParachuteRainZombieSpawnerProps",
			"objdata": {
				"ColumnEnd": "8",
				"ColumnStart": 2,
				"GroupSize": 3,
				"SpiderCount": "4",
				"SpiderZombieName": "lostcity_lostpilot",
				"TimeBeforeFullSpawn": "1",
				"TimeBetweenGroups": "0.2",
				"WaveStartMessage": "[WARNING_PARACHUTERAIN]",
				"ZombieFallTime": "1.5"
			}
		},
		{
			"aliases": [
				"Wave24ParachuteRainEvent0"
			],
			"objclass": "ParachuteRainZombieSpawnerProps",
			"objdata": {
				"ColumnEnd": "8",
				"ColumnStart": 2,
				"GroupSize": 3,
				"SpiderCount": 5,
				"SpiderZombieName": "lostcity_lostpilot",
				"TimeBeforeFullSpawn": "1",
				"TimeBetweenGroups": "0.2",
				"WaveStartMessage": "[WARNING_PARACHUTERAIN]",
				"ZombieFallTime": "1.5"
			}
		},
		{
			"aliases": [
				"Wave30ParachuteRainEvent0"
			],
			"objclass": "ParachuteRainZombieSpawnerProps",
			"objdata": {
				"ColumnEnd": "8",
				"ColumnStart": 0,
				"GroupSize": 1,
				"SpiderCount": 5,
				"SpiderZombieName": "lostcity_lostpilot",
				"TimeBeforeFullSpawn": "1",
				"TimeBetweenGroups": "0.2",
				"WaveStartMessage": "[WARNING_PARACHUTERAIN]",
				"ZombieFallTime": "1.5"
			}
		},
		{
			"aliases": [
				"Wave36ParachuteRainEvent0"
			],
			"objclass": "ParachuteRainZombieSpawnerProps",
			"objdata": {
				"ColumnEnd": "8",
				"ColumnStart": 0,
				"GroupSize": "2",
				"SpiderCount": 4,
				"SpiderZombieName": "lostcity_lostpilot",
				"TimeBeforeFullSpawn": "1",
				"TimeBetweenGroups": "0.2",
				"WaveStartMessage": "[WARNING_PARACHUTERAIN]",
				"ZombieFallTime": "1.5"
			}
		}
	],
	"version": 1
}