{
	"#comment": "Future 22 v1",
	"objects": [
		{
			"objclass": "LevelDefinition",
			"objdata": {
				"Description": "[PLAYERS_TRIP_TO_RIFT]",
				"LevelNumber": "",
				"Loot": "",
				"Modules": [
					"RTID(ZombiesDeadWinCon@LevelModules)",
					"RTID(FutureMowers@LevelModules)",
					"RTID(SeedBank@CurrentLevel)",
					"RTID(LastStand@CurrentLevel)",
					"RTID(DefaultZombieWinCondition@LevelModules)",
					"RTID(FutureLinkedTileGroups@CurrentLevel)",
					"RTID(NewWaves@CurrentLevel)",
					"RTID(PerkActivator@CurrentLevel)",
					"RTID(LevelDifficultyScaling@CurrentLevel)"
				],
				"MusicType": "MiniGame_A",
				"Name": "[RIFT_LEVEL_NAME]",
				"NormalPresentTable": "future_normal_01",
				"ShinyPresentTable": "future_shiny_01",
				"StageModule": "RTID(FutureStage@LevelModules)",
				"VictoryModule": "RTID(RiftOutro@LevelModules)",
				"LevelMutator": "RTID(LevelMutator@CurrentLevel)",
				"PerksDisabledInLevel": [
					"moarscore",
					"bossbustercannon"
				],
				"PerksDisabledPerDifficulty": [
					[],
					[],
					[]
				]
			}
		},
		{
			"aliases": [
				"LastStand"
			],
			"objclass": "LastStandMinigameProperties",
			"objdata": {
				"PreSeedchooserFlow": "rift",
				"StartingPlantfood": 0,
				"StartingSun": 2100
			}
		},
		{
			"aliases": [
				"FutureLinkedTileGroups"
			],
			"objclass": "PowerTileProperties",
			"objdata": {
				"LinkedTiles": [
					{
						"Group": "delta",
						"Location": {
							"mX": 3,
							"mY": 1
						},
						"PropagationDelay": 1.5
					},
					{
						"Group": "delta",
						"Location": {
							"mX": 3,
							"mY": 3
						},
						"PropagationDelay": 1.5
					}
				]
			}
		},
		{
			"aliases": [
				"SeedBank"
			],
			"objclass": "SeedBankProperties",
			"objdata": {
				"ExcludeListSunProducers": "true",
				"PlantExcludeList": [
					"iceburg",
					"puffshroom",
					"gravebuster",
					"stallia",
					"toadstool",
					"goldleaf",
					"electricblueberry",
					"spearmint",
					"peppermint",
					"appeasemint",
					"enforcemint",
					"concealmint",
					"filamint",
					"wintermint",
					"bombardmint",
					"armamint",
					"ailmint",
					"reinforcemint",
					"containmint",
					"enchantmint"
				],
				"SelectionMethod": "chooser"
			}
		},
		{
			"aliases": [
				"PerkActivator"
			],
			"objclass": "PerkHandlerModuleProperties",
			"objdata": {}
		},
		{
			"aliases": [
				"LevelMutator"
			],
			"objclass": "LevelMutatorModuleProperties",
			"objdata": {
				"MutatorTables": [
					"RTID(MutatorPropsRiftLastStand@LevelMutatorTables)",
					"RTID(LocalChallengeMutator@CurrentLevel)",
					"RTID(MutatorGridRiftLinkedTiles@LevelMutatorTables)",
					"RTID(LocalMainChallengeMutator@CurrentLevel)"
				]
			}
		},
		{
			"aliases": [
				"LocalMainChallengeMutator"
			],
			"objclass": "LevelMutatorTableProps",
			"objdata": {
				"Tables": [
					{
						"Level": 0,
						"Modules": [
							"RTID(BeatTheLevel@CurrentLevel)"
						],
						"ModuleType": "mainchallenge"
					},
					{
						"Level": 1,
						"Modules": [
							"RTID(BeatTheLevel@CurrentLevel)"
						],
						"ModuleType": "mainchallenge"
					},
					{
						"Level": 2,
						"Modules": [
							"RTID(BeatTheLevel@CurrentLevel)"
						],
						"ModuleType": "mainchallenge"
					}
				]
			}
		},
		{
			"aliases": [
				"BeatTheLevel"
			],
			"objclass": "StarChallengeBeatTheLevelProps",
			"objdata": {
				"Description": "[STARCHALLENGE_RIFT_LASTSTAND]",
				"DescriptiveName": "[STARCHALLENGE_RIFT_LASTSTAND_NAME]"
			}
		},
		{
			"aliases": [
				"LocalChallengeMutator"
			],
			"objclass": "LevelMutatorTableProps",
			"objdata": {
				"Tables": [
					{
						"Level": 0,
						"ModuleType": "bonuschallenge",
						"Modules": [
							"RTID(ApplyZombieConditions1@CurrentLevel)"
						]
					},
					{
						"Level": 1,
						"ModuleType": "bonuschallenge",
						"Modules": [
							"RTID(ApplyZombieConditions2@CurrentLevel)",
							"RTID(SimultaneousPlants1@CurrentLevel)"
						]
					},
					{
						"Level": 2,
						"ModuleType": "bonuschallenge",
						"Modules": [
							"RTID(ApplyZombieConditions3@CurrentLevel)",
							"RTID(SimultaneousPlants2@CurrentLevel)"
						]
					}
				]
			}
		},
		{
			"aliases": [
				"SimultaneousPlants1"
			],
			"objclass": "StarChallengeSimultaneousPlantsProps",
			"objdata": {
				"MaximumPlants": 7
			}
		},
		{
			"aliases": [
				"SimultaneousPlants2"
			],
			"objclass": "StarChallengeSimultaneousPlantsProps",
			"objdata": {
				"MaximumPlants": 5
			}
		},
		{
			"aliases": [
				"ApplyZombieConditions1"
			],
			"objclass": "ApplyZombieConditionsChallengeProps",
			"objdata": {
				"ConditionToInflict": [
					"chill"
				],
				"NumZombieConditionsToApply": 50
			}
		},
		{
			"aliases": [
				"ApplyZombieConditions2"
			],
			"objclass": "ApplyZombieConditionsChallengeProps",
			"objdata": {
				"ConditionToInflict": [
					"chill"
				],
				"NumZombieConditionsToApply": 80
			}
		},
		{
			"aliases": [
				"ApplyZombieConditions3"
			],
			"objclass": "ApplyZombieConditionsChallengeProps",
			"objdata": {
				"ConditionToInflict": [
					"chill"
				],
				"NumZombieConditionsToApply": 100
			}
		},
		{
			"aliases": [
				"LevelDifficultyScaling"
			],
			"objclass": "LevelDifficultyScalingModuleProperties",
			"objdata": {
				"DifficultyRulesType": "RiftDifficulty",
				"ZombieLevelSwaps": [
					{
						"Level": 0,
						"Swaps": [
							{
								"From": "RTID(future@ZombieTypes)",
								"To": [
									"RTID(roman@ZombieTypes)",
									"RTID(roman_imp@ZombieTypes)"
								]
							},
							{
								"From": "RTID(future_armor1@ZombieTypes)",
								"To": [
									"RTID(roman@ZombieTypes)",
									"RTID(roman_armor1@ZombieTypes)"
								]
							},
							{
								"From": "RTID(future_armor2@ZombieTypes)",
								"To": [
									"RTID(roman_armor2@ZombieTypes)",
									"RTID(roman_armor1@ZombieTypes)"
								]
							},
							{
								"From": "RTID(mech_cone@ZombieTypes)",
								"To": [
									"RTID(mech_cone@ZombieTypes)",
									"RTID(future_protector@ZombieTypes)",
									"RTID(future_armor2@ZombieTypes)"
								]
							},
							{
								"From": "RTID(football_mech@ZombieTypes)",
								"To": [
									"RTID(future_protector@ZombieTypes)",
									"RTID(roman_armor2@ZombieTypes)"
								]
							},
							{
								"From": "RTID(future_jetpack@ZombieTypes)",
								"To": [
									"RTID(future_jetpack@ZombieTypes)",
									"RTID(future_armor1@ZombieTypes)"
								]
							}
						]
					},
					{
						"Level": 4,
						"Swaps": [
							{
								"From": "RTID(future@ZombieTypes)",
								"To": [
									"RTID(roman@ZombieTypes)",
									"RTID(roman_imp@ZombieTypes)",
									"RTID(roman_armor1@ZombieTypes)"
								]
							},
							{
								"From": "RTID(future_armor1@ZombieTypes)",
								"To": [
									"RTID(roman_armor1@ZombieTypes)",
									"RTID(roman_armor2@ZombieTypes)",
									"RTID(roman@ZombieTypes)"
								]
							},
							{
								"From": "RTID(future_armor2@ZombieTypes)",
								"To": [
									"RTID(roman_armor2@ZombieTypes)",
									"RTID(roman_armor1@ZombieTypes)",
									"RTID(future_protector@ZombieTypes)"
								]
							},
							{
								"From": "RTID(future_jetpack@ZombieTypes)",
								"To": [
									"RTID(future_jetpack@ZombieTypes)",
									"RTID(future_jetpack@ZombieTypes)",
									"RTID(future_jetpack@ZombieTypes)",
									"RTID(future_jetpack_veteran@ZombieTypes)"
								]
							},
							{
								"From": "RTID(mech_cone@ZombieTypes)",
								"To": [
									"RTID(mech_cone@ZombieTypes)",
									"RTID(future_protector@ZombieTypes)",
									"RTID(football_mech@ZombieTypes)"
								]
							},
							{
								"From": "RTID(football_mech@ZombieTypes)",
								"To": [
									"RTID(football_mech@ZombieTypes)",
									"RTID(football_mech@ZombieTypes)",
									"RTID(football_mech@ZombieTypes)",
									"RTID(football_mech@ZombieTypes)",
									"RTID(football_mech@ZombieTypes)",
									"RTID(football_mech@ZombieTypes)",
									"RTID(future_gargantuar@ZombieTypes)"
								]
							}
						]
					},
					{
						"Level": 7,
						"Swaps": [
							{
								"From": "RTID(future@ZombieTypes)",
								"To": [
									"RTID(roman@ZombieTypes)",
									"RTID(roman_armor1@ZombieTypes)",
									"RTID(roman_armor2@ZombieTypes)"
								]
							},
							{
								"From": "RTID(future_armor1@ZombieTypes)",
								"To": [
									"RTID(roman_armor1@ZombieTypes)",
									"RTID(roman_armor2@ZombieTypes)",
									"RTID(roman_armor2@ZombieTypes)",
									"RTID(roman_armor2@ZombieTypes)",
									"RTID(future_protector@ZombieTypes)",
									"RTID(future_armor4@ZombieTypes)"
								]
							},
							{
								"From": "RTID(future_armor2@ZombieTypes)",
								"To": [
									"RTID(roman_armor2@ZombieTypes)",
									"RTID(future_armor4@ZombieTypes)",
									"RTID(future_armor4@ZombieTypes)"
								]
							},
							{
								"From": "RTID(future_jetpack@ZombieTypes)",
								"To": [
									"RTID(future_jetpack@ZombieTypes)",
									"RTID(future_jetpack_veteran@ZombieTypes)"
								]
							},
							{
								"From": "RTID(mech_cone@ZombieTypes)",
								"To": [
									"RTID(mech_cone@ZombieTypes)",
									"RTID(football_mech@ZombieTypes)"
								]
							},
							{
								"From": "RTID(football_mech@ZombieTypes)",
								"To": [
									"RTID(football_mech@ZombieTypes)",
									"RTID(football_mech@ZombieTypes)",
									"RTID(football_mech@ZombieTypes)",
									"RTID(future_gargantuar@ZombieTypes)"
								]
							}
						]
					}
				]
			}
		},
		{
			"aliases": [
				"NewWaves"
			],
			"objclass": "WaveManagerModuleProperties",
			"objdata": {
				"ManualStartup": true,
				"WaveManagerProps": "RTID(WaveManagerProps@CurrentLevel)"
			}
		},
		{
			"aliases": [
				"WaveManagerProps"
			],
			"objclass": "WaveManagerProperties",
			"objdata": {
				"FlagWaveInterval": 10,
				"WaveCount": 10,
				"WaveSpendingPointIncrement": 100,
				"WaveSpendingPoints": 1000,
				"Waves": [
					[
						"RTID(Wave1@CurrentLevel)"
					],
					[
						"RTID(Wave2@CurrentLevel)"
					],
					[
						"RTID(Wave3@CurrentLevel)"
					],
					[
						"RTID(Wave4@CurrentLevel)"
					],
					[
						"RTID(Wave5@CurrentLevel)"
					],
					[
						"RTID(Wave6@CurrentLevel)"
					],
					[
						"RTID(Wave7@CurrentLevel)"
					],
					[
						"RTID(Wave8@CurrentLevel)"
					],
					[
						"RTID(Wave9@CurrentLevel)"
					],
					[
						"RTID(Wave10@CurrentLevel)"
					]
				]
			}
		},
		{
			"aliases": [
				"Wave1"
			],
			"objclass": "SpawnZombiesJitteredWaveActionProps",
			"objdata": {
				"Zombies": [
					{
						"Type": "RTID(future_armor1@ZombieTypes)"
					},
					{
						"Type": "RTID(future_armor1@ZombieTypes)"
					},
					{
						"Type": "RTID(future_armor1@ZombieTypes)"
					},
					{
						"Type": "RTID(future_armor1@ZombieTypes)"
					}
				]
			}
		},
		{
			"aliases": [
				"Wave2"
			],
			"objclass": "SpawnZombiesJitteredWaveActionProps",
			"objdata": {
				"Zombies": [
					{
						"Type": "RTID(future_armor2@ZombieTypes)"
					},
					{
						"Type": "RTID(future_armor2@ZombieTypes)"
					},
					{
						"Type": "RTID(future_armor2@ZombieTypes)"
					}
				]
			}
		},
		{
			"aliases": [
				"Wave3"
			],
			"objclass": "SpawnZombiesJitteredWaveActionProps",
			"objdata": {
				"Zombies": [
					{
						"Type": "RTID(future_armor2@ZombieTypes)"
					},
					{
						"Type": "RTID(future@ZombieTypes)"
					},
					{
						"Type": "RTID(future_armor2@ZombieTypes)"
					},
					{
						"Type": "RTID(future_armor1@ZombieTypes)"
					},
					{
						"Type": "RTID(future_armor2@ZombieTypes)"
					},
					{
						"Type": "RTID(future@ZombieTypes)"
					},
					{
						"Type": "RTID(future_armor2@ZombieTypes)"
					}
				]
			}
		},
		{
			"aliases": [
				"Wave4"
			],
			"objclass": "SpawnZombiesJitteredWaveActionProps",
			"objdata": {
				"Zombies": [
					{
						"Row": "3",
						"Type": "RTID(future_armor1@ZombieTypes)"
					},
					{
						"Row": "3",
						"Type": "RTID(future_protector@ZombieTypes)"
					},
					{
						"Type": "RTID(future_armor1@ZombieTypes)"
					},
					{
						"Type": "RTID(future_armor1@ZombieTypes)"
					},
					{
						"Type": "RTID(future_armor1@ZombieTypes)"
					},
					{
						"Type": "RTID(future_armor1@ZombieTypes)"
					}
				]
			}
		},
		{
			"aliases": [
				"Wave5"
			],
			"objclass": "SpawnZombiesJitteredWaveActionProps",
			"objdata": {
				"Zombies": [
					{
						"Row": "1",
						"Type": "RTID(mech_cone@ZombieTypes)"
					},
					{
						"Row": "1",
						"Type": "RTID(future@ZombieTypes)"
					},
					{
						"Row": "4",
						"Type": "RTID(future@ZombieTypes)"
					},
					{
						"Row": "1",
						"Type": "RTID(mech_cone@ZombieTypes)"
					},
					{
						"Row": "4",
						"Type": "RTID(future@ZombieTypes)"
					},
					{
						"Row": "1",
						"Type": "RTID(future@ZombieTypes)"
					},
					{
						"Row": "1",
						"Type": "RTID(mech_cone@ZombieTypes)"
					}
				]
			}
		},
		{
			"aliases": [
				"Wave6"
			],
			"objclass": "SpawnZombiesJitteredWaveActionProps",
			"objdata": {
				"Zombies": [
					{
						"Row": "3",
						"Type": "RTID(future_jetpack@ZombieTypes)"
					},
					{
						"Row": "3",
						"Type": "RTID(future_jetpack@ZombieTypes)"
					},
					{
						"Type": "RTID(future_jetpack@ZombieTypes)"
					},
					{
						"Type": "RTID(future_armor2@ZombieTypes)"
					},
					{
						"Type": "RTID(future_armor2@ZombieTypes)"
					},
					{
						"Type": "RTID(future_armor2@ZombieTypes)"
					},
					{
						"Type": "RTID(future_jetpack@ZombieTypes)"
					},
					{
						"Row": "3",
						"Type": "RTID(future_jetpack@ZombieTypes)"
					},
					{
						"Row": "3",
						"Type": "RTID(future_jetpack@ZombieTypes)"
					}
				]
			}
		},
		{
			"aliases": [
				"Wave7"
			],
			"objclass": "SpawnZombiesJitteredWaveActionProps",
			"objdata": {
				"AdditionalPlantfood": 1,
				"Zombies": [
					{
						"Row": "4",
						"Type": "RTID(football_mech@ZombieTypes)"
					},
					{
						"Row": "4",
						"Type": "RTID(future@ZombieTypes)"
					},
					{
						"Row": "1",
						"Type": "RTID(future_armor1@ZombieTypes)"
					},
					{
						"Type": "RTID(football_mech@ZombieTypes)"
					},
					{
						"Row": "5",
						"Type": "RTID(future_armor1@ZombieTypes)"
					},
					{
						"Row": "4",
						"Type": "RTID(future@ZombieTypes)"
					},
					{
						"Type": "RTID(football_mech@ZombieTypes)"
					}
				]
			}
		},
		{
			"aliases": [
				"Wave8"
			],
			"objclass": "SpawnZombiesJitteredWaveActionProps",
			"objdata": {
				"AdditionalPlantfood": 0,
				"Zombies": [
					{
						"Row": "2",
						"Type": "RTID(future_protector@ZombieTypes)"
					},
					{
						"Row": "4",
						"Type": "RTID(future_protector@ZombieTypes)"
					},
					{
						"Row": "3",
						"Type": "RTID(future_armor2@ZombieTypes)"
					},
					{
						"Row": "2",
						"Type": "RTID(future_armor2@ZombieTypes)"
					},
					{
						"Row": "4",
						"Type": "RTID(future_armor2@ZombieTypes)"
					},
					{
						"Row": "1",
						"Type": "RTID(future_armor2@ZombieTypes)"
					},
					{
						"Row": "5",
						"Type": "RTID(future_armor2@ZombieTypes)"
					}
				]
			}
		},
		{
			"aliases": [
				"Wave9"
			],
			"objclass": "SpawnZombiesJitteredWaveActionProps",
			"objdata": {
				"Zombies": [
					{
						"Row": "2",
						"Type": "RTID(mech_cone@ZombieTypes)"
					},
					{
						"Row": "2",
						"Type": "RTID(future@ZombieTypes)"
					},
					{
						"Type": "RTID(future_gargantuar@ZombieTypes)"
					}
				]
			}
		},
		{
			"aliases": [
				"Wave10"
			],
			"objclass": "SpawnZombiesJitteredWaveActionProps",
			"objdata": {
				"AdditionalPlantfood": 0,
				"Zombies": [
					{
						"Row": "1",
						"Type": "RTID(future_jetpack@ZombieTypes)"
					},
					{
						"Row": "5",
						"Type": "RTID(future_jetpack@ZombieTypes)"
					},
					{
						"Row": "2",
						"Type": "RTID(future_jetpack@ZombieTypes)"
					},
					{
						"Row": "4",
						"Type": "RTID(future_jetpack@ZombieTypes)"
					},
					{
						"Row": "3",
						"Type": "RTID(future_jetpack@ZombieTypes)"
					},
					{
						"Row": "3",
						"Type": "RTID(future_protector@ZombieTypes)"
					},
					{
						"Type": "RTID(future_armor1@ZombieTypes)"
					},
					{
						"Type": "RTID(future_armor1@ZombieTypes)"
					},
					{
						"Type": "RTID(future_armor2@ZombieTypes)"
					},
					{
						"Type": "RTID(mech_cone@ZombieTypes)"
					},
					{
						"Type": "RTID(future_armor2@ZombieTypes)"
					},
					{
						"Type": "RTID(future_armor1@ZombieTypes)"
					},
					{
						"Type": "RTID(future_armor1@ZombieTypes)"
					},
					{
						"Row": "3",
						"Type": "RTID(future_jetpack@ZombieTypes)"
					},
					{
						"Row": "4",
						"Type": "RTID(future_jetpack@ZombieTypes)"
					},
					{
						"Row": "2",
						"Type": "RTID(future_jetpack@ZombieTypes)"
					},
					{
						"Row": "5",
						"Type": "RTID(future_jetpack@ZombieTypes)"
					},
					{
						"Row": "1",
						"Type": "RTID(future_jetpack@ZombieTypes)"
					}
				]
			}
		}
	],
	"version": 1
}