{
	"#comment": "Rift 1B node 7 - premium quest hypnoshroom 1 v1",
	"objects": [
		{
			"objclass": "LevelDefinition",
			"objdata": {
				"Description": "[PLAYERS_TRIP_TO_RIFT]",
				"LevelNumber": "",
				"DisablePlantBoosts": false,
				"Loot": "",
				"Modules": [
					"RTID(DefaultSunDropper@LevelModules)",
					"RTID(StandardRiftIntro@LevelModules)",
					"RTID(ZombiesDeadWinCon@LevelModules)",
					"RTID(FutureMowers@LevelModules)",
					"RTID(SeedBank@CurrentLevel)",
					"RTID(DefaultZombieWinCondition@LevelModules)",
					"RTID(NewWaves@CurrentLevel)",
					"RTID(PerkActivator@CurrentLevel)",
					"RTID(LevelScoring@CurrentLevel)",
					"RTID(LevelDifficultyScaling@CurrentLevel)"
				],
				"MusicType": "MiniGame_A",
				"Name": "[RIFT_LEVEL_NAME]",
				"NormalPresentTable": "egypt_normal_01",
				"ShinyPresentTable": "egypt_shiny_01",
				"VictoryModule": "RTID(RiftOutro@LevelModules)",
				"StageModule": "RTID(RiftStage@LevelModules)",
				"LevelMutator": "RTID(LevelMutator@CurrentLevel)",
				"PerksDisabledInLevel": [
					"bossbustercannon"
				],
				"PerksDisabledPerDifficulty": [
					[],
					[],
					[]
				]
			}
		},
		{
			"aliases": [
				"LevelScoring"
			],
			"objclass": "LevelScoringModuleProperties",
			"objdata": {
				"PlantBonusMultiplier": 0.0,
				"PlantBonuses": [],
				"ScoringRulesType": "Rift",
				"StartingPlantfood": 0
			}
		},
		{
			"aliases": [
				"PerkActivator"
			],
			"objclass": "PerkHandlerModuleProperties",
			"objdata": {}
		},
		{
			"aliases": [
				"LevelMutator"
			],
			"objclass": "LevelMutatorModuleProperties",
			"objdata": {
				"MutatorTables": [
					"RTID(MutatorPropsRiftNormal@LevelMutatorTables)",
					"RTID(LocalChallengeMutator@CurrentLevel)",
					"RTID(LocalMainChallengeMutator@CurrentLevel)"
				]
			}
		},
		{
			"aliases": [
				"LocalMainChallengeMutator"
			],
			"objclass": "LevelMutatorTableProps",
			"objdata": {
				"Tables": [
					{
						"Level": 0,
						"Modules": [
							"RTID(BeatTheLevel@CurrentLevel)"
						],
						"ModuleType": "mainchallenge"
					},
					{
						"Level": 1,
						"Modules": [
							"RTID(BeatTheLevel@CurrentLevel)"
						],
						"ModuleType": "mainchallenge"
					},
					{
						"Level": 2,
						"Modules": [
							"RTID(BeatTheLevel@CurrentLevel)"
						],
						"ModuleType": "mainchallenge"
					}
				]
			}
		},
		{
			"aliases": [
				"BeatTheLevel"
			],
			"objclass": "StarChallengeBeatTheLevelProps",
			"objdata": {
				"Description": "[STARCHALLENGE_RIFT_NORMAL]",
				"DescriptiveName": "[STARCHALLENGE_RIFT_NORMAL_NAME]"
			}
		},
		{
			"aliases": [
				"LocalChallengeMutator"
			],
			"objclass": "LevelMutatorTableProps",
			"objdata": {
				"Tables": [
					{
						"Level": 0,
						"Modules": [
							"RTID(ReachTheScore1@CurrentLevel)"
						],
						"ModuleType": "bonuschallenge"
					},
					{
						"Level": 1,
						"Modules": [
							"RTID(ApplyZombieConditions2@CurrentLevel)",
							"RTID(ReachTheScore2@CurrentLevel)"
						],
						"ModuleType": "bonuschallenge"
					},
					{
						"Level": 2,
						"Modules": [
							"RTID(ApplyZombieConditions3@CurrentLevel)",
							"RTID(ReachTheScore3@CurrentLevel)"
						],
						"ModuleType": "bonuschallenge"
					}
				]
			}
		},
		{
			"aliases": [
				"ReachTheScore1"
			],
			"objclass": "StarChallengeTargetScoreProps",
			"objdata": {
				"Description": "[STARCHALLENGE_SCORE_TO_BEAT]",
				"DescriptionFailure": "[STARCHALLENGE_TARGET_SCORE_FAILURE]",
				"DescriptiveName": "[STARCHALLENGE_TARGET_SCORE_NAME]",
				"TargetScore": 200000
			}
		},
		{
			"aliases": [
				"ReachTheScore2"
			],
			"objclass": "StarChallengeTargetScoreProps",
			"objdata": {
				"Description": "[STARCHALLENGE_SCORE_TO_BEAT]",
				"DescriptionFailure": "[STARCHALLENGE_TARGET_SCORE_FAILURE]",
				"DescriptiveName": "[STARCHALLENGE_TARGET_SCORE_NAME]",
				"TargetScore": 1000000
			}
		},
		{
			"aliases": [
				"ReachTheScore3"
			],
			"objclass": "StarChallengeTargetScoreProps",
			"objdata": {
				"Description": "[STARCHALLENGE_SCORE_TO_BEAT]",
				"DescriptionFailure": "[STARCHALLENGE_TARGET_SCORE_FAILURE]",
				"DescriptiveName": "[STARCHALLENGE_TARGET_SCORE_NAME]",
				"TargetScore": 3000000
			}
		},
		{
			"aliases": [
				"ApplyZombieConditions2"
			],
			"objclass": "ApplyZombieConditionsChallengeProps",
			"objdata": {
				"ConditionToInflict": [
					"morphedtogargantuar"
				],
				"NumZombieConditionsToApply": 10
			}
		},
		{
			"aliases": [
				"ApplyZombieConditions3"
			],
			"objclass": "ApplyZombieConditionsChallengeProps",
			"objdata": {
				"ConditionToInflict": [
					"morphedtogargantuar"
				],
				"NumZombieConditionsToApply": 10
			}
		},
		{
			"aliases": [
				"SeedBank"
			],
			"objclass": "SeedBankProperties",
			"objdata": {
				"ExcludeListSunProducers": false,
				"PlantExcludeList": [],
				"SelectionMethod": "chooser"
			}
		},
		{
			"aliases": [
				"LevelDifficultyScaling"
			],
			"objclass": "LevelDifficultyScalingModuleProperties",
			"objdata": {
				"DifficultyRulesType": "RiftDifficulty",
				"ZombieLevelSwaps": [
					{
						"Level": 0,
						"Swaps": [
							{
								"From": "RTID(dark@ZombieTypes)",
								"To": [
									"RTID(dark@ZombieTypes)",
									"RTID(roman@ZombieTypes)",
									"RTID(roman_imp@ZombieTypes)"
								]
							},
							{
								"From": "RTID(dark_armor1@ZombieTypes)",
								"To": [
									"RTID(dark_armor1@ZombieTypes)",
									"RTID(roman_armor1@ZombieTypes)",
									"RTID(roman@ZombieTypes)"
								]
							},
							{
								"From": "RTID(dark_armor2@ZombieTypes)",
								"To": [
									"RTID(dark_armor2@ZombieTypes)",
									"RTID(roman_armor1@ZombieTypes)",
									"RTID(roman_armor2@ZombieTypes)"
								]
							},
							{
								"From": "RTID(cannon@ZombieTypes)",
								"To": [
									"RTID(cannon@ZombieTypes)",
									"RTID(cannon@ZombieTypes)",
									"RTID(cannon@ZombieTypes)",
									"RTID(cannon@ZombieTypes)",
									"RTID(cannon@ZombieTypes)",
									"RTID(cannon@ZombieTypes)",
									"RTID(cannon@ZombieTypes)",
									"RTID(roman_ballista@ZombieTypes)"
								]
							}
						]
					},
					{
						"Level": 4,
						"Swaps": [
							{
								"From": "RTID(dark@ZombieTypes)",
								"To": [
									"RTID(roman_imp@ZombieTypes)",
									"RTID(roman@ZombieTypes)",
									"RTID(roman_armor1@ZombieTypes)"
								]
							},
							{
								"From": "RTID(dark_armor1@ZombieTypes)",
								"To": [
									"RTID(roman@ZombieTypes)",
									"RTID(roman_armor1@ZombieTypes)",
									"RTID(roman_armor2@ZombieTypes)"
								]
							},
							{
								"From": "RTID(dark_armor2@ZombieTypes)",
								"To": [
									"RTID(roman_armor1@ZombieTypes)",
									"RTID(roman_armor2@ZombieTypes)",
									"RTID(pharaoh@ZombieTypes)"
								]
							},
							{
								"From": "RTID(cannon@ZombieTypes)",
								"To": [
									"RTID(cannon@ZombieTypes)",
									"RTID(cannon@ZombieTypes)",
									"RTID(cannon@ZombieTypes)",
									"RTID(roman_ballista@ZombieTypes)"
								]
							}
						]
					},
					{
						"Level": 7,
						"Swaps": [
							{
								"From": "RTID(dark@ZombieTypes)",
								"To": [
									"RTID(roman@ZombieTypes)",
									"RTID(roman_armor1@ZombieTypes)"
								]
							},
							{
								"From": "RTID(dark_armor1@ZombieTypes)",
								"To": [
									"RTID(roman_armor1@ZombieTypes)",
									"RTID(roman_armor2@ZombieTypes)",
									"RTID(roman_shield_triad@ZombieTypes)"
								]
							},
							{
								"From": "RTID(dark_armor2@ZombieTypes)",
								"To": [
									"RTID(roman_armor2@ZombieTypes)",
									"RTID(pharaoh@ZombieTypes)"
								]
							},
							{
								"From": "RTID(cannon@ZombieTypes)",
								"To": [
									"RTID(roman_ballista@ZombieTypes)",
									"RTID(cannon@ZombieTypes)",
									"RTID(cannon@ZombieTypes)"
								]
							}
						]
					}
				]
			}
		},
		{
			"aliases": [
				"NewWaves"
			],
			"objclass": "WaveManagerModuleProperties",
			"objdata": {
				"DynamicZombies": [
					{
						"PointIncrementPerWave": -40,
						"StartingPoints": -100,
						"StartingWave": 3,
						"ZombiePool": [
							"RTID(dark_armor2@ZombieTypes)",
							"RTID(dark_armor1@ZombieTypes)",
							"RTID(dark@ZombieTypes)",
							"RTID(pharaoh@ZombieTypes)",
							"RTID(prospector@ZombieTypes)",
							"RTID(roman@ZombieTypes)",
							"RTID(roman_armor1@ZombieTypes)",
							"RTID(roman_armor2@ZombieTypes)"
						]
					},
					{
						"PointIncrementPerWave": 300,
						"StartingPoints": 200,
						"StartingWave": 4,
						"ZombiePool": [
							"RTID(dark_armor2@ZombieTypes)",
							"RTID(dark_armor1@ZombieTypes)",
							"RTID(dark@ZombieTypes)",
							"RTID(pharaoh@ZombieTypes)",
							"RTID(prospector@ZombieTypes)",
							"RTID(roman@ZombieTypes)",
							"RTID(roman_armor1@ZombieTypes)",
							"RTID(roman_armor2@ZombieTypes)"
						]
					},
					{
						"PointIncrementPerWave": -10,
						"StartingPoints": -100,
						"StartingWave": 5,
						"ZombiePool": [
							"RTID(dark_armor2@ZombieTypes)",
							"RTID(dark_armor1@ZombieTypes)",
							"RTID(dark@ZombieTypes)",
							"RTID(pharaoh@ZombieTypes)",
							"RTID(prospector@ZombieTypes)",
							"RTID(roman@ZombieTypes)",
							"RTID(roman_armor1@ZombieTypes)",
							"RTID(roman_armor2@ZombieTypes)"
						]
					},
					{
						"PointIncrementPerWave": 425,
						"StartingPoints": 200,
						"StartingWave": 1,
						"ZombiePool": [
							"RTID(dark_armor2@ZombieTypes)",
							"RTID(dark_armor1@ZombieTypes)",
							"RTID(dark@ZombieTypes)",
							"RTID(pharaoh@ZombieTypes)",
							"RTID(prospector@ZombieTypes)",
							"RTID(roman@ZombieTypes)",
							"RTID(roman_armor1@ZombieTypes)",
							"RTID(roman_armor2@ZombieTypes)"
						]
					},
					{
						"PointIncrementPerWave": 40,
						"StartingPoints": 200,
						"StartingWave": 4,
						"ZombiePool": [
							"RTID(dark_armor2@ZombieTypes)",
							"RTID(dark_armor1@ZombieTypes)",
							"RTID(dark@ZombieTypes)",
							"RTID(pharaoh@ZombieTypes)",
							"RTID(prospector@ZombieTypes)",
							"RTID(roman@ZombieTypes)",
							"RTID(roman_armor1@ZombieTypes)",
							"RTID(roman_armor2@ZombieTypes)"
						]
					},
					{
						"PointIncrementPerWave": 60,
						"StartingPoints": 400,
						"StartingWave": 3,
						"ZombiePool": [
							"RTID(dark_armor2@ZombieTypes)",
							"RTID(dark_armor1@ZombieTypes)",
							"RTID(dark@ZombieTypes)",
							"RTID(pharaoh@ZombieTypes)",
							"RTID(prospector@ZombieTypes)",
							"RTID(roman@ZombieTypes)",
							"RTID(roman_armor1@ZombieTypes)",
							"RTID(roman_armor2@ZombieTypes)"
						]
					},
					{
						"PointIncrementPerWave": 60,
						"StartingPoints": 400,
						"StartingWave": 3,
						"ZombiePool": [
							"RTID(dark_armor2@ZombieTypes)",
							"RTID(dark_armor1@ZombieTypes)",
							"RTID(dark@ZombieTypes)",
							"RTID(pharaoh@ZombieTypes)",
							"RTID(prospector@ZombieTypes)",
							"RTID(roman@ZombieTypes)",
							"RTID(roman_armor1@ZombieTypes)",
							"RTID(roman_armor2@ZombieTypes)"
						]
					}
				],
				"WaveManagerProps": "RTID(WaveManagerProps@CurrentLevel)"
			}
		},
		{
			"aliases": [
				"WaveManagerProps"
			],
			"objclass": "WaveManagerProperties",
			"objdata": {
				"FlagWaveInterval": 5,
				"MaxNextWaveHealthPercentage": 0.9,
				"MinNextWaveHealthPercentage": 0.8,
				"WaveCount": 10,
				"Waves": [
					[
						"RTID(Wave1@CurrentLevel)"
					],
					[
						"RTID(Wave2@CurrentLevel)"
					],
					[
						"RTID(Wave3@CurrentLevel)"
					],
					[
						"RTID(Wave4@CurrentLevel)"
					],
					[
						"RTID(Wave5@CurrentLevel)"
					],
					[
						"RTID(Wave6@CurrentLevel)"
					],
					[
						"RTID(Wave7@CurrentLevel)"
					],
					[
						"RTID(Wave8@CurrentLevel)"
					],
					[
						"RTID(Wave9@CurrentLevel)"
					],
					[
						"RTID(Wave10@CurrentLevel)"
					]
				],
				"WavesAlwaysRandomized": true
			}
		},
		{
			"aliases": [
				"Wave1"
			],
			"objclass": "SpawnZombiesJitteredWaveActionProps",
			"objdata": {
				"AdditionalPlantfood": 1,
				"Zombies": [
					{
						"Type": "RTID(dark@ZombieTypes)"
					}
				]
			}
		},
		{
			"aliases": [
				"Wave2"
			],
			"objclass": "SpawnZombiesJitteredWaveActionProps",
			"objdata": {
				"Zombies": [
					{
						"Type": "RTID(cannon@ZombieTypes)"
					},
					{
						"Type": "RTID(dark_armor1@ZombieTypes)"
					}
				]
			}
		},
		{
			"aliases": [
				"Wave3"
			],
			"objclass": "SpawnZombiesJitteredWaveActionProps",
			"objdata": {
				"AdditionalPlantfood": 1,
				"Zombies": [
					{
						"Type": "RTID(cannon@ZombieTypes)"
					},
					{
						"Type": "RTID(dark_armor2@ZombieTypes)"
					}
				]
			}
		},
		{
			"aliases": [
				"Wave4"
			],
			"objclass": "SpawnZombiesJitteredWaveActionProps",
			"objdata": {
				"AdditionalPlantfood": 1,
				"Zombies": [
					{
						"Type": "RTID(dark@ZombieTypes)"
					}
				]
			}
		},
		{
			"aliases": [
				"Wave5"
			],
			"objclass": "SpawnZombiesJitteredWaveActionProps",
			"objdata": {
				"AdditionalPlantfood": 1,
				"Zombies": [
					{
						"Type": "RTID(cannon@ZombieTypes)"
					},
					{
						"Type": "RTID(dark_armor1@ZombieTypes)"
					}
				]
			}
		},
		{
			"aliases": [
				"Wave6"
			],
			"objclass": "SpawnZombiesJitteredWaveActionProps",
			"objdata": {
				"AdditionalPlantfood": 1,
				"Zombies": [
					{
						"Type": "RTID(cannon@ZombieTypes)"
					},
					{
						"Type": "RTID(dark_armor2@ZombieTypes)"
					}
				]
			}
		},
		{
			"aliases": [
				"Wave7"
			],
			"objclass": "SpawnZombiesJitteredWaveActionProps",
			"objdata": {
				"AdditionalPlantfood": 1,
				"Zombies": [
					{
						"Type": "RTID(dark@ZombieTypes)"
					}
				]
			}
		},
		{
			"aliases": [
				"Wave8"
			],
			"objclass": "SpawnZombiesJitteredWaveActionProps",
			"objdata": {
				"Zombies": [
					{
						"Type": "RTID(cannon@ZombieTypes)"
					},
					{
						"Type": "RTID(dark_armor1@ZombieTypes)"
					}
				]
			}
		},
		{
			"aliases": [
				"Wave9"
			],
			"objclass": "SpawnZombiesJitteredWaveActionProps",
			"objdata": {
				"AdditionalPlantfood": 1,
				"Zombies": [
					{
						"Type": "RTID(cannon@ZombieTypes)"
					},
					{
						"Type": "RTID(dark_armor2@ZombieTypes)"
					}
				]
			}
		},
		{
			"aliases": [
				"Wave10"
			],
			"objclass": "SpawnZombiesJitteredWaveActionProps",
			"objdata": {
				"Zombies": [
					{
						"Type": "RTID(dark@ZombieTypes)"
					},
					{
						"Row": "4",
						"Type": "RTID(cannon@ZombieTypes)"
					},
					{
						"Row": "2",
						"Type": "RTID(cannon@ZombieTypes)"
					}
				]
			}
		}
	],
	"version": 1
}