{
	"#comment": "Scoring Playtest - Right Gradient - No Quickstart",
	"objects": [
		{
			"objclass": "LevelDefinition",
			"objdata": {
				"Description": "",
				"DisablePlantBoosts": true,
				"GridItemLevel": 1,
				"LevelNumber": 1,
				"LevelPowerupSet": "LevelPowerupsDisabled",
				"Loot": "RTID(NoLoot@LevelModules)",
				"LossModule": "RTID(JoustOutro@LevelModules)",
				"Modules": [
					"RTID(DefaultSunDropper@LevelModules)",
					"RTID(ZombiesDeadWinCon@LevelModules)",
					"RTID(JoustDarkMowers@LevelModules)",
					"RTID(SeedBank@CurrentLevel)",
					"RTID(JoustZombieWinCondition@LevelModules)",
					"RTID(NewWaves@CurrentLevel)",
					"RTID(LevelScoring@CurrentLevel)",
					"RTID(ScoreTiles@CurrentLevel)",
					"RTID(ChallengeModule@CurrentLevel)",
					"RTID(LastStand@CurrentLevel)",
					"RTID(LevelDifficultyScaling@CurrentLevel)",
					"RTID(JoustModule@CurrentLevel)",
					"RTID(JoustPointOfLoss@LevelModules)",
					"RTID(ZombieResistances@CurrentLevel)"
				],
				"Name": "",
				"NormalPresentTable": "dark_normal_01",
				"ShinyPresentTable": "dark_shiny_01",
				"StageModule": "RTID(JoustStage@LevelModules)",
				"SuppressAccountUpgrades": true,
				"SuppressDynamicTutorial": true,
				"SuppressPlantfoodPurchase": true,
				"VictoryModule": "RTID(JoustOutro@LevelModules)"
			}
		},
		{
			"aliases": [
				"SeedBank"
			],
			"objclass": "SeedBankProperties",
			"objdata": {
				"ExcludeListSunProducers": "true",
				"PlantExcludeList": [],
				"PresetPlantList": [
					{
						"Level": -1,
						"PlantType": "puffball"
					}
				],
				"SelectionMethod": "chooser"
			}
		},
		{
			"aliases": [
				"ZombieResistances"
			],
			"objclass": "ZombieResistancesModuleProperties",
			"objdata": {
				"FamilyResistances": {
					"global": [
						{
							"#comment": "200% damage and condition",
							"ConditionResistance": 2,
							"DamageResistance": 2,
							"FamilyType": "ailmint"
						},
						{
							"#comment": "50% damage, 50% condition",
							"ConditionResistance": 0.5,
							"DamageResistance": 0.5,
							"FamilyType": "concealmint"
						},
						{
							"#comment": "0% damage, 0% condition",
							"ConditionResistance": 0,
							"DamageResistance": 0,
							"FamilyType": "enchantmint"
						}
					]
				}
			}
		},
		{
			"aliases": [
				"JoustModule"
			],
			"objclass": "JoustGameModuleProperties",
			"objdata": {
				"LeagueModifiers": [
					{
						"AddTimeLimit": 0,
						"AddZombieLevel": 0,
						"LeagueThreshold": 1
					},
					{
						"AddTimeLimit": 0,
						"AddZombieLevel": 1,
						"LeagueThreshold": 2
					},
					{
						"AddTimeLimit": 0,
						"AddZombieLevel": 2,
						"LeagueThreshold": 3
					},
					{
						"AddTimeLimit": 0,
						"AddZombieLevel": 3,
						"LeagueThreshold": 4
					},
					{
						"AddTimeLimit": 0,
						"AddZombieLevel": 4,
						"LeagueThreshold": 5
					},
					{
						"AddTimeLimit": 0,
						"AddZombieLevel": 5,
						"LeagueThreshold": 6
					},
					{
						"AddTimeLimit": 0,
						"AddZombieLevel": 6,
						"LeagueThreshold": 7
					},
					{
						"AddTimeLimit": 0,
						"AddZombieLevel": 7,
						"LeagueThreshold": 8
					},
					{
						"AddTimeLimit": 0,
						"AddZombieLevel": 8,
						"LeagueThreshold": 9
					}
				],
				"LevelLoadouts": {
					"Loadouts": [
						[
							{
								"IsImitater": false,
								"PlantLevel": 0,
								"PlantType": "aloe"
							},
							{
								"IsImitater": false,
								"PlantLevel": 0,
								"PlantType": "torchwood"
							},
							{
								"IsImitater": false,
								"PlantLevel": 0,
								"PlantType": "appeasemint"
							},
							{
								"IsImitater": false,
								"PlantLevel": 0,
								"PlantType": "primalpeashooter"
							},
							{
								"IsImitater": false,
								"PlantLevel": 0,
								"PlantType": "repeater"
							},
							{
								"IsImitater": false,
								"PlantLevel": 0,
								"PlantType": "spearmint"
							}
						],
						[
							{
								"IsImitater": false,
								"PlantLevel": 0,
								"PlantType": "aloe"
							},
							{
								"IsImitater": false,
								"PlantLevel": 0,
								"PlantType": "bowlingbulb"
							},
							{
								"IsImitater": false,
								"PlantLevel": 0,
								"PlantType": "appeasemint"
							},
							{
								"IsImitater": false,
								"PlantLevel": 0,
								"PlantType": "primalpeashooter"
							},
							{
								"IsImitater": false,
								"PlantLevel": 0,
								"PlantType": "bombardmint"
							},
							{
								"IsImitater": false,
								"PlantLevel": 0,
								"PlantType": "powerlily"
							}
						],
						[
							{
								"IsImitater": false,
								"PlantLevel": 0,
								"PlantType": "aloe"
							},
							{
								"IsImitater": false,
								"PlantLevel": 0,
								"PlantType": "appeasemint"
							},
							{
								"IsImitater": false,
								"PlantLevel": 0,
								"PlantType": "powerplant"
							},
							{
								"IsImitater": false,
								"PlantLevel": 0,
								"PlantType": "primalpotatomine"
							},
							{
								"IsImitater": false,
								"PlantLevel": 0,
								"PlantType": "powerlily"
							},
							{
								"IsImitater": false,
								"PlantLevel": 0,
								"PlantType": "electricpeashooter"
							}
						]
					]
				},
				"PeriodOfWavesToLoop": 6,
				"SuggestedLoadout": "",
				"TimeLimit": 120,
				"WaveSetsToAppend": 24
			}
		},
		{
			"aliases": [
				"LevelDifficultyScaling"
			],
			"objclass": "LevelDifficultyScalingModuleProperties",
			"objdata": {
				"DifficultyRulesType": "DifficultyTestHighDecay",
				"ZombieLevelSwaps": [
					{
						"Level": 4,
						"Swaps": [
							{
								"From": "RTID(dark@ZombieTypes)",
								"To": [
									"RTID(modern_newspaper@ZombieTypes)",
									"RTID(dark@ZombieTypes)"
								]
							}
						]
					},
					{
						"Level": 6,
						"Swaps": [
							{
								"From": "RTID(dark@ZombieTypes)",
								"To": [
									"RTID(iceage_armor3@ZombieTypes)",
									"RTID(modern_newspaper@ZombieTypes)"
								]
							}
						]
					},
					{
						"Level": 8,
						"Swaps": [
							{
								"From": "RTID(dark@ZombieTypes)",
								"To": [
									"RTID(dino_gargantuar@ZombieTypes)",
									"RTID(newspaper_veteran@ZombieTypes)",
									"RTID(iceage_armor3@ZombieTypes)"
								]
							}
						]
					}
				]
			}
		},
		{
			"aliases": [
				"ChallengeModule"
			],
			"objclass": "StarChallengeModuleProperties",
			"objdata": {
				"Challenges": [
					[
						"RTID(BeatTheLevel@CurrentLevel)",
						"RTID(ReachTheScore@CurrentLevel)"
					]
				],
				"ChallengesAlwaysAvailable": true
			}
		},
		{
			"aliases": [
				"ReachTheScore"
			],
			"objclass": "StarChallengeTargetScoreProps",
			"objdata": {
				"Description": "[STARCHALLENGE_TARGET_SCORE]",
				"DescriptionFailure": "[STARCHALLENGE_TARGET_SCORE_FAILURE]",
				"DescriptiveName": "[STARCHALLENGE_TARGET_SCORE_NAME]",
				"TargetScore": 1000
			}
		},
		{
			"aliases": [
				"BeatTheLevel"
			],
			"objclass": "StarChallengeBeatTheLevelProps",
			"objdata": {
				"Description": "[STARCHALLENGE_LASTSTAND_MINIGAME]",
				"DescriptiveName": "[STARCHALLENGE_LASTSTAND_MINIGAME_NAME]"
			}
		},
		{
			"aliases": [
				"LastStand"
			],
			"objclass": "LastStandMinigameProperties",
			"objdata": {
				"StartingPlantfood": 3,
				"StartingSun": 875
			}
		},
		{
			"aliases": [
				"LevelScoring"
			],
			"objclass": "LevelScoringModuleProperties",
			"objdata": {
				"PlantBonusMultiplier": 0.1,
				"PlantBonuses": [],
				"ScoringRulesType": "Battlez",
				"StartingPlantfood": 3
			}
		},
		{
			"aliases": [
				"ScoreTiles"
			],
			"objclass": "InitialGridItemProperties",
			"objdata": {
				"InitialGridItemPlacements": [
					{
						"GridX": 8,
						"GridY": 0,
						"TypeName": "score_5x_tile"
					},
					{
						"GridX": 8,
						"GridY": 1,
						"TypeName": "score_5x_tile"
					},
					{
						"GridX": 8,
						"GridY": 2,
						"TypeName": "score_5x_tile"
					},
					{
						"GridX": 8,
						"GridY": 3,
						"TypeName": "score_5x_tile"
					},
					{
						"GridX": 8,
						"GridY": 4,
						"TypeName": "score_5x_tile"
					},
					{
						"GridX": 7,
						"GridY": 0,
						"TypeName": "score_5x_tile"
					},
					{
						"GridX": 7,
						"GridY": 1,
						"TypeName": "score_5x_tile"
					},
					{
						"GridX": 7,
						"GridY": 2,
						"TypeName": "score_5x_tile"
					},
					{
						"GridX": 7,
						"GridY": 3,
						"TypeName": "score_5x_tile"
					},
					{
						"GridX": 7,
						"GridY": 4,
						"TypeName": "score_5x_tile"
					},
					{
						"GridX": 6,
						"GridY": 0,
						"TypeName": "score_3x_tile"
					},
					{
						"GridX": 6,
						"GridY": 1,
						"TypeName": "score_3x_tile"
					},
					{
						"GridX": 6,
						"GridY": 2,
						"TypeName": "score_3x_tile"
					},
					{
						"GridX": 6,
						"GridY": 3,
						"TypeName": "score_3x_tile"
					},
					{
						"GridX": 6,
						"GridY": 4,
						"TypeName": "score_3x_tile"
					},
					{
						"GridX": 5,
						"GridY": 0,
						"TypeName": "score_3x_tile"
					},
					{
						"GridX": 5,
						"GridY": 1,
						"TypeName": "score_3x_tile"
					},
					{
						"GridX": 5,
						"GridY": 2,
						"TypeName": "score_3x_tile"
					},
					{
						"GridX": 5,
						"GridY": 3,
						"TypeName": "score_3x_tile"
					},
					{
						"GridX": 5,
						"GridY": 4,
						"TypeName": "score_3x_tile"
					},
					{
						"GridX": 4,
						"GridY": 0,
						"TypeName": "score_2x_tile"
					},
					{
						"GridX": 4,
						"GridY": 1,
						"TypeName": "score_2x_tile"
					},
					{
						"GridX": 4,
						"GridY": 2,
						"TypeName": "score_2x_tile"
					},
					{
						"GridX": 4,
						"GridY": 3,
						"TypeName": "score_2x_tile"
					},
					{
						"GridX": 4,
						"GridY": 4,
						"TypeName": "score_2x_tile"
					},
					{
						"GridX": 3,
						"GridY": 0,
						"TypeName": "score_2x_tile"
					},
					{
						"GridX": 3,
						"GridY": 1,
						"TypeName": "score_2x_tile"
					},
					{
						"GridX": 3,
						"GridY": 2,
						"TypeName": "score_2x_tile"
					},
					{
						"GridX": 3,
						"GridY": 3,
						"TypeName": "score_2x_tile"
					},
					{
						"GridX": 3,
						"GridY": 4,
						"TypeName": "score_2x_tile"
					}
				]
			}
		},
		{
			"aliases": [
				"NewWaves"
			],
			"objclass": "WaveManagerModuleProperties",
			"objdata": {
				"DynamicZombies": [
					{
						"PointIncrementPerWave": -1,
						"StartingPoints": -1,
						"StartingWave": 1,
						"ZombiePool": [
							"RTID(mech_cone@ZombieTypes)",
							"RTID(mummy@ZombieTypes)",
							"RTID(mummy_armor1@ZombieTypes)",
							"RTID(mummy_armor2@ZombieTypes)",
							"RTID(pharaoh@ZombieTypes)",
							"RTID(ra@ZombieTypes)"
						]
					},
					{
						"PointIncrementPerWave": -1,
						"StartingPoints": -1,
						"StartingWave": 1,
						"ZombiePool": [
							"RTID(mech_cone@ZombieTypes)",
							"RTID(mummy@ZombieTypes)",
							"RTID(mummy_armor1@ZombieTypes)",
							"RTID(mummy_armor2@ZombieTypes)",
							"RTID(pharaoh@ZombieTypes)",
							"RTID(ra@ZombieTypes)"
						]
					},
					{
						"PointIncrementPerWave": -1,
						"StartingPoints": -1,
						"StartingWave": 1,
						"ZombiePool": [
							"RTID(mech_cone@ZombieTypes)",
							"RTID(mummy@ZombieTypes)",
							"RTID(mummy_armor1@ZombieTypes)",
							"RTID(mummy_armor2@ZombieTypes)",
							"RTID(pharaoh@ZombieTypes)",
							"RTID(ra@ZombieTypes)"
						]
					},
					{
						"PointIncrementPerWave": 225,
						"StartingPoints": 500,
						"StartingWave": 1,
						"ZombiePool": [
							"RTID(mech_cone@ZombieTypes)",
							"RTID(mummy@ZombieTypes)",
							"RTID(mummy_armor1@ZombieTypes)",
							"RTID(mummy_armor2@ZombieTypes)",
							"RTID(pharaoh@ZombieTypes)",
							"RTID(ra@ZombieTypes)"
						]
					},
					{
						"PointIncrementPerWave": 1,
						"StartingPoints": 1,
						"StartingWave": 1,
						"ZombiePool": [
							"RTID(mech_cone@ZombieTypes)",
							"RTID(mummy@ZombieTypes)",
							"RTID(mummy_armor1@ZombieTypes)",
							"RTID(mummy_armor2@ZombieTypes)",
							"RTID(pharaoh@ZombieTypes)",
							"RTID(ra@ZombieTypes)"
						]
					},
					{
						"PointIncrementPerWave": 1,
						"StartingPoints": 1,
						"StartingWave": 1,
						"ZombiePool": [
							"RTID(mech_cone@ZombieTypes)",
							"RTID(mummy_armor1@ZombieTypes)",
							"RTID(mummy_armor2@ZombieTypes)",
							"RTID(pharaoh@ZombieTypes)",
							"RTID(ra@ZombieTypes)"
						]
					},
					{
						"PointIncrementPerWave": 1,
						"StartingPoints": 1,
						"StartingWave": 1,
						"ZombiePool": [
							"RTID(mech_cone@ZombieTypes)",
							"RTID(mummy_armor2@ZombieTypes)",
							"RTID(pharaoh@ZombieTypes)",
							"RTID(ra@ZombieTypes)"
						]
					}
				],
				"WaveManagerProps": "RTID(WaveManagerProps@CurrentLevel)"
			}
		},
		{
			"aliases": [
				"WaveManagerProps"
			],
			"objclass": "WaveManagerProperties",
			"objdata": {
				"FlagWaveInterval": 12,
				"WaveCount": 12,
				"WaveSpendingPointIncrement": 150,
				"WaveSpendingPoints": 0,
				"Waves": [
					[
						"RTID(Wave1@CurrentLevel)"
					],
					[
						"RTID(Wave2@CurrentLevel)"
					],
					[
						"RTID(Wave3@CurrentLevel)"
					],
					[
						"RTID(Wave4@CurrentLevel)"
					],
					[
						"RTID(Wave5@CurrentLevel)",
						"RTID(Wave5ParachuteRainEvent0@CurrentLevel)"
					],
					[
						"RTID(Wave6@CurrentLevel)",
						"RTID(Wave6PortalsEvent0@CurrentLevel)"
					],
					[
						"RTID(Wave7@CurrentLevel)",
						"RTID(Wave7ParachuteRainEvent0@CurrentLevel)"
					],
					[
						"RTID(Wave8@CurrentLevel)",
						"RTID(Wave8PortalsEvent0@CurrentLevel)"
					],
					[
						"RTID(Wave9@CurrentLevel)",
						"RTID(Wave9ParachuteRainEvent0@CurrentLevel)"
					],
					[
						"RTID(Wave10@CurrentLevel)"
					],
					[
						"RTID(Wave11@CurrentLevel)",
						"RTID(Wave11PortalsEvent0@CurrentLevel)"
					],
					[
						"RTID(Wave12@CurrentLevel)"
					]
				],
				"WavesAlwaysRandomized": true
			}
		},
		{
			"aliases": [
				"Wave1"
			],
			"objclass": "SpawnZombiesJitteredWaveActionProps",
			"objdata": {
				"ForcedCondition": {
					"Condition": "suncarrier100",
					"Duration": 30
				},
				"Zombies": [
					{
						"Row": "5",
						"Type": "RTID(dark@ZombieTypes)"
					},
					{
						"Row": "4",
						"Type": "RTID(dark@ZombieTypes)"
					},
					{
						"Row": "3",
						"Type": "RTID(dark@ZombieTypes)"
					},
					{
						"Row": "2",
						"Type": "RTID(dark@ZombieTypes)"
					},
					{
						"Row": "1",
						"Type": "RTID(dark@ZombieTypes)"
					}
				]
			}
		},
		{
			"aliases": [
				"Wave2"
			],
			"objclass": "SpawnZombiesJitteredWaveActionProps",
			"objdata": {
				"ForcedCondition": {
					"Condition": "suncarrier100",
					"Duration": 30
				},
				"Zombies": [
					{
						"Type": "RTID(dark@ZombieTypes)"
					},
					{
						"Type": "RTID(dark@ZombieTypes)"
					},
					{
						"Type": "RTID(dark@ZombieTypes)"
					},
					{
						"Type": "RTID(dark@ZombieTypes)"
					},
					{
						"Type": "RTID(dark@ZombieTypes)"
					}
				]
			}
		},
		{
			"aliases": [
				"Wave3"
			],
			"objclass": "SpawnZombiesJitteredWaveActionProps",
			"objdata": {
				"ForcedCondition": {
					"Condition": "suncarrier100",
					"Duration": 25
				},
				"Zombies": [
					{
						"Type": "RTID(eighties_punk@ZombieTypes)"
					},
					{
						"Type": "RTID(dark@ZombieTypes)"
					},
					{
						"Type": "RTID(dark@ZombieTypes)"
					},
					{
						"Type": "RTID(dark@ZombieTypes)"
					},
					{
						"Type": "RTID(eighties_punk@ZombieTypes)"
					}
				]
			}
		},
		{
			"aliases": [
				"Wave4"
			],
			"objclass": "SpawnZombiesJitteredWaveActionProps",
			"objdata": {
				"ForcedCondition": {
					"Condition": "suncarrier100",
					"Duration": 25
				},
				"Zombies": [
					{
						"Row": "5",
						"Type": "RTID(dark@ZombieTypes)"
					},
					{
						"Row": "3",
						"Type": "RTID(dark@ZombieTypes)"
					},
					{
						"Row": "1",
						"Type": "RTID(dark@ZombieTypes)"
					},
					{
						"Type": "RTID(dark@ZombieTypes)"
					},
					{
						"Type": "RTID(dark@ZombieTypes)"
					}
				]
			}
		},
		{
			"aliases": [
				"Wave5"
			],
			"objclass": "SpawnZombiesJitteredWaveActionProps",
			"objdata": {
				"ForcedCondition": {
					"Condition": "suncarrier100",
					"Duration": 25
				},
				"Zombies": [
					{
						"Row": "4",
						"Type": "RTID(dark@ZombieTypes)"
					},
					{
						"Row": "2",
						"Type": "RTID(dark@ZombieTypes)"
					},
					{
						"Row": "3",
						"Type": "RTID(dark@ZombieTypes)"
					},
					{
						"Type": "RTID(dark@ZombieTypes)"
					},
					{
						"Type": "RTID(dark@ZombieTypes)"
					}
				]
			}
		},
		{
			"aliases": [
				"Wave6"
			],
			"objclass": "SpawnZombiesJitteredWaveActionProps",
			"objdata": {
				"ForcedCondition": {
					"Condition": "suncarrier100",
					"Duration": 25
				},
				"Zombies": [
					{
						"Type": "RTID(dark@ZombieTypes)"
					},
					{
						"Type": "RTID(dark@ZombieTypes)"
					},
					{
						"Type": "RTID(dark@ZombieTypes)"
					},
					{
						"Type": "RTID(dark@ZombieTypes)"
					},
					{
						"Type": "RTID(dark@ZombieTypes)"
					}
				]
			}
		},
		{
			"aliases": [
				"Wave7"
			],
			"objclass": "SpawnZombiesJitteredWaveActionProps",
			"objdata": {
				"ForcedCondition": {
					"Condition": "suncarrier100",
					"Duration": 25
				},
				"Zombies": [
					{
						"Row": "1",
						"Type": "RTID(dark@ZombieTypes)"
					},
					{
						"Row": "2",
						"Type": "RTID(dark@ZombieTypes)"
					},
					{
						"Row": "3",
						"Type": "RTID(dark@ZombieTypes)"
					},
					{
						"Row": "4",
						"Type": "RTID(dark@ZombieTypes)"
					},
					{
						"Row": "5",
						"Type": "RTID(dark@ZombieTypes)"
					},
					{
						"Type": "RTID(dark@ZombieTypes)"
					}
				]
			}
		},
		{
			"aliases": [
				"Wave8"
			],
			"objclass": "SpawnZombiesJitteredWaveActionProps",
			"objdata": {
				"ForcedCondition": {
					"Condition": "suncarrier100",
					"Duration": 25
				},
				"Zombies": [
					{
						"Type": "RTID(eighties_punk@ZombieTypes)"
					},
					{
						"Type": "RTID(dark@ZombieTypes)"
					},
					{
						"Type": "RTID(dark@ZombieTypes)"
					},
					{
						"Type": "RTID(dark@ZombieTypes)"
					},
					{
						"Type": "RTID(dark@ZombieTypes)"
					},
					{
						"Type": "RTID(eighties_punk@ZombieTypes)"
					}
				]
			}
		},
		{
			"aliases": [
				"Wave9"
			],
			"objclass": "SpawnZombiesJitteredWaveActionProps",
			"objdata": {
				"ForcedCondition": {
					"Condition": "suncarrier100",
					"Duration": 25
				},
				"Zombies": [
					{
						"Row": "3",
						"Type": "RTID(dark@ZombieTypes)"
					},
					{
						"Row": "3",
						"Type": "RTID(dark@ZombieTypes)"
					},
					{
						"Row": "2",
						"Type": "RTID(dark@ZombieTypes)"
					},
					{
						"Row": "4",
						"Type": "RTID(dark@ZombieTypes)"
					},
					{
						"Type": "RTID(dark@ZombieTypes)"
					},
					{
						"Type": "RTID(dark@ZombieTypes)"
					}
				]
			}
		},
		{
			"aliases": [
				"Wave10"
			],
			"objclass": "SpawnZombiesJitteredWaveActionProps",
			"objdata": {
				"ForcedCondition": {
					"Condition": "suncarrier100",
					"Duration": 25
				},
				"Zombies": [
					{
						"Row": "5",
						"Type": "RTID(prospector@ZombieTypes)"
					},
					{
						"Row": "5",
						"Type": "RTID(prospector@ZombieTypes)"
					},
					{
						"Row": "1",
						"Type": "RTID(prospector@ZombieTypes)"
					},
					{
						"Row": "1",
						"Type": "RTID(prospector@ZombieTypes)"
					},
					{
						"Row": "3",
						"Type": "RTID(prospector@ZombieTypes)"
					},
					{
						"Type": "RTID(prospector@ZombieTypes)"
					}
				]
			}
		},
		{
			"aliases": [
				"Wave11"
			],
			"objclass": "SpawnZombiesJitteredWaveActionProps",
			"objdata": {
				"ForcedCondition": {
					"Condition": "suncarrier100",
					"Duration": 25
				},
				"Zombies": [
					{
						"Type": "RTID(dark@ZombieTypes)"
					},
					{
						"Type": "RTID(dark@ZombieTypes)"
					},
					{
						"Row": "5",
						"Type": "RTID(dark@ZombieTypes)"
					},
					{
						"Row": "1",
						"Type": "RTID(dark@ZombieTypes)"
					},
					{
						"Type": "RTID(dark@ZombieTypes)"
					},
					{
						"Type": "RTID(dark@ZombieTypes)"
					}
				]
			}
		},
		{
			"aliases": [
				"Wave12"
			],
			"objclass": "SpawnZombiesJitteredWaveActionProps",
			"objdata": {
				"ForcedCondition": {
					"Condition": "suncarrier100",
					"Duration": 25
				},
				"Zombies": [
					{
						"Row": "1",
						"Type": "RTID(dark@ZombieTypes)"
					},
					{
						"Row": "2",
						"Type": "RTID(dark@ZombieTypes)"
					},
					{
						"Row": "3",
						"Type": "RTID(dark@ZombieTypes)"
					},
					{
						"Row": "4",
						"Type": "RTID(dark@ZombieTypes)"
					},
					{
						"Row": "5",
						"Type": "RTID(dark@ZombieTypes)"
					},
					{
						"Type": "RTID(dark@ZombieTypes)"
					}
				]
			}
		},
		{
			"aliases": [
				"Wave6PortalsEvent0"
			],
			"objclass": "SpawnModernPortalsWaveActionProps",
			"objdata": {
				"PortalColumn": 6,
				"PortalRow": 1,
				"PortalType": "eighties",
				"SpawnEffectAnimID": "",
				"SpawnSoundID": ""
			}
		},
		{
			"aliases": [
				"Wave11PortalsEvent0"
			],
			"objclass": "SpawnModernPortalsWaveActionProps",
			"objdata": {
				"PortalColumn": 5,
				"PortalRow": 0,
				"PortalType": "future",
				"SpawnEffectAnimID": "",
				"SpawnSoundID": ""
			}
		},
		{
			"aliases": [
				"Wave8PortalsEvent0"
			],
			"objclass": "SpawnModernPortalsWaveActionProps",
			"objdata": {
				"PortalColumn": 7,
				"PortalRow": 4,
				"PortalType": "dino",
				"SpawnEffectAnimID": "",
				"SpawnSoundID": ""
			}
		},
		{
			"aliases": [
				"Wave5ParachuteRainEvent0"
			],
			"objclass": "ParachuteRainZombieSpawnerProps",
			"objdata": {
				"ColumnEnd": 5,
				"ColumnStart": "4",
				"GroupSize": "2",
				"SpiderCount": "4",
				"SpiderZombieName": "lostcity_lostpilot",
				"TimeBeforeFullSpawn": "1",
				"TimeBetweenGroups": "0.2",
				"WaveStartMessage": "[WARNING_PARACHUTERAIN]",
				"ZombieFallTime": "1.5"
			}
		},
		{
			"aliases": [
				"Wave7ParachuteRainEvent0"
			],
			"objclass": "ParachuteRainZombieSpawnerProps",
			"objdata": {
				"ColumnEnd": 5,
				"ColumnStart": "4",
				"GroupSize": "2",
				"SpiderCount": "4",
				"SpiderZombieName": "lostcity_lostpilot",
				"TimeBeforeFullSpawn": "1",
				"TimeBetweenGroups": "0.2",
				"WaveStartMessage": "[WARNING_PARACHUTERAIN]",
				"ZombieFallTime": "1.5"
			}
		},
		{
			"aliases": [
				"Wave9ParachuteRainEvent0"
			],
			"objclass": "ParachuteRainZombieSpawnerProps",
			"objdata": {
				"ColumnEnd": 5,
				"ColumnStart": "4",
				"GroupSize": "2",
				"SpiderCount": "4",
				"SpiderZombieName": "lostcity_lostpilot",
				"TimeBeforeFullSpawn": "1",
				"TimeBetweenGroups": "0.2",
				"WaveStartMessage": "[WARNING_PARACHUTERAIN]",
				"ZombieFallTime": "1.5"
			}
		}
	],
	"version": 1
}