{
	"#comment": "Scoring Playtest - Right Gradient - No Quickstart",
	"objects": [
		{
			"objclass": "LevelDefinition",
			"objdata": {
				"Description": "",
				"DisablePlantBoosts": true,
				"GridItemLevel": 1,
				"LevelJam": "jam_rap",
				"LevelNumber": 1,
				"LevelPowerupSet": "LevelPowerupsDisabled",
				"Loot": "RTID(NoLoot@LevelModules)",
				"LossModule": "RTID(JoustOutro@LevelModules)",
				"Modules": [
					"RTID(ZombiesDeadWinCon@LevelModules)",
					"RTID(JoustDarkMowers@LevelModules)",
					"RTID(SeedBank@CurrentLevel)",
					"RTID(JoustZombieWinCondition@LevelModules)",
					"RTID(NewWaves@CurrentLevel)",
					"RTID(LevelScoring@CurrentLevel)",
					"RTID(ScoreTiles@CurrentLevel)",
					"RTID(ChallengeModule@CurrentLevel)",
					"RTID(LastStand@CurrentLevel)",
					"RTID(LevelDifficultyScaling@CurrentLevel)",
					"RTID(JoustModule@CurrentLevel)",
					"RTID(ZombieResistances@CurrentLevel)",
					"RTID(Rails@CurrentLevel)",
					"RTID(JoustPointOfLoss@LevelModules)"
				],
				"Name": "",
				"NormalPresentTable": "dark_normal_01",
				"ShinyPresentTable": "dark_shiny_01",
				"StageModule": "RTID(JoustStage@LevelModules)",
				"SuppressAccountUpgrades": true,
				"SuppressDynamicTutorial": true,
				"SuppressPlantfoodPurchase": true,
				"VictoryModule": "RTID(JoustOutro@LevelModules)"
			}
		},
		{
			"aliases": [
				"SeedBank"
			],
			"objclass": "SeedBankProperties",
			"objdata": {
				"PlantExcludeList": [],
				"PresetPlantList": [
					{
						"Level": -1,
						"PlantType": "enlightenmint"
					}
				],
				"SelectionMethod": "chooser"
			}
		},
		{
			"aliases": [
				"Rails"
			],
			"objclass": "RailcartProperties",
			"objdata": {
				"RailcartType": "railcart_cowboy",
				"Railcarts": [
					{
						"Column": 5,
						"Row": 0
					},
					{
						"Column": 5,
						"Row": 4
					}
				],
				"Rails": [
					{
						"Column": 5,
						"RowEnd": 1,
						"RowStart": 0
					},
					{
						"Column": 5,
						"RowEnd": 4,
						"RowStart": 3
					}
				]
			}
		},
		{
			"aliases": [
				"DoNotPlantBeforeLine"
			],
			"objclass": "MoldColonyChallengeProps",
			"objdata": {
				"Locations": "RTID(Mold19@BoardGridMaps)"
			}
		},
		{
			"aliases": [
				"JoustModule"
			],
			"objclass": "JoustGameModuleProperties",
			"objdata": {
				"LeagueModifiers": [
					{
						"AddTimeLimit": 0,
						"AddZombieLevel": 0,
						"LeagueThreshold": 1
					},
					{
						"AddTimeLimit": 0,
						"AddZombieLevel": 1,
						"LeagueThreshold": 2
					},
					{
						"AddTimeLimit": 0,
						"AddZombieLevel": 2,
						"LeagueThreshold": 3
					},
					{
						"AddTimeLimit": 0,
						"AddZombieLevel": 3,
						"LeagueThreshold": 4
					},
					{
						"AddTimeLimit": 0,
						"AddZombieLevel": 4,
						"LeagueThreshold": 5
					},
					{
						"AddTimeLimit": 0,
						"AddZombieLevel": 5,
						"LeagueThreshold": 6
					},
					{
						"AddTimeLimit": 0,
						"AddZombieLevel": 6,
						"LeagueThreshold": 7
					},
					{
						"AddTimeLimit": 0,
						"AddZombieLevel": 7,
						"LeagueThreshold": 8
					},
					{
						"AddTimeLimit": 0,
						"AddZombieLevel": 8,
						"LeagueThreshold": 9
					}
				],
				"LevelLoadouts": {
					"Loadouts": [
						[
							{
								"IsImitater": false,
								"PlantLevel": 0,
								"PlantType": "enlightenmint"
							},
							{
								"IsImitater": false,
								"PlantLevel": 0,
								"PlantType": "coldsnapdragon"
							},
							{
								"IsImitater": false,
								"PlantLevel": 0,
								"PlantType": "sunshroom"
							},
							{
								"IsImitater": false,
								"PlantLevel": 0,
								"PlantType": "explodeonut"
							},
							{
								"IsImitater": false,
								"PlantLevel": 0,
								"PlantType": "electricpeashooter"
							},
							{
								"IsImitater": false,
								"PlantLevel": 0,
								"PlantType": "solartomato"
							}
						],
						[
							{
								"IsImitater": false,
								"PlantLevel": 0,
								"PlantType": "enlightenmint"
							},
							{
								"IsImitater": false,
								"PlantLevel": 0,
								"PlantType": "sunshroom"
							},
							{
								"IsImitater": false,
								"PlantLevel": 0,
								"PlantType": "primalpeashooter"
							},
							{
								"IsImitater": false,
								"PlantLevel": 0,
								"PlantType": "powerplant"
							},
							{
								"IsImitater": false,
								"PlantLevel": 0,
								"PlantType": "chardguard"
							},
							{
								"IsImitater": false,
								"PlantLevel": 0,
								"PlantType": "wintermelon"
							}
						],
						[
							{
								"IsImitater": false,
								"PlantLevel": 0,
								"PlantType": "enlightenmint"
							},
							{
								"IsImitater": false,
								"PlantLevel": 0,
								"PlantType": "sunshroom"
							},
							{
								"IsImitater": false,
								"PlantLevel": 0,
								"PlantType": "goldbloom"
							},
							{
								"IsImitater": false,
								"PlantLevel": 0,
								"PlantType": "spearmint"
							},
							{
								"IsImitater": false,
								"PlantLevel": 0,
								"PlantType": "primalpeashooter"
							},
							{
								"IsImitater": false,
								"PlantLevel": 0,
								"PlantType": "coldsnapdragon"
							}
						]
					]
				},
				"PeriodOfWavesToLoop": 6,
				"SuggestedLoadout": "",
				"TimeLimit": 150,
				"WaveSetsToAppend": 20
			}
		},
		{
			"aliases": [
				"ZombieResistances"
			],
			"objclass": "ZombieResistancesModuleProperties",
			"objdata": {
				"FamilyResistances": {
					"global": [
						{
							"#comment": "150% damage and condition",
							"ConditionResistance": 1.5,
							"DamageResistance": 1.5,
							"FamilyType": "enlightenmint"
						},
						{
							"#comment": "50% damage and condition",
							"ConditionResistance": 0.5,
							"DamageResistance": 0.5,
							"FamilyType": "concealmint"
						},
						{
							"#comment": "25% damage and condition",
							"ConditionResistance": 0.25,
							"DamageResistance": 0.25,
							"FamilyType": "containmint"
						}
					]
				}
			}
		},
		{
			"aliases": [
				"LevelDifficultyScaling"
			],
			"objclass": "LevelDifficultyScalingModuleProperties",
			"objdata": {
				"DifficultyRulesType": "DifficultyTestHighDecay",
				"ZombieLevelSwaps": [
					{
						"Level": 1,
						"Swaps": [
							{
								"From": "RTID(chicken_battlez@ZombieTypes)",
								"To": [
									"RTID(chicken_battlez@ZombieTypes)",
									"RTID(chicken_battlez@ZombieTypes)",
									"RTID(chicken_battlez@ZombieTypes)",
									"RTID(chicken_battlez@ZombieTypes)",
									"RTID(chicken_battlez@ZombieTypes)",
									"RTID(chicken_battlez@ZombieTypes)",
									"RTID(chicken_battlez@ZombieTypes)",
									"RTID(joustyeti@ZombieTypes)"
								]
							}
						]
					}
				]
			}
		},
		{
			"aliases": [
				"ChallengeModule"
			],
			"objclass": "StarChallengeModuleProperties",
			"objdata": {
				"Challenges": [
					[
						"RTID(BeatTheLevel@CurrentLevel)",
						"RTID(ReachTheScore@CurrentLevel)",
						"RTID(DoNotPlantBeforeLine@CurrentLevel)"
					]
				],
				"ChallengesAlwaysAvailable": true
			}
		},
		{
			"aliases": [
				"ReachTheScore"
			],
			"objclass": "StarChallengeTargetScoreProps",
			"objdata": {
				"Description": "[STARCHALLENGE_TARGET_SCORE]",
				"DescriptionFailure": "[STARCHALLENGE_TARGET_SCORE_FAILURE]",
				"DescriptiveName": "[STARCHALLENGE_TARGET_SCORE_NAME]",
				"TargetScore": 1000
			}
		},
		{
			"aliases": [
				"BeatTheLevel"
			],
			"objclass": "StarChallengeBeatTheLevelProps",
			"objdata": {
				"Description": "[STARCHALLENGE_LASTSTAND_MINIGAME]",
				"DescriptiveName": "[STARCHALLENGE_LASTSTAND_MINIGAME_NAME]"
			}
		},
		{
			"aliases": [
				"LastStand"
			],
			"objclass": "LastStandMinigameProperties",
			"objdata": {
				"StartingPlantfood": 0,
				"StartingSun": 125
			}
		},
		{
			"aliases": [
				"LevelScoring"
			],
			"objclass": "LevelScoringModuleProperties",
			"objdata": {
				"PlantBonusMultiplier": 0.1,
				"PlantBonuses": [],
				"ScoringRulesType": "Battlez",
				"StartingPlantfood": 0
			}
		},
		{
			"aliases": [
				"ScoreTiles"
			],
			"objclass": "InitialGridItemProperties",
			"objdata": {
				"InitialGridItemPlacements": [
					{
						"GridX": 7,
						"GridY": 0,
						"TypeName": "slider_down"
					},
					{
						"GridX": 7,
						"GridY": 4,
						"TypeName": "slider_up"
					},
					{
						"GridX": 8,
						"GridY": 0,
						"TypeName": "score_5x_tile"
					},
					{
						"GridX": 8,
						"GridY": 1,
						"TypeName": "score_5x_tile"
					},
					{
						"GridX": 8,
						"GridY": 2,
						"TypeName": "score_5x_tile"
					},
					{
						"GridX": 8,
						"GridY": 3,
						"TypeName": "score_5x_tile"
					},
					{
						"GridX": 8,
						"GridY": 4,
						"TypeName": "score_5x_tile"
					},
					{
						"GridX": 7,
						"GridY": 0,
						"TypeName": "score_5x_tile"
					},
					{
						"GridX": 7,
						"GridY": 1,
						"TypeName": "score_5x_tile"
					},
					{
						"GridX": 7,
						"GridY": 2,
						"TypeName": "score_5x_tile"
					},
					{
						"GridX": 7,
						"GridY": 3,
						"TypeName": "score_5x_tile"
					},
					{
						"GridX": 7,
						"GridY": 4,
						"TypeName": "score_5x_tile"
					},
					{
						"GridX": 6,
						"GridY": 0,
						"TypeName": "score_3x_tile"
					},
					{
						"GridX": 6,
						"GridY": 1,
						"TypeName": "score_3x_tile"
					},
					{
						"GridX": 6,
						"GridY": 2,
						"TypeName": "score_3x_tile"
					},
					{
						"GridX": 6,
						"GridY": 3,
						"TypeName": "score_3x_tile"
					},
					{
						"GridX": 6,
						"GridY": 4,
						"TypeName": "score_3x_tile"
					},
					{
						"GridX": 5,
						"GridY": 0,
						"TypeName": "score_3x_tile"
					},
					{
						"GridX": 5,
						"GridY": 1,
						"TypeName": "score_3x_tile"
					},
					{
						"GridX": 5,
						"GridY": 2,
						"TypeName": "score_3x_tile"
					},
					{
						"GridX": 5,
						"GridY": 3,
						"TypeName": "score_3x_tile"
					},
					{
						"GridX": 5,
						"GridY": 4,
						"TypeName": "score_3x_tile"
					},
					{
						"GridX": 4,
						"GridY": 0,
						"TypeName": "score_2x_tile"
					},
					{
						"GridX": 4,
						"GridY": 1,
						"TypeName": "score_2x_tile"
					},
					{
						"GridX": 4,
						"GridY": 2,
						"TypeName": "score_2x_tile"
					},
					{
						"GridX": 4,
						"GridY": 3,
						"TypeName": "score_2x_tile"
					},
					{
						"GridX": 4,
						"GridY": 4,
						"TypeName": "score_2x_tile"
					},
					{
						"GridX": 3,
						"GridY": 0,
						"TypeName": "score_2x_tile"
					},
					{
						"GridX": 3,
						"GridY": 1,
						"TypeName": "score_2x_tile"
					},
					{
						"GridX": 3,
						"GridY": 2,
						"TypeName": "score_2x_tile"
					},
					{
						"GridX": 3,
						"GridY": 3,
						"TypeName": "score_2x_tile"
					},
					{
						"GridX": 3,
						"GridY": 4,
						"TypeName": "score_2x_tile"
					}
				]
			}
		},
		{
			"aliases": [
				"NewWaves"
			],
			"objclass": "WaveManagerModuleProperties",
			"objdata": {
				"DynamicZombies": [
					{
						"PointIncrementPerWave": -1,
						"StartingPoints": -1,
						"StartingWave": 1,
						"ZombiePool": [
							"RTID(cowboy_armor4@ZombieTypes)",
							"RTID(dark_armor3@ZombieTypes)",
							"RTID(eighties_breakdancer@ZombieTypes)",
							"RTID(eighties_mc@ZombieTypes)"
						]
					},
					{
						"PointIncrementPerWave": -1,
						"StartingPoints": -1,
						"StartingWave": 1,
						"ZombiePool": [
							"RTID(cowboy_armor4@ZombieTypes)",
							"RTID(dark_armor3@ZombieTypes)",
							"RTID(eighties_breakdancer@ZombieTypes)",
							"RTID(eighties_mc@ZombieTypes)"
						]
					},
					{
						"PointIncrementPerWave": -1,
						"StartingPoints": -1,
						"StartingWave": 1,
						"ZombiePool": [
							"RTID(cowboy_armor4@ZombieTypes)",
							"RTID(dark_armor3@ZombieTypes)",
							"RTID(eighties_breakdancer@ZombieTypes)",
							"RTID(eighties_mc@ZombieTypes)"
						]
					},
					{
						"MaxPoints": 1600,
						"PointIncrementPerWave": 75,
						"StartingPoints": 100,
						"StartingWave": 1,
						"ZombiePool": [
							"RTID(cowboy_armor4@ZombieTypes)",
							"RTID(dark_armor3@ZombieTypes)",
							"RTID(eighties_breakdancer@ZombieTypes)",
							"RTID(eighties_mc@ZombieTypes)"
						]
					},
					{
						"PointIncrementPerWave": 1,
						"StartingPoints": 1,
						"StartingWave": 1,
						"ZombiePool": [
							"RTID(cowboy_armor4@ZombieTypes)",
							"RTID(dark_armor3@ZombieTypes)",
							"RTID(eighties_breakdancer@ZombieTypes)",
							"RTID(eighties_mc@ZombieTypes)"
						]
					},
					{
						"PointIncrementPerWave": 1,
						"StartingPoints": 1,
						"StartingWave": 1,
						"ZombiePool": [
							"RTID(cowboy_armor4@ZombieTypes)",
							"RTID(dark_armor3@ZombieTypes)",
							"RTID(eighties_breakdancer@ZombieTypes)",
							"RTID(eighties_mc@ZombieTypes)"
						]
					},
					{
						"PointIncrementPerWave": 1,
						"StartingPoints": 1,
						"StartingWave": 1,
						"ZombiePool": [
							"RTID(cowboy_armor4@ZombieTypes)",
							"RTID(dark_armor3@ZombieTypes)",
							"RTID(eighties_breakdancer@ZombieTypes)",
							"RTID(eighties_mc@ZombieTypes)"
						]
					}
				],
				"WaveManagerProps": "RTID(WaveManagerProps@CurrentLevel)"
			}
		},
		{
			"aliases": [
				"WaveManagerProps"
			],
			"objclass": "WaveManagerProperties",
			"objdata": {
				"FlagWaveInterval": 50,
				"WaveCount": 50,
				"WaveSpendingPointIncrement": 150,
				"WaveSpendingPoints": 0,
				"Waves": [
					[
						"RTID(Wave1@CurrentLevel)"
					],
					[
						"RTID(Wave2@CurrentLevel)"
					],
					[
						"RTID(Wave3@CurrentLevel)"
					],
					[
						"RTID(Wave4@CurrentLevel)"
					],
					[
						"RTID(Wave5@CurrentLevel)"
					],
					[
						"RTID(Wave6@CurrentLevel)"
					],
					[
						"RTID(Wave7@CurrentLevel)"
					],
					[
						"RTID(Wave8@CurrentLevel)"
					],
					[
						"RTID(Wave9@CurrentLevel)"
					],
					[
						"RTID(Wave10@CurrentLevel)"
					],
					[
						"RTID(Wave11@CurrentLevel)"
					],
					[
						"RTID(Wave12@CurrentLevel)"
					]
				],
				"WavesAlwaysRandomized": true
			}
		},
		{
			"aliases": [
				"Wave1"
			],
			"objclass": "SpawnZombiesJitteredWaveActionProps",
			"objdata": {
				"AdditionalPlantfood": 1,
				"Zombies": [
					{
						"Row": "1",
						"Type": "RTID(future_armor1@ZombieTypes)"
					},
					{
						"Row": "5",
						"Type": "RTID(future_armor1@ZombieTypes)"
					},
					{
						"Row": "3",
						"Type": "RTID(future_armor1@ZombieTypes)"
					}
				]
			}
		},
		{
			"aliases": [
				"Wave2"
			],
			"objclass": "SpawnZombiesJitteredWaveActionProps",
			"objdata": {
				"Zombies": [
					{
						"Row": "4",
						"Type": "RTID(eighties_breakdancer@ZombieTypes)"
					},
					{
						"Row": "2",
						"Type": "RTID(eighties_breakdancer@ZombieTypes)"
					}
				]
			}
		},
		{
			"aliases": [
				"Wave3"
			],
			"objclass": "SpawnZombiesJitteredWaveActionProps",
			"objdata": {
				"AdditionalPlantfood": 1,
				"Zombies": [
					{
						"Row": "4",
						"Type": "RTID(dino_armor2@ZombieTypes)"
					},
					{
						"Row": "2",
						"Type": "RTID(dino_armor2@ZombieTypes)"
					},
					{
						"Type": "RTID(eighties_breakdancer@ZombieTypes)"
					}
				]
			}
		},
		{
			"aliases": [
				"Wave4"
			],
			"objclass": "SpawnZombiesJitteredWaveActionProps",
			"objdata": {
				"Zombies": [
					{
						"Row": "2",
						"Type": "RTID(explorer@ZombieTypes)"
					},
					{
						"Row": "4",
						"Type": "RTID(explorer@ZombieTypes)"
					},
					{
						"Row": "3",
						"Type": "RTID(explorer@ZombieTypes)"
					}
				]
			}
		},
		{
			"aliases": [
				"Wave5"
			],
			"objclass": "SpawnZombiesJitteredWaveActionProps",
			"objdata": {
				"Zombies": [
					{
						"Row": "2",
						"Type": "RTID(eighties_breakdancer@ZombieTypes)"
					},
					{
						"Row": "3",
						"Type": "RTID(eighties_breakdancer@ZombieTypes)"
					},
					{
						"Row": "4",
						"Type": "RTID(eighties_breakdancer@ZombieTypes)"
					}
				]
			}
		},
		{
			"aliases": [
				"Wave6"
			],
			"objclass": "SpawnZombiesJitteredWaveActionProps",
			"objdata": {
				"ForcedCondition": {
					"Condition": "hasplantfood",
					"Duration": 45
				},
				"Zombies": [
					{
						"Type": "RTID(chicken_battlez@ZombieTypes)"
					}
				]
			}
		},
		{
			"aliases": [
				"Wave7"
			],
			"objclass": "SpawnZombiesJitteredWaveActionProps",
			"objdata": {
				"Zombies": [
					{
						"Row": "5",
						"Type": "RTID(explorer@ZombieTypes)"
					},
					{
						"Row": "1",
						"Type": "RTID(explorer@ZombieTypes)"
					}
				]
			}
		},
		{
			"aliases": [
				"Wave8"
			],
			"objclass": "SpawnZombiesJitteredWaveActionProps",
			"objdata": {
				"Zombies": [
					{
						"Row": "1",
						"Type": "RTID(eighties_breakdancer@ZombieTypes)"
					},
					{
						"Row": "2",
						"Type": "RTID(eighties_breakdancer@ZombieTypes)"
					},
					{
						"Row": "5",
						"Type": "RTID(eighties_breakdancer@ZombieTypes)"
					},
					{
						"Row": "4",
						"Type": "RTID(eighties_breakdancer@ZombieTypes)"
					},
					{
						"Row": "3",
						"Type": "RTID(eighties_breakdancer@ZombieTypes)"
					}
				]
			}
		},
		{
			"aliases": [
				"Wave9"
			],
			"objclass": "SpawnZombiesJitteredWaveActionProps",
			"objdata": {
				"Zombies": [
					{
						"Type": "RTID(dark_armor3@ZombieTypes)"
					},
					{
						"Type": "RTID(future_armor1@ZombieTypes)"
					},
					{
						"Type": "RTID(eighties_breakdancer@ZombieTypes)"
					},
					{
						"Type": "RTID(dark_armor3@ZombieTypes)"
					},
					{
						"Type": "RTID(dino_armor2@ZombieTypes)"
					}
				]
			}
		},
		{
			"aliases": [
				"Wave10"
			],
			"objclass": "SpawnZombiesJitteredWaveActionProps",
			"objdata": {
				"Zombies": [
					{
						"Type": "RTID(eighties_breakdancer@ZombieTypes)"
					},
					{
						"Row": "5",
						"Type": "RTID(eighties_breakdancer@ZombieTypes)"
					},
					{
						"Row": "1",
						"Type": "RTID(eighties_breakdancer@ZombieTypes)"
					}
				]
			}
		},
		{
			"aliases": [
				"Wave11"
			],
			"objclass": "SpawnZombiesJitteredWaveActionProps",
			"objdata": {
				"Zombies": [
					{
						"Row": "2",
						"Type": "RTID(eighties_breakdancer@ZombieTypes)"
					},
					{
						"Row": "3",
						"Type": "RTID(eighties_breakdancer@ZombieTypes)"
					},
					{
						"Row": "4",
						"Type": "RTID(eighties_breakdancer@ZombieTypes)"
					},
					{
						"Type": "RTID(eighties_breakdancer@ZombieTypes)"
					}
				]
			}
		},
		{
			"aliases": [
				"Wave12"
			],
			"objclass": "SpawnZombiesJitteredWaveActionProps",
			"objdata": {
				"ForcedCondition": {
					"Condition": "hasplantfood",
					"Duration": 45
				},
				"Zombies": [
					{
						"Type": "RTID(chicken_battlez@ZombieTypes)"
					},
					{
						"Type": "RTID(eighties_breakdancer@ZombieTypes)"
					},
					{
						"Type": "RTID(eighties_breakdancer@ZombieTypes)"
					}
				]
			}
		}
	],
	"version": 1
}