{
	"#comment": "Scoring Playtest - Right Gradient - No Quickstart",
	"objects": [
		{
			"objclass": "LevelDefinition",
			"objdata": {
				"Description": "",
				"DisablePlantBoosts": true,
				"GridItemLevel": 1,
				"LevelNumber": 1,
				"LevelPowerupSet": "LevelPowerupsDisabled",
				"Loot": "RTID(NoLoot@LevelModules)",
				"LossModule": "RTID(JoustOutro@LevelModules)",
				"Modules": [
					"RTID(DefaultSunDropper@LevelModules)",
					"RTID(ZombiesDeadWinCon@LevelModules)",
					"RTID(JoustDarkMowers@LevelModules)",
					"RTID(SeedBank@CurrentLevel)",
					"RTID(JoustZombieWinCondition@LevelModules)",
					"RTID(NewWaves@CurrentLevel)",
					"RTID(LevelScoring@CurrentLevel)",
					"RTID(ScoreTiles@CurrentLevel)",
					"RTID(ChallengeModule@CurrentLevel)",
					"RTID(LastStand@CurrentLevel)",
					"RTID(LevelDifficultyScaling@CurrentLevel)",
					"RTID(JoustModule@CurrentLevel)",
					"RTID(TreadmillGeneralZombie3MinModule@LevelModules)",
					"RTID(JoustPointOfLoss@LevelModules)",
					"RTID(ZombieResistances@CurrentLevel)",
					"RTID(Boosterama@LevelModules)"
				],
				"Name": "",
				"NormalPresentTable": "dark_normal_01",
				"ShinyPresentTable": "dark_shiny_01",
				"StageModule": "RTID(JoustStage@LevelModules)",
				"SuppressAccountUpgrades": true,
				"SuppressDynamicTutorial": true,
				"SuppressPlantfoodPurchase": true,
				"VictoryModule": "RTID(JoustOutro@LevelModules)"
			}
		},
		{
			"aliases": [
				"SeedBank"
			],
			"objclass": "SeedBankProperties",
			"objdata": {
				"PresetPlantList": [
					{
						"Level": -1,
						"PlantType": "electricpeashooter"
					}
				],
				"SelectionMethod": "chooser"
			}
		},
		{
			"aliases": [
				"ZombieResistances"
			],
			"objclass": "ZombieResistancesModuleProperties",
			"objdata": {
				"FamilyResistances": {
					"global": [
						{
							"#comment": "200% damage and condition",
							"FamilyType": "filamint",
							"DamageResistance": 2.0,
							"ConditionResistance": 2.0
						},
						{
							"#comment": "half damage, half condition",
							"FamilyType": "bombardmint",
							"DamageResistance": 0.5,
							"ConditionResistance": 0.5
						}
					]
				}
			}
		},
		{
			"aliases": [
				"JoustModule"
			],
			"objclass": "JoustGameModuleProperties",
			"objdata": {
				"LeagueModifiers": [
					{
						"AddTimeLimit": 0,
						"AddZombieLevel": 0,
						"LeagueThreshold": 1
					},
					{
						"AddTimeLimit": 0,
						"AddZombieLevel": 1,
						"LeagueThreshold": 2
					},
					{
						"AddTimeLimit": 0,
						"AddZombieLevel": 2,
						"LeagueThreshold": 3
					},
					{
						"AddTimeLimit": 0,
						"AddZombieLevel": 3,
						"LeagueThreshold": 4
					},
					{
						"AddTimeLimit": 0,
						"AddZombieLevel": 4,
						"LeagueThreshold": 5
					},
					{
						"AddTimeLimit": 0,
						"AddZombieLevel": 5,
						"LeagueThreshold": 6
					},
					{
						"AddTimeLimit": 0,
						"AddZombieLevel": 6,
						"LeagueThreshold": 7
					},
					{
						"AddTimeLimit": 0,
						"AddZombieLevel": 7,
						"LeagueThreshold": 8
					},
					{
						"AddTimeLimit": 0,
						"AddZombieLevel": 8,
						"LeagueThreshold": 9
					}
				],
				"TimeLimit": 180,
				"PeriodOfWavesToLoop": 6,
				"WaveSetsToAppend": 30,
				"LevelLoadouts": {
					"Loadouts": [
						[
							{
								"IsImitater": false,
								"PlantLevel": 0,
								"PlantType": "electricpeashooter"
							},
							{
								"IsImitater": false,
								"PlantLevel": 0,
								"PlantType": "magnifyinggrass"
							},
							{
								"IsImitater": false,
								"PlantLevel": 0,
								"PlantType": "filamint"
							},
							{
								"IsImitater": false,
								"PlantLevel": 0,
								"PlantType": "twinsunflower"
							},
							{
								"IsImitater": false,
								"PlantLevel": 0,
								"PlantType": "holonut"
							},
							{
								"IsImitater": false,
								"PlantLevel": 0,
								"PlantType": "pokra"
							}
						],
						[
							{
								"IsImitater": false,
								"PlantLevel": 0,
								"PlantType": "electricpeashooter"
							},
							{
								"IsImitater": false,
								"PlantLevel": 0,
								"PlantType": "filamint"
							},
							{
								"IsImitater": false,
								"PlantLevel": 0,
								"PlantType": "powerlily"
							},
							{
								"IsImitater": false,
								"PlantLevel": 0,
								"PlantType": "tallnut"
							},
							{
								"IsImitater": false,
								"PlantLevel": 0,
								"PlantType": "twinsunflower"
							},
							{
								"IsImitater": false,
								"PlantLevel": 0,
								"PlantType": "olivepit"
							}
						],
						[
							{
								"IsImitater": false,
								"PlantLevel": 0,
								"PlantType": "electricpeashooter"
							},
							{
								"IsImitater": false,
								"PlantLevel": 0,
								"PlantType": "sunshroom"
							},
							{
								"IsImitater": false,
								"PlantLevel": 0,
								"PlantType": "chardguard"
							},
							{
								"IsImitater": false,
								"PlantLevel": 0,
								"PlantType": "goldbloom"
							},
							{
								"IsImitater": false,
								"PlantLevel": 0,
								"PlantType": "ultomato"
							},
							{
								"IsImitater": false,
								"PlantLevel": 0,
								"PlantType": "filamint"
							}
						]
					]
				}
			}
		},
		{
			"aliases": [
				"LevelDifficultyScaling"
			],
			"objclass": "LevelDifficultyScalingModuleProperties",
			"objdata": {
				"DifficultyRulesType": "DifficultyTestHighDecay",
				"ZombieLevelSwaps": [
					{
						"Level": 3,
						"Swaps": [
							{
								"From": "RTID(tutorial@ZombieTypes)",
								"To": [
									"RTID(tutorial@ZombieTypes)",
									"RTID(eighties_punk@ZombieTypes)"
								]
							},
							{
								"From": "RTID(tutorial_armor1@ZombieTypes)",
								"To": [
									"RTID(tutorial_armor1@ZombieTypes)",
									"RTID(camel_onehump@ZombieTypes)"
								]
							},
							{
								"From": "RTID(tutorial_armor2@ZombieTypes)",
								"To": [
									"RTID(tutorial_armor2@ZombieTypes)",
									"RTID(pharaoh@ZombieTypes)"
								]
							},
							{
								"From": "RTID(beach_surfer@ZombieTypes)",
								"To": [
									"RTID(beach_surfer@ZombieTypes)",
									"RTID(lostcity_excavator@ZombieTypes)"
								]
							},
							{
								"From": "RTID(lostcity_crystalskull@ZombieTypes)",
								"To": [
									"RTID(beach_octopus@ZombieTypes)",
									"RTID(lostcity_crystalskull@ZombieTypes)",
									"RTID(lostcity_crystalskull@ZombieTypes)"
								]
							}
						]
					},
					{
						"Level": 4,
						"Swaps": [
							{
								"From": "RTID(tutorial@ZombieTypes)",
								"To": [
									"RTID(tutorial@ZombieTypes)",
									"RTID(eighties_punk@ZombieTypes)",
									"RTID(ra@ZombieTypes)"
								]
							},
							{
								"From": "RTID(tutorial_armor1@ZombieTypes)",
								"To": [
									"RTID(tutorial_armor1@ZombieTypes)",
									"RTID(camel_onehump@ZombieTypes)",
									"RTID(poncho@ZombieTypes)"
								]
							},
							{
								"From": "RTID(tutorial_armor2@ZombieTypes)",
								"To": [
									"RTID(tutorial_armor2@ZombieTypes)",
									"RTID(pharaoh@ZombieTypes)",
									"RTID(dino_armor3@ZombieTypes)"
								]
							},
							{
								"From": "RTID(beach_surfer@ZombieTypes)",
								"To": [
									"RTID(beach_surfer@ZombieTypes)",
									"RTID(lostcity_excavator@ZombieTypes)",
									"RTID(tomb_raiser@ZombieTypes)"
								]
							},
							{
								"From": "RTID(lostcity_crystalskull@ZombieTypes)",
								"To": [
									"RTID(beach_octopus@ZombieTypes)",
									"RTID(lostcity_crystalskull@ZombieTypes)",
									"RTID(lostcity_crystalskull@ZombieTypes)"
								]
							}
						]
					},
					{
						"Level": 5,
						"Swaps": [
							{
								"From": "RTID(tutorial@ZombieTypes)",
								"To": [
									"RTID(tutorial@ZombieTypes)",
									"RTID(eighties_punk@ZombieTypes)",
									"RTID(ra@ZombieTypes)",
									"RTID(lostcity_bug@ZombieTypes)"
								]
							},
							{
								"From": "RTID(tutorial_armor1@ZombieTypes)",
								"To": [
									"RTID(tutorial_armor1@ZombieTypes)",
									"RTID(camel_onehump@ZombieTypes)",
									"RTID(poncho@ZombieTypes)",
									"RTID(modern_newspaper@ZombieTypes)"
								]
							},
							{
								"From": "RTID(tutorial_armor2@ZombieTypes)",
								"To": [
									"RTID(tutorial_armor2@ZombieTypes)",
									"RTID(pharaoh@ZombieTypes)",
									"RTID(dino_armor3@ZombieTypes)",
									"RTID(camel_manyhump@ZombieTypes)"
								]
							},
							{
								"From": "RTID(beach_surfer@ZombieTypes)",
								"To": [
									"RTID(beach_surfer@ZombieTypes)",
									"RTID(lostcity_excavator@ZombieTypes)",
									"RTID(tomb_raiser@ZombieTypes)",
									"RTID(future_protector@ZombieTypes)"
								]
							},
							{
								"From": "RTID(lostcity_crystalskull@ZombieTypes)",
								"To": [
									"RTID(beach_octopus@ZombieTypes)",
									"RTID(lostcity_crystalskull@ZombieTypes)",
									"RTID(lostcity_crystalskull@ZombieTypes)",
									"RTID(iceage_gargantuar@ZombieTypes)"
								]
							}
						]
					}
				]
			}
		},
		{
			"aliases": [
				"ChallengeModule"
			],
			"objclass": "StarChallengeModuleProperties",
			"objdata": {
				"Challenges": [
					[
						"RTID(BeatTheLevel@CurrentLevel)",
						"RTID(ReachTheScore@CurrentLevel)"
					]
				],
				"ChallengesAlwaysAvailable": true
			}
		},
		{
			"aliases": [
				"ReachTheScore"
			],
			"objclass": "StarChallengeTargetScoreProps",
			"objdata": {
				"Description": "[STARCHALLENGE_TARGET_SCORE]",
				"DescriptionFailure": "[STARCHALLENGE_TARGET_SCORE_FAILURE]",
				"DescriptiveName": "[STARCHALLENGE_TARGET_SCORE_NAME]",
				"TargetScore": 1000
			}
		},
		{
			"aliases": [
				"BeatTheLevel"
			],
			"objclass": "StarChallengeBeatTheLevelProps",
			"objdata": {
				"Description": "[STARCHALLENGE_LASTSTAND_MINIGAME]",
				"DescriptiveName": "[STARCHALLENGE_LASTSTAND_MINIGAME_NAME]"
			}
		},
		{
			"aliases": [
				"LastStand"
			],
			"objclass": "LastStandMinigameProperties",
			"objdata": {
				"StartingPlantfood": 3,
				"StartingSun": 1200
			}
		},
		{
			"aliases": [
				"LevelScoring"
			],
			"objclass": "LevelScoringModuleProperties",
			"objdata": {
				"PlantBonusMultiplier": 0.1,
				"PlantBonuses": [],
				"ScoringRulesType": "Battlez",
				"StartingPlantfood": 3
			}
		},
		{
			"aliases": [
				"ScoreTiles"
			],
			"objclass": "InitialGridItemProperties",
			"objdata": {
				"InitialGridItemPlacements": [
					{
						"GridX": 8,
						"GridY": 0,
						"TypeName": "score_5x_tile"
					},
					{
						"GridX": 8,
						"GridY": 1,
						"TypeName": "score_5x_tile"
					},
					{
						"GridX": 8,
						"GridY": 2,
						"TypeName": "score_5x_tile"
					},
					{
						"GridX": 8,
						"GridY": 3,
						"TypeName": "score_5x_tile"
					},
					{
						"GridX": 8,
						"GridY": 4,
						"TypeName": "score_5x_tile"
					},
					{
						"GridX": 7,
						"GridY": 0,
						"TypeName": "score_5x_tile"
					},
					{
						"GridX": 7,
						"GridY": 1,
						"TypeName": "score_5x_tile"
					},
					{
						"GridX": 7,
						"GridY": 2,
						"TypeName": "score_5x_tile"
					},
					{
						"GridX": 7,
						"GridY": 3,
						"TypeName": "score_5x_tile"
					},
					{
						"GridX": 7,
						"GridY": 4,
						"TypeName": "score_5x_tile"
					},
					{
						"GridX": 6,
						"GridY": 0,
						"TypeName": "score_3x_tile"
					},
					{
						"GridX": 6,
						"GridY": 1,
						"TypeName": "score_3x_tile"
					},
					{
						"GridX": 6,
						"GridY": 2,
						"TypeName": "score_3x_tile"
					},
					{
						"GridX": 6,
						"GridY": 3,
						"TypeName": "score_3x_tile"
					},
					{
						"GridX": 6,
						"GridY": 4,
						"TypeName": "score_3x_tile"
					},
					{
						"GridX": 5,
						"GridY": 0,
						"TypeName": "score_3x_tile"
					},
					{
						"GridX": 5,
						"GridY": 1,
						"TypeName": "score_3x_tile"
					},
					{
						"GridX": 5,
						"GridY": 2,
						"TypeName": "score_3x_tile"
					},
					{
						"GridX": 5,
						"GridY": 3,
						"TypeName": "score_3x_tile"
					},
					{
						"GridX": 5,
						"GridY": 4,
						"TypeName": "score_3x_tile"
					},
					{
						"GridX": 4,
						"GridY": 0,
						"TypeName": "score_2x_tile"
					},
					{
						"GridX": 4,
						"GridY": 1,
						"TypeName": "score_2x_tile"
					},
					{
						"GridX": 4,
						"GridY": 2,
						"TypeName": "score_2x_tile"
					},
					{
						"GridX": 4,
						"GridY": 3,
						"TypeName": "score_2x_tile"
					},
					{
						"GridX": 4,
						"GridY": 4,
						"TypeName": "score_2x_tile"
					},
					{
						"GridX": 3,
						"GridY": 0,
						"TypeName": "score_2x_tile"
					},
					{
						"GridX": 3,
						"GridY": 1,
						"TypeName": "score_2x_tile"
					},
					{
						"GridX": 3,
						"GridY": 2,
						"TypeName": "score_2x_tile"
					},
					{
						"GridX": 3,
						"GridY": 3,
						"TypeName": "score_2x_tile"
					},
					{
						"GridX": 3,
						"GridY": 4,
						"TypeName": "score_2x_tile"
					}
				]
			}
		},
		{
			"aliases": [
				"NewWaves"
			],
			"objclass": "WaveManagerModuleProperties",
			"objdata": {
				"DynamicZombies": [
					{
						"PointIncrementPerWave": -1,
						"StartingPoints": -1,
						"StartingWave": 1,
						"ZombiePool": [
							"RTID(tutorial@ZombieTypes)",
							"RTID(tutorial_armor1@ZombieTypes)",
							"RTID(tutorial_armor2@ZombieTypes)",
							"RTID(beach_surfer@ZombieTypes)",
							"RTID(lostcity_crystalskull@ZombieTypes)"
						]
					},
					{
						"PointIncrementPerWave": -1,
						"StartingPoints": -1,
						"StartingWave": 1,
						"ZombiePool": [
							"RTID(tutorial@ZombieTypes)",
							"RTID(tutorial_armor1@ZombieTypes)",
							"RTID(tutorial_armor2@ZombieTypes)",
							"RTID(beach_surfer@ZombieTypes)",
							"RTID(lostcity_crystalskull@ZombieTypes)"
						]
					},
					{
						"PointIncrementPerWave": -1,
						"StartingPoints": -1,
						"StartingWave": 1,
						"ZombiePool": [
							"RTID(tutorial@ZombieTypes)",
							"RTID(tutorial_armor1@ZombieTypes)",
							"RTID(tutorial_armor2@ZombieTypes)",
							"RTID(beach_surfer@ZombieTypes)",
							"RTID(lostcity_crystalskull@ZombieTypes)"
						]
					},
					{
						"PointIncrementPerWave": 275,
						"StartingPoints": 1000,
						"StartingWave": 1,
						"ZombiePool": [
							"RTID(tutorial@ZombieTypes)",
							"RTID(tutorial_armor1@ZombieTypes)",
							"RTID(tutorial_armor2@ZombieTypes)",
							"RTID(beach_surfer@ZombieTypes)",
							"RTID(lostcity_crystalskull@ZombieTypes)"
						]
					},
					{
						"PointIncrementPerWave": 1,
						"StartingPoints": 1,
						"StartingWave": 1,
						"ZombiePool": [
							"RTID(tutorial@ZombieTypes)",
							"RTID(tutorial_armor1@ZombieTypes)",
							"RTID(tutorial_armor2@ZombieTypes)",
							"RTID(beach_surfer@ZombieTypes)",
							"RTID(lostcity_crystalskull@ZombieTypes)"
						]
					},
					{
						"PointIncrementPerWave": 1,
						"StartingPoints": 1,
						"StartingWave": 1,
						"ZombiePool": [
							"RTID(tutorial@ZombieTypes)",
							"RTID(tutorial_armor1@ZombieTypes)",
							"RTID(tutorial_armor2@ZombieTypes)",
							"RTID(beach_surfer@ZombieTypes)",
							"RTID(lostcity_crystalskull@ZombieTypes)"
						]
					},
					{
						"PointIncrementPerWave": 1,
						"StartingPoints": 1,
						"StartingWave": 1,
						"ZombiePool": [
							"RTID(tutorial@ZombieTypes)",
							"RTID(tutorial_armor1@ZombieTypes)",
							"RTID(tutorial_armor2@ZombieTypes)",
							"RTID(beach_surfer@ZombieTypes)",
							"RTID(lostcity_crystalskull@ZombieTypes)"
						]
					}
				],
				"WaveManagerProps": "RTID(WaveManagerProps@CurrentLevel)"
			}
		},
		{
			"aliases": [
				"WaveManagerProps"
			],
			"objclass": "WaveManagerProperties",
			"objdata": {
				"FlagWaveInterval": 36,
				"WaveCount": 36,
				"WaveSpendingPointIncrement": 150,
				"WaveSpendingPoints": 0,
				"Waves": [
					[
						"RTID(Wave1@CurrentLevel)"
					],
					[
						"RTID(Wave2@CurrentLevel)"
					],
					[
						"RTID(Wave3@CurrentLevel)"
					],
					[
						"RTID(Wave4@CurrentLevel)"
					],
					[
						"RTID(Wave5@CurrentLevel)"
					],
					[
						"RTID(Wave6@CurrentLevel)"
					],
					[
						"RTID(Wave7@CurrentLevel)"
					],
					[
						"RTID(Wave8@CurrentLevel)"
					],
					[
						"RTID(Wave9@CurrentLevel)"
					],
					[
						"RTID(Wave10@CurrentLevel)"
					],
					[
						"RTID(Wave11@CurrentLevel)"
					],
					[
						"RTID(Wave12@CurrentLevel)"
					],
					[
						"RTID(Wave13@CurrentLevel)"
					],
					[
						"RTID(Wave14@CurrentLevel)"
					],
					[
						"RTID(Wave15@CurrentLevel)"
					],
					[
						"RTID(Wave16@CurrentLevel)"
					],
					[
						"RTID(Wave17@CurrentLevel)"
					],
					[
						"RTID(Wave18@CurrentLevel)"
					],
					[
						"RTID(Wave19@CurrentLevel)"
					],
					[
						"RTID(Wave20@CurrentLevel)"
					],
					[
						"RTID(Wave21@CurrentLevel)"
					],
					[
						"RTID(Wave22@CurrentLevel)"
					],
					[
						"RTID(Wave23@CurrentLevel)"
					],
					[
						"RTID(Wave24@CurrentLevel)"
					],
					[
						"RTID(Wave25@CurrentLevel)"
					],
					[
						"RTID(Wave26@CurrentLevel)"
					],
					[
						"RTID(Wave27@CurrentLevel)"
					],
					[
						"RTID(Wave28@CurrentLevel)"
					],
					[
						"RTID(Wave29@CurrentLevel)"
					],
					[
						"RTID(Wave30@CurrentLevel)"
					],
					[
						"RTID(Wave31@CurrentLevel)"
					],
					[
						"RTID(Wave32@CurrentLevel)"
					],
					[
						"RTID(Wave33@CurrentLevel)"
					],
					[
						"RTID(Wave34@CurrentLevel)"
					],
					[
						"RTID(Wave35@CurrentLevel)"
					],
					[
						"RTID(Wave36@CurrentLevel)"
					]
				],
				"WavesAlwaysRandomized": true
			}
		},
		{
			"aliases": [
				"Wave1"
			],
			"objclass": "SpawnZombiesJitteredWaveActionProps",
			"objdata": {}
		},
		{
			"aliases": [
				"Wave2"
			],
			"objclass": "SpawnZombiesJitteredWaveActionProps",
			"objdata": {}
		},
		{
			"aliases": [
				"Wave3"
			],
			"objclass": "SpawnZombiesJitteredWaveActionProps",
			"objdata": {
				"AdditionalPlantfood": 0
			}
		},
		{
			"aliases": [
				"Wave4"
			],
			"objclass": "SpawnZombiesJitteredWaveActionProps",
			"objdata": {}
		},
		{
			"aliases": [
				"Wave5"
			],
			"objclass": "SpawnZombiesJitteredWaveActionProps",
			"objdata": {}
		},
		{
			"aliases": [
				"Wave6"
			],
			"objclass": "SpawnZombiesJitteredWaveActionProps",
			"objdata": {
				"AdditionalPlantfood": 0
			}
		},
		{
			"aliases": [
				"Wave7"
			],
			"objclass": "SpawnZombiesJitteredWaveActionProps",
			"objdata": {}
		},
		{
			"aliases": [
				"Wave8"
			],
			"objclass": "SpawnZombiesJitteredWaveActionProps",
			"objdata": {}
		},
		{
			"aliases": [
				"Wave9"
			],
			"objclass": "SpawnZombiesJitteredWaveActionProps",
			"objdata": {}
		},
		{
			"aliases": [
				"Wave10"
			],
			"objclass": "SpawnZombiesJitteredWaveActionProps",
			"objdata": {}
		},
		{
			"aliases": [
				"Wave11"
			],
			"objclass": "SpawnZombiesJitteredWaveActionProps",
			"objdata": {}
		},
		{
			"aliases": [
				"Wave12"
			],
			"objclass": "SpawnZombiesJitteredWaveActionProps",
			"objdata": {}
		},
		{
			"aliases": [
				"Wave13"
			],
			"objclass": "SpawnZombiesJitteredWaveActionProps",
			"objdata": {}
		},
		{
			"aliases": [
				"Wave14"
			],
			"objclass": "SpawnZombiesJitteredWaveActionProps",
			"objdata": {}
		},
		{
			"aliases": [
				"Wave15"
			],
			"objclass": "SpawnZombiesJitteredWaveActionProps",
			"objdata": {
				"AdditionalPlantfood": 0
			}
		},
		{
			"aliases": [
				"Wave16"
			],
			"objclass": "SpawnZombiesJitteredWaveActionProps",
			"objdata": {}
		},
		{
			"aliases": [
				"Wave17"
			],
			"objclass": "SpawnZombiesJitteredWaveActionProps",
			"objdata": {}
		},
		{
			"aliases": [
				"Wave18"
			],
			"objclass": "SpawnZombiesJitteredWaveActionProps",
			"objdata": {}
		},
		{
			"aliases": [
				"Wave19"
			],
			"objclass": "SpawnZombiesJitteredWaveActionProps",
			"objdata": {}
		},
		{
			"aliases": [
				"Wave20"
			],
			"objclass": "SpawnZombiesJitteredWaveActionProps",
			"objdata": {}
		},
		{
			"aliases": [
				"Wave21"
			],
			"objclass": "SpawnZombiesJitteredWaveActionProps",
			"objdata": {
				"AdditionalPlantfood": 0
			}
		},
		{
			"aliases": [
				"Wave22"
			],
			"objclass": "SpawnZombiesJitteredWaveActionProps",
			"objdata": {}
		},
		{
			"aliases": [
				"Wave23"
			],
			"objclass": "SpawnZombiesJitteredWaveActionProps",
			"objdata": {}
		},
		{
			"aliases": [
				"Wave24"
			],
			"objclass": "SpawnZombiesJitteredWaveActionProps",
			"objdata": {
				"AdditionalPlantfood": 0
			}
		},
		{
			"aliases": [
				"Wave25"
			],
			"objclass": "SpawnZombiesJitteredWaveActionProps",
			"objdata": {}
		},
		{
			"aliases": [
				"Wave26"
			],
			"objclass": "SpawnZombiesJitteredWaveActionProps",
			"objdata": {}
		},
		{
			"aliases": [
				"Wave27"
			],
			"objclass": "SpawnZombiesJitteredWaveActionProps",
			"objdata": {}
		},
		{
			"aliases": [
				"Wave28"
			],
			"objclass": "SpawnZombiesJitteredWaveActionProps",
			"objdata": {}
		},
		{
			"aliases": [
				"Wave29"
			],
			"objclass": "SpawnZombiesJitteredWaveActionProps",
			"objdata": {}
		},
		{
			"aliases": [
				"Wave30"
			],
			"objclass": "SpawnZombiesJitteredWaveActionProps",
			"objdata": {}
		},
		{
			"aliases": [
				"Wave31"
			],
			"objclass": "SpawnZombiesJitteredWaveActionProps",
			"objdata": {}
		},
		{
			"aliases": [
				"Wave32"
			],
			"objclass": "SpawnZombiesJitteredWaveActionProps",
			"objdata": {
				"AdditionalPlantfood": 0
			}
		},
		{
			"aliases": [
				"Wave33"
			],
			"objclass": "SpawnZombiesJitteredWaveActionProps",
			"objdata": {}
		},
		{
			"aliases": [
				"Wave34"
			],
			"objclass": "SpawnZombiesJitteredWaveActionProps",
			"objdata": {}
		},
		{
			"aliases": [
				"Wave35"
			],
			"objclass": "SpawnZombiesJitteredWaveActionProps",
			"objdata": {}
		},
		{
			"aliases": [
				"Wave36"
			],
			"objclass": "SpawnZombiesJitteredWaveActionProps",
			"objdata": {
				"AdditionalPlantfood": 0
			}
		}
	],
	"version": 1
}