{
	"#comment": "Scoring Playtest - Right Gradient - No Quickstart",
	"objects": [
		{
			"objclass": "LevelDefinition",
			"objdata": {
				"Description": "",
				"DisablePlantBoosts": true,
				"GridItemLevel": 1,
				"LevelNumber": 1,
				"LevelPowerupSet": "LevelPowerupsDisabled",
				"Loot": "RTID(NoLoot@LevelModules)",
				"LossModule": "RTID(JoustOutro@LevelModules)",
				"Modules": [
					"RTID(DefaultSunDropper@LevelModules)",
					"RTID(ZombiesDeadWinCon@LevelModules)",
					"RTID(JoustDarkMowers@LevelModules)",
					"RTID(SeedBank@CurrentLevel)",
					"RTID(JoustZombieWinCondition@LevelModules)",
					"RTID(NewWaves@CurrentLevel)",
					"RTID(LevelScoring@CurrentLevel)",
					"RTID(ScoreTiles@CurrentLevel)",
					"RTID(ChallengeModule@CurrentLevel)",
					"RTID(LastStand@CurrentLevel)",
					"RTID(LevelDifficultyScaling@CurrentLevel)",
					"RTID(JoustModule@CurrentLevel)",
					"RTID(JoustPointOfLoss@LevelModules)",
					"RTID(ZombieResistances@CurrentLevel)",
					"RTID(FrozenPlantPlacement@CurrentLevel)",
					"RTID(Boosterama@LevelModules)"
				],
				"Name": "",
				"NormalPresentTable": "dark_normal_01",
				"ShinyPresentTable": "dark_shiny_01",
				"StageModule": "RTID(JoustStage@LevelModules)",
				"SuppressAccountUpgrades": true,
				"SuppressDynamicTutorial": true,
				"SuppressPlantfoodPurchase": true,
				"VictoryModule": "RTID(JoustOutro@LevelModules)"
			}
		},
		{
			"aliases": [
				"SeedBank"
			],
			"objclass": "SeedBankProperties",
			"objdata": {
				"PlantExcludeList": [
					"blover"
				],
				"PresetPlantList": [
					{
						"Level": -1,
						"PlantType": "zoybeanpod"
					}
				],
				"SelectionMethod": "chooser"
			}
		},
		{
			"aliases": [
				"FrozenPlantPlacement"
			],
			"objclass": "InitialPlantProperties",
			"objdata": {
				"InitialPlantPlacements": [
					{
						"GridX": 0,
						"GridY": 0,
						"Level": "-1",
						"TypeName": "zoybeanpod"
					},
					{
						"GridX": 0,
						"GridY": 4,
						"Level": "-1",
						"TypeName": "zoybeanpod"
					}
				]
			}
		},
		{
			"aliases": [
				"ZombieResistances"
			],
			"objclass": "ZombieResistancesModuleProperties",
			"objdata": {
				"FamilyResistances": {
					"global": [
						{
							"#comment": "200% damage and condition",
							"ConditionResistance": 2,
							"DamageResistance": 2,
							"FamilyType": "enchantmint"
						},
						{
							"#comment": "half damage, half condition",
							"ConditionResistance": 0.5,
							"DamageResistance": 0.5,
							"FamilyType": "bombardmint"
						}
					]
				}
			}
		},
		{
			"aliases": [
				"JoustModule"
			],
			"objclass": "JoustGameModuleProperties",
			"objdata": {
				"LeagueModifiers": [
					{
						"AddTimeLimit": 0,
						"AddZombieLevel": 0,
						"LeagueThreshold": 1
					},
					{
						"AddTimeLimit": 0,
						"AddZombieLevel": 1,
						"LeagueThreshold": 2
					},
					{
						"AddTimeLimit": 0,
						"AddZombieLevel": 2,
						"LeagueThreshold": 3
					},
					{
						"AddTimeLimit": 0,
						"AddZombieLevel": 3,
						"LeagueThreshold": 4
					},
					{
						"AddTimeLimit": 0,
						"AddZombieLevel": 4,
						"LeagueThreshold": 5
					},
					{
						"AddTimeLimit": 0,
						"AddZombieLevel": 5,
						"LeagueThreshold": 6
					},
					{
						"AddTimeLimit": 0,
						"AddZombieLevel": 6,
						"LeagueThreshold": 7
					},
					{
						"AddTimeLimit": 0,
						"AddZombieLevel": 7,
						"LeagueThreshold": 8
					},
					{
						"AddTimeLimit": 0,
						"AddZombieLevel": 8,
						"LeagueThreshold": 9
					}
				],
				"TimeLimit": 180,
				"LevelLoadouts": {
					"Loadouts": [
						[
							{
								"PlantType": "zoybeanpod",
								"PlantLevel": 0,
								"IsImitater": false
							},
							{
								"PlantType": "powerlily",
								"PlantLevel": 0,
								"IsImitater": false
							},
							{
								"PlantType": "caulipower",
								"PlantLevel": 0,
								"IsImitater": false
							},
							{
								"PlantType": "goldbloom",
								"PlantLevel": 0,
								"IsImitater": false
							},
							{
								"PlantType": "enchantmint",
								"PlantLevel": 0,
								"IsImitater": false
							},
							{
								"PlantType": "primalsunflower",
								"PlantLevel": 0,
								"IsImitater": false
							}
						],
						[
							{
								"PlantType": "zoybeanpod",
								"PlantLevel": 0,
								"IsImitater": false
							},
							{
								"PlantType": "primalsunflower",
								"PlantLevel": 0,
								"IsImitater": false
							},
							{
								"PlantType": "enchantmint",
								"PlantLevel": 0,
								"IsImitater": false
							},
							{
								"PlantType": "wallnut",
								"PlantLevel": 0,
								"IsImitater": false
							},
							{
								"PlantType": "electricpeashooter",
								"PlantLevel": 0,
								"IsImitater": false
							},
							{
								"PlantType": "chardguard",
								"PlantLevel": 0,
								"IsImitater": false
							}
						],
						[
							{
								"PlantType": "zoybeanpod",
								"PlantLevel": 0,
								"IsImitater": false
							},
							{
								"PlantType": "powerplant",
								"PlantLevel": 0,
								"IsImitater": false
							},
							{
								"PlantType": "hypnoshroom",
								"PlantLevel": 0,
								"IsImitater": false
							},
							{
								"PlantType": "intensivecarrot",
								"PlantLevel": 0,
								"IsImitater": false
							},
							{
								"PlantType": "primalsunflower",
								"PlantLevel": 0,
								"IsImitater": false
							},
							{
								"PlantType": "shrinkingviolet",
								"PlantLevel": 0,
								"IsImitater": false
							}
						],
						[
							{
								"PlantType": "zoybeanpod",
								"PlantLevel": 0,
								"IsImitater": false
							},
							{
								"PlantType": "moonflower",
								"PlantLevel": 0,
								"IsImitater": false
							},
							{
								"PlantType": "dusklobber",
								"PlantLevel": 0,
								"IsImitater": false
							},
							{
								"PlantType": "shadowpeashooter",
								"PlantLevel": 0,
								"IsImitater": false
							},
							{
								"PlantType": "primalpeashooter",
								"PlantLevel": 0,
								"IsImitater": false
							},
							{
								"PlantType": "powerlily",
								"PlantLevel": 0,
								"IsImitater": false
							}
						]
					]
				}
			}
		},
		{
			"aliases": [
				"LevelDifficultyScaling"
			],
			"objclass": "LevelDifficultyScalingModuleProperties",
			"objdata": {
				"DifficultyRulesType": "DifficultyTestHighDecay"
			}
		},
		{
			"aliases": [
				"ChallengeModule"
			],
			"objclass": "StarChallengeModuleProperties",
			"objdata": {
				"Challenges": [
					[
						"RTID(BeatTheLevel@CurrentLevel)",
						"RTID(ReachTheScore@CurrentLevel)"
					]
				],
				"ChallengesAlwaysAvailable": true
			}
		},
		{
			"aliases": [
				"ReachTheScore"
			],
			"objclass": "StarChallengeTargetScoreProps",
			"objdata": {
				"Description": "[STARCHALLENGE_TARGET_SCORE]",
				"DescriptionFailure": "[STARCHALLENGE_TARGET_SCORE_FAILURE]",
				"DescriptiveName": "[STARCHALLENGE_TARGET_SCORE_NAME]",
				"TargetScore": 1000
			}
		},
		{
			"aliases": [
				"BeatTheLevel"
			],
			"objclass": "StarChallengeBeatTheLevelProps",
			"objdata": {
				"Description": "[STARCHALLENGE_LASTSTAND_MINIGAME]",
				"DescriptiveName": "[STARCHALLENGE_LASTSTAND_MINIGAME_NAME]"
			}
		},
		{
			"aliases": [
				"LastStand"
			],
			"objclass": "LastStandMinigameProperties",
			"objdata": {
				"StartingPlantfood": 3,
				"StartingSun": 750
			}
		},
		{
			"aliases": [
				"LevelScoring"
			],
			"objclass": "LevelScoringModuleProperties",
			"objdata": {
				"PlantBonusMultiplier": 0.1,
				"PlantBonuses": [],
				"ScoringRulesType": "Battlez",
				"StartingPlantfood": 3
			}
		},
		{
			"aliases": [
				"ScoreTiles"
			],
			"objclass": "InitialGridItemProperties",
			"objdata": {
				"InitialGridItemPlacements": [
					{
						"GridX": 8,
						"GridY": 0,
						"TypeName": "score_5x_tile"
					},
					{
						"GridX": 8,
						"GridY": 1,
						"TypeName": "score_5x_tile"
					},
					{
						"GridX": 8,
						"GridY": 2,
						"TypeName": "score_5x_tile"
					},
					{
						"GridX": 8,
						"GridY": 3,
						"TypeName": "score_5x_tile"
					},
					{
						"GridX": 8,
						"GridY": 4,
						"TypeName": "score_5x_tile"
					},
					{
						"GridX": 7,
						"GridY": 0,
						"TypeName": "score_5x_tile"
					},
					{
						"GridX": 7,
						"GridY": 1,
						"TypeName": "score_5x_tile"
					},
					{
						"GridX": 7,
						"GridY": 2,
						"TypeName": "score_5x_tile"
					},
					{
						"GridX": 7,
						"GridY": 3,
						"TypeName": "score_5x_tile"
					},
					{
						"GridX": 7,
						"GridY": 4,
						"TypeName": "score_5x_tile"
					},
					{
						"GridX": 6,
						"GridY": 0,
						"TypeName": "score_3x_tile"
					},
					{
						"GridX": 6,
						"GridY": 1,
						"TypeName": "score_3x_tile"
					},
					{
						"GridX": 6,
						"GridY": 2,
						"TypeName": "score_3x_tile"
					},
					{
						"GridX": 6,
						"GridY": 3,
						"TypeName": "score_3x_tile"
					},
					{
						"GridX": 6,
						"GridY": 4,
						"TypeName": "score_3x_tile"
					},
					{
						"GridX": 5,
						"GridY": 0,
						"TypeName": "score_3x_tile"
					},
					{
						"GridX": 5,
						"GridY": 1,
						"TypeName": "score_3x_tile"
					},
					{
						"GridX": 5,
						"GridY": 2,
						"TypeName": "score_3x_tile"
					},
					{
						"GridX": 5,
						"GridY": 3,
						"TypeName": "score_3x_tile"
					},
					{
						"GridX": 5,
						"GridY": 4,
						"TypeName": "score_3x_tile"
					},
					{
						"GridX": 4,
						"GridY": 0,
						"TypeName": "score_2x_tile"
					},
					{
						"GridX": 4,
						"GridY": 1,
						"TypeName": "score_2x_tile"
					},
					{
						"GridX": 4,
						"GridY": 2,
						"TypeName": "score_2x_tile"
					},
					{
						"GridX": 4,
						"GridY": 3,
						"TypeName": "score_2x_tile"
					},
					{
						"GridX": 4,
						"GridY": 4,
						"TypeName": "score_2x_tile"
					},
					{
						"GridX": 3,
						"GridY": 0,
						"TypeName": "score_2x_tile"
					},
					{
						"GridX": 3,
						"GridY": 1,
						"TypeName": "score_2x_tile"
					},
					{
						"GridX": 3,
						"GridY": 2,
						"TypeName": "score_2x_tile"
					},
					{
						"GridX": 3,
						"GridY": 3,
						"TypeName": "score_2x_tile"
					},
					{
						"GridX": 3,
						"GridY": 4,
						"TypeName": "score_2x_tile"
					}
				]
			}
		},
		{
			"aliases": [
				"NewWaves"
			],
			"objclass": "WaveManagerModuleProperties",
			"objdata": {
				"DynamicZombies": [
					{
						"PointIncrementPerWave": -1,
						"StartingPoints": -1,
						"StartingWave": 3,
						"ZombiePool": []
					},
					{
						"PointIncrementPerWave": -1,
						"StartingPoints": -1,
						"StartingWave": 4,
						"ZombiePool": []
					},
					{
						"PointIncrementPerWave": -1,
						"StartingPoints": -1,
						"StartingWave": 5,
						"ZombiePool": []
					},
					{},
					{
						"PointIncrementPerWave": 1,
						"StartingPoints": 1,
						"StartingWave": 5,
						"ZombiePool": []
					},
					{
						"PointIncrementPerWave": 1,
						"StartingPoints": 1,
						"StartingWave": 4,
						"ZombiePool": []
					},
					{
						"PointIncrementPerWave": 1,
						"StartingPoints": 1,
						"StartingWave": 3,
						"ZombiePool": []
					}
				],
				"WaveManagerProps": "RTID(WaveManagerProps@CurrentLevel)"
			}
		},
		{
			"aliases": [
				"WaveManagerProps"
			],
			"objclass": "WaveManagerProperties",
			"objdata": {
				"FlagWaveInterval": 36,
				"WaveCount": 36,
				"WaveSpendingPointIncrement": 200,
				"WaveSpendingPoints": 100,
				"Waves": [
					[
						"RTID(Wave1@CurrentLevel)"
					],
					[
						"RTID(Wave2@CurrentLevel)"
					],
					[
						"RTID(Wave3@CurrentLevel)"
					],
					[
						"RTID(Wave4@CurrentLevel)"
					],
					[
						"RTID(Wave5@CurrentLevel)"
					],
					[
						"RTID(Wave6@CurrentLevel)"
					],
					[
						"RTID(Wave7@CurrentLevel)"
					],
					[
						"RTID(Wave8@CurrentLevel)"
					],
					[
						"RTID(Wave9@CurrentLevel)"
					],
					[
						"RTID(Wave10@CurrentLevel)"
					],
					[
						"RTID(Wave11@CurrentLevel)"
					],
					[
						"RTID(Wave12@CurrentLevel)"
					],
					[
						"RTID(Wave13@CurrentLevel)"
					],
					[
						"RTID(Wave14@CurrentLevel)"
					],
					[
						"RTID(Wave15@CurrentLevel)"
					],
					[
						"RTID(Wave16@CurrentLevel)"
					],
					[
						"RTID(Wave17@CurrentLevel)"
					],
					[
						"RTID(Wave18@CurrentLevel)"
					],
					[
						"RTID(Wave19@CurrentLevel)"
					],
					[
						"RTID(Wave20@CurrentLevel)"
					],
					[
						"RTID(Wave21@CurrentLevel)"
					],
					[
						"RTID(Wave22@CurrentLevel)"
					],
					[
						"RTID(Wave23@CurrentLevel)"
					],
					[
						"RTID(Wave24@CurrentLevel)"
					],
					[
						"RTID(Wave25@CurrentLevel)"
					],
					[
						"RTID(Wave26@CurrentLevel)"
					],
					[
						"RTID(Wave27@CurrentLevel)"
					],
					[
						"RTID(Wave28@CurrentLevel)"
					],
					[
						"RTID(Wave29@CurrentLevel)"
					],
					[
						"RTID(Wave30@CurrentLevel)"
					],
					[
						"RTID(Wave31@CurrentLevel)"
					],
					[
						"RTID(Wave32@CurrentLevel)"
					],
					[
						"RTID(Wave33@CurrentLevel)"
					],
					[
						"RTID(Wave34@CurrentLevel)"
					],
					[
						"RTID(Wave35@CurrentLevel)"
					],
					[
						"RTID(Wave36@CurrentLevel)"
					]
				],
				"WavesAlwaysRandomized": true
			}
		},
		{
			"aliases": [
				"Wave1"
			],
			"objclass": "SpawnZombiesJitteredWaveActionProps",
			"objdata": {
				"Zombies": [
					{
						"Type": "RTID(beach@ZombieTypes)"
					},
					{
						"Type": "RTID(beach@ZombieTypes)"
					}
				]
			}
		},
		{
			"aliases": [
				"Wave2"
			],
			"objclass": "SpawnZombiesJitteredWaveActionProps",
			"objdata": {
				"Zombies": [
					{
						"Type": "RTID(beach@ZombieTypes)"
					},
					{
						"Type": "RTID(beach_armor1@ZombieTypes)"
					},
					{
						"Type": "RTID(beach_armor1@ZombieTypes)"
					}
				]
			}
		},
		{
			"aliases": [
				"Wave3"
			],
			"objclass": "SpawnZombiesJitteredWaveActionProps",
			"objdata": {
				"AdditionalPlantfood": 0,
				"Zombies": [
					{
						"Type": "RTID(beach@ZombieTypes)"
					},
					{
						"Type": "RTID(beach@ZombieTypes)"
					},
					{
						"Type": "RTID(beach_armor2@ZombieTypes)"
					},
					{
						"Type": "RTID(beach@ZombieTypes)"
					}
				]
			}
		},
		{
			"aliases": [
				"Wave4"
			],
			"objclass": "SpawnZombiesJitteredWaveActionProps",
			"objdata": {
				"AdditionalPlantfood": 0,
				"Zombies": [
					{
						"Type": "RTID(beach_armor1@ZombieTypes)"
					},
					{
						"Type": "RTID(beach@ZombieTypes)"
					},
					{
						"Type": "RTID(beach_armor2@ZombieTypes)"
					},
					{
						"Type": "RTID(beach_armor1@ZombieTypes)"
					}
				]
			}
		},
		{
			"aliases": [
				"Wave5"
			],
			"objclass": "SpawnZombiesJitteredWaveActionProps",
			"objdata": {
				"Zombies": [
					{
						"Type": "RTID(beach@ZombieTypes)"
					},
					{
						"Type": "RTID(beach_armor1@ZombieTypes)"
					},
					{
						"Type": "RTID(beach@ZombieTypes)"
					},
					{
						"Type": "RTID(west_bull@ZombieTypes)"
					}
				]
			}
		},
		{
			"aliases": [
				"Wave6"
			],
			"objclass": "SpawnZombiesJitteredWaveActionProps",
			"objdata": {
				"Zombies": [
					{
						"Type": "RTID(beach_armor2@ZombieTypes)"
					},
					{
						"Type": "RTID(west_bull@ZombieTypes)"
					}
				]
			}
		},
		{
			"aliases": [
				"Wave7"
			],
			"objclass": "SpawnZombiesJitteredWaveActionProps",
			"objdata": {
				"Zombies": [
					{
						"Type": "RTID(beach_armor2@ZombieTypes)"
					},
					{
						"Type": "RTID(beach_armor2@ZombieTypes)"
					},
					{
						"Type": "RTID(west_bull@ZombieTypes)"
					}
				]
			}
		},
		{
			"aliases": [
				"Wave8"
			],
			"objclass": "SpawnZombiesJitteredWaveActionProps",
			"objdata": {
				"Zombies": [
					{
						"Type": "RTID(beach@ZombieTypes)"
					},
					{
						"Type": "RTID(beach_armor1@ZombieTypes)"
					},
					{
						"Type": "RTID(west_bull@ZombieTypes)"
					},
					{
						"Type": "RTID(west_bull@ZombieTypes)"
					}
				]
			}
		},
		{
			"aliases": [
				"Wave9"
			],
			"objclass": "SpawnZombiesJitteredWaveActionProps",
			"objdata": {
				"Zombies": [
					{
						"Type": "RTID(beach_armor1@ZombieTypes)"
					},
					{
						"Type": "RTID(beach@ZombieTypes)"
					},
					{
						"Type": "RTID(chicken_farmer@ZombieTypes)"
					},
					{
						"Type": "RTID(beach_armor2@ZombieTypes)"
					},
					{
						"Type": "RTID(beach_armor1@ZombieTypes)"
					},
					{
						"Type": "RTID(beach@ZombieTypes)"
					},
					{
						"Type": "RTID(beach@ZombieTypes)"
					},
					{
						"Type": "RTID(chicken_farmer@ZombieTypes)"
					},
					{
						"Type": "RTID(beach_armor2@ZombieTypes)"
					},
					{
						"Type": "RTID(dark_juggler@ZombieTypes)"
					}
				]
			}
		},
		{
			"aliases": [
				"Wave10"
			],
			"objclass": "SpawnZombiesJitteredWaveActionProps",
			"objdata": {
				"Zombies": [
					{
						"Type": "RTID(beach@ZombieTypes)"
					},
					{
						"Type": "RTID(chicken_farmer@ZombieTypes)"
					},
					{
						"Type": "RTID(west_bull@ZombieTypes)"
					},
					{
						"Type": "RTID(beach_armor2@ZombieTypes)"
					},
					{
						"Type": "RTID(west_bull@ZombieTypes)"
					},
					{
						"Type": "RTID(dark_juggler@ZombieTypes)"
					}
				]
			}
		},
		{
			"aliases": [
				"Wave11"
			],
			"objclass": "SpawnZombiesJitteredWaveActionProps",
			"objdata": {
				"Zombies": [
					{
						"Type": "RTID(beach@ZombieTypes)"
					},
					{
						"Type": "RTID(dino_bully_veteran@ZombieTypes)"
					},
					{
						"Type": "RTID(beach_armor2@ZombieTypes)"
					},
					{
						"Type": "RTID(west_bull@ZombieTypes)"
					},
					{
						"Type": "RTID(dark_juggler@ZombieTypes)"
					}
				]
			}
		},
		{
			"aliases": [
				"Wave12"
			],
			"objclass": "SpawnZombiesJitteredWaveActionProps",
			"objdata": {
				"Zombies": [
					{
						"Type": "RTID(dino_bully_veteran@ZombieTypes)"
					},
					{
						"Type": "RTID(beach_armor2@ZombieTypes)"
					},
					{
						"Type": "RTID(west_bull@ZombieTypes)"
					},
					{
						"Type": "RTID(beach_armor1@ZombieTypes)"
					},
					{
						"Type": "RTID(chicken_farmer@ZombieTypes)"
					}
				]
			}
		},
		{
			"aliases": [
				"Wave13"
			],
			"objclass": "SpawnZombiesJitteredWaveActionProps",
			"objdata": {
				"Zombies": [
					{
						"Type": "RTID(beach_armor1@ZombieTypes)"
					},
					{
						"Type": "RTID(beach_armor2@ZombieTypes)"
					},
					{
						"Type": "RTID(beach@ZombieTypes)"
					},
					{
						"Type": "RTID(beach_octopus@ZombieTypes)"
					},
					{
						"Type": "RTID(dino_bully_veteran@ZombieTypes)"
					},
					{
						"Type": "RTID(chicken_farmer@ZombieTypes)"
					}
				]
			}
		},
		{
			"aliases": [
				"Wave14"
			],
			"objclass": "SpawnZombiesJitteredWaveActionProps",
			"objdata": {
				"Zombies": [
					{
						"Type": "RTID(beach_armor1@ZombieTypes)"
					},
					{
						"Type": "RTID(dark_juggler@ZombieTypes)"
					},
					{
						"Type": "RTID(dino_bully_veteran@ZombieTypes)"
					},
					{
						"Type": "RTID(chicken_farmer@ZombieTypes)"
					},
					{
						"Type": "RTID(west_bull@ZombieTypes)"
					}
				]
			}
		},
		{
			"aliases": [
				"Wave15"
			],
			"objclass": "SpawnZombiesJitteredWaveActionProps",
			"objdata": {
				"AdditionalPlantfood": 0,
				"Zombies": [
					{
						"Type": "RTID(chicken_farmer@ZombieTypes)"
					},
					{
						"Type": "RTID(beach_octopus@ZombieTypes)"
					},
					{
						"Type": "RTID(chicken_farmer@ZombieTypes)"
					},
					{
						"Type": "RTID(beach_armor2@ZombieTypes)"
					},
					{
						"Type": "RTID(dino_bully_veteran@ZombieTypes)"
					},
					{
						"Type": "RTID(beach@ZombieTypes)"
					},
					{
						"Type": "RTID(beach@ZombieTypes)"
					},
					{
						"Type": "RTID(beach_armor1@ZombieTypes)"
					}
				]
			}
		},
		{
			"aliases": [
				"Wave16"
			],
			"objclass": "SpawnZombiesJitteredWaveActionProps",
			"objdata": {
				"Zombies": [
					{
						"Type": "RTID(west_bull@ZombieTypes)"
					},
					{
						"Type": "RTID(chicken_farmer@ZombieTypes)"
					},
					{
						"Type": "RTID(beach_armor1@ZombieTypes)"
					},
					{
						"Type": "RTID(west_bull@ZombieTypes)"
					},
					{
						"Type": "RTID(beach@ZombieTypes)"
					},
					{
						"Type": "RTID(beach_armor1@ZombieTypes)"
					},
					{
						"Type": "RTID(beach_armor2@ZombieTypes)"
					},
					{
						"Type": "RTID(beach@ZombieTypes)"
					},
					{
						"Type": "RTID(west_bull@ZombieTypes)"
					},
					{
						"Type": "RTID(dark_juggler@ZombieTypes)"
					}
				]
			}
		},
		{
			"aliases": [
				"Wave17"
			],
			"objclass": "SpawnZombiesJitteredWaveActionProps",
			"objdata": {
				"Zombies": [
					{
						"Type": "RTID(beach_armor1@ZombieTypes)"
					},
					{
						"Type": "RTID(beach_armor2@ZombieTypes)"
					},
					{
						"Type": "RTID(iceage_gargantuar@ZombieTypes)"
					},
					{
						"Type": "RTID(beach_armor2@ZombieTypes)"
					},
					{
						"Type": "RTID(tutorial_armor4@ZombieTypes)"
					}
				]
			}
		},
		{
			"aliases": [
				"Wave18"
			],
			"objclass": "SpawnZombiesJitteredWaveActionProps",
			"objdata": {
				"Zombies": [
					{
						"Type": "RTID(beach_armor1@ZombieTypes)"
					},
					{
						"Type": "RTID(iceage_gargantuar@ZombieTypes)"
					},
					{
						"Type": "RTID(iceage_gargantuar@ZombieTypes)"
					}
				]
			}
		},
		{
			"aliases": [
				"Wave19"
			],
			"objclass": "SpawnZombiesJitteredWaveActionProps",
			"objdata": {
				"Zombies": [
					{
						"Type": "RTID(beach@ZombieTypes)"
					},
					{
						"Type": "RTID(chicken_farmer@ZombieTypes)"
					},
					{
						"Type": "RTID(beach_octopus@ZombieTypes)"
					},
					{
						"Type": "RTID(beach@ZombieTypes)"
					},
					{
						"Type": "RTID(tutorial_armor4@ZombieTypes)"
					},
					{
						"Type": "RTID(dino_bully_veteran@ZombieTypes)"
					},
					{
						"Type": "RTID(beach@ZombieTypes)"
					},
					{
						"Type": "RTID(chicken_farmer@ZombieTypes)"
					},
					{
						"Type": "RTID(west_bull@ZombieTypes)"
					},
					{
						"Type": "RTID(beach_armor1@ZombieTypes)"
					}
				]
			}
		},
		{
			"aliases": [
				"Wave20"
			],
			"objclass": "SpawnZombiesJitteredWaveActionProps",
			"objdata": {
				"AdditionalPlantfood": 0,
				"Zombies": [
					{
						"Type": "RTID(tutorial_armor4@ZombieTypes)"
					},
					{
						"Type": "RTID(beach@ZombieTypes)"
					},
					{
						"Type": "RTID(iceage_gargantuar@ZombieTypes)"
					},
					{
						"Type": "RTID(beach@ZombieTypes)"
					},
					{
						"Type": "RTID(west_bull@ZombieTypes)"
					},
					{
						"Type": "RTID(beach_armor2@ZombieTypes)"
					},
					{
						"Type": "RTID(beach_armor1@ZombieTypes)"
					}
				]
			}
		},
		{
			"aliases": [
				"Wave21"
			],
			"objclass": "SpawnZombiesJitteredWaveActionProps",
			"objdata": {
				"Zombies": [
					{
						"Type": "RTID(iceage_gargantuar@ZombieTypes)"
					},
					{
						"Type": "RTID(dino_bully_veteran@ZombieTypes)"
					},
					{
						"Type": "RTID(dark_juggler@ZombieTypes)"
					},
					{
						"Type": "RTID(tutorial_armor4@ZombieTypes)"
					}
				]
			}
		},
		{
			"aliases": [
				"Wave22"
			],
			"objclass": "SpawnZombiesJitteredWaveActionProps",
			"objdata": {
				"Zombies": [
					{
						"Type": "RTID(chicken_farmer@ZombieTypes)"
					},
					{
						"Type": "RTID(beach_armor1@ZombieTypes)"
					},
					{
						"Type": "RTID(beach_octopus@ZombieTypes)"
					},
					{
						"Type": "RTID(west_bull@ZombieTypes)"
					},
					{
						"Type": "RTID(beach@ZombieTypes)"
					},
					{
						"Type": "RTID(beach_armor1@ZombieTypes)"
					},
					{
						"Type": "RTID(chicken_farmer@ZombieTypes)"
					},
					{
						"Type": "RTID(chicken_farmer@ZombieTypes)"
					},
					{
						"Type": "RTID(west_bull@ZombieTypes)"
					},
					{
						"Type": "RTID(dark_juggler@ZombieTypes)"
					},
					{
						"Type": "RTID(beach_armor1@ZombieTypes)"
					},
					{
						"Type": "RTID(chicken_farmer@ZombieTypes)"
					}
				]
			}
		},
		{
			"aliases": [
				"Wave23"
			],
			"objclass": "SpawnZombiesJitteredWaveActionProps",
			"objdata": {
				"Zombies": [
					{
						"Type": "RTID(beach@ZombieTypes)"
					},
					{
						"Type": "RTID(chicken_farmer@ZombieTypes)"
					},
					{
						"Type": "RTID(beach_octopus@ZombieTypes)"
					},
					{
						"Type": "RTID(beach_armor1@ZombieTypes)"
					},
					{
						"Type": "RTID(dino_bully_veteran@ZombieTypes)"
					},
					{
						"Type": "RTID(beach@ZombieTypes)"
					},
					{
						"Type": "RTID(tutorial_armor4@ZombieTypes)"
					},
					{
						"Type": "RTID(beach@ZombieTypes)"
					},
					{
						"Type": "RTID(beach_armor1@ZombieTypes)"
					},
					{
						"Type": "RTID(beach@ZombieTypes)"
					},
					{
						"Type": "RTID(dark_juggler@ZombieTypes)"
					},
					{
						"Type": "RTID(beach@ZombieTypes)"
					},
					{
						"Type": "RTID(beach_armor1@ZombieTypes)"
					},
					{
						"Type": "RTID(chicken_farmer@ZombieTypes)"
					}
				]
			}
		},
		{
			"aliases": [
				"Wave24"
			],
			"objclass": "SpawnZombiesJitteredWaveActionProps",
			"objdata": {
				"AdditionalPlantfood": 0,
				"Zombies": [
					{
						"Type": "RTID(beach@ZombieTypes)"
					},
					{
						"Type": "RTID(beach_armor2@ZombieTypes)"
					},
					{
						"Type": "RTID(dino_bully_veteran@ZombieTypes)"
					},
					{
						"Type": "RTID(west_bull@ZombieTypes)"
					},
					{
						"Type": "RTID(beach_armor1@ZombieTypes)"
					},
					{
						"Type": "RTID(tutorial_armor4@ZombieTypes)"
					},
					{
						"Type": "RTID(iceage_gargantuar@ZombieTypes)"
					}
				]
			}
		},
		{
			"aliases": [
				"Wave25"
			],
			"objclass": "SpawnZombiesJitteredWaveActionProps",
			"objdata": {
				"Zombies": [
					{
						"Type": "RTID(tutorial_armor4@ZombieTypes)"
					},
					{
						"Type": "RTID(tutorial_armor4@ZombieTypes)"
					},
					{
						"Type": "RTID(tutorial_armor4@ZombieTypes)"
					},
					{
						"Type": "RTID(west_bull@ZombieTypes)"
					},
					{
						"Type": "RTID(beach_armor2@ZombieTypes)"
					},
					{
						"Type": "RTID(beach_octopus@ZombieTypes)"
					},
					{
						"Type": "RTID(dark_juggler@ZombieTypes)"
					}
				]
			}
		},
		{
			"aliases": [
				"Wave26"
			],
			"objclass": "SpawnZombiesJitteredWaveActionProps",
			"objdata": {
				"Zombies": [
					{
						"Type": "RTID(dino_bully_veteran@ZombieTypes)"
					},
					{
						"Type": "RTID(west_bull@ZombieTypes)"
					},
					{
						"Type": "RTID(iceage_gargantuar@ZombieTypes)"
					},
					{
						"Type": "RTID(iceage_gargantuar@ZombieTypes)"
					},
					{
						"Type": "RTID(west_bull@ZombieTypes)"
					},
					{
						"Type": "RTID(dino_bully_veteran@ZombieTypes)"
					}
				]
			}
		},
		{
			"aliases": [
				"Wave27"
			],
			"objclass": "SpawnZombiesJitteredWaveActionProps",
			"objdata": {
				"Zombies": [
					{
						"Type": "RTID(chicken_farmer@ZombieTypes)"
					},
					{
						"Type": "RTID(beach_octopus@ZombieTypes)"
					},
					{
						"Type": "RTID(beach_armor1@ZombieTypes)"
					},
					{
						"Type": "RTID(tutorial_armor4@ZombieTypes)"
					},
					{
						"Type": "RTID(dino_bully_veteran@ZombieTypes)"
					},
					{
						"Type": "RTID(beach@ZombieTypes)"
					},
					{
						"Type": "RTID(iceage_gargantuar@ZombieTypes)"
					},
					{
						"Type": "RTID(west_bull@ZombieTypes)"
					},
					{
						"Type": "RTID(dark_juggler@ZombieTypes)"
					},
					{
						"Type": "RTID(chicken_farmer@ZombieTypes)"
					},
					{
						"Type": "RTID(tutorial_armor4@ZombieTypes)"
					},
					{
						"Type": "RTID(beach_armor1@ZombieTypes)"
					},
					{
						"Type": "RTID(beach@ZombieTypes)"
					},
					{
						"Type": "RTID(west_bull@ZombieTypes)"
					}
				]
			}
		},
		{
			"aliases": [
				"Wave28"
			],
			"objclass": "SpawnZombiesJitteredWaveActionProps",
			"objdata": {
				"Zombies": [
					{
						"Type": "RTID(chicken_farmer@ZombieTypes)"
					},
					{
						"Type": "RTID(tutorial_armor4@ZombieTypes)"
					},
					{
						"Type": "RTID(beach_octopus@ZombieTypes)"
					},
					{
						"Type": "RTID(beach_armor2@ZombieTypes)"
					},
					{
						"Type": "RTID(beach@ZombieTypes)"
					},
					{
						"Type": "RTID(beach_armor1@ZombieTypes)"
					},
					{
						"Type": "RTID(west_bull@ZombieTypes)"
					},
					{
						"Type": "RTID(dino_bully_veteran@ZombieTypes)"
					},
					{
						"Type": "RTID(dark_juggler@ZombieTypes)"
					},
					{
						"Type": "RTID(beach_armor2@ZombieTypes)"
					},
					{
						"Type": "RTID(iceage_gargantuar@ZombieTypes)"
					},
					{
						"Type": "RTID(chicken_farmer@ZombieTypes)"
					},
					{
						"Type": "RTID(tutorial_armor4@ZombieTypes)"
					}
				]
			}
		},
		{
			"aliases": [
				"Wave29"
			],
			"objclass": "SpawnZombiesJitteredWaveActionProps",
			"objdata": {
				"Zombies": [
					{
						"Type": "RTID(chicken_farmer@ZombieTypes)"
					},
					{
						"Type": "RTID(beach_octopus@ZombieTypes)"
					},
					{
						"Type": "RTID(beach_armor1@ZombieTypes)"
					},
					{
						"Type": "RTID(tutorial_armor4@ZombieTypes)"
					},
					{
						"Type": "RTID(dino_bully_veteran@ZombieTypes)"
					},
					{
						"Type": "RTID(beach@ZombieTypes)"
					},
					{
						"Type": "RTID(iceage_gargantuar@ZombieTypes)"
					},
					{
						"Type": "RTID(west_bull@ZombieTypes)"
					},
					{
						"Type": "RTID(dark_juggler@ZombieTypes)"
					},
					{
						"Type": "RTID(chicken_farmer@ZombieTypes)"
					},
					{
						"Type": "RTID(tutorial_armor4@ZombieTypes)"
					},
					{
						"Type": "RTID(beach_armor1@ZombieTypes)"
					},
					{
						"Type": "RTID(beach@ZombieTypes)"
					},
					{
						"Type": "RTID(west_bull@ZombieTypes)"
					}
				]
			}
		},
		{
			"aliases": [
				"Wave30"
			],
			"objclass": "SpawnZombiesJitteredWaveActionProps",
			"objdata": {
				"Zombies": [
					{
						"Type": "RTID(chicken_farmer@ZombieTypes)"
					},
					{
						"Type": "RTID(beach_octopus@ZombieTypes)"
					},
					{
						"Type": "RTID(beach_armor1@ZombieTypes)"
					},
					{
						"Type": "RTID(tutorial_armor4@ZombieTypes)"
					},
					{
						"Type": "RTID(dino_bully_veteran@ZombieTypes)"
					},
					{
						"Type": "RTID(beach@ZombieTypes)"
					},
					{
						"Type": "RTID(iceage_gargantuar@ZombieTypes)"
					},
					{
						"Type": "RTID(west_bull@ZombieTypes)"
					},
					{
						"Type": "RTID(dark_juggler@ZombieTypes)"
					},
					{
						"Type": "RTID(chicken_farmer@ZombieTypes)"
					},
					{
						"Type": "RTID(tutorial_armor4@ZombieTypes)"
					},
					{
						"Type": "RTID(beach_armor1@ZombieTypes)"
					},
					{
						"Type": "RTID(beach@ZombieTypes)"
					},
					{
						"Type": "RTID(west_bull@ZombieTypes)"
					}
				]
			}
		},
		{
			"aliases": [
				"Wave31"
			],
			"objclass": "SpawnZombiesJitteredWaveActionProps",
			"objdata": {
				"Zombies": [
					{
						"Type": "RTID(chicken_farmer@ZombieTypes)"
					},
					{
						"Type": "RTID(beach_octopus@ZombieTypes)"
					},
					{
						"Type": "RTID(beach_armor1@ZombieTypes)"
					},
					{
						"Type": "RTID(tutorial_armor4@ZombieTypes)"
					},
					{
						"Type": "RTID(dino_bully_veteran@ZombieTypes)"
					},
					{
						"Type": "RTID(beach@ZombieTypes)"
					},
					{
						"Type": "RTID(iceage_gargantuar@ZombieTypes)"
					},
					{
						"Type": "RTID(west_bull@ZombieTypes)"
					},
					{
						"Type": "RTID(dark_juggler@ZombieTypes)"
					},
					{
						"Type": "RTID(chicken_farmer@ZombieTypes)"
					},
					{
						"Type": "RTID(tutorial_armor4@ZombieTypes)"
					},
					{
						"Type": "RTID(beach_armor1@ZombieTypes)"
					},
					{
						"Type": "RTID(beach@ZombieTypes)"
					},
					{
						"Type": "RTID(west_bull@ZombieTypes)"
					}
				]
			}
		},
		{
			"aliases": [
				"Wave32"
			],
			"objclass": "SpawnZombiesJitteredWaveActionProps",
			"objdata": {
				"AdditionalPlantfood": 0,
				"Zombies": [
					{
						"Type": "RTID(tutorial_armor4@ZombieTypes)"
					},
					{
						"Type": "RTID(chicken_farmer@ZombieTypes)"
					},
					{
						"Type": "RTID(beach_octopus@ZombieTypes)"
					},
					{
						"Type": "RTID(iceage_gargantuar@ZombieTypes)"
					},
					{
						"Type": "RTID(tutorial_armor4@ZombieTypes)"
					},
					{
						"Type": "RTID(beach_armor2@ZombieTypes)"
					},
					{
						"Type": "RTID(dino_bully_veteran@ZombieTypes)"
					},
					{
						"Type": "RTID(beach_armor2@ZombieTypes)"
					},
					{
						"Type": "RTID(beach_armor1@ZombieTypes)"
					},
					{
						"Type": "RTID(beach@ZombieTypes)"
					},
					{
						"Type": "RTID(dino_bully_veteran@ZombieTypes)"
					},
					{
						"Type": "RTID(beach_armor1@ZombieTypes)"
					},
					{
						"Type": "RTID(beach_armor2@ZombieTypes)"
					},
					{
						"Type": "RTID(west_bull@ZombieTypes)"
					}
				]
			}
		},
		{
			"aliases": [
				"Wave33"
			],
			"objclass": "SpawnZombiesJitteredWaveActionProps",
			"objdata": {
				"Zombies": [
					{
						"Type": "RTID(chicken_farmer@ZombieTypes)"
					},
					{
						"Type": "RTID(beach_octopus@ZombieTypes)"
					},
					{
						"Type": "RTID(beach_armor1@ZombieTypes)"
					},
					{
						"Type": "RTID(tutorial_armor4@ZombieTypes)"
					},
					{
						"Type": "RTID(dino_bully_veteran@ZombieTypes)"
					},
					{
						"Type": "RTID(beach@ZombieTypes)"
					},
					{
						"Type": "RTID(iceage_gargantuar@ZombieTypes)"
					},
					{
						"Type": "RTID(west_bull@ZombieTypes)"
					},
					{
						"Type": "RTID(dark_juggler@ZombieTypes)"
					},
					{
						"Type": "RTID(chicken_farmer@ZombieTypes)"
					},
					{
						"Type": "RTID(tutorial_armor4@ZombieTypes)"
					},
					{
						"Type": "RTID(beach_armor1@ZombieTypes)"
					},
					{
						"Type": "RTID(beach@ZombieTypes)"
					},
					{
						"Type": "RTID(west_bull@ZombieTypes)"
					}
				]
			}
		},
		{
			"aliases": [
				"Wave34"
			],
			"objclass": "SpawnZombiesJitteredWaveActionProps",
			"objdata": {
				"Zombies": [
					{
						"Type": "RTID(chicken_farmer@ZombieTypes)"
					},
					{
						"Type": "RTID(beach_octopus@ZombieTypes)"
					},
					{
						"Type": "RTID(beach_armor1@ZombieTypes)"
					},
					{
						"Type": "RTID(tutorial_armor4@ZombieTypes)"
					},
					{
						"Type": "RTID(dino_bully_veteran@ZombieTypes)"
					},
					{
						"Type": "RTID(beach@ZombieTypes)"
					},
					{
						"Type": "RTID(iceage_gargantuar@ZombieTypes)"
					},
					{
						"Type": "RTID(west_bull@ZombieTypes)"
					},
					{
						"Type": "RTID(dark_juggler@ZombieTypes)"
					},
					{
						"Type": "RTID(chicken_farmer@ZombieTypes)"
					},
					{
						"Type": "RTID(tutorial_armor4@ZombieTypes)"
					},
					{
						"Type": "RTID(beach_armor1@ZombieTypes)"
					},
					{
						"Type": "RTID(beach@ZombieTypes)"
					},
					{
						"Type": "RTID(west_bull@ZombieTypes)"
					}
				]
			}
		},
		{
			"aliases": [
				"Wave35"
			],
			"objclass": "SpawnZombiesJitteredWaveActionProps",
			"objdata": {
				"Zombies": [
					{
						"Type": "RTID(chicken_farmer@ZombieTypes)"
					},
					{
						"Type": "RTID(beach_octopus@ZombieTypes)"
					},
					{
						"Type": "RTID(beach_armor1@ZombieTypes)"
					},
					{
						"Type": "RTID(tutorial_armor4@ZombieTypes)"
					},
					{
						"Type": "RTID(dino_bully_veteran@ZombieTypes)"
					},
					{
						"Type": "RTID(beach@ZombieTypes)"
					},
					{
						"Type": "RTID(iceage_gargantuar@ZombieTypes)"
					},
					{
						"Type": "RTID(west_bull@ZombieTypes)"
					},
					{
						"Type": "RTID(dark_juggler@ZombieTypes)"
					},
					{
						"Type": "RTID(chicken_farmer@ZombieTypes)"
					},
					{
						"Type": "RTID(tutorial_armor4@ZombieTypes)"
					},
					{
						"Type": "RTID(beach_armor1@ZombieTypes)"
					},
					{
						"Type": "RTID(beach@ZombieTypes)"
					},
					{
						"Type": "RTID(west_bull@ZombieTypes)"
					}
				]
			}
		},
		{
			"aliases": [
				"Wave36"
			],
			"objclass": "SpawnZombiesJitteredWaveActionProps",
			"objdata": {
				"AdditionalPlantfood": 0,
				"Zombies": [
					{
						"Type": "RTID(tutorial_armor4@ZombieTypes)"
					},
					{
						"Type": "RTID(beach_octopus@ZombieTypes)"
					},
					{
						"Type": "RTID(beach@ZombieTypes)"
					},
					{
						"Type": "RTID(iceage_gargantuar@ZombieTypes)"
					},
					{
						"Type": "RTID(west_bull@ZombieTypes)"
					},
					{
						"Type": "RTID(tutorial_armor4@ZombieTypes)"
					},
					{
						"Type": "RTID(dino_bully_veteran@ZombieTypes)"
					},
					{
						"Type": "RTID(beach_armor1@ZombieTypes)"
					},
					{
						"Type": "RTID(chicken_farmer@ZombieTypes)"
					},
					{
						"Type": "RTID(beach@ZombieTypes)"
					},
					{
						"Type": "RTID(iceage_gargantuar@ZombieTypes)"
					},
					{
						"Type": "RTID(beach_armor2@ZombieTypes)"
					},
					{
						"Type": "RTID(west_bull@ZombieTypes)"
					},
					{
						"Type": "RTID(beach@ZombieTypes)"
					},
					{
						"Type": "RTID(dark_juggler@ZombieTypes)"
					},
					{
						"Type": "RTID(chicken_farmer@ZombieTypes)"
					}
				]
			}
		}
	],
	"version": 1
}