{
	"#comment": "Scoring Playtest - Right Gradient - No Quickstart",
	"objects": [
		{
			"objclass": "LevelDefinition",
			"objdata": {
				"Description": "",
				"DisablePlantBoosts": true,
				"GridItemLevel": 1,
				"LevelNumber": 1,
				"LevelPowerupSet": "LevelPowerupsDisabled",
				"Loot": "RTID(NoLoot@LevelModules)",
				"LossModule": "RTID(JoustOutro@LevelModules)",
				"Modules": [
					"RTID(FastSunDropper@LevelModules)",
					"RTID(ZombiesDeadWinCon@LevelModules)",
					"RTID(JoustDarkMowers@LevelModules)",
					"RTID(SeedBank@CurrentLevel)",
					"RTID(JoustZombieWinCondition@LevelModules)",
					"RTID(NewWaves@CurrentLevel)",
					"RTID(LevelScoring@CurrentLevel)",
					"RTID(ScoreTilesAndTraps@CurrentLevel)",
					"RTID(ChallengeModule@CurrentLevel)",
					"RTID(LastStand@CurrentLevel)",
					"RTID(LevelDifficultyScaling@CurrentLevel)",
					"RTID(JoustModule@CurrentLevel)",
					"RTID(JoustPointOfLoss@LevelModules)",
					"RTID(SeedPacketHalfTimeModule@LevelModules)",
					"RTID(ZombossBattle@CurrentLevel)",
					"RTID(FutureLinkedTileGroups@CurrentLevel)",
					"RTID(ZombieResistances@CurrentLevel)"
				],
				"Name": "",
				"NormalPresentTable": "dark_normal_01",
				"ShinyPresentTable": "dark_shiny_01",
				"StageModule": "RTID(JoustStage@LevelModules)",
				"SuppressAccountUpgrades": true,
				"SuppressDynamicTutorial": true,
				"SuppressPlantfoodPurchase": true,
				"VictoryModule": "RTID(JoustOutro@LevelModules)"
			}
		},
		{
			"aliases": [
				"ZombieResistances"
			],
			"objclass": "ZombieResistancesModuleProperties",
			"objdata": {
				"FamilyResistances": {
					"global": [
						{
							"#comment": "200% damage and condition",
							"ConditionResistance": 2,
							"DamageResistance": 2,
							"FamilyType": "spearmint"
						},
						{
							"#comment": "150% damage and condition",
							"ConditionResistance": 0.5,
							"DamageResistance": 0.5,
							"FamilyType": "wintermint"
						},
						{
							"#comment": "0% damage and condition",
							"ConditionResistance": 0.5,
							"DamageResistance": 0.5,
							"FamilyType": "appeasemint"
						}
					]
				}
			}
		},
		{
			"aliases": [
				"ZombossBattle"
			],
			"objclass": "ZombossBattleModuleProperties",
			"objdata": {
				"ReservedColumnCount": 2,
				"ShowInStreetView": true,
				"ZombossDeathColumn": 5,
				"ZombossDeathRow": 3,
				"ZombossMechType": "zombossmech_future_battlez",
				"ZombossSpawnGridPosition": {
					"mX": 6,
					"mY": 3
				}
			}
		},
		{
			"aliases": [
				"DoNotPlantBeforeLine"
			],
			"objclass": "MoldColonyChallengeProps",
			"objdata": {
				"Locations": "RTID(Column6_To_Column8@BoardGridMaps)"
			}
		},
		{
			"aliases": [
				"FutureLinkedTileGroups"
			],
			"objclass": "PowerTileProperties",
			"objdata": {
				"LinkedTiles": [
					{
						"Group": "gamma",
						"Location": {
							"mX": 0,
							"mY": 0
						},
						"PropagationDelay": 1.5
					},
					{
						"Group": "gamma",
						"Location": {
							"mX": 0,
							"mY": 4
						},
						"PropagationDelay": 1.5
					}
				]
			}
		},
		{
			"aliases": [
				"SeedBank"
			],
			"objclass": "SeedBankProperties",
			"objdata": {
				"PlantExcludeList": [
					"blover"
				],
				"PresetPlantList": [
					{
						"Level": -1,
						"PlantType": "dartichoke"
					}
				],
				"SelectionMethod": "chooser"
			}
		},
		{
			"aliases": [
				"JoustModule"
			],
			"objclass": "JoustGameModuleProperties",
			"objdata": {
				"LeagueModifiers": [
					{
						"AddTimeLimit": 0,
						"AddZombieLevel": 0,
						"LeagueThreshold": 1
					},
					{
						"AddTimeLimit": 0,
						"AddZombieLevel": 1,
						"LeagueThreshold": 2
					},
					{
						"AddTimeLimit": 0,
						"AddZombieLevel": 2,
						"LeagueThreshold": 3
					},
					{
						"AddTimeLimit": 0,
						"AddZombieLevel": 3,
						"LeagueThreshold": 4
					},
					{
						"AddTimeLimit": 0,
						"AddZombieLevel": 4,
						"LeagueThreshold": 5
					},
					{
						"AddTimeLimit": 0,
						"AddZombieLevel": 5,
						"LeagueThreshold": 6
					},
					{
						"AddTimeLimit": 0,
						"AddZombieLevel": 6,
						"LeagueThreshold": 7
					},
					{
						"AddTimeLimit": 0,
						"AddZombieLevel": 7,
						"LeagueThreshold": 8
					},
					{
						"AddTimeLimit": 0,
						"AddZombieLevel": 8,
						"LeagueThreshold": 9
					}
				],
				"LevelLoadouts": {
					"Loadouts": [
						[
							{
								"IsImitater": false,
								"PlantLevel": 0,
								"PlantType": "dartichoke"
							},
							{
								"IsImitater": false,
								"PlantLevel": 0,
								"PlantType": "explodeonut"
							},
							{
								"IsImitater": false,
								"PlantLevel": 0,
								"PlantType": "laser_bean"
							},
							{
								"IsImitater": false,
								"PlantLevel": 0,
								"PlantType": "kernelpult"
							},
							{
								"IsImitater": false,
								"PlantLevel": 0,
								"PlantType": "spearmint"
							},
							{
								"IsImitater": false,
								"PlantLevel": 0,
								"PlantType": "peppermint"
							}
						],
						[
							{
								"IsImitater": false,
								"PlantLevel": 0,
								"PlantType": "dartichoke"
							},
							{
								"IsImitater": false,
								"PlantLevel": 0,
								"PlantType": "explodeonut"
							},
							{
								"IsImitater": false,
								"PlantLevel": 0,
								"PlantType": "powerlily"
							},
							{
								"IsImitater": false,
								"PlantLevel": 0,
								"PlantType": "spearmint"
							},
							{
								"IsImitater": false,
								"PlantLevel": 0,
								"PlantType": "bloomerang"
							},
							{
								"IsImitater": false,
								"PlantLevel": 0,
								"PlantType": "filamint"
							}
						],
						[
							{
								"IsImitater": false,
								"PlantLevel": 0,
								"PlantType": "dartichoke"
							},
							{
								"IsImitater": false,
								"PlantLevel": 0,
								"PlantType": "holonut"
							},
							{
								"IsImitater": false,
								"PlantLevel": 0,
								"PlantType": "concealmint"
							},
							{
								"IsImitater": false,
								"PlantLevel": 0,
								"PlantType": "moonflower"
							},
							{
								"IsImitater": false,
								"PlantLevel": 0,
								"PlantType": "shadowpeashooter"
							},
							{
								"IsImitater": false,
								"PlantLevel": 0,
								"PlantType": "powerlily"
							}
						]
					]
				},
				"PeriodOfWavesToLoop": 3,
				"TimeLimit": 120,
				"WaveSetsToAppend": 30
			}
		},
		{
			"aliases": [
				"LevelDifficultyScaling"
			],
			"objclass": "LevelDifficultyScalingModuleProperties",
			"objdata": {
				"DifficultyRulesType": "DifficultyTestHighDecay",
				"ZombieLevelSwaps": [
					{
						"Level": 3,
						"Swaps": [
							{
								"From": "RTID(beach_octopus@ZombieTypes)",
								"To": [
									"RTID(eighties_punk@ZombieTypes)"
								]
							}
						]
					},
					{
						"Level": 6,
						"Swaps": [
							{
								"From": "RTID(beach_octopus@ZombieTypes)",
								"To": [
									"RTID(eighties_punk@ZombieTypes)",
									"RTID(beach_octopus@ZombieTypes)"
								]
							}
						]
					},
					{
						"Level": 8,
						"Swaps": [
							{
								"From": "RTID(beach_octopus@ZombieTypes)",
								"To": [
									"RTID(beach_octopus@ZombieTypes)"
								]
							}
						]
					}
				]
			}
		},
		{
			"aliases": [
				"ChallengeModule"
			],
			"objclass": "StarChallengeModuleProperties",
			"objdata": {
				"Challenges": [
					[
						"RTID(BeatTheLevel@CurrentLevel)",
						"RTID(ReachTheScore@CurrentLevel)",
						"RTID(DoNotPlantBeforeLine@CurrentLevel)"
					]
				],
				"ChallengesAlwaysAvailable": true
			}
		},
		{
			"aliases": [
				"ReachTheScore"
			],
			"objclass": "StarChallengeTargetScoreProps",
			"objdata": {
				"Description": "[STARCHALLENGE_TARGET_SCORE]",
				"DescriptionFailure": "[STARCHALLENGE_TARGET_SCORE_FAILURE]",
				"DescriptiveName": "[STARCHALLENGE_TARGET_SCORE_NAME]",
				"TargetScore": 1000
			}
		},
		{
			"aliases": [
				"BeatTheLevel"
			],
			"objclass": "StarChallengeBeatTheLevelProps",
			"objdata": {
				"Description": "[STARCHALLENGE_LASTSTAND_MINIGAME]",
				"DescriptiveName": "[STARCHALLENGE_LASTSTAND_MINIGAME_NAME]"
			}
		},
		{
			"aliases": [
				"LastStand"
			],
			"objclass": "LastStandMinigameProperties",
			"objdata": {
				"StartingPlantfood": 1,
				"StartingSun": 1600
			}
		},
		{
			"aliases": [
				"LevelScoring"
			],
			"objclass": "LevelScoringModuleProperties",
			"objdata": {
				"PlantBonusMultiplier": 0.1,
				"PlantBonuses": [],
				"ScoringRulesType": "ZombossBattlez",
				"StartingPlantfood": 1
			}
		},
		{
			"aliases": [
				"ScoreTilesAndTraps"
			],
			"objclass": "InitialGridItemProperties",
			"objdata": {
				"InitialGridItemPlacements": [
					{
						"GridX": 8,
						"GridY": 0,
						"TypeName": "score_5x_tile"
					},
					{
						"GridX": 8,
						"GridY": 1,
						"TypeName": "score_5x_tile"
					},
					{
						"GridX": 8,
						"GridY": 2,
						"TypeName": "score_5x_tile"
					},
					{
						"GridX": 8,
						"GridY": 3,
						"TypeName": "score_5x_tile"
					},
					{
						"GridX": 8,
						"GridY": 4,
						"TypeName": "score_5x_tile"
					},
					{
						"GridX": 7,
						"GridY": 0,
						"TypeName": "score_5x_tile"
					},
					{
						"GridX": 7,
						"GridY": 1,
						"TypeName": "score_5x_tile"
					},
					{
						"GridX": 7,
						"GridY": 2,
						"TypeName": "score_5x_tile"
					},
					{
						"GridX": 7,
						"GridY": 3,
						"TypeName": "score_5x_tile"
					},
					{
						"GridX": 7,
						"GridY": 4,
						"TypeName": "score_5x_tile"
					},
					{
						"GridX": 6,
						"GridY": 0,
						"TypeName": "score_3x_tile"
					},
					{
						"GridX": 6,
						"GridY": 1,
						"TypeName": "score_3x_tile"
					},
					{
						"GridX": 6,
						"GridY": 2,
						"TypeName": "score_3x_tile"
					},
					{
						"GridX": 6,
						"GridY": 3,
						"TypeName": "score_3x_tile"
					},
					{
						"GridX": 6,
						"GridY": 4,
						"TypeName": "score_3x_tile"
					},
					{
						"GridX": 5,
						"GridY": 0,
						"TypeName": "score_3x_tile"
					},
					{
						"GridX": 5,
						"GridY": 1,
						"TypeName": "score_3x_tile"
					},
					{
						"GridX": 5,
						"GridY": 2,
						"TypeName": "score_3x_tile"
					},
					{
						"GridX": 5,
						"GridY": 3,
						"TypeName": "score_3x_tile"
					},
					{
						"GridX": 5,
						"GridY": 4,
						"TypeName": "score_3x_tile"
					},
					{
						"GridX": 4,
						"GridY": 0,
						"TypeName": "score_2x_tile"
					},
					{
						"GridX": 4,
						"GridY": 1,
						"TypeName": "score_2x_tile"
					},
					{
						"GridX": 4,
						"GridY": 2,
						"TypeName": "score_2x_tile"
					},
					{
						"GridX": 4,
						"GridY": 3,
						"TypeName": "score_2x_tile"
					},
					{
						"GridX": 4,
						"GridY": 4,
						"TypeName": "score_2x_tile"
					},
					{
						"GridX": 3,
						"GridY": 0,
						"TypeName": "score_2x_tile"
					},
					{
						"GridX": 3,
						"GridY": 1,
						"TypeName": "score_2x_tile"
					},
					{
						"GridX": 3,
						"GridY": 2,
						"TypeName": "score_2x_tile"
					},
					{
						"GridX": 3,
						"GridY": 3,
						"TypeName": "score_2x_tile"
					},
					{
						"GridX": 3,
						"GridY": 4,
						"TypeName": "score_2x_tile"
					}
				]
			}
		},
		{
			"aliases": [
				"NewWaves"
			],
			"objclass": "WaveManagerModuleProperties",
			"objdata": {
				"DynamicZombies": [
					{
						"PointIncrementPerWave": -1,
						"StartingPoints": -1,
						"StartingWave": 3,
						"ZombiePool": [
							"RTID(beach_octopus@ZombieTypes)",
							"RTID(dino_armor3@ZombieTypes)",
							"RTID(eighties_punk@ZombieTypes)",
							"RTID(poncho@ZombieTypes)"
						]
					},
					{
						"PointIncrementPerWave": -1,
						"StartingPoints": -1,
						"StartingWave": 4,
						"ZombiePool": [
							"RTID(beach_octopus@ZombieTypes)",
							"RTID(dino_armor3@ZombieTypes)",
							"RTID(eighties_punk@ZombieTypes)",
							"RTID(poncho@ZombieTypes)"
						]
					},
					{
						"PointIncrementPerWave": -1,
						"StartingPoints": -1,
						"StartingWave": 5,
						"ZombiePool": [
							"RTID(beach_octopus@ZombieTypes)",
							"RTID(dino_armor3@ZombieTypes)",
							"RTID(eighties_punk@ZombieTypes)",
							"RTID(poncho@ZombieTypes)"
						]
					},
					{
						"MaxPoints": 2500,
						"PointIncrementPerWave": 225,
						"StartingPoints": 900,
						"StartingWave": 2,
						"ZombiePool": [
							"RTID(beach_octopus@ZombieTypes)",
							"RTID(dino_armor3@ZombieTypes)",
							"RTID(eighties_punk@ZombieTypes)",
							"RTID(poncho@ZombieTypes)"
						]
					},
					{
						"PointIncrementPerWave": 1,
						"StartingPoints": 1,
						"StartingWave": 5,
						"ZombiePool": [
							"RTID(beach_octopus@ZombieTypes)",
							"RTID(dino_armor3@ZombieTypes)",
							"RTID(eighties_punk@ZombieTypes)",
							"RTID(poncho@ZombieTypes)"
						]
					},
					{
						"PointIncrementPerWave": 1,
						"StartingPoints": 1,
						"StartingWave": 4,
						"ZombiePool": [
							"RTID(beach_octopus@ZombieTypes)",
							"RTID(dino_armor3@ZombieTypes)",
							"RTID(eighties_punk@ZombieTypes)",
							"RTID(poncho@ZombieTypes)"
						]
					},
					{
						"PointIncrementPerWave": 1,
						"StartingPoints": 1,
						"StartingWave": 3,
						"ZombiePool": [
							"RTID(beach_octopus@ZombieTypes)",
							"RTID(dino_armor3@ZombieTypes)",
							"RTID(eighties_punk@ZombieTypes)",
							"RTID(poncho@ZombieTypes)"
						]
					}
				],
				"WaveManagerProps": "RTID(WaveManagerProps@CurrentLevel)"
			}
		},
		{
			"aliases": [
				"WaveManagerProps"
			],
			"objclass": "WaveManagerProperties",
			"objdata": {
				"FlagWaveInterval": 100,
				"WaveCount": 100,
				"WaveSpendingPointIncrement": 200,
				"WaveSpendingPoints": 1000,
				"Waves": [
					[
						"RTID(Wave1@CurrentLevel)"
					],
					[
						"RTID(Wave2@CurrentLevel)",
						"RTID(Wave2SunDropperEvent0@CurrentLevel)"
					],
					[
						"RTID(Wave3@CurrentLevel)",
						"RTID(Wave3GravestoneEvent0@CurrentLevel)"
					],
					[
						"RTID(Wave4@CurrentLevel)",
						"RTID(Wave4SunDropperEvent0@CurrentLevel)"
					],
					[
						"RTID(Wave5@CurrentLevel)",
						"RTID(Wave5GravestoneEvent0@CurrentLevel)"
					],
					[
						"RTID(Wave6@CurrentLevel)",
						"RTID(Wave6SunDropperEvent0@CurrentLevel)"
					],
					[
						"RTID(Wave7@CurrentLevel)",
						"RTID(Wave7GravestoneEvent0@CurrentLevel)"
					],
					[
						"RTID(Wave8@CurrentLevel)",
						"RTID(Wave8SunDropperEvent0@CurrentLevel)"
					],
					[
						"RTID(Wave9@CurrentLevel)",
						"RTID(Wave9GravestoneEvent0@CurrentLevel)"
					],
					[
						"RTID(Wave10@CurrentLevel)",
						"RTID(Wave10DinoTimeEvent0@CurrentLevel)",
						"RTID(Wave10DinoTimeEvent1@CurrentLevel)",
						"RTID(Wave10SunDropperEvent0@CurrentLevel)"
					]
				],
				"WavesAlwaysRandomized": true
			}
		},
		{
			"aliases": [
				"Wave1"
			],
			"objclass": "SpawnZombiesJitteredWaveActionProps",
			"objdata": {
				"ForcedCondition": {
					"Condition": "hasplantfood",
					"Duration": 12
				},
				"Zombies": [
					{
						"Type": "RTID(dino_armor4@ZombieTypes)"
					}
				]
			}
		},
		{
			"aliases": [
				"Wave2"
			],
			"objclass": "SpawnZombiesJitteredWaveActionProps",
			"objdata": {
				"ForcedCondition": {
					"Condition": "hasplantfood",
					"Duration": 10
				},
				"Zombies": [
					{
						"Type": "RTID(dino_armor4@ZombieTypes)"
					}
				]
			}
		},
		{
			"aliases": [
				"Wave3"
			],
			"objclass": "SpawnZombiesJitteredWaveActionProps",
			"objdata": {
				"ForcedCondition": {
					"Condition": "hasplantfood",
					"Duration": 6
				},
				"Zombies": [
					{
						"Type": "RTID(west_bull@ZombieTypes)"
					}
				]
			}
		},
		{
			"aliases": [
				"Wave4"
			],
			"objclass": "SpawnZombiesJitteredWaveActionProps",
			"objdata": {
				"ForcedCondition": {
					"Condition": "hasplantfood",
					"Duration": 6
				},
				"Zombies": [
					{
						"Type": "RTID(newspaper_veteran@ZombieTypes)"
					}
				]
			}
		},
		{
			"aliases": [
				"Wave5"
			],
			"objclass": "SpawnZombiesJitteredWaveActionProps",
			"objdata": {
				"ForcedCondition": {
					"Condition": "hasplantfood",
					"Duration": 6
				},
				"Zombies": [
					{
						"Row": "3",
						"Type": "RTID(newspaper_veteran@ZombieTypes)"
					}
				]
			}
		},
		{
			"aliases": [
				"Wave6"
			],
			"objclass": "SpawnZombiesJitteredWaveActionProps",
			"objdata": {
				"ForcedCondition": {
					"Condition": "hasplantfood",
					"Duration": 6
				},
				"Zombies": [
					{
						"Row": "5",
						"Type": "RTID(dino_armor4@ZombieTypes)"
					},
					{
						"Row": "1",
						"Type": "RTID(dino_armor4@ZombieTypes)"
					}
				]
			}
		},
		{
			"aliases": [
				"Wave7"
			],
			"objclass": "SpawnZombiesJitteredWaveActionProps",
			"objdata": {
				"ForcedCondition": {
					"Condition": "hasplantfood",
					"Duration": 5
				},
				"Zombies": [
					{
						"Row": "4",
						"Type": "RTID(newspaper_veteran@ZombieTypes)"
					},
					{
						"Type": "RTID(dino_armor4@ZombieTypes)"
					}
				]
			}
		},
		{
			"aliases": [
				"Wave8"
			],
			"objclass": "SpawnZombiesJitteredWaveActionProps",
			"objdata": {
				"ForcedCondition": {
					"Condition": "hasplantfood",
					"Duration": 4
				},
				"Zombies": [
					{
						"Row": "1",
						"Type": "RTID(west_bull@ZombieTypes)"
					},
					{
						"Row": "5",
						"Type": "RTID(west_bull@ZombieTypes)"
					},
					{
						"Type": "RTID(dino_armor4@ZombieTypes)"
					}
				]
			}
		},
		{
			"aliases": [
				"Wave9"
			],
			"objclass": "SpawnZombiesJitteredWaveActionProps",
			"objdata": {
				"ForcedCondition": {
					"Condition": "hasplantfood",
					"Duration": 3
				},
				"Zombies": [
					{
						"Row": "3",
						"Type": "RTID(west_bull@ZombieTypes)"
					},
					{
						"Row": "1",
						"Type": "RTID(newspaper_veteran@ZombieTypes)"
					},
					{
						"Row": "5",
						"Type": "RTID(newspaper_veteran@ZombieTypes)"
					}
				]
			}
		},
		{
			"aliases": [
				"Wave10"
			],
			"objclass": "SpawnZombiesJitteredWaveActionProps",
			"objdata": {
				"ForcedCondition": {
					"Condition": "hasplantfood",
					"Duration": 3
				},
				"Zombies": [
					{
						"Type": "RTID(newspaper_veteran@ZombieTypes)"
					},
					{
						"Type": "RTID(west_bull@ZombieTypes)"
					},
					{
						"Type": "RTID(dino_armor4@ZombieTypes)"
					}
				]
			}
		},
		{
			"aliases": [
				"Wave3GravestoneEvent0"
			],
			"objclass": "SpawnGravestonesWaveActionProps",
			"objdata": {
				"DisplacePlants": false,
				"GravestonePool": [
					{
						"Count": 4,
						"Type": "RTID(powertile_gamma@GridItemTypes)"
					}
				],
				"RandomPlacement": false,
				"SpawnEffectAnimID": "POPANIM_EFFECTS_TOMBSTONE_DARK_SPAWN_EFFECT",
				"SpawnPositionsPool": [
					{
						"mX": 0,
						"mY": 0
					},
					{
						"mX": 1,
						"mY": 0
					},
					{
						"mX": 0,
						"mY": 4
					},
					{
						"mX": 1,
						"mY": 4
					}
				],
				"SpawnSoundID": "Play_Zomb_Egypt_TombRaiser_Grave_Rise"
			}
		},
		{
			"aliases": [
				"Wave5GravestoneEvent0"
			],
			"objclass": "SpawnGravestonesWaveActionProps",
			"objdata": {
				"DisplacePlants": false,
				"GravestonePool": [
					{
						"Count": 6,
						"Type": "RTID(powertile_gamma@GridItemTypes)"
					}
				],
				"RandomPlacement": false,
				"SpawnEffectAnimID": "POPANIM_EFFECTS_TOMBSTONE_DARK_SPAWN_EFFECT",
				"SpawnPositionsPool": [
					{
						"mX": 0,
						"mY": 0
					},
					{
						"mX": 1,
						"mY": 0
					},
					{
						"mX": 2,
						"mY": 0
					},
					{
						"mX": 0,
						"mY": 4
					},
					{
						"mX": 1,
						"mY": 4
					},
					{
						"mX": 2,
						"mY": 4
					}
				],
				"SpawnSoundID": "Play_Zomb_Egypt_TombRaiser_Grave_Rise"
			}
		},
		{
			"aliases": [
				"Wave7GravestoneEvent0"
			],
			"objclass": "SpawnGravestonesWaveActionProps",
			"objdata": {
				"DisplacePlants": false,
				"GravestonePool": [
					{
						"Count": 8,
						"Type": "RTID(powertile_gamma@GridItemTypes)"
					}
				],
				"RandomPlacement": false,
				"SpawnEffectAnimID": "POPANIM_EFFECTS_TOMBSTONE_DARK_SPAWN_EFFECT",
				"SpawnPositionsPool": [
					{
						"mX": 0,
						"mY": 0
					},
					{
						"mX": 1,
						"mY": 0
					},
					{
						"mX": 2,
						"mY": 0
					},
					{
						"mX": 1,
						"mY": 1
					},
					{
						"mX": 0,
						"mY": 4
					},
					{
						"mX": 1,
						"mY": 4
					},
					{
						"mX": 2,
						"mY": 4
					},
					{
						"mX": 1,
						"mY": 3
					}
				],
				"SpawnSoundID": "Play_Zomb_Egypt_TombRaiser_Grave_Rise"
			}
		},
		{
			"aliases": [
				"Wave9GravestoneEvent0"
			],
			"objclass": "SpawnGravestonesWaveActionProps",
			"objdata": {
				"DisplacePlants": false,
				"GravestonePool": [
					{
						"Count": 9,
						"Type": "RTID(powertile_gamma@GridItemTypes)"
					}
				],
				"RandomPlacement": false,
				"SpawnEffectAnimID": "POPANIM_EFFECTS_TOMBSTONE_DARK_SPAWN_EFFECT",
				"SpawnPositionsPool": [
					{
						"mX": 0,
						"mY": 0
					},
					{
						"mX": 1,
						"mY": 0
					},
					{
						"mX": 2,
						"mY": 0
					},
					{
						"mX": 1,
						"mY": 1
					},
					{
						"mX": 0,
						"mY": 4
					},
					{
						"mX": 1,
						"mY": 4
					},
					{
						"mX": 2,
						"mY": 4
					},
					{
						"mX": 1,
						"mY": 3
					},
					{
						"mX": 0,
						"mY": 2
					}
				],
				"SpawnSoundID": "Play_Zomb_Egypt_TombRaiser_Grave_Rise"
			}
		},
		{
			"aliases": [
				"Wave2SunDropperEvent0"
			],
			"objclass": "SunDropperWaveActionProps",
			"objdata": {
				"SunAmountToDrop": 50
			}
		},
		{
			"aliases": [
				"Wave4SunDropperEvent0"
			],
			"objclass": "SunDropperWaveActionProps",
			"objdata": {
				"SunAmountToDrop": 50
			}
		},
		{
			"aliases": [
				"Wave6SunDropperEvent0"
			],
			"objclass": "SunDropperWaveActionProps",
			"objdata": {
				"SunAmountToDrop": 50
			}
		},
		{
			"aliases": [
				"Wave8SunDropperEvent0"
			],
			"objclass": "SunDropperWaveActionProps",
			"objdata": {
				"SunAmountToDrop": 50
			}
		},
		{
			"aliases": [
				"Wave10SunDropperEvent0"
			],
			"objclass": "SunDropperWaveActionProps",
			"objdata": {
				"SunAmountToDrop": 50
			}
		},
		{
			"aliases": [
				"Wave10DinoTimeEvent0"
			],
			"objclass": "DinoWaveActionProps",
			"objdata": {
				"DinoRow": 1,
				"DinoType": "tyranno",
				"DinoWaveDuration": "6"
			}
		},
		{
			"aliases": [
				"Wave10DinoTimeEvent1"
			],
			"objclass": "DinoWaveActionProps",
			"objdata": {
				"DinoRow": 3,
				"DinoType": "tyranno",
				"DinoWaveDuration": "6"
			}
		}
	],
	"version": 1
}