{
	"#comment": "Rift Future 11",
	"objects": [
		{
			"objclass": "LevelDefinition",
			"objdata": {
				"Description": "[PLAYERS_TRIP_TO_RIFT]",
				"LevelNumber": 11,
				"DisablePlantBoosts": false,
				"Loot": "",
				"Modules": [
					"RTID(ZombiesDeadWinCon@LevelModules)",
					"RTID(FutureMowers@LevelModules)",
					"RTID(SeedBank@CurrentLevel)",
					"RTID(DefaultZombieWinCondition@LevelModules)",
					"RTID(NewWaves@CurrentLevel)",
					"RTID(PerkActivator@CurrentLevel)",
					"RTID(LevelDifficultyScaling@CurrentLevel)",
					"RTID(LastStand@CurrentLevel)",
					"RTID(FutureLinkedTileGroups@CurrentLevel)"
				],
				"MusicType": "MiniGame_A",
				"Name": "[RIFT_LEVEL_NAME]",
				"NormalPresentTable": "future_normal_01",
				"ShinyPresentTable": "future_shiny_01",
				"VictoryModule": "RTID(RiftOutro@LevelModules)",
				"StageModule": "RTID(FutureStage@LevelModules)",
				"LevelMutator": "RTID(LevelMutator@CurrentLevel)",
				"PerksDisabledInLevel": [
					"moarscore",
					"bossbustercannon",
					"quickdelivery",
					"zombieinhibitorballista"
				],
				"PerksDisabledPerDifficulty": [
					[],
					[],
					[]
				]
			}
		},
		{
			"aliases": [
				"LastStand"
			],
			"objclass": "LastStandMinigameProperties",
			"objdata": {
				"PreSeedchooserFlow": "rift",
				"StartingPlantfood": 3,
				"StartingSun": 2750
			}
		},
		{
			"aliases": [
				"FutureLinkedTileGroups"
			],
			"objclass": "PowerTileProperties",
			"objdata": {
				"LinkedTiles": [
					{
						"Group": "alpha",
						"Location": {
							"mX": 1,
							"mY": 0
						},
						"PropagationDelay": 1.5
					},
					{
						"Group": "alpha",
						"Location": {
							"mX": 0,
							"mY": 1
						},
						"PropagationDelay": 1.5
					},
					{
						"Group": "beta",
						"Location": {
							"mX": 0,
							"mY": 2
						},
						"PropagationDelay": 0.25
					},
					{
						"Group": "beta",
						"Location": {
							"mX": 2,
							"mY": 2
						},
						"PropagationDelay": 0.25
					},
					{
						"Group": "delta",
						"Location": {
							"mX": 2,
							"mY": 3
						},
						"PropagationDelay": 1.5
					},
					{
						"Group": "delta",
						"Location": {
							"mX": 1,
							"mY": 4
						},
						"PropagationDelay": 1.5
					}
				]
			}
		},
		{
			"aliases": [
				"PerkActivator"
			],
			"objclass": "PerkHandlerModuleProperties",
			"objdata": {}
		},
		{
			"aliases": [
				"LevelMutator"
			],
			"objclass": "LevelMutatorModuleProperties",
			"objdata": {
				"MutatorTables": [
					"RTID(MutatorPropsRift_Future@LevelMutatorTables)",
					"RTID(LocalChallengeMutator@CurrentLevel)",
					"RTID(LocalMainChallengeMutator@CurrentLevel)"
				]
			}
		},
		{
			"aliases": [
				"LocalMainChallengeMutator"
			],
			"objclass": "LevelMutatorTableProps",
			"objdata": {
				"Tables": [
					{
						"Level": 0,
						"Modules": [
							"RTID(BeatTheLevel@CurrentLevel)"
						],
						"ModuleType": "mainchallenge"
					},
					{
						"Level": 1,
						"Modules": [
							"RTID(BeatTheLevel@CurrentLevel)"
						],
						"ModuleType": "mainchallenge"
					},
					{
						"Level": 2,
						"Modules": [
							"RTID(BeatTheLevel@CurrentLevel)"
						],
						"ModuleType": "mainchallenge"
					}
				]
			}
		},
		{
			"aliases": [
				"BeatTheLevel"
			],
			"objclass": "StarChallengeBeatTheLevelProps",
			"objdata": {
				"Description": "[STARCHALLENGE_LASTSTAND_MINIGAME]",
				"DescriptiveName": "[STARCHALLENGE_LASTSTAND_MINIGAME_NAME]"
			}
		},
		{
			"aliases": [
				"LocalChallengeMutator"
			],
			"objclass": "LevelMutatorTableProps",
			"objdata": {
				"Tables": [
					{
						"Level": 0,
						"Modules": [
							"RTID(ZombieDistance1@CurrentLevel)"
						],
						"ModuleType": "bonuschallenge"
					},
					{
						"Level": 1,
						"Modules": [
							"RTID(ZombieDistance2@CurrentLevel)",
							"RTID(ApplyZombieConditions2@CurrentLevel)"
						],
						"ModuleType": "bonuschallenge"
					},
					{
						"Level": 2,
						"Modules": [
							"RTID(ZombieDistance3@CurrentLevel)",
							"RTID(ApplyZombieConditions3@CurrentLevel)"
						],
						"ModuleType": "bonuschallenge"
					}
				]
			}
		},
		{
			"aliases": [
				"ZombieDistance1"
			],
			"objclass": "StarChallengeZombieDistanceProps",
			"objdata": {
				"TargetDistance": 2
			}
		},
		{
			"aliases": [
				"ZombieDistance2"
			],
			"objclass": "StarChallengeZombieDistanceProps",
			"objdata": {
				"TargetDistance": 2
			}
		},
		{
			"aliases": [
				"ZombieDistance3"
			],
			"objclass": "StarChallengeZombieDistanceProps",
			"objdata": {
				"TargetDistance": 3
			}
		},
		{
			"aliases": [
				"ApplyZombieConditions2"
			],
			"objclass": "ApplyZombieConditionsChallengeProps",
			"objdata": {
				"IncludeElectrified": true,
				"NumZombieConditionsToApply": 20
			}
		},
		{
			"aliases": [
				"ApplyZombieConditions3"
			],
			"objclass": "ApplyZombieConditionsChallengeProps",
			"objdata": {
				"IncludeElectrified": true,
				"NumZombieConditionsToApply": 30
			}
		},
		{
			"aliases": [
				"SeedBank"
			],
			"objclass": "SeedBankProperties",
			"objdata": {
				"ExcludeListSunProducers": true,
				"PlantExcludeList": [
					"iceburg",
					"puffshroom",
					"gravebuster",
					"toadstool",
					"goldleaf",
					"stallia",
					"spearmint",
					"peppermint",
					"appeasemint",
					"enforcemint",
					"concealmint",
					"filamint",
					"wintermint",
					"bombardmint",
					"armamint",
					"ailmint",
					"reinforcemint",
					"containmint",
					"enchantmint"
				],
				"SelectionMethod": "chooser"
			}
		},
		{
			"aliases": [
				"LevelDifficultyScaling"
			],
			"objclass": "LevelDifficultyScalingModuleProperties",
			"objdata": {
				"DifficultyRulesType": "RiftDifficulty",
				"ZombieLevelSwaps": [
					{
						"Level": 4,
						"Swaps": [
							{
								"From": "RTID(future@ZombieTypes)",
								"To": [
									"RTID(future@ZombieTypes)"
								]
							},
							{
								"From": "RTID(future_armor1@ZombieTypes)",
								"To": [
									"RTID(future_armor1@ZombieTypes)"
								]
							},
							{
								"From": "RTID(future_armor2@ZombieTypes)",
								"To": [
									"RTID(future_armor2@ZombieTypes)"
								]
							},
							{
								"From": "RTID(future_jetpack@ZombieTypes)",
								"To": [
									"RTID(future_jetpack@ZombieTypes)"
								]
							},
							{
								"From": "RTID(future_jetpack_veteran@ZombieTypes)",
								"To": [
									"RTID(future_jetpack@ZombieTypes)"
								]
							}
						]
					},
					{
						"Level": 7,
						"Swaps": [
							{
								"From": "RTID(future@ZombieTypes)",
								"To": [
									"RTID(future@ZombieTypes)",
									"RTID(future_armor1@ZombieTypes)"
								]
							},
							{
								"From": "RTID(future_armor1@ZombieTypes)",
								"To": [
									"RTID(future_armor1@ZombieTypes)",
									"RTID(future_armor2@ZombieTypes)"
								]
							},
							{
								"From": "RTID(future_armor2@ZombieTypes)",
								"To": [
									"RTID(future_armor2@ZombieTypes)",
									"RTID(future_armor4@ZombieTypes)"
								]
							},
							{
								"From": "RTID(future_jetpack@ZombieTypes)",
								"To": [
									"RTID(future_jetpack@ZombieTypes)"
								]
							},
							{
								"From": "RTID(future_jetpack_veteran@ZombieTypes)",
								"To": [
									"RTID(future_jetpack@ZombieTypes)",
									"RTID(future_jetpack_veteran@ZombieTypes)"
								]
							}
						]
					},
					{
						"Level": 11,
						"Swaps": [
							{
								"From": "RTID(future@ZombieTypes)",
								"To": [
									"RTID(future_armor1@ZombieTypes)"
								]
							},
							{
								"From": "RTID(future_armor1@ZombieTypes)",
								"To": [
									"RTID(future_armor2@ZombieTypes)"
								]
							},
							{
								"From": "RTID(future_armor2@ZombieTypes)",
								"To": [
									"RTID(future_armor4@ZombieTypes)"
								]
							},
							{
								"From": "RTID(future_jetpack@ZombieTypes)",
								"To": [
									"RTID(future_jetpack_veteran@ZombieTypes)",
									"RTID(future_jetpack@ZombieTypes)"
								]
							},
							{
								"From": "RTID(future_jetpack_veteran@ZombieTypes)",
								"To": [
									"RTID(future_jetpack_veteran@ZombieTypes)"
								]
							}
						]
					}
				]
			}
		},
		{
			"aliases": [
				"NewWaves"
			],
			"objclass": "WaveManagerModuleProperties",
			"objdata": {
				"ManualStartup": true,
				"DynamicZombies": [
					{
						"PointIncrementPerWave": 0,
						"StartingPoints": 0,
						"StartingWave": 0,
						"ZombiePool": []
					},
					{
						"PointIncrementPerWave": 0,
						"StartingPoints": 0,
						"StartingWave": 0,
						"ZombiePool": []
					},
					{
						"PointIncrementPerWave": 0,
						"StartingPoints": 0,
						"StartingWave": 0,
						"ZombiePool": []
					},
					{
						"MaxPoints": 1000,
						"PointIncrementPerWave": 20,
						"StartingPoints": 100,
						"StartingWave": 3,
						"ZombiePool": [
							"RTID(future@ZombieTypes)"
						]
					},
					{
						"PointIncrementPerWave": 0,
						"StartingPoints": 0,
						"StartingWave": 0,
						"ZombiePool": []
					},
					{
						"PointIncrementPerWave": 0,
						"StartingPoints": 0,
						"StartingWave": 0,
						"ZombiePool": []
					},
					{
						"PointIncrementPerWave": 0,
						"StartingPoints": 0,
						"StartingWave": 0,
						"ZombiePool": []
					}
				],
				"WaveManagerProps": "RTID(WaveManagerProps@CurrentLevel)"
			}
		},
		{
			"aliases": [
				"WaveManagerProps"
			],
			"objclass": "WaveManagerProperties",
			"objdata": {
				"FlagWaveInterval": 10,
				"WaveCount": 10,
				"WaveSpendingPointIncrement": 50,
				"WaveSpendingPoints": 800,
				"Waves": [
					[
						"RTID(Wave1@CurrentLevel)",
						"RTID(Wave1SpiderRainEvent0@CurrentLevel)",
						"RTID(Wave1SpiderRainEvent1@CurrentLevel)"
					],
					[
						"RTID(Wave2@CurrentLevel)"
					],
					[
						"RTID(Wave3@CurrentLevel)"
					],
					[
						"RTID(Wave4@CurrentLevel)"
					],
					[
						"RTID(Wave5@CurrentLevel)",
						"RTID(Wave5SpiderRainEvent0@CurrentLevel)"
					],
					[
						"RTID(Wave6@CurrentLevel)"
					],
					[
						"RTID(Wave7@CurrentLevel)"
					],
					[
						"RTID(Wave8@CurrentLevel)"
					],
					[
						"RTID(Wave9@CurrentLevel)",
						"RTID(Wave9SpiderRainEvent0@CurrentLevel)"
					],
					[
						"RTID(Wave10@CurrentLevel)"
					]
				],
				"WavesAlwaysRandomized": true
			}
		},
		{
			"aliases": [
				"Wave1"
			],
			"objclass": "SpawnZombiesJitteredWaveActionProps",
			"objdata": {
				"Zombies": [
					{
						"Type": "RTID(future_armor1@ZombieTypes)"
					},
					{
						"Type": "RTID(future_armor1@ZombieTypes)"
					},
					{
						"Type": "RTID(future@ZombieTypes)"
					},
					{
						"Type": "RTID(future@ZombieTypes)"
					}
				]
			}
		},
		{
			"aliases": [
				"Wave2"
			],
			"objclass": "SpawnZombiesJitteredWaveActionProps",
			"objdata": {
				"Zombies": [
					{
						"Type": "RTID(future_jetpack@ZombieTypes)"
					},
					{
						"Type": "RTID(future_jetpack@ZombieTypes)"
					},
					{
						"Type": "RTID(future_jetpack@ZombieTypes)"
					},
					{
						"Type": "RTID(mech_cone@ZombieTypes)"
					}
				]
			}
		},
		{
			"aliases": [
				"Wave3"
			],
			"objclass": "SpawnZombiesJitteredWaveActionProps",
			"objdata": {
				"Zombies": [
					{
						"Row": "4",
						"Type": "RTID(future@ZombieTypes)"
					},
					{
						"Row": "5",
						"Type": "RTID(future@ZombieTypes)"
					},
					{
						"Row": "4",
						"Type": "RTID(future_armor2@ZombieTypes)"
					},
					{
						"Row": "5",
						"Type": "RTID(future_armor2@ZombieTypes)"
					},
					{
						"Row": "4",
						"Type": "RTID(mech_cone@ZombieTypes)"
					},
					{
						"Row": "5",
						"Type": "RTID(future_armor2@ZombieTypes)"
					},
					{
						"Row": "3",
						"Type": "RTID(future_armor1@ZombieTypes)"
					}
				]
			}
		},
		{
			"aliases": [
				"Wave4"
			],
			"objclass": "SpawnZombiesJitteredWaveActionProps",
			"objdata": {
				"Zombies": [
					{
						"Type": "RTID(future_armor2@ZombieTypes)"
					},
					{
						"Type": "RTID(future_armor1@ZombieTypes)"
					},
					{
						"Row": "3",
						"Type": "RTID(future_protector@ZombieTypes)"
					}
				]
			}
		},
		{
			"aliases": [
				"Wave5"
			],
			"objclass": "SpawnZombiesJitteredWaveActionProps",
			"objdata": {
				"Zombies": [
					{
						"Row": "1",
						"Type": "RTID(future_armor1@ZombieTypes)"
					},
					{
						"Row": "5",
						"Type": "RTID(future_armor1@ZombieTypes)"
					},
					{
						"Type": "RTID(future_armor1@ZombieTypes)"
					}
				]
			}
		},
		{
			"aliases": [
				"Wave6"
			],
			"objclass": "SpawnZombiesJitteredWaveActionProps",
			"objdata": {
				"Zombies": [
					{
						"Row": "3",
						"Type": "RTID(future_jetpack@ZombieTypes)"
					},
					{
						"Row": "2",
						"Type": "RTID(future_jetpack@ZombieTypes)"
					},
					{
						"Row": "4",
						"Type": "RTID(future_jetpack@ZombieTypes)"
					},
					{
						"Row": "1",
						"Type": "RTID(future_jetpack@ZombieTypes)"
					},
					{
						"Row": "5",
						"Type": "RTID(future_jetpack@ZombieTypes)"
					},
					{
						"Type": "RTID(future_jetpack@ZombieTypes)"
					},
					{
						"Type": "RTID(future_jetpack@ZombieTypes)"
					},
					{
						"Type": "RTID(future_jetpack@ZombieTypes)"
					},
					{
						"Type": "RTID(future_jetpack@ZombieTypes)"
					},
					{
						"Type": "RTID(future_jetpack@ZombieTypes)"
					}
				]
			}
		},
		{
			"aliases": [
				"Wave7"
			],
			"objclass": "SpawnZombiesJitteredWaveActionProps",
			"objdata": {
				"Zombies": [
					{
						"Row": "3",
						"Type": "RTID(future_armor2@ZombieTypes)"
					},
					{
						"Row": "5",
						"Type": "RTID(future_armor1@ZombieTypes)"
					},
					{
						"Row": "1",
						"Type": "RTID(future_armor1@ZombieTypes)"
					},
					{
						"Row": "3",
						"Type": "RTID(mech_cone@ZombieTypes)"
					}
				]
			}
		},
		{
			"aliases": [
				"Wave8"
			],
			"objclass": "SpawnZombiesJitteredWaveActionProps",
			"objdata": {
				"Zombies": [
					{
						"Row": "3",
						"Type": "RTID(future_armor1@ZombieTypes)"
					},
					{
						"Row": "2",
						"Type": "RTID(future_armor2@ZombieTypes)"
					},
					{
						"Row": "1",
						"Type": "RTID(future_armor2@ZombieTypes)"
					},
					{
						"Row": "2",
						"Type": "RTID(future@ZombieTypes)"
					},
					{
						"Row": "1",
						"Type": "RTID(future@ZombieTypes)"
					},
					{
						"Row": "2",
						"Type": "RTID(mech_cone@ZombieTypes)"
					},
					{
						"Row": "1",
						"Type": "RTID(future_armor2@ZombieTypes)"
					}
				]
			}
		},
		{
			"aliases": [
				"Wave9"
			],
			"objclass": "SpawnZombiesJitteredWaveActionProps",
			"objdata": {
				"Zombies": [
					{
						"Row": "2",
						"Type": "RTID(future@ZombieTypes)"
					},
					{
						"Row": "2",
						"Type": "RTID(future_protector@ZombieTypes)"
					},
					{
						"Row": "4",
						"Type": "RTID(future@ZombieTypes)"
					},
					{
						"Row": "4",
						"Type": "RTID(future_protector@ZombieTypes)"
					}
				]
			}
		},
		{
			"aliases": [
				"Wave10"
			],
			"objclass": "SpawnZombiesJitteredWaveActionProps",
			"objdata": {
				"Zombies": [
					{
						"Row": "3",
						"Type": "RTID(mech_cone@ZombieTypes)"
					},
					{
						"Row": "4",
						"Type": "RTID(future_jetpack@ZombieTypes)"
					},
					{
						"Row": "2",
						"Type": "RTID(future_jetpack@ZombieTypes)"
					},
					{
						"Row": "5",
						"Type": "RTID(future_jetpack@ZombieTypes)"
					},
					{
						"Row": "1",
						"Type": "RTID(future_jetpack@ZombieTypes)"
					},
					{
						"Row": "5",
						"Type": "RTID(future_armor1@ZombieTypes)"
					},
					{
						"Row": "1",
						"Type": "RTID(future_armor1@ZombieTypes)"
					},
					{
						"Row": "3",
						"Type": "RTID(mech_cone@ZombieTypes)"
					},
					{
						"Type": "RTID(future_armor1@ZombieTypes)"
					},
					{
						"Type": "RTID(future_armor1@ZombieTypes)"
					},
					{
						"Type": "RTID(future_armor1@ZombieTypes)"
					},
					{
						"Type": "RTID(future_armor1@ZombieTypes)"
					},
					{
						"Type": "RTID(future_armor1@ZombieTypes)"
					}
				]
			}
		},
		{
			"aliases": [
				"Wave1SpiderRainEvent0"
			],
			"objclass": "SpiderRainZombieSpawnerProps",
			"objdata": {
				"ColumnEnd": 7,
				"ColumnStart": 6,
				"GroupSize": 1,
				"SpiderCount": 4,
				"SpiderZombieName": "future_imp",
				"TimeBeforeFullSpawn": 2,
				"TimeBetweenGroups": 0.5,
				"WaveStartMessage": "[WARNING_SPIDERRAIN]",
				"ZombieFallTime": "1.5"
			}
		},
		{
			"aliases": [
				"Wave9SpiderRainEvent0"
			],
			"objclass": "SpiderRainZombieSpawnerProps",
			"objdata": {
				"ColumnEnd": 6,
				"ColumnStart": 4,
				"GroupSize": 1,
				"SpiderCount": 10,
				"SpiderZombieName": "future_imp",
				"TimeBeforeFullSpawn": 5,
				"TimeBetweenGroups": 0.5,
				"WaveStartMessage": "[WARNING_SPIDERRAIN]",
				"ZombieFallTime": "1.5"
			}
		},
		{
			"aliases": [
				"Wave5SpiderRainEvent0"
			],
			"objclass": "SpiderRainZombieSpawnerProps",
			"objdata": {
				"ColumnEnd": 7,
				"ColumnStart": 4,
				"GroupSize": 1,
				"SpiderCount": 8,
				"SpiderZombieName": "future_imp",
				"TimeBeforeFullSpawn": 4,
				"TimeBetweenGroups": 0.5,
				"WaveStartMessage": "[WARNING_SPIDERRAIN]",
				"ZombieFallTime": "1.5"
			}
		},
		{
			"aliases": [
				"Wave1SpiderRainEvent1"
			],
			"objclass": "SpiderRainZombieSpawnerProps",
			"objdata": {
				"ColumnEnd": "8",
				"ColumnStart": 7,
				"GroupSize": 1,
				"SpiderCount": 3,
				"SpiderZombieName": "future_imp",
				"TimeBeforeFullSpawn": 2,
				"TimeBetweenGroups": 0.5,
				"WaveStartMessage": "[WARNING_SPIDERRAIN]",
				"ZombieFallTime": "1.5"
			}
		}
	],
	"version": 1
}