{
	"#comment": "Rift Future 2",
	"objects": [
		{
			"objclass": "LevelDefinition",
			"objdata": {
				"Description": "[PLAYERS_TRIP_TO_RIFT]",
				"LevelNumber": 2,
				"DisablePlantBoosts": false,
				"Loot": "",
				"Modules": [
					"RTID(DefaultSunDropper@LevelModules)",
					"RTID(StandardRiftIntro@LevelModules)",
					"RTID(ZombiesDeadWinCon@LevelModules)",
					"RTID(FutureMowers@LevelModules)",
					"RTID(SeedBank@CurrentLevel)",
					"RTID(DefaultZombieWinCondition@LevelModules)",
					"RTID(NewWaves@CurrentLevel)",
					"RTID(PerkActivator@CurrentLevel)",
					"RTID(LevelDifficultyScaling@CurrentLevel)",
					"RTID(FutureLinkedTileGroups@CurrentLevel)"
				],
				"MusicType": "MiniGame_A",
				"Name": "[RIFT_LEVEL_NAME]",
				"NormalPresentTable": "future_normal_01",
				"ShinyPresentTable": "future_shiny_01",
				"VictoryModule": "RTID(RiftOutro@LevelModules)",
				"StageModule": "RTID(FutureStage@LevelModules)",
				"LevelMutator": "RTID(LevelMutator@CurrentLevel)",
				"PerksDisabledInLevel": [
					"moarscore",
					"bossbustercannon",
					"quickdelivery"
				],
				"PerksDisabledPerDifficulty": [
					[],
					[],
					[]
				]
			}
		},
		{
			"aliases": [
				"FutureLinkedTileGroups"
			],
			"objclass": "PowerTileProperties",
			"objdata": {
				"LinkedTiles": [
					{
						"Group": "alpha",
						"Location": {
							"mX": 1,
							"mY": 0
						},
						"PropagationDelay": 0.2
					},
					{
						"Group": "alpha",
						"Location": {
							"mX": 2,
							"mY": 1
						},
						"PropagationDelay": 0.2
					},
					{
						"Group": "delta",
						"Location": {
							"mX": 2,
							"mY": 3
						},
						"PropagationDelay": 0.2
					},
					{
						"Group": "delta",
						"Location": {
							"mX": 1,
							"mY": 4
						},
						"PropagationDelay": 0.2
					}
				]
			}
		},
		{
			"aliases": [
				"PerkActivator"
			],
			"objclass": "PerkHandlerModuleProperties",
			"objdata": {}
		},
		{
			"aliases": [
				"LevelMutator"
			],
			"objclass": "LevelMutatorModuleProperties",
			"objdata": {
				"MutatorTables": [
					"RTID(MutatorPropsRift_Future@LevelMutatorTables)",
					"RTID(LocalChallengeMutator@CurrentLevel)",
					"RTID(LocalMainChallengeMutator@CurrentLevel)"
				]
			}
		},
		{
			"aliases": [
				"LocalMainChallengeMutator"
			],
			"objclass": "LevelMutatorTableProps",
			"objdata": {
				"Tables": [
					{
						"Level": 0,
						"Modules": [
							"RTID(BeatTheLevel@CurrentLevel)"
						],
						"ModuleType": "mainchallenge"
					},
					{
						"Level": 1,
						"Modules": [
							"RTID(BeatTheLevel@CurrentLevel)"
						],
						"ModuleType": "mainchallenge"
					},
					{
						"Level": 2,
						"Modules": [
							"RTID(BeatTheLevel@CurrentLevel)"
						],
						"ModuleType": "mainchallenge"
					}
				]
			}
		},
		{
			"aliases": [
				"BeatTheLevel"
			],
			"objclass": "StarChallengeBeatTheLevelProps",
			"objdata": {
				"Description": "[STARCHALLENGE_RIFT_NORMAL]",
				"DescriptiveName": "[STARCHALLENGE_RIFT_NORMAL_NAME]"
			}
		},
		{
			"aliases": [
				"LocalChallengeMutator"
			],
			"objclass": "LevelMutatorTableProps",
			"objdata": {
				"Tables": [
					{
						"Level": 0,
						"Modules": [
							"RTID(ApplyZombieConditions1@CurrentLevel)"
						],
						"ModuleType": "bonuschallenge"
					},
					{
						"Level": 1,
						"Modules": [
							"RTID(ApplyZombieConditions2@CurrentLevel)"
						],
						"ModuleType": "bonuschallenge"
					},
					{
						"Level": 2,
						"Modules": [
							"RTID(ApplyZombieConditions3@CurrentLevel)",
							"RTID(SimultaneousPlants@CurrentLevel)"
						],
						"ModuleType": "bonuschallenge"
					}
				]
			}
		},
		{
			"aliases": [
				"ApplyZombieConditions1"
			],
			"objclass": "ApplyZombieConditionsChallengeProps",
			"objdata": {
				"IncludeBurnedToAsh": true,
				"NumZombieConditionsToApply": 10
			}
		},
		{
			"aliases": [
				"ApplyZombieConditions2"
			],
			"objclass": "ApplyZombieConditionsChallengeProps",
			"objdata": {
				"IncludeBurnedToAsh": true,
				"NumZombieConditionsToApply": 15
			}
		},
		{
			"aliases": [
				"ApplyZombieConditions3"
			],
			"objclass": "ApplyZombieConditionsChallengeProps",
			"objdata": {
				"IncludeBurnedToAsh": true,
				"NumZombieConditionsToApply": 20
			}
		},
		{
			"aliases": [
				"SimultaneousPlants"
			],
			"objclass": "StarChallengeSimultaneousPlantsProps",
			"objdata": {
				"MaximumPlants": 15
			}
		},
		{
			"aliases": [
				"SeedBank"
			],
			"objclass": "SeedBankProperties",
			"objdata": {
				"ExcludeListSunProducers": false,
				"PlantExcludeList": [],
				"SelectionMethod": "chooser"
			}
		},
		{
			"aliases": [
				"LevelDifficultyScaling"
			],
			"objclass": "LevelDifficultyScalingModuleProperties",
			"objdata": {
				"DifficultyRulesType": "RiftDifficulty",
				"ZombieLevelSwaps": [
					{
						"Level": 4,
						"Swaps": [
							{
								"From": "RTID(future@ZombieTypes)",
								"To": [
									"RTID(future@ZombieTypes)"
								]
							},
							{
								"From": "RTID(future_armor1@ZombieTypes)",
								"To": [
									"RTID(future_armor1@ZombieTypes)"
								]
							},
							{
								"From": "RTID(future_armor2@ZombieTypes)",
								"To": [
									"RTID(future_armor2@ZombieTypes)"
								]
							},
							{
								"From": "RTID(future_jetpack@ZombieTypes)",
								"To": [
									"RTID(future_jetpack@ZombieTypes)"
								]
							},
							{
								"From": "RTID(future_jetpack_veteran@ZombieTypes)",
								"To": [
									"RTID(future_jetpack@ZombieTypes)"
								]
							}
						]
					},
					{
						"Level": 7,
						"Swaps": [
							{
								"From": "RTID(future@ZombieTypes)",
								"To": [
									"RTID(future@ZombieTypes)",
									"RTID(future_armor1@ZombieTypes)"
								]
							},
							{
								"From": "RTID(future_armor1@ZombieTypes)",
								"To": [
									"RTID(future_armor1@ZombieTypes)",
									"RTID(future_armor2@ZombieTypes)"
								]
							},
							{
								"From": "RTID(future_armor2@ZombieTypes)",
								"To": [
									"RTID(future_armor2@ZombieTypes)",
									"RTID(future_armor4@ZombieTypes)"
								]
							},
							{
								"From": "RTID(future_jetpack@ZombieTypes)",
								"To": [
									"RTID(future_jetpack@ZombieTypes)"
								]
							},
							{
								"From": "RTID(future_jetpack_veteran@ZombieTypes)",
								"To": [
									"RTID(future_jetpack@ZombieTypes)",
									"RTID(future_jetpack_veteran@ZombieTypes)"
								]
							}
						]
					},
					{
						"Level": 11,
						"Swaps": [
							{
								"From": "RTID(future@ZombieTypes)",
								"To": [
									"RTID(future_armor1@ZombieTypes)"
								]
							},
							{
								"From": "RTID(future_armor1@ZombieTypes)",
								"To": [
									"RTID(future_armor2@ZombieTypes)"
								]
							},
							{
								"From": "RTID(future_armor2@ZombieTypes)",
								"To": [
									"RTID(future_armor4@ZombieTypes)"
								]
							},
							{
								"From": "RTID(future_jetpack@ZombieTypes)",
								"To": [
									"RTID(future_jetpack_veteran@ZombieTypes)",
									"RTID(future_jetpack@ZombieTypes)"
								]
							},
							{
								"From": "RTID(future_jetpack_veteran@ZombieTypes)",
								"To": [
									"RTID(future_jetpack_veteran@ZombieTypes)"
								]
							}
						]
					}
				]
			}
		},
		{
			"aliases": [
				"NewWaves"
			],
			"objclass": "WaveManagerModuleProperties",
			"objdata": {
				"DynamicZombies": [
					{
						"PointIncrementPerWave": 0,
						"StartingPoints": 0,
						"StartingWave": 0,
						"ZombiePool": []
					},
					{
						"PointIncrementPerWave": 0,
						"StartingPoints": 0,
						"StartingWave": 0,
						"ZombiePool": []
					},
					{
						"PointIncrementPerWave": 0,
						"StartingPoints": 0,
						"StartingWave": 0,
						"ZombiePool": []
					},
					{
						"MaxPoints": 1000,
						"PointIncrementPerWave": 20,
						"StartingPoints": 100,
						"StartingWave": 3,
						"ZombiePool": [
							"RTID(future@ZombieTypes)"
						]
					},
					{
						"PointIncrementPerWave": 0,
						"StartingPoints": 0,
						"StartingWave": 0,
						"ZombiePool": []
					},
					{
						"PointIncrementPerWave": 0,
						"StartingPoints": 0,
						"StartingWave": 0,
						"ZombiePool": []
					},
					{
						"PointIncrementPerWave": 0,
						"StartingPoints": 0,
						"StartingWave": 0,
						"ZombiePool": []
					}
				],
				"WaveManagerProps": "RTID(WaveManagerProps@CurrentLevel)"
			}
		},
		{
			"aliases": [
				"WaveManagerProps"
			],
			"objclass": "WaveManagerProperties",
			"objdata": {
				"FlagWaveInterval": 12,
				"SuppressFlagZombie": false,
				"WaveCount": 12,
				"WaveSpendingPointIncrement": 50,
				"WaveSpendingPoints": 100,
				"Waves": [
					[
						"RTID(Wave1@CurrentLevel)"
					],
					[
						"RTID(Wave2@CurrentLevel)"
					],
					[
						"RTID(Wave3@CurrentLevel)"
					],
					[
						"RTID(Wave4@CurrentLevel)"
					],
					[
						"RTID(Wave5@CurrentLevel)"
					],
					[
						"RTID(Wave6@CurrentLevel)"
					],
					[
						"RTID(Wave7@CurrentLevel)"
					],
					[
						"RTID(Wave8@CurrentLevel)"
					],
					[
						"RTID(Wave9@CurrentLevel)"
					],
					[
						"RTID(Wave10@CurrentLevel)"
					],
					[
						"RTID(Wave11@CurrentLevel)"
					],
					[
						"RTID(Wave12@CurrentLevel)"
					]
				],
				"WavesAlwaysRandomized": true
			}
		},
		{
			"aliases": [
				"Wave1"
			],
			"objclass": "SpawnZombiesJitteredWaveActionProps",
			"objdata": {
				"Zombies": [
					{
						"Type": "RTID(future@ZombieTypes)"
					}
				]
			}
		},
		{
			"aliases": [
				"Wave2"
			],
			"objclass": "SpawnZombiesJitteredWaveActionProps",
			"objdata": {
				"AdditionalPlantfood": 1,
				"DynamicPlantfood": [
					1,
					1,
					1,
					1,
					1,
					1,
					0
				],
				"Zombies": [
					{
						"Type": "RTID(future@ZombieTypes)"
					}
				]
			}
		},
		{
			"aliases": [
				"Wave3"
			],
			"objclass": "SpawnZombiesJitteredWaveActionProps",
			"objdata": {
				"AdditionalPlantfood": 0,
				"Zombies": [
					{
						"Type": "RTID(future@ZombieTypes)"
					},
					{
						"Type": "RTID(future_armor1@ZombieTypes)"
					}
				]
			}
		},
		{
			"aliases": [
				"Wave4"
			],
			"objclass": "SpawnZombiesJitteredWaveActionProps",
			"objdata": {
				"AdditionalPlantfood": 1,
				"DynamicPlantfood": [
					1,
					1,
					1,
					1,
					1,
					1,
					1
				],
				"Zombies": [
					{
						"Type": "RTID(future@ZombieTypes)"
					}
				]
			}
		},
		{
			"aliases": [
				"Wave5"
			],
			"objclass": "SpawnZombiesJitteredWaveActionProps",
			"objdata": {
				"Zombies": [
					{
						"Row": "3",
						"Type": "RTID(future_protector@ZombieTypes)"
					},
					{
						"Row": "2",
						"Type": "RTID(future@ZombieTypes)"
					},
					{
						"Row": "4",
						"Type": "RTID(future@ZombieTypes)"
					}
				]
			}
		},
		{
			"aliases": [
				"Wave6"
			],
			"objclass": "SpawnZombiesJitteredWaveActionProps",
			"objdata": {
				"AdditionalPlantfood": 1,
				"DynamicPlantfood": [
					1,
					1,
					1,
					1,
					0,
					0,
					0
				],
				"Zombies": [
					{
						"Row": "5",
						"Type": "RTID(future_armor1@ZombieTypes)"
					},
					{
						"Row": "1",
						"Type": "RTID(future_armor1@ZombieTypes)"
					}
				]
			}
		},
		{
			"aliases": [
				"Wave7"
			],
			"objclass": "SpawnZombiesJitteredWaveActionProps",
			"objdata": {
				"Zombies": [
					{
						"Row": "5",
						"Type": "RTID(future@ZombieTypes)"
					},
					{
						"Row": "4",
						"Type": "RTID(future@ZombieTypes)"
					},
					{
						"Row": "3",
						"Type": "RTID(future@ZombieTypes)"
					},
					{
						"Row": "2",
						"Type": "RTID(future@ZombieTypes)"
					},
					{
						"Row": "1",
						"Type": "RTID(future@ZombieTypes)"
					}
				]
			}
		},
		{
			"aliases": [
				"Wave8"
			],
			"objclass": "SpawnZombiesJitteredWaveActionProps",
			"objdata": {
				"AdditionalPlantfood": 1,
				"DynamicPlantfood": [
					1,
					1,
					1,
					1,
					1,
					1,
					1
				],
				"Zombies": [
					{
						"Row": "5",
						"Type": "RTID(future_armor1@ZombieTypes)"
					},
					{
						"Row": "4",
						"Type": "RTID(future_armor1@ZombieTypes)"
					},
					{
						"Row": "5",
						"Type": "RTID(future_armor1@ZombieTypes)"
					},
					{
						"Row": "4",
						"Type": "RTID(future_armor1@ZombieTypes)"
					}
				]
			}
		},
		{
			"aliases": [
				"Wave9"
			],
			"objclass": "SpawnZombiesJitteredWaveActionProps",
			"objdata": {
				"AdditionalPlantfood": 0,
				"Zombies": [
					{
						"Type": "RTID(future_armor2@ZombieTypes)"
					},
					{
						"Type": "RTID(future@ZombieTypes)"
					},
					{
						"Type": "RTID(future@ZombieTypes)"
					}
				]
			}
		},
		{
			"aliases": [
				"Wave10"
			],
			"objclass": "SpawnZombiesJitteredWaveActionProps",
			"objdata": {
				"AdditionalPlantfood": 0,
				"Zombies": [
					{
						"Row": "1",
						"Type": "RTID(future_armor1@ZombieTypes)"
					},
					{
						"Row": "2",
						"Type": "RTID(future_armor1@ZombieTypes)"
					},
					{
						"Row": "1",
						"Type": "RTID(future_armor1@ZombieTypes)"
					},
					{
						"Row": "2",
						"Type": "RTID(future_armor1@ZombieTypes)"
					}
				]
			}
		},
		{
			"aliases": [
				"Wave11"
			],
			"objclass": "SpawnZombiesJitteredWaveActionProps",
			"objdata": {
				"AdditionalPlantfood": 1,
				"DynamicPlantfood": [
					1,
					1,
					1,
					1,
					1,
					0,
					0
				],
				"Zombies": [
					{
						"Row": "4",
						"Type": "RTID(future_armor1@ZombieTypes)"
					},
					{
						"Row": "2",
						"Type": "RTID(future_armor1@ZombieTypes)"
					},
					{
						"Row": "1",
						"Type": "RTID(future@ZombieTypes)"
					},
					{
						"Row": "3",
						"Type": "RTID(future@ZombieTypes)"
					},
					{
						"Row": "5",
						"Type": "RTID(future@ZombieTypes)"
					}
				]
			}
		},
		{
			"aliases": [
				"Wave12"
			],
			"objclass": "SpawnZombiesJitteredWaveActionProps",
			"objdata": {
				"Zombies": [
					{
						"Row": "3",
						"Type": "RTID(future_armor2@ZombieTypes)"
					},
					{
						"Row": "4",
						"Type": "RTID(future_protector@ZombieTypes)"
					},
					{
						"Row": "5",
						"Type": "RTID(future_armor2@ZombieTypes)"
					},
					{
						"Row": "2",
						"Type": "RTID(future_protector@ZombieTypes)"
					},
					{
						"Row": "1",
						"Type": "RTID(future_armor2@ZombieTypes)"
					}
				]
			}
		}
	],
	"version": 1
}