{
	"#comment": "Beach 11",
	"objects": [
		{
			"objclass": "LevelDefinition",
			"objdata": {
				"Description": "[PLAYERS_TRIP_TO_BEACH]",
				"FirstRewardParam": "bowlingbulb",
				"FirstRewardType": "unlock_plant",
				"LevelNumber": 11,
				"Loot": "RTID(DefaultLoot@LevelModules)",
				"Modules": [
					"RTID(StandardIntro@LevelModules)",
					"RTID(DefaultSunDropper@LevelModules)",
					"RTID(ZombiesDeadWinCon@LevelModules)",
					"RTID(BeachMowers@LevelModules)",
					"RTID(SeedBank@CurrentLevel)",
					"RTID(ChallengeModule@CurrentLevel)",
					"RTID(DefaultZombieWinCondition@LevelModules)",
					"RTID(NewWaves@CurrentLevel)",
					"RTID(LilypadPlacement@CurrentLevel)",
					"RTID(Tide@CurrentLevel)"
				],
				"Name": "[BEACH_LEVEL_NAME]",
				"NormalPresentTable": "egypt_normal_01",
				"ShinyPresentTable": "egypt_shiny_01",
				"StageModule": "RTID(BeachStage@LevelModules)"
			}
		},
		{
			"aliases": [
				"Tide"
			],
			"objclass": "TideProperties",
			"objdata": {
				"StartingWaveLocation": 6
			}
		},
		{
			"aliases": [
				"SeedBank"
			],
			"objclass": "SeedBankProperties",
			"objdata": {
				"PresetPlantList": [
					{
						"PlantType": "sunflower",
						"Level": -1
					},
					{
						"PlantType": "bowlingbulb",
						"Level": -1
					},
					{
						"PlantType": "potatomine",
						"Level": -1
					},
					{
						"PlantType": "wallnut",
						"Level": -1
					},
					{
						"PlantType": "lilypad",
						"Level": -1
					}
				],
				"SelectionMethod": "chooser"
			}
		},
		{
			"aliases": [
				"ChallengeModule"
			],
			"objclass": "StarChallengeModuleProperties",
			"objdata": {
				"Challenges": [
					[
						"RTID(BeatTheLevel@CurrentLevel)"
					]
				],
				"ChallengesAlwaysAvailable": true
			}
		},
		{
			"aliases": [
				"BeatTheLevel"
			],
			"objclass": "StarChallengeBeatTheLevelProps",
			"objdata": {
				"Description": "[STARCHALLENGE_MOSTLY_PRESET_PLANTS]",
				"DescriptiveName": "[STARCHALLENGE_PRESET_PLANTS_NAME]"
			}
		},
		{
			"aliases": [
				"LilypadPlacement"
			],
			"objclass": "InitialGridItemProperties",
			"objdata": {
				"InitialGridItemPlacements": [
					{
						"GridX": 5,
						"GridY": 0,
						"TypeName": "lilypad"
					},
					{
						"GridX": 4,
						"GridY": 1,
						"TypeName": "lilypad"
					},
					{
						"GridX": 3,
						"GridY": 2,
						"TypeName": "lilypad"
					},
					{
						"GridX": 4,
						"GridY": 3,
						"TypeName": "lilypad"
					},
					{
						"GridX": 5,
						"GridY": 4,
						"TypeName": "lilypad"
					}
				]
			}
		},
		{
			"aliases": [
				"NewWaves"
			],
			"objclass": "WaveManagerModuleProperties",
			"objdata": {
				"DynamicZombies": [
					{
						"PointIncrementPerWave": -40,
						"StartingPoints": -100,
						"StartingWave": 3,
						"ZombiePool": [
							"RTID(beach@ZombieTypes)",
							"RTID(beach_armor1@ZombieTypes)",
							"RTID(beach_fem_armor2@ZombieTypes)",
							"RTID(beach_snorkel@ZombieTypes)"
						]
					},
					{
						"PointIncrementPerWave": -25,
						"StartingPoints": -100,
						"StartingWave": 4,
						"ZombiePool": [
							"RTID(beach@ZombieTypes)",
							"RTID(beach_armor1@ZombieTypes)",
							"RTID(beach_fem_armor2@ZombieTypes)",
							"RTID(beach_snorkel@ZombieTypes)"
						]
					},
					{
						"PointIncrementPerWave": -10,
						"StartingPoints": -100,
						"StartingWave": 5,
						"ZombiePool": [
							"RTID(beach@ZombieTypes)",
							"RTID(beach_armor1@ZombieTypes)",
							"RTID(beach_fem_armor2@ZombieTypes)",
							"RTID(beach_snorkel@ZombieTypes)"
						]
					},
					{},
					{
						"PointIncrementPerWave": 20,
						"StartingPoints": 100,
						"StartingWave": 5,
						"ZombiePool": [
							"RTID(beach@ZombieTypes)",
							"RTID(beach_armor1@ZombieTypes)",
							"RTID(beach_fem_armor2@ZombieTypes)",
							"RTID(beach_snorkel@ZombieTypes)"
						]
					},
					{
						"PointIncrementPerWave": 40,
						"StartingPoints": 200,
						"StartingWave": 4,
						"ZombiePool": [
							"RTID(beach_armor1@ZombieTypes)",
							"RTID(beach_fem_armor2@ZombieTypes)",
							"RTID(beach_snorkel@ZombieTypes)"
						]
					},
					{
						"PointIncrementPerWave": 60,
						"StartingPoints": 400,
						"StartingWave": 3,
						"ZombiePool": [
							"RTID(beach_fem_armor2@ZombieTypes)",
							"RTID(beach_snorkel@ZombieTypes)"
						]
					}
				],
				"WaveManagerProps": "RTID(WaveManagerProps@CurrentLevel)"
			}
		},
		{
			"aliases": [
				"WaveManagerProps"
			],
			"objclass": "WaveManagerProperties",
			"objdata": {
				"FlagWaveInterval": 5,
				"WaveCount": 15,
				"WaveSpendingPointIncrement": 75,
				"WaveSpendingPoints": 100,
				"Waves": [
					[
						"RTID(Wave1@CurrentLevel)"
					],
					[
						"RTID(Wave2@CurrentLevel)"
					],
					[
						"RTID(Wave3@CurrentLevel)"
					],
					[
						"RTID(Wave4@CurrentLevel)"
					],
					[
						"RTID(Wave5@CurrentLevel)"
					],
					[
						"RTID(Wave6@CurrentLevel)"
					],
					[
						"RTID(Wave7@CurrentLevel)",
						"RTID(Wave7LowTideEvent0@CurrentLevel)",
						"RTID(Wave7LowTideEvent1@CurrentLevel)",
						"RTID(Wave7LowTideEvent2@CurrentLevel)",
						"RTID(Wave7TidalChangeEvent0@CurrentLevel)"
					],
					[
						"RTID(Wave8@CurrentLevel)",
						"RTID(Wave8TidalChangeEvent0@CurrentLevel)"
					],
					[
						"RTID(Wave9@CurrentLevel)",
						"RTID(Wave9TidalChangeEvent0@CurrentLevel)"
					],
					[
						"RTID(Wave10@CurrentLevel)",
						"RTID(Wave10TidalChangeEvent0@CurrentLevel)"
					],
					[
						"RTID(Wave11@CurrentLevel)",
						"RTID(Wave11TidalChangeEvent0@CurrentLevel)"
					],
					[
						"RTID(Wave12@CurrentLevel)"
					],
					[
						"RTID(Wave13@CurrentLevel)",
						"RTID(Wave13TidalChangeEvent0@CurrentLevel)"
					],
					[
						"RTID(Wave14@CurrentLevel)"
					],
					[
						"RTID(Wave15@CurrentLevel)"
					]
				]
			}
		},
		{
			"aliases": [
				"Wave1"
			],
			"objclass": "SpawnZombiesJitteredWaveActionProps",
			"objdata": {
				"AdditionalPlantfood": 0,
				"Zombies": [
					{
						"Type": "RTID(beach_fem@ZombieTypes)"
					},
					{
						"Type": "RTID(beach@ZombieTypes)"
					}
				]
			}
		},
		{
			"aliases": [
				"Wave2"
			],
			"objclass": "SpawnZombiesJitteredWaveActionProps",
			"objdata": {
				"AdditionalPlantfood": 0,
				"Zombies": [
					{
						"Type": "RTID(beach@ZombieTypes)"
					},
					{
						"Type": "RTID(beach_snorkel@ZombieTypes)"
					}
				]
			}
		},
		{
			"aliases": [
				"Wave3"
			],
			"objclass": "SpawnZombiesJitteredWaveActionProps",
			"objdata": {
				"AdditionalPlantfood": 0,
				"Zombies": [
					{
						"Type": "RTID(beach_snorkel@ZombieTypes)"
					},
					{
						"Type": "RTID(beach_fem_armor1@ZombieTypes)"
					}
				]
			}
		},
		{
			"aliases": [
				"Wave4"
			],
			"objclass": "SpawnZombiesJitteredWaveActionProps",
			"objdata": {
				"AdditionalPlantfood": 1,
				"DynamicPlantfood": [
					1,
					1,
					1,
					1,
					0,
					0,
					0
				],
				"Zombies": [
					{
						"Type": "RTID(beach_snorkel@ZombieTypes)"
					},
					{
						"Type": "RTID(beach_armor1@ZombieTypes)"
					},
					{
						"Type": "RTID(beach_snorkel@ZombieTypes)"
					}
				]
			}
		},
		{
			"aliases": [
				"Wave5"
			],
			"objclass": "SpawnZombiesJitteredWaveActionProps",
			"objdata": {
				"Zombies": [
					{
						"Row": "3",
						"Type": "RTID(beach_surfer@ZombieTypes)"
					},
					{
						"Type": "RTID(beach_snorkel@ZombieTypes)"
					},
					{
						"Row": "3",
						"Type": "RTID(beach_snorkel@ZombieTypes)"
					}
				]
			}
		},
		{
			"aliases": [
				"Wave6"
			],
			"objclass": "SpawnZombiesJitteredWaveActionProps",
			"objdata": {
				"AdditionalPlantfood": 1,
				"DynamicPlantfood": [
					1,
					1,
					1,
					1,
					1,
					0,
					0
				],
				"Zombies": [
					{
						"Type": "RTID(beach_fem_armor2@ZombieTypes)"
					},
					{
						"Type": "RTID(beach_surfer@ZombieTypes)"
					}
				]
			}
		},
		{
			"aliases": [
				"Wave7"
			],
			"objclass": "SpawnZombiesJitteredWaveActionProps",
			"objdata": {
				"AdditionalPlantfood": 0
			}
		},
		{
			"aliases": [
				"Wave8"
			],
			"objclass": "SpawnZombiesJitteredWaveActionProps",
			"objdata": {
				"AdditionalPlantfood": 1,
				"DynamicPlantfood": [
					1,
					1,
					1,
					1,
					1,
					1,
					1
				],
				"Zombies": [
					{
						"Row": "3",
						"Type": "RTID(beach_armor1@ZombieTypes)"
					},
					{
						"Row": "4",
						"Type": "RTID(beach_armor1@ZombieTypes)"
					},
					{
						"Row": "2",
						"Type": "RTID(beach@ZombieTypes)"
					},
					{
						"Row": "2",
						"Type": "RTID(beach_fem_armor1@ZombieTypes)"
					},
					{
						"Row": "4",
						"Type": "RTID(beach_fem@ZombieTypes)"
					}
				]
			}
		},
		{
			"aliases": [
				"Wave9"
			],
			"objclass": "SpawnZombiesJitteredWaveActionProps",
			"objdata": {
				"AdditionalPlantfood": 0,
				"Zombies": [
					{
						"Row": "5",
						"Type": "RTID(beach_surfer@ZombieTypes)"
					},
					{
						"Row": "1",
						"Type": "RTID(beach_surfer@ZombieTypes)"
					},
					{
						"Type": "RTID(beach_armor1@ZombieTypes)"
					}
				]
			}
		},
		{
			"aliases": [
				"Wave10"
			],
			"objclass": "SpawnZombiesJitteredWaveActionProps",
			"objdata": {
				"AdditionalPlantfood": 0,
				"Zombies": [
					{
						"Row": "5",
						"Type": "RTID(beach_fem_armor2@ZombieTypes)"
					},
					{
						"Row": "1",
						"Type": "RTID(beach_armor2@ZombieTypes)"
					},
					{
						"Row": "1",
						"Type": "RTID(beach@ZombieTypes)"
					},
					{
						"Row": "5",
						"Type": "RTID(beach@ZombieTypes)"
					},
					{
						"Type": "RTID(beach_surfer@ZombieTypes)"
					},
					{
						"Row": "1",
						"Type": "RTID(beach_fem@ZombieTypes)"
					},
					{
						"Row": "2",
						"Type": "RTID(beach_armor1@ZombieTypes)"
					},
					{
						"Row": "4",
						"Type": "RTID(beach_fem_armor1@ZombieTypes)"
					},
					{
						"Row": "5",
						"Type": "RTID(beach_fem_armor1@ZombieTypes)"
					}
				]
			}
		},
		{
			"aliases": [
				"Wave11"
			],
			"objclass": "SpawnZombiesJitteredWaveActionProps",
			"objdata": {
				"AdditionalPlantfood": 0,
				"Zombies": [
					{
						"Row": "4",
						"Type": "RTID(beach_surfer@ZombieTypes)"
					},
					{
						"Row": "2",
						"Type": "RTID(beach@ZombieTypes)"
					},
					{
						"Row": "4",
						"Type": "RTID(beach_fem@ZombieTypes)"
					},
					{
						"Row": "3",
						"Type": "RTID(beach_fem@ZombieTypes)"
					},
					{
						"Row": "3",
						"Type": "RTID(beach_fem_armor1@ZombieTypes)"
					},
					{
						"Row": "2",
						"Type": "RTID(beach_surfer@ZombieTypes)"
					}
				]
			}
		},
		{
			"aliases": [
				"Wave12"
			],
			"objclass": "SpawnZombiesJitteredWaveActionProps",
			"objdata": {
				"AdditionalPlantfood": 1,
				"DynamicPlantfood": [
					1,
					1,
					1,
					1,
					1,
					1,
					0
				],
				"Zombies": [
					{
						"Row": "2",
						"Type": "RTID(beach_fem_armor1@ZombieTypes)"
					},
					{
						"Row": "3",
						"Type": "RTID(beach_armor1@ZombieTypes)"
					},
					{
						"Row": "2",
						"Type": "RTID(beach_fem_armor1@ZombieTypes)"
					},
					{
						"Row": "3",
						"Type": "RTID(beach_armor2@ZombieTypes)"
					},
					{
						"Row": "2",
						"Type": "RTID(beach_fem@ZombieTypes)"
					}
				]
			}
		},
		{
			"aliases": [
				"Wave13"
			],
			"objclass": "SpawnZombiesJitteredWaveActionProps",
			"objdata": {
				"AdditionalPlantfood": 0,
				"Zombies": [
					{
						"Type": "RTID(beach_surfer@ZombieTypes)"
					},
					{
						"Type": "RTID(beach_surfer@ZombieTypes)"
					},
					{
						"Type": "RTID(beach_surfer@ZombieTypes)"
					}
				]
			}
		},
		{
			"aliases": [
				"Wave14"
			],
			"objclass": "SpawnZombiesJitteredWaveActionProps",
			"objdata": {
				"Zombies": [
					{
						"Type": "RTID(beach_fem_armor2@ZombieTypes)"
					},
					{
						"Type": "RTID(beach_fem_armor2@ZombieTypes)"
					},
					{
						"Type": "RTID(beach_armor2@ZombieTypes)"
					}
				]
			}
		},
		{
			"aliases": [
				"Wave15"
			],
			"objclass": "SpawnZombiesJitteredWaveActionProps",
			"objdata": {
				"AdditionalPlantfood": 0,
				"Zombies": [
					{
						"Row": "3",
						"Type": "RTID(beach_surfer@ZombieTypes)"
					},
					{
						"Row": "4",
						"Type": "RTID(beach_surfer@ZombieTypes)"
					},
					{
						"Row": "5",
						"Type": "RTID(beach_surfer@ZombieTypes)"
					},
					{
						"Row": "2",
						"Type": "RTID(beach_surfer@ZombieTypes)"
					},
					{
						"Row": "4",
						"Type": "RTID(beach_fem_armor2@ZombieTypes)"
					},
					{
						"Row": "1",
						"Type": "RTID(beach_surfer@ZombieTypes)"
					},
					{
						"Row": "1",
						"Type": "RTID(beach_fem_armor2@ZombieTypes)"
					},
					{
						"Row": "1",
						"Type": "RTID(beach_armor1@ZombieTypes)"
					},
					{
						"Row": "3",
						"Type": "RTID(beach_armor2@ZombieTypes)"
					},
					{
						"Row": "5",
						"Type": "RTID(beach_armor1@ZombieTypes)"
					},
					{
						"Row": "5",
						"Type": "RTID(beach_fem_armor1@ZombieTypes)"
					}
				]
			}
		},
		{
			"aliases": [
				"Wave7LowTideEvent0"
			],
			"objclass": "BeachStageEventZombieSpawnerProps",
			"objdata": {
				"ColumnEnd": 7,
				"ColumnStart": 4,
				"GroupSize": "1",
				"TimeBeforeFullSpawn": "3",
				"TimeBetweenGroups": ".75",
				"WaveLocation": 1,
				"WaveStartMessage": "[WARNING_LOW_TIDE]",
				"ZombieCount": 2,
				"ZombieName": "beach"
			}
		},
		{
			"aliases": [
				"Wave7LowTideEvent1"
			],
			"objclass": "BeachStageEventZombieSpawnerProps",
			"objdata": {
				"ColumnEnd": 7,
				"ColumnStart": 5,
				"GroupSize": 1,
				"TimeBeforeFullSpawn": "3",
				"TimeBetweenGroups": ".75",
				"WaveLocation": "1",
				"WaveStartMessage": "[WARNING_LOW_TIDE]",
				"ZombieCount": 3,
				"ZombieName": "beach_imp"
			}
		},
		{
			"aliases": [
				"Wave7LowTideEvent2"
			],
			"objclass": "BeachStageEventZombieSpawnerProps",
			"objdata": {
				"ColumnEnd": 7,
				"ColumnStart": 5,
				"GroupSize": "1",
				"TimeBeforeFullSpawn": "3",
				"TimeBetweenGroups": ".75",
				"WaveLocation": 1,
				"WaveStartMessage": "[WARNING_LOW_TIDE]",
				"ZombieCount": 2,
				"ZombieName": "beach_fem"
			}
		},
		{
			"aliases": [
				"Wave7TidalChangeEvent0"
			],
			"objclass": "TidalChangeWaveActionProps",
			"objdata": {
				"TidalChange": {
					"ChangeAmount": 1,
					"ChangeType": "absolute"
				}
			}
		},
		{
			"aliases": [
				"Wave9TidalChangeEvent0"
			],
			"objclass": "TidalChangeWaveActionProps",
			"objdata": {
				"TidalChange": {
					"ChangeAmount": 3,
					"ChangeType": "absolute"
				}
			}
		},
		{
			"aliases": [
				"Wave10TidalChangeEvent0"
			],
			"objclass": "TidalChangeWaveActionProps",
			"objdata": {
				"TidalChange": {
					"ChangeAmount": 4,
					"ChangeType": "absolute"
				}
			}
		},
		{
			"aliases": [
				"Wave11TidalChangeEvent0"
			],
			"objclass": "TidalChangeWaveActionProps",
			"objdata": {
				"TidalChange": {
					"ChangeAmount": 5,
					"ChangeType": "absolute"
				}
			}
		},
		{
			"aliases": [
				"Wave13TidalChangeEvent0"
			],
			"objclass": "TidalChangeWaveActionProps",
			"objdata": {
				"TidalChange": {
					"ChangeAmount": 6,
					"ChangeType": "absolute"
				}
			}
		},
		{
			"aliases": [
				"Wave8TidalChangeEvent0"
			],
			"objclass": "TidalChangeWaveActionProps",
			"objdata": {
				"TidalChange": {
					"ChangeAmount": 2,
					"ChangeType": "absolute"
				}
			}
		}
	],
	"version": 1
}