{
	"#comment": "Beach 5",
	"objects": [
		{
			"objclass": "LevelDefinition",
			"objdata": {
				"CompletionAchievement": "",
				"Description": "[PLAYERS_TRIP_TO_BEACH]",
				"LevelNumber": 5,
				"Loot": "RTID(DefaultLoot@LevelModules)",
				"Modules": [
					"RTID(StandardIntro@LevelModules)",
					"RTID(ConveyorBelt@CurrentLevel)",
					"RTID(BeachMowers@LevelModules)",
					"RTID(ZombiesDeadWinCon@LevelModules)",
					"RTID(DefaultZombieWinCondition@LevelModules)",
					"RTID(NewWaves@CurrentLevel)",
					"RTID(LilypadPlacement@CurrentLevel)",
					"RTID(Tide@CurrentLevel)"
				],
				"MusicType": "MiniGame_A",
				"Name": "[BEACH_LEVEL_NAME]",
				"NormalPresentTable": "egypt_normal_01",
				"ShinyPresentTable": "egypt_shiny_01",
				"StageModule": "RTID(BeachStage@LevelModules)"
			}
		},
		{
			"aliases": [
				"Tide"
			],
			"objclass": "TideProperties",
			"objdata": {
				"StartingWaveLocation": 3
			}
		},
		{
			"aliases": [
				"ConveyorBelt"
			],
			"objclass": "ConveyorSeedBankProperties",
			"objdata": {
				"DropDelayConditions": [
					{
						"Delay": 3,
						"MaxPackets": 0
					},
					{
						"Delay": 6,
						"MaxPackets": 2
					},
					{
						"Delay": 9,
						"MaxPackets": 4
					},
					{
						"Delay": 12,
						"MaxPackets": 8
					}
				],
				"InitialPlantList": [
					{
						"MaxCount": 10,
						"MaxWeightFactor": 0,
						"MinCount": 5,
						"MinWeightFactor": 2,
						"PlantType": "peashooter",
						"Weight": 15
					},
					{
						"MaxCount": 10,
						"MaxWeightFactor": 0,
						"MinCount": 5,
						"MinWeightFactor": 1.5,
						"PlantType": "tanglekelp",
						"Weight": 30
					},
					{
						"MaxCount": 5,
						"MaxWeightFactor": 0,
						"MinCount": 4,
						"MinWeightFactor": 1.5,
						"PlantType": "wallnut",
						"Weight": 10
					}
				],
				"SpeedConditions": [
					{
						"MaxPackets": 0,
						"Speed": 100
					}
				]
			}
		},
		{
			"aliases": [
				"LilypadPlacement"
			],
			"objclass": "InitialGridItemProperties",
			"objdata": {}
		},
		{
			"aliases": [
				"NewWaves"
			],
			"objclass": "WaveManagerModuleProperties",
			"objdata": {
				"DynamicZombies": [
					{
						"PointIncrementPerWave": -40,
						"StartingPoints": -100,
						"StartingWave": 3,
						"ZombiePool": [
							"RTID(beach@ZombieTypes)",
							"RTID(beach_armor2@ZombieTypes)",
							"RTID(beach_fem_armor1@ZombieTypes)"
						]
					},
					{
						"PointIncrementPerWave": -25,
						"StartingPoints": -100,
						"StartingWave": 4,
						"ZombiePool": [
							"RTID(beach@ZombieTypes)",
							"RTID(beach_armor2@ZombieTypes)",
							"RTID(beach_fem_armor1@ZombieTypes)"
						]
					},
					{
						"PointIncrementPerWave": -10,
						"StartingPoints": -100,
						"StartingWave": 5,
						"ZombiePool": [
							"RTID(beach@ZombieTypes)",
							"RTID(beach_armor2@ZombieTypes)",
							"RTID(beach_fem_armor1@ZombieTypes)"
						]
					},
					{},
					{
						"PointIncrementPerWave": 20,
						"StartingPoints": 100,
						"StartingWave": 5,
						"ZombiePool": [
							"RTID(beach@ZombieTypes)",
							"RTID(beach_armor2@ZombieTypes)",
							"RTID(beach_fem_armor1@ZombieTypes)"
						]
					},
					{
						"PointIncrementPerWave": 40,
						"StartingPoints": 200,
						"StartingWave": 4,
						"ZombiePool": [
							"RTID(beach_armor2@ZombieTypes)",
							"RTID(beach_fem_armor1@ZombieTypes)"
						]
					},
					{
						"PointIncrementPerWave": 60,
						"StartingPoints": 400,
						"StartingWave": 3,
						"ZombiePool": [
							"RTID(beach_armor2@ZombieTypes)"
						]
					}
				],
				"WaveManagerProps": "RTID(WaveManagerProps@CurrentLevel)"
			}
		},
		{
			"aliases": [
				"WaveManagerProps"
			],
			"objclass": "WaveManagerProperties",
			"objdata": {
				"FlagWaveInterval": 7,
				"SpawnColEnd": 9,
				"SpawnColStart": 2,
				"SuppressFlagZombie": false,
				"SuppressedDynamicZombieWaves": [
					10,
					17
				],
				"WaveCount": 14,
				"WaveSpendingPointIncrement": 100,
				"WaveSpendingPoints": 200,
				"Waves": [
					[
						"RTID(Wave1@CurrentLevel)"
					],
					[
						"RTID(Wave2@CurrentLevel)",
						"RTID(Wave2TidalChangeEvent0@CurrentLevel)"
					],
					[
						"RTID(Wave3@CurrentLevel)"
					],
					[
						"RTID(Wave4@CurrentLevel)"
					],
					[
						"RTID(Wave5@CurrentLevel)",
						"RTID(Wave5LowTideEvent0@CurrentLevel)",
						"RTID(Wave5LowTideEvent1@CurrentLevel)",
						"RTID(Wave5TidalChangeEvent0@CurrentLevel)"
					],
					[
						"RTID(Wave6@CurrentLevel)"
					],
					[
						"RTID(Wave7@CurrentLevel)",
						"RTID(Wave7TidalChangeEvent0@CurrentLevel)"
					],
					[
						"RTID(Wave8@CurrentLevel)"
					],
					[
						"RTID(Wave9@CurrentLevel)"
					],
					[
						"RTID(Wave10@CurrentLevel)",
						"RTID(Wave10LowTideEvent0@CurrentLevel)",
						"RTID(Wave10LowTideEvent1@CurrentLevel)",
						"RTID(Wave10TidalChangeEvent0@CurrentLevel)"
					],
					[
						"RTID(Wave11@CurrentLevel)"
					],
					[
						"RTID(Wave12@CurrentLevel)",
						"RTID(Wave12TidalChangeEvent0@CurrentLevel)"
					],
					[
						"RTID(Wave13@CurrentLevel)"
					],
					[
						"RTID(Wave14@CurrentLevel)"
					]
				]
			}
		},
		{
			"aliases": [
				"Wave1"
			],
			"objclass": "SpawnZombiesJitteredWaveActionProps",
			"objdata": {
				"AdditionalPlantfood": 0,
				"Zombies": [
					{
						"Type": "RTID(beach_armor2@ZombieTypes)"
					}
				]
			}
		},
		{
			"aliases": [
				"Wave2"
			],
			"objclass": "SpawnZombiesJitteredWaveActionProps",
			"objdata": {
				"AdditionalPlantfood": 0,
				"DynamicPlantfood": [
					1,
					1,
					1,
					1,
					0,
					0,
					0
				],
				"Zombies": [
					{
						"Type": "RTID(beach_armor1@ZombieTypes)"
					},
					{
						"Type": "RTID(beach_armor2@ZombieTypes)"
					}
				]
			}
		},
		{
			"aliases": [
				"Wave3"
			],
			"objclass": "SpawnZombiesJitteredWaveActionProps",
			"objdata": {
				"Zombies": [
					{
						"Type": "RTID(beach_fem_armor2@ZombieTypes)"
					},
					{
						"Type": "RTID(beach_fem_armor1@ZombieTypes)"
					}
				]
			}
		},
		{
			"aliases": [
				"Wave4"
			],
			"objclass": "SpawnZombiesJitteredWaveActionProps",
			"objdata": {
				"Zombies": [
					{
						"Row": "2",
						"Type": "RTID(beach_armor2@ZombieTypes)"
					},
					{
						"Type": "RTID(beach_armor1@ZombieTypes)"
					},
					{
						"Row": "4",
						"Type": "RTID(beach_armor2@ZombieTypes)"
					}
				]
			}
		},
		{
			"aliases": [
				"Wave5"
			],
			"objclass": "SpawnZombiesJitteredWaveActionProps",
			"objdata": {
				"AdditionalPlantfood": 0,
				"DynamicPlantfood": [
					1,
					1,
					1,
					1,
					1,
					1,
					1
				],
				"Zombies": [
					{
						"Type": "RTID(beach_fem_armor1@ZombieTypes)"
					},
					{
						"Type": "RTID(beach_fem_armor2@ZombieTypes)"
					}
				]
			}
		},
		{
			"aliases": [
				"Wave6"
			],
			"objclass": "SpawnZombiesJitteredWaveActionProps",
			"objdata": {
				"Zombies": [
					{
						"Row": "3",
						"Type": "RTID(beach@ZombieTypes)"
					},
					{
						"Row": "1",
						"Type": "RTID(beach_armor2@ZombieTypes)"
					},
					{
						"Row": "5",
						"Type": "RTID(beach_armor2@ZombieTypes)"
					},
					{
						"Type": "RTID(beach@ZombieTypes)"
					},
					{
						"Type": "RTID(beach@ZombieTypes)"
					},
					{
						"Type": "RTID(beach@ZombieTypes)"
					}
				]
			}
		},
		{
			"aliases": [
				"Wave7"
			],
			"objclass": "SpawnZombiesJitteredWaveActionProps",
			"objdata": {
				"DynamicPlantfood": [
					1,
					1,
					1,
					1,
					1,
					1,
					0
				],
				"Zombies": [
					{
						"Type": "RTID(beach@ZombieTypes)"
					},
					{
						"Type": "RTID(beach@ZombieTypes)"
					},
					{
						"Type": "RTID(beach@ZombieTypes)"
					},
					{
						"Row": "2",
						"Type": "RTID(beach_armor1@ZombieTypes)"
					},
					{
						"Row": "4",
						"Type": "RTID(beach_armor1@ZombieTypes)"
					},
					{
						"Type": "RTID(beach_fem_armor2@ZombieTypes)"
					},
					{
						"Type": "RTID(beach_fem_armor2@ZombieTypes)"
					},
					{
						"Type": "RTID(beach_fem_armor2@ZombieTypes)"
					}
				]
			}
		},
		{
			"aliases": [
				"Wave8"
			],
			"objclass": "SpawnZombiesJitteredWaveActionProps",
			"objdata": {
				"AdditionalPlantfood": 0,
				"Zombies": [
					{
						"Type": "RTID(beach_armor2@ZombieTypes)"
					},
					{
						"Type": "RTID(beach_armor2@ZombieTypes)"
					},
					{
						"Type": "RTID(beach_armor1@ZombieTypes)"
					}
				]
			}
		},
		{
			"aliases": [
				"Wave9"
			],
			"objclass": "SpawnZombiesJitteredWaveActionProps",
			"objdata": {
				"DynamicPlantfood": [
					1,
					1,
					1,
					1,
					1,
					1,
					1
				],
				"Zombies": [
					{
						"Row": "5",
						"Type": "RTID(beach_fem_armor1@ZombieTypes)"
					},
					{
						"Row": "1",
						"Type": "RTID(beach_fem_armor1@ZombieTypes)"
					},
					{
						"Row": "2",
						"Type": "RTID(beach_fem_armor1@ZombieTypes)"
					},
					{
						"Row": "4",
						"Type": "RTID(beach_fem_armor1@ZombieTypes)"
					}
				]
			}
		},
		{
			"aliases": [
				"Wave10"
			],
			"objclass": "SpawnZombiesJitteredWaveActionProps",
			"objdata": {
				"Zombies": [
					{
						"Row": "5",
						"Type": "RTID(beach_armor2@ZombieTypes)"
					},
					{
						"Row": "4",
						"Type": "RTID(beach_armor1@ZombieTypes)"
					},
					{
						"Row": "2",
						"Type": "RTID(beach_armor1@ZombieTypes)"
					},
					{
						"Row": "1",
						"Type": "RTID(beach_armor2@ZombieTypes)"
					}
				]
			}
		},
		{
			"aliases": [
				"Wave11"
			],
			"objclass": "SpawnZombiesJitteredWaveActionProps",
			"objdata": {
				"AdditionalPlantfood": 0,
				"Zombies": [
					{
						"Row": "2",
						"Type": "RTID(beach_fem_armor1@ZombieTypes)"
					},
					{
						"Row": "4",
						"Type": "RTID(beach_fem_armor1@ZombieTypes)"
					},
					{
						"Type": "RTID(beach_fem_armor2@ZombieTypes)"
					},
					{
						"Type": "RTID(beach_fem_armor1@ZombieTypes)"
					},
					{
						"Type": "RTID(beach_fem_armor2@ZombieTypes)"
					}
				]
			}
		},
		{
			"aliases": [
				"Wave12"
			],
			"objclass": "SpawnZombiesJitteredWaveActionProps",
			"objdata": {
				"AdditionalPlantfood": 0,
				"DynamicPlantfood": [
					1,
					1,
					1,
					1,
					1,
					0,
					0
				],
				"Zombies": [
					{
						"Row": "3",
						"Type": "RTID(beach@ZombieTypes)"
					},
					{
						"Row": "1",
						"Type": "RTID(beach@ZombieTypes)"
					},
					{
						"Row": "5",
						"Type": "RTID(beach@ZombieTypes)"
					},
					{
						"Type": "RTID(beach_armor2@ZombieTypes)"
					},
					{
						"Type": "RTID(beach_armor2@ZombieTypes)"
					},
					{
						"Type": "RTID(beach_armor2@ZombieTypes)"
					}
				]
			}
		},
		{
			"aliases": [
				"Wave13"
			],
			"objclass": "SpawnZombiesJitteredWaveActionProps",
			"objdata": {
				"Zombies": [
					{
						"Row": "3",
						"Type": "RTID(beach@ZombieTypes)"
					},
					{
						"Row": "2",
						"Type": "RTID(beach_armor2@ZombieTypes)"
					},
					{
						"Row": "2",
						"Type": "RTID(beach@ZombieTypes)"
					},
					{
						"Row": "2",
						"Type": "RTID(beach_armor1@ZombieTypes)"
					},
					{
						"Row": "4",
						"Type": "RTID(beach_armor2@ZombieTypes)"
					},
					{
						"Row": "4",
						"Type": "RTID(beach@ZombieTypes)"
					},
					{
						"Row": "4",
						"Type": "RTID(beach_armor1@ZombieTypes)"
					},
					{
						"Row": "1",
						"Type": "RTID(beach@ZombieTypes)"
					},
					{
						"Row": "5",
						"Type": "RTID(beach@ZombieTypes)"
					}
				]
			}
		},
		{
			"aliases": [
				"Wave14"
			],
			"objclass": "SpawnZombiesJitteredWaveActionProps",
			"objdata": {
				"AdditionalPlantfood": 0,
				"Zombies": [
					{
						"Row": "3",
						"Type": "RTID(beach_fem_armor2@ZombieTypes)"
					},
					{
						"Row": "4",
						"Type": "RTID(beach_fem_armor1@ZombieTypes)"
					},
					{
						"Row": "2",
						"Type": "RTID(beach_fem_armor1@ZombieTypes)"
					},
					{
						"Row": "1",
						"Type": "RTID(beach_fem_armor2@ZombieTypes)"
					},
					{
						"Row": "3",
						"Type": "RTID(beach_fem_armor2@ZombieTypes)"
					},
					{
						"Row": "2",
						"Type": "RTID(beach_fem_armor1@ZombieTypes)"
					},
					{
						"Row": "4",
						"Type": "RTID(beach_fem_armor1@ZombieTypes)"
					},
					{
						"Row": "5",
						"Type": "RTID(beach_fem_armor2@ZombieTypes)"
					},
					{
						"Row": "3",
						"Type": "RTID(beach_fem_armor1@ZombieTypes)"
					},
					{
						"Type": "RTID(beach@ZombieTypes)"
					},
					{
						"Type": "RTID(beach_armor2@ZombieTypes)"
					},
					{
						"Type": "RTID(beach@ZombieTypes)"
					},
					{
						"Type": "RTID(beach_armor2@ZombieTypes)"
					},
					{
						"Type": "RTID(beach@ZombieTypes)"
					},
					{
						"Type": "RTID(beach_armor2@ZombieTypes)"
					}
				]
			}
		},
		{
			"aliases": [
				"Wave5TidalChangeEvent0"
			],
			"objclass": "TidalChangeWaveActionProps",
			"objdata": {
				"TidalChange": {
					"ChangeAmount": 3,
					"ChangeType": "absolute"
				}
			}
		},
		{
			"aliases": [
				"Wave5LowTideEvent0"
			],
			"objclass": "BeachStageEventZombieSpawnerProps",
			"objdata": {
				"ColumnEnd": 5,
				"ColumnStart": 5,
				"GroupSize": 3,
				"TimeBeforeFullSpawn": 0.5,
				"TimeBetweenGroups": 0.25,
				"WaveLocation": 0,
				"WaveStartMessage": "[WARNING_LOW_TIDE]",
				"ZombieCount": 3,
				"ZombieName": "beach_imp"
			}
		},
		{
			"aliases": [
				"Wave10TidalChangeEvent0"
			],
			"objclass": "TidalChangeWaveActionProps",
			"objdata": {
				"TidalChange": {
					"ChangeAmount": 3,
					"ChangeType": "absolute"
				}
			}
		},
		{
			"aliases": [
				"Wave10LowTideEvent0"
			],
			"objclass": "BeachStageEventZombieSpawnerProps",
			"objdata": {
				"ColumnEnd": 5,
				"ColumnStart": 4,
				"GroupSize": 5,
				"TimeBeforeFullSpawn": 0.5,
				"TimeBetweenGroups": 0.25,
				"WaveLocation": 0,
				"WaveStartMessage": "[WARNING_LOW_TIDE]",
				"ZombieCount": 5,
				"ZombieName": "beach_imp"
			}
		},
		{
			"aliases": [
				"Wave7TidalChangeEvent0"
			],
			"objclass": "TidalChangeWaveActionProps",
			"objdata": {
				"TidalChange": {
					"ChangeAmount": 6,
					"ChangeType": "absolute"
				}
			}
		},
		{
			"aliases": [
				"Wave12TidalChangeEvent0"
			],
			"objclass": "TidalChangeWaveActionProps",
			"objdata": {
				"TidalChange": {
					"ChangeAmount": 6,
					"ChangeType": "absolute"
				}
			}
		},
		{
			"aliases": [
				"Wave2TidalChangeEvent0"
			],
			"objclass": "TidalChangeWaveActionProps",
			"objdata": {
				"TidalChange": {
					"ChangeAmount": 6,
					"ChangeType": "absolute"
				}
			}
		},
		{
			"aliases": [
				"Wave5LowTideEvent1"
			],
			"objclass": "BeachStageEventZombieSpawnerProps",
			"objdata": {
				"ColumnEnd": 6,
				"ColumnStart": 5,
				"GroupSize": 1,
				"TimeBeforeFullSpawn": "3",
				"TimeBetweenGroups": 0.25,
				"WaveLocation": 0,
				"WaveStartMessage": "[WARNING_LOW_TIDE]",
				"ZombieCount": 1,
				"ZombieName": "beach_armor1"
			}
		},
		{
			"aliases": [
				"Wave10LowTideEvent1"
			],
			"objclass": "BeachStageEventZombieSpawnerProps",
			"objdata": {
				"ColumnEnd": 6,
				"ColumnStart": 5,
				"GroupSize": 3,
				"TimeBeforeFullSpawn": 0.5,
				"TimeBetweenGroups": 0.25,
				"WaveLocation": "3",
				"WaveStartMessage": "[WARNING_LOW_TIDE]",
				"ZombieCount": 3,
				"ZombieName": "beach_armor1"
			}
		}
	],
	"version": 1
}