{
	"#comment": "Dark 11",
	"objects": [
		{
			"objclass": "LevelDefinition",
			"objdata": {
				"Description": "[PLAYERS_TRIP_TO_DARKAGES]",
				"FirstRewardType": "pinata",
				"FirstRewardParam": "spine_dark",
				"LevelNumber": 11,
				"Loot": "RTID(DefaultLoot@LevelModules)",
				"Modules": [
					"RTID(StandardIntro@LevelModules)",
					"RTID(ZombiesDeadWinCon@LevelModules)",
					"RTID(DarkMowers@LevelModules)",
					"RTID(Gravestones@CurrentLevel)",
					"RTID(SeedBank@CurrentLevel)",
					"RTID(DefaultZombieWinCondition@LevelModules)",
					"RTID(NewWaves@CurrentLevel)"
				],
				"Name": "[DARKAGES_LEVEL_NAME]",
				"NormalPresentTable": "egypt_normal_01",
				"ShinyPresentTable": "egypt_shiny_01",
				"StageModule": "RTID(DarkStage@LevelModules)"
			}
		},
		{
			"aliases": [
				"Gravestones"
			],
			"objclass": "GravestoneProperties",
			"objdata": {
				"ForceSpawnData": [
					{
						"GridX": 3,
						"GridY": 0,
						"TypeName": "gravestone_dark"
					},
					{
						"GridX": 1,
						"GridY": 0,
						"TypeName": "gravestoneSunOnDestruction"
					},
					{
						"GridX": 6,
						"GridY": 1,
						"TypeName": "gravestone_dark"
					},
					{
						"GridX": 2,
						"GridY": 2,
						"TypeName": "gravestoneSunOnDestruction"
					},
					{
						"GridX": 3,
						"GridY": 3,
						"TypeName": "gravestone_dark"
					},
					{
						"GridX": 0,
						"GridY": 3,
						"TypeName": "gravestoneSunOnDestruction"
					},
					{
						"GridX": 2,
						"GridY": 4,
						"TypeName": "gravestone_dark"
					}
				]
			}
		},
		{
			"aliases": [
				"SeedBank"
			],
			"objclass": "SeedBankProperties",
			"objdata": {
				"SelectionMethod": "chooser"
			}
		},
		{
			"aliases": [
				"NewWaves"
			],
			"objclass": "WaveManagerModuleProperties",
			"objdata": {
				"DynamicZombies": [
					{
						"PointIncrementPerWave": -40,
						"StartingPoints": -100,
						"StartingWave": 3,
						"ZombiePool": [
							"RTID(dark@ZombieTypes)",
							"RTID(dark_armor1@ZombieTypes)",
							"RTID(dark_armor2@ZombieTypes)",
							"RTID(dark_armor3@ZombieTypes)",
							"RTID(dark_juggler@ZombieTypes)",
							"RTID(dark_wizard@ZombieTypes)"
						]
					},
					{
						"PointIncrementPerWave": -25,
						"StartingPoints": -100,
						"StartingWave": 4,
						"ZombiePool": [
							"RTID(dark@ZombieTypes)",
							"RTID(dark_armor1@ZombieTypes)",
							"RTID(dark_armor2@ZombieTypes)",
							"RTID(dark_armor3@ZombieTypes)",
							"RTID(dark_juggler@ZombieTypes)",
							"RTID(dark_wizard@ZombieTypes)"
						]
					},
					{
						"PointIncrementPerWave": -10,
						"StartingPoints": -100,
						"StartingWave": 5,
						"ZombiePool": [
							"RTID(dark@ZombieTypes)",
							"RTID(dark_armor1@ZombieTypes)",
							"RTID(dark_armor2@ZombieTypes)",
							"RTID(dark_armor3@ZombieTypes)",
							"RTID(dark_juggler@ZombieTypes)",
							"RTID(dark_wizard@ZombieTypes)"
						]
					},
					{},
					{
						"PointIncrementPerWave": 20,
						"StartingPoints": 100,
						"StartingWave": 5,
						"ZombiePool": [
							"RTID(dark@ZombieTypes)",
							"RTID(dark_armor1@ZombieTypes)",
							"RTID(dark_armor2@ZombieTypes)",
							"RTID(dark_armor3@ZombieTypes)",
							"RTID(dark_juggler@ZombieTypes)",
							"RTID(dark_wizard@ZombieTypes)"
						]
					},
					{
						"PointIncrementPerWave": 40,
						"StartingPoints": 200,
						"StartingWave": 4,
						"ZombiePool": [
							"RTID(dark_armor1@ZombieTypes)",
							"RTID(dark_armor2@ZombieTypes)",
							"RTID(dark_armor3@ZombieTypes)",
							"RTID(dark_juggler@ZombieTypes)",
							"RTID(dark_wizard@ZombieTypes)"
						]
					},
					{
						"PointIncrementPerWave": 60,
						"StartingPoints": 400,
						"StartingWave": 3,
						"ZombiePool": [
							"RTID(dark_armor2@ZombieTypes)",
							"RTID(dark_armor3@ZombieTypes)",
							"RTID(dark_juggler@ZombieTypes)",
							"RTID(dark_wizard@ZombieTypes)"
						]
					}
				],
				"WaveManagerProps": "RTID(WaveManagerProps@CurrentLevel)"
			}
		},
		{
			"aliases": [
				"WaveManagerProps"
			],
			"objclass": "WaveManagerProperties",
			"objdata": {
				"FlagWaveInterval": 9,
				"WaveCount": 18,
				"WaveSpendingPointIncrement": 75,
				"WaveSpendingPoints": 100,
				"Waves": [
					[
						"RTID(Wave1@CurrentLevel)"
					],
					[
						"RTID(Wave2@CurrentLevel)"
					],
					[
						"RTID(Wave3@CurrentLevel)"
					],
					[
						"RTID(Wave4@CurrentLevel)"
					],
					[
						"RTID(Wave5@CurrentLevel)"
					],
					[
						"RTID(Wave6@CurrentLevel)"
					],
					[
						"RTID(Wave7@CurrentLevel)",
						"RTID(Wave7GravestoneEvent0@CurrentLevel)"
					],
					[
						"RTID(Wave8@CurrentLevel)",
						"RTID(Wave8GraveSpawnEvent0@CurrentLevel)"
					],
					[
						"RTID(Wave9@CurrentLevel)"
					],
					[
						"RTID(Wave10@CurrentLevel)"
					],
					[
						"RTID(Wave11@CurrentLevel)"
					],
					[
						"RTID(Wave12@CurrentLevel)"
					],
					[
						"RTID(Wave13@CurrentLevel)"
					],
					[
						"RTID(Wave14@CurrentLevel)"
					],
					[
						"RTID(Wave15@CurrentLevel)",
						"RTID(Wave15GravestoneEvent0@CurrentLevel)"
					],
					[
						"RTID(Wave16@CurrentLevel)",
						"RTID(Wave16GraveSpawnEvent0@CurrentLevel)"
					],
					[
						"RTID(Wave17@CurrentLevel)"
					],
					[
						"RTID(Wave18@CurrentLevel)"
					]
				]
			}
		},
		{
			"aliases": [
				"Wave1"
			],
			"objclass": "SpawnZombiesJitteredWaveActionProps",
			"objdata": {
				"AdditionalPlantfood": 0,
				"Zombies": [
					{
						"Type": "RTID(dark@ZombieTypes)"
					}
				]
			}
		},
		{
			"aliases": [
				"Wave2"
			],
			"objclass": "SpawnZombiesJitteredWaveActionProps",
			"objdata": {
				"Zombies": [
					{
						"Type": "RTID(dark@ZombieTypes)"
					},
					{
						"Type": "RTID(dark@ZombieTypes)"
					}
				]
			}
		},
		{
			"aliases": [
				"Wave3"
			],
			"objclass": "SpawnZombiesJitteredWaveActionProps",
			"objdata": {
				"AdditionalPlantfood": 1,
				"DynamicPlantfood": [
					1,
					1,
					1,
					1,
					1,
					1,
					1
				],
				"Zombies": [
					{
						"Type": "RTID(dark_armor1@ZombieTypes)"
					}
				]
			}
		},
		{
			"aliases": [
				"Wave4"
			],
			"objclass": "SpawnZombiesJitteredWaveActionProps",
			"objdata": {
				"AdditionalPlantfood": 0,
				"Zombies": [
					{
						"Type": "RTID(dark@ZombieTypes)"
					},
					{
						"Type": "RTID(dark_armor1@ZombieTypes)"
					}
				]
			}
		},
		{
			"aliases": [
				"Wave5"
			],
			"objclass": "SpawnZombiesJitteredWaveActionProps",
			"objdata": {
				"Zombies": [
					{
						"Type": "RTID(dark_armor1@ZombieTypes)"
					},
					{
						"Type": "RTID(dark_armor2@ZombieTypes)"
					}
				]
			}
		},
		{
			"aliases": [
				"Wave6"
			],
			"objclass": "SpawnZombiesJitteredWaveActionProps",
			"objdata": {
				"AdditionalPlantfood": 1,
				"DynamicPlantfood": [
					1,
					1,
					1,
					1,
					1,
					1,
					0
				],
				"Zombies": [
					{
						"Type": "RTID(dark_wizard@ZombieTypes)"
					}
				]
			}
		},
		{
			"aliases": [
				"Wave7"
			],
			"objclass": "SpawnZombiesJitteredWaveActionProps",
			"objdata": {
				"AdditionalPlantfood": 0,
				"Zombies": [
					{
						"Type": "RTID(dark_armor1@ZombieTypes)"
					},
					{
						"Type": "RTID(dark_imp@ZombieTypes)"
					},
					{
						"Type": "RTID(dark_armor2@ZombieTypes)"
					}
				]
			}
		},
		{
			"aliases": [
				"Wave8"
			],
			"objclass": "SpawnZombiesJitteredWaveActionProps",
			"objdata": {
				"AdditionalPlantfood": 1,
				"DynamicPlantfood": [
					1,
					1,
					1,
					1,
					1,
					1,
					1
				],
				"Zombies": [
					{
						"Type": "RTID(dark_juggler@ZombieTypes)"
					}
				]
			}
		},
		{
			"aliases": [
				"Wave9"
			],
			"objclass": "SpawnZombiesJitteredWaveActionProps",
			"objdata": {
				"AdditionalPlantfood": 0,
				"Zombies": [
					{
						"Type": "RTID(dark_armor1@ZombieTypes)"
					},
					{
						"Type": "RTID(dark_armor1@ZombieTypes)"
					},
					{
						"Type": "RTID(dark_wizard@ZombieTypes)"
					},
					{
						"Type": "RTID(dark_armor2@ZombieTypes)"
					},
					{
						"Type": "RTID(dark_wizard@ZombieTypes)"
					}
				]
			}
		},
		{
			"aliases": [
				"Wave10"
			],
			"objclass": "SpawnZombiesJitteredWaveActionProps",
			"objdata": {
				"AdditionalPlantfood": 1,
				"DynamicPlantfood": [
					1,
					1,
					1,
					1,
					0,
					0,
					0
				],
				"Zombies": [
					{
						"Type": "RTID(dark@ZombieTypes)"
					},
					{
						"Type": "RTID(dark_armor3@ZombieTypes)"
					},
					{
						"Type": "RTID(dark_armor1@ZombieTypes)"
					}
				]
			}
		},
		{
			"aliases": [
				"Wave11"
			],
			"objclass": "SpawnZombiesJitteredWaveActionProps",
			"objdata": {
				"AdditionalPlantfood": 0,
				"Zombies": [
					{
						"Type": "RTID(dark_juggler@ZombieTypes)"
					},
					{
						"Type": "RTID(dark_juggler@ZombieTypes)"
					}
				]
			}
		},
		{
			"aliases": [
				"Wave12"
			],
			"objclass": "SpawnZombiesJitteredWaveActionProps",
			"objdata": {
				"AdditionalPlantfood": 1,
				"DynamicPlantfood": [
					1,
					1,
					1,
					1,
					1,
					1,
					1
				],
				"Zombies": [
					{
						"Type": "RTID(dark@ZombieTypes)"
					},
					{
						"Type": "RTID(dark_armor2@ZombieTypes)"
					},
					{
						"Type": "RTID(dark_armor2@ZombieTypes)"
					}
				]
			}
		},
		{
			"aliases": [
				"Wave13"
			],
			"objclass": "SpawnZombiesJitteredWaveActionProps",
			"objdata": {
				"AdditionalPlantfood": 0,
				"Zombies": [
					{
						"Row": "2",
						"Type": "RTID(dark_armor1@ZombieTypes)"
					},
					{
						"Row": "4",
						"Type": "RTID(dark_armor1@ZombieTypes)"
					},
					{
						"Row": "2",
						"Type": "RTID(dark_wizard@ZombieTypes)"
					},
					{
						"Row": "4",
						"Type": "RTID(dark_wizard@ZombieTypes)"
					}
				]
			}
		},
		{
			"aliases": [
				"Wave14"
			],
			"objclass": "SpawnZombiesJitteredWaveActionProps",
			"objdata": {
				"AdditionalPlantfood": 0,
				"Zombies": [
					{
						"Type": "RTID(dark_armor1@ZombieTypes)"
					},
					{
						"Type": "RTID(dark_armor3@ZombieTypes)"
					},
					{
						"Type": "RTID(dark_armor3@ZombieTypes)"
					}
				]
			}
		},
		{
			"aliases": [
				"Wave15"
			],
			"objclass": "SpawnZombiesJitteredWaveActionProps",
			"objdata": {
				"AdditionalPlantfood": 0,
				"Zombies": [
					{
						"Type": "RTID(dark_juggler@ZombieTypes)"
					},
					{
						"Type": "RTID(dark_juggler@ZombieTypes)"
					},
					{
						"Type": "RTID(dark_juggler@ZombieTypes)"
					}
				]
			}
		},
		{
			"aliases": [
				"Wave16"
			],
			"objclass": "SpawnZombiesJitteredWaveActionProps",
			"objdata": {
				"AdditionalPlantfood": 1,
				"DynamicPlantfood": [
					1,
					1,
					1,
					1,
					1,
					1,
					0
				],
				"Zombies": [
					{
						"Type": "RTID(dark@ZombieTypes)"
					},
					{
						"Type": "RTID(dark_armor1@ZombieTypes)"
					},
					{
						"Type": "RTID(dark_armor1@ZombieTypes)"
					}
				]
			}
		},
		{
			"aliases": [
				"Wave17"
			],
			"objclass": "SpawnZombiesJitteredWaveActionProps",
			"objdata": {
				"AdditionalPlantfood": 0,
				"Zombies": [
					{
						"Type": "RTID(dark_armor3@ZombieTypes)"
					},
					{
						"Type": "RTID(dark_armor3@ZombieTypes)"
					}
				]
			}
		},
		{
			"aliases": [
				"Wave18"
			],
			"objclass": "SpawnZombiesJitteredWaveActionProps",
			"objdata": {
				"AdditionalPlantfood": 0,
				"Zombies": [
					{
						"Row": "3",
						"Type": "RTID(dark_armor3@ZombieTypes)"
					},
					{
						"Row": "2",
						"Type": "RTID(dark_armor1@ZombieTypes)"
					},
					{
						"Row": "4",
						"Type": "RTID(dark_armor1@ZombieTypes)"
					},
					{
						"Row": "5",
						"Type": "RTID(dark_armor2@ZombieTypes)"
					},
					{
						"Row": "1",
						"Type": "RTID(dark_armor2@ZombieTypes)"
					},
					{
						"Row": "3",
						"Type": "RTID(dark_wizard@ZombieTypes)"
					},
					{
						"Row": "4",
						"Type": "RTID(dark_wizard@ZombieTypes)"
					},
					{
						"Row": "2",
						"Type": "RTID(dark_wizard@ZombieTypes)"
					},
					{
						"Row": "5",
						"Type": "RTID(dark_wizard@ZombieTypes)"
					},
					{
						"Row": "1",
						"Type": "RTID(dark_wizard@ZombieTypes)"
					}
				]
			}
		},
		{
			"aliases": [
				"Wave7GravestoneEvent0"
			],
			"objclass": "SpawnGravestonesWaveActionProps",
			"objdata": {
				"GravestonePool": [
					{
						"Count": 3,
						"Type": "RTID(gravestone_dark@GridItemTypes)"
					},
					{
						"Count": 2,
						"Type": "RTID(gravestoneSunOnDestruction@GridItemTypes)"
					},
					{
						"Count": 0,
						"Type": "RTID(gravestonePlantfoodOnDestruction@GridItemTypes)"
					}
				],
				"SpawnEffectAnimID": "POPANIM_EFFECTS_TOMBSTONE_DARK_SPAWN_EFFECT",
				"SpawnPositionsPool": [
					{
						"mX": 5,
						"mY": 0
					},
					{
						"mX": 5,
						"mY": 1
					},
					{
						"mX": 5,
						"mY": 2
					},
					{
						"mX": 5,
						"mY": 3
					},
					{
						"mX": 5,
						"mY": 4
					},
					{
						"mX": 6,
						"mY": 0
					},
					{
						"mX": 6,
						"mY": 1
					},
					{
						"mX": 6,
						"mY": 2
					},
					{
						"mX": 6,
						"mY": 3
					},
					{
						"mX": 6,
						"mY": 4
					}
				],
				"SpawnSoundID": "Play_Zomb_Egypt_TombRaiser_Grave_Rise"
			}
		},
		{
			"aliases": [
				"Wave8GraveSpawnEvent0"
			],
			"objclass": "SpawnZombiesFromGridItemSpawnerProps",
			"objdata": {
				"AdditionalPlantfood": "0",
				"GridTypes": [
					"RTID(gravestone_dark@GridItemTypes)",
					"RTID(gravestoneSunOnDestruction@GridItemTypes)",
					"RTID(gravestonePlantfoodOnDestruction@GridItemTypes)"
				],
				"WaveStartMessage": "[WARNING_GRAVESTONE_SPAWN]",
				"ZombieSpawnWaitTime": 1,
				"Zombies": [
					{
						"Type": "RTID(dark_imp@ZombieTypes)"
					},
					{
						"Type": "RTID(dark_armor1@ZombieTypes)"
					},
					{
						"Type": "RTID(dark_imp@ZombieTypes)"
					}
				]
			}
		},
		{
			"aliases": [
				"Wave15GravestoneEvent0"
			],
			"objclass": "SpawnGravestonesWaveActionProps",
			"objdata": {
				"GravestonePool": [
					{
						"Count": 5,
						"Type": "RTID(gravestone_dark@GridItemTypes)"
					},
					{
						"Count": 0,
						"Type": "RTID(gravestoneSunOnDestruction@GridItemTypes)"
					},
					{
						"Count": 1,
						"Type": "RTID(gravestonePlantfoodOnDestruction@GridItemTypes)"
					}
				],
				"SpawnEffectAnimID": "POPANIM_EFFECTS_TOMBSTONE_DARK_SPAWN_EFFECT",
				"SpawnPositionsPool": [
					{
						"mX": 5,
						"mY": 0
					},
					{
						"mX": 5,
						"mY": 1
					},
					{
						"mX": 5,
						"mY": 2
					},
					{
						"mX": 5,
						"mY": 3
					},
					{
						"mX": 5,
						"mY": 4
					},
					{
						"mX": 6,
						"mY": 0
					},
					{
						"mX": 6,
						"mY": 1
					},
					{
						"mX": 6,
						"mY": 2
					},
					{
						"mX": 6,
						"mY": 3
					},
					{
						"mX": 6,
						"mY": 4
					}
				],
				"SpawnSoundID": "Play_Zomb_Egypt_TombRaiser_Grave_Rise"
			}
		},
		{
			"aliases": [
				"Wave16GraveSpawnEvent0"
			],
			"objclass": "SpawnZombiesFromGridItemSpawnerProps",
			"objdata": {
				"AdditionalPlantfood": "0",
				"GridTypes": [
					"RTID(gravestone_dark@GridItemTypes)",
					"RTID(gravestoneSunOnDestruction@GridItemTypes)",
					"RTID(gravestonePlantfoodOnDestruction@GridItemTypes)"
				],
				"WaveStartMessage": "[WARNING_GRAVESTONE_SPAWN]",
				"ZombieSpawnWaitTime": "1",
				"Zombies": [
					{
						"Type": "RTID(dark_imp@ZombieTypes)"
					},
					{
						"Type": "RTID(dark_armor1@ZombieTypes)"
					},
					{
						"Type": "RTID(dark_imp@ZombieTypes)"
					},
					{
						"Type": "RTID(dark_armor1@ZombieTypes)"
					},
					{
						"Type": "RTID(dark_imp@ZombieTypes)"
					}
				]
			}
		}
	],
	"version": 1
}