{
	"#comment": "Dino 26",
	"objects": [
		{
			"objclass": "LevelDefinition",
			"objdata": {
				"Description": "[PLAYERS_TRIP_TO_DINO]",
				"LevelNumber": 26,
				"Loot": "RTID(DefaultLoot@LevelModules)",
				"Modules": [
					"RTID(StandardIntro@LevelModules)",
					"RTID(DefaultSunDropper@LevelModules)",
					"RTID(ZombiesDeadWinCon@LevelModules)",
					"RTID(DinoMowers@LevelModules)",
					"RTID(SeedBank@CurrentLevel)",
					"RTID(DefaultZombieWinCondition@LevelModules)",
					"RTID(NewWaves@CurrentLevel)",
					"RTID(ChallengeModule@CurrentLevel)"
				],
				"Name": "[DINO_LEVEL_NAME]",
				"NormalPresentTable": "egypt_normal_01",
				"ShinyPresentTable": "egypt_shiny_01",
				"StageModule": "RTID(DinoStage@LevelModules)"
			}
		},
		{
			"aliases": [
				"ChallengeModule"
			],
			"objclass": "StarChallengeModuleProperties",
			"objdata": {
				"Challenges": [
					[
						"RTID(DoNotPlantBeforeLine@CurrentLevel)"
					]
				],
				"ChallengesAlwaysAvailable": true
			}
		},
		{
			"aliases": [
				"DoNotPlantBeforeLine"
			],
			"objclass": "MoldColonyChallengeProps",
			"objdata": {
				"Locations": "RTID(Column0_To_Column1@BoardGridMaps)"
			}
		},
		{
			"aliases": [
				"SeedBank"
			],
			"objclass": "SeedBankProperties",
			"objdata": {
				"SelectionMethod": "chooser"
			}
		},
		{
			"aliases": [
				"NewWaves"
			],
			"objclass": "WaveManagerModuleProperties",
			"objdata": {
				"DynamicZombies": [
					{
						"PointIncrementPerWave": -40,
						"StartingPoints": -100,
						"StartingWave": 3,
						"ZombiePool": [
							"RTID(dino@ZombieTypes)",
							"RTID(dino_armor1@ZombieTypes)",
							"RTID(dino_armor2@ZombieTypes)"
						]
					},
					{
						"PointIncrementPerWave": -25,
						"StartingPoints": -100,
						"StartingWave": 4,
						"ZombiePool": [
							"RTID(dino@ZombieTypes)",
							"RTID(dino_armor1@ZombieTypes)",
							"RTID(dino_armor2@ZombieTypes)"
						]
					},
					{
						"PointIncrementPerWave": -10,
						"StartingPoints": -100,
						"StartingWave": 5,
						"ZombiePool": [
							"RTID(dino@ZombieTypes)",
							"RTID(dino_armor1@ZombieTypes)",
							"RTID(dino_armor2@ZombieTypes)"
						]
					},
					{},
					{
						"PointIncrementPerWave": 20,
						"StartingPoints": 100,
						"StartingWave": 5,
						"ZombiePool": [
							"RTID(dino@ZombieTypes)",
							"RTID(dino_armor1@ZombieTypes)",
							"RTID(dino_armor2@ZombieTypes)"
						]
					},
					{
						"PointIncrementPerWave": 40,
						"StartingPoints": 200,
						"StartingWave": 4,
						"ZombiePool": [
							"RTID(dino@ZombieTypes)",
							"RTID(dino_armor1@ZombieTypes)",
							"RTID(dino_armor2@ZombieTypes)"
						]
					},
					{
						"PointIncrementPerWave": 60,
						"StartingPoints": 400,
						"StartingWave": 3,
						"ZombiePool": [
							"RTID(dino@ZombieTypes)",
							"RTID(dino_armor2@ZombieTypes)"
						]
					}
				],
				"WaveManagerProps": "RTID(WaveManagerProps@CurrentLevel)"
			}
		},
		{
			"aliases": [
				"WaveManagerProps"
			],
			"objclass": "WaveManagerProperties",
			"objdata": {
				"FlagWaveInterval": 4,
				"WaveCount": 8,
				"WaveSpendingPointIncrement": 75,
				"WaveSpendingPoints": 100,
				"Waves": [
					[
						"RTID(Wave1@CurrentLevel)"
					],
					[
						"RTID(Wave2@CurrentLevel)"
					],
					[
						"RTID(Wave3@CurrentLevel)",
						"RTID(Wave3DinoTimeEvent0@CurrentLevel)",
						"RTID(Wave3DinoTimeEvent1@CurrentLevel)"
					],
					[
						"RTID(Wave4@CurrentLevel)",
						"RTID(Wave4DinoTimeEvent0@CurrentLevel)"
					],
					[
						"RTID(Wave5@CurrentLevel)",
						"RTID(Wave5DinoTimeEvent0@CurrentLevel)",
						"RTID(Wave5DinoTimeEvent1@CurrentLevel)"
					],
					[
						"RTID(Wave6@CurrentLevel)",
						"RTID(Wave6DinoTimeEvent0@CurrentLevel)",
						"RTID(Wave6DinoTimeEvent1@CurrentLevel)"
					],
					[
						"RTID(Wave7@CurrentLevel)",
						"RTID(Wave7DinoTimeEvent0@CurrentLevel)",
						"RTID(Wave7DinoTimeEvent1@CurrentLevel)"
					],
					[
						"RTID(Wave8@CurrentLevel)",
						"RTID(Wave8DinoTimeEvent0@CurrentLevel)",
						"RTID(Wave8DinoTimeEvent1@CurrentLevel)",
						"RTID(Wave8DinoTimeEvent2@CurrentLevel)"
					]
				]
			}
		},
		{
			"aliases": [
				"Wave1"
			],
			"objclass": "SpawnZombiesJitteredWaveActionProps",
			"objdata": {
				"AdditionalPlantfood": 0,
				"Zombies": [
					{
						"Type": "RTID(dino@ZombieTypes)"
					}
				]
			}
		},
		{
			"aliases": [
				"Wave2"
			],
			"objclass": "SpawnZombiesJitteredWaveActionProps",
			"objdata": {
				"Zombies": [
					{
						"Type": "RTID(dino@ZombieTypes)"
					},
					{
						"Type": "RTID(dino@ZombieTypes)"
					}
				]
			}
		},
		{
			"aliases": [
				"Wave3"
			],
			"objclass": "SpawnZombiesJitteredWaveActionProps",
			"objdata": {
				"AdditionalPlantfood": 1,
				"DynamicPlantfood": [
					1,
					1,
					1,
					1,
					1,
					1,
					1
				],
				"Zombies": [
					{
						"Type": "RTID(dino@ZombieTypes)"
					},
					{
						"Type": "RTID(dino_armor1@ZombieTypes)"
					},
					{
						"Type": "RTID(dino_armor2@ZombieTypes)"
					},
					{
						"Type": "RTID(dino@ZombieTypes)"
					}
				]
			}
		},
		{
			"aliases": [
				"Wave4"
			],
			"objclass": "SpawnZombiesJitteredWaveActionProps",
			"objdata": {
				"Zombies": [
					{
						"Row": "3",
						"Type": "RTID(dino_bully@ZombieTypes)"
					},
					{
						"Row": "2",
						"Type": "RTID(dino_armor3@ZombieTypes)"
					},
					{
						"Row": "4",
						"Type": "RTID(dino_armor3@ZombieTypes)"
					}
				]
			}
		},
		{
			"aliases": [
				"Wave5"
			],
			"objclass": "SpawnZombiesJitteredWaveActionProps",
			"objdata": {
				"AdditionalPlantfood": 0,
				"Zombies": [
					{
						"Row": "1",
						"Type": "RTID(dino@ZombieTypes)"
					},
					{
						"Row": "5",
						"Type": "RTID(dino@ZombieTypes)"
					},
					{
						"Row": "5",
						"Type": "RTID(dino@ZombieTypes)"
					},
					{
						"Row": "5",
						"Type": "RTID(dino@ZombieTypes)"
					}
				]
			}
		},
		{
			"aliases": [
				"Wave6"
			],
			"objclass": "SpawnZombiesJitteredWaveActionProps",
			"objdata": {
				"AdditionalPlantfood": 1,
				"DynamicPlantfood": [
					1,
					1,
					1,
					1,
					1,
					0,
					0
				],
				"Zombies": [
					{
						"Row": "1",
						"Type": "RTID(dino_armor3@ZombieTypes)"
					},
					{
						"Row": "2",
						"Type": "RTID(dino_armor1@ZombieTypes)"
					},
					{
						"Row": "2",
						"Type": "RTID(dino_armor1@ZombieTypes)"
					},
					{
						"Row": "3",
						"Type": "RTID(dino_bully@ZombieTypes)"
					},
					{
						"Row": "3",
						"Type": "RTID(dino_armor1@ZombieTypes)"
					},
					{
						"Row": "4",
						"Type": "RTID(dino_armor1@ZombieTypes)"
					},
					{
						"Row": "5",
						"Type": "RTID(dino_armor2@ZombieTypes)"
					}
				]
			}
		},
		{
			"aliases": [
				"Wave7"
			],
			"objclass": "SpawnZombiesJitteredWaveActionProps",
			"objdata": {
				"Zombies": [
					{
						"Row": "1",
						"Type": "RTID(dino_armor2@ZombieTypes)"
					},
					{
						"Row": "1",
						"Type": "RTID(dino@ZombieTypes)"
					},
					{
						"Row": "5",
						"Type": "RTID(dino_armor3@ZombieTypes)"
					},
					{
						"Row": "5",
						"Type": "RTID(dino_armor2@ZombieTypes)"
					},
					{
						"Row": "5",
						"Type": "RTID(dino@ZombieTypes)"
					}
				]
			}
		},
		{
			"aliases": [
				"Wave8"
			],
			"objclass": "SpawnZombiesJitteredWaveActionProps",
			"objdata": {
				"AdditionalPlantfood": 0,
				"Zombies": [
					{
						"Row": "1",
						"Type": "RTID(dino_imp@ZombieTypes)"
					},
					{
						"Row": "1",
						"Type": "RTID(dino@ZombieTypes)"
					},
					{
						"Row": "2",
						"Type": "RTID(dino_imp@ZombieTypes)"
					},
					{
						"Row": "2",
						"Type": "RTID(dino_armor2@ZombieTypes)"
					},
					{
						"Row": "3",
						"Type": "RTID(dino_imp@ZombieTypes)"
					},
					{
						"Row": "3",
						"Type": "RTID(dino_armor1@ZombieTypes)"
					},
					{
						"Row": "4",
						"Type": "RTID(dino_imp@ZombieTypes)"
					},
					{
						"Row": "4",
						"Type": "RTID(dino_armor2@ZombieTypes)"
					},
					{
						"Row": "5",
						"Type": "RTID(dino_imp@ZombieTypes)"
					},
					{
						"Row": "5",
						"Type": "RTID(dino_armor1@ZombieTypes)"
					}
				]
			}
		},
		{
			"aliases": [
				"Wave3DinoTimeEvent0"
			],
			"objclass": "DinoWaveActionProps",
			"objdata": {
				"DinoRow": 1,
				"DinoType": "raptor",
				"DinoWaveDuration": 3
			}
		},
		{
			"aliases": [
				"Wave3DinoTimeEvent1"
			],
			"objclass": "DinoWaveActionProps",
			"objdata": {
				"DinoRow": 3,
				"DinoType": "raptor",
				"DinoWaveDuration": 3
			}
		},
		{
			"aliases": [
				"Wave4DinoTimeEvent0"
			],
			"objclass": "DinoWaveActionProps",
			"objdata": {
				"DinoRow": "2",
				"DinoType": "tyranno",
				"DinoWaveDuration": "0"
			}
		},
		{
			"aliases": [
				"Wave5DinoTimeEvent0"
			],
			"objclass": "DinoWaveActionProps",
			"objdata": {
				"DinoRow": 0,
				"DinoType": "ankylo",
				"DinoWaveDuration": "0"
			}
		},
		{
			"aliases": [
				"Wave5DinoTimeEvent1"
			],
			"objclass": "DinoWaveActionProps",
			"objdata": {
				"DinoRow": 4,
				"DinoType": "stego",
				"DinoWaveDuration": 2
			}
		},
		{
			"aliases": [
				"Wave6DinoTimeEvent0"
			],
			"objclass": "DinoWaveActionProps",
			"objdata": {
				"DinoRow": 1,
				"DinoType": "ptero",
				"DinoWaveDuration": "0"
			}
		},
		{
			"aliases": [
				"Wave6DinoTimeEvent1"
			],
			"objclass": "DinoWaveActionProps",
			"objdata": {
				"DinoRow": "2",
				"DinoType": "ptero",
				"DinoWaveDuration": "0"
			}
		},
		{
			"aliases": [
				"Wave7DinoTimeEvent0"
			],
			"objclass": "DinoWaveActionProps",
			"objdata": {
				"DinoRow": 0,
				"DinoType": "tyranno",
				"DinoWaveDuration": "0"
			}
		},
		{
			"aliases": [
				"Wave7DinoTimeEvent1"
			],
			"objclass": "DinoWaveActionProps",
			"objdata": {
				"DinoRow": 4,
				"DinoType": "tyranno",
				"DinoWaveDuration": "0"
			}
		},
		{
			"aliases": [
				"Wave8DinoTimeEvent0"
			],
			"objclass": "DinoWaveActionProps",
			"objdata": {
				"DinoRow": 0,
				"DinoType": "raptor",
				"DinoWaveDuration": "0"
			}
		},
		{
			"aliases": [
				"Wave8DinoTimeEvent1"
			],
			"objclass": "DinoWaveActionProps",
			"objdata": {
				"DinoRow": "2",
				"DinoType": "raptor",
				"DinoWaveDuration": "0"
			}
		},
		{
			"aliases": [
				"Wave8DinoTimeEvent2"
			],
			"objclass": "DinoWaveActionProps",
			"objdata": {
				"DinoRow": 4,
				"DinoType": "raptor",
				"DinoWaveDuration": "0"
			}
		}
	],
	"version": 1
}