{
	"#comment": "Dino 13",
	"objects": [
		{
			"objclass": "LevelDefinition",
			"objdata": {
				"Description": "[PLAYERS_TRIP_TO_DINO]",
				"LevelNumber": 13,
				"Loot": "RTID(DefaultLoot@LevelModules)",
				"Modules": [
					"RTID(StandardIntro@LevelModules)",
					"RTID(DefaultSunDropper@LevelModules)",
					"RTID(ZombiesDeadWinCon@LevelModules)",
					"RTID(DinoMowers@LevelModules)",
					"RTID(SeedBank@CurrentLevel)",
					"RTID(DefaultZombieWinCondition@LevelModules)",
					"RTID(NewWaves@CurrentLevel)"
				],
				"Name": "[DINO_LEVEL_NAME]",
				"NormalPresentTable": "egypt_normal_01",
				"ShinyPresentTable": "egypt_shiny_01",
				"StageModule": "RTID(DinoStage@LevelModules)"
			}
		},
		{
			"aliases": [
				"SeedBank"
			],
			"objclass": "SeedBankProperties",
			"objdata": {
				"SelectionMethod": "chooser"
			}
		},
		{
			"aliases": [
				"NewWaves"
			],
			"objclass": "WaveManagerModuleProperties",
			"objdata": {
				"DynamicZombies": [
					{
						"PointIncrementPerWave": -40,
						"StartingPoints": -100,
						"StartingWave": 3,
						"ZombiePool": [
							"RTID(dino@ZombieTypes)",
							"RTID(dino_armor1@ZombieTypes)",
							"RTID(dino_armor2@ZombieTypes)"
						]
					},
					{
						"PointIncrementPerWave": -25,
						"StartingPoints": -100,
						"StartingWave": 4,
						"ZombiePool": [
							"RTID(dino@ZombieTypes)",
							"RTID(dino_armor1@ZombieTypes)",
							"RTID(dino_armor2@ZombieTypes)"
						]
					},
					{
						"PointIncrementPerWave": -10,
						"StartingPoints": -100,
						"StartingWave": 5,
						"ZombiePool": [
							"RTID(dino@ZombieTypes)",
							"RTID(dino_armor1@ZombieTypes)",
							"RTID(dino_armor2@ZombieTypes)"
						]
					},
					{},
					{
						"PointIncrementPerWave": 20,
						"StartingPoints": 100,
						"StartingWave": 5,
						"ZombiePool": [
							"RTID(dino@ZombieTypes)",
							"RTID(dino_armor1@ZombieTypes)",
							"RTID(dino_armor2@ZombieTypes)"
						]
					},
					{
						"PointIncrementPerWave": 40,
						"StartingPoints": 200,
						"StartingWave": 4,
						"ZombiePool": [
							"RTID(dino@ZombieTypes)",
							"RTID(dino_armor1@ZombieTypes)",
							"RTID(dino_armor2@ZombieTypes)"
						]
					},
					{
						"PointIncrementPerWave": 60,
						"StartingPoints": 400,
						"StartingWave": 3,
						"ZombiePool": [
							"RTID(dino@ZombieTypes)",
							"RTID(dino_armor2@ZombieTypes)"
						]
					}
				],
				"WaveManagerProps": "RTID(WaveManagerProps@CurrentLevel)"
			}
		},
		{
			"aliases": [
				"WaveManagerProps"
			],
			"objclass": "WaveManagerProperties",
			"objdata": {
				"FlagWaveInterval": 5,
				"WaveCount": 10,
				"WaveSpendingPointIncrement": 100,
				"WaveSpendingPoints": 100,
				"Waves": [
					[
						"RTID(Wave1@CurrentLevel)",
						"RTID(Wave1DinoTimeEvent0@CurrentLevel)"
					],
					[
						"RTID(Wave2@CurrentLevel)"
					],
					[
						"RTID(Wave3@CurrentLevel)"
					],
					[
						"RTID(Wave4@CurrentLevel)"
					],
					[
						"RTID(Wave5@CurrentLevel)",
						"RTID(Wave5DinoTimeEvent0@CurrentLevel)",
						"RTID(Wave5DinoTimeEvent1@CurrentLevel)"
					],
					[
						"RTID(Wave6@CurrentLevel)"
					],
					[
						"RTID(Wave7@CurrentLevel)",
						"RTID(Wave7DinoTimeEvent0@CurrentLevel)",
						"RTID(Wave7DinoTimeEvent1@CurrentLevel)"
					],
					[
						"RTID(Wave8@CurrentLevel)"
					],
					[
						"RTID(Wave9@CurrentLevel)",
						"RTID(Wave9DinoTimeEvent0@CurrentLevel)"
					],
					[
						"RTID(Wave10@CurrentLevel)"
					]
				]
			}
		},
		{
			"aliases": [
				"Wave1"
			],
			"objclass": "SpawnZombiesJitteredWaveActionProps",
			"objdata": {
				"AdditionalPlantfood": 0,
				"Zombies": [
					{
						"Row": "3",
						"Type": "RTID(dino@ZombieTypes)"
					}
				]
			}
		},
		{
			"aliases": [
				"Wave2"
			],
			"objclass": "SpawnZombiesJitteredWaveActionProps",
			"objdata": {
				"Zombies": [
					{
						"Row": "3",
						"Type": "RTID(dino_imp@ZombieTypes)"
					},
					{
						"Row": "4",
						"Type": "RTID(dino_imp@ZombieTypes)"
					}
				]
			}
		},
		{
			"aliases": [
				"Wave3"
			],
			"objclass": "SpawnZombiesJitteredWaveActionProps",
			"objdata": {
				"AdditionalPlantfood": 0,
				"Zombies": [
					{
						"Row": "3",
						"Type": "RTID(dino_armor1@ZombieTypes)"
					},
					{
						"Row": "2",
						"Type": "RTID(dino@ZombieTypes)"
					}
				]
			}
		},
		{
			"aliases": [
				"Wave4"
			],
			"objclass": "SpawnZombiesJitteredWaveActionProps",
			"objdata": {
				"AdditionalPlantfood": 1,
				"Zombies": [
					{
						"Row": "5",
						"Type": "RTID(dino_imp@ZombieTypes)"
					},
					{
						"Row": "4",
						"Type": "RTID(dino@ZombieTypes)"
					},
					{
						"Row": "3",
						"Type": "RTID(dino@ZombieTypes)"
					},
					{
						"Row": "2",
						"Type": "RTID(dino_imp@ZombieTypes)"
					}
				]
			}
		},
		{
			"aliases": [
				"Wave5"
			],
			"objclass": "SpawnZombiesJitteredWaveActionProps",
			"objdata": {
				"AdditionalPlantfood": 0,
				"Zombies": [
					{
						"Row": "5",
						"Type": "RTID(dino_armor2@ZombieTypes)"
					},
					{
						"Row": "4",
						"Type": "RTID(dino_imp@ZombieTypes)"
					},
					{
						"Row": "3",
						"Type": "RTID(dino@ZombieTypes)"
					},
					{
						"Row": "2",
						"Type": "RTID(dino_armor1@ZombieTypes)"
					},
					{
						"Row": "1",
						"Type": "RTID(dino_armor2@ZombieTypes)"
					}
				]
			}
		},
		{
			"aliases": [
				"Wave6"
			],
			"objclass": "SpawnZombiesJitteredWaveActionProps",
			"objdata": {
				"Zombies": [
					{
						"Row": "3",
						"Type": "RTID(dino_armor1@ZombieTypes)"
					},
					{
						"Row": "3",
						"Type": "RTID(dino@ZombieTypes)"
					},
					{
						"Row": "1",
						"Type": "RTID(dino@ZombieTypes)"
					},
					{
						"Row": "4",
						"Type": "RTID(dino@ZombieTypes)"
					},
					{
						"Row": "4",
						"Type": "RTID(dino@ZombieTypes)"
					}
				]
			}
		},
		{
			"aliases": [
				"Wave7"
			],
			"objclass": "SpawnZombiesJitteredWaveActionProps",
			"objdata": {
				"AdditionalPlantfood": 0,
				"Zombies": [
					{
						"Row": "1",
						"Type": "RTID(dino_armor1@ZombieTypes)"
					},
					{
						"Row": "1",
						"Type": "RTID(dino@ZombieTypes)"
					},
					{
						"Row": "5",
						"Type": "RTID(dino_armor1@ZombieTypes)"
					},
					{
						"Row": "5",
						"Type": "RTID(dino@ZombieTypes)"
					},
					{
						"Row": "2",
						"Type": "RTID(dino_armor2@ZombieTypes)"
					},
					{
						"Row": "2",
						"Type": "RTID(dino@ZombieTypes)"
					}
				]
			}
		},
		{
			"aliases": [
				"Wave8"
			],
			"objclass": "SpawnZombiesJitteredWaveActionProps",
			"objdata": {
				"AdditionalPlantfood": 0,
				"Zombies": [
					{
						"Row": "2",
						"Type": "RTID(dino@ZombieTypes)"
					},
					{
						"Row": "5",
						"Type": "RTID(dino_imp@ZombieTypes)"
					},
					{
						"Row": "3",
						"Type": "RTID(dino_armor3@ZombieTypes)"
					},
					{
						"Row": "5",
						"Type": "RTID(dino_imp@ZombieTypes)"
					},
					{
						"Row": "4",
						"Type": "RTID(dino@ZombieTypes)"
					}
				]
			}
		},
		{
			"aliases": [
				"Wave9"
			],
			"objclass": "SpawnZombiesJitteredWaveActionProps",
			"objdata": {
				"Zombies": [
					{
						"Row": "1",
						"Type": "RTID(dino_armor1@ZombieTypes)"
					},
					{
						"Row": "1",
						"Type": "RTID(dino_imp@ZombieTypes)"
					},
					{
						"Row": "1",
						"Type": "RTID(dino@ZombieTypes)"
					},
					{
						"Row": "5",
						"Type": "RTID(dino_armor1@ZombieTypes)"
					},
					{
						"Row": "5",
						"Type": "RTID(dino_imp@ZombieTypes)"
					},
					{
						"Row": "5",
						"Type": "RTID(dino@ZombieTypes)"
					},
					{
						"Row": "3",
						"Type": "RTID(dino@ZombieTypes)"
					}
				]
			}
		},
		{
			"aliases": [
				"Wave10"
			],
			"objclass": "SpawnZombiesJitteredWaveActionProps",
			"objdata": {
				"AdditionalPlantfood": 0,
				"Zombies": [
					{
						"Row": "5",
						"Type": "RTID(dino_armor3@ZombieTypes)"
					},
					{
						"Row": "4",
						"Type": "RTID(dino_imp@ZombieTypes)"
					},
					{
						"Row": "3",
						"Type": "RTID(dino_imp@ZombieTypes)"
					},
					{
						"Row": "2",
						"Type": "RTID(dino_armor3@ZombieTypes)"
					},
					{
						"Row": "1",
						"Type": "RTID(dino_imp@ZombieTypes)"
					},
					{
						"Row": "5",
						"Type": "RTID(dino_armor1@ZombieTypes)"
					},
					{
						"Row": "4",
						"Type": "RTID(dino_armor2@ZombieTypes)"
					},
					{
						"Row": "3",
						"Type": "RTID(dino_armor1@ZombieTypes)"
					},
					{
						"Row": "2",
						"Type": "RTID(dino@ZombieTypes)"
					},
					{
						"Row": "1",
						"Type": "RTID(dino@ZombieTypes)"
					}
				]
			}
		},
		{
			"aliases": [
				"Wave1DinoTimeEvent0"
			],
			"objclass": "DinoWaveActionProps",
			"objdata": {
				"DinoRow": "2",
				"DinoType": "stego"
			}
		},
		{
			"aliases": [
				"Wave5DinoTimeEvent0"
			],
			"objclass": "DinoWaveActionProps",
			"objdata": {
				"DinoRow": 0,
				"DinoType": "raptor"
			}
		},
		{
			"aliases": [
				"Wave7DinoTimeEvent0"
			],
			"objclass": "DinoWaveActionProps",
			"objdata": {
				"DinoRow": 1,
				"DinoType": "stego"
			}
		},
		{
			"aliases": [
				"Wave9DinoTimeEvent0"
			],
			"objclass": "DinoWaveActionProps",
			"objdata": {
				"DinoRow": 4,
				"DinoType": "stego"
			}
		},
		{
			"aliases": [
				"Wave5DinoTimeEvent1"
			],
			"objclass": "DinoWaveActionProps",
			"objdata": {
				"DinoRow": "2",
				"DinoType": "stego"
			}
		},
		{
			"aliases": [
				"Wave7DinoTimeEvent1"
			],
			"objclass": "DinoWaveActionProps",
			"objdata": {
				"DinoRow": 4,
				"DinoType": "raptor"
			}
		}
	],
	"version": 1
}