{
	"#comment": "Eighties 17",
	"objects": [
		{
			"objclass": "LevelDefinition",
			"objdata": {
				"Description": "[PLAYERS_TRIP_TO_EIGHTIES]",
				"LevelNumber": 17,
				"FirstIntroNarrative": "EIGHTIES_17_INTRO",
				"FirstRewardParam": "garlic",
				"FirstRewardType": "unlock_plant",
				"Loot": "RTID(DefaultLoot@LevelModules)",
				"Modules": [
					"RTID(StandardIntro@LevelModules)",
					"RTID(DefaultSunDropper@LevelModules)",
					"RTID(EightiesMowers@LevelModules)",
					"RTID(DefaultZombieWinCondition@LevelModules)",
					"RTID(ZombiesDeadWinCon@LevelModules)",
					"RTID(SeedBank@CurrentLevel)",
					"RTID(NewWaves@CurrentLevel)"
				],
				"Name": "[EIGHTIES_LEVEL_NAME]",
				"NormalPresentTable": "egypt_normal_01",
				"ShinyPresentTable": "egypt_shiny_01",
				"StageModule": "RTID(EightiesStage@LevelModules)"
			}
		},
		{
			"aliases": [
				"SeedBank"
			],
			"objclass": "SeedBankProperties",
			"objdata": {
				"SelectionMethod": "chooser"
			}
		},
		{
			"aliases": [
				"NewWaves"
			],
			"objclass": "WaveManagerModuleProperties",
			"objdata": {
				"DynamicZombies": [
					{
						"PointIncrementPerWave": -40,
						"StartingPoints": -100,
						"StartingWave": 3,
						"ZombiePool": [
							"RTID(eighties@ZombieTypes)",
							"RTID(eighties_armor1@ZombieTypes)",
							"RTID(eighties_armor2@ZombieTypes)"
						]
					},
					{
						"PointIncrementPerWave": -25,
						"StartingPoints": -100,
						"StartingWave": 4,
						"ZombiePool": [
							"RTID(eighties@ZombieTypes)",
							"RTID(eighties_armor1@ZombieTypes)",
							"RTID(eighties_armor2@ZombieTypes)"
						]
					},
					{
						"PointIncrementPerWave": -10,
						"StartingPoints": -100,
						"StartingWave": 5,
						"ZombiePool": [
							"RTID(eighties@ZombieTypes)",
							"RTID(eighties_armor1@ZombieTypes)",
							"RTID(eighties_armor2@ZombieTypes)"
						]
					},
					{},
					{
						"PointIncrementPerWave": 20,
						"StartingPoints": 100,
						"StartingWave": 5,
						"ZombiePool": [
							"RTID(eighties@ZombieTypes)",
							"RTID(eighties_armor1@ZombieTypes)",
							"RTID(eighties_armor2@ZombieTypes)"
						]
					},
					{
						"PointIncrementPerWave": 40,
						"StartingPoints": 200,
						"StartingWave": 4,
						"ZombiePool": [
							"RTID(eighties@ZombieTypes)",
							"RTID(eighties_armor1@ZombieTypes)",
							"RTID(eighties_armor2@ZombieTypes)"
						]
					},
					{
						"PointIncrementPerWave": 60,
						"StartingPoints": 400,
						"StartingWave": 3,
						"ZombiePool": [
							"RTID(eighties@ZombieTypes)",
							"RTID(eighties_armor2@ZombieTypes)"
						]
					}
				],
				"WaveManagerProps": "RTID(WaveManagerProps@CurrentLevel)"
			}
		},
		{
			"aliases": [
				"WaveManagerProps"
			],
			"objclass": "WaveManagerProperties",
			"objdata": {
				"FlagWaveInterval": 5,
				"WaveCount": 10,
				"WaveSpendingPointIncrement": 100,
				"WaveSpendingPoints": 100,
				"Waves": [
					[
						"RTID(Wave1@CurrentLevel)"
					],
					[
						"RTID(Wave2@CurrentLevel)"
					],
					[
						"RTID(Wave3@CurrentLevel)"
					],
					[
						"RTID(Wave4@CurrentLevel)"
					],
					[
						"RTID(Wave5@CurrentLevel)"
					],
					[
						"RTID(Wave6@CurrentLevel)"
					],
					[
						"RTID(Wave7@CurrentLevel)"
					],
					[
						"RTID(Wave8@CurrentLevel)"
					],
					[
						"RTID(Wave9@CurrentLevel)"
					],
					[
						"RTID(Wave10@CurrentLevel)"
					]
				]
			}
		},
		{
			"aliases": [
				"Wave1"
			],
			"objclass": "SpawnZombiesJitteredWaveActionProps",
			"objdata": {
				"Zombies": [
					{
						"Type": "RTID(eighties@ZombieTypes)"
					}
				]
			}
		},
		{
			"aliases": [
				"Wave2"
			],
			"objclass": "SpawnZombiesJitteredWaveActionProps",
			"objdata": {
				"Zombies": [
					{
						"Type": "RTID(eighties_armor2@ZombieTypes)"
					}
				]
			}
		},
		{
			"aliases": [
				"Wave3"
			],
			"objclass": "SpawnZombiesJitteredWaveActionProps",
			"objdata": {
				"AdditionalPlantfood": 1,
				"DynamicPlantfood": [
					1,
					1,
					1,
					1,
					1,
					1,
					1
				],
				"Zombies": [
					{
						"Type": "RTID(eighties_breakdancer@ZombieTypes)"
					}
				]
			}
		},
		{
			"aliases": [
				"Wave4"
			],
			"objclass": "SpawnZombiesJitteredWaveActionProps",
			"objdata": {
				"NotificationEvents": [
					"jam_rap"
				],
				"Zombies": [
					{
						"Row": "1",
						"Type": "RTID(eighties_imp@ZombieTypes)"
					},
					{
						"Row": "1",
						"Type": "RTID(eighties_imp@ZombieTypes)"
					},
					{
						"Row": "5",
						"Type": "RTID(eighties_imp@ZombieTypes)"
					},
					{
						"Row": "5",
						"Type": "RTID(eighties_imp@ZombieTypes)"
					},
					{
						"Row": "2",
						"Type": "RTID(eighties_imp@ZombieTypes)"
					},
					{
						"Row": "2",
						"Type": "RTID(eighties_imp@ZombieTypes)"
					},
					{
						"Row": "3",
						"Type": "RTID(eighties_imp@ZombieTypes)"
					},
					{
						"Row": "3",
						"Type": "RTID(eighties_imp@ZombieTypes)"
					},
					{
						"Row": "4",
						"Type": "RTID(eighties_imp@ZombieTypes)"
					},
					{
						"Row": "4",
						"Type": "RTID(eighties_imp@ZombieTypes)"
					},
					{
						"Row": "1",
						"Type": "RTID(eighties_breakdancer@ZombieTypes)"
					},
					{
						"Row": "5",
						"Type": "RTID(eighties_breakdancer@ZombieTypes)"
					}
				]
			}
		},
		{
			"aliases": [
				"Wave5"
			],
			"objclass": "SpawnZombiesJitteredWaveActionProps",
			"objdata": {
				"Zombies": [
					{
						"Row": "2",
						"Type": "RTID(eighties_armor1@ZombieTypes)"
					},
					{
						"Row": "3",
						"Type": "RTID(eighties_armor1@ZombieTypes)"
					},
					{
						"Row": "4",
						"Type": "RTID(eighties_armor1@ZombieTypes)"
					},
					{
						"Row": "2",
						"Type": "RTID(eighties_breakdancer@ZombieTypes)"
					},
					{
						"Row": "3",
						"Type": "RTID(eighties_breakdancer@ZombieTypes)"
					},
					{
						"Row": "4",
						"Type": "RTID(eighties_breakdancer@ZombieTypes)"
					}
				]
			}
		},
		{
			"aliases": [
				"Wave6"
			],
			"objclass": "SpawnZombiesJitteredWaveActionProps",
			"objdata": {
				"AdditionalPlantfood": 1,
				"DynamicPlantfood": [
					1,
					1,
					1,
					1,
					1,
					0,
					0
				],
				"NotificationEvents": [
					"jam_punk"
				],
				"Zombies": [
					{
						"Type": "RTID(eighties_armor2@ZombieTypes)"
					},
					{
						"Row": "1",
						"Type": "RTID(eighties_punk@ZombieTypes)"
					},
					{
						"Row": "3",
						"Type": "RTID(eighties_punk@ZombieTypes)"
					},
					{
						"Type": "RTID(eighties_armor2@ZombieTypes)"
					},
					{
						"Row": "5",
						"Type": "RTID(eighties_punk@ZombieTypes)"
					},
					{
						"Type": "RTID(eighties_armor2@ZombieTypes)"
					}
				]
			}
		},
		{
			"aliases": [
				"Wave7"
			],
			"objclass": "SpawnZombiesJitteredWaveActionProps",
			"objdata": {
				"Zombies": [
					{
						"Row": "1",
						"Type": "RTID(eighties_punk@ZombieTypes)"
					},
					{
						"Row": "3",
						"Type": "RTID(eighties_punk@ZombieTypes)"
					},
					{
						"Row": "5",
						"Type": "RTID(eighties_punk@ZombieTypes)"
					},
					{
						"Row": "1",
						"Type": "RTID(eighties_breakdancer@ZombieTypes)"
					},
					{
						"Row": "3",
						"Type": "RTID(eighties_breakdancer@ZombieTypes)"
					},
					{
						"Row": "5",
						"Type": "RTID(eighties_breakdancer@ZombieTypes)"
					}
				]
			}
		},
		{
			"aliases": [
				"Wave8"
			],
			"objclass": "SpawnZombiesJitteredWaveActionProps",
			"objdata": {
				"NotificationEvents": [
					"jam_rap"
				],
				"Zombies": [
					{
						"Row": "2",
						"Type": "RTID(eighties_armor1@ZombieTypes)"
					},
					{
						"Row": "4",
						"Type": "RTID(eighties_armor1@ZombieTypes)"
					}
				]
			}
		},
		{
			"aliases": [
				"Wave9"
			],
			"objclass": "SpawnZombiesJitteredWaveActionProps",
			"objdata": {
				"AdditionalPlantfood": 1,
				"DynamicPlantfood": [
					1,
					1,
					1,
					1,
					0,
					0,
					0
				],
				"Zombies": [
					{
						"Row": "2",
						"Type": "RTID(eighties_armor2@ZombieTypes)"
					},
					{
						"Row": "4",
						"Type": "RTID(eighties_armor2@ZombieTypes)"
					},
					{
						"Row": "2",
						"Type": "RTID(eighties_breakdancer@ZombieTypes)"
					},
					{
						"Row": "4",
						"Type": "RTID(eighties_breakdancer@ZombieTypes)"
					}
				]
			}
		},
		{
			"aliases": [
				"Wave10"
			],
			"objclass": "SpawnZombiesJitteredWaveActionProps",
			"objdata": {
				"Zombies": [
					{
						"Row": "1",
						"Type": "RTID(eighties_armor2@ZombieTypes)"
					},
					{
						"Row": "2",
						"Type": "RTID(eighties_armor2@ZombieTypes)"
					},
					{
						"Row": "3",
						"Type": "RTID(eighties_armor2@ZombieTypes)"
					},
					{
						"Row": "4",
						"Type": "RTID(eighties_armor2@ZombieTypes)"
					},
					{
						"Row": "5",
						"Type": "RTID(eighties_armor2@ZombieTypes)"
					},
					{
						"Row": "1",
						"Type": "RTID(eighties_breakdancer@ZombieTypes)"
					},
					{
						"Row": "2",
						"Type": "RTID(eighties_breakdancer@ZombieTypes)"
					},
					{
						"Row": "3",
						"Type": "RTID(eighties_breakdancer@ZombieTypes)"
					},
					{
						"Row": "4",
						"Type": "RTID(eighties_breakdancer@ZombieTypes)"
					},
					{
						"Row": "5",
						"Type": "RTID(eighties_breakdancer@ZombieTypes)"
					}
				]
			}
		}
	],
	"version": 1
}