{
	"#comment": "Future 29",
	"objects": [
		{
			"objclass": "LevelDefinition",
			"objdata": {
				"Description": "[EPIC_QUEST_FUTURE_NEW_TITLE]",
				"LevelNumber": 4,
				"Loot": "RTID(DefaultLoot@LevelModules)",
				"Modules": [
					"RTID(StandardIntro@LevelModules)",
					"RTID(DefaultSunDropper@LevelModules)",
					"RTID(FutureMowers@LevelModules)",
					"RTID(DefaultZombieWinCondition@LevelModules)",
					"RTID(ZombiesDeadWinCon@LevelModules)",
					"RTID(FutureLinkedTileGroups@CurrentLevel)",
					"RTID(ChallengeModule@CurrentLevel)",
					"RTID(ProtectThePlant@CurrentLevel)",
					"RTID(SeedBank@CurrentLevel)",
					"RTID(NewWaves@CurrentLevel)"
				],
				"Name": "[EPIC_QUEST_FUTURE_NEW_TITLE]",
				"NormalPresentTable": "future_normal_01",
				"ShinyPresentTable": "future_shiny_01",
				"ForceToWorldMap": true,
				"RepeatPlayForceToWorldMap": true,
				"StageModule": "RTID(FutureStage@LevelModules)"
			}
		},
		{
			"aliases": [
				"SeedBank"
			],
			"objclass": "SeedBankProperties",
			"objdata": {
				"SelectionMethod": "chooser"
			}
		},
		{
			"aliases": [
				"ProtectThePlant"
			],
			"objclass": "ProtectThePlantChallengeProperties",
			"objdata": {
				"MustProtectCount": 5,
				"Plants": [
					{
						"GridX": 0,
						"GridY": 0,
						"PlantType": "sapfling"
					},
					{
						"GridX": 0,
						"GridY": 1,
						"PlantType": "sapfling"
					},
					{
						"GridX": 0,
						"GridY": 2,
						"PlantType": "sapfling"
					},
					{
						"GridX": 0,
						"GridY": 3,
						"PlantType": "sapfling"
					},
					{
						"GridX": 0,
						"GridY": 4,
						"PlantType": "sapfling"
					}
				]
			}
		},
		{
			"aliases": [
				"ChallengeModule"
			],
			"objclass": "StarChallengeModuleProperties",
			"objdata": {
				"Challenges": [
					[
						"RTID(BeatTheLevel@CurrentLevel)",
						"RTID(DoNotPlantBeforeLine@CurrentLevel)"
					]
				],
				"ChallengesAlwaysAvailable": true
			}
		},
		{
			"aliases": [
				"DoNotPlantBeforeLine"
			],
			"objclass": "MoldColonyChallengeProps",
			"objdata": {
				"Locations": "RTID(Column1@BoardGridMaps)"
			}
		},
		{
			"aliases": [
				"BeatTheLevel"
			],
			"objclass": "StarChallengeBeatTheLevelProps",
			"objdata": {
				"Description": "[STARCHALLENGE_PROTECT_THE_PLANT]",
				"DescriptiveName": "[STARCHALLENGE_PROTECT_THE_PLANT_NAME]"
			}
		},
		{
			"aliases": [
				"FutureLinkedTileGroups"
			],
			"objclass": "PowerTileProperties",
			"objdata": {
				"LinkedTiles": []
			}
		},
		{
			"aliases": [
				"NewWaves"
			],
			"objclass": "WaveManagerModuleProperties",
			"objdata": {
				"DynamicZombies": [
					{
						"PointIncrementPerWave": -1,
						"StartingPoints": -1,
						"StartingWave": 3,
						"ZombiePool": [
							"RTID(future@ZombieTypes)",
							"RTID(future_armor1@ZombieTypes)",
							"RTID(future_armor2@ZombieTypes)",
							"RTID(future_armor4@ZombieTypes)",
							"RTID(future_jetpack@ZombieTypes)"
						]
					},
					{
						"PointIncrementPerWave": -1,
						"StartingPoints": -1,
						"StartingWave": 4,
						"ZombiePool": [
							"RTID(future@ZombieTypes)",
							"RTID(future_armor1@ZombieTypes)",
							"RTID(future_armor2@ZombieTypes)",
							"RTID(future_armor4@ZombieTypes)",
							"RTID(future_jetpack@ZombieTypes)"
						]
					},
					{
						"PointIncrementPerWave": -1,
						"StartingPoints": -1,
						"StartingWave": 5,
						"ZombiePool": [
							"RTID(future@ZombieTypes)",
							"RTID(future_armor1@ZombieTypes)",
							"RTID(future_armor2@ZombieTypes)",
							"RTID(future_armor4@ZombieTypes)",
							"RTID(future_jetpack@ZombieTypes)"
						]
					},
					{},
					{
						"PointIncrementPerWave": 1,
						"StartingPoints": 1,
						"StartingWave": 5,
						"ZombiePool": [
							"RTID(future@ZombieTypes)",
							"RTID(future_armor1@ZombieTypes)",
							"RTID(future_armor2@ZombieTypes)",
							"RTID(future_armor4@ZombieTypes)",
							"RTID(future_jetpack@ZombieTypes)"
						]
					},
					{
						"PointIncrementPerWave": 1,
						"StartingPoints": 1,
						"StartingWave": 4,
						"ZombiePool": [
							"RTID(future_armor1@ZombieTypes)",
							"RTID(future_armor2@ZombieTypes)",
							"RTID(future_armor4@ZombieTypes)",
							"RTID(future_jetpack@ZombieTypes)"
						]
					},
					{
						"PointIncrementPerWave": 1,
						"StartingPoints": 1,
						"StartingWave": 3,
						"ZombiePool": [
							"RTID(future_armor2@ZombieTypes)",
							"RTID(future_armor4@ZombieTypes)",
							"RTID(future_jetpack@ZombieTypes)"
						]
					}
				],
				"WaveManagerProps": "RTID(WaveManagerProps@CurrentLevel)"
			}
		},
		{
			"aliases": [
				"WaveManagerProps"
			],
			"objclass": "WaveManagerProperties",
			"objdata": {
				"FlagWaveInterval": 3,
				"FlagWaveVeteranOverrideTypes": [
					1,
					1,
					1,
					1
				],
				"WaveCount": 12,
				"WaveSpendingPointIncrement": 100,
				"WaveSpendingPoints": 400,
				"Waves": [
					[
						"RTID(Wave1@CurrentLevel)"
					],
					[
						"RTID(Wave2@CurrentLevel)"
					],
					[
						"RTID(Wave3@CurrentLevel)",
						"RTID(Wave3GraveSpawnEvent0@CurrentLevel)"
					],
					[
						"RTID(Wave4@CurrentLevel)"
					],
					[
						"RTID(Wave5@CurrentLevel)"
					],
					[
						"RTID(Wave6@CurrentLevel)",
						"RTID(Wave6GraveSpawnEvent0@CurrentLevel)"
					],
					[
						"RTID(Wave7@CurrentLevel)"
					],
					[
						"RTID(Wave8@CurrentLevel)",
						"RTID(Wave8GraveSpawnEvent0@CurrentLevel)"
					],
					[
						"RTID(Wave9@CurrentLevel)",
						"RTID(Wave9GraveSpawnEvent0@CurrentLevel)"
					],
					[
						"RTID(Wave10@CurrentLevel)"
					],
					[
						"RTID(Wave11@CurrentLevel)",
						"RTID(Wave11GraveSpawnEvent0@CurrentLevel)"
					],
					[
						"RTID(Wave12@CurrentLevel)",
						"RTID(Wave12GraveSpawnEvent0@CurrentLevel)"
					]
				]
			}
		},
		{
			"aliases": [
				"Wave1"
			],
			"objclass": "SpawnZombiesJitteredWaveActionProps",
			"objdata": {
				"Zombies": [
					{
						"Row": "1",
						"Type": "RTID(future_imp@ZombieTypes)"
					},
					{
						"Row": "3",
						"Type": "RTID(future_imp@ZombieTypes)"
					},
					{
						"Row": "5",
						"Type": "RTID(future_imp@ZombieTypes)"
					},
					{
						"Type": "RTID(future_armor1@ZombieTypes)"
					}
				]
			}
		},
		{
			"aliases": [
				"Wave2"
			],
			"objclass": "SpawnZombiesJitteredWaveActionProps",
			"objdata": {
				"Zombies": [
					{
						"Row": "5",
						"Type": "RTID(future_armor2@ZombieTypes)"
					},
					{
						"Row": "4",
						"Type": "RTID(future_armor2@ZombieTypes)"
					},
					{
						"Row": "3",
						"Type": "RTID(future_armor2@ZombieTypes)"
					},
					{
						"Row": "2",
						"Type": "RTID(future_armor2@ZombieTypes)"
					},
					{
						"Row": "1",
						"Type": "RTID(future_armor2@ZombieTypes)"
					},
					{
						"Type": "RTID(future_jetpack@ZombieTypes)"
					},
					{
						"Type": "RTID(future_jetpack@ZombieTypes)"
					}
				]
			}
		},
		{
			"aliases": [
				"Wave3"
			],
			"objclass": "SpawnZombiesJitteredWaveActionProps",
			"objdata": {
				"Zombies": [
					{
						"Row": "2",
						"Type": "RTID(future_imp@ZombieTypes)"
					},
					{
						"Row": "4",
						"Type": "RTID(future_imp@ZombieTypes)"
					},
					{
						"Row": "3",
						"Type": "RTID(future_armor2@ZombieTypes)"
					},
					{
						"Row": "5",
						"Type": "RTID(future_armor2@ZombieTypes)"
					}
				]
			}
		},
		{
			"aliases": [
				"Wave4"
			],
			"objclass": "SpawnZombiesJitteredWaveActionProps",
			"objdata": {
				"AdditionalPlantfood": 0,
				"Zombies": [
					{
						"Type": "RTID(future@ZombieTypes)"
					},
					{
						"Row": "3",
						"Type": "RTID(future_imp@ZombieTypes)"
					},
					{
						"Type": "RTID(future_armor4@ZombieTypes)"
					}
				]
			}
		},
		{
			"aliases": [
				"Wave5"
			],
			"objclass": "SpawnZombiesJitteredWaveActionProps",
			"objdata": {
				"AdditionalPlantfood": 1,
				"Zombies": [
					{
						"Row": "4",
						"Type": "RTID(future_protector@ZombieTypes)"
					},
					{
						"Row": "2",
						"Type": "RTID(future_protector@ZombieTypes)"
					},
					{
						"Type": "RTID(future_armor4@ZombieTypes)"
					},
					{
						"Row": "5",
						"Type": "RTID(future_armor2@ZombieTypes)"
					},
					{
						"Row": "4",
						"Type": "RTID(future_jetpack@ZombieTypes)"
					},
					{
						"Row": "3",
						"Type": "RTID(future_armor2@ZombieTypes)"
					},
					{
						"Row": "2",
						"Type": "RTID(future_jetpack@ZombieTypes)"
					},
					{
						"Row": "1",
						"Type": "RTID(future_armor2@ZombieTypes)"
					}
				]
			}
		},
		{
			"aliases": [
				"Wave6"
			],
			"objclass": "SpawnZombiesJitteredWaveActionProps",
			"objdata": {
				"AdditionalPlantfood": 0,
				"Zombies": [
					{
						"Row": "5",
						"Type": "RTID(future_imp@ZombieTypes)"
					},
					{
						"Row": "4",
						"Type": "RTID(future_imp@ZombieTypes)"
					},
					{
						"Row": "3",
						"Type": "RTID(future_imp@ZombieTypes)"
					},
					{
						"Row": "2",
						"Type": "RTID(future_imp@ZombieTypes)"
					},
					{
						"Row": "1",
						"Type": "RTID(future_imp@ZombieTypes)"
					},
					{
						"Row": "2",
						"Type": "RTID(future_armor4@ZombieTypes)"
					},
					{
						"Row": "4",
						"Type": "RTID(future_armor4@ZombieTypes)"
					}
				]
			}
		},
		{
			"aliases": [
				"Wave7"
			],
			"objclass": "SpawnZombiesJitteredWaveActionProps",
			"objdata": {
				"AdditionalPlantfood": 0,
				"Zombies": [
					{
						"Type": "RTID(future_imp@ZombieTypes)"
					},
					{
						"Type": "RTID(future_imp@ZombieTypes)"
					},
					{
						"Row": "4",
						"Type": "RTID(football_mech@ZombieTypes)"
					},
					{
						"Type": "RTID(future_armor1@ZombieTypes)"
					},
					{
						"Row": "5",
						"Type": "RTID(future_armor2@ZombieTypes)"
					},
					{
						"Row": "4",
						"Type": "RTID(future@ZombieTypes)"
					},
					{
						"Row": "3",
						"Type": "RTID(future_armor4@ZombieTypes)"
					},
					{
						"Row": "2",
						"Type": "RTID(future@ZombieTypes)"
					},
					{
						"Row": "1",
						"Type": "RTID(future_armor2@ZombieTypes)"
					}
				]
			}
		},
		{
			"aliases": [
				"Wave8"
			],
			"objclass": "SpawnZombiesJitteredWaveActionProps",
			"objdata": {
				"AdditionalPlantfood": 0,
				"Zombies": [
					{
						"Row": "4",
						"Type": "RTID(future_protector@ZombieTypes)"
					},
					{
						"Row": "2",
						"Type": "RTID(future_protector@ZombieTypes)"
					},
					{
						"Type": "RTID(future_imp@ZombieTypes)"
					},
					{
						"Row": "3",
						"Type": "RTID(football_mech@ZombieTypes)"
					},
					{
						"Row": "5",
						"Type": "RTID(future_armor2@ZombieTypes)"
					},
					{
						"Row": "4",
						"Type": "RTID(future_armor1@ZombieTypes)"
					},
					{
						"Row": "3",
						"Type": "RTID(future@ZombieTypes)"
					},
					{
						"Row": "2",
						"Type": "RTID(future_armor1@ZombieTypes)"
					},
					{
						"Row": "1",
						"Type": "RTID(future_armor2@ZombieTypes)"
					}
				]
			}
		},
		{
			"aliases": [
				"Wave9"
			],
			"objclass": "SpawnZombiesJitteredWaveActionProps",
			"objdata": {
				"AdditionalPlantfood": 0,
				"Zombies": [
					{
						"Row": "1",
						"Type": "RTID(future_jetpack@ZombieTypes)"
					},
					{
						"Row": "5",
						"Type": "RTID(future_jetpack@ZombieTypes)"
					},
					{
						"Row": "2",
						"Type": "RTID(future_armor2@ZombieTypes)"
					},
					{
						"Row": "3",
						"Type": "RTID(future_armor2@ZombieTypes)"
					},
					{
						"Row": "4",
						"Type": "RTID(future_armor2@ZombieTypes)"
					}
				]
			}
		},
		{
			"aliases": [
				"Wave10"
			],
			"objclass": "SpawnZombiesJitteredWaveActionProps",
			"objdata": {
				"Zombies": [
					{
						"Type": "RTID(future_armor2@ZombieTypes)"
					},
					{
						"Row": "5",
						"Type": "RTID(future_imp@ZombieTypes)"
					},
					{
						"Row": "4",
						"Type": "RTID(future_imp@ZombieTypes)"
					},
					{
						"Row": "3",
						"Type": "RTID(future_imp@ZombieTypes)"
					},
					{
						"Row": "2",
						"Type": "RTID(future_imp@ZombieTypes)"
					},
					{
						"Row": "1",
						"Type": "RTID(future_imp@ZombieTypes)"
					},
					{
						"Row": "3",
						"Type": "RTID(disco_mech@ZombieTypes)"
					}
				]
			}
		},
		{
			"aliases": [
				"Wave11"
			],
			"objclass": "SpawnZombiesJitteredWaveActionProps",
			"objdata": {
				"DynamicPlantfood": [
					1,
					1,
					1,
					1,
					0,
					0,
					0
				],
				"Zombies": [
					{
						"Type": "RTID(future_armor2@ZombieTypes)"
					},
					{
						"Row": "2",
						"Type": "RTID(disco_mech@ZombieTypes)"
					},
					{
						"Row": "4",
						"Type": "RTID(disco_mech@ZombieTypes)"
					},
					{
						"Row": "1",
						"Type": "RTID(future_armor4@ZombieTypes)"
					},
					{
						"Row": "2",
						"Type": "RTID(future@ZombieTypes)"
					},
					{
						"Row": "3",
						"Type": "RTID(future_armor4@ZombieTypes)"
					},
					{
						"Row": "4",
						"Type": "RTID(future@ZombieTypes)"
					},
					{
						"Row": "5",
						"Type": "RTID(future_armor4@ZombieTypes)"
					}
				]
			}
		},
		{
			"aliases": [
				"Wave12"
			],
			"objclass": "SpawnZombiesJitteredWaveActionProps",
			"objdata": {
				"AdditionalPlantfood": 0,
				"Zombies": [
					{
						"Type": "RTID(football_mech@ZombieTypes)"
					},
					{
						"Row": "1",
						"Type": "RTID(future_armor4@ZombieTypes)"
					},
					{
						"Row": "2",
						"Type": "RTID(future_armor2@ZombieTypes)"
					},
					{
						"Row": "3",
						"Type": "RTID(future_armor4@ZombieTypes)"
					},
					{
						"Row": "4",
						"Type": "RTID(future_armor2@ZombieTypes)"
					},
					{
						"Row": "5",
						"Type": "RTID(future_armor4@ZombieTypes)"
					},
					{
						"Type": "RTID(future_jetpack@ZombieTypes)"
					}
				]
			}
		},
		{
			"aliases": [
				"Wave3GraveSpawnEvent0"
			],
			"objclass": "SpawnZombiesFromGridItemSpawnerProps",
			"objdata": {
				"AdditionalPlantfood": 1,
				"GridTypes": [
					"RTID(sap@GridItemTypes)",
					"RTID(plantfoodsap@GridItemTypes)"
				],
				"WaveStartMessage": "[WARNING_SAPSPAWN]",
				"ZombieSpawnWaitTime": 1,
				"Zombies": [
					{
						"Type": "RTID(future_armor4@ZombieTypes)"
					},
					{
						"Type": "RTID(future_armor1@ZombieTypes)"
					},
					{
						"Type": "RTID(future_armor1@ZombieTypes)"
					},
					{
						"Type": "RTID(future_armor4@ZombieTypes)"
					}
				]
			}
		},
		{
			"aliases": [
				"Wave6GraveSpawnEvent0"
			],
			"objclass": "SpawnZombiesFromGridItemSpawnerProps",
			"objdata": {
				"AdditionalPlantfood": "0",
				"GridTypes": [
					"RTID(sap@GridItemTypes)",
					"RTID(plantfoodsap@GridItemTypes)"
				],
				"WaveStartMessage": "[WARNING_SAPSPAWN]",
				"ZombieSpawnWaitTime": "1",
				"Zombies": [
					{
						"Type": "RTID(future_armor2@ZombieTypes)"
					},
					{
						"Type": "RTID(future_armor2@ZombieTypes)"
					},
					{
						"Type": "RTID(future_armor2@ZombieTypes)"
					},
					{
						"Type": "RTID(future_armor2@ZombieTypes)"
					},
					{
						"Type": "RTID(future_armor4@ZombieTypes)"
					}
				]
			}
		},
		{
			"aliases": [
				"Wave9GraveSpawnEvent0"
			],
			"objclass": "SpawnZombiesFromGridItemSpawnerProps",
			"objdata": {
				"AdditionalPlantfood": 1,
				"GridTypes": [
					"RTID(sap@GridItemTypes)",
					"RTID(plantfoodsap@GridItemTypes)"
				],
				"WaveStartMessage": "[WARNING_SAPSPAWN]",
				"ZombieSpawnWaitTime": "1",
				"Zombies": [
					{
						"Type": "RTID(future_armor4@ZombieTypes)"
					},
					{
						"Type": "RTID(future_armor2@ZombieTypes)"
					},
					{
						"Type": "RTID(future_armor4@ZombieTypes)"
					},
					{
						"Type": "RTID(future_armor1@ZombieTypes)"
					},
					{
						"Type": "RTID(future_armor4@ZombieTypes)"
					}
				]
			}
		},
		{
			"aliases": [
				"Wave12GraveSpawnEvent0"
			],
			"objclass": "SpawnZombiesFromGridItemSpawnerProps",
			"objdata": {
				"AdditionalPlantfood": "0",
				"GridTypes": [
					"RTID(sap@GridItemTypes)",
					"RTID(plantfoodsap@GridItemTypes)"
				],
				"WaveStartMessage": "[WARNING_SAPSPAWN]",
				"ZombieSpawnWaitTime": "1",
				"Zombies": [
					{
						"Type": "RTID(future_armor4@ZombieTypes)"
					},
					{
						"Type": "RTID(future_armor4@ZombieTypes)"
					},
					{
						"Type": "RTID(future_armor4@ZombieTypes)"
					},
					{
						"Type": "RTID(future_armor4@ZombieTypes)"
					},
					{
						"Type": "RTID(future_armor1@ZombieTypes)"
					}
				]
			}
		},
		{
			"aliases": [
				"Wave11GraveSpawnEvent0"
			],
			"objclass": "SpawnZombiesFromGridItemSpawnerProps",
			"objdata": {
				"AdditionalPlantfood": "0",
				"GridTypes": [
					"RTID(sap@GridItemTypes)",
					"RTID(plantfoodsap@GridItemTypes)"
				],
				"WaveStartMessage": "[WARNING_SAPSPAWN]",
				"ZombieSpawnWaitTime": "1",
				"Zombies": [
					{
						"Type": "RTID(future_armor4@ZombieTypes)"
					},
					{
						"Type": "RTID(future_armor4@ZombieTypes)"
					},
					{
						"Type": "RTID(future_armor4@ZombieTypes)"
					},
					{
						"Type": "RTID(future_armor1@ZombieTypes)"
					},
					{
						"Type": "RTID(future_armor1@ZombieTypes)"
					}
				]
			}
		},
		{
			"aliases": [
				"Wave8GraveSpawnEvent0"
			],
			"objclass": "SpawnZombiesFromGridItemSpawnerProps",
			"objdata": {
				"AdditionalPlantfood": "0",
				"GridTypes": [
					"RTID(sap@GridItemTypes)",
					"RTID(plantfoodsap@GridItemTypes)"
				],
				"WaveStartMessage": "[WARNING_SAPSPAWN]",
				"ZombieSpawnWaitTime": "1",
				"Zombies": [
					{
						"Type": "RTID(future_armor4@ZombieTypes)"
					},
					{
						"Type": "RTID(future_armor4@ZombieTypes)"
					},
					{
						"Type": "RTID(future_armor2@ZombieTypes)"
					},
					{
						"Type": "RTID(future_armor2@ZombieTypes)"
					},
					{
						"Type": "RTID(future_armor4@ZombieTypes)"
					}
				]
			}
		}
	],
	"version": 1
}