{
	"#comment": "Future Challenge Preset B",
	"objects": [
		{
			"objclass": "LevelDefinition",
			"objdata": {
				"Description": "[PLAYERS_TRIP_TO_FUTURE]",
				"LevelNumber": 19,
				"Loot": "RTID(DefaultLoot@LevelModules)",
				"Modules": [
					"RTID(StandardIntro@LevelModules)",
					"RTID(SunDropper@CurrentLevel)",
					"RTID(ZombiesDeadWinCon@LevelModules)",
					"RTID(FutureMowers@LevelModules)",
					"RTID(FutureLinkedTileGroups@CurrentLevel)",
					"RTID(SeedBank@CurrentLevel)",
					"RTID(SunBombs@CurrentLevel)",
					"RTID(DefaultZombieWinCondition@LevelModules)",
					"RTID(ChallengeModule@CurrentLevel)",
					"RTID(NewWaves@CurrentLevel)"
				],
				"MusicType": "MiniGame_B",
				"Name": "[FUTURE_LEVEL_NAME]",
				"NormalPresentTable": "future_normal_01",
				"ShinyPresentTable": "future_shiny_01",
				"StageModule": "RTID(FutureStage@LevelModules)"
			}
		},
		{
			"aliases": [
				"SunDropper"
			],
			"objclass": "SunDropperProperties",
			"objdata": {
				"InitialSunDropDelay": 2,
				"SunCountdownBase": 4,
				"SunCountdownIncreasePerSun": 0,
				"SunCountdownMax": 4,
				"SunCountdownRange": 0
			}
		},
		{
			"aliases": [
				"SeedBank"
			],
			"objclass": "SeedBankProperties",
			"objdata": {
				"ExcludeListSunProducers": "true",
				"PlantExcludeList": [],
				"SelectionMethod": "chooser"
			}
		},
		{
			"aliases": [
				"ChallengeModule"
			],
			"objclass": "StarChallengeModuleProperties",
			"objdata": {
				"Challenges": [
					[
						"RTID(BeatTheLevel@CurrentLevel)"
					]
				],
				"ChallengesAlwaysAvailable": true
			}
		},
		{
			"aliases": [
				"BeatTheLevel"
			],
			"objclass": "StarChallengeBeatTheLevelProps",
			"objdata": {
				"Description": "[STARCHALLENGE_SUNBOMBS]",
				"DescriptiveName": "[STARCHALLENGE_SUNBOMBS_NAME]"
			}
		},
		{
			"aliases": [
				"SunBombs"
			],
			"objclass": "SunBombChallengeProperties",
			"objdata": {
				"PlantBombExplosionRadius": 25,
				"PlantDamage": 1000,
				"ZombieBombExplosionRadius": 80,
				"ZombieDamage": 500
			}
		},
		{
			"aliases": [
				"FutureLinkedTileGroups"
			],
			"objclass": "PowerTileProperties",
			"objdata": {
				"LinkedTiles": [
					{
						"Group": "alpha",
						"Location": {
							"mX": 1,
							"mY": 0
						},
						"PropagationDelay": 0.25
					},
					{
						"Group": "alpha",
						"Location": {
							"mX": 1,
							"mY": 1
						},
						"PropagationDelay": 0.25
					},
					{
						"Group": "delta",
						"Location": {
							"mX": 3,
							"mY": 2
						},
						"PropagationDelay": 1.5
					},
					{
						"Group": "delta",
						"Location": {
							"mX": 2,
							"mY": 2
						},
						"PropagationDelay": 1.5
					},
					{
						"Group": "beta",
						"Location": {
							"mX": 1,
							"mY": 3
						},
						"PropagationDelay": 0.25
					},
					{
						"Group": "beta",
						"Location": {
							"mX": 1,
							"mY": 4
						},
						"PropagationDelay": 0.25
					}
				]
			}
		},
		{
			"aliases": [
				"NewWaves"
			],
			"objclass": "WaveManagerModuleProperties",
			"objdata": {
				"DynamicZombies": [
					{
						"PointIncrementPerWave": -40,
						"StartingPoints": -100,
						"StartingWave": 3,
						"ZombiePool": [
							"RTID(disco_mech@ZombieTypes)",
							"RTID(future@ZombieTypes)",
							"RTID(future_armor1@ZombieTypes)",
							"RTID(future_armor2@ZombieTypes)",
							"RTID(future_jetpack@ZombieTypes)",
							"RTID(mech_cone@ZombieTypes)"
						]
					},
					{
						"PointIncrementPerWave": -25,
						"StartingPoints": -100,
						"StartingWave": 4,
						"ZombiePool": [
							"RTID(disco_mech@ZombieTypes)",
							"RTID(future@ZombieTypes)",
							"RTID(future_armor1@ZombieTypes)",
							"RTID(future_armor2@ZombieTypes)",
							"RTID(future_jetpack@ZombieTypes)",
							"RTID(mech_cone@ZombieTypes)"
						]
					},
					{
						"PointIncrementPerWave": -10,
						"StartingPoints": -100,
						"StartingWave": 5,
						"ZombiePool": [
							"RTID(disco_mech@ZombieTypes)",
							"RTID(future@ZombieTypes)",
							"RTID(future_armor1@ZombieTypes)",
							"RTID(future_armor2@ZombieTypes)",
							"RTID(future_jetpack@ZombieTypes)",
							"RTID(mech_cone@ZombieTypes)"
						]
					},
					{},
					{
						"PointIncrementPerWave": 20,
						"StartingPoints": 100,
						"StartingWave": 5,
						"ZombiePool": [
							"RTID(disco_mech@ZombieTypes)",
							"RTID(future@ZombieTypes)",
							"RTID(future_armor1@ZombieTypes)",
							"RTID(future_armor2@ZombieTypes)",
							"RTID(future_jetpack@ZombieTypes)",
							"RTID(mech_cone@ZombieTypes)"
						]
					},
					{
						"PointIncrementPerWave": 40,
						"StartingPoints": 200,
						"StartingWave": 4,
						"ZombiePool": [
							"RTID(disco_mech@ZombieTypes)",
							"RTID(future_armor1@ZombieTypes)",
							"RTID(future_armor2@ZombieTypes)",
							"RTID(future_jetpack@ZombieTypes)",
							"RTID(mech_cone@ZombieTypes)"
						]
					},
					{
						"PointIncrementPerWave": 60,
						"StartingPoints": 400,
						"StartingWave": 3,
						"ZombiePool": [
							"RTID(disco_mech@ZombieTypes)",
							"RTID(future_armor2@ZombieTypes)",
							"RTID(future_jetpack@ZombieTypes)",
							"RTID(mech_cone@ZombieTypes)"
						]
					}
				],
				"WaveManagerProps": "RTID(WaveManagerProps@CurrentLevel)"
			}
		},
		{
			"aliases": [
				"WaveManagerProps"
			],
			"objclass": "WaveManagerProperties",
			"objdata": {
				"FlagWaveInterval": 10,
				"WaveCount": 20,
				"WaveSpendingPointIncrement": 50,
				"WaveSpendingPoints": 100,
				"Waves": [
					[
						"RTID(Wave1@CurrentLevel)"
					],
					[
						"RTID(Wave2@CurrentLevel)"
					],
					[
						"RTID(Wave3@CurrentLevel)"
					],
					[
						"RTID(Wave4@CurrentLevel)"
					],
					[
						"RTID(Wave5@CurrentLevel)"
					],
					[
						"RTID(Wave6@CurrentLevel)"
					],
					[
						"RTID(Wave7@CurrentLevel)"
					],
					[
						"RTID(Wave8@CurrentLevel)"
					],
					[
						"RTID(Wave9@CurrentLevel)"
					],
					[
						"RTID(Wave10@CurrentLevel)"
					],
					[
						"RTID(Wave11@CurrentLevel)"
					],
					[
						"RTID(Wave12@CurrentLevel)"
					],
					[
						"RTID(Wave13@CurrentLevel)"
					],
					[
						"RTID(Wave14@CurrentLevel)"
					],
					[
						"RTID(Wave15@CurrentLevel)"
					],
					[
						"RTID(Wave16@CurrentLevel)"
					],
					[
						"RTID(Wave17@CurrentLevel)"
					],
					[
						"RTID(Wave18@CurrentLevel)"
					]
				]
			}
		},
		{
			"aliases": [
				"Wave1"
			],
			"objclass": "SpawnZombiesJitteredWaveActionProps",
			"objdata": {
				"Zombies": [
					{
						"Type": "RTID(future@ZombieTypes)"
					}
				]
			}
		},
		{
			"aliases": [
				"Wave2"
			],
			"objclass": "SpawnZombiesJitteredWaveActionProps",
			"objdata": {
				"Zombies": [
					{
						"Type": "RTID(future@ZombieTypes)"
					},
					{
						"Type": "RTID(future@ZombieTypes)"
					}
				]
			}
		},
		{
			"aliases": [
				"Wave3"
			],
			"objclass": "SpawnZombiesJitteredWaveActionProps",
			"objdata": {
				"Zombies": [
					{
						"Type": "RTID(future@ZombieTypes)"
					},
					{
						"Type": "RTID(future_armor1@ZombieTypes)"
					}
				]
			}
		},
		{
			"aliases": [
				"Wave4"
			],
			"objclass": "SpawnZombiesJitteredWaveActionProps",
			"objdata": {
				"AdditionalPlantfood": 1,
				"DynamicPlantfood": [
					1,
					1,
					1,
					1,
					1,
					1,
					0
				],
				"Zombies": [
					{
						"Type": "RTID(future_armor1@ZombieTypes)"
					},
					{
						"Type": "RTID(future@ZombieTypes)"
					},
					{
						"Type": "RTID(future_armor1@ZombieTypes)"
					}
				]
			}
		},
		{
			"aliases": [
				"Wave5"
			],
			"objclass": "SpawnZombiesJitteredWaveActionProps",
			"objdata": {
				"Zombies": [
					{
						"Row": "5",
						"Type": "RTID(future_jetpack@ZombieTypes)"
					},
					{
						"Row": "4",
						"Type": "RTID(future_jetpack@ZombieTypes)"
					},
					{
						"Row": "1",
						"Type": "RTID(future_jetpack@ZombieTypes)"
					},
					{
						"Row": "2",
						"Type": "RTID(future_jetpack@ZombieTypes)"
					}
				]
			}
		},
		{
			"aliases": [
				"Wave6"
			],
			"objclass": "SpawnZombiesJitteredWaveActionProps",
			"objdata": {
				"Zombies": [
					{
						"Type": "RTID(future_armor2@ZombieTypes)"
					}
				]
			}
		},
		{
			"aliases": [
				"Wave7"
			],
			"objclass": "SpawnZombiesJitteredWaveActionProps",
			"objdata": {
				"AdditionalPlantfood": 1,
				"DynamicPlantfood": [
					1,
					1,
					1,
					1,
					1,
					1,
					1
				],
				"Zombies": [
					{
						"Type": "RTID(mech_cone@ZombieTypes)"
					}
				]
			}
		},
		{
			"aliases": [
				"Wave8"
			],
			"objclass": "SpawnZombiesJitteredWaveActionProps",
			"objdata": {
				"Zombies": [
					{
						"Type": "RTID(future_armor1@ZombieTypes)"
					},
					{
						"Type": "RTID(future@ZombieTypes)"
					},
					{
						"Type": "RTID(future_armor1@ZombieTypes)"
					},
					{
						"Type": "RTID(future@ZombieTypes)"
					},
					{
						"Type": "RTID(future_armor1@ZombieTypes)"
					}
				]
			}
		},
		{
			"aliases": [
				"Wave9"
			],
			"objclass": "SpawnZombiesJitteredWaveActionProps",
			"objdata": {
				"AdditionalPlantfood": 1,
				"DynamicPlantfood": [
					1,
					1,
					1,
					1,
					0,
					0,
					0
				],
				"Zombies": [
					{
						"Row": "3",
						"Type": "RTID(disco_mech@ZombieTypes)"
					},
					{
						"Row": "1",
						"Type": "RTID(future_armor1@ZombieTypes)"
					},
					{
						"Row": "5",
						"Type": "RTID(future_armor1@ZombieTypes)"
					}
				]
			}
		},
		{
			"aliases": [
				"Wave10"
			],
			"objclass": "SpawnZombiesJitteredWaveActionProps",
			"objdata": {
				"Zombies": [
					{
						"Type": "RTID(future_jetpack@ZombieTypes)"
					},
					{
						"Type": "RTID(future_jetpack@ZombieTypes)"
					},
					{
						"Type": "RTID(future_jetpack@ZombieTypes)"
					},
					{
						"Type": "RTID(future_jetpack@ZombieTypes)"
					}
				]
			}
		},
		{
			"aliases": [
				"Wave11"
			],
			"objclass": "SpawnZombiesJitteredWaveActionProps",
			"objdata": {
				"AdditionalPlantfood": 0,
				"Zombies": [
					{
						"Type": "RTID(future_armor2@ZombieTypes)"
					},
					{
						"Type": "RTID(future_armor1@ZombieTypes)"
					},
					{
						"Type": "RTID(future_armor1@ZombieTypes)"
					}
				]
			}
		},
		{
			"aliases": [
				"Wave12"
			],
			"objclass": "SpawnZombiesJitteredWaveActionProps",
			"objdata": {
				"Zombies": [
					{
						"Type": "RTID(future@ZombieTypes)"
					},
					{
						"Type": "RTID(future@ZombieTypes)"
					},
					{
						"Row": "4",
						"Type": "RTID(future_gargantuar@ZombieTypes)"
					},
					{
						"Type": "RTID(future@ZombieTypes)"
					},
					{
						"Type": "RTID(future@ZombieTypes)"
					}
				]
			}
		},
		{
			"aliases": [
				"Wave13"
			],
			"objclass": "SpawnZombiesJitteredWaveActionProps",
			"objdata": {
				"AdditionalPlantfood": 1,
				"DynamicPlantfood": [
					1,
					1,
					1,
					1,
					1,
					1,
					1
				],
				"Zombies": [
					{
						"Type": "RTID(future_jetpack@ZombieTypes)"
					},
					{
						"Type": "RTID(future_jetpack@ZombieTypes)"
					},
					{
						"Type": "RTID(future_jetpack@ZombieTypes)"
					},
					{
						"Type": "RTID(future_jetpack@ZombieTypes)"
					}
				]
			}
		},
		{
			"aliases": [
				"Wave14"
			],
			"objclass": "SpawnZombiesJitteredWaveActionProps",
			"objdata": {
				"AdditionalPlantfood": 0,
				"Zombies": [
					{
						"Type": "RTID(future_armor2@ZombieTypes)"
					},
					{
						"Type": "RTID(disco_mech@ZombieTypes)"
					},
					{
						"Type": "RTID(future_armor1@ZombieTypes)"
					}
				]
			}
		},
		{
			"aliases": [
				"Wave15"
			],
			"objclass": "SpawnZombiesJitteredWaveActionProps",
			"objdata": {
				"AdditionalPlantfood": 1,
				"DynamicPlantfood": [
					1,
					1,
					1,
					1,
					1,
					0,
					0
				],
				"Zombies": [
					{
						"Row": "4",
						"Type": "RTID(future@ZombieTypes)"
					},
					{
						"Row": "1",
						"Type": "RTID(future@ZombieTypes)"
					},
					{
						"Row": "5",
						"Type": "RTID(future_armor2@ZombieTypes)"
					},
					{
						"Row": "3",
						"Type": "RTID(future@ZombieTypes)"
					},
					{
						"Row": "2",
						"Type": "RTID(future@ZombieTypes)"
					},
					{
						"Type": "RTID(future@ZombieTypes)"
					},
					{
						"Type": "RTID(future@ZombieTypes)"
					},
					{
						"Type": "RTID(future@ZombieTypes)"
					}
				]
			}
		},
		{
			"aliases": [
				"Wave16"
			],
			"objclass": "SpawnZombiesJitteredWaveActionProps",
			"objdata": {
				"AdditionalPlantfood": 0,
				"Zombies": [
					{
						"Type": "RTID(future_armor1@ZombieTypes)"
					},
					{
						"Type": "RTID(mech_cone@ZombieTypes)"
					},
					{
						"Type": "RTID(future_armor1@ZombieTypes)"
					}
				]
			}
		},
		{
			"aliases": [
				"Wave17"
			],
			"objclass": "SpawnZombiesJitteredWaveActionProps",
			"objdata": {
				"AdditionalPlantfood": 1,
				"DynamicPlantfood": [
					1,
					1,
					1,
					1,
					1,
					1,
					1
				],
				"Zombies": [
					{
						"Row": "5",
						"Type": "RTID(future_jetpack@ZombieTypes)"
					},
					{
						"Row": "1",
						"Type": "RTID(future_jetpack@ZombieTypes)"
					},
					{
						"Row": "2",
						"Type": "RTID(future_jetpack@ZombieTypes)"
					},
					{
						"Row": "4",
						"Type": "RTID(future_jetpack@ZombieTypes)"
					},
					{
						"Row": "3",
						"Type": "RTID(future_jetpack@ZombieTypes)"
					},
					{
						"Type": "RTID(future_jetpack@ZombieTypes)"
					}
				]
			}
		},
		{
			"aliases": [
				"Wave18"
			],
			"objclass": "SpawnZombiesJitteredWaveActionProps",
			"objdata": {
				"AdditionalPlantfood": 0,
				"Zombies": [
					{
						"Row": "1",
						"Type": "RTID(future_gargantuar@ZombieTypes)"
					},
					{
						"Row": "3",
						"Type": "RTID(future_gargantuar@ZombieTypes)"
					}
				]
			}
		}
	],
	"version": 1
}