{
	"#comment": "Iceage 19",
	"objects": [
		{
			"objclass": "LevelDefinition",
			"objdata": {
				"Description": "[PLAYERS_TRIP_TO_ICEAGE]",
				"FirstRewardParam": "stunion",
				"FirstRewardType": "unlock_plant",
				"LevelNumber": 19,
				"Loot": "RTID(DefaultLoot@LevelModules)",
				"Modules": [
					"RTID(StandardIntro@LevelModules)",
					"RTID(DefaultSunDropper@LevelModules)",
					"RTID(ZombiesDeadWinCon@LevelModules)",
					"RTID(IceageMowers@LevelModules)",
					"RTID(SeedBank@CurrentLevel)",
					"RTID(ChallengeModule@CurrentLevel)",
					"RTID(DefaultZombieWinCondition@LevelModules)",
					"RTID(NewWaves@CurrentLevel)",
					"RTID(SliderPlacement@CurrentLevel)",
					"RTID(FrozenPlantPlacement@CurrentLevel)",
					"RTID(FrozenZombiePlacement@CurrentLevel)"
				],
				"Name": "[ICEAGE_LEVEL_NAME]",
				"NormalPresentTable": "egypt_normal_01",
				"ShinyPresentTable": "egypt_shiny_01",
				"StageModule": "RTID(IceageStage@LevelModules)"
			}
		},
		{
			"aliases": [
				"SliderPlacement"
			],
			"objclass": "InitialGridItemProperties",
			"objdata": {
				"InitialGridItemPlacements": [
					{
						"GridX": 5,
						"GridY": 0,
						"TypeName": "slider_down"
					},
					{
						"GridX": 5,
						"GridY": 4,
						"TypeName": "slider_up"
					}
				]
			}
		},
		{
			"aliases": [
				"FrozenPlantPlacement"
			],
			"objclass": "InitialPlantProperties",
			"objdata": {
				"InitialPlantPlacements": [
					{
						"Condition": "icecubed",
						"GridX": 0,
						"GridY": 0,
						"TypeName": "twinsunflower"
					},
					{
						"Condition": "icecubed",
						"GridX": 0,
						"GridY": 1,
						"TypeName": "cabbagepult"
					},
					{
						"Condition": "icecubed",
						"GridX": 5,
						"GridY": 1,
						"TypeName": "wallnut"
					},
					{
						"Condition": "icecubed",
						"GridX": 0,
						"GridY": 2,
						"TypeName": "cabbagepult"
					},
					{
						"Condition": "icecubed",
						"GridX": 5,
						"GridY": 2,
						"TypeName": "wallnut"
					},
					{
						"Condition": "icecubed",
						"GridX": 0,
						"GridY": 3,
						"TypeName": "cabbagepult"
					},
					{
						"Condition": "icecubed",
						"GridX": 5,
						"GridY": 3,
						"TypeName": "wallnut"
					},
					{
						"Condition": "icecubed",
						"GridX": 0,
						"GridY": 4,
						"TypeName": "twinsunflower"
					}
				]
			}
		},
		{
			"aliases": [
				"FrozenZombiePlacement"
			],
			"objclass": "InitialZombieProperties",
			"objdata": {}
		},
		{
			"aliases": [
				"SeedBank"
			],
			"objclass": "SeedBankProperties",
			"objdata": {
				"PresetPlantList": [
					{
						"PlantType": "sunflower",
						"Level": -1
					},
					{
						"PlantType": "pepperpult",
						"Level": -1
					},
					{
						"PlantType": "hotpotato",
						"Level": -1
					},
					{
						"PlantType": "stunion",
						"Level": -1
					}
				],
				"SelectionMethod": "chooser"
			}
		},
		{
			"aliases": [
				"ChallengeModule"
			],
			"objclass": "StarChallengeModuleProperties",
			"objdata": {
				"Challenges": [
					[
						"RTID(BeatTheLevel@CurrentLevel)"
					]
				],
				"ChallengesAlwaysAvailable": true
			}
		},
		{
			"aliases": [
				"BeatTheLevel"
			],
			"objclass": "StarChallengeBeatTheLevelProps",
			"objdata": {
				"Description": "[STARCHALLENGE_MOSTLY_PRESET_PLANTS]",
				"DescriptiveName": "[STARCHALLENGE_PRESET_PLANTS_NAME]"
			}
		},
		{
			"aliases": [
				"NewWaves"
			],
			"objclass": "WaveManagerModuleProperties",
			"objdata": {
				"DynamicZombies": [
					{
						"PointIncrementPerWave": -40,
						"StartingPoints": -100,
						"StartingWave": 3,
						"ZombiePool": [
							"RTID(iceage@ZombieTypes)",
							"RTID(iceage_armor1@ZombieTypes)",
							"RTID(iceage_armor2@ZombieTypes)"
						]
					},
					{
						"PointIncrementPerWave": -25,
						"StartingPoints": -100,
						"StartingWave": 4,
						"ZombiePool": [
							"RTID(iceage@ZombieTypes)",
							"RTID(iceage_armor1@ZombieTypes)",
							"RTID(iceage_armor2@ZombieTypes)"
						]
					},
					{
						"PointIncrementPerWave": -10,
						"StartingPoints": -100,
						"StartingWave": 5,
						"ZombiePool": [
							"RTID(iceage@ZombieTypes)",
							"RTID(iceage_armor1@ZombieTypes)",
							"RTID(iceage_armor2@ZombieTypes)"
						]
					},
					{},
					{
						"PointIncrementPerWave": 20,
						"StartingPoints": 100,
						"StartingWave": 5,
						"ZombiePool": [
							"RTID(iceage@ZombieTypes)",
							"RTID(iceage_armor1@ZombieTypes)",
							"RTID(iceage_armor2@ZombieTypes)"
						]
					},
					{
						"PointIncrementPerWave": 40,
						"StartingPoints": 200,
						"StartingWave": 4,
						"ZombiePool": [
							"RTID(iceage_armor1@ZombieTypes)",
							"RTID(iceage_armor2@ZombieTypes)"
						]
					},
					{
						"PointIncrementPerWave": 60,
						"StartingPoints": 400,
						"StartingWave": 3,
						"ZombiePool": [
							"RTID(iceage_armor2@ZombieTypes)"
						]
					}
				],
				"WaveManagerProps": "RTID(WaveManagerProps@CurrentLevel)"
			}
		},
		{
			"aliases": [
				"WaveManagerProps"
			],
			"objclass": "WaveManagerProperties",
			"objdata": {
				"FlagWaveInterval": 6,
				"WaveCount": 12,
				"WaveSpendingPointIncrement": 100,
				"WaveSpendingPoints": 100,
				"Waves": [
					[
						"RTID(Wave1@CurrentLevel)"
					],
					[
						"RTID(Wave2@CurrentLevel)",
						"RTID(Wave2FrostWindEvent0@CurrentLevel)"
					],
					[
						"RTID(Wave3@CurrentLevel)"
					],
					[
						"RTID(Wave4@CurrentLevel)",
						"RTID(Wave4FrostWindEvent0@CurrentLevel)"
					],
					[
						"RTID(Wave5@CurrentLevel)"
					],
					[
						"RTID(Wave6@CurrentLevel)",
						"RTID(Wave6FrostWindEvent0@CurrentLevel)"
					],
					[
						"RTID(Wave7@CurrentLevel)"
					],
					[
						"RTID(Wave8@CurrentLevel)",
						"RTID(Wave8FrostWindEvent0@CurrentLevel)"
					],
					[
						"RTID(Wave9@CurrentLevel)",
						"RTID(Wave9StormEvent0@CurrentLevel)",
						"RTID(Wave9FrostWindEvent0@CurrentLevel)"
					],
					[
						"RTID(Wave10@CurrentLevel)"
					],
					[
						"RTID(Wave11@CurrentLevel)",
						"RTID(Wave11FrostWindEvent0@CurrentLevel)"
					],
					[
						"RTID(Wave12@CurrentLevel)"
					]
				]
			}
		},
		{
			"aliases": [
				"Wave1"
			],
			"objclass": "SpawnZombiesJitteredWaveActionProps",
			"objdata": {
				"AdditionalPlantfood": 0,
				"Zombies": [
					{
						"Row": "4",
						"Type": "RTID(iceage@ZombieTypes)"
					},
					{
						"Row": "2",
						"Type": "RTID(iceage@ZombieTypes)"
					}
				]
			}
		},
		{
			"aliases": [
				"Wave2"
			],
			"objclass": "SpawnZombiesJitteredWaveActionProps",
			"objdata": {
				"AdditionalPlantfood": 0,
				"Zombies": [
					{
						"Row": "5",
						"Type": "RTID(iceage_dodo@ZombieTypes)"
					},
					{
						"Row": "3",
						"Type": "RTID(iceage_armor1@ZombieTypes)"
					},
					{
						"Row": "2",
						"Type": "RTID(iceage@ZombieTypes)"
					}
				]
			}
		},
		{
			"aliases": [
				"Wave3"
			],
			"objclass": "SpawnZombiesJitteredWaveActionProps",
			"objdata": {
				"AdditionalPlantfood": 1,
				"DynamicPlantfood": [
					1,
					1,
					1,
					1,
					1,
					0,
					0
				],
				"Zombies": [
					{
						"Row": "4",
						"Type": "RTID(iceage_armor1@ZombieTypes)"
					},
					{
						"Row": "2",
						"Type": "RTID(iceage@ZombieTypes)"
					},
					{
						"Row": "1",
						"Type": "RTID(iceage@ZombieTypes)"
					}
				]
			}
		},
		{
			"aliases": [
				"Wave4"
			],
			"objclass": "SpawnZombiesJitteredWaveActionProps",
			"objdata": {
				"AdditionalPlantfood": 0,
				"Zombies": [
					{
						"Row": "4",
						"Type": "RTID(iceage_armor1@ZombieTypes)"
					},
					{
						"Row": "3",
						"Type": "RTID(iceage_troglobite@ZombieTypes)"
					},
					{
						"Row": "1",
						"Type": "RTID(iceage_armor1@ZombieTypes)"
					}
				]
			}
		},
		{
			"aliases": [
				"Wave5"
			],
			"objclass": "SpawnZombiesJitteredWaveActionProps",
			"objdata": {
				"AdditionalPlantfood": 1,
				"DynamicPlantfood": [
					1,
					1,
					1,
					1,
					1,
					1,
					1
				],
				"Zombies": [
					{
						"Row": "5",
						"Type": "RTID(iceage_armor1@ZombieTypes)"
					},
					{
						"Row": "3",
						"Type": "RTID(iceage_hunter@ZombieTypes)"
					},
					{
						"Row": "1",
						"Type": "RTID(iceage_dodo@ZombieTypes)"
					},
					{
						"Row": "1",
						"Type": "RTID(iceage@ZombieTypes)"
					}
				]
			}
		},
		{
			"aliases": [
				"Wave6"
			],
			"objclass": "SpawnZombiesJitteredWaveActionProps",
			"objdata": {
				"AdditionalPlantfood": 0,
				"Zombies": [
					{
						"Row": "5",
						"Type": "RTID(iceage_dodo@ZombieTypes)"
					},
					{
						"Row": "4",
						"Type": "RTID(iceage@ZombieTypes)"
					},
					{
						"Row": "4",
						"Type": "RTID(iceage_troglobite@ZombieTypes)"
					},
					{
						"Row": "2",
						"Type": "RTID(iceage_armor1@ZombieTypes)"
					},
					{
						"Row": "1",
						"Type": "RTID(iceage@ZombieTypes)"
					}
				]
			}
		},
		{
			"aliases": [
				"Wave7"
			],
			"objclass": "SpawnZombiesJitteredWaveActionProps",
			"objdata": {
				"AdditionalPlantfood": 1,
				"DynamicPlantfood": [
					1,
					1,
					1,
					1,
					0,
					0,
					0
				],
				"Zombies": [
					{
						"Row": "4",
						"Type": "RTID(iceage_hunter@ZombieTypes)"
					},
					{
						"Row": "3",
						"Type": "RTID(iceage@ZombieTypes)"
					},
					{
						"Row": "2",
						"Type": "RTID(iceage@ZombieTypes)"
					}
				]
			}
		},
		{
			"aliases": [
				"Wave8"
			],
			"objclass": "SpawnZombiesJitteredWaveActionProps",
			"objdata": {
				"AdditionalPlantfood": 0,
				"Zombies": [
					{
						"Row": "3",
						"Type": "RTID(iceage@ZombieTypes)"
					},
					{
						"Row": "2",
						"Type": "RTID(iceage_armor1@ZombieTypes)"
					},
					{
						"Row": "1",
						"Type": "RTID(iceage_dodo@ZombieTypes)"
					}
				]
			}
		},
		{
			"aliases": [
				"Wave9"
			],
			"objclass": "SpawnZombiesJitteredWaveActionProps",
			"objdata": {
				"AdditionalPlantfood": 1,
				"DynamicPlantfood": [
					1,
					1,
					1,
					1,
					1,
					1,
					0
				],
				"Zombies": [
					{
						"Row": "5",
						"Type": "RTID(iceage@ZombieTypes)"
					},
					{
						"Row": "4",
						"Type": "RTID(iceage@ZombieTypes)"
					},
					{
						"Row": "2",
						"Type": "RTID(iceage_troglobite@ZombieTypes)"
					}
				]
			}
		},
		{
			"aliases": [
				"Wave10"
			],
			"objclass": "SpawnZombiesJitteredWaveActionProps",
			"objdata": {
				"AdditionalPlantfood": 0,
				"Zombies": [
					{
						"Row": "5",
						"Type": "RTID(iceage_armor1@ZombieTypes)"
					},
					{
						"Row": "3",
						"Type": "RTID(iceage_armor1@ZombieTypes)"
					},
					{
						"Row": "2",
						"Type": "RTID(iceage_hunter@ZombieTypes)"
					}
				]
			}
		},
		{
			"aliases": [
				"Wave11"
			],
			"objclass": "SpawnZombiesJitteredWaveActionProps",
			"objdata": {
				"AdditionalPlantfood": 0,
				"Zombies": [
					{
						"Row": "5",
						"Type": "RTID(iceage_armor2@ZombieTypes)"
					},
					{
						"Row": "4",
						"Type": "RTID(iceage_armor1@ZombieTypes)"
					},
					{
						"Row": "1",
						"Type": "RTID(iceage_armor2@ZombieTypes)"
					}
				]
			}
		},
		{
			"aliases": [
				"Wave12"
			],
			"objclass": "SpawnZombiesJitteredWaveActionProps",
			"objdata": {
				"AdditionalPlantfood": 0,
				"Zombies": [
					{
						"Row": "5",
						"Type": "RTID(iceage_dodo@ZombieTypes)"
					},
					{
						"Row": "5",
						"Type": "RTID(iceage_armor3@ZombieTypes)"
					},
					{
						"Row": "5",
						"Type": "RTID(iceage@ZombieTypes)"
					},
					{
						"Row": "3",
						"Type": "RTID(iceage_armor3@ZombieTypes)"
					},
					{
						"Row": "1",
						"Type": "RTID(iceage_dodo@ZombieTypes)"
					},
					{
						"Row": "1",
						"Type": "RTID(iceage_armor3@ZombieTypes)"
					},
					{
						"Row": "1",
						"Type": "RTID(iceage@ZombieTypes)"
					}
				]
			}
		},
		{
			"aliases": [
				"Wave6FrostWindEvent0"
			],
			"objclass": "FrostWindWaveActionProps",
			"objdata": {
				"Winds": [
					{
						"Direction": "right",
						"Row": "0"
					},
					{
						"Direction": "right",
						"Row": 4
					}
				]
			}
		},
		{
			"aliases": [
				"Wave8FrostWindEvent0"
			],
			"objclass": "FrostWindWaveActionProps",
			"objdata": {
				"Winds": [
					{
						"Direction": "right",
						"Row": 1
					},
					{
						"Direction": "right",
						"Row": 2
					},
					{
						"Direction": "right",
						"Row": 3
					}
				]
			}
		},
		{
			"aliases": [
				"Wave9FrostWindEvent0"
			],
			"objclass": "FrostWindWaveActionProps",
			"objdata": {
				"Winds": [
					{
						"Direction": "right",
						"Row": "0"
					},
					{
						"Direction": "right",
						"Row": 4
					}
				]
			}
		},
		{
			"aliases": [
				"Wave11FrostWindEvent0"
			],
			"objclass": "FrostWindWaveActionProps",
			"objdata": {
				"Winds": [
					{
						"Direction": "right",
						"Row": 1
					},
					{
						"Direction": "right",
						"Row": 2
					},
					{
						"Direction": "right",
						"Row": 3
					}
				]
			}
		},
		{
			"aliases": [
				"Wave2FrostWindEvent0"
			],
			"objclass": "FrostWindWaveActionProps",
			"objdata": {
				"Winds": [
					{
						"Direction": "right",
						"Row": "0"
					},
					{
						"Direction": "right",
						"Row": 1
					},
					{
						"Direction": "right",
						"Row": 2
					},
					{
						"Direction": "right",
						"Row": 3
					},
					{
						"Direction": "right",
						"Row": 4
					}
				]
			}
		},
		{
			"aliases": [
				"Wave4FrostWindEvent0"
			],
			"objclass": "FrostWindWaveActionProps",
			"objdata": {
				"Winds": [
					{
						"Direction": "right",
						"Row": 1
					},
					{
						"Direction": "right",
						"Row": 2
					},
					{
						"Direction": "right",
						"Row": 3
					}
				]
			}
		},
		{
			"aliases": [
				"Wave9StormEvent0"
			],
			"objclass": "StormZombieSpawnerProps",
			"objdata": {
				"ColumnEnd": 6,
				"ColumnStart": 5,
				"GroupSize": 2,
				"TimeBetweenGroups": "3",
				"Type": "snowstorm",
				"Zombies": [
					{
						"Type": "RTID(iceage_armor1@ZombieTypes)"
					},
					{
						"Type": "RTID(iceage_armor1@ZombieTypes)"
					}
				]
			}
		}
	],
	"version": 1
}