{
	"#comment": "Iceage 24",
	"objects": [
		{
			"objclass": "LevelDefinition",
			"objdata": {
				"Description": "[PLAYERS_TRIP_TO_ICEAGE]",
				"LevelNumber": 24,
				"Loot": "RTID(DefaultLoot@LevelModules)",
				"Modules": [
					"RTID(StandardIntro@LevelModules)",
					"RTID(ZombiesDeadWinCon@LevelModules)",
					"RTID(IceageMowers@LevelModules)",
					"RTID(SeedBank@CurrentLevel)",
					"RTID(ChallengeModule@CurrentLevel)",
					"RTID(DefaultZombieWinCondition@LevelModules)",
					"RTID(NewWaves@CurrentLevel)",
					"RTID(SliderPlacement@CurrentLevel)",
					"RTID(FrozenPlantPlacement@CurrentLevel)",
					"RTID(FrozenZombiePlacement@CurrentLevel)"
				],
				"MusicType": "MiniGame_B",
				"Name": "[ICEAGE_LEVEL_NAME]",
				"NormalPresentTable": "egypt_normal_01",
				"ShinyPresentTable": "egypt_shiny_01",
				"StageModule": "RTID(IceageStage@LevelModules)"
			}
		},
		{
			"aliases": [
				"SliderPlacement"
			],
			"objclass": "InitialGridItemProperties",
			"objdata": {}
		},
		{
			"aliases": [
				"FrozenPlantPlacement"
			],
			"objclass": "InitialPlantProperties",
			"objdata": {
				"InitialPlantPlacements": [
					{
						"Condition": "icecubed",
						"GridX": 0,
						"GridY": 0,
						"TypeName": "coconutcannon"
					},
					{
						"Condition": "icecubed",
						"GridX": 1,
						"GridY": 0,
						"TypeName": "lightningreed"
					},
					{
						"Condition": "icecubed",
						"GridX": 2,
						"GridY": 0,
						"TypeName": "repeater"
					},
					{
						"Condition": "icecubed",
						"GridX": 5,
						"GridY": 0,
						"TypeName": "chardguard"
					},
					{
						"Condition": "icecubed",
						"GridX": 6,
						"GridY": 0,
						"TypeName": "spikerock"
					},
					{
						"Condition": "icecubed",
						"GridX": 7,
						"GridY": 0,
						"TypeName": "potatomine"
					},
					{
						"Condition": "icecubed",
						"GridX": 8,
						"GridY": 0,
						"TypeName": "cherry_bomb"
					},
					{
						"Condition": "icecubed",
						"GridX": 3,
						"GridY": 0,
						"TypeName": "snapdragon"
					},
					{
						"Condition": "icecubed",
						"GridX": 4,
						"GridY": 0,
						"TypeName": "wallnut"
					},
					{
						"Condition": "icecubed",
						"GridX": 0,
						"GridY": 1,
						"TypeName": "coconutcannon"
					},
					{
						"Condition": "icecubed",
						"GridX": 1,
						"GridY": 1,
						"TypeName": "lightningreed"
					},
					{
						"Condition": "icecubed",
						"GridX": 2,
						"GridY": 1,
						"TypeName": "repeater"
					},
					{
						"Condition": "icecubed",
						"GridX": 5,
						"GridY": 1,
						"TypeName": "chardguard"
					},
					{
						"Condition": "icecubed",
						"GridX": 6,
						"GridY": 1,
						"TypeName": "spikerock"
					},
					{
						"Condition": "icecubed",
						"GridX": 7,
						"GridY": 1,
						"TypeName": "potatomine"
					},
					{
						"Condition": "icecubed",
						"GridX": 8,
						"GridY": 1,
						"TypeName": "cherry_bomb"
					},
					{
						"Condition": "icecubed",
						"GridX": 3,
						"GridY": 1,
						"TypeName": "snapdragon"
					},
					{
						"Condition": "icecubed",
						"GridX": 4,
						"GridY": 1,
						"TypeName": "wallnut"
					},
					{
						"Condition": "icecubed",
						"GridX": 0,
						"GridY": 2,
						"TypeName": "coconutcannon"
					},
					{
						"Condition": "icecubed",
						"GridX": 1,
						"GridY": 2,
						"TypeName": "lightningreed"
					},
					{
						"Condition": "icecubed",
						"GridX": 2,
						"GridY": 2,
						"TypeName": "repeater"
					},
					{
						"Condition": "icecubed",
						"GridX": 5,
						"GridY": 2,
						"TypeName": "chardguard"
					},
					{
						"Condition": "icecubed",
						"GridX": 6,
						"GridY": 2,
						"TypeName": "spikerock"
					},
					{
						"Condition": "icecubed",
						"GridX": 7,
						"GridY": 2,
						"TypeName": "potatomine"
					},
					{
						"Condition": "icecubed",
						"GridX": 8,
						"GridY": 2,
						"TypeName": "cherry_bomb"
					},
					{
						"Condition": "icecubed",
						"GridX": 3,
						"GridY": 2,
						"TypeName": "snapdragon"
					},
					{
						"Condition": "icecubed",
						"GridX": 4,
						"GridY": 2,
						"TypeName": "wallnut"
					},
					{
						"Condition": "icecubed",
						"GridX": 0,
						"GridY": 3,
						"TypeName": "coconutcannon"
					},
					{
						"Condition": "icecubed",
						"GridX": 1,
						"GridY": 3,
						"TypeName": "lightningreed"
					},
					{
						"Condition": "icecubed",
						"GridX": 2,
						"GridY": 3,
						"TypeName": "repeater"
					},
					{
						"Condition": "icecubed",
						"GridX": 5,
						"GridY": 3,
						"TypeName": "chardguard"
					},
					{
						"Condition": "icecubed",
						"GridX": 6,
						"GridY": 3,
						"TypeName": "spikerock"
					},
					{
						"Condition": "icecubed",
						"GridX": 7,
						"GridY": 3,
						"TypeName": "potatomine"
					},
					{
						"Condition": "icecubed",
						"GridX": 8,
						"GridY": 3,
						"TypeName": "cherry_bomb"
					},
					{
						"Condition": "icecubed",
						"GridX": 3,
						"GridY": 3,
						"TypeName": "snapdragon"
					},
					{
						"Condition": "icecubed",
						"GridX": 4,
						"GridY": 3,
						"TypeName": "wallnut"
					},
					{
						"Condition": "icecubed",
						"GridX": 0,
						"GridY": 4,
						"TypeName": "coconutcannon"
					},
					{
						"Condition": "icecubed",
						"GridX": 1,
						"GridY": 4,
						"TypeName": "lightningreed"
					},
					{
						"Condition": "icecubed",
						"GridX": 2,
						"GridY": 4,
						"TypeName": "repeater"
					},
					{
						"Condition": "icecubed",
						"GridX": 5,
						"GridY": 4,
						"TypeName": "chardguard"
					},
					{
						"Condition": "icecubed",
						"GridX": 6,
						"GridY": 4,
						"TypeName": "spikerock"
					},
					{
						"Condition": "icecubed",
						"GridX": 7,
						"GridY": 4,
						"TypeName": "potatomine"
					},
					{
						"Condition": "icecubed",
						"GridX": 8,
						"GridY": 4,
						"TypeName": "cherry_bomb"
					},
					{
						"Condition": "icecubed",
						"GridX": 3,
						"GridY": 4,
						"TypeName": "snapdragon"
					},
					{
						"Condition": "icecubed",
						"GridX": 4,
						"GridY": 4,
						"TypeName": "wallnut"
					}
				]
			}
		},
		{
			"aliases": [
				"FrozenZombiePlacement"
			],
			"objclass": "InitialZombieProperties",
			"objdata": {}
		},
		{
			"aliases": [
				"SeedBank"
			],
			"objclass": "SeedBankProperties",
			"objdata": {
				"PresetPlantList": [
					{
						"PlantType": "hotpotato",
						"Level": -1
					},
					{
						"PlantType": "hotpotato",
						"Level": -1
					},
					{
						"PlantType": "hotpotato",
						"Level": -1
					},
					{
						"PlantType": "hotpotato",
						"Level": -1
					},
					{
						"PlantType": "hotpotato",
						"Level": -1
					}
				],
				"SelectionMethod": "preset"
			}
		},
		{
			"aliases": [
				"ChallengeModule"
			],
			"objclass": "StarChallengeModuleProperties",
			"objdata": {
				"Challenges": [
					[
						"RTID(BeatTheLevel@CurrentLevel)"
					]
				],
				"ChallengesAlwaysAvailable": true
			}
		},
		{
			"aliases": [
				"BeatTheLevel"
			],
			"objclass": "StarChallengeBeatTheLevelProps",
			"objdata": {
				"Description": "[STARCHALLENGE_PRESET_PLANTS]",
				"DescriptiveName": "[STARCHALLENGE_PRESET_PLANTS_NAME]"
			}
		},
		{
			"aliases": [
				"NewWaves"
			],
			"objclass": "WaveManagerModuleProperties",
			"objdata": {
				"DynamicZombies": [
					{
						"PointIncrementPerWave": -40,
						"StartingPoints": -100,
						"StartingWave": 3,
						"ZombiePool": [
							"RTID(iceage@ZombieTypes)",
							"RTID(iceage_armor1@ZombieTypes)",
							"RTID(iceage_armor2@ZombieTypes)"
						]
					},
					{
						"PointIncrementPerWave": -25,
						"StartingPoints": -100,
						"StartingWave": 4,
						"ZombiePool": [
							"RTID(iceage@ZombieTypes)",
							"RTID(iceage_armor1@ZombieTypes)",
							"RTID(iceage_armor2@ZombieTypes)"
						]
					},
					{
						"PointIncrementPerWave": -10,
						"StartingPoints": -100,
						"StartingWave": 5,
						"ZombiePool": [
							"RTID(iceage@ZombieTypes)",
							"RTID(iceage_armor1@ZombieTypes)",
							"RTID(iceage_armor2@ZombieTypes)"
						]
					},
					{},
					{
						"PointIncrementPerWave": 20,
						"StartingPoints": 100,
						"StartingWave": 5,
						"ZombiePool": [
							"RTID(iceage@ZombieTypes)",
							"RTID(iceage_armor1@ZombieTypes)",
							"RTID(iceage_armor2@ZombieTypes)"
						]
					},
					{
						"PointIncrementPerWave": 40,
						"StartingPoints": 200,
						"StartingWave": 4,
						"ZombiePool": [
							"RTID(iceage_armor1@ZombieTypes)",
							"RTID(iceage_armor2@ZombieTypes)"
						]
					},
					{
						"PointIncrementPerWave": 60,
						"StartingPoints": 400,
						"StartingWave": 3,
						"ZombiePool": [
							"RTID(iceage_armor2@ZombieTypes)"
						]
					}
				],
				"WaveManagerProps": "RTID(WaveManagerProps@CurrentLevel)"
			}
		},
		{
			"aliases": [
				"WaveManagerProps"
			],
			"objclass": "WaveManagerProperties",
			"objdata": {
				"FlagWaveInterval": 14,
				"WaveCount": 14,
				"WaveSpendingPointIncrement": 100,
				"WaveSpendingPoints": 200,
				"Waves": [
					[
						"RTID(Wave1@CurrentLevel)",
						"RTID(Wave1FrostWindEvent0@CurrentLevel)"
					],
					[
						"RTID(Wave2@CurrentLevel)",
						"RTID(Wave2FrostWindEvent0@CurrentLevel)"
					],
					[
						"RTID(Wave3@CurrentLevel)",
						"RTID(Wave3FrostWindEvent0@CurrentLevel)"
					],
					[
						"RTID(Wave4@CurrentLevel)",
						"RTID(Wave4FrostWindEvent0@CurrentLevel)"
					],
					[
						"RTID(Wave5@CurrentLevel)",
						"RTID(Wave5FrostWindEvent0@CurrentLevel)"
					],
					[
						"RTID(Wave6@CurrentLevel)",
						"RTID(Wave6FrostWindEvent0@CurrentLevel)"
					],
					[
						"RTID(Wave7@CurrentLevel)",
						"RTID(Wave7FrostWindEvent0@CurrentLevel)"
					],
					[
						"RTID(Wave8@CurrentLevel)",
						"RTID(Wave8FrostWindEvent0@CurrentLevel)"
					],
					[
						"RTID(Wave9@CurrentLevel)",
						"RTID(Wave9FrostWindEvent0@CurrentLevel)"
					],
					[
						"RTID(Wave10@CurrentLevel)",
						"RTID(Wave10FrostWindEvent0@CurrentLevel)"
					]
				]
			}
		},
		{
			"aliases": [
				"Wave1"
			],
			"objclass": "SpawnZombiesJitteredWaveActionProps",
			"objdata": {
				"ZombieSpawnPattern": "ZombieSpawnerPatternStaggered",
				"Zombies": [
					{
						"Type": "RTID(iceage@ZombieTypes)"
					}
				]
			}
		},
		{
			"aliases": [
				"Wave2"
			],
			"objclass": "SpawnZombiesJitteredWaveActionProps",
			"objdata": {
				"ZombieSpawnPattern": "ZombieSpawnerPatternStaggered",
				"Zombies": [
					{
						"Type": "RTID(iceage_armor1@ZombieTypes)"
					}
				]
			}
		},
		{
			"aliases": [
				"Wave3"
			],
			"objclass": "SpawnZombiesJitteredWaveActionProps",
			"objdata": {
				"ZombieSpawnPattern": "ZombieSpawnerPatternStaggered",
				"Zombies": [
					{
						"Type": "RTID(iceage_armor2@ZombieTypes)"
					}
				]
			}
		},
		{
			"aliases": [
				"Wave4"
			],
			"objclass": "SpawnZombiesJitteredWaveActionProps",
			"objdata": {
				"AdditionalPlantfood": 1,
				"DynamicPlantfood": [
					1,
					1,
					1,
					1,
					1,
					1,
					1
				],
				"ZombieSpawnPattern": "ZombieSpawnerPatternStaggered",
				"Zombies": [
					{
						"Row": "1",
						"Type": "RTID(iceage_imp@ZombieTypes)"
					},
					{
						"Row": "2",
						"Type": "RTID(iceage_imp@ZombieTypes)"
					},
					{
						"Row": "3",
						"Type": "RTID(iceage_imp@ZombieTypes)"
					},
					{
						"Row": "4",
						"Type": "RTID(iceage_imp@ZombieTypes)"
					},
					{
						"Row": "5",
						"Type": "RTID(iceage_imp@ZombieTypes)"
					}
				]
			}
		},
		{
			"aliases": [
				"Wave5"
			],
			"objclass": "SpawnZombiesJitteredWaveActionProps",
			"objdata": {
				"ZombieSpawnPattern": "ZombieSpawnerPatternStaggered",
				"Zombies": [
					{
						"Row": "1",
						"Type": "RTID(iceage_armor1@ZombieTypes)"
					},
					{
						"Row": "5",
						"Type": "RTID(iceage_armor1@ZombieTypes)"
					}
				]
			}
		},
		{
			"aliases": [
				"Wave6"
			],
			"objclass": "SpawnZombiesJitteredWaveActionProps",
			"objdata": {
				"ZombieSpawnPattern": "ZombieSpawnerPatternStaggered",
				"Zombies": [
					{
						"Row": "3",
						"Type": "RTID(iceage_hunter@ZombieTypes)"
					}
				]
			}
		},
		{
			"aliases": [
				"Wave7"
			],
			"objclass": "SpawnZombiesJitteredWaveActionProps",
			"objdata": {
				"ZombieSpawnPattern": "ZombieSpawnerPatternStaggered",
				"Zombies": [
					{
						"Row": "4",
						"Type": "RTID(iceage_armor2@ZombieTypes)"
					},
					{
						"Row": "2",
						"Type": "RTID(iceage_armor2@ZombieTypes)"
					}
				]
			}
		},
		{
			"aliases": [
				"Wave8"
			],
			"objclass": "SpawnZombiesJitteredWaveActionProps",
			"objdata": {
				"AdditionalPlantfood": 1,
				"DynamicPlantfood": [
					1,
					1,
					1,
					1,
					1,
					1,
					1
				],
				"ZombieSpawnPattern": "ZombieSpawnerPatternStaggered",
				"Zombies": [
					{
						"Row": "1",
						"Type": "RTID(iceage_hunter@ZombieTypes)"
					},
					{
						"Row": "5",
						"Type": "RTID(iceage_imp@ZombieTypes)"
					},
					{
						"Row": "3",
						"Type": "RTID(iceage_imp@ZombieTypes)"
					}
				]
			}
		},
		{
			"aliases": [
				"Wave9"
			],
			"objclass": "SpawnZombiesJitteredWaveActionProps",
			"objdata": {
				"ZombieSpawnPattern": "ZombieSpawnerPatternStaggered",
				"Zombies": [
					{
						"Row": "5",
						"Type": "RTID(iceage_hunter@ZombieTypes)"
					},
					{
						"Row": "1",
						"Type": "RTID(iceage_imp@ZombieTypes)"
					},
					{
						"Row": "2",
						"Type": "RTID(iceage_imp@ZombieTypes)"
					},
					{
						"Row": "3",
						"Type": "RTID(iceage_imp@ZombieTypes)"
					}
				]
			}
		},
		{
			"aliases": [
				"Wave10"
			],
			"objclass": "SpawnZombiesJitteredWaveActionProps",
			"objdata": {
				"Zombies": [
					{
						"Row": "3",
						"Type": "RTID(iceage_gargantuar@ZombieTypes)"
					}
				]
			}
		},
		{
			"aliases": [
				"Wave1FrostWindEvent0"
			],
			"objclass": "FrostWindWaveActionProps",
			"objdata": {
				"Winds": [
					{
						"Direction": "right",
						"Row": "0"
					},
					{
						"Direction": "right",
						"Row": 1
					},
					{
						"Direction": "right",
						"Row": 2
					},
					{
						"Direction": "right",
						"Row": 3
					},
					{
						"Direction": "right",
						"Row": 4
					}
				]
			}
		},
		{
			"aliases": [
				"Wave2FrostWindEvent0"
			],
			"objclass": "FrostWindWaveActionProps",
			"objdata": {
				"Winds": [
					{
						"Direction": "right",
						"Row": "0"
					},
					{
						"Direction": "right",
						"Row": 1
					},
					{
						"Direction": "right",
						"Row": 2
					},
					{
						"Direction": "right",
						"Row": 3
					},
					{
						"Direction": "right",
						"Row": 4
					}
				]
			}
		},
		{
			"aliases": [
				"Wave3FrostWindEvent0"
			],
			"objclass": "FrostWindWaveActionProps",
			"objdata": {
				"Winds": [
					{
						"Direction": "right",
						"Row": "0"
					},
					{
						"Direction": "right",
						"Row": 1
					},
					{
						"Direction": "right",
						"Row": 2
					},
					{
						"Direction": "right",
						"Row": 3
					},
					{
						"Direction": "right",
						"Row": 4
					}
				]
			}
		},
		{
			"aliases": [
				"Wave4FrostWindEvent0"
			],
			"objclass": "FrostWindWaveActionProps",
			"objdata": {
				"Winds": [
					{
						"Direction": "right",
						"Row": "0"
					},
					{
						"Direction": "right",
						"Row": 1
					},
					{
						"Direction": "right",
						"Row": 2
					},
					{
						"Direction": "right",
						"Row": 3
					},
					{
						"Direction": "right",
						"Row": 4
					}
				]
			}
		},
		{
			"aliases": [
				"Wave5FrostWindEvent0"
			],
			"objclass": "FrostWindWaveActionProps",
			"objdata": {
				"Winds": [
					{
						"Direction": "right",
						"Row": "0"
					},
					{
						"Direction": "right",
						"Row": 1
					},
					{
						"Direction": "right",
						"Row": 2
					},
					{
						"Direction": "right",
						"Row": 3
					},
					{
						"Direction": "right",
						"Row": 4
					}
				]
			}
		},
		{
			"aliases": [
				"Wave6FrostWindEvent0"
			],
			"objclass": "FrostWindWaveActionProps",
			"objdata": {
				"Winds": [
					{
						"Direction": "right",
						"Row": "0"
					},
					{
						"Direction": "right",
						"Row": 1
					},
					{
						"Direction": "right",
						"Row": 2
					},
					{
						"Direction": "right",
						"Row": 3
					},
					{
						"Direction": "right",
						"Row": 4
					}
				]
			}
		},
		{
			"aliases": [
				"Wave7FrostWindEvent0"
			],
			"objclass": "FrostWindWaveActionProps",
			"objdata": {
				"Winds": [
					{
						"Direction": "right",
						"Row": "0"
					},
					{
						"Direction": "right",
						"Row": 1
					},
					{
						"Direction": "right",
						"Row": 2
					},
					{
						"Direction": "right",
						"Row": 3
					},
					{
						"Direction": "right",
						"Row": 4
					}
				]
			}
		},
		{
			"aliases": [
				"Wave8FrostWindEvent0"
			],
			"objclass": "FrostWindWaveActionProps",
			"objdata": {
				"Winds": [
					{
						"Direction": "right",
						"Row": "0"
					},
					{
						"Direction": "right",
						"Row": 1
					},
					{
						"Direction": "right",
						"Row": 2
					},
					{
						"Direction": "right",
						"Row": 3
					},
					{
						"Direction": "right",
						"Row": 4
					}
				]
			}
		},
		{
			"aliases": [
				"Wave9FrostWindEvent0"
			],
			"objclass": "FrostWindWaveActionProps",
			"objdata": {
				"Winds": [
					{
						"Direction": "right",
						"Row": "0"
					},
					{
						"Direction": "right",
						"Row": 1
					},
					{
						"Direction": "right",
						"Row": 2
					},
					{
						"Direction": "right",
						"Row": 3
					},
					{
						"Direction": "right",
						"Row": 4
					}
				]
			}
		},
		{
			"aliases": [
				"Wave10FrostWindEvent0"
			],
			"objclass": "FrostWindWaveActionProps",
			"objdata": {
				"Winds": [
					{
						"Direction": "right",
						"Row": "0"
					},
					{
						"Direction": "right",
						"Row": 1
					},
					{
						"Direction": "right",
						"Row": 2
					},
					{
						"Direction": "right",
						"Row": 3
					},
					{
						"Direction": "right",
						"Row": 4
					}
				]
			}
		}
	],
	"version": 1
}