{
	"#comment": "LOD template level. Delete unnecessary Modules (e.g. Challenge, Frozen)",
	"objects": [
		{
			"objclass": "LevelDefinition",
			"objdata": {
				"Description": "[PLAYERS_TRIP_TO_LOD]",
				"DraperPromo": "shrinkingviolet",
				"IsLevelOfTheDay": true,
				"Loot": "RTID(DefaultLoot@LevelModules)",
				"Modules": [
					"RTID(LevelOfTheDayIntro@LevelModules)",
					"RTID(LevelOfTheDayModule@CurrentLevel)",
					"RTID(FrontLawnMowers@LevelModules)",
					"RTID(NewWaves@CurrentLevel)",
					"RTID(DefaultZombieWinCondition@LevelModules)",
					"RTID(Gravestones@CurrentLevel)",
					"RTID(ConveyorBelt@CurrentLevel)",
					"RTID(FrozenPlantPlacement@CurrentLevel)",
					"RTID(ZombiesDeadWinCon@LevelModules)"
				],
				"Name": "[LOD_LEVEL_NAME]",
				"NormalPresentTable": "egypt_normal_01",
				"ShinyPresentTable": "egypt_shiny_01",
				"StageModule": "RTID(FrontLawnStage@LevelModules)",
				"VictoryModule": "RTID(LevelOfTheDayOutro@LevelModules)"
			}
		},
		{
			"aliases": [
				"FrozenPlantPlacement"
			],
			"objclass": "InitialPlantProperties",
			"objdata": {
				"InitialPlantPlacements": [
					{
						"GridX": 7,
						"GridY": 1,
						"TypeName": "shrinkingviolet"
					},
					{
						"GridX": 7,
						"GridY": 3,
						"TypeName": "shrinkingviolet"
					}
				]
			}
		},
		{
			"aliases": [
				"LevelOfTheDayModule"
			],
			"objclass": "LevelOfTheDayModuleProperties",
			"objdata": {
				"FlagCount": 3,
				"PlantfoodToSpawnCount": 3,
				"PointIncrementPerWave": 0,
				"StartingPoints": 0,
				"WaveManagerProps": "RTID(WaveManagerProps@CurrentLevel)",
				"WavesPerFlag": 3,
				"ZombiePool": [
					"RTID(tutorial@ZombieTypes)"
				]
			}
		},
		{
			"aliases": [
				"WaveManagerProps"
			],
			"objclass": "WaveManagerProperties",
			"objdata": {
				"MaxNextWaveHealthPercentage": 0.9,
				"MinNextWaveHealthPercentage": 0.8,
				"Waves": [
					[
						"RTID(Wave1@CurrentLevel)",
						"RTID(Wave1ModConveyor0@CurrentLevel)"
					],
					[
						"RTID(Wave2@CurrentLevel)",
						"RTID(Wave2ModConveyor0@CurrentLevel)"
					],
					[
						"RTID(Wave3@CurrentLevel)",
						"RTID(Wave3ModConveyor0@CurrentLevel)"
					],
					[
						"RTID(Wave4@CurrentLevel)",
						"RTID(Wave4ModConveyor0@CurrentLevel)"
					],
					[
						"RTID(Wave5@CurrentLevel)"
					],
					[
						"RTID(Wave6@CurrentLevel)"
					],
					[
						"RTID(Wave7@CurrentLevel)"
					],
					[
						"RTID(Wave8@CurrentLevel)"
					],
					[
						"RTID(Wave9@CurrentLevel)"
					]
				]
			}
		},
		{
			"aliases": [
				"Wave1"
			],
			"objclass": "SpawnZombiesJitteredWaveActionProps",
			"objdata": {
				"Zombies": [
					{
						"Row": "2",
						"Type": "RTID(tutorial_armor2@ZombieTypes)"
					}
				]
			}
		},
		{
			"aliases": [
				"Wave2"
			],
			"objclass": "SpawnZombiesJitteredWaveActionProps",
			"objdata": {
				"Zombies": [
					{
						"Row": "4",
						"Type": "RTID(tutorial_armor1@ZombieTypes)"
					},
					{
						"Row": "5",
						"Type": "RTID(tutorial_armor2@ZombieTypes)"
					}
				]
			}
		},
		{
			"aliases": [
				"Wave3"
			],
			"objclass": "SpawnZombiesJitteredWaveActionProps",
			"objdata": {
				"AdditionalPlantfood": 1,
				"DynamicPlantfood": [
					1,
					1,
					1,
					1,
					1,
					1,
					1
				],
				"Zombies": [
					{
						"Row": "1",
						"Type": "RTID(tutorial_armor1@ZombieTypes)"
					},
					{
						"Row": "1",
						"Type": "RTID(tutorial_armor1@ZombieTypes)"
					},
					{
						"Row": "2",
						"Type": "RTID(tutorial_armor1@ZombieTypes)"
					},
					{
						"Row": "3",
						"Type": "RTID(tutorial_armor1@ZombieTypes)"
					},
					{
						"Row": "3",
						"Type": "RTID(tutorial_armor1@ZombieTypes)"
					},
					{
						"Row": "4",
						"Type": "RTID(tutorial_armor1@ZombieTypes)"
					},
					{
						"Row": "5",
						"Type": "RTID(tutorial_armor1@ZombieTypes)"
					},
					{
						"Row": "5",
						"Type": "RTID(tutorial_armor1@ZombieTypes)"
					}
				]
			}
		},
		{
			"aliases": [
				"Wave4"
			],
			"objclass": "SpawnZombiesJitteredWaveActionProps",
			"objdata": {
				"Zombies": [
					{
						"Row": "4",
						"Type": "RTID(tutorial_gargantuar@ZombieTypes)"
					}
				]
			}
		},
		{
			"aliases": [
				"Wave5"
			],
			"objclass": "SpawnZombiesJitteredWaveActionProps",
			"objdata": {
				"AdditionalPlantfood": 1,
				"DynamicPlantfood": [
					1,
					1,
					1,
					1,
					1,
					1,
					1
				],
				"Zombies": [
					{
						"Row": "2",
						"Type": "RTID(tutorial_gargantuar@ZombieTypes)"
					},
					{
						"Type": "RTID(tutorial@ZombieTypes)"
					},
					{
						"Type": "RTID(tutorial@ZombieTypes)"
					},
					{
						"Type": "RTID(tutorial@ZombieTypes)"
					},
					{
						"Type": "RTID(tutorial@ZombieTypes)"
					}
				]
			}
		},
		{
			"aliases": [
				"Wave6"
			],
			"objclass": "SpawnZombiesJitteredWaveActionProps",
			"objdata": {
				"AdditionalPlantfood": 1,
				"DynamicPlantfood": [
					1,
					1,
					1,
					1,
					1,
					1,
					1
				],
				"Zombies": [
					{
						"Type": "RTID(tutorial_armor2@ZombieTypes)"
					},
					{
						"Type": "RTID(tutorial_armor2@ZombieTypes)"
					},
					{
						"Type": "RTID(tutorial_armor2@ZombieTypes)"
					},
					{
						"Type": "RTID(tutorial_armor2@ZombieTypes)"
					},
					{
						"Type": "RTID(tutorial_armor2@ZombieTypes)"
					}
				]
			}
		},
		{
			"aliases": [
				"Wave7"
			],
			"objclass": "SpawnZombiesJitteredWaveActionProps",
			"objdata": {
				"Zombies": [
					{
						"Row": "3",
						"Type": "RTID(tutorial_gargantuar@ZombieTypes)"
					}
				]
			}
		},
		{
			"aliases": [
				"Wave8"
			],
			"objclass": "SpawnZombiesJitteredWaveActionProps",
			"objdata": {
				"Zombies": [
					{
						"Type": "RTID(tutorial@ZombieTypes)"
					},
					{
						"Type": "RTID(tutorial@ZombieTypes)"
					},
					{
						"Type": "RTID(tutorial@ZombieTypes)"
					},
					{
						"Type": "RTID(tutorial@ZombieTypes)"
					},
					{
						"Type": "RTID(tutorial@ZombieTypes)"
					},
					{
						"Type": "RTID(tutorial@ZombieTypes)"
					}
				]
			}
		},
		{
			"aliases": [
				"Wave9"
			],
			"objclass": "SpawnZombiesJitteredWaveActionProps",
			"objdata": {
				"Zombies": [
					{
						"Row": "2",
						"Type": "RTID(tutorial_gargantuar@ZombieTypes)"
					},
					{
						"Row": "3",
						"Type": "RTID(tutorial_gargantuar@ZombieTypes)"
					},
					{
						"Row": "4",
						"Type": "RTID(tutorial_gargantuar@ZombieTypes)"
					}
				]
			}
		},
		{
			"aliases": [
				"Gravestones"
			],
			"objclass": "GravestoneProperties",
			"objdata": {}
		},
		{
			"aliases": [
				"NewWaves"
			],
			"objclass": "WaveManagerModuleProperties",
			"objdata": {}
		},
		{
			"aliases": [
				"ConveyorBelt"
			],
			"objclass": "ConveyorSeedBankProperties",
			"objdata": {
				"DropDelayConditions": [
					{
						"Delay": 3,
						"MaxPackets": 0
					},
					{
						"Delay": 5,
						"MaxPackets": 2
					},
					{
						"Delay": 7,
						"MaxPackets": 4
					},
					{
						"Delay": 10,
						"MaxPackets": 8
					}
				],
				"InitialPlantList": [
					{
						"MaxCount": 12,
						"MaxWeightFactor": 0.2,
						"PlantType": "peashooter",
						"Weight": 10
					}
				],
				"SpeedConditions": [
					{
						"MaxPackets": 0,
						"Speed": 100
					}
				]
			}
		},
		{
			"aliases": [
				"Wave1ModConveyor0"
			],
			"objclass": "ModifyConveyorWaveActionProps",
			"objdata": {
				"Add": [
					{
						"MinCount": 2,
						"MinWeightFactor": 4,
						"Type": "RTID(shrinkingviolet@PlantTypes)",
						"Weight": 5
					}
				],
				"Remove": []
			}
		},
		{
			"aliases": [
				"Wave3ModConveyor0"
			],
			"objclass": "ModifyConveyorWaveActionProps",
			"objdata": {
				"Add": [
					{
						"Type": "RTID(stallia@PlantTypes)",
						"Weight": 10
					},
					{
						"Type": "RTID(kernelpult@PlantTypes)",
						"Weight": 10
					}
				],
				"Remove": [
					{
						"Type": "RTID(peashooter@PlantTypes)"
					}
				]
			}
		},
		{
			"aliases": [
				"Wave4ModConveyor0"
			],
			"objclass": "ModifyConveyorWaveActionProps",
			"objdata": {
				"Add": [
					{
						"Type": "RTID(spikeweed@PlantTypes)",
						"Weight": 10
					},
					{
						"Type": "RTID(iceburg@PlantTypes)",
						"Weight": 10
					}
				],
				"Remove": []
			}
		},
		{
			"aliases": [
				"Wave2ModConveyor0"
			],
			"objclass": "ModifyConveyorWaveActionProps",
			"objdata": {
				"Add": [
					{
						"MinCount": 10,
						"MinWeightFactor": 1.5,
						"Type": "RTID(repeater@PlantTypes)",
						"Weight": 10
					}
				],
				"Remove": []
			}
		}
	],
	"version": 1
}