{
	"#comment": "LoD Imitater",
	"objects": [
		{
			"objclass": "LevelDefinition",
			"objdata": {
				"Description": "[PLAYERS_TRIP_TO_LOD]",
				"DraperPromo": "imitater",
				"IsLevelOfTheDay": true,
				"Loot": "RTID(DefaultLoot@LevelModules)",
				"Modules": [
					"RTID(LevelOfTheDayIntro@LevelModules)",
					"RTID(LevelOfTheDayModule@CurrentLevel)",
					"RTID(FrontLawnMowers@LevelModules)",
					"RTID(DefaultSunDropper@LevelModules)",
					"RTID(NewWaves@CurrentLevel)",
					"RTID(SeedBank@CurrentLevel)",
					"RTID(DefaultZombieWinCondition@LevelModules)",
					"RTID(Gravestones@CurrentLevel)",
					"RTID(ZombiesDeadWinCon@LevelModules)"
				],
				"Name": "[LOD_LEVEL_NAME]",
				"NormalPresentTable": "egypt_normal_01",
				"ShinyPresentTable": "egypt_shiny_01",
				"StageModule": "RTID(FrontLawnStage@LevelModules)",
				"VictoryModule": "RTID(LevelOfTheDayOutro@LevelModules)"
			}
		},
		{
			"aliases": [
				"SeedBank"
			],
			"objclass": "SeedBankProperties",
			"objdata": {
				"PresetPlantList": [
					{
						"PlantType": "sunflower",
						"Level": -1
					},
					{
						"PlantType": "empea",
						"Level": -1
					},
					{
						"PlantType": "imitater",
						"Level": -1
					},
					{
						"PlantType": "laser_bean",
						"Level": -1
					}
				],
				"SelectionMethod": "preset"
			}
		},
		{
			"aliases": [
				"WaveManagerProps"
			],
			"objclass": "WaveManagerProperties",
			"objdata": {
				"FlagWaveInterval": 9,
				"IgnoreFlagCarriers": true,
				"MaxNextWaveHealthPercentage": 0.9,
				"MinNextWaveHealthPercentage": 0.8,
				"WaveCount": 9,
				"WaveSpendingPointIncrement": 200,
				"WaveSpendingPoints": 150,
				"Waves": [
					[
						"RTID(Wave1@CurrentLevel)"
					],
					[
						"RTID(Wave2@CurrentLevel)"
					],
					[
						"RTID(Wave3@CurrentLevel)"
					],
					[
						"RTID(Wave4@CurrentLevel)"
					],
					[
						"RTID(Wave5@CurrentLevel)"
					],
					[
						"RTID(Wave6@CurrentLevel)",
						"RTID(Wave6SpiderRainEvent0@CurrentLevel)"
					],
					[
						"RTID(Wave7@CurrentLevel)"
					],
					[
						"RTID(Wave8@CurrentLevel)",
						"RTID(Wave8SpiderRainEvent0@CurrentLevel)"
					],
					[
						"RTID(Wave9@CurrentLevel)"
					]
				]
			}
		},
		{
			"aliases": [
				"Wave1"
			],
			"objclass": "SpawnZombiesJitteredWaveActionProps",
			"objdata": {
				"AdditionalPlantfood": 1,
				"Zombies": [
					{
						"Type": "RTID(future_protector@ZombieTypes)"
					}
				]
			}
		},
		{
			"aliases": [
				"Wave2"
			],
			"objclass": "SpawnZombiesJitteredWaveActionProps",
			"objdata": {
				"AdditionalPlantfood": 0,
				"Zombies": [
					{
						"Type": "RTID(future_protector@ZombieTypes)"
					}
				]
			}
		},
		{
			"aliases": [
				"Wave3"
			],
			"objclass": "SpawnZombiesJitteredWaveActionProps",
			"objdata": {
				"AdditionalPlantfood": 1,
				"Zombies": [
					{
						"Type": "RTID(future_protector@ZombieTypes)"
					}
				]
			}
		},
		{
			"aliases": [
				"Wave4"
			],
			"objclass": "SpawnZombiesJitteredWaveActionProps",
			"objdata": {
				"AdditionalPlantfood": 0,
				"Zombies": [
					{
						"Type": "RTID(future_protector@ZombieTypes)"
					}
				]
			}
		},
		{
			"aliases": [
				"Wave5"
			],
			"objclass": "SpawnZombiesJitteredWaveActionProps",
			"objdata": {
				"AdditionalPlantfood": 0,
				"Zombies": [
					{
						"Type": "RTID(future_protector@ZombieTypes)"
					}
				]
			}
		},
		{
			"aliases": [
				"Wave6"
			],
			"objclass": "SpawnZombiesJitteredWaveActionProps",
			"objdata": {
				"AdditionalPlantfood": 1,
				"Zombies": [
					{
						"Type": "RTID(mech_cone@ZombieTypes)"
					}
				]
			}
		},
		{
			"aliases": [
				"Wave7"
			],
			"objclass": "SpawnZombiesJitteredWaveActionProps",
			"objdata": {
				"AdditionalPlantfood": 1,
				"Zombies": [
					{
						"Type": "RTID(mech_cone@ZombieTypes)"
					}
				]
			}
		},
		{
			"aliases": [
				"Wave8"
			],
			"objclass": "SpawnZombiesJitteredWaveActionProps",
			"objdata": {
				"AdditionalPlantfood": 0,
				"Zombies": [
					{
						"Type": "RTID(mech_cone@ZombieTypes)"
					}
				]
			}
		},
		{
			"aliases": [
				"LevelOfTheDayModule"
			],
			"objclass": "LevelOfTheDayModuleProperties",
			"objdata": {
				"FlagCount": 1,
				"PlantfoodToSpawnCount": 0,
				"PointIncrementPerWave": 200,
				"StartingPoints": 200,
				"WaveManagerProps": "RTID(WaveManagerProps@CurrentLevel)",
				"WavesPerFlag": 9,
				"ZombiePool": [
					"RTID(mech_cone@ZombieTypes)",
					"RTID(future_protector@ZombieTypes)",
					"RTID(future_imp@ZombieTypes)"
				]
			}
		},
		{
			"aliases": [
				"Gravestones"
			],
			"objclass": "GravestoneProperties",
			"objdata": {}
		},
		{
			"aliases": [
				"NewWaves"
			],
			"objclass": "WaveManagerModuleProperties",
			"objdata": {}
		},
		{
			"aliases": [
				"Wave9"
			],
			"objclass": "SpawnZombiesJitteredWaveActionProps",
			"objdata": {
				"AdditionalPlantfood": 0,
				"Zombies": [
					{
						"Row": "4",
						"Type": "RTID(disco_mech@ZombieTypes)"
					},
					{
						"Row": "2",
						"Type": "RTID(disco_mech@ZombieTypes)"
					}
				]
			}
		},
		{
			"aliases": [
				"Wave8SpiderRainEvent0"
			],
			"objclass": "SpiderRainZombieSpawnerProps",
			"objdata": {
				"ColumnEnd": "8",
				"ColumnStart": 5,
				"GroupSize": "2",
				"SpiderCount": 7,
				"SpiderZombieName": "future_imp",
				"TimeBeforeFullSpawn": "1",
				"TimeBetweenGroups": "0.2",
				"WaveStartMessage": "[WARNING_LEPRACHAUNS]",
				"ZombieFallTime": "1.5"
			}
		},
		{
			"aliases": [
				"Wave6SpiderRainEvent0"
			],
			"objclass": "SpiderRainZombieSpawnerProps",
			"objdata": {
				"ColumnEnd": "8",
				"ColumnStart": 5,
				"GroupSize": "2",
				"SpiderCount": 5,
				"SpiderZombieName": "future_imp",
				"TimeBeforeFullSpawn": "1",
				"TimeBetweenGroups": "0.2",
				"WaveStartMessage": "[WARNING_LEPRACHAUNS]",
				"ZombieFallTime": "1.5"
			}
		}
	],
	"version": 1
}