{
	"#comment": "Fire Peashooter + Repeater + Peapod vs. Freezing",
	"objects": [
		{
			"objclass": "LevelDefinition",
			"objdata": {
				"Description": "[PLAYERS_TRIP_TO_LOD]",
				"DraperPromo": "firepea",
				"IsLevelOfTheDay": true,
				"Loot": "RTID(DefaultLoot@LevelModules)",
				"Modules": [
					"RTID(LevelOfTheDayIntro@LevelModules)",
					"RTID(LevelOfTheDayModule@CurrentLevel)",
					"RTID(IceageMowers@LevelModules)",
					"RTID(NewWaves@CurrentLevel)",
					"RTID(DefaultZombieWinCondition@LevelModules)",
					"RTID(ConveyorBelt@CurrentLevel)",
					"RTID(FrozenPlantPlacement@CurrentLevel)",
					"RTID(FrozenZombiePlacement@CurrentLevel)",
					"RTID(ZombiesDeadWinCon@LevelModules)"
				],
				"Name": "[LOD_LEVEL_NAME]",
				"NormalPresentTable": "egypt_normal_01",
				"ShinyPresentTable": "egypt_shiny_01",
				"StageModule": "RTID(IceageStage@LevelModules)",
				"VictoryModule": "RTID(LevelOfTheDayOutro@LevelModules)"
			}
		},
		{
			"aliases": [
				"FrozenPlantPlacement"
			],
			"objclass": "InitialPlantProperties",
			"objdata": {
				"InitialPlantPlacements": [
					{
						"Condition": "icecubed",
						"GridX": 5,
						"GridY": 0,
						"TypeName": "wallnut"
					},
					{
						"Condition": "icecubed",
						"GridX": 5,
						"GridY": 1,
						"TypeName": "wallnut"
					},
					{
						"Condition": "icecubed",
						"GridX": 5,
						"GridY": 2,
						"TypeName": "wallnut"
					},
					{
						"Condition": "icecubed",
						"GridX": 5,
						"GridY": 3,
						"TypeName": "wallnut"
					},
					{
						"Condition": "icecubed",
						"GridX": 5,
						"GridY": 4,
						"TypeName": "wallnut"
					}
				]
			}
		},
		{
			"aliases": [
				"FrozenZombiePlacement"
			],
			"objclass": "InitialZombieProperties",
			"objdata": {
				"InitialZombiePlacements": [
					{
						"Condition": "icecubed",
						"GridX": 4,
						"GridY": 0,
						"TypeName": "iceage_imp"
					},
					{
						"Condition": "icecubed",
						"GridX": 4,
						"GridY": 2,
						"TypeName": "iceage_imp"
					},
					{
						"Condition": "icecubed",
						"GridX": 4,
						"GridY": 4,
						"TypeName": "iceage_imp"
					}
				]
			}
		},
		{
			"aliases": [
				"WaveManagerProps"
			],
			"objclass": "WaveManagerProperties",
			"objdata": {
				"FlagWaveInterval": 3,
				"MaxNextWaveHealthPercentage": 0.9,
				"MinNextWaveHealthPercentage": 0.8,
				"WaveCount": 12,
				"WaveSpendingPointIncrement": 100,
				"WaveSpendingPoints": 0,
				"Waves": [
					[
						"RTID(Wave1@CurrentLevel)",
						"RTID(Wave1ModConveyor0@CurrentLevel)"
					],
					[
						"RTID(Wave2@CurrentLevel)"
					],
					[
						"RTID(Wave3@CurrentLevel)"
					],
					[
						"RTID(Wave4@CurrentLevel)"
					],
					[
						"RTID(Wave5@CurrentLevel)",
						"RTID(Wave5FrostWindEvent0@CurrentLevel)"
					],
					[
						"RTID(Wave6@CurrentLevel)"
					],
					[
						"RTID(Wave7@CurrentLevel)",
						"RTID(Wave7FrostWindEvent0@CurrentLevel)"
					],
					[
						"RTID(Wave8@CurrentLevel)",
						"RTID(Wave8FrostWindEvent0@CurrentLevel)"
					],
					[
						"RTID(Wave9@CurrentLevel)"
					],
					[
						"RTID(Wave10@CurrentLevel)",
						"RTID(Wave10FrostWindEvent0@CurrentLevel)"
					],
					[
						"RTID(Wave11@CurrentLevel)",
						"RTID(Wave11FrostWindEvent0@CurrentLevel)"
					],
					[
						"RTID(Wave12@CurrentLevel)",
						"RTID(Wave12FrostWindEvent0@CurrentLevel)"
					]
				]
			}
		},
		{
			"aliases": [
				"Wave1"
			],
			"objclass": "SpawnZombiesJitteredWaveActionProps",
			"objdata": {
				"AdditionalPlantfood": 0,
				"DynamicPlantfood": [
					1,
					1,
					1,
					1,
					1,
					1,
					1
				],
				"Zombies": [
					{
						"Type": "RTID(iceage@ZombieTypes)"
					}
				]
			}
		},
		{
			"aliases": [
				"Wave2"
			],
			"objclass": "SpawnZombiesJitteredWaveActionProps",
			"objdata": {
				"AdditionalPlantfood": 0,
				"Zombies": [
					{
						"Type": "RTID(iceage@ZombieTypes)"
					},
					{
						"Type": "RTID(iceage_imp@ZombieTypes)"
					}
				]
			}
		},
		{
			"aliases": [
				"Wave3"
			],
			"objclass": "SpawnZombiesJitteredWaveActionProps",
			"objdata": {
				"AdditionalPlantfood": 1,
				"Zombies": [
					{
						"Type": "RTID(iceage@ZombieTypes)"
					},
					{
						"Type": "RTID(iceage_armor2@ZombieTypes)"
					},
					{
						"Type": "RTID(iceage_armor1@ZombieTypes)"
					}
				]
			}
		},
		{
			"aliases": [
				"Wave4"
			],
			"objclass": "SpawnZombiesJitteredWaveActionProps",
			"objdata": {
				"AdditionalPlantfood": 0,
				"Zombies": [
					{
						"Type": "RTID(iceage_armor2@ZombieTypes)"
					}
				]
			}
		},
		{
			"aliases": [
				"Wave5"
			],
			"objclass": "SpawnZombiesJitteredWaveActionProps",
			"objdata": {
				"AdditionalPlantfood": 0,
				"DynamicPlantfood": [
					1,
					1,
					1,
					1,
					1,
					1,
					1
				],
				"Zombies": [
					{
						"Type": "RTID(future_jetpack@ZombieTypes)"
					},
					{
						"Type": "RTID(future_jetpack@ZombieTypes)"
					}
				]
			}
		},
		{
			"aliases": [
				"Wave6"
			],
			"objclass": "SpawnZombiesJitteredWaveActionProps",
			"objdata": {
				"AdditionalPlantfood": 0,
				"Zombies": [
					{
						"Row": "1",
						"Type": "RTID(iceage_hunter@ZombieTypes)"
					},
					{
						"Row": "5",
						"Type": "RTID(iceage_hunter@ZombieTypes)"
					},
					{
						"Row": "3",
						"Type": "RTID(iceage_imp@ZombieTypes)"
					}
				]
			}
		},
		{
			"aliases": [
				"Wave7"
			],
			"objclass": "SpawnZombiesJitteredWaveActionProps",
			"objdata": {
				"AdditionalPlantfood": 0,
				"Zombies": [
					{
						"Type": "RTID(future_jetpack@ZombieTypes)"
					},
					{
						"Type": "RTID(future_jetpack@ZombieTypes)"
					},
					{
						"Type": "RTID(future_jetpack@ZombieTypes)"
					}
				]
			}
		},
		{
			"aliases": [
				"LevelOfTheDayModule"
			],
			"objclass": "LevelOfTheDayModuleProperties",
			"objdata": {
				"FlagCount": 3,
				"PlantfoodToSpawnCount": 0,
				"PointIncrementPerWave": 150,
				"StartingPoints": 200,
				"WaveManagerProps": "RTID(WaveManagerProps@CurrentLevel)",
				"WavesPerFlag": 3,
				"ZombiePool": []
			}
		},
		{
			"aliases": [
				"NewWaves"
			],
			"objclass": "WaveManagerModuleProperties",
			"objdata": {}
		},
		{
			"aliases": [
				"ConveyorBelt"
			],
			"objclass": "ConveyorSeedBankProperties",
			"objdata": {
				"DropDelayConditions": [
					{
						"Delay": 6,
						"MaxPackets": 0
					},
					{
						"Delay": 8,
						"MaxPackets": 2
					},
					{
						"Delay": 10,
						"MaxPackets": 4
					},
					{
						"Delay": 12,
						"MaxPackets": 8
					}
				],
				"InitialPlantList": [
					{
						"MaxCount": 10,
						"PlantType": "firepeashooter",
						"Weight": 30
					}
				],
				"SpeedConditions": [
					{
						"MaxPackets": 0,
						"Speed": 100
					}
				]
			}
		},
		{
			"aliases": [
				"Wave8"
			],
			"objclass": "SpawnZombiesJitteredWaveActionProps",
			"objdata": {
				"AdditionalPlantfood": 0,
				"Zombies": [
					{
						"Row": "3",
						"Type": "RTID(iceage_armor3@ZombieTypes)"
					},
					{
						"Type": "RTID(future_jetpack@ZombieTypes)"
					}
				]
			}
		},
		{
			"aliases": [
				"Wave9"
			],
			"objclass": "SpawnZombiesJitteredWaveActionProps",
			"objdata": {
				"AdditionalPlantfood": 0,
				"Zombies": [
					{
						"Row": "1",
						"Type": "RTID(iceage_hunter@ZombieTypes)"
					},
					{
						"Row": "2",
						"Type": "RTID(iceage_hunter@ZombieTypes)"
					},
					{
						"Row": "4",
						"Type": "RTID(iceage_hunter@ZombieTypes)"
					},
					{
						"Row": "5",
						"Type": "RTID(iceage_imp@ZombieTypes)"
					}
				]
			}
		},
		{
			"aliases": [
				"Wave10"
			],
			"objclass": "SpawnZombiesJitteredWaveActionProps",
			"objdata": {
				"Zombies": [
					{
						"Row": "3",
						"Type": "RTID(iceage_hunter@ZombieTypes)"
					},
					{
						"Type": "RTID(future_jetpack@ZombieTypes)"
					},
					{
						"Type": "RTID(future_jetpack@ZombieTypes)"
					}
				]
			}
		},
		{
			"aliases": [
				"Wave11"
			],
			"objclass": "SpawnZombiesJitteredWaveActionProps",
			"objdata": {
				"AdditionalPlantfood": 0,
				"DynamicPlantfood": [
					1,
					1,
					1,
					1,
					1,
					1,
					1
				],
				"Zombies": [
					{
						"Row": "3",
						"Type": "RTID(future_jetpack@ZombieTypes)"
					},
					{
						"Type": "RTID(iceage_armor3@ZombieTypes)"
					},
					{
						"Type": "RTID(iceage_armor3@ZombieTypes)"
					}
				]
			}
		},
		{
			"aliases": [
				"Wave12"
			],
			"objclass": "SpawnZombiesJitteredWaveActionProps",
			"objdata": {
				"Zombies": [
					{
						"Row": "1",
						"Type": "RTID(iceage_hunter@ZombieTypes)"
					},
					{
						"Row": "2",
						"Type": "RTID(iceage_hunter@ZombieTypes)"
					},
					{
						"Row": "3",
						"Type": "RTID(iceage_hunter@ZombieTypes)"
					},
					{
						"Row": "4",
						"Type": "RTID(iceage_hunter@ZombieTypes)"
					},
					{
						"Row": "5",
						"Type": "RTID(iceage_hunter@ZombieTypes)"
					}
				]
			}
		},
		{
			"aliases": [
				"Wave1ModConveyor0"
			],
			"objclass": "ModifyConveyorWaveActionProps",
			"objdata": {
				"Add": [
					{
						"Type": "RTID(repeater@PlantTypes)",
						"Weight": 40
					},
					{
						"Type": "RTID(peapod@PlantTypes)",
						"Weight": 25
					}
				],
				"Remove": [
					{
						"Type": "RTID(cherry_bomb@PlantTypes)"
					},
					{
						"Type": "RTID(starfruit@PlantTypes)"
					}
				]
			}
		},
		{
			"aliases": [
				"Wave5FrostWindEvent0"
			],
			"objclass": "FrostWindWaveActionProps",
			"objdata": {
				"Winds": [
					{
						"Direction": "right",
						"Row": "0"
					},
					{
						"Direction": "right",
						"Row": 1
					},
					{
						"Direction": "right",
						"Row": 2
					},
					{
						"Direction": "right",
						"Row": 3
					},
					{
						"Direction": "right",
						"Row": 4
					}
				]
			}
		},
		{
			"aliases": [
				"Wave8FrostWindEvent0"
			],
			"objclass": "FrostWindWaveActionProps",
			"objdata": {
				"Winds": [
					{
						"Direction": "right",
						"Row": "0"
					},
					{
						"Direction": "right",
						"Row": 1
					},
					{
						"Direction": "right",
						"Row": 2
					},
					{
						"Direction": "right",
						"Row": 3
					},
					{
						"Direction": "right",
						"Row": 4
					}
				]
			}
		},
		{
			"aliases": [
				"Wave11FrostWindEvent0"
			],
			"objclass": "FrostWindWaveActionProps",
			"objdata": {
				"Winds": [
					{
						"Direction": "right",
						"Row": "0"
					},
					{
						"Direction": "right",
						"Row": 1
					},
					{
						"Direction": "right",
						"Row": 2
					},
					{
						"Direction": "right",
						"Row": 3
					},
					{
						"Direction": "right",
						"Row": 4
					}
				]
			}
		},
		{
			"aliases": [
				"Wave7FrostWindEvent0"
			],
			"objclass": "FrostWindWaveActionProps",
			"objdata": {
				"Winds": [
					{
						"Direction": "right",
						"Row": "0"
					},
					{
						"Direction": "right",
						"Row": 1
					},
					{
						"Direction": "right",
						"Row": 2
					},
					{
						"Direction": "right",
						"Row": 3
					},
					{
						"Direction": "right",
						"Row": 4
					}
				]
			}
		},
		{
			"aliases": [
				"Wave10FrostWindEvent0"
			],
			"objclass": "FrostWindWaveActionProps",
			"objdata": {
				"Winds": [
					{
						"Direction": "right",
						"Row": "0"
					},
					{
						"Direction": "right",
						"Row": 1
					},
					{
						"Direction": "right",
						"Row": 2
					},
					{
						"Direction": "right",
						"Row": 3
					},
					{
						"Direction": "right",
						"Row": 4
					}
				]
			}
		},
		{
			"aliases": [
				"Wave12FrostWindEvent0"
			],
			"objclass": "FrostWindWaveActionProps",
			"objdata": {
				"Winds": [
					{
						"Direction": "right",
						"Row": "0"
					},
					{
						"Direction": "right",
						"Row": 1
					},
					{
						"Direction": "right",
						"Row": 2
					},
					{
						"Direction": "right",
						"Row": 3
					},
					{
						"Direction": "right",
						"Row": 4
					}
				]
			}
		}
	],
	"version": 1
}