{
	"#comment": "LoD Wallnut + Spikeweed",
	"objects": [
		{
			"objclass": "LevelDefinition",
			"objdata": {
				"Description": "[PLAYERS_TRIP_TO_LOD]",
				"DraperPromo": "snowpea",
				"IsLevelOfTheDay": true,
				"Loot": "RTID(DefaultLoot@LevelModules)",
				"Modules": [
					"RTID(LevelOfTheDayIntro@LevelModules)",
					"RTID(LevelOfTheDayModule@CurrentLevel)",
					"RTID(FrontLawnMowers@LevelModules)",
					"RTID(NewWaves@CurrentLevel)",
					"RTID(DefaultZombieWinCondition@LevelModules)",
					"RTID(Gravestones@CurrentLevel)",
					"RTID(ConveyorBelt@CurrentLevel)",
					"RTID(ZombiesDeadWinCon@LevelModules)"
				],
				"Name": "[LOD_LEVEL_NAME]",
				"NormalPresentTable": "egypt_normal_01",
				"ShinyPresentTable": "egypt_shiny_01",
				"StageModule": "RTID(FrontLawnStage@LevelModules)",
				"VictoryModule": "RTID(LevelOfTheDayOutro@LevelModules)"
			}
		},
		{
			"aliases": [
				"WaveManagerProps"
			],
			"objclass": "WaveManagerProperties",
			"objdata": {
				"FlagWaveInterval": 3,
				"MaxNextWaveHealthPercentage": 0.9,
				"MinNextWaveHealthPercentage": 0.8,
				"WaveCount": 12,
				"WaveSpendingPointIncrement": 200,
				"WaveSpendingPoints": 100,
				"Waves": [
					[
						"RTID(Wave1@CurrentLevel)"
					],
					[
						"RTID(Wave2@CurrentLevel)",
						"RTID(Wave2ModConveyor@CurrentLevel)"
					],
					[
						"RTID(Wave3@CurrentLevel)",
						"RTID(Wave3Event@CurrentLevel)"
					],
					[
						"RTID(Wave4@CurrentLevel)"
					],
					[
						"RTID(Wave5@CurrentLevel)",
						"RTID(Wave5Event@CurrentLevel)"
					],
					[
						"RTID(Wave6@CurrentLevel)"
					],
					[
						"RTID(Wave7@CurrentLevel)",
						"RTID(Wave7Event@CurrentLevel)"
					],
					[
						"RTID(Wave8@CurrentLevel)"
					],
					[
						"RTID(Wave9@CurrentLevel)",
						"RTID(Wave9Event@CurrentLevel)"
					],
					[
						"RTID(Wave10@CurrentLevel)"
					],
					[
						"RTID(Wave11@CurrentLevel)",
						"RTID(Wave11Event@CurrentLevel)"
					],
					[
						"RTID(Wave12@CurrentLevel)"
					]
				]
			}
		},
		{
			"aliases": [
				"Wave1"
			],
			"objclass": "SpawnZombiesJitteredWaveActionProps",
			"objdata": {
				"Zombies": [
					{
						"Type": "RTID(cowboy@ZombieTypes)"
					}
				]
			}
		},
		{
			"aliases": [
				"Wave2"
			],
			"objclass": "SpawnZombiesJitteredWaveActionProps",
			"objdata": {
				"AdditionalPlantfood": 1,
				"Zombies": [
					{
						"Type": "RTID(mummy@ZombieTypes)"
					}
				]
			}
		},
		{
			"aliases": [
				"Wave3"
			],
			"objclass": "SpawnZombiesJitteredWaveActionProps",
			"objdata": {
				"Zombies": [
					{
						"Type": "RTID(pirate@ZombieTypes)"
					}
				]
			}
		},
		{
			"aliases": [
				"Wave4"
			],
			"objclass": "SpawnZombiesJitteredWaveActionProps",
			"objdata": {
				"AdditionalPlantfood": 1,
				"Zombies": [
					{
						"Type": "RTID(tutorial@ZombieTypes)"
					}
				]
			}
		},
		{
			"aliases": [
				"Wave5"
			],
			"objclass": "SpawnZombiesJitteredWaveActionProps",
			"objdata": {
				"Zombies": [
					{
						"Type": "RTID(cowboy@ZombieTypes)"
					}
				]
			}
		},
		{
			"aliases": [
				"Wave6"
			],
			"objclass": "SpawnZombiesJitteredWaveActionProps",
			"objdata": {
				"AdditionalPlantfood": 1,
				"Zombies": [
					{
						"Type": "RTID(mummy@ZombieTypes)"
					}
				]
			}
		},
		{
			"aliases": [
				"Wave7"
			],
			"objclass": "SpawnZombiesJitteredWaveActionProps",
			"objdata": {
				"Zombies": [
					{
						"Type": "RTID(pirate@ZombieTypes)"
					}
				]
			}
		},
		{
			"aliases": [
				"Wave8"
			],
			"objclass": "SpawnZombiesJitteredWaveActionProps",
			"objdata": {
				"AdditionalPlantfood": 1,
				"Zombies": [
					{
						"Type": "RTID(tutorial@ZombieTypes)"
					}
				]
			}
		},
		{
			"aliases": [
				"Wave9"
			],
			"objclass": "SpawnZombiesJitteredWaveActionProps",
			"objdata": {
				"Zombies": [
					{
						"Type": "RTID(cowboy@ZombieTypes)"
					}
				]
			}
		},
		{
			"aliases": [
				"LevelOfTheDayModule"
			],
			"objclass": "LevelOfTheDayModuleProperties",
			"objdata": {
				"FlagCount": 4,
				"PlantfoodToSpawnCount": 0,
				"PointIncrementPerWave": 200,
				"StartingPoints": 100,
				"WaveManagerProps": "RTID(WaveManagerProps@CurrentLevel)",
				"WavesPerFlag": 3,
				"ZombiePool": [
					"RTID(cowboy_armor1@ZombieTypes)",
					"RTID(mummy_armor1@ZombieTypes)",
					"RTID(pirate@ZombieTypes)",
					"RTID(pirate_armor1@ZombieTypes)",
					"RTID(tutorial_armor1@ZombieTypes)",
					"RTID(tutorial@ZombieTypes)",
					"RTID(mummy@ZombieTypes)",
					"RTID(cowboy@ZombieTypes)"
				]
			}
		},
		{
			"aliases": [
				"ChallengeModule"
			],
			"objclass": "StarChallengeModuleProperties",
			"objdata": {
				"Challenges": [
					[
						"RTID(ZombieDistance@CurrentLevel)"
					]
				],
				"ChallengesAlwaysAvailable": true
			}
		},
		{
			"aliases": [
				"Gravestones"
			],
			"objclass": "GravestoneProperties",
			"objdata": {}
		},
		{
			"aliases": [
				"NewWaves"
			],
			"objclass": "WaveManagerModuleProperties",
			"objdata": {}
		},
		{
			"aliases": [
				"ConveyorBelt"
			],
			"objclass": "ConveyorSeedBankProperties",
			"objdata": {
				"DropDelayConditions": [
					{
						"Delay": 3,
						"MaxPackets": 0
					},
					{
						"Delay": 6,
						"MaxPackets": 2
					},
					{
						"Delay": 9,
						"MaxPackets": 4
					},
					{
						"Delay": 12,
						"MaxPackets": 8
					}
				],
				"InitialPlantList": [
					{
						"MinCount": 10,
						"MinWeightFactor": 300,
						"PlantType": "snowpea",
						"Weight": 100
					}
				],
				"SpeedConditions": [
					{
						"MaxPackets": 0,
						"Speed": 100
					}
				]
			}
		},
		{
			"aliases": [
				"Wave3Event"
			],
			"objclass": "StormZombieSpawnerProps",
			"objdata": {
				"ColumnEnd": 4,
				"ColumnStart": 2,
				"GroupSize": 5,
				"TimeBetweenGroups": 300,
				"Waves": "",
				"Type": "sandstorm",
				"Zombies": [
					{
						"Type": "RTID(explorer@ZombieTypes)"
					},
					{
						"Type": "RTID(explorer@ZombieTypes)"
					},
					{
						"Type": "RTID(explorer@ZombieTypes)"
					},
					{
						"Type": "RTID(explorer@ZombieTypes)"
					},
					{
						"Type": "RTID(explorer@ZombieTypes)"
					}
				]
			}
		},
		{
			"aliases": [
				"Wave5Event"
			],
			"objclass": "StormZombieSpawnerProps",
			"objdata": {
				"ColumnEnd": 4,
				"ColumnStart": 2,
				"GroupSize": 5,
				"TimeBetweenGroups": 300,
				"Waves": "",
				"Type": "sandstorm",
				"Zombies": [
					{
						"Type": "RTID(explorer@ZombieTypes)"
					},
					{
						"Type": "RTID(explorer@ZombieTypes)"
					},
					{
						"Type": "RTID(explorer@ZombieTypes)"
					},
					{
						"Type": "RTID(explorer@ZombieTypes)"
					},
					{
						"Type": "RTID(explorer@ZombieTypes)"
					}
				]
			}
		},
		{
			"aliases": [
				"Wave7Event"
			],
			"objclass": "StormZombieSpawnerProps",
			"objdata": {
				"ColumnEnd": 4,
				"ColumnStart": 2,
				"GroupSize": 5,
				"TimeBetweenGroups": 300,
				"Waves": "",
				"Type": "sandstorm",
				"Zombies": [
					{
						"Type": "RTID(explorer@ZombieTypes)"
					},
					{
						"Type": "RTID(explorer@ZombieTypes)"
					},
					{
						"Type": "RTID(explorer@ZombieTypes)"
					},
					{
						"Type": "RTID(explorer@ZombieTypes)"
					},
					{
						"Type": "RTID(explorer@ZombieTypes)"
					}
				]
			}
		},
		{
			"aliases": [
				"Wave2ModConveyor"
			],
			"objclass": "ModifyConveyorWaveActionProps",
			"objdata": {
				"Add": [
					{
						"MaxWeightFactor": 10.0,
						"MinWeightFactor": 0.1,
						"Type": "RTID(spikerock@PlantTypes)",
						"Weight": 200
					}
				],
				"Remove": []
			}
		},
		{
			"aliases": [
				"Wave10"
			],
			"objclass": "SpawnZombiesJitteredWaveActionProps",
			"objdata": {
				"Zombies": [
					{
						"Type": "RTID(mummy@ZombieTypes)"
					}
				]
			}
		},
		{
			"aliases": [
				"Wave11"
			],
			"objclass": "SpawnZombiesJitteredWaveActionProps",
			"objdata": {
				"Zombies": [
					{
						"Type": "RTID(pirate@ZombieTypes)"
					}
				]
			}
		},
		{
			"aliases": [
				"Wave12"
			],
			"objclass": "SpawnZombiesJitteredWaveActionProps",
			"objdata": {
				"Zombies": [
					{
						"Type": "RTID(tutorial@ZombieTypes)"
					}
				]
			}
		},
		{
			"aliases": [
				"Wave9Event"
			],
			"objclass": "StormZombieSpawnerProps",
			"objdata": {
				"ColumnEnd": 4,
				"ColumnStart": 2,
				"GroupSize": 5,
				"TimeBetweenGroups": 300,
				"Waves": 2,
				"Type": "sandstorm",
				"Zombies": [
					{
						"Type": "RTID(explorer@ZombieTypes)"
					},
					{
						"Type": "RTID(explorer@ZombieTypes)"
					},
					{
						"Type": "RTID(explorer@ZombieTypes)"
					},
					{
						"Type": "RTID(explorer@ZombieTypes)"
					},
					{
						"Type": "RTID(explorer@ZombieTypes)"
					}
				]
			}
		},
		{
			"aliases": [
				"Wave11Event"
			],
			"objclass": "StormZombieSpawnerProps",
			"objdata": {
				"ColumnEnd": 4,
				"ColumnStart": 2,
				"GroupSize": 5,
				"TimeBetweenGroups": 300,
				"Waves": 2,
				"Type": "sandstorm",
				"Zombies": [
					{
						"Type": "RTID(explorer@ZombieTypes)"
					},
					{
						"Type": "RTID(explorer@ZombieTypes)"
					},
					{
						"Type": "RTID(explorer@ZombieTypes)"
					},
					{
						"Type": "RTID(explorer@ZombieTypes)"
					},
					{
						"Type": "RTID(explorer@ZombieTypes)"
					}
				]
			}
		}
	],
	"version": 1
}