{
	"#comment": "LoD Wallnut + Spikeweed",
	"objects": [
		{
			"objclass": "LevelDefinition",
			"objdata": {
				"Description": "[PLAYERS_TRIP_TO_LOD]",
				"DraperPromo": "none",
				"IsLevelOfTheDay": true,
				"Loot": "RTID(DefaultLoot@LevelModules)",
				"Modules": [
					"RTID(LevelOfTheDayIntro@LevelModules)",
					"RTID(LevelOfTheDayModule@CurrentLevel)",
					"RTID(FrontLawnMowers@LevelModules)",
					"RTID(NewWaves@CurrentLevel)",
					"RTID(DefaultZombieWinCondition@LevelModules)",
					"RTID(Gravestones@CurrentLevel)",
					"RTID(CowboyRails@CurrentLevel)",
					"RTID(ConveyorBelt@CurrentLevel)",
					"RTID(ZombiesDeadWinCon@LevelModules)"
				],
				"Name": "[LOD_LEVEL_NAME]",
				"NormalPresentTable": "egypt_normal_01",
				"ShinyPresentTable": "egypt_shiny_01",
				"StageModule": "RTID(FrontLawnStage@LevelModules)",
				"VictoryModule": "RTID(LevelOfTheDayOutro@LevelModules)"
			}
		},
		{
			"aliases": [
				"CowboyRails"
			],
			"objclass": "RailcartProperties",
			"objdata": {
				"Railcarts": [],
				"Rails": []
			}
		},
		{
			"aliases": [
				"WaveManagerProps"
			],
			"objclass": "WaveManagerProperties",
			"objdata": {
				"FlagWaveInterval": 3,
				"MaxNextWaveHealthPercentage": 0.9,
				"MinNextWaveHealthPercentage": 0.8,
				"WaveCount": 9,
				"WaveSpendingPointIncrement": 100,
				"WaveSpendingPoints": 200,
				"Waves": [
					[
						"RTID(Wave1@CurrentLevel)"
					],
					[
						"RTID(Wave2@CurrentLevel)",
						"RTID(Wave2ModConveyor0@CurrentLevel)"
					],
					[
						"RTID(Wave3@CurrentLevel)"
					],
					[
						"RTID(Wave4@CurrentLevel)"
					],
					[
						"RTID(Wave5@CurrentLevel)",
						"RTID(Wave5ModConveyor0@CurrentLevel)"
					],
					[
						"RTID(Wave6@CurrentLevel)"
					],
					[
						"RTID(Wave7@CurrentLevel)"
					],
					[
						"RTID(Wave8@CurrentLevel)"
					],
					[
						"RTID(Wave9@CurrentLevel)"
					]
				]
			}
		},
		{
			"aliases": [
				"Wave1"
			],
			"objclass": "SpawnZombiesJitteredWaveActionProps",
			"objdata": {
				"Zombies": [
					{
						"Type": "RTID(prospector@ZombieTypes)"
					}
				]
			}
		},
		{
			"aliases": [
				"Wave2"
			],
			"objclass": "SpawnZombiesJitteredWaveActionProps",
			"objdata": {
				"Zombies": [
					{
						"Type": "RTID(cowboy@ZombieTypes)"
					},
					{
						"Row": "3",
						"Type": "RTID(prospector@ZombieTypes)"
					},
					{
						"Row": "3",
						"Type": "RTID(prospector@ZombieTypes)"
					}
				]
			}
		},
		{
			"aliases": [
				"Wave3"
			],
			"objclass": "SpawnZombiesJitteredWaveActionProps",
			"objdata": {
				"Zombies": [
					{
						"Type": "RTID(tomb_raiser@ZombieTypes)"
					},
					{
						"Row": "2",
						"Type": "RTID(prospector@ZombieTypes)"
					},
					{
						"Row": "2",
						"Type": "RTID(prospector@ZombieTypes)"
					},
					{
						"Row": "2",
						"Type": "RTID(prospector@ZombieTypes)"
					},
					{
						"Row": "1",
						"Type": "RTID(prospector@ZombieTypes)"
					}
				]
			}
		},
		{
			"aliases": [
				"Wave4"
			],
			"objclass": "SpawnZombiesJitteredWaveActionProps",
			"objdata": {
				"Zombies": [
					{
						"Type": "RTID(cowboy@ZombieTypes)"
					},
					{
						"Row": "4",
						"Type": "RTID(prospector@ZombieTypes)"
					},
					{
						"Row": "4",
						"Type": "RTID(prospector@ZombieTypes)"
					},
					{
						"Row": "4",
						"Type": "RTID(prospector@ZombieTypes)"
					},
					{
						"Row": "5",
						"Type": "RTID(prospector@ZombieTypes)"
					}
				]
			}
		},
		{
			"aliases": [
				"Wave5"
			],
			"objclass": "SpawnZombiesJitteredWaveActionProps",
			"objdata": {
				"Zombies": [
					{
						"Row": "1",
						"Type": "RTID(prospector@ZombieTypes)"
					},
					{
						"Row": "3",
						"Type": "RTID(prospector@ZombieTypes)"
					},
					{
						"Row": "3",
						"Type": "RTID(prospector@ZombieTypes)"
					},
					{
						"Row": "5",
						"Type": "RTID(prospector@ZombieTypes)"
					},
					{
						"Type": "RTID(cowboy@ZombieTypes)"
					}
				]
			}
		},
		{
			"aliases": [
				"Wave6"
			],
			"objclass": "SpawnZombiesJitteredWaveActionProps",
			"objdata": {
				"Zombies": [
					{
						"Type": "RTID(tomb_raiser@ZombieTypes)"
					},
					{
						"Row": "5",
						"Type": "RTID(prospector@ZombieTypes)"
					},
					{
						"Row": "5",
						"Type": "RTID(prospector@ZombieTypes)"
					},
					{
						"Row": "4",
						"Type": "RTID(prospector@ZombieTypes)"
					},
					{
						"Row": "3",
						"Type": "RTID(prospector@ZombieTypes)"
					},
					{
						"Row": "2",
						"Type": "RTID(prospector@ZombieTypes)"
					},
					{
						"Row": "1",
						"Type": "RTID(prospector@ZombieTypes)"
					},
					{
						"Row": "1",
						"Type": "RTID(prospector@ZombieTypes)"
					}
				]
			}
		},
		{
			"aliases": [
				"Wave7"
			],
			"objclass": "SpawnZombiesJitteredWaveActionProps",
			"objdata": {
				"Zombies": [
					{
						"Type": "RTID(cowboy@ZombieTypes)"
					},
					{
						"Row": "1",
						"Type": "RTID(prospector@ZombieTypes)"
					},
					{
						"Row": "3",
						"Type": "RTID(prospector@ZombieTypes)"
					},
					{
						"Row": "5",
						"Type": "RTID(prospector@ZombieTypes)"
					}
				]
			}
		},
		{
			"aliases": [
				"Wave8"
			],
			"objclass": "SpawnZombiesJitteredWaveActionProps",
			"objdata": {
				"Zombies": [
					{
						"Type": "RTID(cowboy@ZombieTypes)"
					},
					{
						"Row": "1",
						"Type": "RTID(prospector@ZombieTypes)"
					},
					{
						"Row": "2",
						"Type": "RTID(prospector@ZombieTypes)"
					},
					{
						"Row": "4",
						"Type": "RTID(prospector@ZombieTypes)"
					},
					{
						"Row": "5",
						"Type": "RTID(prospector@ZombieTypes)"
					}
				]
			}
		},
		{
			"aliases": [
				"Wave9"
			],
			"objclass": "SpawnZombiesJitteredWaveActionProps",
			"objdata": {
				"Zombies": [
					{
						"Type": "RTID(cowboy@ZombieTypes)"
					},
					{
						"Row": "5",
						"Type": "RTID(prospector@ZombieTypes)"
					},
					{
						"Row": "4",
						"Type": "RTID(prospector@ZombieTypes)"
					},
					{
						"Row": "3",
						"Type": "RTID(prospector@ZombieTypes)"
					},
					{
						"Row": "2",
						"Type": "RTID(prospector@ZombieTypes)"
					},
					{
						"Row": "1",
						"Type": "RTID(prospector@ZombieTypes)"
					}
				]
			}
		},
		{
			"aliases": [
				"LevelOfTheDayModule"
			],
			"objclass": "LevelOfTheDayModuleProperties",
			"objdata": {
				"FlagCount": 3,
				"PlantfoodToSpawnCount": 4,
				"PointIncrementPerWave": 100,
				"StartingPoints": 200,
				"WaveManagerProps": "RTID(WaveManagerProps@CurrentLevel)",
				"WavesPerFlag": 3,
				"ZombiePool": [
					"RTID(pirate@ZombieTypes)",
					"RTID(mummy@ZombieTypes)",
					"RTID(poncho@ZombieTypes)"
				]
			}
		},
		{
			"aliases": [
				"Gravestones"
			],
			"objclass": "GravestoneProperties",
			"objdata": {
				"ForceSpawnData": [
					{
						"GridX": 7,
						"GridY": 0
					},
					{
						"GridX": 8,
						"GridY": 0
					},
					{
						"GridX": 6,
						"GridY": 0
					},
					{
						"GridX": 7,
						"GridY": 1
					},
					{
						"GridX": 8,
						"GridY": 1
					},
					{
						"GridX": 6,
						"GridY": 1
					},
					{
						"GridX": 7,
						"GridY": 2
					},
					{
						"GridX": 8,
						"GridY": 2
					},
					{
						"GridX": 6,
						"GridY": 2
					},
					{
						"GridX": 7,
						"GridY": 3
					},
					{
						"GridX": 8,
						"GridY": 3
					},
					{
						"GridX": 6,
						"GridY": 3
					},
					{
						"GridX": 7,
						"GridY": 4
					},
					{
						"GridX": 8,
						"GridY": 4
					},
					{
						"GridX": 6,
						"GridY": 4
					}
				]
			}
		},
		{
			"aliases": [
				"NewWaves"
			],
			"objclass": "WaveManagerModuleProperties",
			"objdata": {}
		},
		{
			"aliases": [
				"ConveyorBelt"
			],
			"objclass": "ConveyorSeedBankProperties",
			"objdata": {
				"DropDelayConditions": [
					{
						"Delay": 3,
						"MaxPackets": 0
					},
					{
						"Delay": 6,
						"MaxPackets": 2
					},
					{
						"Delay": 9,
						"MaxPackets": 4
					},
					{
						"Delay": 12,
						"MaxPackets": 8
					}
				],
				"InitialPlantList": [
					{
						"PlantType": "repeater",
						"Weight": 25
					}
				],
				"SpeedConditions": [
					{
						"MaxPackets": 0,
						"Speed": 100
					}
				]
			}
		},
		{
			"aliases": [
				"Wave2ModConveyor0"
			],
			"objclass": "ModifyConveyorWaveActionProps",
			"objdata": {
				"Add": [
					{
						"MaxCount": 5,
						"MaxWeightFactor": 0.5,
						"MinWeightFactor": 0.1,
						"Type": "RTID(wallnut@PlantTypes)",
						"Weight": 15
					},
					{
						"MaxCount": 7,
						"MaxWeightFactor": 0,
						"MinWeightFactor": 0.1,
						"Type": "RTID(spikeweed@PlantTypes)",
						"Weight": 15
					}
				],
				"Remove": []
			}
		},
		{
			"aliases": [
				"Wave5ModConveyor0"
			],
			"objclass": "ModifyConveyorWaveActionProps",
			"objdata": {
				"Add": [
					{
						"MaxCount": 5,
						"MaxWeightFactor": 0,
						"Type": "RTID(bloomerang@PlantTypes)",
						"Weight": 20
					}
				],
				"Remove": []
			}
		}
	],
	"version": 1
}