{
	"#comment": "Missile-toe LOD 309",
	"objects": [
		{
			"objclass": "LevelDefinition",
			"objdata": {
				"Description": "[PLAYERS_TRIP_TO_LOD]",
				"DraperPromo": "missiletoe",
				"FirstIntroNarrative": "MISSILETOE_LOD",
				"IsLevelOfTheDay": true,
				"Loot": "RTID(DefaultLoot@LevelModules)",
				"Modules": [
					"RTID(LevelOfTheDayIntro@LevelModules)",
					"RTID(LevelOfTheDayModule@CurrentLevel)",
					"RTID(FrontLawnMowers@LevelModules)",
					"RTID(NewWaves@CurrentLevel)",
					"RTID(DefaultZombieWinCondition@LevelModules)",
					"RTID(Gravestones@CurrentLevel)",
					"RTID(ConveyorBelt@CurrentLevel)",
					"RTID(ChallengeModule@CurrentLevel)",
					"RTID(ZombiesDeadWinCon@LevelModules)"
				],
				"Name": "[LOD_LEVEL_NAME]",
				"NormalPresentTable": "egypt_normal_01",
				"ShinyPresentTable": "egypt_shiny_01",
				"StageModule": "RTID(FrontLawnStage@LevelModules)",
				"VictoryModule": "RTID(LevelOfTheDayOutro@LevelModules)"
			}
		},
		{
			"aliases": [
				"ChallengeModule"
			],
			"objclass": "StarChallengeModuleProperties",
			"objdata": {
				"Challenges": [
					[
						"RTID(ZombieDistance@CurrentLevel)"
					]
				],
				"ChallengesAlwaysAvailable": true
			}
		},
		{
			"aliases": [
				"ZombieDistance"
			],
			"objclass": "StarChallengeZombieDistanceProps",
			"objdata": {
				"TargetDistance": 3
			}
		},
		{
			"aliases": [
				"WaveManagerProps"
			],
			"objclass": "WaveManagerProperties",
			"objdata": {
				"FlagWaveInterval": 4,
				"MaxNextWaveHealthPercentage": 0.9,
				"MinNextWaveHealthPercentage": 0.8,
				"WaveCount": 12,
				"WaveSpendingPointIncrement": 100,
				"WaveSpendingPoints": 150,
				"Waves": [
					[
						"RTID(Wave1@CurrentLevel)"
					],
					[
						"RTID(Wave2@CurrentLevel)",
						"RTID(Wave2FrostWindEvent0@CurrentLevel)"
					],
					[
						"RTID(Wave3@CurrentLevel)",
						"RTID(Wave3StormEvent0@CurrentLevel)"
					],
					[
						"RTID(Wave4@CurrentLevel)",
						"RTID(Wave4FrostWindEvent0@CurrentLevel)"
					],
					[
						"RTID(Wave5@CurrentLevel)"
					],
					[
						"RTID(Wave6@CurrentLevel)",
						"RTID(Wave6FrostWindEvent0@CurrentLevel)"
					],
					[
						"RTID(Wave7@CurrentLevel)",
						"RTID(Wave7StormEvent0@CurrentLevel)"
					],
					[
						"RTID(Wave8@CurrentLevel)",
						"RTID(Wave8ModConveyor0@CurrentLevel)",
						"RTID(Wave8FrostWindEvent0@CurrentLevel)"
					],
					[
						"RTID(Wave9@CurrentLevel)",
						"RTID(Wave9StormEvent0@CurrentLevel)"
					],
					[
						"RTID(Wave10@CurrentLevel)",
						"RTID(Wave10FrostWindEvent0@CurrentLevel)"
					],
					[
						"RTID(Wave11@CurrentLevel)"
					],
					[
						"RTID(Wave12@CurrentLevel)",
						"RTID(Wave12StormEvent0@CurrentLevel)",
						"RTID(Wave12FrostWindEvent0@CurrentLevel)"
					]
				]
			}
		},
		{
			"aliases": [
				"Wave1"
			],
			"objclass": "SpawnZombiesJitteredWaveActionProps",
			"objdata": {
				"AdditionalPlantfood": 0,
				"Zombies": [
					{
						"Type": "RTID(iceage_troglobite_1block@ZombieTypes)"
					}
				]
			}
		},
		{
			"aliases": [
				"Wave2"
			],
			"objclass": "SpawnZombiesJitteredWaveActionProps",
			"objdata": {
				"AdditionalPlantfood": 1,
				"Zombies": [
					{
						"Type": "RTID(tutorial_armor1@ZombieTypes)"
					},
					{
						"Type": "RTID(tutorial_armor1@ZombieTypes)"
					}
				]
			}
		},
		{
			"aliases": [
				"Wave3"
			],
			"objclass": "SpawnZombiesJitteredWaveActionProps",
			"objdata": {
				"Zombies": []
			}
		},
		{
			"aliases": [
				"Wave4"
			],
			"objclass": "SpawnZombiesJitteredWaveActionProps",
			"objdata": {
				"AdditionalPlantfood": 1,
				"Zombies": [
					{
						"Row": "5",
						"Type": "RTID(swashbuckler@ZombieTypes)"
					},
					{
						"Row": "3",
						"Type": "RTID(swashbuckler@ZombieTypes)"
					},
					{
						"Row": "1",
						"Type": "RTID(swashbuckler@ZombieTypes)"
					},
					{
						"Type": "RTID(iceage_troglobite_2block@ZombieTypes)"
					}
				]
			}
		},
		{
			"aliases": [
				"Wave5"
			],
			"objclass": "SpawnZombiesJitteredWaveActionProps",
			"objdata": {
				"Zombies": [
					{
						"Row": "4",
						"Type": "RTID(iceage_hunter@ZombieTypes)"
					},
					{
						"Row": "2",
						"Type": "RTID(tutorial_armor1@ZombieTypes)"
					}
				]
			}
		},
		{
			"aliases": [
				"Wave6"
			],
			"objclass": "SpawnZombiesJitteredWaveActionProps",
			"objdata": {
				"Zombies": [
					{
						"Row": "2",
						"Type": "RTID(tutorial@ZombieTypes)"
					},
					{
						"Row": "5",
						"Type": "RTID(poncho@ZombieTypes)"
					},
					{
						"Row": "3",
						"Type": "RTID(piano@ZombieTypes)"
					}
				]
			}
		},
		{
			"aliases": [
				"Wave7"
			],
			"objclass": "SpawnZombiesJitteredWaveActionProps",
			"objdata": {
				"Zombies": [
					{
						"Row": "3",
						"Type": "RTID(iceage_troglobite_1block@ZombieTypes)"
					}
				]
			}
		},
		{
			"aliases": [
				"Wave8"
			],
			"objclass": "SpawnZombiesJitteredWaveActionProps",
			"objdata": {
				"AdditionalPlantfood": 1,
				"Zombies": [
					{
						"Row": "3",
						"Type": "RTID(tutorial_gargantuar@ZombieTypes)"
					},
					{
						"Type": "RTID(iceage_hunter@ZombieTypes)"
					},
					{
						"Type": "RTID(iceage_troglobite_2block@ZombieTypes)"
					}
				]
			}
		},
		{
			"aliases": [
				"Wave9"
			],
			"objclass": "SpawnZombiesJitteredWaveActionProps",
			"objdata": {
				"Zombies": [
					{
						"Row": "4",
						"Type": "RTID(swashbuckler@ZombieTypes)"
					},
					{
						"Row": "2",
						"Type": "RTID(swashbuckler@ZombieTypes)"
					}
				]
			}
		},
		{
			"aliases": [
				"LevelOfTheDayModule"
			],
			"objclass": "LevelOfTheDayModuleProperties",
			"objdata": {
				"FlagCount": 3,
				"PlantfoodToSpawnCount": 0,
				"PointIncrementPerWave": 225,
				"StartingPoints": 400,
				"WaveManagerProps": "RTID(WaveManagerProps@CurrentLevel)",
				"WavesPerFlag": 3,
				"ZombiePool": [
					"RTID(tutorial_armor1@ZombieTypes)",
					"RTID(tutorial@ZombieTypes)",
					"RTID(poncho@ZombieTypes)",
					"RTID(tutorial_armor2@ZombieTypes)"
				]
			}
		},
		{
			"aliases": [
				"Gravestones"
			],
			"objclass": "GravestoneProperties",
			"objdata": {}
		},
		{
			"aliases": [
				"NewWaves"
			],
			"objclass": "WaveManagerModuleProperties",
			"objdata": {}
		},
		{
			"aliases": [
				"ConveyorBelt"
			],
			"objclass": "ConveyorSeedBankProperties",
			"objdata": {
				"DropDelayConditions": [
					{
						"Delay": 3,
						"MaxPackets": 0
					},
					{
						"Delay": 6,
						"MaxPackets": 2
					},
					{
						"Delay": 9,
						"MaxPackets": 4
					},
					{
						"Delay": 12,
						"MaxPackets": 8
					}
				],
				"InitialPlantList": [
					{
						"MaxCount": 5,
						"MaxCountCooldownSeconds": 15,
						"MaxWeightFactor": 0,
						"PlantType": "missiletoe",
						"Weight": 30
					},
					{
						"MaxCount": 5,
						"MaxWeightFactor": 0,
						"PlantType": "sapfling",
						"Weight": 75
					},
					{
						"MaxCount": 7,
						"MaxWeightFactor": 0,
						"PlantType": "starfruit",
						"Weight": 100
					}
				],
				"SpeedConditions": [
					{
						"MaxPackets": 0,
						"Speed": 100
					}
				]
			}
		},
		{
			"aliases": [
				"Wave10"
			],
			"objclass": "SpawnZombiesJitteredWaveActionProps",
			"objdata": {
				"Zombies": [
					{
						"Type": "RTID(poncho@ZombieTypes)"
					},
					{
						"Row": "2",
						"Type": "RTID(piano@ZombieTypes)"
					},
					{
						"Row": "5",
						"Type": "RTID(iceage_troglobite_2block@ZombieTypes)"
					}
				]
			}
		},
		{
			"aliases": [
				"Wave11"
			],
			"objclass": "SpawnZombiesJitteredWaveActionProps",
			"objdata": {
				"Zombies": [
					{
						"Row": "4",
						"Type": "RTID(iceage_hunter@ZombieTypes)"
					},
					{
						"Row": "2",
						"Type": "RTID(iceage_hunter@ZombieTypes)"
					},
					{
						"Type": "RTID(iceage_armor3@ZombieTypes)"
					}
				]
			}
		},
		{
			"aliases": [
				"Wave12"
			],
			"objclass": "SpawnZombiesJitteredWaveActionProps",
			"objdata": {
				"AdditionalPlantfood": 0,
				"Zombies": [
					{
						"Row": "4",
						"Type": "RTID(iceage_troglobite_2block@ZombieTypes)"
					},
					{
						"Row": "2",
						"Type": "RTID(iceage_troglobite_2block@ZombieTypes)"
					},
					{
						"Type": "RTID(iceage_hunter@ZombieTypes)"
					},
					{
						"Type": "RTID(iceage_armor3@ZombieTypes)"
					},
					{
						"Type": "RTID(tutorial_gargantuar@ZombieTypes)"
					}
				]
			}
		},
		{
			"aliases": [
				"Wave3StormEvent0"
			],
			"objclass": "StormZombieSpawnerProps",
			"objdata": {
				"ColumnEnd": 7,
				"ColumnStart": 5,
				"GroupSize": 2,
				"TimeBetweenGroups": 3,
				"Type": "snowstorm",
				"Zombies": [
					{
						"Type": "RTID(tutorial_armor1@ZombieTypes)"
					},
					{
						"Type": "RTID(poncho@ZombieTypes)"
					}
				]
			}
		},
		{
			"aliases": [
				"Wave4FrostWindEvent0"
			],
			"objclass": "FrostWindWaveActionProps",
			"objdata": {
				"Winds": [
					{
						"Direction": "right",
						"Row": 1
					},
					{
						"Direction": "right",
						"Row": 4
					}
				]
			}
		},
		{
			"aliases": [
				"Wave2FrostWindEvent0"
			],
			"objclass": "FrostWindWaveActionProps",
			"objdata": {
				"Winds": [
					{
						"Direction": "right",
						"Row": 0
					},
					{
						"Direction": "right",
						"Row": 2
					}
				]
			}
		},
		{
			"aliases": [
				"Wave6FrostWindEvent0"
			],
			"objclass": "FrostWindWaveActionProps",
			"objdata": {
				"Winds": [
					{
						"Direction": "right",
						"Row": 2
					},
					{
						"Direction": "right",
						"Row": 3
					},
					{
						"Direction": "right",
						"Row": 4
					}
				]
			}
		},
		{
			"aliases": [
				"Wave8FrostWindEvent0"
			],
			"objclass": "FrostWindWaveActionProps",
			"objdata": {
				"Winds": [
					{
						"Direction": "right",
						"Row": 0
					},
					{
						"Direction": "right",
						"Row": 1
					}
				]
			}
		},
		{
			"aliases": [
				"Wave10FrostWindEvent0"
			],
			"objclass": "FrostWindWaveActionProps",
			"objdata": {
				"Winds": [
					{
						"Direction": "right",
						"Row": "0"
					},
					{
						"Direction": "right",
						"Row": 1
					},
					{
						"Direction": "right",
						"Row": 3
					},
					{
						"Direction": "right",
						"Row": 4
					}
				]
			}
		},
		{
			"aliases": [
				"Wave12FrostWindEvent0"
			],
			"objclass": "FrostWindWaveActionProps",
			"objdata": {
				"Winds": [
					{
						"Direction": "right",
						"Row": "0"
					},
					{
						"Direction": "right",
						"Row": 1
					},
					{
						"Direction": "right",
						"Row": 3
					},
					{
						"Direction": "right",
						"Row": 4
					},
					{
						"Direction": "right",
						"Row": 2
					}
				]
			}
		},
		{
			"aliases": [
				"Wave7StormEvent0"
			],
			"objclass": "StormZombieSpawnerProps",
			"objdata": {
				"ColumnEnd": 7,
				"ColumnStart": 5,
				"GroupSize": "2",
				"TimeBetweenGroups": 3,
				"Type": "snowstorm",
				"Zombies": [
					{
						"Type": "RTID(tutorial_armor1@ZombieTypes)"
					},
					{
						"Type": "RTID(tutorial_armor1@ZombieTypes)"
					}
				]
			}
		},
		{
			"aliases": [
				"Wave9StormEvent0"
			],
			"objclass": "StormZombieSpawnerProps",
			"objdata": {
				"ColumnEnd": 7,
				"ColumnStart": 5,
				"GroupSize": "2",
				"TimeBetweenGroups": "3",
				"Type": "snowstorm",
				"Zombies": [
					{
						"Type": "RTID(poncho@ZombieTypes)"
					},
					{
						"Type": "RTID(poncho@ZombieTypes)"
					}
				]
			}
		},
		{
			"aliases": [
				"Wave12StormEvent0"
			],
			"objclass": "StormZombieSpawnerProps",
			"objdata": {
				"ColumnEnd": 6,
				"ColumnStart": 5,
				"GroupSize": "2",
				"TimeBetweenGroups": "3",
				"Type": "snowstorm",
				"Zombies": [
					{
						"Type": "RTID(poncho@ZombieTypes)"
					},
					{
						"Type": "RTID(poncho@ZombieTypes)"
					}
				]
			}
		},
		{
			"aliases": [
				"Wave8ModConveyor0"
			],
			"objclass": "ModifyConveyorWaveActionProps",
			"objdata": {
				"Add": [
					{
						"Type": "RTID(hotpotato@PlantTypes)",
						"Weight": 50
					}
				],
				"Remove": []
			}
		}
	],
	"version": 1
}