{
	"#comment": "LOD 213",
	"objects": [
		{
			"objclass": "LevelDefinition",
			"objdata": {
				"Description": "[PLAYERS_TRIP_TO_LOD]",
				"DraperPromo": "squash",
				"IsLevelOfTheDay": true,
				"Loot": "RTID(DefaultLoot@LevelModules)",
				"Modules": [
					"RTID(LevelOfTheDayIntro@LevelModules)",
					"RTID(LevelOfTheDayModule@CurrentLevel)",
					"RTID(FrontLawnMowers@LevelModules)",
					"RTID(NewWaves@CurrentLevel)",
					"RTID(DefaultZombieWinCondition@LevelModules)",
					"RTID(Gravestones@CurrentLevel)",
					"RTID(ConveyorBelt@CurrentLevel)",
					"RTID(ZombiesDeadWinCon@LevelModules)",
					"RTID(ZombiePotions@CurrentLevel)"
				],
				"Name": "[LOD_LEVEL_NAME]",
				"NormalPresentTable": "egypt_normal_01",
				"ShinyPresentTable": "egypt_shiny_01",
				"StageModule": "RTID(FrontLawnStage@LevelModules)",
				"VictoryModule": "RTID(LevelOfTheDayOutro@LevelModules)"
			}
		},
		{
			"aliases": [
				"ZombiePotions"
			],
			"objclass": "ZombiePotionModuleProperties",
			"objdata": {
				"InitialPotionCount": 8,
				"MaxPotionCount": 12,
				"PotionSpawnTimer": {
					"Max": 0.5,
					"Min": 0
				},
				"PotionTypes": [
					"zombiepotion_toughness",
					"zombiepotion_speed"
				]
			}
		},
		{
			"aliases": [
				"LevelOfTheDayModule"
			],
			"objclass": "LevelOfTheDayModuleProperties",
			"objdata": {
				"FlagCount": 2,
				"PlantfoodToSpawnCount": 3,
				"PointIncrementPerWave": 50,
				"StartingPoints": 50,
				"WaveManagerProps": "RTID(WaveManagerProps@CurrentLevel)",
				"WavesPerFlag": 5,
				"ZombiePool": [
					"RTID(iceage@ZombieTypes)",
					"RTID(modern_newspaper@ZombieTypes)",
					"RTID(iceage_armor1@ZombieTypes)"
				]
			}
		},
		{
			"aliases": [
				"WaveManagerProps"
			],
			"objclass": "WaveManagerProperties",
			"objdata": {
				"MaxNextWaveHealthPercentage": 0.9,
				"MinNextWaveHealthPercentage": 0.8,
				"Waves": [
					[
						"RTID(Wave1@CurrentLevel)"
					],
					[
						"RTID(Wave2@CurrentLevel)"
					],
					[
						"RTID(Wave3@CurrentLevel)"
					],
					[
						"RTID(Wave4@CurrentLevel)"
					],
					[
						"RTID(Wave5@CurrentLevel)"
					],
					[
						"RTID(Wave6@CurrentLevel)"
					],
					[
						"RTID(Wave7@CurrentLevel)"
					],
					[
						"RTID(Wave8@CurrentLevel)"
					],
					[
						"RTID(Wave9@CurrentLevel)"
					],
					[
						"RTID(Wave10@CurrentLevel)"
					]
				]
			}
		},
		{
			"aliases": [
				"Wave1"
			],
			"objclass": "SpawnZombiesJitteredWaveActionProps",
			"objdata": {
				"Zombies": [
					{
						"Type": "RTID(iceage@ZombieTypes)"
					}
				]
			}
		},
		{
			"aliases": [
				"Wave2"
			],
			"objclass": "SpawnZombiesJitteredWaveActionProps",
			"objdata": {
				"AdditionalPlantfood": 1,
				"Zombies": [
					{
						"Type": "RTID(iceage@ZombieTypes)"
					}
				]
			}
		},
		{
			"aliases": [
				"Wave3"
			],
			"objclass": "SpawnZombiesJitteredWaveActionProps",
			"objdata": {
				"Zombies": [
					{
						"Type": "RTID(iceage_armor1@ZombieTypes)"
					},
					{
						"Row": "4",
						"Type": "RTID(seagull@ZombieTypes)"
					}
				]
			}
		},
		{
			"aliases": [
				"Wave4"
			],
			"objclass": "SpawnZombiesJitteredWaveActionProps",
			"objdata": {
				"Zombies": [
					{
						"Type": "RTID(iceage_weaselhoarder@ZombieTypes)"
					}
				]
			}
		},
		{
			"aliases": [
				"Wave5"
			],
			"objclass": "SpawnZombiesJitteredWaveActionProps",
			"objdata": {
				"Zombies": [
					{
						"Type": "RTID(iceage_weaselhoarder@ZombieTypes)"
					},
					{
						"Type": "RTID(iceage_weaselhoarder@ZombieTypes)"
					},
					{
						"Row": "5",
						"Type": "RTID(seagull@ZombieTypes)"
					},
					{
						"Row": "1",
						"Type": "RTID(seagull@ZombieTypes)"
					}
				]
			}
		},
		{
			"aliases": [
				"Wave6"
			],
			"objclass": "SpawnZombiesJitteredWaveActionProps",
			"objdata": {
				"Zombies": [
					{
						"Type": "RTID(iceage_weaselhoarder@ZombieTypes)"
					},
					{
						"Type": "RTID(iceage_armor2@ZombieTypes)"
					}
				]
			}
		},
		{
			"aliases": [
				"Wave7"
			],
			"objclass": "SpawnZombiesJitteredWaveActionProps",
			"objdata": {
				"Zombies": [
					{
						"Type": "RTID(iceage_weaselhoarder@ZombieTypes)"
					},
					{
						"Type": "RTID(iceage_armor2@ZombieTypes)"
					},
					{
						"Row": "3",
						"Type": "RTID(seagull@ZombieTypes)"
					}
				]
			}
		},
		{
			"aliases": [
				"Wave8"
			],
			"objclass": "SpawnZombiesJitteredWaveActionProps",
			"objdata": {
				"Zombies": [
					{
						"Type": "RTID(iceage_armor2@ZombieTypes)"
					},
					{
						"Type": "RTID(modern_newspaper@ZombieTypes)"
					}
				]
			}
		},
		{
			"aliases": [
				"Wave9"
			],
			"objclass": "SpawnZombiesJitteredWaveActionProps",
			"objdata": {
				"Zombies": [
					{
						"Type": "RTID(iceage_weaselhoarder@ZombieTypes)"
					},
					{
						"Type": "RTID(iceage_armor2@ZombieTypes)"
					}
				]
			}
		},
		{
			"aliases": [
				"Gravestones"
			],
			"objclass": "GravestoneProperties",
			"objdata": {}
		},
		{
			"aliases": [
				"NewWaves"
			],
			"objclass": "WaveManagerModuleProperties",
			"objdata": {}
		},
		{
			"aliases": [
				"ConveyorBelt"
			],
			"objclass": "ConveyorSeedBankProperties",
			"objdata": {
				"DropDelayConditions": [
					{
						"Delay": 3.5,
						"MaxPackets": 0
					},
					{
						"Delay": 6,
						"MaxPackets": 2
					},
					{
						"Delay": 9,
						"MaxPackets": 4
					},
					{
						"Delay": 12,
						"MaxPackets": 8
					}
				],
				"InitialPlantList": [
					{
						"MaxCount": 10,
						"MaxWeightFactor": 0.5,
						"PlantType": "redstinger",
						"Weight": 20
					},
					{
						"MaxCount": 3,
						"MaxWeightFactor": 0.5,
						"MinCount": 1,
						"MinWeightFactor": 3,
						"PlantType": "squash",
						"Weight": 30
					},
					{
						"MaxCount": 5,
						"MaxWeightFactor": 0,
						"PlantType": "tallnut",
						"Weight": 60
					}
				],
				"SpeedConditions": [
					{
						"MaxPackets": 0,
						"Speed": 100
					}
				]
			}
		},
		{
			"aliases": [
				"Wave10"
			],
			"objclass": "SpawnZombiesJitteredWaveActionProps",
			"objdata": {
				"Zombies": [
					{
						"Type": "RTID(iceage_weaselhoarder@ZombieTypes)"
					},
					{
						"Type": "RTID(modern_newspaper@ZombieTypes)"
					},
					{
						"Row": "4",
						"Type": "RTID(seagull@ZombieTypes)"
					},
					{
						"Row": "2",
						"Type": "RTID(seagull@ZombieTypes)"
					}
				]
			}
		}
	],
	"version": 1
}