{
	"objects": [ {
			"objclass": "WorldData",
			"objdata": {
				"m_boundingRect": {
					"mHeight": 1000,
					"mWidth": 1600,
					"mX": -150,
					"mY": -100
				},
				"m_creationTime": 0,
				"m_eventList": [ {
						"m_completedNarrationID": "",
						"m_cost": 0,
						"m_dataString": "rifts/rift_001-050/rift_005_1",
						"m_displayText": "1",
						"m_drawLayer": 0,
						"m_eventId": "1",
						"m_eventSubType": "normal",
						"m_eventType": "level",
						"m_filter": 0,
						"m_imageID": 0,
						"m_inheritAssetFilter": "true",
						"m_isArtFlipped": "false",
						"m_isChallengeType": "FALSE",
						"m_levelNodeType": "",
						"m_name": "rifts/rift_001-050/rift_005_1",
						"m_parallaxLayer": 0,
						"m_parentEvent": "",
						"m_position": {
							"x": 100,
							"y": 350
						},
						"m_rotationAngle": 0,
						"m_rotationRate": 0,
						"m_scaleX": 1,
						"m_scaleY": 1,
						"m_toggleName": "",
						"m_unlockedFrom": "",
						"m_unlockedNarrationID": "",
						"m_visibleFrom": "",
						"m_worldMapTutorial": "",
						"m_worldMapTutorialVisibleWhen": ""
					}, {
						"m_completedNarrationID": "",
						"m_cost": 0,
						"m_dataString": "rifts/rift_051-100/rift_055_1",
						"m_displayText": "2",
						"m_drawLayer": 0,
						"m_eventId": "2",
						"m_eventSubType": "laststand",
						"m_eventType": "level",
						"m_filter": 0,
						"m_imageID": 0,
						"m_inheritAssetFilter": "true",
						"m_isArtFlipped": "false",
						"m_isChallengeType": "FALSE",
						"m_levelNodeType": "",
						"m_name": "rifts/rift_051-100/rift_055_1",
						"m_parallaxLayer": 0,
						"m_parentEvent": "rifts/rift_001-050/rift_005_1",
						"m_position": {
							"x": 375,
							"y": 320
						},
						"m_rotationAngle": 0,
						"m_rotationRate": 0,
						"m_scaleX": 1,
						"m_scaleY": 1,
						"m_toggleName": "",
						"m_unlockedFrom": "",
						"m_unlockedNarrationID": "",
						"m_visibleFrom": "",
						"m_worldMapTutorial": "",
						"m_worldMapTutorialVisibleWhen": ""
					}, {
						"m_completedNarrationID": "",
						"m_cost": 0,
						"m_dataString": "rifts/rift_001-050/rift_040_1",
						"m_displayText": "3",
						"m_drawLayer": 0,
						"m_eventId": "3",
						"m_eventSubType": "normal",
						"m_eventType": "level",
						"m_filter": 0,
						"m_imageID": 0,
						"m_inheritAssetFilter": "true",
						"m_isArtFlipped": "false",
						"m_isChallengeType": "FALSE",
						"m_levelNodeType": "",
						"m_name": "rifts/rift_001-050/rift_040_1",
						"m_parallaxLayer": 0,
						"m_parentEvent": "rifts/rift_051-100/rift_055_1",
						"m_position": {
							"x": 650,
							"y": 310
						},
						"m_rotationAngle": 0,
						"m_rotationRate": 0,
						"m_scaleX": 1,
						"m_scaleY": 1,
						"m_toggleName": "",
						"m_unlockedFrom": "",
						"m_unlockedNarrationID": "",
						"m_visibleFrom": "",
						"m_worldMapTutorial": "",
						"m_worldMapTutorialVisibleWhen": ""
					}, {
						"m_completedNarrationID": "",
						"m_cost": 0,
						"m_dataString": "rifts/rift_001-050/rift_007_1",
						"m_displayText": "4",
						"m_drawLayer": 0,
						"m_eventId": "4",
						"m_eventSubType": "conveyor",
						"m_eventType": "level",
						"m_filter": 0,
						"m_imageID": 0,
						"m_inheritAssetFilter": "true",
						"m_isArtFlipped": "false",
						"m_isChallengeType": "FALSE",
						"m_levelNodeType": "",
						"m_name": "rifts/rift_001-050/rift_007_1",
						"m_parallaxLayer": 0,
						"m_parentEvent": "rifts/rift_001-050/rift_040_1",
						"m_position": {
							"x": 925,
							"y": 320
						},
						"m_rotationAngle": 0,
						"m_rotationRate": 0,
						"m_scaleX": 1,
						"m_scaleY": 1,
						"m_toggleName": "",
						"m_unlockedFrom": "",
						"m_unlockedNarrationID": "",
						"m_visibleFrom": "",
						"m_worldMapTutorial": "",
						"m_worldMapTutorialVisibleWhen": ""
					}, {
						"m_completedNarrationID": "",
						"m_cost": 0,
						"m_dataString": "rifts/rift_101-150/rift_135",
						"m_displayText": "5",
						"m_drawLayer": 0,
						"m_eventId": "5",
						"m_eventSubType": "conveyor",
						"m_eventType": "level",
						"m_filter": 0,
						"m_imageID": 0,
						"m_inheritAssetFilter": "true",
						"m_isArtFlipped": "false",
						"m_isChallengeType": "FALSE",
						"m_levelNodeType": "",
						"m_name": "rifts/rift_101-150/rift_135",
						"m_parallaxLayer": 0,
						"m_parentEvent": "rifts/rift_001-050/rift_007_1",
						"m_position": {
							"x": 1200,
							"y": 320
						},
						"m_rotationAngle": 0,
						"m_rotationRate": 0,
						"m_scaleX": 1,
						"m_scaleY": 1,
						"m_toggleName": "",
						"m_unlockedFrom": "",
						"m_unlockedNarrationID": "",
						"m_visibleFrom": "",
						"m_worldMapTutorial": "",
						"m_worldMapTutorialVisibleWhen": ""
					} ],
				"m_mapPieces": [ {
						"m_completedNarrationID": "",
						"m_cost": 0,
						"m_dataString": "",
						"m_displayText": "",
						"m_drawLayer": 0,
						"m_eventId": "",
						"m_eventSubType": "",
						"m_eventType": "island",
						"m_filter": 0,
						"m_imageID": 102,
						"m_inheritAssetFilter": "true",
						"m_isArtFlipped": "",
						"m_isChallengeType": "false",
						"m_levelNodeType": "",
						"m_name": "",
						"m_parallaxLayer": 0,
						"m_parentEvent": "",
						"m_position": {
							"x": 90,
							"y": 360
						},
						"m_rotationAngle": 0,
						"m_rotationRate": 0,
						"m_scaleX": 1.2,
						"m_scaleY": 1.2,
						"m_toggleName": "",
						"m_unlockedFrom": "",
						"m_unlockedNarrationID": "",
						"m_visibleFrom": "",
						"m_worldMapTutorial": "",
						"m_worldMapTutorialVisibleWhen": ""
					}, {
						"m_completedNarrationID": "",
						"m_cost": 0,
						"m_dataString": "",
						"m_displayText": "",
						"m_drawLayer": 0,
						"m_eventId": "",
						"m_eventSubType": "",
						"m_eventType": "island",
						"m_filter": 0,
						"m_imageID": 47,
						"m_inheritAssetFilter": "true",
						"m_isArtFlipped": "",
						"m_isChallengeType": "false",
						"m_levelNodeType": "",
						"m_name": "",
						"m_parallaxLayer": 0,
						"m_parentEvent": "",
						"m_position": {
							"x": 375,
							"y": 292
						},
						"m_rotationAngle": 0,
						"m_rotationRate": 0,
						"m_scaleX": 1,
						"m_scaleY": 1,
						"m_toggleName": "",
						"m_unlockedFrom": "",
						"m_unlockedNarrationID": "",
						"m_visibleFrom": "",
						"m_worldMapTutorial": "",
						"m_worldMapTutorialVisibleWhen": ""
					}, {
						"m_completedNarrationID": "",
						"m_cost": 0,
						"m_dataString": "",
						"m_displayText": "",
						"m_drawLayer": 0,
						"m_eventId": "",
						"m_eventSubType": "",
						"m_eventType": "island",
						"m_filter": 0,
						"m_imageID": 1,
						"m_inheritAssetFilter": "true",
						"m_isArtFlipped": "",
						"m_isChallengeType": "false",
						"m_levelNodeType": "",
						"m_name": "",
						"m_parallaxLayer": 0,
						"m_parentEvent": "",
						"m_position": {
							"x": 650,
							"y": 260
						},
						"m_rotationAngle": 0,
						"m_rotationRate": 0,
						"m_scaleX": 1,
						"m_scaleY": 1,
						"m_toggleName": "",
						"m_unlockedFrom": "",
						"m_unlockedNarrationID": "",
						"m_visibleFrom": "",
						"m_worldMapTutorial": "",
						"m_worldMapTutorialVisibleWhen": ""
					}, {
						"m_completedNarrationID": "",
						"m_cost": 0,
						"m_dataString": "",
						"m_displayText": "",
						"m_drawLayer": -2,
						"m_eventId": "",
						"m_eventSubType": "",
						"m_eventType": "island",
						"m_filter": 0,
						"m_imageID": 18,
						"m_inheritAssetFilter": "true",
						"m_isArtFlipped": "",
						"m_isChallengeType": "false",
						"m_levelNodeType": "",
						"m_name": "",
						"m_parallaxLayer": 0,
						"m_parentEvent": "",
						"m_position": {
							"x": 925,
							"y": 344
						},
						"m_rotationAngle": 0,
						"m_rotationRate": 0,
						"m_scaleX": 1,
						"m_scaleY": 1,
						"m_toggleName": "",
						"m_unlockedFrom": "",
						"m_unlockedNarrationID": "",
						"m_visibleFrom": "",
						"m_worldMapTutorial": "",
						"m_worldMapTutorialVisibleWhen": ""
					}, {
						"m_completedNarrationID": "",
						"m_cost": 0,
						"m_dataString": "",
						"m_displayText": "",
						"m_drawLayer": -1,
						"m_eventId": "",
						"m_eventSubType": "",
						"m_eventType": "island",
						"m_filter": 0,
						"m_imageID": 17,
						"m_inheritAssetFilter": "true",
						"m_isArtFlipped": "",
						"m_isChallengeType": "false",
						"m_levelNodeType": "",
						"m_name": "",
						"m_parallaxLayer": 0,
						"m_parentEvent": "",
						"m_position": {
							"x": 929,
							"y": 314
						},
						"m_rotationAngle": 0,
						"m_rotationRate": 0,
						"m_scaleX": 1,
						"m_scaleY": 1,
						"m_toggleName": "",
						"m_unlockedFrom": "",
						"m_unlockedNarrationID": "",
						"m_visibleFrom": "",
						"m_worldMapTutorial": "",
						"m_worldMapTutorialVisibleWhen": ""
					}, {
						"m_completedNarrationID": "",
						"m_cost": 0,
						"m_dataString": "",
						"m_displayText": "",
						"m_drawLayer": 0,
						"m_eventId": "",
						"m_eventSubType": "",
						"m_eventType": "island",
						"m_filter": 0,
						"m_imageID": 16,
						"m_inheritAssetFilter": "true",
						"m_isArtFlipped": "",
						"m_isChallengeType": "false",
						"m_levelNodeType": "",
						"m_name": "",
						"m_parallaxLayer": 0,
						"m_parentEvent": "",
						"m_position": {
							"x": 925,
							"y": 294
						},
						"m_rotationAngle": 0,
						"m_rotationRate": 0,
						"m_scaleX": 1,
						"m_scaleY": 1,
						"m_toggleName": "",
						"m_unlockedFrom": "",
						"m_unlockedNarrationID": "",
						"m_visibleFrom": "",
						"m_worldMapTutorial": "",
						"m_worldMapTutorialVisibleWhen": ""
					}, {
						"m_completedNarrationID": "",
						"m_cost": 0,
						"m_dataString": "",
						"m_displayText": "",
						"m_drawLayer": -2,
						"m_eventId": "",
						"m_eventSubType": "",
						"m_eventType": "island",
						"m_filter": 0,
						"m_imageID": 21,
						"m_inheritAssetFilter": "true",
						"m_isArtFlipped": "",
						"m_isChallengeType": "false",
						"m_levelNodeType": "",
						"m_name": "",
						"m_parallaxLayer": 0,
						"m_parentEvent": "",
						"m_position": {
							"x": 1200,
							"y": 352
						},
						"m_rotationAngle": 0,
						"m_rotationRate": 0,
						"m_scaleX": 1,
						"m_scaleY": 1,
						"m_toggleName": "",
						"m_unlockedFrom": "",
						"m_unlockedNarrationID": "",
						"m_visibleFrom": "",
						"m_worldMapTutorial": "",
						"m_worldMapTutorialVisibleWhen": ""
					}, {
						"m_completedNarrationID": "",
						"m_cost": 0,
						"m_dataString": "",
						"m_displayText": "",
						"m_drawLayer": -1,
						"m_eventId": "",
						"m_eventSubType": "",
						"m_eventType": "island",
						"m_filter": 0,
						"m_imageID": 17,
						"m_inheritAssetFilter": "true",
						"m_isArtFlipped": "",
						"m_isChallengeType": "false",
						"m_levelNodeType": "",
						"m_name": "",
						"m_parallaxLayer": 0,
						"m_parentEvent": "",
						"m_position": {
							"x": 1204,
							"y": 314
						},
						"m_rotationAngle": 0,
						"m_rotationRate": 0,
						"m_scaleX": 1,
						"m_scaleY": 1,
						"m_toggleName": "",
						"m_unlockedFrom": "",
						"m_unlockedNarrationID": "",
						"m_visibleFrom": "",
						"m_worldMapTutorial": "",
						"m_worldMapTutorialVisibleWhen": ""
					}, {
						"m_completedNarrationID": "",
						"m_cost": 0,
						"m_dataString": "",
						"m_displayText": "",
						"m_drawLayer": 0,
						"m_eventId": "",
						"m_eventSubType": "",
						"m_eventType": "island",
						"m_filter": 0,
						"m_imageID": 16,
						"m_inheritAssetFilter": "true",
						"m_isArtFlipped": "",
						"m_isChallengeType": "false",
						"m_levelNodeType": "",
						"m_name": "",
						"m_parallaxLayer": 0,
						"m_parentEvent": "",
						"m_position": {
							"x": 1200,
							"y": 294
						},
						"m_rotationAngle": 0,
						"m_rotationRate": 0,
						"m_scaleX": 1,
						"m_scaleY": 1,
						"m_toggleName": "",
						"m_unlockedFrom": "",
						"m_unlockedNarrationID": "",
						"m_visibleFrom": "",
						"m_worldMapTutorial": "",
						"m_worldMapTutorialVisibleWhen": ""
					}, {
						"m_completedNarrationID": "",
						"m_cost": 0,
						"m_dataString": "",
						"m_displayText": "0",
						"m_drawLayer": 0,
						"m_eventId": "0",
						"m_eventSubType": "",
						"m_eventType": "island",
						"m_filter": 0,
						"m_imageID": 77,
						"m_inheritAssetFilter": "true",
						"m_isArtFlipped": "",
						"m_isChallengeType": "FALSE",
						"m_levelNodeType": "",
						"m_name": "",
						"m_parallaxLayer": 10,
						"m_parentEvent": "",
						"m_position": {
							"x": 260,
							"y": 140
						},
						"m_rotationAngle": 0,
						"m_rotationRate": 0,
						"m_scaleX": 1,
						"m_scaleY": 1,
						"m_toggleName": "",
						"m_unlockedFrom": "",
						"m_unlockedNarrationID": "",
						"m_visibleFrom": "",
						"m_worldMapTutorial": "",
						"m_worldMapTutorialVisibleWhen": ""
					}, {
						"m_completedNarrationID": "",
						"m_cost": 0,
						"m_dataString": "",
						"m_displayText": "0",
						"m_drawLayer": 1,
						"m_eventId": "0",
						"m_eventSubType": "",
						"m_eventType": "island",
						"m_filter": 0,
						"m_imageID": 110,
						"m_inheritAssetFilter": "true",
						"m_isArtFlipped": "",
						"m_isChallengeType": "FALSE",
						"m_levelNodeType": "",
						"m_name": "",
						"m_parallaxLayer": 10,
						"m_parentEvent": "",
						"m_position": {
							"x": 262,
							"y": 295
						},
						"m_rotationAngle": 0,
						"m_rotationRate": 0,
						"m_scaleX": 0.5,
						"m_scaleY": 0.5,
						"m_toggleName": "",
						"m_unlockedFrom": "",
						"m_unlockedNarrationID": "",
						"m_visibleFrom": "",
						"m_worldMapTutorial": "",
						"m_worldMapTutorialVisibleWhen": ""
					} ],
				"m_resGroupID": 47,
				"m_version": 1,
				"m_worldId": 47,
				"m_worldName": "rift37"
			},
			"uid": "1.0.0"
		} ],
	"version": 1
}