{
	"#comment": "LOD 236 v1",
	"objects": [
		{
			"objclass": "LevelDefinition",
			"objdata": {
				"Description": "[PLAYERS_TRIP_TO_RIFT]",
				"LevelNumber": "",
				"DisablePlantBoosts": false,
				"Loot": "",
				"Modules": [
					"RTID(DefaultSunDropper@LevelModules)",
					"RTID(StandardRiftIntro@LevelModules)",
					"RTID(ZombiesDeadWinCon@LevelModules)",
					"RTID(FutureMowers@LevelModules)",
					"RTID(SeedBank@CurrentLevel)",
					"RTID(DefaultZombieWinCondition@LevelModules)",
					"RTID(NewWaves@CurrentLevel)",
					"RTID(PerkActivator@CurrentLevel)",
					"RTID(LevelDifficultyScaling@CurrentLevel)"
				],
				"MusicType": "MiniGame_A",
				"Name": "[RIFT_LEVEL_NAME]",
				"NormalPresentTable": "egypt_normal_01",
				"ShinyPresentTable": "egypt_shiny_01",
				"VictoryModule": "RTID(RiftOutro@LevelModules)",
				"StageModule": "RTID(RiftStage@LevelModules)",
				"LevelMutator": "RTID(LevelMutator@CurrentLevel)",
				"PerksDisabledInLevel": [
					"moarscore",
					"bossbustercannon"
				],
				"PerksDisabledPerDifficulty": [
					[],
					[],
					[]
				]
			}
		},
		{
			"aliases": [
				"PerkActivator"
			],
			"objclass": "PerkHandlerModuleProperties",
			"objdata": {}
		},
		{
			"aliases": [
				"LevelMutator"
			],
			"objclass": "LevelMutatorModuleProperties",
			"objdata": {
				"MutatorTables": [
					"RTID(MutatorPropsRiftNormal@LevelMutatorTables)",
					"RTID(LocalChallengeMutator@CurrentLevel)",
					"RTID(LocalMainChallengeMutator@CurrentLevel)"
				]
			}
		},
		{
			"aliases": [
				"LocalMainChallengeMutator"
			],
			"objclass": "LevelMutatorTableProps",
			"objdata": {
				"Tables": [
					{
						"Level": 0,
						"Modules": [
							"RTID(BeatTheLevel@CurrentLevel)"
						],
						"ModuleType": "mainchallenge"
					},
					{
						"Level": 1,
						"Modules": [
							"RTID(BeatTheLevel@CurrentLevel)"
						],
						"ModuleType": "mainchallenge"
					},
					{
						"Level": 2,
						"Modules": [
							"RTID(BeatTheLevel@CurrentLevel)"
						],
						"ModuleType": "mainchallenge"
					}
				]
			}
		},
		{
			"aliases": [
				"BeatTheLevel"
			],
			"objclass": "StarChallengeBeatTheLevelProps",
			"objdata": {
				"Description": "[STARCHALLENGE_RIFT_NORMAL]",
				"DescriptiveName": "[STARCHALLENGE_RIFT_NORMAL_NAME]"
			}
		},
		{
			"aliases": [
				"LocalChallengeMutator"
			],
			"objclass": "LevelMutatorTableProps",
			"objdata": {
				"Tables": [
					{
						"Level": 0,
						"Modules": [
							"RTID(SunUsed1@CurrentLevel)"
						],
						"ModuleType": "bonuschallenge"
					},
					{
						"Level": 1,
						"Modules": [
							"RTID(ZombieDistance2@CurrentLevel)",
							"RTID(SunUsed2@CurrentLevel)"
						],
						"ModuleType": "bonuschallenge"
					},
					{
						"Level": 2,
						"Modules": [
							"RTID(ZombieDistance3@CurrentLevel)",
							"RTID(SunUsed3@CurrentLevel)"
						],
						"ModuleType": "bonuschallenge"
					}
				]
			}
		},
		{
			"aliases": [
				"SunUsed1"
			],
			"objclass": "StarChallengeSunUsedProps",
			"objdata": {
				"MaximumSun": 2500
			}
		},
		{
			"aliases": [
				"SunUsed2"
			],
			"objclass": "StarChallengeSunUsedProps",
			"objdata": {
				"MaximumSun": 2350
			}
		},
		{
			"aliases": [
				"SunUsed3"
			],
			"objclass": "StarChallengeSunUsedProps",
			"objdata": {
				"MaximumSun": 2250
			}
		},
		{
			"aliases": [
				"ZombieDistance2"
			],
			"objclass": "StarChallengeZombieDistanceProps",
			"objdata": {
				"TargetDistance": 4
			}
		},
		{
			"aliases": [
				"ZombieDistance3"
			],
			"objclass": "StarChallengeZombieDistanceProps",
			"objdata": {
				"TargetDistance": 5
			}
		},
		{
			"aliases": [
				"SeedBank"
			],
			"objclass": "SeedBankProperties",
			"objdata": {
				"ExcludeListSunProducers": false,
				"PresetPlantList": [
					{
						"PlantType": "puffshroom",
						"Level": -1
					},
					{
						"PlantType": "stallia",
						"Level": -1
					},
					{
						"PlantType": "iceburg",
						"Level": -1
					}
				],
				"PlantExcludeList": [
					"spearmint",
					"peppermint",
					"appeasemint",
					"enforcemint",
					"concealmint",
					"filamint",
					"wintermint",
					"bombardmint",
					"armamint",
					"ailmint",
					"reinforcemint",
					"containmint",
					"enchantmint"
				],
				"SelectionMethod": "chooser"
			}
		},
		{
			"aliases": [
				"LevelDifficultyScaling"
			],
			"objclass": "LevelDifficultyScalingModuleProperties",
			"objdata": {
				"DifficultyRulesType": "RiftDifficulty",
				"ZombieLevelSwaps": [
					{
						"Level": 0,
						"Swaps": [
							{
								"From": "RTID(eighties@ZombieTypes)",
								"To": [
									"RTID(eighties@ZombieTypes)"
								]
							},
							{
								"From": "RTID(eighties_armor1@ZombieTypes)",
								"To": [
									"RTID(eighties_armor1@ZombieTypes)"
								]
							},
							{
								"From": "RTID(eighties_armor2@ZombieTypes)",
								"To": [
									"RTID(eighties_armor2@ZombieTypes)"
								]
							}
						]
					},
					{
						"Level": 4,
						"Swaps": [
							{
								"From": "RTID(eighties@ZombieTypes)",
								"To": [
									"RTID(eighties_armor1@ZombieTypes)"
								]
							},
							{
								"From": "RTID(eighties_armor1@ZombieTypes)",
								"To": [
									"RTID(eighties_armor2@ZombieTypes)"
								]
							},
							{
								"From": "RTID(eighties_armor2@ZombieTypes)",
								"To": [
									"RTID(roman_armor3@ZombieTypes)"
								]
							}
						]
					},
					{
						"Level": 7,
						"Swaps": [
							{
								"From": "RTID(eighties@ZombieTypes)",
								"To": [
									"RTID(eighties_armor2@ZombieTypes)"
								]
							},
							{
								"From": "RTID(eighties_armor1@ZombieTypes)",
								"To": [
									"RTID(roman_armor3@ZombieTypes)"
								]
							},
							{
								"From": "RTID(eighties_armor2@ZombieTypes)",
								"To": [
									"RTID(roman_medusa@ZombieTypes)"
								]
							}
						]
					}
				]
			}
		},
		{
			"aliases": [
				"NewWaves"
			],
			"objclass": "WaveManagerModuleProperties",
			"objdata": {
				"DynamicZombies": [
					{
						"PointIncrementPerWave": 0,
						"StartingPoints": 0,
						"StartingWave": 0,
						"ZombiePool": []
					},
					{
						"PointIncrementPerWave": 0,
						"StartingPoints": 0,
						"StartingWave": 0,
						"ZombiePool": []
					},
					{
						"PointIncrementPerWave": 0,
						"StartingPoints": 0,
						"StartingWave": 0,
						"ZombiePool": []
					},
					{
						"MaxPoints": 1000,
						"PointIncrementPerWave": 175,
						"StartingPoints": 300,
						"StartingWave": 5,
						"ZombiePool": [
							"RTID(roman_medusa@ZombieTypes)",
							"RTID(eighties_armor2@ZombieTypes)",
							"RTID(eighties_armor1@ZombieTypes)"
						]
					},
					{
						"PointIncrementPerWave": 0,
						"StartingPoints": 0,
						"StartingWave": 0,
						"ZombiePool": []
					},
					{
						"PointIncrementPerWave": 0,
						"StartingPoints": 0,
						"StartingWave": 0,
						"ZombiePool": []
					},
					{
						"PointIncrementPerWave": 0,
						"StartingPoints": 0,
						"StartingWave": 0,
						"ZombiePool": []
					}
				],
				"WaveManagerProps": "RTID(WaveManagerProps@CurrentLevel)"
			}
		},
		{
			"aliases": [
				"WaveManagerProps"
			],
			"objclass": "WaveManagerProperties",
			"objdata": {
				"FlagWaveInterval": 3,
				"WaveCount": 9,
				"WaveSpendingPointIncrement": 100,
				"WaveSpendingPoints": 150,
				"Waves": [
					[
						"RTID(Wave1@CurrentLevel)"
					],
					[
						"RTID(Wave2@CurrentLevel)"
					],
					[
						"RTID(Wave3@CurrentLevel)"
					],
					[
						"RTID(Wave4@CurrentLevel)"
					],
					[
						"RTID(Wave5@CurrentLevel)"
					],
					[
						"RTID(Wave6@CurrentLevel)"
					],
					[
						"RTID(Wave7@CurrentLevel)"
					],
					[
						"RTID(Wave8@CurrentLevel)"
					],
					[
						"RTID(Wave9@CurrentLevel)"
					]
				],
				"WavesAlwaysRandomized": true
			}
		},
		{
			"aliases": [
				"Wave1"
			],
			"objclass": "SpawnZombiesJitteredWaveActionProps",
			"objdata": {
				"Zombies": [
					{
						"Type": "RTID(eighties@ZombieTypes)"
					},
					{
						"Type": "RTID(eighties_imp@ZombieTypes)"
					}
				]
			}
		},
		{
			"aliases": [
				"Wave2"
			],
			"objclass": "SpawnZombiesJitteredWaveActionProps",
			"objdata": {
				"Zombies": [
					{
						"Type": "RTID(eighties@ZombieTypes)"
					},
					{
						"Type": "RTID(eighties_imp@ZombieTypes)"
					}
				]
			}
		},
		{
			"aliases": [
				"Wave3"
			],
			"objclass": "SpawnZombiesJitteredWaveActionProps",
			"objdata": {
				"Zombies": [
					{
						"Type": "RTID(eighties@ZombieTypes)"
					},
					{
						"Type": "RTID(eighties_imp@ZombieTypes)"
					},
					{
						"Type": "RTID(eighties_imp@ZombieTypes)"
					}
				]
			}
		},
		{
			"aliases": [
				"Wave4"
			],
			"objclass": "SpawnZombiesJitteredWaveActionProps",
			"objdata": {
				"Zombies": [
					{
						"Type": "RTID(eighties@ZombieTypes)"
					},
					{
						"Type": "RTID(eighties_imp@ZombieTypes)"
					}
				]
			}
		},
		{
			"aliases": [
				"Wave5"
			],
			"objclass": "SpawnZombiesJitteredWaveActionProps",
			"objdata": {
				"Zombies": [
					{
						"Type": "RTID(eighties@ZombieTypes)"
					},
					{
						"Type": "RTID(eighties_imp@ZombieTypes)"
					},
					{
						"Type": "RTID(eighties_imp@ZombieTypes)"
					}
				]
			}
		},
		{
			"aliases": [
				"Wave6"
			],
			"objclass": "SpawnZombiesJitteredWaveActionProps",
			"objdata": {
				"Zombies": [
					{
						"Type": "RTID(eighties@ZombieTypes)"
					},
					{
						"Type": "RTID(eighties_imp@ZombieTypes)"
					},
					{
						"Type": "RTID(eighties_imp@ZombieTypes)"
					},
					{
						"Type": "RTID(eighties_imp@ZombieTypes)"
					}
				]
			}
		},
		{
			"aliases": [
				"Wave7"
			],
			"objclass": "SpawnZombiesJitteredWaveActionProps",
			"objdata": {
				"Zombies": [
					{
						"Type": "RTID(eighties@ZombieTypes)"
					},
					{
						"Type": "RTID(eighties_imp@ZombieTypes)"
					},
					{
						"Type": "RTID(eighties_imp@ZombieTypes)"
					}
				]
			}
		},
		{
			"aliases": [
				"Wave8"
			],
			"objclass": "SpawnZombiesJitteredWaveActionProps",
			"objdata": {
				"Zombies": [
					{
						"Type": "RTID(eighties@ZombieTypes)"
					},
					{
						"Type": "RTID(eighties_imp@ZombieTypes)"
					},
					{
						"Type": "RTID(eighties_imp@ZombieTypes)"
					}
				]
			}
		},
		{
			"aliases": [
				"Wave9"
			],
			"objclass": "SpawnZombiesJitteredWaveActionProps",
			"objdata": {
				"Zombies": [
					{
						"Type": "RTID(eighties_imp@ZombieTypes)"
					},
					{
						"Type": "RTID(eighties_imp@ZombieTypes)"
					},
					{
						"Type": "RTID(eighties_imp@ZombieTypes)"
					},
					{
						"Type": "RTID(eighties_imp@ZombieTypes)"
					},
					{
						"Row": "5",
						"Type": "RTID(dark_wizard@ZombieTypes)"
					},
					{
						"Row": "3",
						"Type": "RTID(dark_wizard@ZombieTypes)"
					},
					{
						"Row": "1",
						"Type": "RTID(dark_wizard@ZombieTypes)"
					}
				]
			}
		}
	],
	"version": 1
}