{
	"#comment": "joust58 v1",
	"objects": [
		{
			"objclass": "LevelDefinition",
			"objdata": {
				"Description": "[PLAYERS_TRIP_TO_RIFT]",
				"DisablePlantBoosts": false,
				"LevelMutator": "RTID(LevelMutator@CurrentLevel)",
				"LevelNumber": "",
				"Loot": "",
				"Modules": [
					"RTID(DefaultSunDropper@LevelModules)",
					"RTID(ZombiesDeadWinCon@LevelModules)",
					"RTID(DefaultZombieWinCondition@LevelModules)",
					"RTID(DarkMowers@LevelModules)",
					"RTID(SeedBank@CurrentLevel)",
					"RTID(NewWaves@CurrentLevel)",
					"RTID(PerkActivator@CurrentLevel)",
					"RTID(LevelDifficultyScaling@CurrentLevel)",
					"RTID(LastStand@CurrentLevel)",
					"RTID(LevelScoring@CurrentLevel)",
					"RTID(ArenaScoreTiles@LevelModules)",
					"RTID(WaveDuplicator@CurrentLevel)",
					"RTID(TreadmillGeneralZombie3MinModule@LevelModules)"
				],
				"MusicType": "MiniGame_A",
				"Name": "[RIFT_LEVEL_NAME]",
				"NormalPresentTable": "egypt_normal_01",
				"ShinyPresentTable": "egypt_shiny_01",
				"StageModule": "RTID(JoustStage@LevelModules)",
				"SuppressAccountUpgrades": true,
				"SuppressDynamicTutorial": true,
				"SuppressPlantfoodPurchase": false,
				"VictoryModule": "RTID(RiftOutro@LevelModules)",
				"PerksDisabledInLevel": [],
				"PerksDisabledPerDifficulty": [
					[],
					[],
					[]
				]
			}
		},
		{
			"aliases": [
				"WaveDuplicator"
			],
			"objclass": "WaveDuplicatorModuleProperties",
			"objdata": {
				"PeriodOfWavesToLoop": 4,
				"WaveSetsToAppend": 20
			}
		},
		{
			"aliases": [
				"PerkActivator"
			],
			"objclass": "PerkHandlerModuleProperties",
			"objdata": {}
		},
		{
			"aliases": [
				"LevelMutator"
			],
			"objclass": "LevelMutatorModuleProperties",
			"objdata": {
				"MutatorTables": [
					"RTID(MutatorPropsRiftBattlez@LevelMutatorTables)",
					"RTID(LocalChallengeMutator@CurrentLevel)",
					"RTID(LocalMainChallengeMutator@CurrentLevel)"
				]
			}
		},
		{
			"aliases": [
				"LocalMainChallengeMutator"
			],
			"objclass": "LevelMutatorTableProps",
			"objdata": {
				"Tables": [
					{
						"Level": 0,
						"ModuleType": "mainchallenge",
						"Modules": [
							"RTID(LevelTimer@CurrentLevel)"
						]
					},
					{
						"Level": 1,
						"ModuleType": "mainchallenge",
						"Modules": [
							"RTID(LevelTimer@CurrentLevel)"
						]
					},
					{
						"Level": 2,
						"ModuleType": "mainchallenge",
						"Modules": [
							"RTID(LevelTimer@CurrentLevel)"
						]
					}
				]
			}
		},
		{
			"aliases": [
				"LevelTimer"
			],
			"objclass": "StarChallengeLevelTimerProperties",
			"objdata": {
				"TimeLimit": 180
			}
		},
		{
			"aliases": [
				"LocalChallengeMutator"
			],
			"objclass": "LevelMutatorTableProps",
			"objdata": {
				"Tables": [
					{
						"Level": 0,
						"ModuleType": "bonuschallenge",
						"Modules": [
							"RTID(ReachTheScore1@CurrentLevel)"
						]
					},
					{
						"Level": 1,
						"ModuleType": "bonuschallenge",
						"Modules": [
							"RTID(DefeatGeneralPhases2@CurrentLevel)",
							"RTID(ReachTheScore2@CurrentLevel)"
						]
					},
					{
						"Level": 2,
						"ModuleType": "bonuschallenge",
						"Modules": [
							"RTID(DefeatGeneralPhases3@CurrentLevel)",
							"RTID(ReachTheScore3@CurrentLevel)"
						]
					}
				]
			}
		},
		{
			"aliases": [
				"ReachTheScore1"
			],
			"objclass": "StarChallengeTargetScoreProps",
			"objdata": {
				"Description": "[STARCHALLENGE_SCORE_TO_BEAT]",
				"DescriptionFailure": "[STARCHALLENGE_TARGET_SCORE_FAILURE]",
				"DescriptiveName": "[STARCHALLENGE_TARGET_SCORE_NAME]",
				"TargetScore": 10000000
			}
		},
		{
			"aliases": [
				"ReachTheScore2"
			],
			"objclass": "StarChallengeTargetScoreProps",
			"objdata": {
				"Description": "[STARCHALLENGE_SCORE_TO_BEAT]",
				"DescriptionFailure": "[STARCHALLENGE_TARGET_SCORE_FAILURE]",
				"DescriptiveName": "[STARCHALLENGE_TARGET_SCORE_NAME]",
				"TargetScore": 20000000
			}
		},
		{
			"aliases": [
				"ReachTheScore3"
			],
			"objclass": "StarChallengeTargetScoreProps",
			"objdata": {
				"Description": "[STARCHALLENGE_SCORE_TO_BEAT]",
				"DescriptionFailure": "[STARCHALLENGE_TARGET_SCORE_FAILURE]",
				"DescriptiveName": "[STARCHALLENGE_TARGET_SCORE_NAME]",
				"TargetScore": 45000000
			}
		},
		{
			"aliases": [
				"DefeatGeneralPhases2"
			],
			"objclass": "DefeatGeneralPhasesChallengeProps",
			"objdata": {
				"Description": "[DEFEAT_CARDIO_X_TIMES]",
				"NumPhasesToKill": 3
			}
		},
		{
			"aliases": [
				"DefeatGeneralPhases3"
			],
			"objclass": "DefeatGeneralPhasesChallengeProps",
			"objdata": {
				"Description": "[DEFEAT_CARDIO_X_TIMES]",
				"NumPhasesToKill": 3
			}
		},
		{
			"aliases": [
				"SeedBank"
			],
			"objclass": "SeedBankProperties",
			"objdata": {
				"ExcludeListSunProducers": true,
				"PlantExcludeList": [
					"blover"
				],
				"PresetPlantList": [],
				"SelectionMethod": "chooser"
			}
		},
		{
			"aliases": [
				"LastStand"
			],
			"objclass": "LastStandMinigameProperties",
			"objdata": {
				"PreSeedchooserFlow": "rift",
				"StartingPlantfood": 1,
				"StartingSun": 0
			}
		},
		{
			"aliases": [
				"LevelScoring"
			],
			"objclass": "LevelScoringModuleProperties",
			"objdata": {
				"PlantBonusMultiplier": 0.1,
				"PlantBonuses": [],
				"ScoringRulesType": "Rift",
				"StartingPlantfood": 1
			}
		},
		{
			"aliases": [
				"LevelDifficultyScaling"
			],
			"objclass": "LevelDifficultyScalingModuleProperties",
			"objdata": {
				"DifficultyRulesType": "RiftDifficulty",
				"ZombieLevelSwaps": [
					{
						"Level": 0,
						"Swaps": [
							{
								"From": "RTID(pirate_armor4@ZombieTypes)",
								"To": [
									"RTID(pirate_armor4@ZombieTypes)",
									"RTID(lostcity_armor2@ZombieTypes)"
								]
							},
							{
								"From": "RTID(future_jetpack_veteran@ZombieTypes)",
								"To": [
									"RTID(lostcity_bug@ZombieTypes)"
								]
							},
							{
								"From": "RTID(lostcity_armor1@ZombieTypes)",
								"To": [
									"RTID(lostcity_armor1@ZombieTypes)"
								]
							},
							{
								"From": "RTID(lostcity_armor2@ZombieTypes)",
								"To": [
									"RTID(lostcity_armor2@ZombieTypes)"
								]
							},
							{
								"From": "RTID(lostcity_bug@ZombieTypes)",
								"To": [
									"RTID(lostcity_bug@ZombieTypes)"
								]
							}
						]
					},
					{
						"Level": 4,
						"Swaps": [
							{
								"From": "RTID(pirate_armor4@ZombieTypes)",
								"To": [
									"RTID(pirate_armor4@ZombieTypes)"
								]
							},
							{
								"From": "RTID(lostcity_armor1@ZombieTypes)",
								"To": [
									"RTID(lostcity_armor1@ZombieTypes)",
									"RTID(lostcity_bug@ZombieTypes)"
								]
							},
							{
								"From": "RTID(lostcity_armor2@ZombieTypes)",
								"To": [
									"RTID(lostcity_armor1@ZombieTypes)",
									"RTID(lostcity_armor2@ZombieTypes)"
								]
							},
							{
								"From": "RTID(lostcity_bug@ZombieTypes)",
								"To": [
									"RTID(lostcity_bug@ZombieTypes)"
								]
							},
							{
								"From": "RTID(future_jetpack_veteran@ZombieTypes)",
								"To": [
									"RTID(lostcity_bug@ZombieTypes)",
									"RTID(future_jetpack_veteran@ZombieTypes)"
								]
							}
						]
					},
					{
						"Level": 7,
						"Swaps": [
							{
								"From": "RTID(pirate_armor4@ZombieTypes)",
								"To": [
									"RTID(pirate_armor4@ZombieTypes)"
								]
							},
							{
								"From": "RTID(lostcity_armor1@ZombieTypes)",
								"To": [
									"RTID(lostcity_armor1@ZombieTypes)",
									"RTID(lostcity_armor2@ZombieTypes)"
								]
							},
							{
								"From": "RTID(lostcity_armor2@ZombieTypes)",
								"To": [
									"RTID(lostcity_armor2@ZombieTypes)",
									"RTID(pirate_armor4@ZombieTypes)"
								]
							},
							{
								"From": "RTID(lostcity_bug@ZombieTypes)",
								"To": [
									"RTID(future_jetpack_veteran@ZombieTypes)",
									"RTID(lostcity_bug@ZombieTypes)"
								]
							},
							{
								"From": "RTID(future_jetpack_veteran@ZombieTypes)",
								"To": [
									"RTID(future_jetpack_veteran@ZombieTypes)"
								]
							}
						]
					}
				]
			}
		},
		{
			"aliases": [
				"NewWaves"
			],
			"objclass": "WaveManagerModuleProperties",
			"objdata": {
				"DynamicZombies": [
					{
						"PointIncrementPerWave": -1,
						"StartingPoints": -1,
						"StartingWave": 1,
						"ZombiePool": [
							"RTID(future_jetpack_veteran@ZombieTypes)",
							"RTID(lostcity_armor1@ZombieTypes)",
							"RTID(lostcity_armor2@ZombieTypes)",
							"RTID(lostcity_bug@ZombieTypes)",
							"RTID(lostcity_crystalskull@ZombieTypes)",
							"RTID(lostcity_excavator@ZombieTypes)",
							"RTID(pirate_armor4@ZombieTypes)",
							"RTID(pirate_captain@ZombieTypes)"
						]
					},
					{
						"PointIncrementPerWave": -1,
						"StartingPoints": -1,
						"StartingWave": 1,
						"ZombiePool": [
							"RTID(future_jetpack_veteran@ZombieTypes)",
							"RTID(lostcity_armor1@ZombieTypes)",
							"RTID(lostcity_armor2@ZombieTypes)",
							"RTID(lostcity_bug@ZombieTypes)",
							"RTID(lostcity_crystalskull@ZombieTypes)",
							"RTID(lostcity_excavator@ZombieTypes)",
							"RTID(pirate_armor4@ZombieTypes)",
							"RTID(pirate_captain@ZombieTypes)"
						]
					},
					{
						"PointIncrementPerWave": -1,
						"StartingPoints": -1,
						"StartingWave": 1,
						"ZombiePool": [
							"RTID(future_jetpack_veteran@ZombieTypes)",
							"RTID(lostcity_armor1@ZombieTypes)",
							"RTID(lostcity_armor2@ZombieTypes)",
							"RTID(lostcity_bug@ZombieTypes)",
							"RTID(lostcity_crystalskull@ZombieTypes)",
							"RTID(lostcity_excavator@ZombieTypes)",
							"RTID(pirate_armor4@ZombieTypes)",
							"RTID(pirate_captain@ZombieTypes)"
						]
					},
					{
						"MaxPoints": 3500,
						"PointIncrementPerWave": 175,
						"StartingPoints": 2250,
						"StartingWave": 1,
						"ZombiePool": [
							"RTID(future_jetpack_veteran@ZombieTypes)",
							"RTID(lostcity_armor1@ZombieTypes)",
							"RTID(lostcity_armor2@ZombieTypes)",
							"RTID(lostcity_bug@ZombieTypes)",
							"RTID(lostcity_crystalskull@ZombieTypes)",
							"RTID(lostcity_excavator@ZombieTypes)",
							"RTID(pirate_armor4@ZombieTypes)",
							"RTID(pirate_captain@ZombieTypes)"
						]
					},
					{
						"PointIncrementPerWave": 1,
						"StartingPoints": 1,
						"StartingWave": 1,
						"ZombiePool": [
							"RTID(future_jetpack_veteran@ZombieTypes)",
							"RTID(lostcity_armor1@ZombieTypes)",
							"RTID(lostcity_armor2@ZombieTypes)",
							"RTID(lostcity_bug@ZombieTypes)",
							"RTID(lostcity_crystalskull@ZombieTypes)",
							"RTID(lostcity_excavator@ZombieTypes)",
							"RTID(pirate_armor4@ZombieTypes)",
							"RTID(pirate_captain@ZombieTypes)"
						]
					},
					{
						"PointIncrementPerWave": 1,
						"StartingPoints": 1,
						"StartingWave": 1,
						"ZombiePool": [
							"RTID(future_jetpack_veteran@ZombieTypes)",
							"RTID(lostcity_armor1@ZombieTypes)",
							"RTID(lostcity_armor2@ZombieTypes)",
							"RTID(lostcity_bug@ZombieTypes)",
							"RTID(lostcity_crystalskull@ZombieTypes)",
							"RTID(lostcity_excavator@ZombieTypes)",
							"RTID(pirate_armor4@ZombieTypes)",
							"RTID(pirate_captain@ZombieTypes)"
						]
					},
					{
						"PointIncrementPerWave": 1,
						"StartingPoints": 1,
						"StartingWave": 1,
						"ZombiePool": [
							"RTID(future_jetpack_veteran@ZombieTypes)",
							"RTID(lostcity_armor2@ZombieTypes)",
							"RTID(lostcity_bug@ZombieTypes)",
							"RTID(lostcity_crystalskull@ZombieTypes)",
							"RTID(lostcity_excavator@ZombieTypes)",
							"RTID(pirate_armor4@ZombieTypes)",
							"RTID(pirate_captain@ZombieTypes)"
						]
					}
				],
				"WaveManagerProps": "RTID(WaveManagerProps@CurrentLevel)"
			}
		},
		{
			"aliases": [
				"WaveManagerProps"
			],
			"objclass": "WaveManagerProperties",
			"objdata": {
				"FlagWaveInterval": 100,
				"WaveCount": 100,
				"WaveSpendingPointIncrement": 150,
				"WaveSpendingPoints": 0,
				"Waves": [
					[
						"RTID(Wave1@CurrentLevel)",
						"RTID(Wave1SunDropperEvent0@CurrentLevel)",
						"RTID(Wave1SunDropperEvent1@CurrentLevel)",
						"RTID(Wave1SunDropperEvent2@CurrentLevel)"
					],
					[
						"RTID(Wave2@CurrentLevel)"
					],
					[
						"RTID(Wave3@CurrentLevel)"
					],
					[
						"RTID(Wave4@CurrentLevel)",
						"RTID(Wave4HamsterStormEvent@CurrentLevel)"
					],
					[
						"RTID(Wave5@CurrentLevel)"
					],
					[
						"RTID(Wave6@CurrentLevel)"
					],
					[
						"RTID(Wave7@CurrentLevel)"
					],
					[
						"RTID(Wave8@CurrentLevel)",
						"RTID(Wave8SunDropperEvent0@CurrentLevel)"
					],
					[
						"RTID(Wave9@CurrentLevel)",
						"RTID(Wave9HamsterStormEvent@CurrentLevel)"
					],
					[
						"RTID(Wave10@CurrentLevel)"
					]
				],
				"WavesAlwaysRandomized": true
			}
		},
		{
			"aliases": [
				"Wave4HamsterStormEvent"
			],
			"objclass": "HamsterZombieSpawnerProps",
			"objdata": {
				"ColumnEnd": 6,
				"ColumnStart": 3,
				"GroupSize": 1,
				"TimeBetweenGroups": 1,
				"Zombies": [
					{
						"Behavior": 2,
						"HasPlantfood": true,
						"SpeedBeforeImpact": 0.5,
						"Type": "RTID(hamster_ball@ZombieTypes)",
						"ZombieInsideBallType": "RTID(dark_wizard@ZombieTypes)"
					}
				]
			}
		},
		{
			"aliases": [
				"Wave6HamsterStormEvent"
			],
			"objclass": "HamsterZombieSpawnerProps",
			"objdata": {
				"ColumnEnd": 4,
				"ColumnStart": 3,
				"GroupSize": 1,
				"TimeBetweenGroups": 1,
				"Zombies": [
					{
						"Behavior": 1,
						"HasPlantfood": true,
						"SpeedBeforeImpact": 1,
						"Type": "RTID(hamster_ball@ZombieTypes)",
						"ZombieInsideBallType": "RTID(dark_wizard@ZombieTypes)"
					}
				]
			}
		},
		{
			"aliases": [
				"Wave9HamsterStormEvent"
			],
			"objclass": "HamsterZombieSpawnerProps",
			"objdata": {
				"ColumnEnd": 3,
				"ColumnStart": 3,
				"GroupSize": 1,
				"TimeBetweenGroups": 1,
				"Zombies": [
					{
						"Behavior": 1,
						"HasPlantfood": true,
						"SpeedBeforeImpact": 1,
						"Type": "RTID(hamster_ball@ZombieTypes)",
						"ZombieInsideBallType": "RTID(dark_wizard@ZombieTypes)"
					}
				]
			}
		},
		{
			"aliases": [
				"Wave1"
			],
			"objclass": "SpawnZombiesJitteredWaveActionProps",
			"objdata": {}
		},
		{
			"aliases": [
				"Wave2"
			],
			"objclass": "SpawnZombiesJitteredWaveActionProps",
			"objdata": {}
		},
		{
			"aliases": [
				"Wave3"
			],
			"objclass": "SpawnZombiesJitteredWaveActionProps",
			"objdata": {}
		},
		{
			"aliases": [
				"Wave4"
			],
			"objclass": "SpawnZombiesJitteredWaveActionProps",
			"objdata": {}
		},
		{
			"aliases": [
				"Wave5"
			],
			"objclass": "SpawnZombiesJitteredWaveActionProps",
			"objdata": {}
		},
		{
			"aliases": [
				"Wave6"
			],
			"objclass": "SpawnZombiesJitteredWaveActionProps",
			"objdata": {}
		},
		{
			"aliases": [
				"Wave7"
			],
			"objclass": "SpawnZombiesJitteredWaveActionProps",
			"objdata": {}
		},
		{
			"aliases": [
				"Wave8"
			],
			"objclass": "SpawnZombiesJitteredWaveActionProps",
			"objdata": {
				"AdditionalPlantfood": 1,
				"Zombies": [
					{
						"Type": "RTID(roman_ballista@ZombieTypes)"
					},
					{
						"Type": "RTID(roman_ballista@ZombieTypes)"
					}
				]
			}
		},
		{
			"aliases": [
				"Wave9"
			],
			"objclass": "SpawnZombiesJitteredWaveActionProps",
			"objdata": {}
		},
		{
			"aliases": [
				"Wave10"
			],
			"objclass": "SpawnZombiesJitteredWaveActionProps",
			"objdata": {
				"Zombies": [
					{
						"Type": "RTID(roman_gargantuar@ZombieTypes)"
					}
				]
			}
		},
		{
			"aliases": [
				"Wave1SunDropperEvent0"
			],
			"objclass": "SunDropperWaveActionProps",
			"objdata": {
				"SunAmountToDrop": 1700
			}
		},
		{
			"aliases": [
				"Wave1SunDropperEvent1"
			],
			"objclass": "SunDropperWaveActionProps",
			"objdata": {
				"SunAmountToDrop": 1700
			}
		},
		{
			"aliases": [
				"Wave1SunDropperEvent2"
			],
			"objclass": "SunDropperWaveActionProps",
			"objdata": {
				"SunAmountToDrop": 1700
			}
		},
		{
			"aliases": [
				"Wave8SunDropperEvent0"
			],
			"objclass": "SunDropperWaveActionProps",
			"objdata": {
				"SunAmountToDrop": 1250
			}
		}
	],
	"version": 1
}