{
	"#comment": "Rift61 v1",
	"objects": [
		{
			"objclass": "LevelDefinition",
			"objdata": {
				"Description": "[PLAYERS_TRIP_TO_RIFT]",
				"DisablePlantBoosts": false,
				"LevelNumber": "",
				"Loot": "",
				"Modules": [
					"RTID(DefaultSunDropper@LevelModules)",
					"RTID(StandardRiftIntro@LevelModules)",
					"RTID(ZombiesDeadWinCon@LevelModules)",
					"RTID(PirateMowers@LevelModules)",
					"RTID(PiratePlanks@CurrentLevel)",
					"RTID(SeedBank@CurrentLevel)",
					"RTID(DefaultZombieWinCondition@LevelModules)",
					"RTID(NewWaves@CurrentLevel)",
					"RTID(PerkActivator@CurrentLevel)",
					"RTID(LevelDifficultyScaling@CurrentLevel)"
				],
				"MusicType": "MiniGame_A",
				"Name": "[RIFT_LEVEL_NAME]",
				"NormalPresentTable": "egypt_normal_01",
				"ShinyPresentTable": "egypt_shiny_01",
				"StageModule": "RTID(PirateStage@LevelModules)",
				"VictoryModule": "RTID(RiftOutro@LevelModules)",
				"LevelMutator": "RTID(LevelMutator@CurrentLevel)",
				"PerksDisabledInLevel": [
					"moarscore",
					"bossbustercannon"
				],
				"PerksDisabledPerDifficulty": [
					[],
					[],
					[]
				]
			}
		},
		{
			"aliases": [
				"PerkActivator"
			],
			"objclass": "PerkHandlerModuleProperties",
			"objdata": {}
		},
		{
			"aliases": [
				"LevelMutator"
			],
			"objclass": "LevelMutatorModuleProperties",
			"objdata": {
				"MutatorTables": [
					"RTID(MutatorPropsRiftNormal@LevelMutatorTables)",
					"RTID(LocalChallengeMutator@CurrentLevel)",
					"RTID(LocalMainChallengeMutator@CurrentLevel)"
				]
			}
		},
		{
			"aliases": [
				"LocalMainChallengeMutator"
			],
			"objclass": "LevelMutatorTableProps",
			"objdata": {
				"Tables": [
					{
						"Level": 0,
						"ModuleType": "mainchallenge",
						"Modules": [
							"RTID(BeatTheLevel@CurrentLevel)"
						]
					},
					{
						"Level": 1,
						"ModuleType": "mainchallenge",
						"Modules": [
							"RTID(BeatTheLevel@CurrentLevel)"
						]
					},
					{
						"Level": 2,
						"ModuleType": "mainchallenge",
						"Modules": [
							"RTID(BeatTheLevel@CurrentLevel)"
						]
					}
				]
			}
		},
		{
			"aliases": [
				"BeatTheLevel"
			],
			"objclass": "StarChallengeBeatTheLevelProps",
			"objdata": {
				"Description": "[STARCHALLENGE_RIFT_NORMAL]",
				"DescriptiveName": "[STARCHALLENGE_RIFT_NORMAL_NAME]"
			}
		},
		{
			"aliases": [
				"LocalChallengeMutator"
			],
			"objclass": "LevelMutatorTableProps",
			"objdata": {
				"Tables": [
					{
						"Level": 0,
						"ModuleType": "bonuschallenge",
						"Modules": [
							"RTID(ApplyZombieConditions1@CurrentLevel)"
						]
					},
					{
						"Level": 1,
						"ModuleType": "bonuschallenge",
						"Modules": [
							"RTID(KillZombies2@CurrentLevel)",
							"RTID(ApplyZombieConditions2@CurrentLevel)"
						]
					},
					{
						"Level": 2,
						"ModuleType": "bonuschallenge",
						"Modules": [
							"RTID(KillZombies3@CurrentLevel)",
							"RTID(ApplyZombieConditions3@CurrentLevel)"
						]
					}
				]
			}
		},
		{
			"aliases": [
				"ApplyZombieConditions1"
			],
			"objclass": "ApplyZombieConditionsChallengeProps",
			"objdata": {
				"ConditionToInflict": [
					"chill"
				],
				"NumZombieConditionsToApply": 25
			}
		},
		{
			"aliases": [
				"ApplyZombieConditions2"
			],
			"objclass": "ApplyZombieConditionsChallengeProps",
			"objdata": {
				"ConditionToInflict": [
					"chill"
				],
				"NumZombieConditionsToApply": 35
			}
		},
		{
			"aliases": [
				"ApplyZombieConditions3"
			],
			"objclass": "ApplyZombieConditionsChallengeProps",
			"objdata": {
				"ConditionToInflict": [
					"chill"
				],
				"NumZombieConditionsToApply": 50
			}
		},
		{
			"aliases": [
				"KillZombies2"
			],
			"objclass": "StarChallengeKillZombiesInTimeProps",
			"objdata": {
				"Time": 25,
				"ZombiesToKill": 20
			}
		},
		{
			"aliases": [
				"KillZombies3"
			],
			"objclass": "StarChallengeKillZombiesInTimeProps",
			"objdata": {
				"Time": 20,
				"ZombiesToKill": 30
			}
		},
		{
			"aliases": [
				"SeedBank"
			],
			"objclass": "SeedBankProperties",
			"objdata": {
				"SelectionMethod": "chooser",
				"SuggestPlantList": [
					[
						"primalsunflower",
						"twinsunflower"
					],
					[
						"tallnut",
						"primalwallnut"
					],
					[
						"primalpotatomine",
						"escaperoot",
						"cherry_bomb"
					],
					[
						"kernelpult",
						"cabbagepult"
					],
					[
						"snapdragon",
						"bloomerang"
					],
					[
						"threepeater",
						"akee"
					],
					[
						"electricblueberry",
						"lightningreed"
					],
					[
						"magnetshroom",
						"shrinkingviolet"
					]
				]
			}
		},
		{
			"aliases": [
				"PiratePlanks"
			],
			"objclass": "PiratePlankProperties",
			"objdata": {
				"PlankRows": [
					3,
					4
				]
			}
		},
		{
			"aliases": [
				"LevelDifficultyScaling"
			],
			"objclass": "LevelDifficultyScalingModuleProperties",
			"objdata": {
				"DifficultyRulesType": "RiftDifficulty",
				"ZombieLevelSwaps": [
					{
						"Level": 0,
						"Swaps": [
							{
								"From": "RTID(pirate@ZombieTypes)",
								"To": [
									"RTID(roman@ZombieTypes)",
									"RTID(roman_healer@ZombieTypes)"
								]
							},
							{
								"From": "RTID(pirate_armor1@ZombieTypes)",
								"To": [
									"RTID(roman_armor1@ZombieTypes)",
									"RTID(roman_healer@ZombieTypes)"
								]
							},
							{
								"From": "RTID(pirate_armor2@ZombieTypes)",
								"To": [
									"RTID(roman_armor2@ZombieTypes)",
									"RTID(roman_healer@ZombieTypes)"
								]
							}
						]
					},
					{
						"Level": 4,
						"Swaps": [
							{
								"From": "RTID(pirate@ZombieTypes)",
								"To": [
									"RTID(roman_armor2@ZombieTypes)",
									"RTID(roman_healer@ZombieTypes)",
									"RTID(beach_octopus@ZombieTypes)"
								]
							},
							{
								"From": "RTID(pirate_armor1@ZombieTypes)",
								"To": [
									"RTID(roman_armor2@ZombieTypes)",
									"RTID(roman_healer@ZombieTypes)"
								]
							},
							{
								"From": "RTID(pirate_armor2@ZombieTypes)",
								"To": [
									"RTID(roman_gargantuar@ZombieTypes)",
									"RTID(roman_healer@ZombieTypes)",
									"RTID(beach_octopus@ZombieTypes)"
								]
							},
							{
								"From": "RTID(seagull@ZombieTypes)",
								"To": [
									"RTID(pelican@ZombieTypes)"
								]
							}
						]
					},
					{
						"Level": 7,
						"Swaps": [
							{
								"From": "RTID(pirate@ZombieTypes)",
								"To": [
									"RTID(roman_armor2@ZombieTypes)",
									"RTID(roman_healer@ZombieTypes)",
									"RTID(beach_octopus@ZombieTypes)"
								]
							},
							{
								"From": "RTID(pirate_armor1@ZombieTypes)",
								"To": [
									"RTID(roman_armor2@ZombieTypes)",
									"RTID(roman_healer@ZombieTypes)",
									"RTID(beach_octopus@ZombieTypes)"
								]
							},
							{
								"From": "RTID(pirate_armor2@ZombieTypes)",
								"To": [
									"RTID(roman_gargantuar@ZombieTypes)",
									"RTID(roman_healer@ZombieTypes)",
									"RTID(beach_octopus@ZombieTypes)"
								]
							},
							{
								"From": "RTID(seagull@ZombieTypes)",
								"To": [
									"RTID(pelican@ZombieTypes)"
								]
							}
						]
					}
				]
			}
		},
		{
			"aliases": [
				"NewWaves"
			],
			"objclass": "WaveManagerModuleProperties",
			"objdata": {
				"DynamicZombies": [
					{
						"PointIncrementPerWave": 0,
						"StartingPoints": 0,
						"StartingWave": 0,
						"ZombiePool": [
							"RTID(cannon@ZombieTypes)",
							"RTID(roman_healer@ZombieTypes)",
							"RTID(seagull@ZombieTypes)",
							"RTID(swashbuckler@ZombieTypes)"
						]
					},
					{
						"PointIncrementPerWave": 0,
						"StartingPoints": 0,
						"StartingWave": 0,
						"ZombiePool": [
							"RTID(cannon@ZombieTypes)",
							"RTID(roman_healer@ZombieTypes)",
							"RTID(seagull@ZombieTypes)",
							"RTID(swashbuckler@ZombieTypes)"
						]
					},
					{
						"PointIncrementPerWave": 0,
						"StartingPoints": 0,
						"StartingWave": 0,
						"ZombiePool": [
							"RTID(cannon@ZombieTypes)",
							"RTID(roman_healer@ZombieTypes)",
							"RTID(seagull@ZombieTypes)",
							"RTID(swashbuckler@ZombieTypes)"
						]
					},
					{
						"MaxPoints": 1000,
						"PointIncrementPerWave": 30,
						"StartingPoints": 100,
						"StartingWave": 5,
						"ZombiePool": [
							"RTID(cannon@ZombieTypes)",
							"RTID(roman_healer@ZombieTypes)",
							"RTID(seagull@ZombieTypes)",
							"RTID(swashbuckler@ZombieTypes)"
						]
					},
					{
						"PointIncrementPerWave": 0,
						"StartingPoints": 0,
						"StartingWave": 0,
						"ZombiePool": [
							"RTID(cannon@ZombieTypes)",
							"RTID(roman_healer@ZombieTypes)",
							"RTID(seagull@ZombieTypes)",
							"RTID(swashbuckler@ZombieTypes)"
						]
					},
					{
						"PointIncrementPerWave": 0,
						"StartingPoints": 0,
						"StartingWave": 0,
						"ZombiePool": [
							"RTID(cannon@ZombieTypes)",
							"RTID(roman_healer@ZombieTypes)",
							"RTID(seagull@ZombieTypes)",
							"RTID(swashbuckler@ZombieTypes)"
						]
					},
					{
						"PointIncrementPerWave": 0,
						"StartingPoints": 0,
						"StartingWave": 0,
						"ZombiePool": [
							"RTID(cannon@ZombieTypes)",
							"RTID(roman_healer@ZombieTypes)",
							"RTID(seagull@ZombieTypes)",
							"RTID(swashbuckler@ZombieTypes)"
						]
					}
				],
				"WaveManagerProps": "RTID(WaveManagerProps@CurrentLevel)"
			}
		},
		{
			"aliases": [
				"WaveManagerProps"
			],
			"objclass": "WaveManagerProperties",
			"objdata": {
				"FlagWaveInterval": 8,
				"WaveCount": 16,
				"WaveSpendingPointIncrement": 50,
				"WaveSpendingPoints": 100,
				"Waves": [
					[
						"RTID(Wave1@CurrentLevel)"
					],
					[
						"RTID(Wave2@CurrentLevel)"
					],
					[
						"RTID(Wave3@CurrentLevel)"
					],
					[
						"RTID(Wave4@CurrentLevel)"
					],
					[
						"RTID(Wave5@CurrentLevel)"
					],
					[
						"RTID(Wave6@CurrentLevel)"
					],
					[
						"RTID(Wave7@CurrentLevel)"
					],
					[
						"RTID(Wave8@CurrentLevel)"
					],
					[
						"RTID(Wave9@CurrentLevel)"
					],
					[
						"RTID(Wave10@CurrentLevel)",
						"RTID(Wave10RaidingPartyEvent0@CurrentLevel)"
					],
					[
						"RTID(Wave11@CurrentLevel)"
					],
					[
						"RTID(Wave12@CurrentLevel)"
					],
					[
						"RTID(Wave13@CurrentLevel)"
					],
					[
						"RTID(Wave14@CurrentLevel)"
					],
					[
						"RTID(Wave15@CurrentLevel)"
					],
					[
						"RTID(Wave16@CurrentLevel)",
						"RTID(Wave16RaidingPartyEvent0@CurrentLevel)"
					]
				]
			}
		},
		{
			"aliases": [
				"Wave1"
			],
			"objclass": "SpawnZombiesJitteredWaveActionProps",
			"objdata": {
				"Zombies": [
					{
						"Row": "4",
						"Type": "RTID(pirate@ZombieTypes)"
					}
				]
			}
		},
		{
			"aliases": [
				"Wave2"
			],
			"objclass": "SpawnZombiesJitteredWaveActionProps",
			"objdata": {
				"Zombies": [
					{
						"Row": "5",
						"Type": "RTID(pirate@ZombieTypes)"
					}
				]
			}
		},
		{
			"aliases": [
				"Wave3"
			],
			"objclass": "SpawnZombiesJitteredWaveActionProps",
			"objdata": {
				"AdditionalPlantfood": 1,
				"DynamicPlantfood": [
					1,
					1,
					1,
					1,
					1,
					1,
					0
				],
				"Zombies": [
					{
						"Row": "4",
						"Type": "RTID(pirate_armor1@ZombieTypes)"
					}
				]
			}
		},
		{
			"aliases": [
				"Wave4"
			],
			"objclass": "SpawnZombiesJitteredWaveActionProps",
			"objdata": {
				"Zombies": [
					{
						"Row": "1",
						"Type": "RTID(swashbuckler@ZombieTypes)"
					},
					{
						"Row": "5",
						"Type": "RTID(pirate@ZombieTypes)"
					}
				]
			}
		},
		{
			"aliases": [
				"Wave5"
			],
			"objclass": "SpawnZombiesJitteredWaveActionProps",
			"objdata": {
				"AdditionalPlantfood": 0,
				"Zombies": [
					{
						"Row": "4",
						"Type": "RTID(pirate@ZombieTypes)"
					},
					{
						"Row": "5",
						"Type": "RTID(pirate_armor1@ZombieTypes)"
					}
				]
			}
		},
		{
			"aliases": [
				"Wave6"
			],
			"objclass": "SpawnZombiesJitteredWaveActionProps",
			"objdata": {
				"AdditionalPlantfood": 1,
				"DynamicPlantfood": [
					1,
					1,
					1,
					1,
					1,
					0,
					1
				],
				"Zombies": [
					{
						"Row": "5",
						"Type": "RTID(pirate@ZombieTypes)"
					},
					{
						"Row": "4",
						"Type": "RTID(pirate@ZombieTypes)"
					},
					{
						"Row": "5",
						"Type": "RTID(pirate_armor1@ZombieTypes)"
					},
					{
						"Row": "1",
						"Type": "RTID(seagull@ZombieTypes)"
					}
				]
			}
		},
		{
			"aliases": [
				"Wave7"
			],
			"objclass": "SpawnZombiesJitteredWaveActionProps",
			"objdata": {
				"AdditionalPlantfood": 0,
				"Zombies": [
					{
						"Row": "3",
						"Type": "RTID(cannon@ZombieTypes)"
					},
					{
						"Row": "2",
						"Type": "RTID(cannon@ZombieTypes)"
					},
					{
						"Row": "5",
						"Type": "RTID(roman_ballista@ZombieTypes)"
					}
				]
			}
		},
		{
			"aliases": [
				"Wave8"
			],
			"objclass": "SpawnZombiesJitteredWaveActionProps",
			"objdata": {
				"Zombies": [
					{
						"Row": "1",
						"Type": "RTID(swashbuckler@ZombieTypes)"
					},
					{
						"Row": "2",
						"Type": "RTID(swashbuckler@ZombieTypes)"
					},
					{
						"Row": "3",
						"Type": "RTID(swashbuckler@ZombieTypes)"
					},
					{
						"Type": "RTID(pirate_captain@ZombieTypes)"
					},
					{
						"Row": "4",
						"Type": "RTID(pirate_armor2@ZombieTypes)"
					}
				]
			}
		},
		{
			"aliases": [
				"Wave9"
			],
			"objclass": "SpawnZombiesJitteredWaveActionProps",
			"objdata": {
				"AdditionalPlantfood": 1,
				"DynamicPlantfood": [
					1,
					1,
					1,
					1,
					0,
					1,
					0
				],
				"Zombies": [
					{
						"Row": "2",
						"Type": "RTID(swashbuckler@ZombieTypes)"
					},
					{
						"Row": "3",
						"Type": "RTID(seagull@ZombieTypes)"
					},
					{
						"Row": "4",
						"Type": "RTID(pirate@ZombieTypes)"
					},
					{
						"Row": "5",
						"Type": "RTID(pirate@ZombieTypes)"
					},
					{
						"Row": "5",
						"Type": "RTID(pirate_armor1@ZombieTypes)"
					}
				]
			}
		},
		{
			"aliases": [
				"Wave10"
			],
			"objclass": "SpawnZombiesJitteredWaveActionProps",
			"objdata": {
				"Zombies": [
					{
						"Row": "5",
						"Type": "RTID(barrelroller@ZombieTypes)"
					},
					{
						"Row": "4",
						"Type": "RTID(barrelroller@ZombieTypes)"
					}
				]
			}
		},
		{
			"aliases": [
				"Wave11"
			],
			"objclass": "SpawnZombiesJitteredWaveActionProps",
			"objdata": {
				"Zombies": [
					{
						"Row": "3",
						"Type": "RTID(seagull@ZombieTypes)"
					},
					{
						"Row": "4",
						"Type": "RTID(pirate@ZombieTypes)"
					},
					{
						"Row": "5",
						"Type": "RTID(pirate@ZombieTypes)"
					},
					{
						"Row": "4",
						"Type": "RTID(pirate@ZombieTypes)"
					},
					{
						"Row": "5",
						"Type": "RTID(pirate_armor2@ZombieTypes)"
					}
				]
			}
		},
		{
			"aliases": [
				"Wave12"
			],
			"objclass": "SpawnZombiesJitteredWaveActionProps",
			"objdata": {
				"Zombies": [
					{
						"Row": "1",
						"Type": "RTID(cannon@ZombieTypes)"
					},
					{
						"Row": "3",
						"Type": "RTID(cannon@ZombieTypes)"
					},
					{
						"Row": "5",
						"Type": "RTID(roman_ballista@ZombieTypes)"
					}
				]
			}
		},
		{
			"aliases": [
				"Wave13"
			],
			"objclass": "SpawnZombiesJitteredWaveActionProps",
			"objdata": {
				"AdditionalPlantfood": 1,
				"DynamicPlantfood": [
					1,
					1,
					1,
					1,
					1,
					0,
					1
				],
				"Zombies": [
					{
						"Row": "4",
						"Type": "RTID(pirate@ZombieTypes)"
					},
					{
						"Row": "5",
						"Type": "RTID(pirate@ZombieTypes)"
					},
					{
						"Row": "5",
						"Type": "RTID(pirate_armor2@ZombieTypes)"
					},
					{
						"Type": "RTID(pirate_captain@ZombieTypes)"
					}
				]
			}
		},
		{
			"aliases": [
				"Wave14"
			],
			"objclass": "SpawnZombiesJitteredWaveActionProps",
			"objdata": {
				"Zombies": [
					{
						"Row": "2",
						"Type": "RTID(cannon@ZombieTypes)"
					},
					{
						"Row": "4",
						"Type": "RTID(pirate@ZombieTypes)"
					},
					{
						"Row": "5",
						"Type": "RTID(pirate_armor1@ZombieTypes)"
					}
				]
			}
		},
		{
			"aliases": [
				"Wave15"
			],
			"objclass": "SpawnZombiesJitteredWaveActionProps",
			"objdata": {
				"AdditionalPlantfood": 0,
				"Zombies": [
					{
						"Row": "5",
						"Type": "RTID(pirate@ZombieTypes)"
					},
					{
						"Row": "4",
						"Type": "RTID(pirate@ZombieTypes)"
					},
					{
						"Row": "1",
						"Type": "RTID(seagull@ZombieTypes)"
					},
					{
						"Row": "2",
						"Type": "RTID(seagull@ZombieTypes)"
					},
					{
						"Row": "3",
						"Type": "RTID(seagull@ZombieTypes)"
					},
					{
						"Row": "4",
						"Type": "RTID(pirate_armor2@ZombieTypes)"
					}
				]
			}
		},
		{
			"aliases": [
				"Wave16"
			],
			"objclass": "SpawnZombiesJitteredWaveActionProps",
			"objdata": {
				"AdditionalPlantfood": 1,
				"DynamicPlantfood": [
					1,
					1,
					1,
					1,
					1,
					1,
					0
				],
				"Zombies": [
					{
						"Row": "1",
						"Type": "RTID(cannon@ZombieTypes)"
					},
					{
						"Row": "3",
						"Type": "RTID(cannon@ZombieTypes)"
					},
					{
						"Type": "RTID(pirate_captain@ZombieTypes)"
					},
					{
						"Row": "4",
						"Type": "RTID(pirate_armor2@ZombieTypes)"
					},
					{
						"Row": "5",
						"Type": "RTID(pirate_armor2@ZombieTypes)"
					}
				]
			}
		},
		{
			"aliases": [
				"Wave10RaidingPartyEvent0"
			],
			"objclass": "RaidingPartyZombieSpawnerProps",
			"objdata": {
				"GroupSize": 3,
				"SwashbucklerCount": 3,
				"TimeBetweenGroups": 1
			}
		},
		{
			"aliases": [
				"Wave16RaidingPartyEvent0"
			],
			"objclass": "RaidingPartyZombieSpawnerProps",
			"objdata": {
				"GroupSize": 5,
				"SwashbucklerCount": 5,
				"TimeBetweenGroups": 1
			}
		}
	],
	"version": 1
}