{
	"#comment": "rift070 v1",
	"objects": [
		{
			"objclass": "LevelDefinition",
			"objdata": {
				"Description": "[PLAYERS_TRIP_TO_RIFT]",
				"LevelNumber": "",
				"DisablePlantBoosts": false,
				"Loot": "",
				"Modules": [
					"RTID(DefaultSunDropper@LevelModules)",
					"RTID(StandardRiftIntro@LevelModules)",
					"RTID(ZombiesDeadWinCon@LevelModules)",
					"RTID(FutureMowers@LevelModules)",
					"RTID(SeedBank@CurrentLevel)",
					"RTID(DefaultZombieWinCondition@LevelModules)",
					"RTID(NewWaves@CurrentLevel)",
					"RTID(PerkActivator@CurrentLevel)",
					"RTID(WaveDuplicator@CurrentLevel)",
					"RTID(LevelDifficultyScaling@CurrentLevel)"
				],
				"MusicType": "MiniGame_A",
				"Name": "[RIFT_LEVEL_NAME]",
				"NormalPresentTable": "egypt_normal_01",
				"ShinyPresentTable": "egypt_shiny_01",
				"VictoryModule": "RTID(RiftOutro@LevelModules)",
				"StageModule": "RTID(RiftStage@LevelModules)",
				"LevelMutator": "RTID(LevelMutator@CurrentLevel)",
				"PerksDisabledInLevel": [
					"moarscore",
					"bossbustercannon",
					"zombieinhibitorballista"
				],
				"PerksDisabledPerDifficulty": [
					[],
					[],
					[]
				]
			}
		},
		{
			"aliases": [
				"WaveDuplicator"
			],
			"objclass": "WaveDuplicatorModuleProperties",
			"objdata": {
				"PeriodOfWavesToLoop": 5,
				"WaveSetsToAppend": 20
			}
		},
		{
			"aliases": [
				"PerkActivator"
			],
			"objclass": "PerkHandlerModuleProperties",
			"objdata": {}
		},
		{
			"aliases": [
				"LevelMutator"
			],
			"objclass": "LevelMutatorModuleProperties",
			"objdata": {
				"MutatorTables": [
					"RTID(MutatorPropsRiftNormal@LevelMutatorTables)",
					"RTID(LocalChallengeMutator@CurrentLevel)",
					"RTID(LocalMainChallengeMutator@CurrentLevel)",
					"RTID(MutatorGridRiftBoostTiles@LevelMutatorTables)"
				]
			}
		},
		{
			"aliases": [
				"LocalMainChallengeMutator"
			],
			"objclass": "LevelMutatorTableProps",
			"objdata": {
				"Tables": [
					{
						"Level": 0,
						"ModuleType": "mainchallenge",
						"Modules": [
							"RTID(LevelTimer1@CurrentLevel)"
						]
					},
					{
						"Level": 1,
						"ModuleType": "mainchallenge",
						"Modules": [
							"RTID(LevelTimer2@CurrentLevel)"
						]
					},
					{
						"Level": 2,
						"ModuleType": "mainchallenge",
						"Modules": [
							"RTID(LevelTimer3@CurrentLevel)"
						]
					}
				]
			}
		},
		{
			"aliases": [
				"LevelTimer1"
			],
			"objclass": "StarChallengeLevelTimerProperties",
			"objdata": {
				"TimeLimit": 180
			}
		},
		{
			"aliases": [
				"LevelTimer2"
			],
			"objclass": "StarChallengeLevelTimerProperties",
			"objdata": {
				"TimeLimit": 165
			}
		},
		{
			"aliases": [
				"LevelTimer3"
			],
			"objclass": "StarChallengeLevelTimerProperties",
			"objdata": {
				"TimeLimit": 150
			}
		},
		{
			"aliases": [
				"LocalChallengeMutator"
			],
			"objclass": "LevelMutatorTableProps",
			"objdata": {
				"Tables": [
					{
						"Level": 0,
						"ModuleType": "bonuschallenge",
						"Modules": [
							"RTID(DestroyGridItems1@CurrentLevel)"
						]
					},
					{
						"Level": 1,
						"ModuleType": "bonuschallenge",
						"Modules": [
							"RTID(DestroyGridItems2@CurrentLevel)",
							"RTID(DefeatZombiesOfType2@CurrentLevel)"
						]
					},
					{
						"Level": 2,
						"ModuleType": "bonuschallenge",
						"Modules": [
							"RTID(DestroyGridItems3@CurrentLevel)",
							"RTID(DefeatZombiesOfType3@CurrentLevel)"
						]
					}
				]
			}
		},
		{
			"aliases": [
				"DestroyGridItems1"
			],
			"objclass": "DestroyGridItemsChallengeProps",
			"objdata": {
				"ChallengeDescription": "[CHALLENGE_DESTROY_GRAVESTONES]",
				"GridItemType": "gravestone",
				"GridItemsToDestroy": 100
			}
		},
		{
			"aliases": [
				"DestroyGridItems2"
			],
			"objclass": "DestroyGridItemsChallengeProps",
			"objdata": {
				"ChallengeDescription": "[CHALLENGE_DESTROY_GRAVESTONES]",
				"GridItemType": "gravestone",
				"GridItemsToDestroy": 100
			}
		},
		{
			"aliases": [
				"DestroyGridItems3"
			],
			"objclass": "DestroyGridItemsChallengeProps",
			"objdata": {
				"ChallengeDescription": "[CHALLENGE_DESTROY_GRAVESTONES]",
				"GridItemType": "gravestone",
				"GridItemsToDestroy": 100
			}
		},
		{
			"aliases": [
				"DefeatZombiesOfType2"
			],
			"objclass": "DefeatZombiesOfTypeChallengeProps",
			"objdata": {
				"Description": "[DEFEAT_X_TOMBRAISERS]",
				"TypesToKill": {
					"ListType": "includelist",
					"List": [
						"tomb_raiser"
					]
				},
				"NumZombiesToKill": 125
			}
		},
		{
			"aliases": [
				"DefeatZombiesOfType3"
			],
			"objclass": "DefeatZombiesOfTypeChallengeProps",
			"objdata": {
				"Description": "[DEFEAT_X_TOMBRAISERS]",
				"TypesToKill": {
					"ListType": "includelist",
					"List": [
						"tomb_raiser"
					]
				},
				"NumZombiesToKill": 150
			}
		},
		{
			"aliases": [
				"SeedBank"
			],
			"objclass": "SeedBankProperties",
			"objdata": {
				"ExcludeListSunProducers": false,
				"PlantExcludeList": [],
				"SelectionMethod": "chooser"
			}
		},
		{
			"aliases": [
				"LevelDifficultyScaling"
			],
			"objclass": "LevelDifficultyScalingModuleProperties",
			"objdata": {
				"DifficultyRulesType": "RiftDifficulty",
				"ZombieLevelSwaps": [
					{
						"Level": 0,
						"Swaps": [
							{
								"From": "RTID(tomb_raiser@ZombieTypes)",
								"To": [
									"RTID(roman_armor2@ZombieTypes)",
									"RTID(tomb_raiser@ZombieTypes)",
									"RTID(tomb_raiser@ZombieTypes)",
									"RTID(tomb_raiser@ZombieTypes)",
									"RTID(tomb_raiser@ZombieTypes)"
								]
							}
						]
					},
					{
						"Level": 4,
						"Swaps": [
							{
								"From": "RTID(tomb_raiser@ZombieTypes)",
								"To": [
									"RTID(roman_armor3@ZombieTypes)",
									"RTID(modern_balloon@ZombieTypes)",
									"RTID(tomb_raiser@ZombieTypes)",
									"RTID(tomb_raiser@ZombieTypes)",
									"RTID(tomb_raiser@ZombieTypes)",
									"RTID(tomb_raiser@ZombieTypes)"
								]
							}
						]
					},
					{
						"Level": 7,
						"Swaps": [
							{
								"From": "RTID(tomb_raiser@ZombieTypes)",
								"To": [
									"RTID(lostcity_relichunter@ZombieTypes)",
									"RTID(roman_armor4@ZombieTypes)",
									"RTID(tomb_raiser@ZombieTypes)",
									"RTID(tomb_raiser@ZombieTypes)",
									"RTID(tomb_raiser@ZombieTypes)",
									"RTID(tomb_raiser@ZombieTypes)"
								]
							}
						]
					}
				]
			}
		},
		{
			"aliases": [
				"NewWaves"
			],
			"objclass": "WaveManagerModuleProperties",
			"objdata": {
				"DynamicZombies": [
					{
						"PointIncrementPerWave": 0,
						"StartingPoints": 0,
						"StartingWave": 0,
						"ZombiePool": []
					},
					{
						"PointIncrementPerWave": 0,
						"StartingPoints": 0,
						"StartingWave": 0,
						"ZombiePool": []
					},
					{
						"PointIncrementPerWave": 0,
						"StartingPoints": 0,
						"StartingWave": 0,
						"ZombiePool": []
					},
					{
						"MaxPoints": 1800,
						"PointIncrementPerWave": 300,
						"StartingPoints": 900,
						"StartingWave": 0,
						"ZombiePool": [
							"RTID(tomb_raiser@ZombieTypes)"
						]
					},
					{
						"PointIncrementPerWave": 0,
						"StartingPoints": 0,
						"StartingWave": 0,
						"ZombiePool": []
					},
					{
						"PointIncrementPerWave": 0,
						"StartingPoints": 0,
						"StartingWave": 0,
						"ZombiePool": []
					},
					{
						"PointIncrementPerWave": 0,
						"StartingPoints": 0,
						"StartingWave": 0,
						"ZombiePool": []
					}
				],
				"WaveManagerProps": "RTID(WaveManagerProps@CurrentLevel)"
			}
		},
		{
			"aliases": [
				"WaveManagerProps"
			],
			"objclass": "WaveManagerProperties",
			"objdata": {
				"FlagWaveInterval": 100,
				"WaveCount": 100,
				"WaveSpendingPointIncrement": 100,
				"WaveSpendingPoints": 150,
				"Waves": [
					[
						"RTID(Wave1@CurrentLevel)"
					],
					[
						"RTID(Wave2@CurrentLevel)"
					],
					[
						"RTID(Wave3@CurrentLevel)"
					],
					[
						"RTID(Wave4@CurrentLevel)"
					],
					[
						"RTID(Wave5@CurrentLevel)"
					],
					[
						"RTID(Wave6@CurrentLevel)"
					],
					[
						"RTID(Wave7@CurrentLevel)"
					],
					[
						"RTID(Wave8@CurrentLevel)"
					],
					[
						"RTID(Wave9@CurrentLevel)"
					],
					[
						"RTID(Wave10@CurrentLevel)"
					],
					[
						"RTID(Wave11@CurrentLevel)"
					],
					[
						"RTID(Wave12@CurrentLevel)"
					]
				],
				"WavesAlwaysRandomized": true
			}
		},
		{
			"aliases": [
				"Wave1"
			],
			"objclass": "SpawnZombiesJitteredWaveActionProps",
			"objdata": {
				"Zombies": []
			}
		},
		{
			"aliases": [
				"Wave2"
			],
			"objclass": "SpawnZombiesJitteredWaveActionProps",
			"objdata": {
				"Zombies": []
			}
		},
		{
			"aliases": [
				"Wave3"
			],
			"objclass": "SpawnZombiesJitteredWaveActionProps",
			"objdata": {
				"Zombies": []
			}
		},
		{
			"aliases": [
				"Wave4"
			],
			"objclass": "SpawnZombiesJitteredWaveActionProps",
			"objdata": {
				"Zombies": []
			}
		},
		{
			"aliases": [
				"Wave5"
			],
			"objclass": "SpawnZombiesJitteredWaveActionProps",
			"objdata": {
				"Zombies": []
			}
		},
		{
			"aliases": [
				"Wave6"
			],
			"objclass": "SpawnZombiesJitteredWaveActionProps",
			"objdata": {
				"Zombies": []
			}
		},
		{
			"aliases": [
				"Wave7"
			],
			"objclass": "SpawnZombiesJitteredWaveActionProps",
			"objdata": {
				"Zombies": []
			}
		},
		{
			"aliases": [
				"Wave8"
			],
			"objclass": "SpawnZombiesJitteredWaveActionProps",
			"objdata": {
				"Zombies": []
			}
		},
		{
			"aliases": [
				"Wave9"
			],
			"objclass": "SpawnZombiesJitteredWaveActionProps",
			"objdata": {
				"Zombies": []
			}
		},
		{
			"aliases": [
				"Wave10"
			],
			"objclass": "SpawnZombiesJitteredWaveActionProps",
			"objdata": {
				"Zombies": []
			}
		},
		{
			"aliases": [
				"Wave11"
			],
			"objclass": "SpawnZombiesJitteredWaveActionProps",
			"objdata": {
				"Zombies": []
			}
		},
		{
			"aliases": [
				"Wave12"
			],
			"objclass": "SpawnZombiesJitteredWaveActionProps",
			"objdata": {
				"Zombies": []
			}
		}
	],
	"version": 1
}