{
	"#comment": "Pirate 9 v1",
	"objects": [
		{
			"objclass": "LevelDefinition",
			"objdata": {
				"Description": "[PLAYERS_TRIP_TO_RIFT]",
				"DisablePlantBoosts": false,
				"LevelMutator": "RTID(LevelMutator@CurrentLevel)",
				"LevelNumber": "",
				"Loot": "",
				"Modules": [
					"RTID(DefaultSunDropper@LevelModules)",
					"RTID(StandardRiftIntro@LevelModules)",
					"RTID(ZombiesDeadWinCon@LevelModules)",
					"RTID(PirateMowers@LevelModules)",
					"RTID(PiratePlanks@CurrentLevel)",
					"RTID(SeedBank@CurrentLevel)",
					"RTID(DefaultZombieWinCondition@LevelModules)",
					"RTID(NewWaves@CurrentLevel)",
					"RTID(PerkActivator@CurrentLevel)",
					"RTID(LevelDifficultyScaling@CurrentLevel)"
				],
				"Name": "[RIFT_LEVEL_NAME]",
				"NormalPresentTable": "egypt_normal_01",
				"PerksDisabledInLevel": [
					"bossbustercannon",
					"moarscore"
				],
				"PerksDisabledPerDifficulty": [
					[],
					[],
					[]
				],
				"ShinyPresentTable": "egypt_shiny_01",
				"StageModule": "RTID(PirateStage@LevelModules)",
				"VictoryModule": "RTID(RiftOutro@LevelModules)"
			}
		},
		{
			"aliases": [
				"PerkActivator"
			],
			"objclass": "PerkHandlerModuleProperties",
			"objdata": {}
		},
		{
			"aliases": [
				"LevelMutator"
			],
			"objclass": "LevelMutatorModuleProperties",
			"objdata": {
				"MutatorTables": [
					"RTID(MutatorPropsRiftNormal@LevelMutatorTables)",
					"RTID(LocalChallengeMutator@CurrentLevel)",
					"RTID(LocalMainChallengeMutator@CurrentLevel)"
				]
			}
		},
		{
			"aliases": [
				"LocalMainChallengeMutator"
			],
			"objclass": "LevelMutatorTableProps",
			"objdata": {
				"Tables": [
					{
						"Level": 0,
						"ModuleType": "mainchallenge",
						"Modules": [
							"RTID(BeatTheLevel@CurrentLevel)"
						]
					},
					{
						"Level": 1,
						"ModuleType": "mainchallenge",
						"Modules": [
							"RTID(BeatTheLevel@CurrentLevel)"
						]
					},
					{
						"Level": 2,
						"ModuleType": "mainchallenge",
						"Modules": [
							"RTID(BeatTheLevel@CurrentLevel)"
						]
					}
				]
			}
		},
		{
			"aliases": [
				"BeatTheLevel"
			],
			"objclass": "StarChallengeBeatTheLevelProps",
			"objdata": {
				"Description": "[STARCHALLENGE_RIFT_NORMAL]",
				"DescriptiveName": "[STARCHALLENGE_RIFT_NORMAL_NAME]"
			}
		},
		{
			"aliases": [
				"LocalChallengeMutator"
			],
			"objclass": "LevelMutatorTableProps",
			"objdata": {
				"Tables": [
					{
						"Level": 0,
						"ModuleType": "bonuschallenge",
						"Modules": [
							"RTID(SunProduced1@CurrentLevel)"
						]
					},
					{
						"Level": 1,
						"ModuleType": "bonuschallenge",
						"Modules": [
							"RTID(ProtectThePlant@CurrentLevel)",
							"RTID(SunProduced2@CurrentLevel)"
						]
					},
					{
						"Level": 2,
						"ModuleType": "bonuschallenge",
						"Modules": [
							"RTID(ProtectThePlant@CurrentLevel)",
							"RTID(SunProduced3@CurrentLevel)"
						]
					}
				]
			}
		},
		{
			"aliases": [
				"ProtectThePlant"
			],
			"objclass": "ProtectThePlantChallengeProperties",
			"objdata": {
				"MustProtectCount": 2,
				"Plants": [
					{
						"GridX": 3,
						"GridY": 0,
						"PlantType": "zoybeanpod"
					},
					{
						"GridX": 3,
						"GridY": 1,
						"PlantType": "zoybeanpod"
					}
				]
			}
		},
		{
			"aliases": [
				"SunProduced1"
			],
			"objclass": "StarChallengeSunProducedProps",
			"objdata": {
				"TargetSun": 1000
			}
		},
		{
			"aliases": [
				"SunProduced2"
			],
			"objclass": "StarChallengeSunProducedProps",
			"objdata": {
				"TargetSun": 2000
			}
		},
		{
			"aliases": [
				"SunProduced3"
			],
			"objclass": "StarChallengeSunProducedProps",
			"objdata": {
				"TargetSun": 3000
			}
		},
		{
			"aliases": [
				"LevelDifficultyScaling"
			],
			"objclass": "LevelDifficultyScalingModuleProperties",
			"objdata": {
				"DifficultyRulesType": "RiftDifficulty",
				"ZombieLevelSwaps": [
					{
						"Level": 0,
						"Swaps": [
							{
								"From": "RTID(pirate@ZombieTypes)",
								"To": [
									"RTID(roman@ZombieTypes)",
									"RTID(spring@ZombieTypes)"
								]
							},
							{
								"From": "RTID(pirate_armor1@ZombieTypes)",
								"To": [
									"RTID(roman_armor1@ZombieTypes)",
									"RTID(spring_armor1@ZombieTypes)"
								]
							},
							{
								"From": "RTID(pirate_armor2@ZombieTypes)",
								"To": [
									"RTID(roman_armor2@ZombieTypes)",
									"RTID(spring_armor2@ZombieTypes)"
								]
							},
							{
								"From": "RTID(cannon@ZombieTypes)",
								"To": [
									"RTID(cannon@ZombieTypes)"
								]
							}
						]
					},
					{
						"Level": 4,
						"Swaps": [
							{
								"From": "RTID(pirate@ZombieTypes)",
								"To": [
									"RTID(roman_armor1@ZombieTypes)",
									"RTID(spring@ZombieTypes)"
								]
							},
							{
								"From": "RTID(pirate_armor1@ZombieTypes)",
								"To": [
									"RTID(roman_armor2@ZombieTypes)",
									"RTID(spring_armor1@ZombieTypes)"
								]
							},
							{
								"From": "RTID(pirate_armor2@ZombieTypes)",
								"To": [
									"RTID(roman_armor3@ZombieTypes)",
									"RTID(spring_armor2@ZombieTypes)"
								]
							},
							{
								"From": "RTID(cannon@ZombieTypes)",
								"To": [
									"RTID(roman_ballista@ZombieTypes)",
									"RTID(cannon@ZombieTypes)"
								]
							}
						]
					},
					{
						"Level": 7,
						"Swaps": [
							{
								"From": "RTID(pirate@ZombieTypes)",
								"To": [
									"RTID(roman_armor1@ZombieTypes)",
									"RTID(spring_armor1@ZombieTypes)"
								]
							},
							{
								"From": "RTID(pirate_armor1@ZombieTypes)",
								"To": [
									"RTID(roman_armor2@ZombieTypes)",
									"RTID(spring_armor2@ZombieTypes)"
								]
							},
							{
								"From": "RTID(pirate_armor2@ZombieTypes)",
								"To": [
									"RTID(roman_armor3@ZombieTypes)",
									"RTID(spring_armor2@ZombieTypes)"
								]
							},
							{
								"From": "RTID(cannon@ZombieTypes)",
								"To": [
									"RTID(roman_ballista@ZombieTypes)"
								]
							}
						]
					}
				]
			}
		},
		{
			"aliases": [
				"PiratePlanks"
			],
			"objclass": "PiratePlankProperties",
			"objdata": {
				"PlankRows": [
					0,
					1
				]
			}
		},
		{
			"aliases": [
				"SeedBank"
			],
			"objclass": "SeedBankProperties",
			"objdata": {
				"SelectionMethod": "chooser",
				"SuggestPlantList": [
					[
						"sunshroom",
						"twinsunflower"
					],
					[
						"endurian",
						"spikeweed"
					],
					[
						"lavaguava",
						"chilibean"
					],
					[
						"celerystalker",
						"splitpea"
					],
					[
						"guacodile",
						"primalpeashooter"
					],
					[
						"melonpult",
						"akee"
					],
					[
						"bloomerang",
						"lightningreed"
					],
					[
						"fumeshroom",
						"peapod"
					]
				]
			}
		},
		{
			"aliases": [
				"SunProduced"
			],
			"objclass": "StarChallengeSunProducedProps",
			"objdata": {
				"TargetSun": 3000
			}
		},
		{
			"aliases": [
				"NewWaves"
			],
			"objclass": "WaveManagerModuleProperties",
			"objdata": {
				"DynamicZombies": [
					{
						"PointIncrementPerWave": -40,
						"StartingPoints": -100,
						"StartingWave": 3,
						"ZombiePool": [
							"RTID(pirate@ZombieTypes)",
							"RTID(pirate_armor1@ZombieTypes)",
							"RTID(pirate_armor2@ZombieTypes)",
							"RTID(swashbuckler@ZombieTypes)"
						]
					},
					{
						"PointIncrementPerWave": -25,
						"StartingPoints": -100,
						"StartingWave": 4,
						"ZombiePool": [
							"RTID(pirate@ZombieTypes)",
							"RTID(pirate_armor1@ZombieTypes)",
							"RTID(pirate_armor2@ZombieTypes)",
							"RTID(swashbuckler@ZombieTypes)"
						]
					},
					{
						"PointIncrementPerWave": -10,
						"StartingPoints": -100,
						"StartingWave": 5,
						"ZombiePool": [
							"RTID(pirate@ZombieTypes)",
							"RTID(pirate_armor1@ZombieTypes)",
							"RTID(pirate_armor2@ZombieTypes)",
							"RTID(swashbuckler@ZombieTypes)"
						]
					},
					{
						"PointIncrementPerWave": 50,
						"StartingPoints": 100,
						"StartingWave": 5,
						"ZombiePool": [
							"RTID(pirate@ZombieTypes)",
							"RTID(pirate_armor1@ZombieTypes)",
							"RTID(pirate_armor2@ZombieTypes)",
							"RTID(swashbuckler@ZombieTypes)"
						]
					},
					{
						"PointIncrementPerWave": 20,
						"StartingPoints": 100,
						"StartingWave": 5,
						"ZombiePool": [
							"RTID(pirate@ZombieTypes)",
							"RTID(pirate_armor1@ZombieTypes)",
							"RTID(pirate_armor2@ZombieTypes)",
							"RTID(swashbuckler@ZombieTypes)"
						]
					},
					{
						"PointIncrementPerWave": 40,
						"StartingPoints": 200,
						"StartingWave": 4,
						"ZombiePool": [
							"RTID(pirate_armor1@ZombieTypes)",
							"RTID(pirate_armor2@ZombieTypes)",
							"RTID(swashbuckler@ZombieTypes)"
						]
					},
					{
						"PointIncrementPerWave": 60,
						"StartingPoints": 400,
						"StartingWave": 3,
						"ZombiePool": [
							"RTID(pirate_armor2@ZombieTypes)",
							"RTID(swashbuckler@ZombieTypes)"
						]
					}
				],
				"WaveManagerProps": "RTID(WaveManagerProps@CurrentLevel)"
			}
		},
		{
			"aliases": [
				"WaveManagerProps"
			],
			"objclass": "WaveManagerProperties",
			"objdata": {
				"FlagWaveInterval": 8,
				"WaveCount": 16,
				"WaveSpendingPointIncrement": 50,
				"WaveSpendingPoints": 100,
				"Waves": [
					[
						"RTID(Wave1@CurrentLevel)"
					],
					[
						"RTID(Wave2@CurrentLevel)"
					],
					[
						"RTID(Wave3@CurrentLevel)"
					],
					[
						"RTID(Wave4@CurrentLevel)"
					],
					[
						"RTID(Wave5@CurrentLevel)"
					],
					[
						"RTID(Wave6@CurrentLevel)"
					],
					[
						"RTID(Wave7@CurrentLevel)"
					],
					[
						"RTID(Wave8@CurrentLevel)"
					],
					[
						"RTID(Wave9@CurrentLevel)"
					],
					[
						"RTID(Wave10@CurrentLevel)"
					],
					[
						"RTID(Wave11@CurrentLevel)"
					],
					[
						"RTID(Wave12@CurrentLevel)"
					],
					[
						"RTID(Wave13@CurrentLevel)"
					],
					[
						"RTID(Wave14@CurrentLevel)"
					],
					[
						"RTID(Wave15@CurrentLevel)"
					],
					[
						"RTID(Wave16@CurrentLevel)"
					]
				]
			}
		},
		{
			"aliases": [
				"Wave1"
			],
			"objclass": "SpawnZombiesJitteredWaveActionProps",
			"objdata": {
				"Zombies": [
					{
						"Type": "RTID(pirate@ZombieTypes)"
					}
				]
			}
		},
		{
			"aliases": [
				"Wave2"
			],
			"objclass": "SpawnZombiesJitteredWaveActionProps",
			"objdata": {
				"Zombies": [
					{
						"Type": "RTID(pirate@ZombieTypes)"
					}
				]
			}
		},
		{
			"aliases": [
				"Wave3"
			],
			"objclass": "SpawnZombiesJitteredWaveActionProps",
			"objdata": {
				"Zombies": [
					{
						"Type": "RTID(pirate@ZombieTypes)"
					},
					{
						"Type": "RTID(pirate@ZombieTypes)"
					}
				]
			}
		},
		{
			"aliases": [
				"Wave4"
			],
			"objclass": "SpawnZombiesJitteredWaveActionProps",
			"objdata": {
				"Zombies": [
					{
						"Type": "RTID(pirate_captain@ZombieTypes)"
					}
				]
			}
		},
		{
			"aliases": [
				"Wave5"
			],
			"objclass": "SpawnZombiesJitteredWaveActionProps",
			"objdata": {
				"Zombies": [
					{
						"Type": "RTID(pirate@ZombieTypes)"
					},
					{
						"Type": "RTID(pirate_armor1@ZombieTypes)"
					}
				]
			}
		},
		{
			"aliases": [
				"Wave6"
			],
			"objclass": "SpawnZombiesJitteredWaveActionProps",
			"objdata": {
				"Zombies": [
					{
						"Type": "RTID(pirate@ZombieTypes)"
					},
					{
						"Row": "5",
						"Type": "RTID(swashbuckler@ZombieTypes)"
					},
					{
						"Row": "3",
						"Type": "RTID(swashbuckler@ZombieTypes)"
					}
				]
			}
		},
		{
			"aliases": [
				"Wave7"
			],
			"objclass": "SpawnZombiesJitteredWaveActionProps",
			"objdata": {
				"AdditionalPlantfood": 1,
				"Zombies": [
					{
						"Type": "RTID(pirate@ZombieTypes)"
					},
					{
						"Type": "RTID(pirate@ZombieTypes)"
					},
					{
						"Row": "2",
						"Type": "RTID(pirate_armor1@ZombieTypes)"
					}
				]
			}
		},
		{
			"aliases": [
				"Wave8"
			],
			"objclass": "SpawnZombiesJitteredWaveActionProps",
			"objdata": {
				"Zombies": [
					{
						"Type": "RTID(pirate@ZombieTypes)"
					},
					{
						"Row": "5",
						"Type": "RTID(swashbuckler@ZombieTypes)"
					},
					{
						"Type": "RTID(pirate@ZombieTypes)"
					},
					{
						"Row": "2",
						"Type": "RTID(cannon@ZombieTypes)"
					},
					{
						"Row": "1",
						"Type": "RTID(cannon@ZombieTypes)"
					},
					{
						"Type": "RTID(pirate_armor1@ZombieTypes)"
					},
					{
						"Row": "3",
						"Type": "RTID(swashbuckler@ZombieTypes)"
					},
					{
						"Row": "4",
						"Type": "RTID(swashbuckler@ZombieTypes)"
					}
				]
			}
		},
		{
			"aliases": [
				"Wave9"
			],
			"objclass": "SpawnZombiesJitteredWaveActionProps",
			"objdata": {
				"Zombies": [
					{
						"Row": "1",
						"Type": "RTID(pirate@ZombieTypes)"
					},
					{
						"Row": "2",
						"Type": "RTID(pirate@ZombieTypes)"
					},
					{
						"Type": "RTID(pirate_armor1@ZombieTypes)"
					}
				]
			}
		},
		{
			"aliases": [
				"Wave10"
			],
			"objclass": "SpawnZombiesJitteredWaveActionProps",
			"objdata": {
				"Zombies": [
					{
						"Type": "RTID(pirate_captain@ZombieTypes)"
					}
				]
			}
		},
		{
			"aliases": [
				"Wave11"
			],
			"objclass": "SpawnZombiesJitteredWaveActionProps",
			"objdata": {
				"Zombies": [
					{
						"Type": "RTID(pirate@ZombieTypes)"
					},
					{
						"Type": "RTID(swashbuckler@ZombieTypes)"
					},
					{
						"Type": "RTID(pirate@ZombieTypes)"
					},
					{
						"Type": "RTID(pirate_armor1@ZombieTypes)"
					}
				]
			}
		},
		{
			"aliases": [
				"Wave12"
			],
			"objclass": "SpawnZombiesJitteredWaveActionProps",
			"objdata": {
				"Zombies": [
					{
						"Type": "RTID(pirate@ZombieTypes)"
					},
					{
						"Row": "1",
						"Type": "RTID(cannon@ZombieTypes)"
					},
					{
						"Row": "2",
						"Type": "RTID(cannon@ZombieTypes)"
					},
					{
						"Type": "RTID(pirate@ZombieTypes)"
					},
					{
						"Type": "RTID(pirate_armor1@ZombieTypes)"
					}
				]
			}
		},
		{
			"aliases": [
				"Wave13"
			],
			"objclass": "SpawnZombiesJitteredWaveActionProps",
			"objdata": {
				"AdditionalPlantfood": 1,
				"Zombies": [
					{
						"Type": "RTID(pirate_armor2@ZombieTypes)"
					},
					{
						"Type": "RTID(swashbuckler@ZombieTypes)"
					}
				]
			}
		},
		{
			"aliases": [
				"Wave14"
			],
			"objclass": "SpawnZombiesJitteredWaveActionProps",
			"objdata": {
				"Zombies": [
					{
						"Type": "RTID(pirate_captain@ZombieTypes)"
					},
					{
						"Type": "RTID(pirate@ZombieTypes)"
					}
				]
			}
		},
		{
			"aliases": [
				"Wave15"
			],
			"objclass": "SpawnZombiesJitteredWaveActionProps",
			"objdata": {
				"Zombies": [
					{
						"Type": "RTID(pirate_armor2@ZombieTypes)"
					},
					{
						"Type": "RTID(pirate_armor1@ZombieTypes)"
					},
					{
						"Type": "RTID(pirate@ZombieTypes)"
					}
				]
			}
		},
		{
			"aliases": [
				"Wave16"
			],
			"objclass": "SpawnZombiesJitteredWaveActionProps",
			"objdata": {
				"Zombies": [
					{
						"Row": "2",
						"Type": "RTID(roman_ballista@ZombieTypes)"
					},
					{
						"Row": "1",
						"Type": "RTID(roman_ballista@ZombieTypes)"
					},
					{
						"Type": "RTID(pirate@ZombieTypes)"
					},
					{
						"Type": "RTID(pirate_armor2@ZombieTypes)"
					},
					{
						"Type": "RTID(pirate_armor1@ZombieTypes)"
					},
					{
						"Type": "RTID(pirate@ZombieTypes)"
					},
					{
						"Row": "3",
						"Type": "RTID(swashbuckler@ZombieTypes)"
					},
					{
						"Row": "4",
						"Type": "RTID(swashbuckler@ZombieTypes)"
					},
					{
						"Row": "5",
						"Type": "RTID(swashbuckler@ZombieTypes)"
					},
					{
						"Type": "RTID(pirate_captain@ZombieTypes)"
					}
				]
			}
		}
	],
	"version": 1
}