{
    "#comment": "Daily Quest Schedule",
    "version": 1,
    "objects": [
        {
            "objclass": "DailyQuestSchedule",
            "aliases": [
                "DailyQuestSchedule"
            ],
            "objdata": {
                "DailyQuestScheduleDefinitions": [
                    {
                        "DailyQuestDefinitions": [
                            {
                                "CompletionRequirement": 1
                            }
                        ]
                    }
                ]
            }
        }
    ]
}