{
    "#comment": "Your own personal configuration file. Make changes here, do not check in to p4.",
    "version": 1,
    "objects": [
        {
            "objclass": "PersonalConfig",
            "objdata": {
                "StartingConfig": "",
                "SpringBeanURL": "http://sea-16026-mac.eamobile.ad.ea.com:8000/"
            }
        }
    ]
}