{
	"objects": [ {
			"aliases": [ "RiftSandboxSubEvent" ],
			"objclass": "RiftSubEventProperties",
			"objdata": {
				"AddedLevelModules": [ "RTID(MutatorBuffRift1A@LevelMutatorModules)" ],
				"Description": "[ZOMBOSS_GRAND_PRIZE_GENERIC]",
				"FeaturedPlant": "explodeonut",
				"PennyTechPerBonusObjective": 1
			}
		}, {
			"aliases": [ "Rift1ASoftLaunchSubEvent" ],
			"objclass": "RiftSubEventProperties",
			"objdata": {
				"AddedLevelModules": [ "RTID(MutatorBuffRift1A@LevelMutatorModules)" ],
				"Description": "[ZOMBOSS_GRAND_PRIZE_GENERIC]",
				"FeaturedPlant": "none",
				"PennyTechPerBonusObjective": 1
			}
		}, {
			"aliases": [ "Rift1BSoftLaunchSubEvent" ],
			"objclass": "RiftSubEventProperties",
			"objdata": {
				"AddedLevelModules": [ "RTID(MutatorBuffRift1A@LevelMutatorModules)" ],
				"Description": "[ZOMBOSS_GRAND_PRIZE_GENERIC]",
				"FeaturedPlant": "none",
				"PennyTechPerBonusObjective": 1
			}
		}, {
			"aliases": [ "Rift2HotdateSubEvent" ],
			"objclass": "RiftSubEventProperties",
			"objdata": {
				"AddedLevelModules": [ "RTID(MutatorBuffRift1A@LevelMutatorModules)" ],
				"Description": "[ZOMBOSS_GRAND_PRIZE_GENERIC]",
				"FeaturedPlant": "hotdate",
				"PennyTechPerBonusObjective": 1
			}
		}, {
			"aliases": [ "Rift3ExplodeonutSubEvent" ],
			"objclass": "RiftSubEventProperties",
			"objdata": {
				"AddedLevelModules": [ "RTID(MutatorBuffRift1A@LevelMutatorModules)" ],
				"Description": "[ZOMBOSS_GRAND_PRIZE_GENERIC]",
				"FeaturedPlant": "explodeonut",
				"PennyTechPerBonusObjective": 1
			}
		}, {
			"aliases": [ "Rift4StarfruitSubEvent" ],
			"objclass": "RiftSubEventProperties",
			"objdata": {
				"AddedLevelModules": [ "RTID(MutatorBuffRift1A@LevelMutatorModules)" ],
				"Description": "[ZOMBOSS_GRAND_PRIZE_GENERIC]",
				"FeaturedPlant": "starfruit",
				"PennyTechPerBonusObjective": 1
			}
		}, {
			"aliases": [ "Rift5SolartomatoSubEvent" ],
			"objclass": "RiftSubEventProperties",
			"objdata": {
				"AddedLevelModules": [ "RTID(MutatorBuffRift1A@LevelMutatorModules)" ],
				"Description": "[ZOMBOSS_GRAND_PRIZE_GENERIC]",
				"FeaturedPlant": "solartomato",
				"PennyTechPerBonusObjective": 1
			}
		}, {
			"aliases": [ "Rift6BombegranateSubEvent" ],
			"objclass": "RiftSubEventProperties",
			"objdata": {
				"AddedLevelModules": [ "RTID(MutatorBuffRift1A@LevelMutatorModules)" ],
				"Description": "[ZOMBOSS_GRAND_PRIZE_GENERIC]",
				"FeaturedPlant": "bombegranate",
				"PennyTechPerBonusObjective": 1
			}
		}, {
			"aliases": [ "Rift7DandelionSubEvent" ],
			"objclass": "RiftSubEventProperties",
			"objdata": {
				"AddedLevelModules": [ "RTID(MutatorBuffRift1A@LevelMutatorModules)" ],
				"Description": "[ZOMBOSS_GRAND_PRIZE_GENERIC]",
				"FeaturedPlant": "dandelion",
				"PennyTechPerBonusObjective": 1
			}
		}, {
			"aliases": [ "Rift8ChomperSubEvent" ],
			"objclass": "RiftSubEventProperties",
			"objdata": {
				"AddedLevelModules": [ "RTID(MutatorBuffRift1A@LevelMutatorModules)" ],
				"Description": "[ZOMBOSS_GRAND_PRIZE_GENERIC]",
				"FeaturedPlant": "chomper",
				"PennyTechPerBonusObjective": 1
			}
		}, {
			"aliases": [ "Rift9KiwibeastSubEvent" ],
			"objclass": "RiftSubEventProperties",
			"objdata": {
				"AddedLevelModules": [ "RTID(MutatorBuffRift1A@LevelMutatorModules)" ],
				"Description": "[ZOMBOSS_GRAND_PRIZE_GENERIC]",
				"FeaturedPlant": "kiwibeast",
				"PennyTechPerBonusObjective": 1
			}
		}, {
			"aliases": [ "Rift10ShadowpeashooterSubEvent" ],
			"objclass": "RiftSubEventProperties",
			"objdata": {
				"AddedLevelModules": [ "RTID(MutatorBuffRift1A@LevelMutatorModules)" ],
				"Description": "[ZOMBOSS_GRAND_PRIZE_GENERIC]",
				"FeaturedPlant": "shadowpeashooter",
				"PennyTechPerBonusObjective": 1
			}
		}, {
			"aliases": [ "Rift11AloeSubEvent" ],
			"objclass": "RiftSubEventProperties",
			"objdata": {
				"AddedLevelModules": [ "RTID(MutatorBuffRift1A@LevelMutatorModules)" ],
				"Description": "[ZOMBOSS_GRAND_PRIZE_GENERIC]",
				"FeaturedPlant": "aloe",
				"PennyTechPerBonusObjective": 1
			}
		}, {
			"aliases": [ "Rift12ExplodeonutSubEvent" ],
			"objclass": "RiftSubEventProperties",
			"objdata": {
				"AddedLevelModules": [ "RTID(MutatorBuffRift1A@LevelMutatorModules)" ],
				"Description": "[ZOMBOSS_GRAND_PRIZE_GENERIC]",
				"FeaturedPlant": "explodeonut",
				"PennyTechPerBonusObjective": 1
			}
		}, {
			"aliases": [ "RiftFutureSubEvent" ],
			"objclass": "RiftSubEventProperties",
			"objdata": {
				"AddedLevelModules": [ "RTID(MutatorBuffRift1A@LevelMutatorModules)" ],
				"Description": "[ZOMBOSS_GRAND_PRIZE_GENERIC]",
				"FeaturedPlant": "none",
				"PennyTechPerBonusObjective": 1
			}
		}, {
			"aliases": [ "Rift14DazeychainSubEvent" ],
			"objclass": "RiftSubEventProperties",
			"objdata": {
				"AddedLevelModules": [ "RTID(MutatorBuffRift1A@LevelMutatorModules)" ],
				"Description": "[ZOMBOSS_GRAND_PRIZE_GENERIC]",
				"FeaturedPlant": "dazeychain",
				"PennyTechPerBonusObjective": 1
			}
		}, {
			"aliases": [ "Rift15ZoybeanpodSubEvent" ],
			"objclass": "RiftSubEventProperties",
			"objdata": {
				"AddedLevelModules": [ "RTID(MutatorBuffRift1A@LevelMutatorModules)" ],
				"Description": "[ZOMBOSS_GRAND_PRIZE_GENERIC]",
				"FeaturedPlant": "zoybeanpod",
				"PennyTechPerBonusObjective": 1
			}
		}, {
			"aliases": [ "RiftDarkSubEvent" ],
			"objclass": "RiftSubEventProperties",
			"objdata": {
				"AddedLevelModules": [ "RTID(MutatorBuffRift1A@LevelMutatorModules)" ],
				"Description": "[ZOMBOSS_GRAND_PRIZE_GENERIC]",
				"FeaturedPlant": "none",
				"PennyTechPerBonusObjective": 1
			}
		}, {
			"aliases": [ "Rift17PowerlilySubEvent" ],
			"objclass": "RiftSubEventProperties",
			"objdata": {
				"AddedLevelModules": [ "RTID(MutatorBuffRift1A@LevelMutatorModules)" ],
				"Description": "[ZOMBOSS_GRAND_PRIZE_GENERIC]",
				"FeaturedPlant": "powerlily",
				"PennyTechPerBonusObjective": 1
			}
		}, {
			"aliases": [ "Rift18SapflingSubEvent" ],
			"objclass": "RiftSubEventProperties",
			"objdata": {
				"AddedLevelModules": [ "RTID(MutatorBuffRift1A@LevelMutatorModules)" ],
				"Description": "[ZOMBOSS_GRAND_PRIZE_GENERIC]",
				"FeaturedPlant": "sapfling",
				"PennyTechPerBonusObjective": 1
			}
		}, {
			"aliases": [ "Rift19DazeychainSubEvent" ],
			"objclass": "RiftSubEventProperties",
			"objdata": {
				"AddedLevelModules": [ "RTID(MutatorBuffRift1A@LevelMutatorModules)" ],
				"Description": "[ZOMBOSS_GRAND_PRIZE_GENERIC]",
				"FeaturedPlant": "dazeychain",
				"PennyTechPerBonusObjective": 1
			}
		}, {
			"aliases": [ "RiftPirateSubEvent" ],
			"objclass": "RiftSubEventProperties",
			"objdata": {
				"AddedLevelModules": [ "RTID(MutatorBuffRift1A@LevelMutatorModules)" ],
				"Description": "[ZOMBOSS_GRAND_PRIZE_GENERIC]",
				"FeaturedPlant": "none",
				"PennyTechPerBonusObjective": 1
			}
		}, {
			"aliases": [ "Rift21BloomingheartsSubEvent" ],
			"objclass": "RiftSubEventProperties",
			"objdata": {
				"AddedLevelModules": [ "RTID(MutatorBuffRift1A@LevelMutatorModules)" ],
				"Description": "[ZOMBOSS_GRAND_PRIZE_GENERIC]",
				"FeaturedPlant": "bloominghearts",
				"PennyTechPerBonusObjective": 1
			}
		}, {
			"aliases": [ "Rift22GumnutSubEvent" ],
			"objclass": "RiftSubEventProperties",
			"objdata": {
				"AddedLevelModules": [ "RTID(MutatorBuffRift1A@LevelMutatorModules)" ],
				"Description": "[ZOMBOSS_GRAND_PRIZE_GENERIC]",
				"FeaturedPlant": "gumnut",
				"PennyTechPerBonusObjective": 1
			}
		}, {
			"aliases": [ "Rift23HotdateSubEvent" ],
			"objclass": "RiftSubEventProperties",
			"objdata": {
				"AddedLevelModules": [ "RTID(MutatorBuffRift1A@LevelMutatorModules)" ],
				"Description": "[ZOMBOSS_GRAND_PRIZE_GENERIC]",
				"FeaturedPlant": "hotdate",
				"PennyTechPerBonusObjective": 1
			}
		}, {
			"aliases": [ "Rift24EscapeRootSubEvent" ],
			"objclass": "RiftSubEventProperties",
			"objdata": {
				"AddedLevelModules": [ "RTID(MutatorBuffRift1A@LevelMutatorModules)" ],
				"Description": "[ZOMBOSS_GRAND_PRIZE_GENERIC]",
				"FeaturedPlant": "escaperoot",
				"PennyTechPerBonusObjective": 1
			}
		}, {
			"aliases": [ "RiftLostcitySubEvent" ],
			"objclass": "RiftSubEventProperties",
			"objdata": {
				"AddedLevelModules": [ "RTID(MutatorBuffRift1A@LevelMutatorModules)" ],
				"Description": "[ZOMBOSS_GRAND_PRIZE_GENERIC]",
				"FeaturedPlant": "none",
				"PennyTechPerBonusObjective": 1
			}
		}, {
			"aliases": [ "Rift26ShadowpeashooterSubEvent" ],
			"objclass": "RiftSubEventProperties",
			"objdata": {
				"AddedLevelModules": [ "RTID(MutatorBuffRift1A@LevelMutatorModules)" ],
				"Description": "[ZOMBOSS_GRAND_PRIZE_GENERIC]",
				"FeaturedPlant": "shadowpeashooter",
				"PennyTechPerBonusObjective": 1
			}
		}, {
			"aliases": [ "Rift27ElectricblueberrySubEvent" ],
			"objclass": "RiftSubEventProperties",
			"objdata": {
				"AddedLevelModules": [ "RTID(MutatorBuffRift1A@LevelMutatorModules)" ],
				"Description": "[ZOMBOSS_GRAND_PRIZE_GENERIC]",
				"FeaturedPlant": "electricblueberry",
				"PennyTechPerBonusObjective": 1
			}
		}, {
			"aliases": [ "Rift28WasabiwhipSubEvent" ],
			"objclass": "RiftSubEventProperties",
			"objdata": {
				"AddedLevelModules": [ "RTID(MutatorBuffRift1A@LevelMutatorModules)" ],
				"Description": "[ZOMBOSS_GRAND_PRIZE_GENERIC]",
				"FeaturedPlant": "wasabiwhip",
				"PennyTechPerBonusObjective": 1
			}
		}, {
			"aliases": [ "Rift29BlastBerrySubEvent" ],
			"objclass": "RiftSubEventProperties",
			"objdata": {
				"AddedLevelModules": [ "RTID(MutatorBuffRift1A@LevelMutatorModules)" ],
				"Description": "[ZOMBOSS_GRAND_PRIZE_GENERIC]",
				"FeaturedPlant": "blastberry",
				"PennyTechPerBonusObjective": 1
			}
		}, {
			"aliases": [ "Rift30AppleMortarSubEvent" ],
			"objclass": "RiftSubEventProperties",
			"objdata": {
				"AddedLevelModules": [ "RTID(MutatorBuffRift1A@LevelMutatorModules)" ],
				"Description": "[ZOMBOSS_GRAND_PRIZE_GENERIC]",
				"FeaturedPlant": "applemortar",
				"PennyTechPerBonusObjective": 1
			}
		}, {
			"aliases": [ "Rift31SlingPeaSubEvent" ],
			"objclass": "RiftSubEventProperties",
			"objdata": {
				"AddedLevelModules": [ "RTID(MutatorBuffRift1A@LevelMutatorModules)" ],
				"Description": "[ZOMBOSS_GRAND_PRIZE_GENERIC]",
				"FeaturedPlant": "slingpea",
				"PennyTechPerBonusObjective": 1
			}
		}, {
			"aliases": [ "Rift32BombegranateSubEvent" ],
			"objclass": "RiftSubEventProperties",
			"objdata": {
				"AddedLevelModules": [ "RTID(MutatorBuffRift1A@LevelMutatorModules)" ],
				"Description": "[ZOMBOSS_GRAND_PRIZE_GENERIC]",
				"FeaturedPlant": "bombegranate",
				"PennyTechPerBonusObjective": 1
			}
		}, {
			"aliases": [ "Rift33PyreVineSubEvent" ],
			"objclass": "RiftSubEventProperties",
			"objdata": {
				"AddedLevelModules": [ "RTID(MutatorBuffRift1A@LevelMutatorModules)" ],
				"Description": "[ZOMBOSS_GRAND_PRIZE_GENERIC]",
				"FeaturedPlant": "pyrevine",
				"PennyTechPerBonusObjective": 1
			}
		}, {
			"aliases": [ "Rift34SnowPeaSubEvent" ],
			"objclass": "RiftSubEventProperties",
			"objdata": {
				"AddedLevelModules": [ "RTID(MutatorBuffRift1A@LevelMutatorModules)" ],
				"Description": "[ZOMBOSS_GRAND_PRIZE_GENERIC]",
				"FeaturedPlant": "snowpea",
				"PennyTechPerBonusObjective": 1
			}
		}, {
			"aliases": [ "RiftCowboySubEvent" ],
			"objclass": "RiftSubEventProperties",
			"objdata": {
				"AddedLevelModules": [ "RTID(MutatorBuffRift1A@LevelMutatorModules)" ],
				"Description": "[ZOMBOSS_GRAND_PRIZE_GENERIC]",
				"FeaturedPlant": "none",
				"PennyTechPerBonusObjective": 1
			}
		}, {
			"aliases": [ "Rift36StarfruitSubEvent" ],
			"objclass": "RiftSubEventProperties",
			"objdata": {
				"AddedLevelModules": [ "RTID(MutatorBuffRift1A@LevelMutatorModules)" ],
				"Description": "[ZOMBOSS_GRAND_PRIZE_GENERIC]",
				"FeaturedPlant": "starfruit",
				"PennyTechPerBonusObjective": 1
			}
		}, {
			"aliases": [ "Rift37TumbleweedSubEvent" ],
			"objclass": "RiftSubEventProperties",
			"objdata": {
				"AddedLevelModules": [ "RTID(MutatorBuffRift1A@LevelMutatorModules)" ],
				"Description": "[ZOMBOSS_GRAND_PRIZE_GENERIC]",
				"FeaturedPlant": "tumbleweed",
				"PennyTechPerBonusObjective": 1
			}
		}, {
			"aliases": [ "Rift38PowerlilySubEvent" ],
			"objclass": "RiftSubEventProperties",
			"objdata": {
				"AddedLevelModules": [ "RTID(MutatorBuffRift1A@LevelMutatorModules)" ],
				"Description": "[ZOMBOSS_GRAND_PRIZE_GENERIC]",
				"FeaturedPlant": "powerlily",
				"PennyTechPerBonusObjective": 1
			}
		}, {
			"aliases": [ "Rift39WitchHazelSubEvent" ],
			"objclass": "RiftSubEventProperties",
			"objdata": {
				"AddedLevelModules": [ "RTID(MutatorBuffRift1A@LevelMutatorModules)" ],
				"Description": "[ZOMBOSS_GRAND_PRIZE_GENERIC]",
				"FeaturedPlant": "witchhazel",
				"PennyTechPerBonusObjective": 1
			}
		}, {
			"aliases": [ "Rift40CaulipowerSubEvent" ],
			"objclass": "RiftSubEventProperties",
			"objdata": {
				"AddedLevelModules": [ "RTID(MutatorBuffRift1A@LevelMutatorModules)" ],
				"Description": "[ZOMBOSS_GRAND_PRIZE_GENERIC]",
				"FeaturedPlant": "caulipower",
				"PennyTechPerBonusObjective": 1
			}
		}, {
			"aliases": [ "Rift41ZoyBeanPodSubEvent" ],
			"objclass": "RiftSubEventProperties",
			"objdata": {
				"AddedLevelModules": [ "RTID(MutatorBuffRift1A@LevelMutatorModules)" ],
				"Description": "[ZOMBOSS_GRAND_PRIZE_GENERIC]",
				"FeaturedPlant": "zoybeanpod",
				"PennyTechPerBonusObjective": 1
			}
		}, {
			"aliases": [ "Rift42ImpPearSubEvent" ],
			"objclass": "RiftSubEventProperties",
			"objdata": {
				"AddedLevelModules": [ "RTID(MutatorBuffRift1A@LevelMutatorModules)" ],
				"Description": "[ZOMBOSS_GRAND_PRIZE_GENERIC]",
				"FeaturedPlant": "imppear",
				"PennyTechPerBonusObjective": 1
			}
		}, {
			"aliases": [ "Rift43GumNutSubEvent" ],
			"objclass": "RiftSubEventProperties",
			"objdata": {
				"AddedLevelModules": [ "RTID(MutatorBuffRift1A@LevelMutatorModules)" ],
				"Description": "[ZOMBOSS_GRAND_PRIZE_GENERIC]",
				"FeaturedPlant": "gumnut",
				"PennyTechPerBonusObjective": 1
			}
		}, {
			"aliases": [ "Rift44ShadowPeashooterSubEvent" ],
			"objclass": "RiftSubEventProperties",
			"objdata": {
				"AddedLevelModules": [ "RTID(MutatorBuffRift1A@LevelMutatorModules)" ],
				"Description": "[ZOMBOSS_GRAND_PRIZE_GENERIC]",
				"FeaturedPlant": "shadowpeashooter",
				"PennyTechPerBonusObjective": 1
			}
		}, {
			"aliases": [ "Rift45MurkadamiaNutSubEvent" ],
			"objclass": "RiftSubEventProperties",
			"objdata": {
				"AddedLevelModules": [ "RTID(MutatorBuffRift1A@LevelMutatorModules)" ],
				"Description": "[ZOMBOSS_GRAND_PRIZE_GENERIC]",
				"FeaturedPlant": "murkadamia",
				"PennyTechPerBonusObjective": 1
			}
		}, {
			"aliases": [ "Rift46PokraSubEvent" ],
			"objclass": "RiftSubEventProperties",
			"objdata": {
				"AddedLevelModules": [ "RTID(MutatorBuffRift1A@LevelMutatorModules)" ],
				"Description": "[ZOMBOSS_GRAND_PRIZE_GENERIC]",
				"FeaturedPlant": "pokra",
				"PennyTechPerBonusObjective": 1
			}
		}, {
			"aliases": [ "Rift47DandelionSubEvent" ],
			"objclass": "RiftSubEventProperties",
			"objdata": {
				"AddedLevelModules": [ "RTID(MutatorBuffRift1A@LevelMutatorModules)" ],
				"Description": "[ZOMBOSS_GRAND_PRIZE_GENERIC]",
				"FeaturedPlant": "dandelion",
				"PennyTechPerBonusObjective": 1
			}
		}, {
			"aliases": [ "Rift48OlivePitSubEvent" ],
			"objclass": "RiftSubEventProperties",
			"objdata": {
				"AddedLevelModules": [ "RTID(MutatorBuffRift1A@LevelMutatorModules)" ],
				"Description": "[ZOMBOSS_GRAND_PRIZE_GENERIC]",
				"FeaturedPlant": "olivepit",
				"PennyTechPerBonusObjective": 1
			}
		}, {
			"aliases": [ "Rift49DazeyChainSubEvent" ],
			"objclass": "RiftSubEventProperties",
			"objdata": {
				"AddedLevelModules": [ "RTID(MutatorBuffRift1A@LevelMutatorModules)" ],
				"Description": "[ZOMBOSS_GRAND_PRIZE_GENERIC]",
				"FeaturedPlant": "dazeychain",
				"PennyTechPerBonusObjective": 1
			}
		}, {
			"aliases": [ "Rift50SnapPeaSubEvent" ],
			"objclass": "RiftSubEventProperties",
			"objdata": {
				"AddedLevelModules": [ "RTID(MutatorBuffRift1A@LevelMutatorModules)" ],
				"Description": "[ZOMBOSS_GRAND_PRIZE_GENERIC]",
				"FeaturedPlant": "snappea",
				"PennyTechPerBonusObjective": 1
			}
		}, {
			"aliases": [ "Rift51GrapeshotSubEvent" ],
			"objclass": "RiftSubEventProperties",
			"objdata": {
				"AddedLevelModules": [ "RTID(MutatorBuffRift1A@LevelMutatorModules)" ],
				"Description": "[ZOMBOSS_GRAND_PRIZE_GENERIC]",
				"FeaturedPlant": "grapeshot",
				"PennyTechPerBonusObjective": 1
			}
		}, {
			"aliases": [ "Rift52BombegranateSubEvent" ],
			"objclass": "RiftSubEventProperties",
			"objdata": {
				"AddedLevelModules": [ "RTID(MutatorBuffRift1A@LevelMutatorModules)" ],
				"Description": "[ZOMBOSS_GRAND_PRIZE_GENERIC]",
				"FeaturedPlant": "bombegranate",
				"PennyTechPerBonusObjective": 1
			}
		}, {
			"aliases": [ "Rift53ExplodeOVineSubEvent" ],
			"objclass": "RiftSubEventProperties",
			"objdata": {
				"AddedLevelModules": [ "RTID(MutatorBuffRift1A@LevelMutatorModules)" ],
				"Description": "[ZOMBOSS_GRAND_PRIZE_GENERIC]",
				"FeaturedPlant": "explodeovine",
				"PennyTechPerBonusObjective": 1
			}
		}, {
			"aliases": [ "Rift54ExplodeONutSubEvent" ],
			"objclass": "RiftSubEventProperties",
			"objdata": {
				"AddedLevelModules": [ "RTID(MutatorBuffRift1A@LevelMutatorModules)" ],
				"Description": "[ZOMBOSS_GRAND_PRIZE_GENERIC]",
				"FeaturedPlant": "explodeonut",
				"PennyTechPerBonusObjective": 1
			}
		}, {
			"aliases": [ "RiftDinoSubEvent" ],
			"objclass": "RiftSubEventProperties",
			"objdata": {
				"AddedLevelModules": [ "RTID(MutatorBuffRift1A@LevelMutatorModules)" ],
				"Description": "[ZOMBOSS_GRAND_PRIZE_GENERIC]",
				"FeaturedPlant": "none",
				"PennyTechPerBonusObjective": 1
			}
		}, {
			"aliases": [ "Rift56StarfruitSubEvent" ],
			"objclass": "RiftSubEventProperties",
			"objdata": {
				"AddedLevelModules": [ "RTID(MutatorBuffRift1A@LevelMutatorModules)" ],
				"Description": "[ZOMBOSS_GRAND_PRIZE_GENERIC]",
				"FeaturedPlant": "starfruit",
				"PennyTechPerBonusObjective": 1
			}
		}, {
			"aliases": [ "Rift57GoldbloomSubEvent" ],
			"objclass": "RiftSubEventProperties",
			"objdata": {
				"AddedLevelModules": [ "RTID(MutatorBuffRift1A@LevelMutatorModules)" ],
				"Description": "[ZOMBOSS_GRAND_PRIZE_GENERIC]",
				"FeaturedPlant": "goldbloom",
				"PennyTechPerBonusObjective": 1
			}
		}, {
			"aliases": [ "Rift58StrawburstSubEvent" ],
			"objclass": "RiftSubEventProperties",
			"objdata": {
				"AddedLevelModules": [ "RTID(MutatorBuffRift1A@LevelMutatorModules)" ],
				"Description": "[ZOMBOSS_GRAND_PRIZE_GENERIC]",
				"FeaturedPlant": "strawburst",
				"PennyTechPerBonusObjective": 1
			}
		}, {
			"aliases": [ "Rift59PyreVineSubEvent" ],
			"objclass": "RiftSubEventProperties",
			"objdata": {
				"AddedLevelModules": [ "RTID(MutatorBuffRift1A@LevelMutatorModules)" ],
				"Description": "[ZOMBOSS_GRAND_PRIZE_GENERIC]",
				"FeaturedPlant": "pyrevine",
				"PennyTechPerBonusObjective": 1
			}
		}, {
			"aliases": [ "Rift60HotDateSubEvent" ],
			"objclass": "RiftSubEventProperties",
			"objdata": {
				"AddedLevelModules": [ "RTID(MutatorBuffRift1A@LevelMutatorModules)" ],
				"Description": "[ZOMBOSS_GRAND_PRIZE_GENERIC]",
				"FeaturedPlant": "hotdate",
				"PennyTechPerBonusObjective": 1
			}
		}, {
			"aliases": [ "Rift61ShineVineSubEvent" ],
			"objclass": "RiftSubEventProperties",
			"objdata": {
				"AddedLevelModules": [ "RTID(MutatorBuffRift1A@LevelMutatorModules)" ],
				"Description": "[ZOMBOSS_GRAND_PRIZE_GENERIC]",
				"FeaturedPlant": "shinevine",
				"PennyTechPerBonusObjective": 1
			}
		}, {
			"aliases": [ "Rift62StickyBombRiceSubEvent" ],
			"objclass": "RiftSubEventProperties",
			"objdata": {
				"AddedLevelModules": [ "RTID(MutatorBuffRift1A@LevelMutatorModules)" ],
				"Description": "[ZOMBOSS_GRAND_PRIZE_GENERIC]",
				"FeaturedPlant": "stickybombrice",
				"PennyTechPerBonusObjective": 1
			}
		}, {
			"aliases": [ "Rift63PuffballSubEvent" ],
			"objclass": "RiftSubEventProperties",
			"objdata": {
				"AddedLevelModules": [ "RTID(MutatorBuffRift1A@LevelMutatorModules)" ],
				"Description": "[ZOMBOSS_GRAND_PRIZE_GENERIC]",
				"FeaturedPlant": "puffball",
				"PennyTechPerBonusObjective": 1
			}
		}, {
			"aliases": [ "Rift64DartichokeSubEvent" ],
			"objclass": "RiftSubEventProperties",
			"objdata": {
				"AddedLevelModules": [ "RTID(MutatorBuffRift1A@LevelMutatorModules)" ],
				"Description": "[ZOMBOSS_GRAND_PRIZE_GENERIC]",
				"FeaturedPlant": "dartichoke",
				"PennyTechPerBonusObjective": 1
			}
		}, {
			"aliases": [ "RiftIceAge1SubEvent" ],
			"objclass": "RiftSubEventProperties",
			"objdata": {
				"AddedLevelModules": [ "RTID(MutatorBuffRift1A@LevelMutatorModules)" ],
				"Description": "[ZOMBOSS_GRAND_PRIZE_GENERIC]",
				"FeaturedPlant": "none",
				"PennyTechPerBonusObjective": 1
			}
		}, {
			"aliases": [ "Rift66ToadstoolSubEvent" ],
			"objclass": "RiftSubEventProperties",
			"objdata": {
				"AddedLevelModules": [ "RTID(MutatorBuffRift1A@LevelMutatorModules)" ],
				"Description": "[ZOMBOSS_GRAND_PRIZE_GENERIC]",
				"FeaturedPlant": "toadstool",
				"PennyTechPerBonusObjective": 1
			}
		}, {
			"aliases": [ "Rift67AppleMortarSubEvent" ],
			"objclass": "RiftSubEventProperties",
			"objdata": {
				"AddedLevelModules": [ "RTID(MutatorBuffRift1A@LevelMutatorModules)" ],
				"Description": "[ZOMBOSS_GRAND_PRIZE_GENERIC]",
				"FeaturedPlant": "applemortar",
				"PennyTechPerBonusObjective": 1
			}
		}, {
			"aliases": [ "RiftIceAge2SubEvent" ],
			"objclass": "RiftSubEventProperties",
			"objdata": {
				"AddedLevelModules": [ "RTID(MutatorBuffRift1A@LevelMutatorModules)" ],
				"Description": "[ZOMBOSS_GRAND_PRIZE_GENERIC]",
				"FeaturedPlant": "none",
				"PennyTechPerBonusObjective": 1
			}
		} ],
	"version": 1
}