{
	"#comment": "rift_008 v1",
	"objects": [
		{
			"objclass": "LevelDefinition",
			"objdata": {
				"Description": "[PLAYERS_TRIP_TO_RIFT]",
				"DisablePlantBoosts": false,
				"LevelMutator": "RTID(LevelMutator@CurrentLevel)",
				"LevelNumber": "",
				"Loot": "",
				"Modules": [
					"RTID(DefaultSunDropper@LevelModules)",
					"RTID(StandardRiftIntro@LevelModules)",
					"RTID(ZombiesDeadWinCon@LevelModules)",
					"RTID(FutureMowers@LevelModules)",
					"RTID(SeedBank@CurrentLevel)",
					"RTID(DefaultZombieWinCondition@LevelModules)",
					"RTID(FutureLinkedTileGroups@CurrentLevel)",
					"RTID(NewWaves@CurrentLevel)",
					"RTID(PerkActivator@CurrentLevel)",
					"RTID(WaveDuplicator@CurrentLevel)",
					"RTID(LevelDifficultyScaling@CurrentLevel)",
					"RTID(LevelScoring@CurrentLevel)"
				],
				"MusicType": "MiniGame_A",
				"Name": "[RIFT_LEVEL_NAME]",
				"NormalPresentTable": "egypt_normal_01",
				"PerksDisabledInLevel": [
					"zombieinhibitorballista",
					"zombieinhibitorgargantuar",
					"utilitybelt_cherrybomb",
					"utilitybelt_hypnoshroom",
					"bossbustercannon"
				],
				"PerksDisabledPerDifficulty": [
					[],
					[],
					[]
				],
				"ShinyPresentTable": "egypt_shiny_01",
				"StageModule": "RTID(RiftStage@LevelModules)",
				"VictoryModule": "RTID(RiftOutro@LevelModules)"
			}
		},
		{
			"aliases": [
				"FutureLinkedTileGroups"
			],
			"objclass": "PowerTileProperties",
			"objdata": {
				"LinkedTiles": [
					{
						"Group": "alpha",
						"Location": {
							"mX": 0,
							"mY": 0
						},
						"PropagationDelay": 1.5
					},
					{
						"Group": "alpha",
						"Location": {
							"mX": 0,
							"mY": 2
						},
						"PropagationDelay": 1.5
					},
					{
						"Group": "alpha",
						"Location": {
							"mX": 0,
							"mY": 4
						},
						"PropagationDelay": 1.5
					},
					{
						"Group": "beta",
						"Location": {
							"mX": 1,
							"mY": 1
						},
						"PropagationDelay": 1.5
					},
					{
						"Group": "beta",
						"Location": {
							"mX": 1,
							"mY": 3
						},
						"PropagationDelay": 1.5
					}
				]
			}
		},
		{
			"aliases": [
				"WaveDuplicator"
			],
			"objclass": "WaveDuplicatorModuleProperties",
			"objdata": {
				"PeriodOfWavesToLoop": 4,
				"WaveSetsToAppend": 20
			}
		},
		{
			"aliases": [
				"PerkActivator"
			],
			"objclass": "PerkHandlerModuleProperties",
			"objdata": {}
		},
		{
			"aliases": [
				"LevelMutator"
			],
			"objclass": "LevelMutatorModuleProperties",
			"objdata": {
				"MutatorTables": [
					"RTID(MutatorPropsRiftNormal@LevelMutatorTables)",
					"RTID(LocalChallengeMutator@CurrentLevel)",
					"RTID(LocalMainChallengeMutator@CurrentLevel)"
				]
			}
		},
		{
			"aliases": [
				"LocalMainChallengeMutator"
			],
			"objclass": "LevelMutatorTableProps",
			"objdata": {
				"Tables": [
					{
						"Level": 0,
						"ModuleType": "mainchallenge",
						"Modules": [
							"RTID(LevelTimer1@CurrentLevel)"
						]
					},
					{
						"Level": 1,
						"ModuleType": "mainchallenge",
						"Modules": [
							"RTID(LevelTimer2@CurrentLevel)"
						]
					},
					{
						"Level": 2,
						"ModuleType": "mainchallenge",
						"Modules": [
							"RTID(LevelTimer3@CurrentLevel)"
						]
					}
				]
			}
		},
		{
			"aliases": [
				"LevelTimer1"
			],
			"objclass": "StarChallengeLevelTimerProperties",
			"objdata": {
				"TimeLimit": 120
			}
		},
		{
			"aliases": [
				"LevelTimer2"
			],
			"objclass": "StarChallengeLevelTimerProperties",
			"objdata": {
				"TimeLimit": 120
			}
		},
		{
			"aliases": [
				"LevelTimer3"
			],
			"objclass": "StarChallengeLevelTimerProperties",
			"objdata": {
				"TimeLimit": 120
			}
		},
		{
			"aliases": [
				"LocalChallengeMutator"
			],
			"objclass": "LevelMutatorTableProps",
			"objdata": {
				"Tables": [
					{
						"Level": 0,
						"ModuleType": "bonuschallenge",
						"Modules": [
							"RTID(ReachTheScore1@CurrentLevel)"
						]
					},
					{
						"Level": 1,
						"ModuleType": "bonuschallenge",
						"Modules": [
							"RTID(ReachTheScore2@CurrentLevel)",
							"RTID(ApplyZombieConditions2@CurrentLevel)"
						]
					},
					{
						"Level": 2,
						"ModuleType": "bonuschallenge",
						"Modules": [
							"RTID(ReachTheScore3@CurrentLevel)",
							"RTID(ApplyZombieConditions3@CurrentLevel)"
						]
					}
				]
			}
		},
		{
			"aliases": [
				"ReachTheScore1"
			],
			"objclass": "StarChallengeTargetScoreProps",
			"objdata": {
				"Description": "[STARCHALLENGE_SCORE_TO_BEAT]",
				"DescriptionFailure": "[STARCHALLENGE_TARGET_SCORE_FAILURE]",
				"DescriptiveName": "[STARCHALLENGE_TARGET_SCORE_NAME]",
				"TargetScore": 250000
			}
		},
		{
			"aliases": [
				"ReachTheScore2"
			],
			"objclass": "StarChallengeTargetScoreProps",
			"objdata": {
				"Description": "[STARCHALLENGE_SCORE_TO_BEAT]",
				"DescriptionFailure": "[STARCHALLENGE_TARGET_SCORE_FAILURE]",
				"DescriptiveName": "[STARCHALLENGE_TARGET_SCORE_NAME]",
				"TargetScore": 350000
			}
		},
		{
			"aliases": [
				"ReachTheScore3"
			],
			"objclass": "StarChallengeTargetScoreProps",
			"objdata": {
				"Description": "[STARCHALLENGE_SCORE_TO_BEAT]",
				"DescriptionFailure": "[STARCHALLENGE_TARGET_SCORE_FAILURE]",
				"DescriptiveName": "[STARCHALLENGE_TARGET_SCORE_NAME]",
				"TargetScore": 200000
			}
		},
		{
			"aliases": [
				"ApplyZombieConditions2"
			],
			"objclass": "ApplyZombieConditionsChallengeProps",
			"objdata": {
				"ConditionToInflict": [
					"chill",
					"freeze"
				],
				"NumZombieConditionsToApply": 75
			}
		},
		{
			"aliases": [
				"ApplyZombieConditions3"
			],
			"objclass": "ApplyZombieConditionsChallengeProps",
			"objdata": {
				"ConditionToInflict": [
					"chill",
					"freeze"
				],
				"NumZombieConditionsToApply": 100
			}
		},
		{
			"aliases": [
				"SeedBank"
			],
			"objclass": "SeedBankProperties",
			"objdata": {
				"PlantExcludeList": [],
				"SelectionMethod": "chooser"
			}
		},
		{
			"aliases": [
				"LevelScoring"
			],
			"objclass": "LevelScoringModuleProperties",
			"objdata": {
				"PlantBonusMultiplier": 0,
				"PlantBonuses": [],
				"ScoringRulesType": "Rift",
				"StartingPlantfood": 0
			}
		},
		{
			"aliases": [
				"LevelDifficultyScaling"
			],
			"objclass": "LevelDifficultyScalingModuleProperties",
			"objdata": {
				"DifficultyRulesType": "RiftDifficulty",
				"ZombieLevelSwaps": [
					{
						"Level": 4,
						"Swaps": [
							{
								"From": "RTID(zcorp@ZombieTypes)",
								"To": [
									"RTID(zcorp@ZombieTypes)",
									"RTID(zcorp_fem@ZombieTypes)"
								]
							},
							{
								"From": "RTID(zcorp_armor1@ZombieTypes)",
								"To": [
									"RTID(zcorp_armor1@ZombieTypes)",
									"RTID(zcorp_fem_armor1@ZombieTypes)"
								]
							},
							{
								"From": "RTID(zcorp_armor2@ZombieTypes)",
								"To": [
									"RTID(zcorp_armor2@ZombieTypes)",
									"RTID(zcorp_fem_armor2@ZombieTypes)"
								]
							}
						]
					},
					{
						"Level": 7,
						"Swaps": [
							{
								"From": "RTID(zcorp@ZombieTypes)",
								"To": [
									"RTID(zcorp_armor1@ZombieTypes)",
									"RTID(zcorp_fem_armor1@ZombieTypes)"
								]
							},
							{
								"From": "RTID(zcorp_armor1@ZombieTypes)",
								"To": [
									"RTID(zcorp_armor2@ZombieTypes)",
									"RTID(zcorp_fem_armor2@ZombieTypes)"
								]
							},
							{
								"From": "RTID(zcorp_armor2@ZombieTypes)",
								"To": [
									"RTID(zcorp_armor2@ZombieTypes)",
									"RTID(zcorp_fem_armor2@ZombieTypes)"
								]
							}
						]
					},
					{
						"Level": 10,
						"Swaps": [
							{
								"From": "RTID(tutorial@ZombieTypes)",
								"To": [
									"RTID(zcorp_armor2@ZombieTypes)",
									"RTID(zcorp_fem_armor2@ZombieTypes)"
								]
							},
							{
								"From": "RTID(tutorial_armor1@ZombieTypes)",
								"To": [
									"RTID(zcorp_armor2@ZombieTypes)",
									"RTID(zcorp_fem_armor2@ZombieTypes)"
								]
							},
							{
								"From": "RTID(tutorial_armor2@ZombieTypes)",
								"To": [
									"RTID(zcorp_armor2@ZombieTypes)",
									"RTID(zcorp_fem_armor2@ZombieTypes)"
								]
							}
						]
					}
				]
			}
		},
		{
			"aliases": [
				"NewWaves"
			],
			"objclass": "WaveManagerModuleProperties",
			"objdata": {
				"DynamicZombies": [
					{},
					{},
					{},
					{
						"MaxPoints": 2000,
						"PointIncrementPerWave": 150,
						"StartingPoints": 200,
						"StartingWave": 0,
						"ZombiePool": [
							"RTID(zcorp@ZombieTypes)",
							"RTID(zcorp_armor1@ZombieTypes)",
							"RTID(zcorp_armor2@ZombieTypes)",
							"RTID(zcorp_fem@ZombieTypes)",
							"RTID(zcorp_fem_armor1@ZombieTypes)",
							"RTID(zcorp_fem_armor2@ZombieTypes)"
						]
					},
					{},
					{},
					{}
				],
				"WaveManagerProps": "RTID(WaveManagerProps@CurrentLevel)"
			}
		},
		{
			"aliases": [
				"WaveManagerProps"
			],
			"objclass": "WaveManagerProperties",
			"objdata": {
				"FlagWaveInterval": 4,
				"WaveCount": 12,
				"WaveSpendingPointIncrement": 100,
				"WaveSpendingPoints": 150,
				"Waves": [
					[
						"RTID(Wave1@CurrentLevel)"
					],
					[
						"RTID(Wave2@CurrentLevel)",
						"RTID(Wave2SpiderRainEvent0@CurrentLevel)"
					],
					[
						"RTID(Wave3@CurrentLevel)",
						"RTID(Wave3RaidingPartyEvent0@CurrentLevel)"
					],
					[
						"RTID(Wave4@CurrentLevel)"
					],
					[
						"RTID(Wave5@CurrentLevel)",
						"RTID(Wave5SpiderRainEvent0@CurrentLevel)"
					],
					[
						"RTID(Wave6@CurrentLevel)",
						"RTID(Wave6RaidingPartyEvent0@CurrentLevel)"
					],
					[
						"RTID(Wave7@CurrentLevel)"
					],
					[
						"RTID(Wave8@CurrentLevel)",
						"RTID(Wave8RaidingPartyEvent0@CurrentLevel)",
						"RTID(Wave8SpiderRainEvent0@CurrentLevel)"
					],
					[
						"RTID(Wave9@CurrentLevel)"
					],
					[
						"RTID(Wave10@CurrentLevel)"
					],
					[
						"RTID(Wave11@CurrentLevel)",
						"RTID(Wave11SpiderRainEvent0@CurrentLevel)"
					],
					[
						"RTID(Wave12@CurrentLevel)",
						"RTID(Wave12RaidingPartyEvent0@CurrentLevel)"
					]
				]
			}
		},
		{
			"aliases": [
				"Wave1"
			],
			"objclass": "SpawnZombiesJitteredWaveActionProps",
			"objdata": {
				"Zombies": [
					{
						"Type": "RTID(zcorp@ZombieTypes)"
					}
				]
			}
		},
		{
			"aliases": [
				"Wave2"
			],
			"objclass": "SpawnZombiesJitteredWaveActionProps",
			"objdata": {
				"Zombies": [
					{
						"Type": "RTID(zcorp@ZombieTypes)"
					}
				]
			}
		},
		{
			"aliases": [
				"Wave3"
			],
			"objclass": "SpawnZombiesJitteredWaveActionProps",
			"objdata": {
				"Zombies": [
					{
						"Type": "RTID(zcorp@ZombieTypes)"
					}
				]
			}
		},
		{
			"aliases": [
				"Wave4"
			],
			"objclass": "SpawnZombiesJitteredWaveActionProps",
			"objdata": {
				"Zombies": [
					{
						"Type": "RTID(zcorp@ZombieTypes)"
					}
				]
			}
		},
		{
			"aliases": [
				"Wave5"
			],
			"objclass": "SpawnZombiesJitteredWaveActionProps",
			"objdata": {
				"Zombies": [
					{
						"Type": "RTID(zcorp@ZombieTypes)"
					}
				]
			}
		},
		{
			"aliases": [
				"Wave6"
			],
			"objclass": "SpawnZombiesJitteredWaveActionProps",
			"objdata": {
				"Zombies": [
					{
						"Type": "RTID(zcorp@ZombieTypes)"
					}
				]
			}
		},
		{
			"aliases": [
				"Wave7"
			],
			"objclass": "SpawnZombiesJitteredWaveActionProps",
			"objdata": {
				"Zombies": [
					{
						"Type": "RTID(zcorp@ZombieTypes)"
					}
				]
			}
		},
		{
			"aliases": [
				"Wave8"
			],
			"objclass": "SpawnZombiesJitteredWaveActionProps",
			"objdata": {
				"Zombies": [
					{
						"Type": "RTID(zcorp@ZombieTypes)"
					}
				]
			}
		},
		{
			"aliases": [
				"Wave9"
			],
			"objclass": "SpawnZombiesJitteredWaveActionProps",
			"objdata": {
				"Zombies": [
					{
						"Type": "RTID(zcorp@ZombieTypes)"
					}
				]
			}
		},
		{
			"aliases": [
				"Wave10"
			],
			"objclass": "SpawnZombiesJitteredWaveActionProps",
			"objdata": {
				"Zombies": [
					{
						"Type": "RTID(zcorp@ZombieTypes)"
					}
				]
			}
		},
		{
			"aliases": [
				"Wave11"
			],
			"objclass": "SpawnZombiesJitteredWaveActionProps",
			"objdata": {
				"Zombies": [
					{
						"Type": "RTID(zcorp@ZombieTypes)"
					}
				]
			}
		},
		{
			"aliases": [
				"Wave12"
			],
			"objclass": "SpawnZombiesJitteredWaveActionProps",
			"objdata": {
				"Zombies": [
					{
						"Type": "RTID(zcorp@ZombieTypes)"
					}
				]
			}
		},
		{
			"aliases": [
				"Wave2SpiderRainEvent0"
			],
			"objclass": "SpiderRainZombieSpawnerProps",
			"objdata": {
				"ColumnEnd": "8",
				"ColumnStart": "4",
				"GroupSize": "2",
				"SpiderCount": "4",
				"SpiderZombieName": "future_imp",
				"TimeBeforeFullSpawn": "1",
				"TimeBetweenGroups": "0.2",
				"WaveStartMessage": "[WARNING_SPIDERRAIN]",
				"ZombieFallTime": "1.5"
			}
		},
		{
			"aliases": [
				"Wave3RaidingPartyEvent0"
			],
			"objclass": "RaidingPartyZombieSpawnerProps",
			"objdata": {
				"GroupSize": "1",
				"SwashbucklerCount": "5",
				"TimeBetweenGroups": "1"
			}
		},
		{
			"aliases": [
				"Wave5SpiderRainEvent0"
			],
			"objclass": "SpiderRainZombieSpawnerProps",
			"objdata": {
				"ColumnEnd": "8",
				"ColumnStart": "4",
				"GroupSize": "2",
				"SpiderCount": "4",
				"SpiderZombieName": "future_imp",
				"TimeBeforeFullSpawn": "1",
				"TimeBetweenGroups": "0.2",
				"WaveStartMessage": "[WARNING_SPIDERRAIN]",
				"ZombieFallTime": "1.5"
			}
		},
		{
			"aliases": [
				"Wave6RaidingPartyEvent0"
			],
			"objclass": "RaidingPartyZombieSpawnerProps",
			"objdata": {
				"GroupSize": "1",
				"SwashbucklerCount": "5",
				"TimeBetweenGroups": "1"
			}
		},
		{
			"aliases": [
				"Wave8RaidingPartyEvent0"
			],
			"objclass": "RaidingPartyZombieSpawnerProps",
			"objdata": {
				"GroupSize": "1",
				"SwashbucklerCount": "5",
				"TimeBetweenGroups": "1"
			}
		},
		{
			"aliases": [
				"Wave8SpiderRainEvent0"
			],
			"objclass": "SpiderRainZombieSpawnerProps",
			"objdata": {
				"ColumnEnd": "8",
				"ColumnStart": "4",
				"GroupSize": "2",
				"SpiderCount": "4",
				"SpiderZombieName": "future_imp",
				"TimeBeforeFullSpawn": "1",
				"TimeBetweenGroups": "0.2",
				"WaveStartMessage": "[WARNING_SPIDERRAIN]",
				"ZombieFallTime": "1.5"
			}
		},
		{
			"aliases": [
				"Wave11SpiderRainEvent0"
			],
			"objclass": "SpiderRainZombieSpawnerProps",
			"objdata": {
				"ColumnEnd": "8",
				"ColumnStart": "4",
				"GroupSize": "2",
				"SpiderCount": 6,
				"SpiderZombieName": "future_imp",
				"TimeBeforeFullSpawn": "1",
				"TimeBetweenGroups": "0.2",
				"WaveStartMessage": "[WARNING_SPIDERRAIN]",
				"ZombieFallTime": "1.5"
			}
		},
		{
			"aliases": [
				"Wave12RaidingPartyEvent0"
			],
			"objclass": "RaidingPartyZombieSpawnerProps",
			"objdata": {
				"GroupSize": "1",
				"SwashbucklerCount": 6,
				"TimeBetweenGroups": "1"
			}
		}
	],
	"version": 1
}