{
	"#comment": "Rift 1B node 15 - LOD315 v1",
	"objects": [ {
			"objclass": "LevelDefinition",
			"objdata": {
				"Description": "[PLAYERS_TRIP_TO_RIFT]",
				"LevelNumber": 15,
				"DisablePlantBoosts": false,
				"Loot": "",
				"Modules": [ "RTID(StandardRiftIntro@LevelModules)", "RTID(ZombiesDeadWinCon@LevelModules)", "RTID(LostCityMowers@LevelModules)", "RTID(ConveyorBelt@CurrentLevel)", "RTID(DefaultZombieWinCondition@LevelModules)", "RTID(NewWaves@CurrentLevel)", "RTID(PerkActivator@CurrentLevel)", "RTID(LevelScoring@CurrentLevel)", "RTID(LevelDifficultyScaling@CurrentLevel)" ],
				"MusicType": "MiniGame_A",
				"Name": "[RIFT_LEVEL_NAME]",
				"NormalPresentTable": "egypt_normal_01",
				"ShinyPresentTable": "egypt_shiny_01",
				"VictoryModule": "RTID(RiftOutro@LevelModules)",
				"StageModule": "RTID(RiftStage@LevelModules)",
				"LevelMutator": "RTID(LevelMutator@CurrentLevel)",
				"PerksDisabledInLevel": [ "bossbustercannon", "sunbreak" ]
			}
		}, {
			"aliases": [ "LevelScoring" ],
			"objclass": "LevelScoringModuleProperties",
			"objdata": {
				"PlantBonusMultiplier": 0.1,
				"PlantBonuses": [],
				"ScoringRulesType": "Rift",
				"StartingPlantfood": 0
			}
		}, {
			"aliases": [ "PerkActivator" ],
			"objclass": "PerkHandlerModuleProperties",
			"objdata": {}
		}, {
			"aliases": [ "LevelMutator" ],
			"objclass": "LevelMutatorModuleProperties",
			"objdata": {
				"MutatorTables": [ "RTID(MutatorPropsRiftConveyor@LevelMutatorTables)", "RTID(MutatorGridRiftTraps@LevelMutatorTables)", "RTID(LocalChallengeMutator@CurrentLevel)", "RTID(LocalMainChallengeMutator@CurrentLevel)" ]
			}
		}, {
			"aliases": [ "LocalMainChallengeMutator" ],
			"objclass": "LevelMutatorTableProps",
			"objdata": {
				"Tables": [ {
						"Level": 0,
						"Modules": [ "RTID(BeatTheLevel@CurrentLevel)" ],
						"ModuleType": "mainchallenge"
					}, {
						"Level": 1,
						"Modules": [ "RTID(BeatTheLevel@CurrentLevel)" ],
						"ModuleType": "mainchallenge"
					}, {
						"Level": 2,
						"Modules": [ "RTID(BeatTheLevel@CurrentLevel)" ],
						"ModuleType": "mainchallenge"
					} ]
			}
		}, {
			"aliases": [ "BeatTheLevel" ],
			"objclass": "StarChallengeBeatTheLevelProps",
			"objdata": {
				"Description": "[STARCHALLENGE_RIFT_NORMAL]",
				"DescriptiveName": "[STARCHALLENGE_RIFT_NORMAL_NAME]"
			}
		}, {
			"aliases": [ "LocalChallengeMutator" ],
			"objclass": "LevelMutatorTableProps",
			"objdata": {
				"Tables": [ {
						"Level": 0,
						"Modules": [ "RTID(ProtectThePlant1@CurrentLevel)" ],
						"ModuleType": "bonuschallenge"
					}, {
						"Level": 1,
						"Modules": [ "RTID(ProtectThePlant2@CurrentLevel)", "RTID(ReachTheScore2@CurrentLevel)" ],
						"ModuleType": "bonuschallenge"
					}, {
						"Level": 2,
						"Modules": [ "RTID(ProtectThePlant3@CurrentLevel)", "RTID(ReachTheScore3@CurrentLevel)" ],
						"ModuleType": "bonuschallenge"
					} ]
			}
		}, {
			"aliases": [ "ReachTheScore2" ],
			"objclass": "StarChallengeTargetScoreProps",
			"objdata": {
				"Description": "[STARCHALLENGE_SCORE_TO_BEAT]",
				"DescriptionFailure": "[STARCHALLENGE_TARGET_SCORE_FAILURE]",
				"DescriptiveName": "[STARCHALLENGE_TARGET_SCORE_NAME]",
				"TargetScore": 500000
			}
		}, {
			"aliases": [ "ReachTheScore3" ],
			"objclass": "StarChallengeTargetScoreProps",
			"objdata": {
				"Description": "[STARCHALLENGE_SCORE_TO_BEAT]",
				"DescriptionFailure": "[STARCHALLENGE_TARGET_SCORE_FAILURE]",
				"DescriptiveName": "[STARCHALLENGE_TARGET_SCORE_NAME]",
				"TargetScore": 500000
			}
		}, {
			"aliases": [ "ProtectThePlant1" ],
			"objclass": "ProtectThePlantChallengeProperties",
			"objdata": {
				"MustProtectCount": 3,
				"Plants": [ {
						"GridX": 4,
						"GridY": 0,
						"PlantType": "redstinger"
					}, {
						"GridX": 4,
						"GridY": 2,
						"PlantType": "redstinger"
					}, {
						"GridX": 4,
						"GridY": 4,
						"PlantType": "redstinger"
					} ]
			}
		}, {
			"aliases": [ "ProtectThePlant2" ],
			"objclass": "ProtectThePlantChallengeProperties",
			"objdata": {
				"MustProtectCount": 3,
				"Plants": [ {
						"GridX": 5,
						"GridY": 0,
						"PlantType": "redstinger"
					}, {
						"GridX": 4,
						"GridY": 2,
						"PlantType": "redstinger"
					}, {
						"GridX": 5,
						"GridY": 4,
						"PlantType": "redstinger"
					} ]
			}
		}, {
			"aliases": [ "ProtectThePlant3" ],
			"objclass": "ProtectThePlantChallengeProperties",
			"objdata": {
				"MustProtectCount": 3,
				"Plants": [ {
						"GridX": 5,
						"GridY": 0,
						"PlantType": "redstinger"
					}, {
						"GridX": 5,
						"GridY": 2,
						"PlantType": "redstinger"
					}, {
						"GridX": 5,
						"GridY": 4,
						"PlantType": "redstinger"
					} ]
			}
		}, {
			"aliases": [ "LevelDifficultyScaling" ],
			"objclass": "LevelDifficultyScalingModuleProperties",
			"objdata": {
				"DifficultyRulesType": "RiftDifficulty",
				"ZombieLevelSwaps": [ {
						"Level": 0,
						"Swaps": [ {
								"From": "RTID(lostcity_imp@ZombieTypes)",
								"To": [ "RTID(roman_imp@ZombieTypes)", "RTID(lostcity_imp@ZombieTypes)" ]
							}, {
								"From": "RTID(lostcity@ZombieTypes)",
								"To": [ "RTID(roman_imp@ZombieTypes)", "RTID(roman@ZombieTypes)" ]
							}, {
								"From": "RTID(lostcity_armor1@ZombieTypes)",
								"To": [ "RTID(roman@ZombieTypes)", "RTID(roman_armor1@ZombieTypes)" ]
							}, {
								"From": "RTID(lostcity_armor2@ZombieTypes)",
								"To": [ "RTID(roman_armor1@ZombieTypes)", "RTID(roman_armor2@ZombieTypes)", "RTID(roman_shield_triad@ZombieTypes)" ]
							}, {
								"From": "RTID(pharaoh@ZombieTypes)",
								"To": [ "RTID(pharaoh@ZombieTypes)", "RTID(roman_armor2@ZombieTypes)", "RTID(roman_shield_triad@ZombieTypes)" ]
							}, {
								"From": "RTID(lostcity_gargantuar@ZombieTypes)",
								"To": [ "RTID(lostcity_gargantuar@ZombieTypes)", "RTID(roman_gargantuar@ZombieTypes)", "RTID(pharaoh@ZombieTypes)" ]
							} ]
					}, {
						"Level": 4,
						"Swaps": [ {
								"From": "RTID(lostcity_imp@ZombieTypes)",
								"To": [ "RTID(roman_imp@ZombieTypes)", "RTID(roman@ZombieTypes)", "RTID(dark_imp_dragon@ZombieTypes)" ]
							}, {
								"From": "RTID(lostcity@ZombieTypes)",
								"To": [ "RTID(roman_imp@ZombieTypes)", "RTID(roman@ZombieTypes)", "RTID(roman_armor1@ZombieTypes)" ]
							}, {
								"From": "RTID(lostcity_armor1@ZombieTypes)",
								"To": [ "RTID(roman_armor1@ZombieTypes)", "RTID(roman_armor2@ZombieTypes)", "RTID(roman_shield_triad@ZombieTypes)", "RTID(roman@ZombieTypes)" ]
							}, {
								"From": "RTID(lostcity_armor2@ZombieTypes)",
								"To": [ "RTID(roman_armor2@ZombieTypes)", "RTID(roman_shield_triad@ZombieTypes)", "RTID(pharaoh@ZombieTypes)" ]
							}, {
								"From": "RTID(pharaoh@ZombieTypes)",
								"To": [ "RTID(pharaoh@ZombieTypes)", "RTID(dark_armor3@ZombieTypes)", "RTID(lostcity_excavator@ZombieTypes)" ]
							}, {
								"From": "RTID(lostcity_gargantuar@ZombieTypes)",
								"To": [ "RTID(lostcity_gargantuar@ZombieTypes)", "RTID(roman_gargantuar@ZombieTypes)" ]
							} ]
					}, {
						"Level": 7,
						"Swaps": [ {
								"From": "RTID(lostcity_imp@ZombieTypes)",
								"To": [ "RTID(roman_armor1@ZombieTypes)", "RTID(dark_imp_dragon@ZombieTypes)", "RTID(roman@ZombieTypes)" ]
							}, {
								"From": "RTID(lostcity@ZombieTypes)",
								"To": [ "RTID(roman_armor1@ZombieTypes)", "RTID(roman_armor2@ZombieTypes)" ]
							}, {
								"From": "RTID(lostcity_armor1@ZombieTypes)",
								"To": [ "RTID(roman_armor2@ZombieTypes)", "RTID(pharaoh@ZombieTypes)", "RTID(roman_shield_triad@ZombieTypes)" ]
							}, {
								"From": "RTID(lostcity_armor2@ZombieTypes)",
								"To": [ "RTID(dark_armor3@ZombieTypes)", "RTID(pharaoh@ZombieTypes)", "RTID(lostcity_excavator@ZombieTypes)" ]
							}, {
								"From": "RTID(pharaoh@ZombieTypes)",
								"To": [ "RTID(pharaoh@ZombieTypes)", "RTID(dark_armor3@ZombieTypes)", "RTID(lostcity_excavator@ZombieTypes)", "RTID(roman_gargantuar@ZombieTypes)" ]
							}, {
								"From": "RTID(lostcity_gargantuar@ZombieTypes)",
								"To": [ "RTID(lostcity_gargantuar@ZombieTypes)", "RTID(roman_gargantuar@ZombieTypes)", "RTID(roman_gargantuar@ZombieTypes)" ]
							} ]
					} ]
			}
		}, {
			"aliases": [ "NewWaves" ],
			"objclass": "WaveManagerModuleProperties",
			"objdata": {
				"DynamicZombies": [ {
						"PointIncrementPerWave": 0,
						"StartingPoints": 0,
						"StartingWave": 0,
						"ZombiePool": [ "RTID(roman@ZombieTypes)", "RTID(roman_armor1@ZombieTypes)", "RTID(roman_armor2@ZombieTypes)", "RTID(roman_shield_triad@ZombieTypes)" ]
					}, {
						"PointIncrementPerWave": 0,
						"StartingPoints": 0,
						"StartingWave": 0,
						"ZombiePool": [ "RTID(roman@ZombieTypes)", "RTID(roman_armor1@ZombieTypes)", "RTID(roman_armor2@ZombieTypes)", "RTID(roman_shield_triad@ZombieTypes)" ]
					}, {
						"PointIncrementPerWave": 0,
						"StartingPoints": 0,
						"StartingWave": 0,
						"ZombiePool": [ "RTID(roman@ZombieTypes)", "RTID(roman_armor1@ZombieTypes)", "RTID(roman_armor2@ZombieTypes)", "RTID(roman_shield_triad@ZombieTypes)" ]
					}, {
						"PointIncrementPerWave": 250,
						"StartingPoints": 500,
						"StartingWave": 0,
						"ZombiePool": [ "RTID(roman_armor1@ZombieTypes)", "RTID(roman_armor2@ZombieTypes)", "RTID(roman_shield_triad@ZombieTypes)" ]
					}, {
						"PointIncrementPerWave": 0,
						"StartingPoints": 0,
						"StartingWave": 0,
						"ZombiePool": [ "RTID(roman@ZombieTypes)", "RTID(roman_armor1@ZombieTypes)", "RTID(roman_armor2@ZombieTypes)", "RTID(roman_shield_triad@ZombieTypes)" ]
					}, {
						"PointIncrementPerWave": 0,
						"StartingPoints": 0,
						"StartingWave": 0,
						"ZombiePool": [ "RTID(roman@ZombieTypes)", "RTID(roman_armor1@ZombieTypes)", "RTID(roman_armor2@ZombieTypes)", "RTID(roman_shield_triad@ZombieTypes)" ]
					}, {
						"PointIncrementPerWave": 0,
						"StartingPoints": 0,
						"StartingWave": 0,
						"ZombiePool": [ "RTID(roman@ZombieTypes)", "RTID(roman_armor1@ZombieTypes)", "RTID(roman_armor2@ZombieTypes)", "RTID(roman_shield_triad@ZombieTypes)" ]
					} ],
				"WaveManagerProps": "RTID(WaveManagerProps@CurrentLevel)"
			}
		}, {
			"aliases": [ "ConveyorBelt" ],
			"objclass": "ConveyorSeedBankProperties",
			"objdata": {
				"DropDelayConditions": [ {
						"Delay": 3,
						"MaxPackets": 0
					}, {
						"Delay": 6,
						"MaxPackets": 2
					}, {
						"Delay": 9,
						"MaxPackets": 4
					}, {
						"Delay": 12,
						"MaxPackets": 8
					} ],
				"InitialPlantList": [ {
						"MaxCount": 3,
						"MaxWeightFactor": 0,
						"MinCount": 2,
						"MinWeightFactor": 10,
						"PlantType": "hotdate",
						"Weight": 50
					} ],
				"SpeedConditions": [ {
						"MaxPackets": 0,
						"Speed": 100
					} ]
			}
		}, {
			"aliases": [ "WaveManagerProps" ],
			"objclass": "WaveManagerProperties",
			"objdata": {
				"FlagWaveInterval": 6,
				"WaveCount": 12,
				"WaveSpendingPointIncrement": 100,
				"WaveSpendingPoints": 100,
				"Waves": [ [ "RTID(Wave1@CurrentLevel)" ], [ "RTID(Wave2@CurrentLevel)", "RTID(Wave2ModConveyor0@CurrentLevel)" ], [ "RTID(Wave3@CurrentLevel)", "RTID(Wave3ModConveyor0@CurrentLevel)" ], [ "RTID(Wave4@CurrentLevel)" ], [ "RTID(Wave5@CurrentLevel)" ], [ "RTID(Wave6@CurrentLevel)", "RTID(Wave6ParachuteRainEvent0@CurrentLevel)" ], [ "RTID(Wave7@CurrentLevel)" ], [ "RTID(Wave8@CurrentLevel)", "RTID(Wave8ParachuteRainEvent0@CurrentLevel)" ], [ "RTID(Wave9@CurrentLevel)" ], [ "RTID(Wave10@CurrentLevel)", "RTID(Wave10ParachuteRainEvent0@CurrentLevel)" ], [ "RTID(Wave11@CurrentLevel)" ], [ "RTID(Wave12@CurrentLevel)", "RTID(Wave12ParachuteRainEvent0@CurrentLevel)" ] ],
				"WavesAlwaysRandomized": true
			}
		}, {
			"aliases": [ "Wave1" ],
			"objclass": "SpawnZombiesJitteredWaveActionProps",
			"objdata": {
				"Zombies": [ {
						"Row": "3",
						"Type": "RTID(lostcity@ZombieTypes)"
					}, {
						"Row": "4",
						"Type": "RTID(lostcity@ZombieTypes)"
					}, {
						"Row": "2",
						"Type": "RTID(lostcity@ZombieTypes)"
					}, {
						"Row": "5",
						"Type": "RTID(lostcity@ZombieTypes)"
					}, {
						"Row": "1",
						"Type": "RTID(lostcity@ZombieTypes)"
					} ]
			}
		}, {
			"aliases": [ "Wave2" ],
			"objclass": "SpawnZombiesJitteredWaveActionProps",
			"objdata": {
				"Zombies": [ {
						"Row": "1",
						"Type": "RTID(lostcity_imp@ZombieTypes)"
					}, {
						"Row": "2",
						"Type": "RTID(lostcity_imp@ZombieTypes)"
					}, {
						"Row": "3",
						"Type": "RTID(lostcity_imp@ZombieTypes)"
					}, {
						"Row": "4",
						"Type": "RTID(lostcity_imp@ZombieTypes)"
					}, {
						"Row": "5",
						"Type": "RTID(lostcity_imp@ZombieTypes)"
					} ]
			}
		}, {
			"aliases": [ "Wave3" ],
			"objclass": "SpawnZombiesJitteredWaveActionProps",
			"objdata": {
				"Zombies": [ {
						"Row": "5",
						"Type": "RTID(lostcity_armor1@ZombieTypes)"
					}, {
						"Row": "4",
						"Type": "RTID(lostcity@ZombieTypes)"
					}, {
						"Row": "3",
						"Type": "RTID(lostcity_armor1@ZombieTypes)"
					}, {
						"Row": "2",
						"Type": "RTID(lostcity@ZombieTypes)"
					}, {
						"Row": "1",
						"Type": "RTID(lostcity_armor1@ZombieTypes)"
					} ]
			}
		}, {
			"aliases": [ "Wave4" ],
			"objclass": "SpawnZombiesJitteredWaveActionProps",
			"objdata": {
				"Zombies": [ {
						"Row": "5",
						"Type": "RTID(lostcity@ZombieTypes)"
					}, {
						"Row": "4",
						"Type": "RTID(lostcity_jane@ZombieTypes)"
					}, {
						"Row": "3",
						"Type": "RTID(lostcity@ZombieTypes)"
					}, {
						"Row": "2",
						"Type": "RTID(lostcity_jane@ZombieTypes)"
					}, {
						"Row": "1",
						"Type": "RTID(lostcity@ZombieTypes)"
					} ]
			}
		}, {
			"aliases": [ "Wave5" ],
			"objclass": "SpawnZombiesJitteredWaveActionProps",
			"objdata": {
				"Zombies": [ {
						"Type": "RTID(lostcity@ZombieTypes)"
					}, {
						"Type": "RTID(lostcity@ZombieTypes)"
					}, {
						"Type": "RTID(lostcity_armor2@ZombieTypes)"
					}, {
						"Row": "5",
						"Type": "RTID(dark_imp_dragon@ZombieTypes)"
					}, {
						"Row": "4",
						"Type": "RTID(dark_imp_dragon@ZombieTypes)"
					}, {
						"Row": "3",
						"Type": "RTID(dark_imp_dragon@ZombieTypes)"
					}, {
						"Row": "2",
						"Type": "RTID(dark_imp_dragon@ZombieTypes)"
					}, {
						"Row": "1",
						"Type": "RTID(dark_imp_dragon@ZombieTypes)"
					} ]
			}
		}, {
			"aliases": [ "Wave6" ],
			"objclass": "SpawnZombiesJitteredWaveActionProps",
			"objdata": {
				"Zombies": [ {
						"Type": "RTID(lostcity_jane@ZombieTypes)"
					}, {
						"Type": "RTID(lostcity_jane@ZombieTypes)"
					}, {
						"Type": "RTID(lostcity_jane@ZombieTypes)"
					}, {
						"Row": "5",
						"Type": "RTID(lostcity@ZombieTypes)"
					}, {
						"Row": "4",
						"Type": "RTID(lostcity@ZombieTypes)"
					}, {
						"Row": "3",
						"Type": "RTID(lostcity@ZombieTypes)"
					}, {
						"Row": "2",
						"Type": "RTID(lostcity@ZombieTypes)"
					}, {
						"Row": "1",
						"Type": "RTID(lostcity@ZombieTypes)"
					}, {
						"Type": "RTID(pharaoh@ZombieTypes)"
					} ]
			}
		}, {
			"aliases": [ "Wave7" ],
			"objclass": "SpawnZombiesJitteredWaveActionProps",
			"objdata": {
				"Zombies": [ {
						"Type": "RTID(lostcity_jane@ZombieTypes)"
					}, {
						"Row": "5",
						"Type": "RTID(dark_imp_dragon@ZombieTypes)"
					}, {
						"Row": "4",
						"Type": "RTID(lostcity_imp@ZombieTypes)"
					}, {
						"Row": "3",
						"Type": "RTID(dark_imp_dragon@ZombieTypes)"
					}, {
						"Row": "2",
						"Type": "RTID(lostcity_imp@ZombieTypes)"
					}, {
						"Row": "1",
						"Type": "RTID(dark_imp_dragon@ZombieTypes)"
					} ]
			}
		}, {
			"aliases": [ "Wave8" ],
			"objclass": "SpawnZombiesJitteredWaveActionProps",
			"objdata": {
				"Zombies": [ {
						"Type": "RTID(lostcity_jane@ZombieTypes)"
					}, {
						"Row": "5",
						"Type": "RTID(dark_imp_dragon@ZombieTypes)"
					}, {
						"Row": "4",
						"Type": "RTID(lostcity@ZombieTypes)"
					}, {
						"Row": "3",
						"Type": "RTID(lostcity_armor1@ZombieTypes)"
					}, {
						"Row": "2",
						"Type": "RTID(lostcity@ZombieTypes)"
					}, {
						"Row": "1",
						"Type": "RTID(dark_imp_dragon@ZombieTypes)"
					} ]
			}
		}, {
			"aliases": [ "Wave9" ],
			"objclass": "SpawnZombiesJitteredWaveActionProps",
			"objdata": {
				"Zombies": [ {
						"Row": "5",
						"Type": "RTID(lostcity_armor1@ZombieTypes)"
					}, {
						"Row": "1",
						"Type": "RTID(lostcity_armor1@ZombieTypes)"
					}, {
						"Row": "5",
						"Type": "RTID(pharaoh@ZombieTypes)"
					}, {
						"Row": "1",
						"Type": "RTID(pharaoh@ZombieTypes)"
					} ]
			}
		}, {
			"aliases": [ "Wave10" ],
			"objclass": "SpawnZombiesJitteredWaveActionProps",
			"objdata": {
				"Zombies": [ {
						"Type": "RTID(dark_imp_dragon@ZombieTypes)"
					}, {
						"Type": "RTID(dark_imp_dragon@ZombieTypes)"
					}, {
						"Type": "RTID(dark_imp_dragon@ZombieTypes)"
					}, {
						"Row": "5",
						"Type": "RTID(lostcity_armor2@ZombieTypes)"
					}, {
						"Row": "1",
						"Type": "RTID(lostcity_armor2@ZombieTypes)"
					} ]
			}
		}, {
			"aliases": [ "Wave11" ],
			"objclass": "SpawnZombiesJitteredWaveActionProps",
			"objdata": {
				"Zombies": [ {
						"Type": "RTID(lostcity_jane@ZombieTypes)"
					}, {
						"Row": "prev",
						"Type": "RTID(dark_imp_dragon@ZombieTypes)"
					}, {
						"Type": "RTID(lostcity_jane@ZombieTypes)"
					}, {
						"Row": "prev",
						"Type": "RTID(dark_imp_dragon@ZombieTypes)"
					}, {
						"Row": "1",
						"Type": "RTID(lostcity_imp@ZombieTypes)"
					}, {
						"Row": "2",
						"Type": "RTID(lostcity_imp@ZombieTypes)"
					}, {
						"Row": "3",
						"Type": "RTID(lostcity_imp@ZombieTypes)"
					}, {
						"Row": "4",
						"Type": "RTID(lostcity_imp@ZombieTypes)"
					}, {
						"Row": "5",
						"Type": "RTID(lostcity_imp@ZombieTypes)"
					} ]
			}
		}, {
			"aliases": [ "Wave12" ],
			"objclass": "SpawnZombiesJitteredWaveActionProps",
			"objdata": {
				"Zombies": [ {
						"Row": "5",
						"Type": "RTID(lostcity_gargantuar@ZombieTypes)"
					}, {
						"Row": "3",
						"Type": "RTID(lostcity_gargantuar@ZombieTypes)"
					}, {
						"Row": "1",
						"Type": "RTID(lostcity_gargantuar@ZombieTypes)"
					} ]
			}
		}, {
			"aliases": [ "Wave3ModConveyor0" ],
			"objclass": "ModifyConveyorWaveActionProps",
			"objdata": {
				"Add": [ {
						"MaxCount": 3,
						"MaxWeightFactor": 0,
						"Type": "RTID(pepperpult@PlantTypes)",
						"Weight": 50
					} ],
				"Remove": []
			}
		}, {
			"aliases": [ "Wave6ParachuteRainEvent0" ],
			"objclass": "ParachuteRainZombieSpawnerProps",
			"objdata": {
				"ColumnEnd": 3,
				"ColumnStart": 2,
				"GroupSize": 1,
				"SpiderCount": 3,
				"SpiderZombieName": "lostcity_lostpilot",
				"TimeBeforeFullSpawn": "1",
				"TimeBetweenGroups": 0.2,
				"WaveStartMessage": "[WARNING_PARACHUTERAIN]",
				"ZombieFallTime": 1.5
			}
		}, {
			"aliases": [ "Wave8ParachuteRainEvent0" ],
			"objclass": "ParachuteRainZombieSpawnerProps",
			"objdata": {
				"ColumnEnd": 3,
				"ColumnStart": 2,
				"GroupSize": 1,
				"SpiderCount": 3,
				"SpiderZombieName": "lostcity_lostpilot",
				"TimeBeforeFullSpawn": "1",
				"TimeBetweenGroups": "0.2",
				"WaveStartMessage": "[WARNING_PARACHUTERAIN]",
				"ZombieFallTime": "1.5"
			}
		}, {
			"aliases": [ "Wave10ParachuteRainEvent0" ],
			"objclass": "ParachuteRainZombieSpawnerProps",
			"objdata": {
				"ColumnEnd": 3,
				"ColumnStart": 2,
				"GroupSize": 1,
				"SpiderCount": 3,
				"SpiderZombieName": "lostcity_lostpilot",
				"TimeBeforeFullSpawn": "1",
				"TimeBetweenGroups": "0.2",
				"WaveStartMessage": "[WARNING_PARACHUTERAIN]",
				"ZombieFallTime": "1.5"
			}
		}, {
			"aliases": [ "Wave12ParachuteRainEvent0" ],
			"objclass": "ParachuteRainZombieSpawnerProps",
			"objdata": {
				"ColumnEnd": 3,
				"ColumnStart": 2,
				"GroupSize": 1,
				"SpiderCount": 4,
				"SpiderZombieName": "lostcity_lostpilot",
				"TimeBeforeFullSpawn": "1",
				"TimeBetweenGroups": "0.2",
				"WaveStartMessage": "[WARNING_PARACHUTERAIN]",
				"ZombieFallTime": "1.5"
			}
		}, {
			"aliases": [ "Wave2ModConveyor0" ],
			"objclass": "ModifyConveyorWaveActionProps",
			"objdata": {
				"Add": [ {
						"MaxCount": 5,
						"MaxWeightFactor": 0.1,
						"Type": "RTID(splitpea@PlantTypes)",
						"Weight": 40
					} ],
				"Remove": []
			}
		} ],
	"version": 1
}