{
	"#comment": "Future Prototype",
	"objects": [ {
			"objclass": "LevelDefinition",
			"objdata": {
				"Description": "[PLAYERS_EPIC_QUEST_SPIKEWEED]",
				"LevelNumber": 6,
				"Loot": "RTID(DefaultLoot@LevelModules)",
				"Modules": [ "RTID(StandardIntro@LevelModules)", "RTID(FutureMowers@LevelModules)", "RTID(DefaultZombieWinCondition@LevelModules)", "RTID(ZombiesDeadWinCon@LevelModules)", "RTID(FutureLinkedTileGroups@CurrentLevel)", "RTID(ConveyorBelt@CurrentLevel)", "RTID(NewWaves@CurrentLevel)" ],
				"MusicType": "MiniGame_A",
				"Name": "[EPIC_QUEST_SPIKEWEED_LEVEL_NAME]",
				"NormalPresentTable": "future_normal_01",
				"ShinyPresentTable": "future_shiny_01",
				"StageModule": "RTID(FutureStage@LevelModules)"
			}
		}, {
			"aliases": [ "ConveyorBelt" ],
			"objclass": "ConveyorSeedBankProperties",
			"objdata": {
				"DropDelayConditions": [ {
						"Delay": 3,
						"MaxPackets": 0
					}, {
						"Delay": 6,
						"MaxPackets": 2
					}, {
						"Delay": 9,
						"MaxPackets": 4
					}, {
						"Delay": 12,
						"MaxPackets": 8
					} ],
				"InitialPlantList": [ {
						"MaxCount": 10,
						"MaxWeightFactor": 0,
						"MinCount": 5,
						"MinWeightFactor": 2,
						"PlantType": "citron",
						"Weight": 15
					}, {
						"MaxCount": 5,
						"MaxWeightFactor": 0,
						"MinCount": 2,
						"MinWeightFactor": 2,
						"PlantType": "holonut",
						"Weight": 15
					}, {
						"MaxCount": 10,
						"MaxWeightFactor": 0,
						"PlantType": "spikeweed",
						"Weight": 20
					}, {
						"MaxCount": 4,
						"MaxWeightFactor": 0,
						"MinCount": 2,
						"MinWeightFactor": 4,
						"PlantType": "tool_powertile_alpha",
						"Weight": 15
					} ],
				"SpeedConditions": [ {
						"MaxPackets": 0,
						"Speed": 100
					} ]
			}
		}, {
			"aliases": [ "FutureLinkedTileGroups" ],
			"objclass": "PowerTileProperties",
			"objdata": {
				"LinkedTiles": []
			}
		}, {
			"aliases": [ "ChallengeModule" ],
			"objclass": "StarChallengeModuleProperties",
			"objdata": {
				"Challenges": [ [ "RTID(BeatTheLevel@CurrentLevel)" ] ],
				"ChallengesAlwaysAvailable": true
			}
		}, {
			"aliases": [ "BeatTheLevel" ],
			"objclass": "StarChallengeBeatTheLevelProps",
			"objdata": {
				"Description": "[STARCHALLENGE_FUTURE_CONVEYOR]",
				"DescriptiveName": "[STARCHALLENGE_FUTURE_CONVEYOR_NAME]"
			}
		}, {
			"aliases": [ "NewWaves" ],
			"objclass": "WaveManagerModuleProperties",
			"objdata": {
				"DynamicZombies": [ {
						"PointIncrementPerWave": -40,
						"StartingPoints": -100,
						"StartingWave": 3,
						"ZombiePool": [ "RTID(football_mech@ZombieTypes)", "RTID(future@ZombieTypes)", "RTID(future_armor1@ZombieTypes)", "RTID(future_armor2@ZombieTypes)", "RTID(future_jetpack@ZombieTypes)", "RTID(future_protector@ZombieTypes)", "RTID(mech_cone@ZombieTypes)" ]
					}, {
						"PointIncrementPerWave": -25,
						"StartingPoints": -100,
						"StartingWave": 4,
						"ZombiePool": [ "RTID(football_mech@ZombieTypes)", "RTID(future@ZombieTypes)", "RTID(future_armor1@ZombieTypes)", "RTID(future_armor2@ZombieTypes)", "RTID(future_jetpack@ZombieTypes)", "RTID(future_protector@ZombieTypes)", "RTID(mech_cone@ZombieTypes)" ]
					}, {
						"PointIncrementPerWave": -10,
						"StartingPoints": -100,
						"StartingWave": 5,
						"ZombiePool": [ "RTID(football_mech@ZombieTypes)", "RTID(future@ZombieTypes)", "RTID(future_armor1@ZombieTypes)", "RTID(future_armor2@ZombieTypes)", "RTID(future_jetpack@ZombieTypes)", "RTID(future_protector@ZombieTypes)", "RTID(mech_cone@ZombieTypes)" ]
					}, {}, {
						"PointIncrementPerWave": 20,
						"StartingPoints": 100,
						"StartingWave": 5,
						"ZombiePool": [ "RTID(football_mech@ZombieTypes)", "RTID(future@ZombieTypes)", "RTID(future_armor1@ZombieTypes)", "RTID(future_armor2@ZombieTypes)", "RTID(future_jetpack@ZombieTypes)", "RTID(future_protector@ZombieTypes)", "RTID(mech_cone@ZombieTypes)" ]
					}, {
						"PointIncrementPerWave": 40,
						"StartingPoints": 200,
						"StartingWave": 4,
						"ZombiePool": [ "RTID(football_mech@ZombieTypes)", "RTID(future_armor1@ZombieTypes)", "RTID(future_armor2@ZombieTypes)", "RTID(future_jetpack@ZombieTypes)", "RTID(future_protector@ZombieTypes)", "RTID(mech_cone@ZombieTypes)" ]
					}, {
						"PointIncrementPerWave": 60,
						"StartingPoints": 400,
						"StartingWave": 3,
						"ZombiePool": [ "RTID(football_mech@ZombieTypes)", "RTID(future_armor2@ZombieTypes)", "RTID(future_jetpack@ZombieTypes)", "RTID(future_protector@ZombieTypes)", "RTID(mech_cone@ZombieTypes)" ]
					} ],
				"WaveManagerProps": "RTID(WaveManagerProps@CurrentLevel)"
			}
		}, {
			"aliases": [ "WaveManagerProps" ],
			"objclass": "WaveManagerProperties",
			"objdata": {
				"FlagWaveInterval": 8,
				"WaveCount": 16,
				"WaveSpendingPointIncrement": 100,
				"WaveSpendingPoints": 200,
				"Waves": [ [ "RTID(Wave1@CurrentLevel)" ], [ "RTID(Wave2@CurrentLevel)" ], [ "RTID(Wave3@CurrentLevel)" ], [ "RTID(Wave4@CurrentLevel)" ], [ "RTID(Wave5@CurrentLevel)", "RTID(Wave5ModConveyor0@CurrentLevel)" ], [ "RTID(Wave6@CurrentLevel)", "RTID(Wave6ModConveyor0@CurrentLevel)" ], [ "RTID(Wave7@CurrentLevel)" ], [ "RTID(Wave8@CurrentLevel)" ], [ "RTID(Wave9@CurrentLevel)" ], [ "RTID(Wave10@CurrentLevel)" ], [ "RTID(Wave11@CurrentLevel)" ], [ "RTID(Wave12@CurrentLevel)" ], [ "RTID(Wave13@CurrentLevel)" ], [ "RTID(Wave14@CurrentLevel)" ], [ "RTID(Wave15@CurrentLevel)" ], [ "RTID(Wave16@CurrentLevel)" ] ]
			}
		}, {
			"aliases": [ "Wave1" ],
			"objclass": "SpawnZombiesJitteredWaveActionProps",
			"objdata": {
				"Zombies": [ {
						"Type": "RTID(future@ZombieTypes)"
					} ]
			}
		}, {
			"aliases": [ "Wave2" ],
			"objclass": "SpawnZombiesJitteredWaveActionProps",
			"objdata": {
				"Zombies": [ {
						"Type": "RTID(future@ZombieTypes)"
					}, {
						"Type": "RTID(future_armor1@ZombieTypes)"
					} ]
			}
		}, {
			"aliases": [ "Wave3" ],
			"objclass": "SpawnZombiesJitteredWaveActionProps",
			"objdata": {
				"Zombies": [ {
						"Type": "RTID(future_armor1@ZombieTypes)"
					}, {
						"Type": "RTID(future_armor2@ZombieTypes)"
					} ]
			}
		}, {
			"aliases": [ "Wave4" ],
			"objclass": "SpawnZombiesJitteredWaveActionProps",
			"objdata": {
				"AdditionalPlantfood": 1,
				"DynamicPlantfood": [ 1, 1, 1, 1, 1, 1, 1 ],
				"Zombies": [ {
						"Type": "RTID(future_armor1@ZombieTypes)"
					}, {
						"Type": "RTID(future_armor2@ZombieTypes)"
					}, {
						"Type": "RTID(future_armor1@ZombieTypes)"
					} ]
			}
		}, {
			"aliases": [ "Wave5" ],
			"objclass": "SpawnZombiesJitteredWaveActionProps",
			"objdata": {
				"Zombies": [ {
						"Type": "RTID(future_armor2@ZombieTypes)"
					}, {
						"Type": "RTID(future_armor2@ZombieTypes)"
					} ]
			}
		}, {
			"aliases": [ "Wave6" ],
			"objclass": "SpawnZombiesJitteredWaveActionProps",
			"objdata": {
				"AdditionalPlantfood": 1,
				"DynamicPlantfood": [ 1, 1, 1, 1, 1, 1, 0 ],
				"Zombies": [ {
						"Row": "4",
						"Type": "RTID(future_armor2@ZombieTypes)"
					}, {
						"Row": "2",
						"Type": "RTID(future_armor2@ZombieTypes)"
					}, {
						"Type": "RTID(future_armor1@ZombieTypes)"
					} ]
			}
		}, {
			"aliases": [ "Wave7" ],
			"objclass": "SpawnZombiesJitteredWaveActionProps",
			"objdata": {
				"Zombies": [ {
						"Row": "3",
						"Type": "RTID(future_jetpack@ZombieTypes)"
					}, {
						"Row": "1",
						"Type": "RTID(future_jetpack@ZombieTypes)"
					}, {
						"Row": "5",
						"Type": "RTID(future_jetpack@ZombieTypes)"
					}, {
						"Row": "3",
						"Type": "RTID(future_jetpack@ZombieTypes)"
					}, {
						"Row": "1",
						"Type": "RTID(future_jetpack@ZombieTypes)"
					}, {
						"Row": "5",
						"Type": "RTID(future_jetpack@ZombieTypes)"
					} ]
			}
		}, {
			"aliases": [ "Wave8" ],
			"objclass": "SpawnZombiesJitteredWaveActionProps",
			"objdata": {
				"AdditionalPlantfood": 1,
				"DynamicPlantfood": [ 1, 1, 1, 1, 0, 0, 0 ],
				"Zombies": [ {
						"Row": "3",
						"Type": "RTID(football_mech@ZombieTypes)"
					}, {
						"Row": "1",
						"Type": "RTID(future@ZombieTypes)"
					} ]
			}
		}, {
			"aliases": [ "Wave9" ],
			"objclass": "SpawnZombiesJitteredWaveActionProps",
			"objdata": {
				"AdditionalPlantfood": 0,
				"Zombies": [ {
						"Type": "RTID(future_armor1@ZombieTypes)"
					}, {
						"Type": "RTID(future_armor1@ZombieTypes)"
					}, {
						"Type": "RTID(future_armor1@ZombieTypes)"
					}, {
						"Type": "RTID(future_armor1@ZombieTypes)"
					}, {
						"Type": "RTID(future_armor1@ZombieTypes)"
					}, {
						"Type": "RTID(future_protector@ZombieTypes)"
					} ]
			}
		}, {
			"aliases": [ "Wave10" ],
			"objclass": "SpawnZombiesJitteredWaveActionProps",
			"objdata": {
				"AdditionalPlantfood": 1,
				"DynamicPlantfood": [ 1, 1, 1, 1, 1, 1, 1 ],
				"Zombies": [ {
						"Type": "RTID(future_jetpack@ZombieTypes)"
					}, {
						"Type": "RTID(future_jetpack@ZombieTypes)"
					}, {
						"Type": "RTID(future_jetpack@ZombieTypes)"
					}, {
						"Type": "RTID(future_jetpack@ZombieTypes)"
					}, {
						"Type": "RTID(future_jetpack@ZombieTypes)"
					} ]
			}
		}, {
			"aliases": [ "Wave11" ],
			"objclass": "SpawnZombiesJitteredWaveActionProps",
			"objdata": {
				"Zombies": [ {
						"Row": "2",
						"Type": "RTID(mech_cone@ZombieTypes)"
					}, {
						"Row": "4",
						"Type": "RTID(mech_cone@ZombieTypes)"
					}, {
						"Row": "3",
						"Type": "RTID(future_armor1@ZombieTypes)"
					}, {
						"Row": "1",
						"Type": "RTID(future_armor1@ZombieTypes)"
					}, {
						"Row": "5",
						"Type": "RTID(future_armor1@ZombieTypes)"
					} ]
			}
		}, {
			"aliases": [ "Wave12" ],
			"objclass": "SpawnZombiesJitteredWaveActionProps",
			"objdata": {
				"Zombies": [ {
						"Row": "1",
						"Type": "RTID(future@ZombieTypes)"
					}, {
						"Row": "4",
						"Type": "RTID(future@ZombieTypes)"
					}, {
						"Row": "3",
						"Type": "RTID(future@ZombieTypes)"
					}, {
						"Type": "RTID(future_armor1@ZombieTypes)"
					}, {
						"Row": "2",
						"Type": "RTID(future_protector@ZombieTypes)"
					}, {
						"Row": "5",
						"Type": "RTID(future_protector@ZombieTypes)"
					} ]
			}
		}, {
			"aliases": [ "Wave13" ],
			"objclass": "SpawnZombiesJitteredWaveActionProps",
			"objdata": {
				"AdditionalPlantfood": 1,
				"DynamicPlantfood": [ 1, 1, 1, 1, 1, 1, 1 ],
				"Zombies": [ {
						"Row": "3",
						"Type": "RTID(future_armor1@ZombieTypes)"
					}, {
						"Row": "2",
						"Type": "RTID(future_armor1@ZombieTypes)"
					}, {
						"Row": "4",
						"Type": "RTID(future_armor1@ZombieTypes)"
					}, {
						"Row": "1",
						"Type": "RTID(future_armor1@ZombieTypes)"
					}, {
						"Row": "5",
						"Type": "RTID(future_armor1@ZombieTypes)"
					}, {
						"Type": "RTID(future_armor1@ZombieTypes)"
					}, {
						"Type": "RTID(future@ZombieTypes)"
					}, {
						"Type": "RTID(future_armor1@ZombieTypes)"
					}, {
						"Type": "RTID(future@ZombieTypes)"
					}, {
						"Type": "RTID(future_armor1@ZombieTypes)"
					} ]
			}
		}, {
			"aliases": [ "Wave14" ],
			"objclass": "SpawnZombiesJitteredWaveActionProps",
			"objdata": {
				"Zombies": [ {
						"Row": "3",
						"Type": "RTID(football_mech@ZombieTypes)"
					}, {
						"Row": "2",
						"Type": "RTID(football_mech@ZombieTypes)"
					}, {
						"Row": "4",
						"Type": "RTID(football_mech@ZombieTypes)"
					}, {
						"Row": "1",
						"Type": "RTID(football_mech@ZombieTypes)"
					}, {
						"Row": "5",
						"Type": "RTID(football_mech@ZombieTypes)"
					} ]
			}
		}, {
			"aliases": [ "Wave15" ],
			"objclass": "SpawnZombiesJitteredWaveActionProps",
			"objdata": {
				"AdditionalPlantfood": 1,
				"DynamicPlantfood": [ 1, 1, 1, 1, 1, 0, 0 ],
				"Zombies": [ {
						"Row": "3",
						"Type": "RTID(future_jetpack@ZombieTypes)"
					}, {
						"Row": "3",
						"Type": "RTID(future_jetpack@ZombieTypes)"
					}, {
						"Row": "5",
						"Type": "RTID(future_jetpack@ZombieTypes)"
					}, {
						"Row": "5",
						"Type": "RTID(future_jetpack@ZombieTypes)"
					}, {
						"Row": "1",
						"Type": "RTID(future_jetpack@ZombieTypes)"
					}, {
						"Row": "1",
						"Type": "RTID(future_jetpack@ZombieTypes)"
					}, {
						"Row": "4",
						"Type": "RTID(future_jetpack@ZombieTypes)"
					}, {
						"Row": "4",
						"Type": "RTID(future_jetpack@ZombieTypes)"
					}, {
						"Row": "2",
						"Type": "RTID(future_jetpack@ZombieTypes)"
					}, {
						"Row": "2",
						"Type": "RTID(future_jetpack@ZombieTypes)"
					} ]
			}
		}, {
			"aliases": [ "Wave16" ],
			"objclass": "SpawnZombiesJitteredWaveActionProps",
			"objdata": {
				"AdditionalPlantfood": 0,
				"Zombies": [ {
						"Row": "3",
						"Type": "RTID(football_mech@ZombieTypes)"
					}, {
						"Type": "RTID(mech_cone@ZombieTypes)"
					}, {
						"Type": "RTID(football_mech@ZombieTypes)"
					}, {
						"Type": "RTID(mech_cone@ZombieTypes)"
					}, {
						"Type": "RTID(football_mech@ZombieTypes)"
					}, {
						"Row": "2",
						"Type": "RTID(mech_cone@ZombieTypes)"
					}, {
						"Row": "4",
						"Type": "RTID(mech_cone@ZombieTypes)"
					} ]
			}
		}, {
			"aliases": [ "Wave5ModConveyor0" ],
			"objclass": "ModifyConveyorWaveActionProps",
			"objdata": {
				"Add": [ {
						"MaxCount": 1,
						"MaxWeightFactor": 0.25,
						"MinWeightFactor": 0.1,
						"Type": "RTID(blover@PlantTypes)",
						"Weight": 10
					} ],
				"Remove": []
			}
		}, {
			"aliases": [ "Wave6ModConveyor0" ],
			"objclass": "ModifyConveyorWaveActionProps",
			"objdata": {
				"Add": [],
				"Remove": [ {
						"Type": "RTID(empea@PlantTypes)"
					} ]
			}
		} ],
	"version": 1
}