{
	"#comment": "Hello Aloe 10",
	"objects": [ {
			"objclass": "LevelDefinition",
			"objdata": {
				"Description": "[PLAYERS_EPIC_QUEST_ALOE]",
				"LevelNumber": 10,
				"Loot": "RTID(DefaultLoot@LevelModules)",
				"Modules": [ "RTID(StandardIntro@LevelModules)", "RTID(LostCityMowers@LevelModules)", "RTID(DefaultZombieWinCondition@LevelModules)", "RTID(ZombiesDeadWinCon@LevelModules)", "RTID(GoldTiles@CurrentLevel)", "RTID(SeedBank@CurrentLevel)", "RTID(NewWaves@CurrentLevel)", "RTID(ChallengeModule@CurrentLevel)" ],
				"MusicType": "MiniGame_A",
				"Name": "[EPIC_QUEST_ALOE_LEVEL_NAME]",
				"NormalPresentTable": "egypt_normal_01",
				"ShinyPresentTable": "egypt_shiny_01",
				"StageModule": "RTID(LostCityStage@LevelModules)"
			}
		}, {
			"aliases": [ "ChallengeModule" ],
			"objclass": "StarChallengeModuleProperties",
			"objdata": {
				"Challenges": [ [ "RTID(SunProduced@CurrentLevel)" ] ],
				"ChallengesAlwaysAvailable": true
			}
		}, {
			"aliases": [ "GoldTiles" ],
			"objclass": "InitialGridItemProperties",
			"objdata": {
				"InitialGridItemPlacements": [ {
						"GridX": 1,
						"GridY": 0,
						"TypeName": "goldtile"
					}, {
						"GridX": 5,
						"GridY": 0,
						"TypeName": "goldtile"
					}, {
						"GridX": 1,
						"GridY": 1,
						"TypeName": "goldtile"
					}, {
						"GridX": 4,
						"GridY": 1,
						"TypeName": "goldtile"
					}, {
						"GridX": 6,
						"GridY": 1,
						"TypeName": "goldtile"
					}, {
						"GridX": 0,
						"GridY": 2,
						"TypeName": "goldtile"
					}, {
						"GridX": 8,
						"GridY": 2,
						"TypeName": "goldtile"
					}, {
						"GridX": 2,
						"GridY": 2,
						"TypeName": "goldtile"
					}, {
						"GridX": 1,
						"GridY": 3,
						"TypeName": "goldtile"
					}, {
						"GridX": 4,
						"GridY": 3,
						"TypeName": "goldtile"
					}, {
						"GridX": 6,
						"GridY": 3,
						"TypeName": "goldtile"
					}, {
						"GridX": 1,
						"GridY": 4,
						"TypeName": "goldtile"
					}, {
						"GridX": 5,
						"GridY": 4,
						"TypeName": "goldtile"
					} ]
			}
		}, {
			"aliases": [ "SunProduced" ],
			"objclass": "StarChallengeSunProducedProps",
			"objdata": {
				"TargetSun": 3000
			}
		}, {
			"aliases": [ "SeedBank" ],
			"objclass": "SeedBankProperties",
			"objdata": {
				"PresetPlantList": [ {
						"Level": -1,
						"PlantType": "aloe"
					}, {
						"Level": -1,
						"PlantType": "wallnut"
					}, {
						"Level": -1,
						"PlantType": "magnifyinggrass"
					}, {
						"Level": -1,
						"PlantType": "iceburg"
					} ],
				"SelectionMethod": "preset"
			}
		}, {
			"aliases": [ "NewWaves" ],
			"objclass": "WaveManagerModuleProperties",
			"objdata": {
				"DynamicZombies": [ {
						"PointIncrementPerWave": -40,
						"StartingPoints": -100,
						"StartingWave": 3,
						"ZombiePool": [ "RTID(lostcity@ZombieTypes)", "RTID(lostcity_armor1@ZombieTypes)", "RTID(lostcity_armor2@ZombieTypes)" ]
					}, {
						"PointIncrementPerWave": -25,
						"StartingPoints": -100,
						"StartingWave": 4,
						"ZombiePool": [ "RTID(lostcity@ZombieTypes)", "RTID(lostcity_armor1@ZombieTypes)", "RTID(lostcity_armor2@ZombieTypes)" ]
					}, {
						"PointIncrementPerWave": -10,
						"StartingPoints": -100,
						"StartingWave": 5,
						"ZombiePool": [ "RTID(lostcity@ZombieTypes)", "RTID(lostcity_armor1@ZombieTypes)", "RTID(lostcity_armor2@ZombieTypes)" ]
					}, {}, {
						"PointIncrementPerWave": 20,
						"StartingPoints": 100,
						"StartingWave": 5,
						"ZombiePool": [ "RTID(lostcity@ZombieTypes)", "RTID(lostcity_armor1@ZombieTypes)", "RTID(lostcity_armor2@ZombieTypes)" ]
					}, {
						"PointIncrementPerWave": 40,
						"StartingPoints": 200,
						"StartingWave": 4,
						"ZombiePool": [ "RTID(lostcity@ZombieTypes)", "RTID(lostcity_armor1@ZombieTypes)", "RTID(lostcity_armor2@ZombieTypes)" ]
					}, {
						"PointIncrementPerWave": 60,
						"StartingPoints": 400,
						"StartingWave": 3,
						"ZombiePool": [ "RTID(lostcity@ZombieTypes)", "RTID(lostcity_armor2@ZombieTypes)" ]
					} ],
				"WaveManagerProps": "RTID(WaveManagerProps@CurrentLevel)"
			}
		}, {
			"aliases": [ "WaveManagerProps" ],
			"objclass": "WaveManagerProperties",
			"objdata": {
				"FlagWaveInterval": 4,
				"WaveCount": 12,
				"WaveSpendingPointIncrement": 100,
				"WaveSpendingPoints": 150,
				"Waves": [ [ "RTID(Wave1@CurrentLevel)" ], [ "RTID(Wave2@CurrentLevel)" ], [ "RTID(Wave3@CurrentLevel)" ], [ "RTID(Wave4@CurrentLevel)" ], [ "RTID(Wave5@CurrentLevel)" ], [ "RTID(Wave6@CurrentLevel)" ], [ "RTID(Wave7@CurrentLevel)" ], [ "RTID(Wave8@CurrentLevel)" ], [ "RTID(Wave9@CurrentLevel)" ], [ "RTID(Wave10@CurrentLevel)" ], [ "RTID(Wave11@CurrentLevel)" ], [ "RTID(Wave12@CurrentLevel)" ] ]
			}
		}, {
			"aliases": [ "Wave1" ],
			"objclass": "SpawnZombiesJitteredWaveActionProps",
			"objdata": {
				"Zombies": [ {
						"Row": "2",
						"Type": "RTID(lostcity_armor1@ZombieTypes)"
					} ]
			}
		}, {
			"aliases": [ "Wave2" ],
			"objclass": "SpawnZombiesJitteredWaveActionProps",
			"objdata": {
				"Zombies": [ {
						"Row": "2",
						"Type": "RTID(lostcity_imp@ZombieTypes)"
					}, {
						"Row": "2",
						"Type": "RTID(lostcity_armor1@ZombieTypes)"
					} ]
			}
		}, {
			"aliases": [ "Wave3" ],
			"objclass": "SpawnZombiesJitteredWaveActionProps",
			"objdata": {
				"Zombies": [ {
						"Row": "3",
						"Type": "RTID(lostcity_jane@ZombieTypes)"
					} ]
			}
		}, {
			"aliases": [ "Wave4" ],
			"objclass": "SpawnZombiesJitteredWaveActionProps",
			"objdata": {
				"AdditionalPlantfood": 1,
				"Zombies": [ {
						"Type": "RTID(lostcity@ZombieTypes)"
					}, {
						"Row": "4",
						"Type": "RTID(lostcity_bug@ZombieTypes)"
					}, {
						"Row": "2",
						"Type": "RTID(lostcity_bug@ZombieTypes)"
					}, {
						"Type": "RTID(lostcity_armor1@ZombieTypes)"
					} ]
			}
		}, {
			"aliases": [ "Wave5" ],
			"objclass": "SpawnZombiesJitteredWaveActionProps",
			"objdata": {
				"Zombies": [ {
						"Type": "RTID(lostcity@ZombieTypes)"
					}, {
						"Type": "RTID(lostcity_bug@ZombieTypes)"
					} ]
			}
		}, {
			"aliases": [ "Wave6" ],
			"objclass": "SpawnZombiesJitteredWaveActionProps",
			"objdata": {
				"Zombies": [ {
						"Row": "3",
						"Type": "RTID(lostcity_excavator@ZombieTypes)"
					}, {
						"Row": "1",
						"Type": "RTID(lostcity_excavator@ZombieTypes)"
					} ]
			}
		}, {
			"aliases": [ "Wave7" ],
			"objclass": "SpawnZombiesJitteredWaveActionProps",
			"objdata": {
				"AdditionalPlantfood": 1,
				"Zombies": [ {
						"Type": "RTID(lostcity@ZombieTypes)"
					}, {
						"Row": "4",
						"Type": "RTID(lostcity_armor1@ZombieTypes)"
					}, {
						"Row": "1",
						"Type": "RTID(lostcity_armor1@ZombieTypes)"
					}, {
						"Row": "1",
						"Type": "RTID(lostcity_armor1@ZombieTypes)"
					} ]
			}
		}, {
			"aliases": [ "Wave8" ],
			"objclass": "SpawnZombiesJitteredWaveActionProps",
			"objdata": {
				"AdditionalPlantfood": 1,
				"Zombies": [ {
						"Type": "RTID(lostcity_excavator@ZombieTypes)"
					}, {
						"Type": "RTID(lostcity_bug@ZombieTypes)"
					}, {
						"Type": "RTID(lostcity_bug_armor1@ZombieTypes)"
					}, {
						"Row": "3",
						"Type": "RTID(lostcity_excavator@ZombieTypes)"
					}, {
						"Row": "1",
						"Type": "RTID(lostcity_excavator@ZombieTypes)"
					}, {
						"Type": "RTID(lostcity@ZombieTypes)"
					}, {
						"Type": "RTID(lostcity_armor1@ZombieTypes)"
					} ]
			}
		}, {
			"aliases": [ "Wave9" ],
			"objclass": "SpawnZombiesJitteredWaveActionProps",
			"objdata": {
				"Zombies": [ {
						"Type": "RTID(lostcity_excavator@ZombieTypes)"
					}, {
						"Type": "RTID(lostcity@ZombieTypes)"
					}, {
						"Row": "4",
						"Type": "RTID(lostcity_armor1@ZombieTypes)"
					}, {
						"Type": "RTID(lostcity_armor2@ZombieTypes)"
					} ]
			}
		}, {
			"aliases": [ "Wave10" ],
			"objclass": "SpawnZombiesJitteredWaveActionProps",
			"objdata": {
				"Zombies": [ {
						"Type": "RTID(lostcity_jane@ZombieTypes)"
					}, {
						"Type": "RTID(lostcity_armor1@ZombieTypes)"
					} ]
			}
		}, {
			"aliases": [ "Wave11" ],
			"objclass": "SpawnZombiesJitteredWaveActionProps",
			"objdata": {
				"AdditionalPlantfood": 1,
				"Zombies": [ {
						"Type": "RTID(lostcity_armor2@ZombieTypes)"
					}, {
						"Row": "3",
						"Type": "RTID(lostcity_bug_armor1@ZombieTypes)"
					} ]
			}
		}, {
			"aliases": [ "Wave12" ],
			"objclass": "SpawnZombiesJitteredWaveActionProps",
			"objdata": {
				"AdditionalPlantfood": 0,
				"Zombies": [ {
						"Type": "RTID(lostcity_gargantuar@ZombieTypes)"
					}, {
						"Type": "RTID(lostcity_gargantuar@ZombieTypes)"
					}, {
						"Type": "RTID(lostcity_excavator@ZombieTypes)"
					} ]
			}
		} ],
	"version": 1
}