{
	"#comment": "Dino 19",
	"objects": [ {
			"objclass": "LevelDefinition",
			"objdata": {
				"Description": "[PLAYERS_EPIC_QUEST_GEMJAM]",
				"FirstIntroNarrative": "EPIC_QUEST_GEMJAM_10_INTRO",
				"FirstOutroNarrative": "EPIC_QUEST_GEMJAM_10_OUTRO",
				"LevelNumber": 10,
				"Loot": "RTID(DefaultLoot@LevelModules)",
				"Modules": [ "RTID(StandardIntro@LevelModules)", "RTID(ZombiesDeadWinCon@LevelModules)", "RTID(DinoMowers@LevelModules)", "RTID(ConveyorBelt@CurrentLevel)", "RTID(DefaultZombieWinCondition@LevelModules)", "RTID(NewWaves@CurrentLevel)", "RTID(ChallengeModule@CurrentLevel)" ],
				"MusicType": "MiniGame_B",
				"Name": "[EPIC_QUEST_GEMJAM_LEVEL_NAME]",
				"NormalPresentTable": "egypt_normal_01",
				"ShinyPresentTable": "egypt_shiny_01",
				"StageModule": "RTID(DinoStage@LevelModules)"
			}
		}, {
			"aliases": [ "ChallengeModule" ],
			"objclass": "StarChallengeModuleProperties",
			"objdata": {
				"Challenges": [ [ "RTID(ZombieDistance@CurrentLevel)" ] ],
				"ChallengesAlwaysAvailable": true
			}
		}, {
			"aliases": [ "ZombieDistance" ],
			"objclass": "StarChallengeZombieDistanceProps",
			"objdata": {
				"TargetDistance": 5.5
			}
		}, {
			"aliases": [ "ConveyorBelt" ],
			"objclass": "ConveyorSeedBankProperties",
			"objdata": {
				"DropDelayConditions": [ {
						"Delay": 6.5,
						"MaxPackets": 0
					}, {
						"Delay": 9,
						"MaxPackets": 5
					}, {
						"Delay": 10,
						"MaxPackets": 7
					}, {
						"Delay": 14,
						"MaxPackets": 9
					} ],
				"InitialPlantList": [ {
						"PlantType": "coldsnapdragon",
						"Weight": 50
					} ],
				"SpeedConditions": [ {
						"MaxPackets": 0,
						"Speed": 100
					} ]
			}
		}, {
			"aliases": [ "NewWaves" ],
			"objclass": "WaveManagerModuleProperties",
			"objdata": {
				"DynamicZombies": [ {
						"PointIncrementPerWave": -40,
						"StartingPoints": -100,
						"StartingWave": 3,
						"ZombiePool": [ "RTID(dino@ZombieTypes)", "RTID(dino_armor1@ZombieTypes)", "RTID(dino_armor2@ZombieTypes)" ]
					}, {
						"PointIncrementPerWave": -25,
						"StartingPoints": -100,
						"StartingWave": 4,
						"ZombiePool": [ "RTID(dino@ZombieTypes)", "RTID(dino_armor1@ZombieTypes)", "RTID(dino_armor2@ZombieTypes)" ]
					}, {
						"PointIncrementPerWave": -10,
						"StartingPoints": -100,
						"StartingWave": 5,
						"ZombiePool": [ "RTID(dino@ZombieTypes)", "RTID(dino_armor1@ZombieTypes)", "RTID(dino_armor2@ZombieTypes)" ]
					}, {}, {
						"PointIncrementPerWave": 20,
						"StartingPoints": 100,
						"StartingWave": 5,
						"ZombiePool": [ "RTID(dino@ZombieTypes)", "RTID(dino_armor1@ZombieTypes)", "RTID(dino_armor2@ZombieTypes)" ]
					}, {
						"PointIncrementPerWave": 40,
						"StartingPoints": 200,
						"StartingWave": 4,
						"ZombiePool": [ "RTID(dino@ZombieTypes)", "RTID(dino_armor1@ZombieTypes)", "RTID(dino_armor2@ZombieTypes)" ]
					}, {
						"PointIncrementPerWave": 60,
						"StartingPoints": 400,
						"StartingWave": 3,
						"ZombiePool": [ "RTID(dino@ZombieTypes)", "RTID(dino_armor2@ZombieTypes)" ]
					} ],
				"WaveManagerProps": "RTID(WaveManagerProps@CurrentLevel)"
			}
		}, {
			"aliases": [ "WaveManagerProps" ],
			"objclass": "WaveManagerProperties",
			"objdata": {
				"FlagWaveInterval": 5,
				"WaveCount": 10,
				"WaveSpendingPointIncrement": 100,
				"WaveSpendingPoints": 150,
				"Waves": [ [ "RTID(Wave1@CurrentLevel)" ], [ "RTID(Wave2@CurrentLevel)", "RTID(Wave2ModConveyor0@CurrentLevel)" ], [ "RTID(Wave3@CurrentLevel)", "RTID(Wave3ModConveyor0@CurrentLevel)" ], [ "RTID(Wave4@CurrentLevel)", "RTID(Wave4DinoTimeEvent0@CurrentLevel)" ], [ "RTID(Wave5@CurrentLevel)", "RTID(Wave5DinoTimeEvent0@CurrentLevel)" ], [ "RTID(Wave6@CurrentLevel)" ], [ "RTID(Wave7@CurrentLevel)", "RTID(Wave7DinoTimeEvent0@CurrentLevel)" ], [ "RTID(Wave8@CurrentLevel)", "RTID(Wave8DinoTimeEvent0@CurrentLevel)" ], [ "RTID(Wave9@CurrentLevel)" ], [ "RTID(Wave10@CurrentLevel)", "RTID(Wave10DinoTimeEvent0@CurrentLevel)" ] ]
			}
		}, {
			"aliases": [ "Wave1" ],
			"objclass": "SpawnZombiesJitteredWaveActionProps",
			"objdata": {
				"AdditionalPlantfood": 0,
				"Zombies": [ {
						"Row": "4",
						"Type": "RTID(dino_imp@ZombieTypes)"
					}, {
						"Row": "3",
						"Type": "RTID(dino_imp@ZombieTypes)"
					}, {
						"Row": "2",
						"Type": "RTID(dino_imp@ZombieTypes)"
					} ]
			}
		}, {
			"aliases": [ "Wave2" ],
			"objclass": "SpawnZombiesJitteredWaveActionProps",
			"objdata": {
				"Zombies": [ {
						"Type": "RTID(dino@ZombieTypes)"
					}, {
						"Row": "5",
						"Type": "RTID(dino@ZombieTypes)"
					}, {
						"Row": "4",
						"Type": "RTID(dino@ZombieTypes)"
					} ]
			}
		}, {
			"aliases": [ "Wave3" ],
			"objclass": "SpawnZombiesJitteredWaveActionProps",
			"objdata": {
				"AdditionalPlantfood": 1,
				"Zombies": [ {
						"Row": "3",
						"Type": "RTID(dino_imp@ZombieTypes)"
					}, {
						"Row": "2",
						"Type": "RTID(dino_imp@ZombieTypes)"
					}, {
						"Row": "1",
						"Type": "RTID(dino_imp@ZombieTypes)"
					} ]
			}
		}, {
			"aliases": [ "Wave4" ],
			"objclass": "SpawnZombiesJitteredWaveActionProps",
			"objdata": {
				"Zombies": [ {
						"Row": "4",
						"Type": "RTID(dino_armor1@ZombieTypes)"
					}, {
						"Row": "4",
						"Type": "RTID(dino_armor1@ZombieTypes)"
					} ]
			}
		}, {
			"aliases": [ "Wave5" ],
			"objclass": "SpawnZombiesJitteredWaveActionProps",
			"objdata": {
				"AdditionalPlantfood": 0,
				"Zombies": [ {
						"Row": "3",
						"Type": "RTID(dino_armor3@ZombieTypes)"
					}, {
						"Row": "3",
						"Type": "RTID(dino_imp@ZombieTypes)"
					}, {
						"Row": "3",
						"Type": "RTID(dino@ZombieTypes)"
					}, {
						"Row": "3",
						"Type": "RTID(dino_imp@ZombieTypes)"
					}, {
						"Row": "3",
						"Type": "RTID(dino_armor1@ZombieTypes)"
					}, {
						"Row": "3",
						"Type": "RTID(dino@ZombieTypes)"
					} ]
			}
		}, {
			"aliases": [ "Wave6" ],
			"objclass": "SpawnZombiesJitteredWaveActionProps",
			"objdata": {
				"Zombies": [ {
						"Row": "2",
						"Type": "RTID(dino_armor1@ZombieTypes)"
					}, {
						"Row": "2",
						"Type": "RTID(dino@ZombieTypes)"
					}, {
						"Row": "1",
						"Type": "RTID(dino_armor1@ZombieTypes)"
					}, {
						"Row": "1",
						"Type": "RTID(dino@ZombieTypes)"
					} ]
			}
		}, {
			"aliases": [ "Wave7" ],
			"objclass": "SpawnZombiesJitteredWaveActionProps",
			"objdata": {
				"Zombies": [ {
						"Row": "5",
						"Type": "RTID(dino_imp@ZombieTypes)"
					}, {
						"Row": "4",
						"Type": "RTID(dino_imp@ZombieTypes)"
					}, {
						"Row": "3",
						"Type": "RTID(dino_imp@ZombieTypes)"
					}, {
						"Row": "5",
						"Type": "RTID(dino_imp@ZombieTypes)"
					}, {
						"Row": "4",
						"Type": "RTID(dino_imp@ZombieTypes)"
					}, {
						"Row": "3",
						"Type": "RTID(dino_imp@ZombieTypes)"
					}, {
						"Row": "1",
						"Type": "RTID(dino@ZombieTypes)"
					}, {
						"Row": "1",
						"Type": "RTID(dino@ZombieTypes)"
					} ]
			}
		}, {
			"aliases": [ "Wave8" ],
			"objclass": "SpawnZombiesJitteredWaveActionProps",
			"objdata": {
				"AdditionalPlantfood": 1,
				"Zombies": [ {
						"Row": "2",
						"Type": "RTID(dino_armor1@ZombieTypes)"
					}, {
						"Row": "1",
						"Type": "RTID(dino_armor1@ZombieTypes)"
					}, {
						"Row": "2",
						"Type": "RTID(dino_armor1@ZombieTypes)"
					}, {
						"Row": "1",
						"Type": "RTID(dino_armor1@ZombieTypes)"
					} ]
			}
		}, {
			"aliases": [ "Wave9" ],
			"objclass": "SpawnZombiesJitteredWaveActionProps",
			"objdata": {
				"AdditionalPlantfood": 0,
				"Zombies": [ {
						"Row": "5",
						"Type": "RTID(dino_armor1@ZombieTypes)"
					}, {
						"Row": "4",
						"Type": "RTID(dino_armor1@ZombieTypes)"
					}, {
						"Row": "3",
						"Type": "RTID(dino_armor1@ZombieTypes)"
					}, {
						"Row": "2",
						"Type": "RTID(dino_armor1@ZombieTypes)"
					}, {
						"Row": "1",
						"Type": "RTID(dino_armor1@ZombieTypes)"
					} ]
			}
		}, {
			"aliases": [ "Wave10" ],
			"objclass": "SpawnZombiesJitteredWaveActionProps",
			"objdata": {
				"AdditionalPlantfood": 0,
				"Zombies": [ {
						"Row": "3",
						"Type": "RTID(dino_gargantuar@ZombieTypes)"
					}, {
						"Row": "4",
						"Type": "RTID(dino_armor2@ZombieTypes)"
					}, {
						"Row": "2",
						"Type": "RTID(dino_armor2@ZombieTypes)"
					}, {
						"Row": "1",
						"Type": "RTID(dino_imp@ZombieTypes)"
					}, {
						"Row": "5",
						"Type": "RTID(dino_imp@ZombieTypes)"
					} ]
			}
		}, {
			"aliases": [ "Wave2ModConveyor0" ],
			"objclass": "ModifyConveyorWaveActionProps",
			"objdata": {
				"Add": [ {
						"Type": "RTID(primalwallnut@PlantTypes)",
						"Weight": 25
					} ],
				"Remove": []
			}
		}, {
			"aliases": [ "Wave3ModConveyor0" ],
			"objclass": "ModifyConveyorWaveActionProps",
			"objdata": {
				"Add": [ {
						"Type": "RTID(spikerock@PlantTypes)",
						"Weight": 25
					} ],
				"Remove": []
			}
		}, {
			"aliases": [ "Wave4DinoTimeEvent0" ],
			"objclass": "DinoWaveActionProps",
			"objdata": {
				"DinoRow": 3,
				"DinoType": "tyranno",
				"DinoWaveDuration": 0
			}
		}, {
			"aliases": [ "Wave5DinoTimeEvent0" ],
			"objclass": "DinoWaveActionProps",
			"objdata": {
				"DinoRow": 2,
				"DinoType": "tyranno",
				"DinoWaveDuration": "0"
			}
		}, {
			"aliases": [ "Wave7DinoTimeEvent0" ],
			"objclass": "DinoWaveActionProps",
			"objdata": {
				"DinoRow": 4,
				"DinoType": "tyranno",
				"DinoWaveDuration": "0"
			}
		}, {
			"aliases": [ "Wave8DinoTimeEvent0" ],
			"objclass": "DinoWaveActionProps",
			"objdata": {
				"DinoRow": 0,
				"DinoType": "tyranno",
				"DinoWaveDuration": "0"
			}
		}, {
			"aliases": [ "Wave10DinoTimeEvent0" ],
			"objclass": "DinoWaveActionProps",
			"objdata": {
				"DinoRow": "2",
				"DinoType": "tyranno",
				"DinoWaveDuration": "0"
			}
		} ],
	"version": 1
}