{
	"#comment": "Eighties 24",
	"objects": [ {
			"objclass": "LevelDefinition",
			"objdata": {
				"Description": "[PLAYERS_EPIC_QUEST_GEMJAM]",
				"LevelNumber": 9,
				"Loot": "RTID(DefaultLoot@LevelModules)",
				"Modules": [ "RTID(EightiesMowers@LevelModules)", "RTID(DefaultZombieWinCondition@LevelModules)", "RTID(ZombiesDeadWinCon@LevelModules)", "RTID(SeedBank@CurrentLevel)", "RTID(NewWaves@CurrentLevel)", "RTID(LastStand@CurrentLevel)", "RTID(ChallengeModule@CurrentLevel)" ],
				"MusicType": "MiniGame_A",
				"Name": "[EPIC_QUEST_GEMJAM_LEVEL_NAME]",
				"NormalPresentTable": "egypt_normal_01",
				"ShinyPresentTable": "egypt_shiny_01",
				"StageModule": "RTID(EightiesStage@LevelModules)"
			}
		}, {
			"aliases": [ "ChallengeModule" ],
			"objclass": "StarChallengeModuleProperties",
			"objdata": {
				"Challenges": [ [ "RTID(BeatTheLevel@CurrentLevel)" ] ],
				"ChallengesAlwaysAvailable": true
			}
		}, {
			"aliases": [ "LastStand" ],
			"objclass": "LastStandMinigameProperties",
			"objdata": {
				"StartingPlantfood": 2,
				"StartingSun": 2000
			}
		}, {
			"aliases": [ "BeatTheLevel" ],
			"objclass": "StarChallengeBeatTheLevelProps",
			"objdata": {
				"Description": "[STARCHALLENGE_LASTSTAND_MINIGAME]",
				"DescriptiveName": "[STARCHALLENGE_LASTSTAND_MINIGAME_NAME]"
			}
		}, {
			"aliases": [ "SeedBank" ],
			"objclass": "SeedBankProperties",
			"objdata": {
				"ExcludeListSunProducers": "true",
				"PlantExcludeList": [ "iceburg", "gravebuster", "puffshroom", "melonpult", "toadstool", "goldleaf", "stallia" ],
				"SelectionMethod": "chooser"
			}
		}, {
			"aliases": [ "NewWaves" ],
			"objclass": "WaveManagerModuleProperties",
			"objdata": {
				"DynamicZombies": [ {
						"PointIncrementPerWave": -40,
						"StartingPoints": -100,
						"StartingWave": 3,
						"ZombiePool": [ "RTID(eighties@ZombieTypes)", "RTID(eighties_armor1@ZombieTypes)", "RTID(eighties_armor2@ZombieTypes)" ]
					}, {
						"PointIncrementPerWave": -25,
						"StartingPoints": -100,
						"StartingWave": 4,
						"ZombiePool": [ "RTID(eighties@ZombieTypes)", "RTID(eighties_armor1@ZombieTypes)", "RTID(eighties_armor2@ZombieTypes)" ]
					}, {
						"PointIncrementPerWave": -10,
						"StartingPoints": -100,
						"StartingWave": 5,
						"ZombiePool": [ "RTID(eighties@ZombieTypes)", "RTID(eighties_armor1@ZombieTypes)", "RTID(eighties_armor2@ZombieTypes)" ]
					}, {}, {
						"PointIncrementPerWave": 20,
						"StartingPoints": 100,
						"StartingWave": 5,
						"ZombiePool": [ "RTID(eighties@ZombieTypes)", "RTID(eighties_armor1@ZombieTypes)", "RTID(eighties_armor2@ZombieTypes)" ]
					}, {
						"PointIncrementPerWave": 40,
						"StartingPoints": 200,
						"StartingWave": 4,
						"ZombiePool": [ "RTID(eighties@ZombieTypes)", "RTID(eighties_armor1@ZombieTypes)", "RTID(eighties_armor2@ZombieTypes)" ]
					}, {
						"PointIncrementPerWave": 60,
						"StartingPoints": 400,
						"StartingWave": 3,
						"ZombiePool": [ "RTID(eighties@ZombieTypes)", "RTID(eighties_armor2@ZombieTypes)" ]
					} ],
				"WaveManagerProps": "RTID(WaveManagerProps@CurrentLevel)"
			}
		}, {
			"aliases": [ "WaveManagerProps" ],
			"objclass": "WaveManagerProperties",
			"objdata": {
				"FlagWaveInterval": 4,
				"WaveCount": 12,
				"WaveSpendingPointIncrement": 150,
				"WaveSpendingPoints": 300,
				"Waves": [ [ "RTID(Wave1@CurrentLevel)" ], [ "RTID(Wave2@CurrentLevel)" ], [ "RTID(Wave3@CurrentLevel)" ], [ "RTID(Wave4@CurrentLevel)" ], [ "RTID(Wave5@CurrentLevel)" ], [ "RTID(Wave6@CurrentLevel)" ], [ "RTID(Wave7@CurrentLevel)" ], [ "RTID(Wave8@CurrentLevel)" ], [ "RTID(Wave9@CurrentLevel)" ], [ "RTID(Wave10@CurrentLevel)" ], [ "RTID(Wave11@CurrentLevel)" ], [ "RTID(Wave12@CurrentLevel)" ] ]
			}
		}, {
			"aliases": [ "Wave1" ],
			"objclass": "SpawnZombiesJitteredWaveActionProps",
			"objdata": {
				"NotificationEvents": [ "jam_punk" ],
				"Zombies": [ {
						"Row": "4",
						"Type": "RTID(eighties_punk@ZombieTypes)"
					}, {
						"Row": "3",
						"Type": "RTID(eighties_punk@ZombieTypes)"
					}, {
						"Row": "2",
						"Type": "RTID(eighties_punk@ZombieTypes)"
					} ]
			}
		}, {
			"aliases": [ "Wave2" ],
			"objclass": "SpawnZombiesJitteredWaveActionProps",
			"objdata": {
				"Zombies": [ {
						"Row": "4",
						"Type": "RTID(eighties_armor1@ZombieTypes)"
					}, {
						"Row": "3",
						"Type": "RTID(eighties_armor1@ZombieTypes)"
					}, {
						"Row": "2",
						"Type": "RTID(eighties_armor1@ZombieTypes)"
					}, {
						"Row": "5",
						"Type": "RTID(eighties_punk@ZombieTypes)"
					}, {
						"Row": "1",
						"Type": "RTID(eighties_punk@ZombieTypes)"
					} ]
			}
		}, {
			"aliases": [ "Wave3" ],
			"objclass": "SpawnZombiesJitteredWaveActionProps",
			"objdata": {
				"AdditionalPlantfood": 1,
				"NotificationEvents": [ "jam_rap" ],
				"Zombies": [ {
						"Row": "5",
						"Type": "RTID(eighties@ZombieTypes)"
					}, {
						"Row": "4",
						"Type": "RTID(eighties_arcade@ZombieTypes)"
					}, {
						"Row": "3",
						"Type": "RTID(eighties@ZombieTypes)"
					}, {
						"Row": "2",
						"Type": "RTID(eighties_arcade@ZombieTypes)"
					}, {
						"Row": "1",
						"Type": "RTID(eighties@ZombieTypes)"
					} ]
			}
		}, {
			"aliases": [ "Wave4" ],
			"objclass": "SpawnZombiesJitteredWaveActionProps",
			"objdata": {
				"Zombies": [ {
						"Row": "2",
						"Type": "RTID(eighties_breakdancer@ZombieTypes)"
					}, {
						"Row": "2",
						"Type": "RTID(eighties_breakdancer@ZombieTypes)"
					}, {
						"Row": "4",
						"Type": "RTID(eighties_breakdancer@ZombieTypes)"
					}, {
						"Row": "4",
						"Type": "RTID(eighties_breakdancer@ZombieTypes)"
					}, {
						"Row": "3",
						"Type": "RTID(eighties_arcade@ZombieTypes)"
					}, {
						"Row": "5",
						"Type": "RTID(eighties_arcade@ZombieTypes)"
					}, {
						"Row": "1",
						"Type": "RTID(eighties_arcade@ZombieTypes)"
					} ]
			}
		}, {
			"aliases": [ "Wave5" ],
			"objclass": "SpawnZombiesJitteredWaveActionProps",
			"objdata": {
				"NotificationEvents": [ "jam_8bit" ],
				"Zombies": [ {
						"Row": "5",
						"Type": "RTID(eighties_imp@ZombieTypes)"
					}, {
						"Row": "4",
						"Type": "RTID(eighties_imp@ZombieTypes)"
					}, {
						"Row": "3",
						"Type": "RTID(eighties_imp@ZombieTypes)"
					}, {
						"Row": "2",
						"Type": "RTID(eighties_imp@ZombieTypes)"
					}, {
						"Row": "1",
						"Type": "RTID(eighties_imp@ZombieTypes)"
					} ]
			}
		}, {
			"aliases": [ "Wave6" ],
			"objclass": "SpawnZombiesJitteredWaveActionProps",
			"objdata": {
				"AdditionalPlantfood": 1,
				"Zombies": [ {
						"Row": "5",
						"Type": "RTID(eighties_glitter@ZombieTypes)"
					}, {
						"Row": "5",
						"Type": "RTID(eighties_armor1@ZombieTypes)"
					}, {
						"Row": "3",
						"Type": "RTID(eighties_glitter@ZombieTypes)"
					}, {
						"Row": "3",
						"Type": "RTID(eighties_armor1@ZombieTypes)"
					}, {
						"Row": "1",
						"Type": "RTID(eighties_glitter@ZombieTypes)"
					}, {
						"Row": "1",
						"Type": "RTID(eighties_armor1@ZombieTypes)"
					} ]
			}
		}, {
			"aliases": [ "Wave7" ],
			"objclass": "SpawnZombiesJitteredWaveActionProps",
			"objdata": {
				"NotificationEvents": [ "jam_pop" ],
				"Zombies": [ {
						"Row": "5",
						"Type": "RTID(eighties_mc@ZombieTypes)"
					}, {
						"Row": "3",
						"Type": "RTID(eighties_mc@ZombieTypes)"
					}, {
						"Row": "1",
						"Type": "RTID(eighties_mc@ZombieTypes)"
					}, {
						"Row": "2",
						"Type": "RTID(eighties_armor2@ZombieTypes)"
					}, {
						"Row": "4",
						"Type": "RTID(eighties_armor2@ZombieTypes)"
					} ]
			}
		}, {
			"aliases": [ "Wave8" ],
			"objclass": "SpawnZombiesJitteredWaveActionProps",
			"objdata": {
				"NotificationEvents": [ "jam_rap" ],
				"Zombies": [ {
						"Row": "5",
						"Type": "RTID(eighties_breakdancer@ZombieTypes)"
					}, {
						"Row": "3",
						"Type": "RTID(eighties_breakdancer@ZombieTypes)"
					}, {
						"Row": "1",
						"Type": "RTID(eighties_breakdancer@ZombieTypes)"
					}, {
						"Row": "2",
						"Type": "RTID(eighties_gargantuar@ZombieTypes)"
					}, {
						"Row": "2",
						"Type": "RTID(eighties_breakdancer@ZombieTypes)"
					}, {
						"Row": "2",
						"Type": "RTID(eighties_armor2@ZombieTypes)"
					}, {
						"Row": "1",
						"Type": "RTID(eighties_armor2@ZombieTypes)"
					} ]
			}
		}, {
			"aliases": [ "Wave9" ],
			"objclass": "SpawnZombiesJitteredWaveActionProps",
			"objdata": {
				"Zombies": [ {
						"Row": "5",
						"Type": "RTID(eighties_mc@ZombieTypes)"
					}, {
						"Row": "4",
						"Type": "RTID(eighties_mc@ZombieTypes)"
					}, {
						"Row": "3",
						"Type": "RTID(eighties_mc@ZombieTypes)"
					}, {
						"Row": "5",
						"Type": "RTID(eighties_arcade@ZombieTypes)"
					}, {
						"Row": "4",
						"Type": "RTID(eighties_arcade@ZombieTypes)"
					}, {
						"Row": "3",
						"Type": "RTID(eighties_arcade@ZombieTypes)"
					} ]
			}
		}, {
			"aliases": [ "Wave10" ],
			"objclass": "SpawnZombiesJitteredWaveActionProps",
			"objdata": {
				"AdditionalPlantfood": 1,
				"NotificationEvents": [ "jam_8bit" ],
				"Zombies": [ {
						"Row": "5",
						"Type": "RTID(eighties_punk@ZombieTypes)"
					}, {
						"Row": "4",
						"Type": "RTID(eighties_punk@ZombieTypes)"
					}, {
						"Row": "3",
						"Type": "RTID(eighties_punk@ZombieTypes)"
					}, {
						"Row": "2",
						"Type": "RTID(eighties_punk@ZombieTypes)"
					}, {
						"Row": "1",
						"Type": "RTID(eighties_punk@ZombieTypes)"
					} ]
			}
		}, {
			"aliases": [ "Wave11" ],
			"objclass": "SpawnZombiesJitteredWaveActionProps",
			"objdata": {
				"Zombies": [ {
						"Row": "2",
						"Type": "RTID(eighties_arcade@ZombieTypes)"
					}, {
						"Row": "1",
						"Type": "RTID(eighties_arcade@ZombieTypes)"
					}, {
						"Row": "5",
						"Type": "RTID(eighties_armor2@ZombieTypes)"
					}, {
						"Row": "4",
						"Type": "RTID(eighties_armor2@ZombieTypes)"
					}, {
						"Row": "3",
						"Type": "RTID(eighties_armor2@ZombieTypes)"
					} ]
			}
		}, {
			"aliases": [ "Wave12" ],
			"objclass": "SpawnZombiesJitteredWaveActionProps",
			"objdata": {
				"NotificationEvents": [ "jam_metal" ],
				"Zombies": [ {
						"Row": "5",
						"Type": "RTID(eighties_gargantuar@ZombieTypes)"
					}, {
						"Row": "1",
						"Type": "RTID(eighties_gargantuar@ZombieTypes)"
					}, {
						"Row": "4",
						"Type": "RTID(eighties_imp@ZombieTypes)"
					}, {
						"Row": "3",
						"Type": "RTID(eighties_imp@ZombieTypes)"
					}, {
						"Row": "2",
						"Type": "RTID(eighties_imp@ZombieTypes)"
					} ]
			}
		} ],
	"version": 1
}