{
	"#comment": "Modern 21",
	"objects": [ {
			"objclass": "LevelDefinition",
			"objdata": {
				"Description": "[PLAYERS_TRIP_TO_MODERN]",
				"FirstIntroNarrative": "EPIC_QUEST_GOLDBLOOM_1_INTRO",
				"LevelNumber": 1,
				"Loot": "RTID(DefaultLoot@LevelModules)",
				"Modules": [ "RTID(StandardIntro@LevelModules)", "RTID(DefaultSunDropper@LevelModules)", "RTID(ZombiesDeadWinCon@LevelModules)", "RTID(ModernMowers@LevelModules)", "RTID(SeedBank@CurrentLevel)", "RTID(DefaultZombieWinCondition@LevelModules)", "RTID(NewWaves@CurrentLevel)" ],
				"Name": "[EPIC_QUEST_GOLDBLOOM_LEVEL_NAME]",
				"NormalPresentTable": "egypt_normal_01",
				"ShinyPresentTable": "egypt_shiny_01",
				"StageModule": "RTID(ModernStage@LevelModules)"
			}
		}, {
			"aliases": [ "SeedBank" ],
			"objclass": "SeedBankProperties",
			"objdata": {
				"SelectionMethod": "chooser"
			}
		}, {
			"aliases": [ "NewWaves" ],
			"objclass": "WaveManagerModuleProperties",
			"objdata": {
				"DynamicZombies": [ {
						"PointIncrementPerWave": -40,
						"StartingPoints": -100,
						"StartingWave": 3,
						"ZombiePool": [ "RTID(tutorial@ZombieTypes)", "RTID(tutorial_armor1@ZombieTypes)", "RTID(tutorial_armor2@ZombieTypes)" ]
					}, {
						"PointIncrementPerWave": -25,
						"StartingPoints": -100,
						"StartingWave": 4,
						"ZombiePool": [ "RTID(tutorial@ZombieTypes)", "RTID(tutorial_armor1@ZombieTypes)", "RTID(tutorial_armor2@ZombieTypes)" ]
					}, {
						"PointIncrementPerWave": -10,
						"StartingPoints": -100,
						"StartingWave": 5,
						"ZombiePool": [ "RTID(tutorial@ZombieTypes)", "RTID(tutorial_armor1@ZombieTypes)", "RTID(tutorial_armor2@ZombieTypes)" ]
					}, {}, {
						"PointIncrementPerWave": 20,
						"StartingPoints": 100,
						"StartingWave": 5,
						"ZombiePool": [ "RTID(tutorial@ZombieTypes)", "RTID(tutorial_armor1@ZombieTypes)", "RTID(tutorial_armor2@ZombieTypes)" ]
					}, {
						"PointIncrementPerWave": 40,
						"StartingPoints": 200,
						"StartingWave": 4,
						"ZombiePool": [ "RTID(tutorial_armor1@ZombieTypes)", "RTID(tutorial_armor2@ZombieTypes)" ]
					}, {
						"PointIncrementPerWave": 60,
						"StartingPoints": 400,
						"StartingWave": 3,
						"ZombiePool": [ "RTID(tutorial_armor2@ZombieTypes)" ]
					} ],
				"WaveManagerProps": "RTID(WaveManagerProps@CurrentLevel)"
			}
		}, {
			"aliases": [ "WaveManagerProps" ],
			"objclass": "WaveManagerProperties",
			"objdata": {
				"FlagWaveInterval": 4,
				"LevelJam": "jam_rap",
				"WaveCount": 12,
				"WaveSpendingPointIncrement": 200,
				"WaveSpendingPoints": 200,
				"Waves": [ [ "RTID(Wave1@CurrentLevel)" ], [ "RTID(Wave2@CurrentLevel)" ], [ "RTID(Wave3@CurrentLevel)" ], [ "RTID(Wave4@CurrentLevel)" ], [ "RTID(Wave5@CurrentLevel)", "RTID(Wave5PortalsEvent0@CurrentLevel)" ], [ "RTID(Wave6@CurrentLevel)" ], [ "RTID(Wave7@CurrentLevel)" ], [ "RTID(Wave8@CurrentLevel)" ], [ "RTID(Wave9@CurrentLevel)" ], [ "RTID(Wave10@CurrentLevel)" ], [ "RTID(Wave11@CurrentLevel)" ], [ "RTID(Wave12@CurrentLevel)", "RTID(Wave12PortalsEvent0@CurrentLevel)", "RTID(Wave12PortalsEvent1@CurrentLevel)" ] ]
			}
		}, {
			"aliases": [ "Wave1" ],
			"objclass": "SpawnZombiesJitteredWaveActionProps",
			"objdata": {
				"AdditionalPlantfood": 0,
				"Zombies": [ {
						"Type": "RTID(tutorial@ZombieTypes)"
					} ]
			}
		}, {
			"aliases": [ "Wave2" ],
			"objclass": "SpawnZombiesJitteredWaveActionProps",
			"objdata": {
				"AdditionalPlantfood": 1,
				"Zombies": [ {
						"Row": "3",
						"Type": "RTID(dino_imp@ZombieTypes)"
					} ]
			}
		}, {
			"aliases": [ "Wave3" ],
			"objclass": "SpawnZombiesJitteredWaveActionProps",
			"objdata": {
				"AdditionalPlantfood": 0,
				"Zombies": [ {
						"Row": "2",
						"Type": "RTID(tutorial_armor1@ZombieTypes)"
					} ]
			}
		}, {
			"aliases": [ "Wave4" ],
			"objclass": "SpawnZombiesJitteredWaveActionProps",
			"objdata": {
				"Zombies": [ {
						"Row": "1",
						"Type": "RTID(dino_imp@ZombieTypes)"
					}, {
						"Row": "4",
						"Type": "RTID(dino_imp@ZombieTypes)"
					} ]
			}
		}, {
			"aliases": [ "Wave5" ],
			"objclass": "SpawnZombiesJitteredWaveActionProps",
			"objdata": {
				"AdditionalPlantfood": 0,
				"Zombies": [ {
						"Row": "3",
						"Type": "RTID(tutorial@ZombieTypes)"
					}, {
						"Row": "1",
						"Type": "RTID(tutorial@ZombieTypes)"
					} ]
			}
		}, {
			"aliases": [ "Wave6" ],
			"objclass": "SpawnZombiesJitteredWaveActionProps",
			"objdata": {
				"AdditionalPlantfood": 1,
				"Zombies": [ {
						"Row": "2",
						"Type": "RTID(tutorial_armor2@ZombieTypes)"
					}, {
						"Row": "3",
						"Type": "RTID(tutorial_armor1@ZombieTypes)"
					} ]
			}
		}, {
			"aliases": [ "Wave7" ],
			"objclass": "SpawnZombiesJitteredWaveActionProps",
			"objdata": {
				"Zombies": [ {
						"Row": "5",
						"Type": "RTID(tutorial_armor1@ZombieTypes)"
					}, {
						"Row": "4",
						"Type": "RTID(modern_newspaper@ZombieTypes)"
					}, {
						"Row": "4",
						"Type": "RTID(dino_imp@ZombieTypes)"
					}, {
						"Row": "3",
						"Type": "RTID(tutorial_armor1@ZombieTypes)"
					}, {
						"Row": "2",
						"Type": "RTID(tutorial_armor1@ZombieTypes)"
					}, {
						"Row": "1",
						"Type": "RTID(tutorial_armor1@ZombieTypes)"
					} ]
			}
		}, {
			"aliases": [ "Wave8" ],
			"objclass": "SpawnZombiesJitteredWaveActionProps",
			"objdata": {
				"AdditionalPlantfood": 0,
				"Zombies": [ {
						"Row": "1",
						"Type": "RTID(dino_imp@ZombieTypes)"
					}, {
						"Row": "2",
						"Type": "RTID(modern_allstar@ZombieTypes)"
					}, {
						"Row": "3",
						"Type": "RTID(modern_newspaper@ZombieTypes)"
					}, {
						"Row": "4",
						"Type": "RTID(modern_allstar@ZombieTypes)"
					}, {
						"Row": "5",
						"Type": "RTID(dino_imp@ZombieTypes)"
					} ]
			}
		}, {
			"aliases": [ "Wave9" ],
			"objclass": "SpawnZombiesJitteredWaveActionProps",
			"objdata": {
				"AdditionalPlantfood": 0,
				"Zombies": [ {
						"Row": "5",
						"Type": "RTID(modern_newspaper@ZombieTypes)"
					}, {
						"Row": "4",
						"Type": "RTID(tutorial_armor2@ZombieTypes)"
					}, {
						"Row": "3",
						"Type": "RTID(tutorial_armor1@ZombieTypes)"
					}, {
						"Row": "2",
						"Type": "RTID(tutorial@ZombieTypes)"
					}, {
						"Row": "1",
						"Type": "RTID(modern_newspaper@ZombieTypes)"
					} ]
			}
		}, {
			"aliases": [ "Wave10" ],
			"objclass": "SpawnZombiesJitteredWaveActionProps",
			"objdata": {
				"AdditionalPlantfood": 1,
				"Zombies": [ {
						"Row": "5",
						"Type": "RTID(modern_balloon@ZombieTypes)"
					}, {
						"Row": "5",
						"Type": "RTID(modern_newspaper@ZombieTypes)"
					}, {
						"Row": "3",
						"Type": "RTID(dino_imp@ZombieTypes)"
					}, {
						"Row": "3",
						"Type": "RTID(dino_imp@ZombieTypes)"
					}, {
						"Row": "3",
						"Type": "RTID(dino_bully@ZombieTypes)"
					}, {
						"Row": "1",
						"Type": "RTID(modern_balloon@ZombieTypes)"
					}, {
						"Row": "1",
						"Type": "RTID(modern_newspaper@ZombieTypes)"
					} ]
			}
		}, {
			"aliases": [ "Wave11" ],
			"objclass": "SpawnZombiesJitteredWaveActionProps",
			"objdata": {
				"AdditionalPlantfood": 0,
				"Zombies": [ {
						"Row": "1",
						"Type": "RTID(dino_bully@ZombieTypes)"
					}, {
						"Row": "5",
						"Type": "RTID(dino_bully@ZombieTypes)"
					}, {
						"Row": "4",
						"Type": "RTID(modern_allstar@ZombieTypes)"
					}, {
						"Row": "2",
						"Type": "RTID(modern_allstar@ZombieTypes)"
					} ]
			}
		}, {
			"aliases": [ "Wave12" ],
			"objclass": "SpawnZombiesJitteredWaveActionProps",
			"objdata": {
				"AdditionalPlantfood": 0,
				"Zombies": [ {
						"Row": "5",
						"Type": "RTID(dino_imp@ZombieTypes)"
					}, {
						"Row": "5",
						"Type": "RTID(dino_imp@ZombieTypes)"
					}, {
						"Row": "1",
						"Type": "RTID(dino_imp@ZombieTypes)"
					}, {
						"Row": "1",
						"Type": "RTID(dino_imp@ZombieTypes)"
					}, {
						"Row": "3",
						"Type": "RTID(modern_allstar@ZombieTypes)"
					}, {
						"Row": "2",
						"Type": "RTID(modern_newspaper@ZombieTypes)"
					}, {
						"Row": "4",
						"Type": "RTID(modern_newspaper@ZombieTypes)"
					} ]
			}
		}, {
			"aliases": [ "Wave5PortalsEvent0" ],
			"objclass": "SpawnModernPortalsWaveActionProps",
			"objdata": {
				"PortalColumn": "5",
				"PortalRow": "2",
				"PortalType": "eighties",
				"SpawnEffectAnimID": "",
				"SpawnSoundID": ""
			}
		}, {
			"aliases": [ "Wave12PortalsEvent0" ],
			"objclass": "SpawnModernPortalsWaveActionProps",
			"objdata": {
				"PortalColumn": 1,
				"PortalRow": 0,
				"PortalType": "eighties",
				"SpawnEffectAnimID": "",
				"SpawnSoundID": ""
			}
		}, {
			"aliases": [ "Wave12PortalsEvent1" ],
			"objclass": "SpawnModernPortalsWaveActionProps",
			"objdata": {
				"PortalColumn": 2,
				"PortalRow": 4,
				"PortalType": "beach",
				"SpawnEffectAnimID": "",
				"SpawnSoundID": ""
			}
		} ],
	"version": 1
}