{
	"#comment": "Egypt Challenge Protect B",
	"objects": [ {
			"objclass": "LevelDefinition",
			"objdata": {
				"Description": "[LEVELUP_PLANT_QUEST_DESC]",
				"ForceToWorldMap": true,
				"GameOverDialogShowBrain": false,
				"Loot": "RTID(DefaultLoot@LevelModules)",
				"Modules": [ "RTID(StandardIntro@LevelModules)", "RTID(DefaultSunDropper@LevelModules)", "RTID(ZombiesDeadWinCon@LevelModules)", "RTID(EgyptMowers@LevelModules)", "RTID(Gravestones@CurrentLevel)", "RTID(SeedBank@CurrentLevel)", "RTID(ProtectThePlant@CurrentLevel)", "RTID(DefaultZombieWinCondition@LevelModules)", "RTID(ChallengeModule@CurrentLevel)", "RTID(NewWaves@CurrentLevel)" ],
				"MusicType": "MiniGame_B",
				"Name": "[LEVELUP_PLANT_QUEST_NAME]",
				"NormalPresentTable": "egypt_normal_01",
				"RepeatPlayForceToWorldMap": true,
				"ShinyPresentTable": "egypt_shiny_01",
				"StageModule": "RTID(EgyptStage@LevelModules)"
			}
		}, {
			"aliases": [ "Gravestones" ],
			"objclass": "GravestoneProperties",
			"objdata": {
				"GravestoneCount": 5,
				"SpawnColumnEnd": 9,
				"SpawnColumnStart": 8
			}
		}, {
			"aliases": [ "SeedBank" ],
			"objclass": "SeedBankProperties",
			"objdata": {
				"PresetPlantList": [ {
						"Level": 15,
						"PlantType": "repeater"
					} ],
				"SelectionMethod": "chooser"
			}
		}, {
			"aliases": [ "ChallengeModule" ],
			"objclass": "StarChallengeModuleProperties",
			"objdata": {
				"Challenges": [ [ "RTID(BeatTheLevel@CurrentLevel)" ] ],
				"ChallengesAlwaysAvailable": true
			}
		}, {
			"aliases": [ "BeatTheLevel" ],
			"objclass": "StarChallengeBeatTheLevelProps",
			"objdata": {
				"Description": "[STARCHALLENGE_PROTECT_THE_PLANT]",
				"DescriptiveName": "[STARCHALLENGE_PROTECT_THE_PLANT_NAME]"
			}
		}, {
			"aliases": [ "ProtectThePlant" ],
			"objclass": "ProtectThePlantChallengeProperties",
			"objdata": {
				"MustProtectCount": 4,
				"Plants": [ {
						"GridX": 5,
						"GridY": 0,
						"Level": -1,
						"PlantType": "sunflower"
					}, {
						"GridX": 4,
						"GridY": 1,
						"Level": -1,
						"PlantType": "sunflower"
					}, {
						"GridX": 4,
						"GridY": 3,
						"Level": -1,
						"PlantType": "sunflower"
					}, {
						"GridX": 5,
						"GridY": 4,
						"Level": -1,
						"PlantType": "sunflower"
					} ]
			}
		}, {
			"aliases": [ "NewWaves" ],
			"objclass": "WaveManagerModuleProperties",
			"objdata": {
				"DynamicZombies": [ {
						"PointIncrementPerWave": -40,
						"StartingPoints": -100,
						"StartingWave": 3,
						"ZombiePool": [ "RTID(camel_onehump@ZombieTypes)", "RTID(explorer@ZombieTypes)", "RTID(mummy@ZombieTypes)", "RTID(mummy_armor1@ZombieTypes)", "RTID(mummy_armor2@ZombieTypes)", "RTID(ra@ZombieTypes)" ]
					}, {
						"PointIncrementPerWave": -25,
						"StartingPoints": -100,
						"StartingWave": 4,
						"ZombiePool": [ "RTID(camel_onehump@ZombieTypes)", "RTID(explorer@ZombieTypes)", "RTID(mummy@ZombieTypes)", "RTID(mummy_armor1@ZombieTypes)", "RTID(mummy_armor2@ZombieTypes)", "RTID(ra@ZombieTypes)" ]
					}, {
						"PointIncrementPerWave": -10,
						"StartingPoints": -100,
						"StartingWave": 5,
						"ZombiePool": [ "RTID(camel_onehump@ZombieTypes)", "RTID(explorer@ZombieTypes)", "RTID(mummy@ZombieTypes)", "RTID(mummy_armor1@ZombieTypes)", "RTID(mummy_armor2@ZombieTypes)", "RTID(ra@ZombieTypes)" ]
					}, {}, {
						"PointIncrementPerWave": 20,
						"StartingPoints": 100,
						"StartingWave": 5,
						"ZombiePool": [ "RTID(camel_onehump@ZombieTypes)", "RTID(explorer@ZombieTypes)", "RTID(mummy@ZombieTypes)", "RTID(mummy_armor1@ZombieTypes)", "RTID(mummy_armor2@ZombieTypes)", "RTID(ra@ZombieTypes)" ]
					}, {
						"PointIncrementPerWave": 40,
						"StartingPoints": 200,
						"StartingWave": 4,
						"ZombiePool": [ "RTID(camel_onehump@ZombieTypes)", "RTID(explorer@ZombieTypes)", "RTID(mummy_armor1@ZombieTypes)", "RTID(mummy_armor2@ZombieTypes)", "RTID(ra@ZombieTypes)" ]
					}, {
						"PointIncrementPerWave": 60,
						"StartingPoints": 400,
						"StartingWave": 3,
						"ZombiePool": [ "RTID(camel_onehump@ZombieTypes)", "RTID(explorer@ZombieTypes)", "RTID(mummy_armor2@ZombieTypes)", "RTID(ra@ZombieTypes)" ]
					} ],
				"WaveManagerProps": "RTID(WaveManagerProps@CurrentLevel)"
			}
		}, {
			"aliases": [ "WaveManagerProps" ],
			"objclass": "WaveManagerProperties",
			"objdata": {
				"FlagWaveInterval": 12,
				"WaveCount": 12,
				"WaveSpendingPointIncrement": 50,
				"WaveSpendingPoints": 100,
				"Waves": [ [ "RTID(Wave1@CurrentLevel)" ], [ "RTID(Wave2@CurrentLevel)" ], [ "RTID(Wave3@CurrentLevel)" ], [ "RTID(Wave4@CurrentLevel)" ], [ "RTID(Wave5@CurrentLevel)" ], [ "RTID(Wave6@CurrentLevel)" ], [ "RTID(Wave7@CurrentLevel)" ], [ "RTID(Wave8@CurrentLevel)" ], [ "RTID(Wave9@CurrentLevel)" ], [ "RTID(Wave10@CurrentLevel)" ], [ "RTID(Wave11@CurrentLevel)" ], [ "RTID(Wave12@CurrentLevel)" ] ]
			}
		}, {
			"aliases": [ "Wave1" ],
			"objclass": "SpawnZombiesJitteredWaveActionProps",
			"objdata": {
				"Zombies": [ {
						"Type": "RTID(mummy@ZombieTypes)"
					} ]
			}
		}, {
			"aliases": [ "Wave2" ],
			"objclass": "SpawnZombiesJitteredWaveActionProps",
			"objdata": {
				"Zombies": [ {
						"Type": "RTID(mummy@ZombieTypes)"
					} ]
			}
		}, {
			"aliases": [ "Wave3" ],
			"objclass": "SpawnZombiesJitteredWaveActionProps",
			"objdata": {
				"Zombies": [ {
						"Type": "RTID(mummy@ZombieTypes)"
					}, {
						"Type": "RTID(mummy@ZombieTypes)"
					} ]
			}
		}, {
			"aliases": [ "Wave4" ],
			"objclass": "SpawnZombiesJitteredWaveActionProps",
			"objdata": {
				"AdditionalPlantfood": 1,
				"DynamicPlantfood": [ 1, 1, 1, 1, 1, 1, 0 ],
				"Zombies": [ {
						"Type": "RTID(mummy@ZombieTypes)"
					}, {
						"Type": "RTID(mummy@ZombieTypes)"
					}, {
						"Row": "4",
						"Type": "RTID(mummy_armor1@ZombieTypes)"
					} ]
			}
		}, {
			"aliases": [ "Wave5" ],
			"objclass": "SpawnZombiesJitteredWaveActionProps",
			"objdata": {
				"Zombies": [ {
						"Type": "RTID(ra@ZombieTypes)"
					}, {
						"Type": "RTID(ra@ZombieTypes)"
					}, {
						"Type": "RTID(ra@ZombieTypes)"
					} ]
			}
		}, {
			"aliases": [ "Wave6" ],
			"objclass": "SpawnZombiesJitteredWaveActionProps",
			"objdata": {
				"Zombies": [ {
						"Type": "RTID(mummy_armor1@ZombieTypes)"
					}, {
						"Type": "RTID(mummy@ZombieTypes)"
					}, {
						"Type": "RTID(mummy@ZombieTypes)"
					} ]
			}
		}, {
			"aliases": [ "Wave7" ],
			"objclass": "SpawnZombiesJitteredWaveActionProps",
			"objdata": {
				"Zombies": [ {
						"Type": "RTID(mummy@ZombieTypes)"
					}, {
						"Type": "RTID(mummy_armor1@ZombieTypes)"
					}, {
						"Type": "RTID(mummy_armor1@ZombieTypes)"
					}, {
						"Type": "RTID(explorer@ZombieTypes)"
					} ]
			}
		}, {
			"aliases": [ "Wave8" ],
			"objclass": "SpawnZombiesJitteredWaveActionProps",
			"objdata": {
				"AdditionalPlantfood": 1,
				"DynamicPlantfood": [ 1, 1, 1, 1, 1, 0, 1 ],
				"Zombies": [ {
						"Type": "RTID(mummy@ZombieTypes)"
					}, {
						"Type": "RTID(mummy@ZombieTypes)"
					}, {
						"Type": "RTID(mummy@ZombieTypes)"
					}, {
						"Type": "RTID(camel_onehump@ZombieTypes)"
					} ]
			}
		}, {
			"aliases": [ "Wave9" ],
			"objclass": "SpawnZombiesJitteredWaveActionProps",
			"objdata": {
				"AdditionalPlantfood": 1,
				"Zombies": [ {
						"Type": "RTID(ra@ZombieTypes)"
					}, {
						"Type": "RTID(mummy@ZombieTypes)"
					}, {
						"Type": "RTID(camel_onehump@ZombieTypes)"
					} ]
			}
		}, {
			"aliases": [ "Wave10" ],
			"objclass": "SpawnZombiesJitteredWaveActionProps",
			"objdata": {
				"Zombies": [ {
						"Type": "RTID(pharaoh@ZombieTypes)"
					}, {
						"Type": "RTID(explorer@ZombieTypes)"
					}, {
						"Type": "RTID(ra@ZombieTypes)"
					}, {
						"Type": "RTID(mummy_armor2@ZombieTypes)"
					}, {
						"Type": "RTID(pharaoh@ZombieTypes)"
					} ]
			}
		}, {
			"aliases": [ "Wave11" ],
			"objclass": "SpawnZombiesJitteredWaveActionProps",
			"objdata": {
				"AdditionalPlantfood": 1,
				"DynamicPlantfood": [ 1, 1, 1, 1, 1, 1, 0 ],
				"Zombies": [ {
						"Type": "RTID(camel_onehump@ZombieTypes)"
					}, {
						"Type": "RTID(mummy_armor2@ZombieTypes)"
					}, {
						"Type": "RTID(mummy_armor1@ZombieTypes)"
					} ]
			}
		}, {
			"aliases": [ "Wave12" ],
			"objclass": "SpawnZombiesJitteredWaveActionProps",
			"objdata": {
				"AdditionalPlantfood": 1,
				"DynamicPlantfood": [ 1, 1, 1, 1, 0, 0, 0 ],
				"Zombies": [ {
						"Type": "RTID(egypt_gargantuar@ZombieTypes)"
					}, {
						"Row": "2",
						"Type": "RTID(explorer@ZombieTypes)"
					}, {
						"Row": "3",
						"Type": "RTID(ra@ZombieTypes)"
					}, {
						"Row": "1",
						"Type": "RTID(mummy@ZombieTypes)"
					}, {
						"Type": "RTID(mummy@ZombieTypes)"
					}, {
						"Type": "RTID(mummy@ZombieTypes)"
					}, {
						"Type": "RTID(mummy@ZombieTypes)"
					}, {
						"Row": "5",
						"Type": "RTID(mummy@ZombieTypes)"
					}, {
						"Row": "4",
						"Type": "RTID(explorer@ZombieTypes)"
					}, {
						"Row": "3",
						"Type": "RTID(mummy_armor1@ZombieTypes)"
					} ]
			}
		} ],
	"version": 1
}