{
	"#comment": "Pirate Challenge 2",
	"objects": [ {
			"objclass": "LevelDefinition",
			"objdata": {
				"Description": "[LEVELUP_PLANT_QUEST_DESC]",
				"ForceToWorldMap": true,
				"GameOverDialogShowBrain": false,
				"Loot": "RTID(DefaultLoot@LevelModules)",
				"Modules": [ "RTID(StandardIntro@LevelModules)", "RTID(DefaultSunDropper@LevelModules)", "RTID(ZombiesDeadWinCon@LevelModules)", "RTID(PirateMowers@LevelModules)", "RTID(PiratePlanks@CurrentLevel)", "RTID(SeedBank@CurrentLevel)", "RTID(ChallengeModule@CurrentLevel)", "RTID(ProtectThePlant@CurrentLevel)", "RTID(DefaultZombieWinCondition@LevelModules)", "RTID(NewWaves@CurrentLevel)" ],
				"MusicType": "MiniGame_B",
				"Name": "[LEVELUP_PLANT_QUEST_NAME]",
				"NormalPresentTable": "egypt_normal_01",
				"ShinyPresentTable": "egypt_shiny_01",
				"RepeatPlayForceToWorldMap": true,
				"StageModule": "RTID(PirateStage@LevelModules)"
			}
		}, {
			"aliases": [ "PiratePlanks" ],
			"objclass": "PiratePlankProperties",
			"objdata": {
				"PlankRows": [ 2, 3 ]
			}
		}, {
			"aliases": [ "SeedBank" ],
			"objclass": "SeedBankProperties",
			"objdata": {
				"PresetPlantList": [ {
						"Level": 8,
						"PlantType": "coconutcannon"
					} ],
				"PlantExcludeList": [],
				"SuggestPlantList": [ [ "sunshroom", "twinsunflower" ], [ "holonut", "tallnut" ], [ "jalapeno", "cherry_bomb" ], [ "kernelpult", "bloomerang" ], [ "primalpeashooter", "redstinger", "repeater" ], [ "citron", "melonpult" ], [ "bonkchoy", "spikeweed" ], [ "chilibean", "iceburg" ] ],
				"SelectionMethod": "chooser"
			}
		}, {
			"aliases": [ "ChallengeModule" ],
			"objclass": "StarChallengeModuleProperties",
			"objdata": {
				"Challenges": [ [ "RTID(BeatTheLevel@CurrentLevel)" ] ],
				"ChallengesAlwaysAvailable": true
			}
		}, {
			"aliases": [ "BeatTheLevel" ],
			"objclass": "StarChallengeBeatTheLevelProps",
			"objdata": {
				"Description": "[STARCHALLENGE_PROTECT_THE_PLANT]",
				"DescriptiveName": "[STARCHALLENGE_PROTECT_THE_PLANT_NAME]"
			}
		}, {
			"aliases": [ "ProtectThePlant" ],
			"objclass": "ProtectThePlantChallengeProperties",
			"objdata": {
				"MustProtectCount": 3,
				"Plants": [ {
						"GridX": 4,
						"GridY": 0,
						"PlantType": "springbean"
					}, {
						"GridX": 4,
						"GridY": 1,
						"PlantType": "springbean"
					}, {
						"GridX": 4,
						"GridY": 4,
						"PlantType": "springbean"
					} ]
			}
		}, {
			"aliases": [ "NewWaves" ],
			"objclass": "WaveManagerModuleProperties",
			"objdata": {
				"DynamicZombies": [ {
						"PointIncrementPerWave": -40,
						"StartingPoints": -100,
						"StartingWave": 3,
						"ZombiePool": [ "RTID(cannon@ZombieTypes)", "RTID(pirate@ZombieTypes)", "RTID(pirate_armor1@ZombieTypes)", "RTID(pirate_armor2@ZombieTypes)", "RTID(pirate_captain@ZombieTypes)", "RTID(seagull@ZombieTypes)", "RTID(swashbuckler@ZombieTypes)" ]
					}, {
						"PointIncrementPerWave": -25,
						"StartingPoints": -100,
						"StartingWave": 4,
						"ZombiePool": [ "RTID(cannon@ZombieTypes)", "RTID(pirate@ZombieTypes)", "RTID(pirate_armor1@ZombieTypes)", "RTID(pirate_armor2@ZombieTypes)", "RTID(pirate_captain@ZombieTypes)", "RTID(seagull@ZombieTypes)", "RTID(swashbuckler@ZombieTypes)" ]
					}, {
						"PointIncrementPerWave": -10,
						"StartingPoints": -100,
						"StartingWave": 5,
						"ZombiePool": [ "RTID(cannon@ZombieTypes)", "RTID(pirate@ZombieTypes)", "RTID(pirate_armor1@ZombieTypes)", "RTID(pirate_armor2@ZombieTypes)", "RTID(pirate_captain@ZombieTypes)", "RTID(seagull@ZombieTypes)", "RTID(swashbuckler@ZombieTypes)" ]
					}, {}, {
						"PointIncrementPerWave": 20,
						"StartingPoints": 100,
						"StartingWave": 5,
						"ZombiePool": [ "RTID(cannon@ZombieTypes)", "RTID(pirate@ZombieTypes)", "RTID(pirate_armor1@ZombieTypes)", "RTID(pirate_armor2@ZombieTypes)", "RTID(pirate_captain@ZombieTypes)", "RTID(seagull@ZombieTypes)", "RTID(swashbuckler@ZombieTypes)" ]
					}, {
						"PointIncrementPerWave": 40,
						"StartingPoints": 200,
						"StartingWave": 4,
						"ZombiePool": [ "RTID(cannon@ZombieTypes)", "RTID(pirate_armor1@ZombieTypes)", "RTID(pirate_armor2@ZombieTypes)", "RTID(pirate_captain@ZombieTypes)", "RTID(seagull@ZombieTypes)", "RTID(swashbuckler@ZombieTypes)" ]
					}, {
						"PointIncrementPerWave": 60,
						"StartingPoints": 400,
						"StartingWave": 3,
						"ZombiePool": [ "RTID(cannon@ZombieTypes)", "RTID(pirate_armor2@ZombieTypes)", "RTID(pirate_captain@ZombieTypes)", "RTID(seagull@ZombieTypes)", "RTID(swashbuckler@ZombieTypes)" ]
					} ],
				"WaveManagerProps": "RTID(WaveManagerProps@CurrentLevel)"
			}
		}, {
			"aliases": [ "WaveManagerProps" ],
			"objclass": "WaveManagerProperties",
			"objdata": {
				"FlagWaveInterval": 8,
				"WaveCount": 16,
				"WaveSpendingPointIncrement": 50,
				"WaveSpendingPoints": 100,
				"Waves": [ [ "RTID(Wave1@CurrentLevel)" ], [ "RTID(Wave2@CurrentLevel)" ], [ "RTID(Wave3@CurrentLevel)" ], [ "RTID(Wave4@CurrentLevel)" ], [ "RTID(Wave5@CurrentLevel)" ], [ "RTID(Wave6@CurrentLevel)" ], [ "RTID(Wave7@CurrentLevel)" ], [ "RTID(Wave8@CurrentLevel)" ], [ "RTID(Wave9@CurrentLevel)" ], [ "RTID(Wave10@CurrentLevel)" ], [ "RTID(Wave11@CurrentLevel)" ], [ "RTID(Wave12@CurrentLevel)" ], [ "RTID(Wave13@CurrentLevel)" ], [ "RTID(Wave14@CurrentLevel)" ], [ "RTID(Wave15@CurrentLevel)" ], [ "RTID(Wave16@CurrentLevel)" ] ]
			}
		}, {
			"aliases": [ "Wave1" ],
			"objclass": "SpawnZombiesJitteredWaveActionProps",
			"objdata": {
				"Zombies": [ {
						"Row": "4",
						"Type": "RTID(pirate@ZombieTypes)"
					} ]
			}
		}, {
			"aliases": [ "Wave2" ],
			"objclass": "SpawnZombiesJitteredWaveActionProps",
			"objdata": {
				"Zombies": [ {
						"Row": "3",
						"Type": "RTID(pirate@ZombieTypes)"
					} ]
			}
		}, {
			"aliases": [ "Wave3" ],
			"objclass": "SpawnZombiesJitteredWaveActionProps",
			"objdata": {
				"AdditionalPlantfood": 1,
				"Zombies": [ {
						"Row": "1",
						"Type": "RTID(seagull@ZombieTypes)"
					} ]
			}
		}, {
			"aliases": [ "Wave4" ],
			"objclass": "SpawnZombiesJitteredWaveActionProps",
			"objdata": {
				"Zombies": [ {
						"Type": "RTID(pirate@ZombieTypes)"
					}, {
						"Type": "RTID(pirate@ZombieTypes)"
					} ]
			}
		}, {
			"aliases": [ "Wave5" ],
			"objclass": "SpawnZombiesJitteredWaveActionProps",
			"objdata": {
				"AdditionalPlantfood": 1,
				"DynamicPlantfood": [ 1, 1, 1, 1, 1, 1, 0 ],
				"Zombies": [ {
						"Type": "RTID(pirate@ZombieTypes)"
					}, {
						"Type": "RTID(pirate_armor1@ZombieTypes)"
					}, {
						"Row": "2",
						"Type": "RTID(seagull@ZombieTypes)"
					} ]
			}
		}, {
			"aliases": [ "Wave6" ],
			"objclass": "SpawnZombiesJitteredWaveActionProps",
			"objdata": {
				"Zombies": [ {
						"Row": "3",
						"Type": "RTID(pirate_armor1@ZombieTypes)"
					}, {
						"Row": "5",
						"Type": "RTID(seagull@ZombieTypes)"
					} ]
			}
		}, {
			"aliases": [ "Wave7" ],
			"objclass": "SpawnZombiesJitteredWaveActionProps",
			"objdata": {
				"Zombies": [ {
						"Row": "2",
						"Type": "RTID(swashbuckler@ZombieTypes)"
					}, {
						"Row": "4",
						"Type": "RTID(pirate_armor1@ZombieTypes)"
					} ]
			}
		}, {
			"aliases": [ "Wave8" ],
			"objclass": "SpawnZombiesJitteredWaveActionProps",
			"objdata": {
				"AdditionalPlantfood": 1,
				"DynamicPlantfood": [ 1, 1, 1, 1, 1, 0, 1 ],
				"Zombies": [ {
						"Row": "2",
						"Type": "RTID(seagull@ZombieTypes)"
					}, {
						"Row": "1",
						"Type": "RTID(seagull@ZombieTypes)"
					}, {
						"Row": "5",
						"Type": "RTID(seagull@ZombieTypes)"
					}, {
						"Row": "4",
						"Type": "RTID(pirate_armor2@ZombieTypes)"
					}, {
						"Row": "3",
						"Type": "RTID(pirate_armor2@ZombieTypes)"
					} ]
			}
		}, {
			"aliases": [ "Wave9" ],
			"objclass": "SpawnZombiesJitteredWaveActionProps",
			"objdata": {
				"Zombies": [ {
						"Row": "1",
						"Type": "RTID(swashbuckler@ZombieTypes)"
					}, {
						"Row": "2",
						"Type": "RTID(swashbuckler@ZombieTypes)"
					}, {
						"Row": "5",
						"Type": "RTID(swashbuckler@ZombieTypes)"
					} ]
			}
		}, {
			"aliases": [ "Wave10" ],
			"objclass": "SpawnZombiesJitteredWaveActionProps",
			"objdata": {
				"Zombies": [ {
						"Row": "1",
						"Type": "RTID(seagull@ZombieTypes)"
					}, {
						"Row": "2",
						"Type": "RTID(seagull@ZombieTypes)"
					}, {
						"Row": "5",
						"Type": "RTID(seagull@ZombieTypes)"
					}, {
						"Type": "RTID(seagull@ZombieTypes)"
					} ]
			}
		}, {
			"aliases": [ "Wave11" ],
			"objclass": "SpawnZombiesJitteredWaveActionProps",
			"objdata": {
				"AdditionalPlantfood": 1,
				"DynamicPlantfood": [ 1, 1, 1, 1, 1, 1, 0 ],
				"Zombies": [ {
						"Row": "3",
						"Type": "RTID(pirate_armor1@ZombieTypes)"
					}, {
						"Row": "4",
						"Type": "RTID(pirate_armor1@ZombieTypes)"
					}, {
						"Type": "RTID(pirate_captain@ZombieTypes)"
					} ]
			}
		}, {
			"aliases": [ "Wave12" ],
			"objclass": "SpawnZombiesJitteredWaveActionProps",
			"objdata": {
				"Zombies": [ {
						"Row": "2",
						"Type": "RTID(cannon@ZombieTypes)"
					} ]
			}
		}, {
			"aliases": [ "Wave13" ],
			"objclass": "SpawnZombiesJitteredWaveActionProps",
			"objdata": {
				"AdditionalPlantfood": 1,
				"DynamicPlantfood": [ 1, 1, 1, 1, 1, 0, 1 ],
				"Zombies": [ {
						"Row": "1",
						"Type": "RTID(cannon@ZombieTypes)"
					} ]
			}
		}, {
			"aliases": [ "Wave14" ],
			"objclass": "SpawnZombiesJitteredWaveActionProps",
			"objdata": {
				"Zombies": [ {
						"Row": "5",
						"Type": "RTID(cannon@ZombieTypes)"
					} ]
			}
		}, {
			"aliases": [ "Wave15" ],
			"objclass": "SpawnZombiesJitteredWaveActionProps",
			"objdata": {
				"AdditionalPlantfood": 1,
				"DynamicPlantfood": [ 1, 1, 1, 1, 1, 1, 0 ],
				"Zombies": [ {
						"Row": "1",
						"Type": "RTID(seagull@ZombieTypes)"
					}, {
						"Row": "2",
						"Type": "RTID(seagull@ZombieTypes)"
					}, {
						"Row": "5",
						"Type": "RTID(seagull@ZombieTypes)"
					}, {
						"Type": "RTID(seagull@ZombieTypes)"
					}, {
						"Row": "3",
						"Type": "RTID(pirate_armor1@ZombieTypes)"
					}, {
						"Row": "4",
						"Type": "RTID(pirate@ZombieTypes)"
					} ]
			}
		}, {
			"aliases": [ "Wave16" ],
			"objclass": "SpawnZombiesJitteredWaveActionProps",
			"objdata": {
				"AdditionalPlantfood": 1,
				"DynamicPlantfood": [ 1, 1, 1, 1, 0, 1, 1 ],
				"Zombies": [ {
						"Row": "3",
						"Type": "RTID(pirate_armor2@ZombieTypes)"
					}, {
						"Row": "4",
						"Type": "RTID(pirate_armor2@ZombieTypes)"
					}, {
						"Row": "5",
						"Type": "RTID(cannon@ZombieTypes)"
					}, {
						"Row": "1",
						"Type": "RTID(cannon@ZombieTypes)"
					}, {
						"Row": "2",
						"Type": "RTID(cannon@ZombieTypes)"
					}, {
						"Row": "3",
						"Type": "RTID(pirate_captain@ZombieTypes)"
					}, {
						"Row": "4",
						"Type": "RTID(pirate_captain@ZombieTypes)"
					} ]
			}
		} ],
	"version": 1
}