{
	"#comment": "Enlightenmint test 2",
	"objects": [ {
			"objclass": "LevelDefinition",
			"objdata": {
				"Description": "[PREMIUM_PLANT_QUEST_LOD_DESC]",
				"FirstIntroNarrative": "ENLIGHTENMINT_LEVELUP_INTRO",
				"ForceToWorldMap": true,
				"LevelNumber": 0,
				"Loot": "RTID(DefaultLoot@LevelModules)",
				"Modules": [ "RTID(DefaultSunDropper@LevelModules)", "RTID(StandardIntro@LevelModules)", "RTID(FrontLawnMowers@LevelModules)", "RTID(NewWaves@CurrentLevel)", "RTID(DefaultZombieWinCondition@LevelModules)", "RTID(SeedBank@CurrentLevel)", "RTID(FrozenPlantPlacement@CurrentLevel)", "RTID(ZombiesDeadWinCon@LevelModules)" ],
				"Name": "[PREMIUM_PLANT_QUEST_LOD_NAME]",
				"NormalPresentTable": "egypt_normal_01",
				"RepeatPlayForceToWorldMap": true,
				"ShinyPresentTable": "egypt_shiny_01",
				"StageModule": "RTID(FrontLawnStage@LevelModules)"
			}
		}, {
			"aliases": [ "WaveManagerProps" ],
			"objclass": "WaveManagerProperties",
			"objdata": {
				"FlagWaveInterval": 10,
				"WaveCount": 10,
				"WaveSpendingPointIncrement": 250,
				"WaveSpendingPoints": 200,
				"Waves": [ [ "RTID(Wave1@CurrentLevel)" ], [ "RTID(Wave2@CurrentLevel)" ], [ "RTID(Wave3@CurrentLevel)" ], [ "RTID(Wave4@CurrentLevel)" ], [ "RTID(Wave5@CurrentLevel)" ], [ "RTID(Wave6@CurrentLevel)" ], [ "RTID(Wave7@CurrentLevel)" ], [ "RTID(Wave8@CurrentLevel)" ], [ "RTID(Wave9@CurrentLevel)" ], [ "RTID(Wave10@CurrentLevel)" ] ]
			}
		}, {
			"aliases": [ "FrozenPlantPlacement" ],
			"objclass": "InitialPlantProperties",
			"objdata": {
				"InitialPlantPlacements": [ {
						"GridX": 0,
						"GridY": 0,
						"Level": -1,
						"TypeName": "sunshroom"
					}, {
						"GridX": 0,
						"GridY": 1,
						"Level": -1,
						"TypeName": "sunshroom"
					}, {
						"GridX": 0,
						"GridY": 2,
						"Level": -1,
						"TypeName": "sunshroom"
					}, {
						"GridX": 0,
						"GridY": 3,
						"Level": -1,
						"TypeName": "sunshroom"
					}, {
						"GridX": 0,
						"GridY": 4,
						"Level": -1,
						"TypeName": "sunshroom"
					} ]
			}
		}, {
			"aliases": [ "SeedBank" ],
			"objclass": "SeedBankProperties",
			"objdata": {
				"OverrideSeedSlotsCount": 5,
				"PlantExcludeList": [],
				"PresetPlantList": [ {
						"Level": 10,
						"PlantType": "enlightenmint"
					}, {
						"Level": -1,
						"PlantType": "sunbean"
					}, {
						"Level": -1,
						"PlantType": "citron"
					}, {
						"Level": -1,
						"PlantType": "imitater"
					}, {
						"Level": -1,
						"PlantType": "sunshroom"
					} ],
				"SelectionMethod": "chooser"
			}
		}, {
			"aliases": [ "Wave1" ],
			"objclass": "SpawnZombiesJitteredWaveActionProps",
			"objdata": {
				"AdditionalPlantfood": 1,
				"Zombies": [ {
						"Row": "3",
						"Type": "RTID(future_armor1@ZombieTypes)"
					} ]
			}
		}, {
			"aliases": [ "Wave2" ],
			"objclass": "SpawnZombiesJitteredWaveActionProps",
			"objdata": {
				"AdditionalPlantfood": 0,
				"Zombies": [ {
						"Row": "4",
						"Type": "RTID(future_armor2@ZombieTypes)"
					}, {
						"Row": "5",
						"Type": "RTID(future_armor1@ZombieTypes)"
					}, {
						"Row": "3",
						"Type": "RTID(future_armor1@ZombieTypes)"
					} ]
			}
		}, {
			"aliases": [ "Wave3" ],
			"objclass": "SpawnZombiesJitteredWaveActionProps",
			"objdata": {
				"AdditionalPlantfood": 1,
				"Zombies": [ {
						"Row": "2",
						"Type": "RTID(future_armor2@ZombieTypes)"
					}, {
						"Row": "1",
						"Type": "RTID(future_armor2@ZombieTypes)"
					} ]
			}
		}, {
			"aliases": [ "Wave4" ],
			"objclass": "SpawnZombiesJitteredWaveActionProps",
			"objdata": {
				"AdditionalPlantfood": 0,
				"Zombies": [ {
						"Row": "1",
						"Type": "RTID(future_armor1@ZombieTypes)"
					}, {
						"Row": "2",
						"Type": "RTID(future_armor2@ZombieTypes)"
					}, {
						"Row": "3",
						"Type": "RTID(future_armor2@ZombieTypes)"
					}, {
						"Row": "4",
						"Type": "RTID(future@ZombieTypes)"
					}, {
						"Row": "5",
						"Type": "RTID(future_armor1@ZombieTypes)"
					}, {
						"Type": "RTID(pharaoh@ZombieTypes)"
					} ]
			}
		}, {
			"aliases": [ "Wave5" ],
			"objclass": "SpawnZombiesJitteredWaveActionProps",
			"objdata": {
				"AdditionalPlantfood": 1,
				"Zombies": [ {
						"Row": "5",
						"Type": "RTID(pharaoh@ZombieTypes)"
					}, {
						"Row": "1",
						"Type": "RTID(pharaoh@ZombieTypes)"
					} ]
			}
		}, {
			"aliases": [ "Wave6" ],
			"objclass": "SpawnZombiesJitteredWaveActionProps",
			"objdata": {
				"AdditionalPlantfood": 0,
				"Zombies": [ {
						"Type": "RTID(pharaoh@ZombieTypes)"
					}, {
						"Type": "RTID(pharaoh@ZombieTypes)"
					} ]
			}
		}, {
			"aliases": [ "Wave7" ],
			"objclass": "SpawnZombiesJitteredWaveActionProps",
			"objdata": {
				"AdditionalPlantfood": 1,
				"Zombies": [ {
						"Type": "RTID(pharaoh@ZombieTypes)"
					}, {
						"Type": "RTID(pharaoh@ZombieTypes)"
					} ]
			}
		}, {
			"aliases": [ "Wave8" ],
			"objclass": "SpawnZombiesJitteredWaveActionProps",
			"objdata": {
				"AdditionalPlantfood": 0,
				"Zombies": [ {
						"Type": "RTID(pharaoh@ZombieTypes)"
					}, {
						"Row": "3",
						"Type": "RTID(pharaoh@ZombieTypes)"
					}, {
						"Type": "RTID(pharaoh@ZombieTypes)"
					} ]
			}
		}, {
			"aliases": [ "Wave9" ],
			"objclass": "SpawnZombiesJitteredWaveActionProps",
			"objdata": {
				"AdditionalPlantfood": 1,
				"Zombies": [ {
						"Type": "RTID(pharaoh@ZombieTypes)"
					}, {
						"Row": "4",
						"Type": "RTID(pharaoh@ZombieTypes)"
					}, {
						"Row": "2",
						"Type": "RTID(pharaoh@ZombieTypes)"
					}, {
						"Type": "RTID(pharaoh@ZombieTypes)"
					} ]
			}
		}, {
			"aliases": [ "Wave10" ],
			"objclass": "SpawnZombiesJitteredWaveActionProps",
			"objdata": {
				"Zombies": [ {
						"Type": "RTID(pharaoh@ZombieTypes)"
					}, {
						"Type": "RTID(pharaoh@ZombieTypes)"
					}, {
						"Type": "RTID(pharaoh@ZombieTypes)"
					}, {
						"Type": "RTID(pharaoh@ZombieTypes)"
					}, {
						"Type": "RTID(pharaoh@ZombieTypes)"
					} ]
			}
		}, {
			"aliases": [ "NewWaves" ],
			"objclass": "WaveManagerModuleProperties",
			"objdata": {
				"DynamicZombies": [ {
						"PointIncrementPerWave": -40,
						"StartingPoints": -100,
						"StartingWave": 3,
						"ZombiePool": [ "RTID(future@ZombieTypes)", "RTID(future_armor2@ZombieTypes)", "RTID(future_armor4@ZombieTypes)" ]
					}, {
						"PointIncrementPerWave": -25,
						"StartingPoints": -100,
						"StartingWave": 4,
						"ZombiePool": [ "RTID(future@ZombieTypes)", "RTID(future_armor2@ZombieTypes)", "RTID(future_armor4@ZombieTypes)" ]
					}, {
						"PointIncrementPerWave": -10,
						"StartingPoints": -100,
						"StartingWave": 5,
						"ZombiePool": [ "RTID(future@ZombieTypes)", "RTID(future_armor2@ZombieTypes)", "RTID(future_armor4@ZombieTypes)" ]
					}, {
						"PointIncrementPerWave": 100,
						"StartingPoints": 200,
						"ZombiePool": [ "RTID(future@ZombieTypes)", "RTID(future_armor2@ZombieTypes)", "RTID(future_armor4@ZombieTypes)" ]
					}, {
						"PointIncrementPerWave": 50,
						"StartingPoints": 100,
						"StartingWave": 3,
						"ZombiePool": [ "RTID(future@ZombieTypes)", "RTID(future_armor2@ZombieTypes)", "RTID(future_armor4@ZombieTypes)" ]
					}, {
						"PointIncrementPerWave": 40,
						"StartingPoints": 200,
						"StartingWave": 4,
						"ZombiePool": [ "RTID(future_armor2@ZombieTypes)", "RTID(future_armor4@ZombieTypes)" ]
					}, {
						"PointIncrementPerWave": 60,
						"StartingPoints": 400,
						"StartingWave": 3,
						"ZombiePool": [ "RTID(future_armor2@ZombieTypes)", "RTID(future_armor4@ZombieTypes)" ]
					} ],
				"WaveManagerProps": "RTID(WaveManagerProps@CurrentLevel)"
			}
		} ],
	"version": 1
}