{
	"#comment": "LoD imitater + iceburg",
	"objects": [ {
			"objclass": "LevelDefinition",
			"objdata": {
				"Description": "[PREMIUM_PLANT_QUEST_LOD_DESC]",
				"DraperPromo": "imitater",
				"ForceToWorldMap": true,
				"Loot": "RTID(DefaultLoot@LevelModules)",
				"Modules": [ "RTID(StandardIntro@LevelModules)", "RTID(LevelEscalationModule@CurrentLevel)", "RTID(FrontLawnMowers@LevelModules)", "RTID(DefaultSunDropper@LevelModules)", "RTID(NewWaves@CurrentLevel)", "RTID(SeedBank@CurrentLevel)", "RTID(DefaultZombieWinCondition@LevelModules)", "RTID(Gravestones@CurrentLevel)", "RTID(ZombiesDeadWinCon@LevelModules)" ],
				"Name": "[PREMIUM_PLANT_QUEST_LOD_NAME]",
				"NormalPresentTable": "egypt_normal_01",
				"RepeatPlayForceToWorldMap": true,
				"ShinyPresentTable": "egypt_shiny_01",
				"StageModule": "RTID(FrontLawnStage@LevelModules)"
			}
		}, {
			"aliases": [ "SeedBank" ],
			"objclass": "SeedBankProperties",
			"objdata": {
				"PresetPlantList": [ {
						"Level": -1,
						"PlantType": "goldbloom"
					}, {
						"Level": -1,
						"PlantType": "imitater"
					}, {
						"Level": -1,
						"PlantType": "twinsunflower"
					}, {
						"Level": -1,
						"PlantType": "wintermelon"
					}, {
						"Level": -1,
						"PlantType": "fumeshroom"
					} ],
				"SelectionMethod": "preset"
			}
		}, {
			"aliases": [ "WaveManagerProps" ],
			"objclass": "WaveManagerProperties",
			"objdata": {
				"FlagWaveInterval": 6,
				"MaxNextWaveHealthPercentage": 0.9,
				"MinNextWaveHealthPercentage": 0.8,
				"WaveCount": 12,
				"Waves": [ [ "RTID(Wave1@CurrentLevel)" ], [ "RTID(Wave2@CurrentLevel)" ], [ "RTID(Wave3@CurrentLevel)" ], [ "RTID(Wave4@CurrentLevel)" ], [ "RTID(Wave5@CurrentLevel)" ], [ "RTID(Wave6@CurrentLevel)" ], [ "RTID(Wave7@CurrentLevel)" ], [ "RTID(Wave8@CurrentLevel)" ], [ "RTID(Wave9@CurrentLevel)" ], [ "RTID(Wave10@CurrentLevel)" ], [ "RTID(Wave11@CurrentLevel)" ], [ "RTID(Wave12@CurrentLevel)" ] ]
			}
		}, {
			"aliases": [ "Wave1" ],
			"objclass": "SpawnZombiesJitteredWaveActionProps",
			"objdata": {
				"Zombies": [ {
						"Row": "2",
						"Type": "RTID(explorer@ZombieTypes)"
					} ]
			}
		}, {
			"aliases": [ "Wave2" ],
			"objclass": "SpawnZombiesJitteredWaveActionProps",
			"objdata": {
				"AdditionalPlantfood": 1,
				"Zombies": [ {
						"Row": "2",
						"Type": "RTID(barrelroller@ZombieTypes)"
					} ]
			}
		}, {
			"aliases": [ "Wave3" ],
			"objclass": "SpawnZombiesJitteredWaveActionProps",
			"objdata": {
				"AdditionalPlantfood": 0,
				"Zombies": [ {
						"Row": "4",
						"Type": "RTID(explorer@ZombieTypes)"
					} ]
			}
		}, {
			"aliases": [ "Wave4" ],
			"objclass": "SpawnZombiesJitteredWaveActionProps",
			"objdata": {
				"Zombies": [ {
						"Type": "RTID(mech_cone@ZombieTypes)"
					} ]
			}
		}, {
			"aliases": [ "Wave5" ],
			"objclass": "SpawnZombiesJitteredWaveActionProps",
			"objdata": {
				"AdditionalPlantfood": 1,
				"Zombies": [ {
						"Row": "2",
						"Type": "RTID(explorer@ZombieTypes)"
					}, {
						"Type": "RTID(piano@ZombieTypes)"
					}, {
						"Row": "4",
						"Type": "RTID(explorer@ZombieTypes)"
					} ]
			}
		}, {
			"aliases": [ "Wave6" ],
			"objclass": "SpawnZombiesJitteredWaveActionProps",
			"objdata": {
				"AdditionalPlantfood": 1,
				"Zombies": [ {
						"Row": "3",
						"Type": "RTID(explorer@ZombieTypes)"
					}, {
						"Type": "RTID(barrelroller@ZombieTypes)"
					}, {
						"Row": "4",
						"Type": "RTID(explorer@ZombieTypes)"
					} ]
			}
		}, {
			"aliases": [ "Wave7" ],
			"objclass": "SpawnZombiesJitteredWaveActionProps",
			"objdata": {
				"AdditionalPlantfood": 0,
				"Zombies": [ {
						"Type": "RTID(barrelroller@ZombieTypes)"
					}, {
						"Type": "RTID(barrelroller@ZombieTypes)"
					} ]
			}
		}, {
			"aliases": [ "Wave8" ],
			"objclass": "SpawnZombiesJitteredWaveActionProps",
			"objdata": {
				"Zombies": [ {
						"Type": "RTID(mech_cone@ZombieTypes)"
					} ]
			}
		}, {
			"aliases": [ "Wave9" ],
			"objclass": "SpawnZombiesJitteredWaveActionProps",
			"objdata": {
				"Zombies": [ {
						"Type": "RTID(barrelroller@ZombieTypes)"
					}, {
						"Type": "RTID(barrelroller@ZombieTypes)"
					} ]
			}
		}, {
			"aliases": [ "LevelEscalationModule" ],
			"objclass": "LevelEscalationModuleProperties",
			"objdata": {
				"FlagCount": 1,
				"PlantfoodToSpawnCount": 0,
				"PointIncrementPerWave": 90,
				"StartingPoints": 100,
				"WaveManagerProps": "RTID(WaveManagerProps@CurrentLevel)",
				"WavesPerFlag": 9,
				"ZombiePool": [ "RTID(explorer@ZombieTypes)", "RTID(piano@ZombieTypes)", "RTID(barrelroller@ZombieTypes)" ]
			}
		}, {
			"aliases": [ "Gravestones" ],
			"objclass": "GravestoneProperties",
			"objdata": {}
		}, {
			"aliases": [ "NewWaves" ],
			"objclass": "WaveManagerModuleProperties",
			"objdata": {}
		}, {
			"aliases": [ "Wave10" ],
			"objclass": "SpawnZombiesJitteredWaveActionProps",
			"objdata": {
				"AdditionalPlantfood": 1,
				"Zombies": [ {
						"Row": "1",
						"Type": "RTID(explorer@ZombieTypes)"
					}, {
						"Row": "2",
						"Type": "RTID(explorer@ZombieTypes)"
					}, {
						"Row": "3",
						"Type": "RTID(explorer@ZombieTypes)"
					}, {
						"Row": "4",
						"Type": "RTID(explorer@ZombieTypes)"
					}, {
						"Row": "5",
						"Type": "RTID(explorer@ZombieTypes)"
					}, {
						"Type": "RTID(piano@ZombieTypes)"
					}, {
						"Type": "RTID(piano@ZombieTypes)"
					}, {
						"Type": "RTID(piano@ZombieTypes)"
					} ]
			}
		}, {
			"aliases": [ "Wave11" ],
			"objclass": "SpawnZombiesJitteredWaveActionProps",
			"objdata": {
				"Zombies": [ {
						"Type": "RTID(piano@ZombieTypes)"
					}, {
						"Type": "RTID(pirate_gargantuar@ZombieTypes)"
					}, {
						"Type": "RTID(piano@ZombieTypes)"
					} ]
			}
		}, {
			"aliases": [ "Wave12" ],
			"objclass": "SpawnZombiesJitteredWaveActionProps",
			"objdata": {
				"Zombies": [ {
						"Type": "RTID(pirate_gargantuar@ZombieTypes)"
					}, {
						"Type": "RTID(pirate_gargantuar@ZombieTypes)"
					} ]
			}
		} ],
	"version": 1
}