{
	"#comment": "Level Of The Day Birthday",
	"objects": [ {
			"objclass": "LevelDefinition",
			"objdata": {
				"Description": "[PREMIUM_PLANT_QUEST_LOD_DESC]",
				"DraperPromo": "jalapeno",
				"ForceToWorldMap": true,
				"Loot": "RTID(DefaultLoot@LevelModules)",
				"Modules": [ "RTID(StandardIntro@LevelModules)", "RTID(LevelEscalationModule@CurrentLevel)", "RTID(FrontLawnMowers@LevelModules)", "RTID(NewWaves@CurrentLevel)", "RTID(DefaultZombieWinCondition@LevelModules)", "RTID(Gravestones@CurrentLevel)", "RTID(GoldTiles@CurrentLevel)", "RTID(ConveyorBelt@CurrentLevel)", "RTID(ZombiesDeadWinCon@LevelModules)" ],
				"Name": "[PREMIUM_PLANT_QUEST_LOD_NAME]",
				"NormalPresentTable": "egypt_normal_01",
				"RepeatPlayForceToWorldMap": true,
				"ShinyPresentTable": "egypt_shiny_01",
				"StageModule": "RTID(EightiesStage@LevelModules)"
			}
		}, {
			"aliases": [ "GoldTiles" ],
			"objclass": "InitialGridItemProperties",
			"objdata": {
				"InitialGridItemPlacements": [ {
						"GridX": 8,
						"GridY": 0,
						"TypeName": "goldtile"
					}, {
						"GridX": 8,
						"GridY": 1,
						"TypeName": "goldtile"
					}, {
						"GridX": 8,
						"GridY": 2,
						"TypeName": "goldtile"
					}, {
						"GridX": 8,
						"GridY": 3,
						"TypeName": "goldtile"
					}, {
						"GridX": 8,
						"GridY": 4,
						"TypeName": "goldtile"
					}, {
						"GridX": 6,
						"GridY": 0,
						"TypeName": "goldtile"
					}, {
						"GridX": 6,
						"GridY": 1,
						"TypeName": "goldtile"
					}, {
						"GridX": 6,
						"GridY": 2,
						"TypeName": "goldtile"
					}, {
						"GridX": 6,
						"GridY": 3,
						"TypeName": "goldtile"
					}, {
						"GridX": 6,
						"GridY": 4,
						"TypeName": "goldtile"
					}, {
						"GridX": 5,
						"GridY": 0,
						"TypeName": "goldtile"
					}, {
						"GridX": 5,
						"GridY": 1,
						"TypeName": "goldtile"
					}, {
						"GridX": 5,
						"GridY": 2,
						"TypeName": "goldtile"
					}, {
						"GridX": 5,
						"GridY": 3,
						"TypeName": "goldtile"
					}, {
						"GridX": 5,
						"GridY": 4,
						"TypeName": "goldtile"
					} ]
			}
		}, {
			"aliases": [ "WaveManagerProps" ],
			"objclass": "WaveManagerProperties",
			"objdata": {
				"LevelJam": "jam_rap",
				"MaxNextWaveHealthPercentage": 0.9,
				"MinNextWaveHealthPercentage": 0.8,
				"Waves": [ [ "RTID(Wave1@CurrentLevel)" ], [ "RTID(Wave2@CurrentLevel)" ], [ "RTID(Wave3@CurrentLevel)", "RTID(Wave3ModConveyor0@CurrentLevel)" ], [ "RTID(Wave4@CurrentLevel)" ], [ "RTID(Wave5@CurrentLevel)" ], [ "RTID(Wave6@CurrentLevel)", "RTID(Wave6ModConveyor0@CurrentLevel)" ], [ "RTID(Wave7@CurrentLevel)" ], [ "RTID(Wave8@CurrentLevel)" ], [ "RTID(Wave9@CurrentLevel)" ], [ "RTID(Wave10@CurrentLevel)" ], [ "RTID(Wave11@CurrentLevel)" ], [ "RTID(Wave12@CurrentLevel)" ], [ "RTID(Wave13@CurrentLevel)" ] ]
			}
		}, {
			"aliases": [ "Wave1" ],
			"objclass": "SpawnZombiesJitteredWaveActionProps",
			"objdata": {
				"Zombies": [ {
						"Row": "1",
						"Type": "RTID(lostcity_impporter@ZombieTypes)"
					}, {
						"Row": "2",
						"Type": "RTID(lostcity_impporter@ZombieTypes)"
					}, {
						"Row": "3",
						"Type": "RTID(lostcity_impporter@ZombieTypes)"
					}, {
						"Row": "4",
						"Type": "RTID(lostcity_impporter@ZombieTypes)"
					}, {
						"Row": "5",
						"Type": "RTID(lostcity_impporter@ZombieTypes)"
					} ]
			}
		}, {
			"aliases": [ "Wave2" ],
			"objclass": "SpawnZombiesJitteredWaveActionProps",
			"objdata": {
				"Zombies": [ {
						"Type": "RTID(lostcity_impporter@ZombieTypes)"
					}, {
						"Type": "RTID(lostcity_impporter@ZombieTypes)"
					} ]
			}
		}, {
			"aliases": [ "Wave3" ],
			"objclass": "SpawnZombiesJitteredWaveActionProps",
			"objdata": {
				"Zombies": [ {
						"Type": "RTID(lostcity_impporter@ZombieTypes)"
					}, {
						"Type": "RTID(lostcity_impporter@ZombieTypes)"
					} ]
			}
		}, {
			"aliases": [ "Wave4" ],
			"objclass": "SpawnZombiesJitteredWaveActionProps",
			"objdata": {
				"NotificationEvents": [ "jam_rap" ],
				"Zombies": [ {
						"Row": "1",
						"Type": "RTID(lostcity_impporter@ZombieTypes)"
					}, {
						"Row": "1",
						"Type": "RTID(eighties_breakdancer@ZombieTypes)"
					}, {
						"Row": "3",
						"Type": "RTID(lostcity_impporter@ZombieTypes)"
					}, {
						"Row": "3",
						"Type": "RTID(eighties_breakdancer@ZombieTypes)"
					}, {
						"Row": "5",
						"Type": "RTID(lostcity_impporter@ZombieTypes)"
					}, {
						"Row": "5",
						"Type": "RTID(eighties_breakdancer@ZombieTypes)"
					}, {
						"Type": "RTID(lostcity_impporter@ZombieTypes)"
					} ]
			}
		}, {
			"aliases": [ "Wave5" ],
			"objclass": "SpawnZombiesJitteredWaveActionProps",
			"objdata": {
				"Zombies": [ {
						"Type": "RTID(lostcity_impporter@ZombieTypes)"
					}, {
						"Type": "RTID(lostcity_impporter@ZombieTypes)"
					} ]
			}
		}, {
			"aliases": [ "Wave6" ],
			"objclass": "SpawnZombiesJitteredWaveActionProps",
			"objdata": {
				"Zombies": [ {
						"Type": "RTID(lostcity_impporter@ZombieTypes)"
					}, {
						"Type": "RTID(piano@ZombieTypes)"
					} ]
			}
		}, {
			"aliases": [ "Wave7" ],
			"objclass": "SpawnZombiesJitteredWaveActionProps",
			"objdata": {
				"Zombies": [ {
						"Type": "RTID(piano@ZombieTypes)"
					}, {
						"Type": "RTID(piano@ZombieTypes)"
					} ]
			}
		}, {
			"aliases": [ "Wave8" ],
			"objclass": "SpawnZombiesJitteredWaveActionProps",
			"objdata": {
				"Zombies": [ {
						"Row": "1",
						"Type": "RTID(lostcity_impporter@ZombieTypes)"
					}, {
						"Row": "1",
						"Type": "RTID(eighties_breakdancer@ZombieTypes)"
					}, {
						"Row": "1",
						"Type": "RTID(eighties_breakdancer@ZombieTypes)"
					}, {
						"Row": "2",
						"Type": "RTID(lostcity_impporter@ZombieTypes)"
					}, {
						"Row": "2",
						"Type": "RTID(eighties_breakdancer@ZombieTypes)"
					}, {
						"Row": "2",
						"Type": "RTID(eighties_breakdancer@ZombieTypes)"
					}, {
						"Row": "3",
						"Type": "RTID(lostcity_impporter@ZombieTypes)"
					}, {
						"Row": "3",
						"Type": "RTID(eighties_breakdancer@ZombieTypes)"
					}, {
						"Row": "3",
						"Type": "RTID(eighties_breakdancer@ZombieTypes)"
					}, {
						"Row": "4",
						"Type": "RTID(lostcity_impporter@ZombieTypes)"
					}, {
						"Row": "4",
						"Type": "RTID(eighties_breakdancer@ZombieTypes)"
					}, {
						"Row": "4",
						"Type": "RTID(eighties_breakdancer@ZombieTypes)"
					}, {
						"Row": "5",
						"Type": "RTID(lostcity_impporter@ZombieTypes)"
					}, {
						"Row": "5",
						"Type": "RTID(eighties_breakdancer@ZombieTypes)"
					}, {
						"Row": "5",
						"Type": "RTID(eighties_breakdancer@ZombieTypes)"
					}, {
						"Type": "RTID(lostcity_impporter@ZombieTypes)"
					} ]
			}
		}, {
			"aliases": [ "Wave9" ],
			"objclass": "SpawnZombiesJitteredWaveActionProps",
			"objdata": {
				"Zombies": [ {
						"Type": "RTID(piano@ZombieTypes)"
					}, {
						"Type": "RTID(west_bull@ZombieTypes)"
					}, {
						"Type": "RTID(piano@ZombieTypes)"
					} ]
			}
		}, {
			"aliases": [ "LevelEscalationModule" ],
			"objclass": "LevelEscalationModuleProperties",
			"objdata": {
				"FlagCount": 3,
				"PlantfoodToSpawnCount": 7,
				"PointIncrementPerWave": 175,
				"StartingPoints": 200,
				"WaveManagerProps": "RTID(WaveManagerProps@CurrentLevel)",
				"WavesPerFlag": 3,
				"ZombiePool": [ "RTID(zcorp_fem_armor1@ZombieTypes)", "RTID(west_bull@ZombieTypes)", "RTID(lostcity_impporter@ZombieTypes)" ]
			}
		}, {
			"aliases": [ "Gravestones" ],
			"objclass": "GravestoneProperties",
			"objdata": {}
		}, {
			"aliases": [ "NewWaves" ],
			"objclass": "WaveManagerModuleProperties",
			"objdata": {}
		}, {
			"aliases": [ "ConveyorBelt" ],
			"objclass": "ConveyorSeedBankProperties",
			"objdata": {
				"DropDelayConditions": [ {
						"Delay": 3,
						"MaxPackets": 0
					}, {
						"Delay": 6,
						"MaxPackets": 2
					}, {
						"Delay": 9,
						"MaxPackets": 4
					}, {
						"Delay": 12,
						"MaxPackets": 8
					} ],
				"InitialPlantList": [ {
						"PlantType": "redstinger",
						"Weight": 25
					} ],
				"SpeedConditions": [ {
						"MaxPackets": 0,
						"Speed": 100
					} ]
			}
		}, {
			"aliases": [ "Wave10" ],
			"objclass": "SpawnZombiesJitteredWaveActionProps",
			"objdata": {
				"Zombies": [ {
						"Row": "2",
						"Type": "RTID(lostcity_impporter@ZombieTypes)"
					}, {
						"Row": "2",
						"Type": "RTID(eighties_breakdancer@ZombieTypes)"
					}, {
						"Row": "4",
						"Type": "RTID(lostcity_impporter@ZombieTypes)"
					}, {
						"Row": "4",
						"Type": "RTID(eighties_breakdancer@ZombieTypes)"
					}, {
						"Type": "RTID(piano@ZombieTypes)"
					}, {
						"Type": "RTID(lostcity_impporter@ZombieTypes)"
					}, {
						"Type": "RTID(piano@ZombieTypes)"
					} ]
			}
		}, {
			"aliases": [ "Wave3ModConveyor0" ],
			"objclass": "ModifyConveyorWaveActionProps",
			"objdata": {
				"Add": [ {
						"MaxCount": 5,
						"MaxWeightFactor": 0.1,
						"Type": "RTID(chardguard@PlantTypes)",
						"Weight": 25
					}, {
						"MaxCount": 1,
						"MaxCountCooldownSeconds": 15,
						"MinCount": 1,
						"MinWeightFactor": 6,
						"Type": "RTID(boingsetta@PlantTypes)",
						"Weight": 25
					} ],
				"Remove": []
			}
		}, {
			"aliases": [ "Wave6ModConveyor0" ],
			"objclass": "ModifyConveyorWaveActionProps",
			"objdata": {
				"Add": [ {
						"Type": "RTID(primalpotatomine@PlantTypes)",
						"Weight": 10
					} ],
				"Remove": []
			}
		}, {
			"aliases": [ "Wave11" ],
			"objclass": "SpawnZombiesJitteredWaveActionProps",
			"objdata": {
				"Zombies": [ {
						"Type": "RTID(piano@ZombieTypes)"
					}, {
						"Type": "RTID(lostcity_impporter@ZombieTypes)"
					}, {
						"Type": "RTID(piano@ZombieTypes)"
					} ]
			}
		}, {
			"aliases": [ "Wave12" ],
			"objclass": "SpawnZombiesJitteredWaveActionProps",
			"objdata": {
				"Zombies": [ {
						"Row": "1",
						"Type": "RTID(lostcity_impporter@ZombieTypes)"
					}, {
						"Row": "2",
						"Type": "RTID(lostcity_impporter@ZombieTypes)"
					}, {
						"Row": "3",
						"Type": "RTID(lostcity_impporter@ZombieTypes)"
					}, {
						"Row": "4",
						"Type": "RTID(lostcity_impporter@ZombieTypes)"
					}, {
						"Row": "5",
						"Type": "RTID(lostcity_impporter@ZombieTypes)"
					}, {
						"Type": "RTID(lostcity_impporter@ZombieTypes)"
					} ]
			}
		}, {
			"aliases": [ "Wave13" ],
			"objclass": "SpawnZombiesJitteredWaveActionProps",
			"objdata": {
				"Zombies": [ {
						"Type": "RTID(lostcity_impporter@ZombieTypes)"
					} ]
			}
		} ],
	"version": 1
}