{
	"#comment": "Noctarine 4",
	"objects": [ {
			"objclass": "LevelDefinition",
			"objdata": {
				"Description": "[PREMIUM_PLANT_QUEST_LOD_DESC]",
				"ForceToWorldMap": true,
				"Loot": "RTID(DefaultLoot@LevelModules)",
				"Modules": [ "RTID(StandardIntro@LevelModules)", "RTID(LevelEscalationModule@CurrentLevel)", "RTID(FrontLawnMowers@LevelModules)", "RTID(NewWaves@CurrentLevel)", "RTID(DefaultZombieWinCondition@LevelModules)", "RTID(Gravestones@CurrentLevel)", "RTID(SeedBank@CurrentLevel)", "RTID(ZombiesDeadWinCon@LevelModules)", "RTID(DefaultSunDropper@LevelModules)" ],
				"Name": "[PREMIUM_PLANT_QUEST_LOD_NAME]",
				"NormalPresentTable": "egypt_normal_01",
				"ShinyPresentTable": "egypt_shiny_01",
				"RepeatPlayForceToWorldMap": true,
				"StageModule": "RTID(FrontLawnStage@LevelModules)",
				"StartingSun": 475
			}
		}, {
			"aliases": [ "Gravestones" ],
			"objclass": "GravestoneProperties",
			"objdata": {}
		}, {
			"aliases": [ "NewWaves" ],
			"objclass": "WaveManagerModuleProperties",
			"objdata": {}
		}, {
			"aliases": [ "SeedBank" ],
			"objclass": "SeedBankProperties",
			"objdata": {
				"ExcludeListSunProducers": true,
				"PlantExcludeList": [ "spearmint", "peppermint", "appeasemint", "enforcemint", "filamint", "wintermint", "bombardmint", "armamint", "ailmint", "reinforcemint", "containmint", "enchantmint" ],
				"PresetPlantList": [ {
						"Level": 10,
						"PlantType": "noctarine"
					}, {
						"Level": 10,
						"PlantType": "imitater"
					}, {
						"Level": -1,
						"PlantType": "dusklobber"
					}, {
						"Level": -1,
						"PlantType": "shadowpeashooter"
					}, {
						"Level": -1,
						"PlantType": "murkadamia"
					}, {
						"Level": -1,
						"PlantType": "goldbloom"
					} ],
				"SelectionMethod": "preset"
			}
		}, {
			"aliases": [ "LevelEscalationModule" ],
			"objclass": "LevelEscalationModuleProperties",
			"objdata": {
				"FlagCount": 4,
				"MaxPoints": 950,
				"PlantfoodToSpawnCount": 3,
				"PointIncrementPerWave": 100,
				"StartingPoints": 0,
				"WaveManagerProps": "RTID(WaveManagerProps@CurrentLevel)",
				"WavesPerFlag": 4,
				"ZombiePool": [ "RTID(dino@ZombieTypes)", "RTID(dino_armor2@ZombieTypes)", "RTID(dino_armor1@ZombieTypes)", "RTID(dino_armor3@ZombieTypes)", "RTID(dino_armor4@ZombieTypes)" ]
			}
		}, {
			"aliases": [ "WaveManagerProps" ],
			"objclass": "WaveManagerProperties",
			"objdata": {
				"FlagWaveInterval": 4,
				"WaveCount": 16,
				"WaveSpendingPointIncrement": 100,
				"WaveSpendingPoints": 100,
				"Waves": [ [ "RTID(Wave1@CurrentLevel)" ], [ "RTID(Wave2@CurrentLevel)" ], [ "RTID(Wave3@CurrentLevel)" ], [ "RTID(Wave4@CurrentLevel)" ], [ "RTID(Wave5@CurrentLevel)" ], [ "RTID(Wave6@CurrentLevel)" ], [ "RTID(Wave7@CurrentLevel)" ], [ "RTID(Wave8@CurrentLevel)" ], [ "RTID(Wave9@CurrentLevel)" ], [ "RTID(Wave10@CurrentLevel)" ], [ "RTID(Wave11@CurrentLevel)" ], [ "RTID(Wave12@CurrentLevel)" ], [ "RTID(Wave13@CurrentLevel)" ], [ "RTID(Wave14@CurrentLevel)" ], [ "RTID(Wave15@CurrentLevel)" ], [ "RTID(Wave16@CurrentLevel)" ] ]
			}
		}, {
			"aliases": [ "Wave1" ],
			"objclass": "SpawnZombiesJitteredWaveActionProps",
			"objdata": {
				"Zombies": [ {
						"Row": "3",
						"Type": "RTID(lostcity_jane@ZombieTypes)"
					} ]
			}
		}, {
			"aliases": [ "Wave2" ],
			"objclass": "SpawnZombiesJitteredWaveActionProps",
			"objdata": {
				"AdditionalPlantfood": 1,
				"Zombies": [ {
						"Row": "4",
						"Type": "RTID(prospector@ZombieTypes)"
					} ]
			}
		}, {
			"aliases": [ "Wave3" ],
			"objclass": "SpawnZombiesJitteredWaveActionProps",
			"objdata": {
				"Zombies": [ {
						"Row": "2",
						"Type": "RTID(future_protector@ZombieTypes)"
					} ]
			}
		}, {
			"aliases": [ "Wave4" ],
			"objclass": "SpawnZombiesJitteredWaveActionProps",
			"objdata": {
				"AdditionalPlantfood": 1,
				"Zombies": [ {
						"Row": "3",
						"Type": "RTID(dark_wizard@ZombieTypes)"
					} ]
			}
		}, {
			"aliases": [ "Wave5" ],
			"objclass": "SpawnZombiesJitteredWaveActionProps",
			"objdata": {
				"AdditionalPlantfood": 1,
				"Zombies": [ {
						"Type": "RTID(future_protector@ZombieTypes)"
					}, {
						"Type": "RTID(lostcity_jane@ZombieTypes)"
					} ]
			}
		}, {
			"aliases": [ "Wave6" ],
			"objclass": "SpawnZombiesJitteredWaveActionProps",
			"objdata": {
				"Zombies": [ {
						"Type": "RTID(barrelroller@ZombieTypes)"
					}, {
						"Type": "RTID(modern_newspaper@ZombieTypes)"
					}, {
						"Type": "RTID(prospector@ZombieTypes)"
					} ]
			}
		}, {
			"aliases": [ "Wave7" ],
			"objclass": "SpawnZombiesJitteredWaveActionProps",
			"objdata": {
				"Zombies": [ {
						"Type": "RTID(lostcity_jane@ZombieTypes)"
					}, {
						"Type": "RTID(prospector@ZombieTypes)"
					}, {
						"Type": "RTID(barrelroller@ZombieTypes)"
					} ]
			}
		}, {
			"aliases": [ "Wave8" ],
			"objclass": "SpawnZombiesJitteredWaveActionProps",
			"objdata": {
				"Zombies": [ {
						"Row": "3",
						"Type": "RTID(future_protector@ZombieTypes)"
					}, {
						"Type": "RTID(tutorial_gargantuar@ZombieTypes)"
					}, {
						"Type": "RTID(modern_newspaper@ZombieTypes)"
					} ]
			}
		}, {
			"aliases": [ "Wave9" ],
			"objclass": "SpawnZombiesJitteredWaveActionProps",
			"objdata": {
				"AdditionalPlantfood": 1,
				"Zombies": [ {
						"Type": "RTID(future_protector@ZombieTypes)"
					}, {
						"Type": "RTID(future_protector@ZombieTypes)"
					} ]
			}
		}, {
			"aliases": [ "Wave10" ],
			"objclass": "SpawnZombiesJitteredWaveActionProps",
			"objdata": {
				"Zombies": [ {
						"Type": "RTID(dark_wizard@ZombieTypes)"
					}, {
						"Type": "RTID(lostcity_jane@ZombieTypes)"
					} ]
			}
		}, {
			"aliases": [ "Wave11" ],
			"objclass": "SpawnZombiesJitteredWaveActionProps",
			"objdata": {
				"Zombies": [ {
						"Row": "1",
						"Type": "RTID(modern_newspaper@ZombieTypes)"
					}, {
						"Row": "2",
						"Type": "RTID(modern_newspaper@ZombieTypes)"
					}, {
						"Row": "3",
						"Type": "RTID(modern_newspaper@ZombieTypes)"
					}, {
						"Row": "4",
						"Type": "RTID(modern_newspaper@ZombieTypes)"
					}, {
						"Row": "5",
						"Type": "RTID(modern_newspaper@ZombieTypes)"
					}, {
						"Type": "RTID(barrelroller@ZombieTypes)"
					} ]
			}
		}, {
			"aliases": [ "Wave12" ],
			"objclass": "SpawnZombiesJitteredWaveActionProps",
			"objdata": {
				"Zombies": [ {
						"Type": "RTID(prospector@ZombieTypes)"
					}, {
						"Type": "RTID(prospector@ZombieTypes)"
					}, {
						"Type": "RTID(prospector@ZombieTypes)"
					}, {
						"Type": "RTID(dark_wizard@ZombieTypes)"
					}, {
						"Row": "4",
						"Type": "RTID(future_protector@ZombieTypes)"
					}, {
						"Row": "2",
						"Type": "RTID(future_protector@ZombieTypes)"
					}, {
						"Row": "3",
						"Type": "RTID(dark_wizard@ZombieTypes)"
					} ]
			}
		}, {
			"aliases": [ "Wave13" ],
			"objclass": "SpawnZombiesJitteredWaveActionProps",
			"objdata": {
				"Zombies": [ {
						"Type": "RTID(newspaper_veteran@ZombieTypes)"
					}, {
						"Type": "RTID(dark_wizard@ZombieTypes)"
					}, {
						"Row": "3",
						"Type": "RTID(future_protector@ZombieTypes)"
					} ]
			}
		}, {
			"aliases": [ "Wave14" ],
			"objclass": "SpawnZombiesJitteredWaveActionProps",
			"objdata": {
				"Zombies": [ {
						"Type": "RTID(newspaper_veteran@ZombieTypes)"
					}, {
						"Type": "RTID(dark_wizard@ZombieTypes)"
					}, {
						"Row": "2",
						"Type": "RTID(future_protector@ZombieTypes)"
					} ]
			}
		}, {
			"aliases": [ "Wave15" ],
			"objclass": "SpawnZombiesJitteredWaveActionProps",
			"objdata": {
				"Zombies": [ {
						"Type": "RTID(newspaper_veteran@ZombieTypes)"
					}, {
						"Type": "RTID(dark_wizard@ZombieTypes)"
					}, {
						"Type": "RTID(lostcity_jane@ZombieTypes)"
					}, {
						"Row": "4",
						"Type": "RTID(future_protector@ZombieTypes)"
					} ]
			}
		}, {
			"aliases": [ "Wave16" ],
			"objclass": "SpawnZombiesJitteredWaveActionProps",
			"objdata": {
				"Zombies": [ {
						"Type": "RTID(newspaper_veteran@ZombieTypes)"
					}, {
						"Type": "RTID(lostcity_jane@ZombieTypes)"
					}, {
						"Row": "3",
						"Type": "RTID(barrelroller@ZombieTypes)"
					}, {
						"Row": "2",
						"Type": "RTID(barrelroller@ZombieTypes)"
					}, {
						"Row": "4",
						"Type": "RTID(barrelroller@ZombieTypes)"
					}, {
						"Type": "RTID(dark_wizard@ZombieTypes)"
					}, {
						"Type": "RTID(tutorial_gargantuar@ZombieTypes)"
					} ]
			}
		} ],
	"version": 1
}