{
	"#comment": "LOD 155 - Toadstool",
	"objects": [ {
			"objclass": "LevelDefinition",
			"objdata": {
				"Description": "[PREMIUM_PLANT_QUEST_LOD_DESC]",
				"DraperPromo": "shinevine",
				"ForceToWorldMap": true,
				"Loot": "RTID(DefaultLoot@LevelModules)",
				"Modules": [ "RTID(StandardIntro@LevelModules)", "RTID(LevelEscalationModule@CurrentLevel)", "RTID(FrontLawnMowers@LevelModules)", "RTID(DefaultSunDropper@LevelModules)", "RTID(NewWaves@CurrentLevel)", "RTID(SeedBank@CurrentLevel)", "RTID(SliderPlacement@CurrentLevel)", "RTID(DefaultZombieWinCondition@LevelModules)", "RTID(ZombiesDeadWinCon@LevelModules)" ],
				"Name": "[PREMIUM_PLANT_QUEST_LOD_NAME]",
				"NormalPresentTable": "egypt_normal_01",
				"RepeatPlayForceToWorldMap": true,
				"ShinyPresentTable": "egypt_shiny_01",
				"StageModule": "RTID(FrontLawnStage@LevelModules)"
			}
		}, {
			"aliases": [ "SeedBank" ],
			"objclass": "SeedBankProperties",
			"objdata": {
				"PresetPlantList": [ {
						"Level": -1,
						"PlantType": "shinevine"
					}, {
						"Level": -1,
						"PlantType": "spikeweed"
					}, {
						"Level": -1,
						"PlantType": "goldleaf"
					}, {
						"Level": -1,
						"PlantType": "spikerock"
					}, {
						"Level": -1,
						"PlantType": "magnifyinggrass"
					} ],
				"SelectionMethod": "preset"
			}
		}, {
			"aliases": [ "SliderPlacement" ],
			"objclass": "InitialGridItemProperties",
			"objdata": {
				"InitialGridItemPlacements": [ {
						"GridX": 7,
						"GridY": 0,
						"TypeName": "slider_down"
					}, {
						"GridX": 2,
						"GridY": 1,
						"TypeName": "slider_up"
					}, {
						"GridX": 5,
						"GridY": 1,
						"TypeName": "slider_down"
					}, {
						"GridX": 6,
						"GridY": 2,
						"TypeName": "slider_up"
					}, {
						"GridX": 4,
						"GridY": 3,
						"TypeName": "slider_down"
					}, {
						"GridX": 6,
						"GridY": 4,
						"TypeName": "slider_up"
					}, {
						"GridX": 0,
						"GridY": 0,
						"TypeName": "goldtile"
					}, {
						"GridX": 0,
						"GridY": 4,
						"TypeName": "goldtile"
					}, {
						"GridX": 0,
						"GridY": 2,
						"TypeName": "goldtile"
					} ]
			}
		}, {
			"aliases": [ "LevelEscalationModule" ],
			"objclass": "LevelEscalationModuleProperties",
			"objdata": {
				"FlagCount": 2,
				"PlantfoodToSpawnCount": 0,
				"PointIncrementPerWave": 125,
				"StartingPoints": 0,
				"WaveManagerProps": "RTID(WaveManagerProps@CurrentLevel)",
				"WavesPerFlag": 4,
				"ZombiePool": [ "RTID(lostcity_relichunter@ZombieTypes)" ]
			}
		}, {
			"aliases": [ "WaveManagerProps" ],
			"objclass": "WaveManagerProperties",
			"objdata": {
				"FlagWaveInterval": 4,
				"MaxNextWaveHealthPercentage": 0.9,
				"MinNextWaveHealthPercentage": 0.8,
				"WaveCount": 8,
				"WaveSpendingPointIncrement": 100,
				"WaveSpendingPoints": 100,
				"Waves": [ [ "RTID(Wave1@CurrentLevel)" ], [ "RTID(Wave2@CurrentLevel)" ], [ "RTID(Wave3@CurrentLevel)" ], [ "RTID(Wave4@CurrentLevel)" ], [ "RTID(Wave5@CurrentLevel)" ], [ "RTID(Wave6@CurrentLevel)" ], [ "RTID(Wave7@CurrentLevel)" ], [ "RTID(Wave8@CurrentLevel)" ] ]
			}
		}, {
			"aliases": [ "Wave1" ],
			"objclass": "SpawnZombiesJitteredWaveActionProps",
			"objdata": {
				"Zombies": [ {
						"Type": "RTID(cowboy@ZombieTypes)"
					} ]
			}
		}, {
			"aliases": [ "Wave2" ],
			"objclass": "SpawnZombiesJitteredWaveActionProps",
			"objdata": {
				"AdditionalPlantfood": 1,
				"Zombies": [ {
						"Type": "RTID(cowboy@ZombieTypes)"
					}, {
						"Type": "RTID(cowboy@ZombieTypes)"
					} ]
			}
		}, {
			"aliases": [ "Wave3" ],
			"objclass": "SpawnZombiesJitteredWaveActionProps",
			"objdata": {
				"Zombies": [ {
						"Row": "4",
						"Type": "RTID(cowboy_armor1@ZombieTypes)"
					}, {
						"Type": "RTID(cowboy@ZombieTypes)"
					} ]
			}
		}, {
			"aliases": [ "Wave4" ],
			"objclass": "SpawnZombiesJitteredWaveActionProps",
			"objdata": {
				"AdditionalPlantfood": 1,
				"Zombies": [ {
						"Row": "1",
						"Type": "RTID(cowboy_armor1@ZombieTypes)"
					}, {
						"Type": "RTID(cowboy@ZombieTypes)"
					}, {
						"Type": "RTID(cowboy@ZombieTypes)"
					}, {
						"Row": "3",
						"Type": "RTID(cowboy_armor2@ZombieTypes)"
					}, {
						"Row": "4",
						"Type": "RTID(cowboy_armor1@ZombieTypes)"
					} ]
			}
		}, {
			"aliases": [ "Wave5" ],
			"objclass": "SpawnZombiesJitteredWaveActionProps",
			"objdata": {
				"Zombies": [ {
						"Row": "2",
						"Type": "RTID(cowboy@ZombieTypes)"
					}, {
						"Type": "RTID(piano@ZombieTypes)"
					}, {
						"Row": "1",
						"Type": "RTID(cowboy_armor1@ZombieTypes)"
					}, {
						"Row": "5",
						"Type": "RTID(cowboy_armor1@ZombieTypes)"
					} ]
			}
		}, {
			"aliases": [ "Wave6" ],
			"objclass": "SpawnZombiesJitteredWaveActionProps",
			"objdata": {
				"AdditionalPlantfood": 1,
				"Zombies": [ {
						"Row": "2",
						"Type": "RTID(cowboy_armor1@ZombieTypes)"
					}, {
						"Row": "3",
						"Type": "RTID(cowboy@ZombieTypes)"
					}, {
						"Type": "RTID(piano@ZombieTypes)"
					}, {
						"Type": "RTID(chicken_farmer@ZombieTypes)"
					} ]
			}
		}, {
			"aliases": [ "Wave7" ],
			"objclass": "SpawnZombiesJitteredWaveActionProps",
			"objdata": {
				"AdditionalPlantfood": 0,
				"Zombies": [ {
						"Row": "4",
						"Type": "RTID(cowboy_armor1@ZombieTypes)"
					}, {
						"Type": "RTID(cowboy_armor2@ZombieTypes)"
					}, {
						"Type": "RTID(chicken_farmer@ZombieTypes)"
					}, {
						"Type": "RTID(chicken_farmer@ZombieTypes)"
					} ]
			}
		}, {
			"aliases": [ "Wave8" ],
			"objclass": "SpawnZombiesJitteredWaveActionProps",
			"objdata": {
				"Zombies": [ {
						"Row": "5",
						"Type": "RTID(chicken_farmer@ZombieTypes)"
					}, {
						"Type": "RTID(chicken_farmer@ZombieTypes)"
					}, {
						"Row": "5",
						"Type": "RTID(cowboy@ZombieTypes)"
					}, {
						"Row": "4",
						"Type": "RTID(cowboy@ZombieTypes)"
					}, {
						"Row": "2",
						"Type": "RTID(cowboy@ZombieTypes)"
					}, {
						"Type": "RTID(piano@ZombieTypes)"
					}, {
						"Row": "3",
						"Type": "RTID(chicken_farmer@ZombieTypes)"
					}, {
						"Type": "RTID(cowboy_armor1@ZombieTypes)"
					}, {
						"Row": "1",
						"Type": "RTID(chicken_farmer@ZombieTypes)"
					}, {
						"Type": "RTID(cowboy_armor2@ZombieTypes)"
					} ]
			}
		}, {
			"aliases": [ "NewWaves" ],
			"objclass": "WaveManagerModuleProperties",
			"objdata": {}
		} ],
	"version": 1
}