{
	"#comment": "Level Of The Day Dark Ages Teaser",
	"objects": [ {
			"objclass": "LevelDefinition",
			"objdata": {
				"Description": "[PREMIUM_PLANT_QUEST_LOD_DESC]",
				"FirstIntroNarrative": "EMPOWERMINT_LEVELUP_INTRO",
				"ForceToWorldMap": true,
				"Loot": "RTID(DefaultLoot@LevelModules)",
				"Modules": [ "RTID(StandardIntro@LevelModules)", "RTID(LevelEscalationModule@CurrentLevel)", "RTID(FrontLawnMowers@LevelModules)", "RTID(NewWaves@CurrentLevel)", "RTID(DefaultZombieWinCondition@LevelModules)", "RTID(ConveyorBelt@CurrentLevel)", "RTID(ZombiesDeadWinCon@LevelModules)" ],
				"Name": "[PREMIUM_PLANT_QUEST_LOD_NAME]",
				"NormalPresentTable": "egypt_normal_01",
				"RepeatPlayForceToWorldMap": true,
				"ShinyPresentTable": "egypt_shiny_01",
				"StageModule": "RTID(FrontLawnStage@LevelModules)"
			}
		}, {
			"aliases": [ "WaveManagerProps" ],
			"objclass": "WaveManagerProperties",
			"objdata": {
				"FlagWaveInterval": 13,
				"MaxNextWaveHealthPercentage": 0.9,
				"MinNextWaveHealthPercentage": 0.8,
				"WaveCount": 13,
				"WaveSpendingPointIncrement": 250,
				"WaveSpendingPoints": 200,
				"Waves": [ [ "RTID(Wave1@CurrentLevel)", "RTID(Wave1ModConveyor0@CurrentLevel)" ], [ "RTID(Wave2@CurrentLevel)" ], [ "RTID(Wave3@CurrentLevel)" ], [ "RTID(Wave4@CurrentLevel)", "RTID(Wave4ModConveyor0@CurrentLevel)" ], [ "RTID(Wave5@CurrentLevel)" ], [ "RTID(Wave6@CurrentLevel)" ], [ "RTID(Wave7@CurrentLevel)" ], [ "RTID(Wave8@CurrentLevel)" ], [ "RTID(Wave9@CurrentLevel)" ], [ "RTID(Wave10@CurrentLevel)" ], [ "RTID(Wave11@CurrentLevel)" ], [ "RTID(Wave12@CurrentLevel)" ], [ "RTID(Wave13@CurrentLevel)" ] ]
			}
		}, {
			"aliases": [ "Wave1" ],
			"objclass": "SpawnZombiesJitteredWaveActionProps",
			"objdata": {
				"AdditionalPlantfood": 0,
				"Zombies": [ {
						"Type": "RTID(cowboy@ZombieTypes)"
					} ]
			}
		}, {
			"aliases": [ "Wave2" ],
			"objclass": "SpawnZombiesJitteredWaveActionProps",
			"objdata": {
				"AdditionalPlantfood": 1,
				"Zombies": [ {
						"Type": "RTID(cowboy_armor1@ZombieTypes)"
					}, {
						"Type": "RTID(cowboy_armor1@ZombieTypes)"
					} ]
			}
		}, {
			"aliases": [ "Wave3" ],
			"objclass": "SpawnZombiesJitteredWaveActionProps",
			"objdata": {
				"AdditionalPlantfood": 0,
				"Zombies": [ {
						"Type": "RTID(cowboy_armor4@ZombieTypes)"
					}, {
						"Type": "RTID(cowboy_armor4@ZombieTypes)"
					}, {
						"Type": "RTID(cowboy_armor4@ZombieTypes)"
					} ]
			}
		}, {
			"aliases": [ "Wave4" ],
			"objclass": "SpawnZombiesJitteredWaveActionProps",
			"objdata": {
				"AdditionalPlantfood": 0,
				"Zombies": [ {
						"Type": "RTID(cowboy_armor4@ZombieTypes)"
					}, {
						"Type": "RTID(cowboy_armor4@ZombieTypes)"
					}, {
						"Type": "RTID(cowboy_armor4@ZombieTypes)"
					}, {
						"Type": "RTID(west_bull@ZombieTypes)"
					} ]
			}
		}, {
			"aliases": [ "Wave5" ],
			"objclass": "SpawnZombiesJitteredWaveActionProps",
			"objdata": {
				"AdditionalPlantfood": 0,
				"Zombies": [ {
						"Type": "RTID(lostcity_relichunter@ZombieTypes)"
					}, {
						"Type": "RTID(lostcity_relichunter@ZombieTypes)"
					} ]
			}
		}, {
			"aliases": [ "Wave6" ],
			"objclass": "SpawnZombiesJitteredWaveActionProps",
			"objdata": {
				"AdditionalPlantfood": 1,
				"Zombies": [ {
						"Type": "RTID(west_bull@ZombieTypes)"
					} ]
			}
		}, {
			"aliases": [ "Wave7" ],
			"objclass": "SpawnZombiesJitteredWaveActionProps",
			"objdata": {
				"Zombies": [ {
						"Type": "RTID(cowboy_gargantuar@ZombieTypes)"
					}, {
						"Type": "RTID(west_bull@ZombieTypes)"
					} ]
			}
		}, {
			"aliases": [ "Wave8" ],
			"objclass": "SpawnZombiesJitteredWaveActionProps",
			"objdata": {
				"AdditionalPlantfood": 0,
				"Zombies": [ {
						"Type": "RTID(lostcity_relichunter@ZombieTypes)"
					}, {
						"Row": "1",
						"Type": "RTID(lostcity_relichunter@ZombieTypes)"
					}, {
						"Row": "2",
						"Type": "RTID(lostcity_relichunter@ZombieTypes)"
					}, {
						"Row": "3",
						"Type": "RTID(lostcity_relichunter@ZombieTypes)"
					}, {
						"Row": "4",
						"Type": "RTID(lostcity_relichunter@ZombieTypes)"
					}, {
						"Row": "5",
						"Type": "RTID(lostcity_relichunter@ZombieTypes)"
					} ]
			}
		}, {
			"aliases": [ "Wave9" ],
			"objclass": "SpawnZombiesJitteredWaveActionProps",
			"objdata": {
				"AdditionalPlantfood": 1,
				"Zombies": [ {
						"Type": "RTID(cowboy_gargantuar@ZombieTypes)"
					} ]
			}
		}, {
			"aliases": [ "LevelEscalationModule" ],
			"objclass": "LevelEscalationModuleProperties",
			"objdata": {
				"FlagCount": 1,
				"PlantfoodToSpawnCount": 1,
				"PointIncrementPerWave": 275,
				"StartingPoints": 300,
				"WaveManagerProps": "RTID(WaveManagerProps@CurrentLevel)",
				"WavesPerFlag": 10,
				"ZombiePool": [ "RTID(cowboy@ZombieTypes)", "RTID(cowboy_armor1@ZombieTypes)", "RTID(cowboy_armor4@ZombieTypes)", "RTID(west_bull@ZombieTypes)", "RTID(cowboy_gargantuar@ZombieTypes)" ]
			}
		}, {
			"aliases": [ "NewWaves" ],
			"objclass": "WaveManagerModuleProperties",
			"objdata": {}
		}, {
			"aliases": [ "ConveyorBelt" ],
			"objclass": "ConveyorSeedBankProperties",
			"objdata": {
				"DropDelayConditions": [ {
						"Delay": 3,
						"MaxPackets": 0
					}, {
						"Delay": 6,
						"MaxPackets": 2
					}, {
						"Delay": 9,
						"MaxPackets": 4
					}, {
						"Delay": 12,
						"MaxPackets": 8
					} ],
				"InitialPlantList": [ {
						"Level": 10,
						"MaxCount": 1,
						"MaxCountCooldownSeconds": 40,
						"PlantType": "bombardmint",
						"Weight": 200
					}, {
						"PlantType": "potatomine",
						"Weight": 50
					} ],
				"SpeedConditions": [ {
						"MaxPackets": 0,
						"Speed": 100
					} ]
			}
		}, {
			"aliases": [ "Wave10" ],
			"objclass": "SpawnZombiesJitteredWaveActionProps",
			"objdata": {
				"Zombies": [ {
						"Type": "RTID(cowboy_gargantuar@ZombieTypes)"
					}, {
						"Type": "RTID(cowboy_gargantuar@ZombieTypes)"
					} ]
			}
		}, {
			"aliases": [ "Wave11" ],
			"objclass": "SpawnZombiesJitteredWaveActionProps",
			"objdata": {
				"Zombies": [ {
						"Type": "RTID(cowboy_gargantuar@ZombieTypes)"
					}, {
						"Type": "RTID(cowboy_gargantuar@ZombieTypes)"
					} ]
			}
		}, {
			"aliases": [ "Wave12" ],
			"objclass": "SpawnZombiesJitteredWaveActionProps",
			"objdata": {
				"Zombies": [ {
						"Type": "RTID(beach_gargantuar@ZombieTypes)"
					}, {
						"Type": "RTID(beach_gargantuar@ZombieTypes)"
					} ]
			}
		}, {
			"aliases": [ "Wave13" ],
			"objclass": "SpawnZombiesJitteredWaveActionProps",
			"objdata": {
				"Zombies": [ {
						"Type": "RTID(beach_gargantuar@ZombieTypes)"
					}, {
						"Type": "RTID(beach_gargantuar@ZombieTypes)"
					}, {
						"Type": "RTID(beach_gargantuar@ZombieTypes)"
					} ]
			}
		}, {
			"aliases": [ "Wave4ModConveyor0" ],
			"objclass": "ModifyConveyorWaveActionProps",
			"objdata": {
				"Add": [ {
						"MaxCount": 1,
						"MaxCountCooldownSeconds": 10,
						"Type": "RTID(bombegranate@PlantTypes)",
						"Weight": 20
					} ],
				"Remove": []
			}
		}, {
			"aliases": [ "Wave1ModConveyor0" ],
			"objclass": "ModifyConveyorWaveActionProps",
			"objdata": {
				"Add": [ {
						"Type": "RTID(primalpotatomine@PlantTypes)",
						"Weight": 30
					} ],
				"Remove": []
			}
		} ],
	"version": 1
}