{
	"#comment": "Premium Quest - Grapeshot",
	"objects": [ {
			"objclass": "LevelDefinition",
			"objdata": {
				"Description": "[PREMIUM_PLANT_QUEST_LOD_DESC]",
				"ForceToWorldMap": true,
				"Loot": "RTID(DefaultLoot@LevelModules)",
				"Modules": [ "RTID(StandardIntro@LevelModules)", "RTID(LevelEscalationModule@CurrentLevel)", "RTID(FrontLawnMowers@LevelModules)", "RTID(NewWaves@CurrentLevel)", "RTID(DefaultZombieWinCondition@LevelModules)", "RTID(Gravestones@CurrentLevel)", "RTID(ConveyorBelt@CurrentLevel)", "RTID(ZombiesDeadWinCon@LevelModules)" ],
				"Name": "[PREMIUM_PLANT_QUEST_LOD_NAME]",
				"NormalPresentTable": "egypt_normal_01",
				"RepeatPlayForceToWorldMap": true,
				"ShinyPresentTable": "egypt_shiny_01",
				"StageModule": "RTID(FrontLawnStage@LevelModules)"
			}
		}, {
			"aliases": [ "LevelEscalationModule" ],
			"objclass": "LevelEscalationModuleProperties",
			"objdata": {
				"FlagCount": 1,
				"PlantfoodToSpawnCount": 0,
				"PointIncrementPerWave": 175,
				"StartingPoints": 200,
				"WaveManagerProps": "RTID(WaveManagerProps@CurrentLevel)",
				"WavesPerFlag": 9,
				"ZombiePool": []
			}
		}, {
			"aliases": [ "ConveyorBelt" ],
			"objclass": "ConveyorSeedBankProperties",
			"objdata": {
				"DropDelayConditions": [ {
						"Delay": 3,
						"MaxPackets": 0
					}, {
						"Delay": 6,
						"MaxPackets": 2
					}, {
						"Delay": 9,
						"MaxPackets": 4
					}, {
						"Delay": 12,
						"MaxPackets": 8
					} ],
				"InitialPlantList": [ {
						"MaxCount": 1,
						"MaxCountCooldownSeconds": 25,
						"PlantType": "grapeshot",
						"Weight": 2
					}, {
						"PlantType": "puffshroom",
						"Weight": 10
					} ],
				"SpeedConditions": [ {
						"MaxPackets": 0,
						"Speed": 100
					} ]
			}
		}, {
			"aliases": [ "WaveManagerProps" ],
			"objclass": "WaveManagerProperties",
			"objdata": {
				"FlagWaveInterval": 9,
				"MaxNextWaveHealthPercentage": 0.9,
				"MinNextWaveHealthPercentage": 0.8,
				"WaveCount": 9,
				"WaveSpendingPointIncrement": 200,
				"WaveSpendingPoints": 150,
				"Waves": [ [ "RTID(Wave1@CurrentLevel)" ], [ "RTID(Wave2@CurrentLevel)" ], [ "RTID(Wave3@CurrentLevel)" ], [ "RTID(Wave4@CurrentLevel)" ], [ "RTID(Wave5@CurrentLevel)", "RTID(Wave5ModConveyor0@CurrentLevel)" ], [ "RTID(Wave6@CurrentLevel)" ], [ "RTID(Wave7@CurrentLevel)" ], [ "RTID(Wave8@CurrentLevel)" ], [ "RTID(Wave9@CurrentLevel)" ] ]
			}
		}, {
			"aliases": [ "Wave1" ],
			"objclass": "SpawnZombiesJitteredWaveActionProps",
			"objdata": {
				"AdditionalPlantfood": 1,
				"ZombieSpawnPattern": "ZombieSpawnerPatternStaggered",
				"Zombies": [ {
						"Row": "5",
						"Type": "RTID(tutorial@ZombieTypes)"
					}, {
						"Row": "5",
						"Type": "RTID(tutorial@ZombieTypes)"
					}, {
						"Row": "5",
						"Type": "RTID(tutorial@ZombieTypes)"
					} ]
			}
		}, {
			"aliases": [ "Wave2" ],
			"objclass": "SpawnZombiesJitteredWaveActionProps",
			"objdata": {
				"AdditionalPlantfood": 1,
				"ZombieSpawnPattern": "ZombieSpawnerPatternStaggered",
				"Zombies": [ {
						"Row": "2",
						"Type": "RTID(tomb_raiser@ZombieTypes)"
					}, {
						"Row": "2",
						"Type": "RTID(tutorial_armor1@ZombieTypes)"
					}, {
						"Row": "1",
						"Type": "RTID(tomb_raiser@ZombieTypes)"
					}, {
						"Row": "1",
						"Type": "RTID(tutorial_armor1@ZombieTypes)"
					}, {
						"Row": "1",
						"Type": "RTID(tutorial_armor2@ZombieTypes)"
					}, {
						"Row": "1",
						"Type": "RTID(explorer@ZombieTypes)"
					} ]
			}
		}, {
			"aliases": [ "Wave3" ],
			"objclass": "SpawnZombiesJitteredWaveActionProps",
			"objdata": {
				"AdditionalPlantfood": 0,
				"ZombieSpawnPattern": "ZombieSpawnerPatternStaggered",
				"Zombies": [ {
						"Row": "4",
						"Type": "RTID(tomb_raiser@ZombieTypes)"
					}, {
						"Row": "4",
						"Type": "RTID(camel_onehump@ZombieTypes)"
					}, {
						"Row": "4",
						"Type": "RTID(tutorial_armor2@ZombieTypes)"
					}, {
						"Row": "1",
						"Type": "RTID(tomb_raiser@ZombieTypes)"
					}, {
						"Row": "1",
						"Type": "RTID(tutorial@ZombieTypes)"
					}, {
						"Row": "1",
						"Type": "RTID(camel_onehump@ZombieTypes)"
					}, {
						"Row": "1",
						"Type": "RTID(tutorial_armor2@ZombieTypes)"
					} ]
			}
		}, {
			"aliases": [ "Wave4" ],
			"objclass": "SpawnZombiesJitteredWaveActionProps",
			"objdata": {
				"AdditionalPlantfood": 1,
				"ZombieSpawnPattern": "ZombieSpawnerPatternStaggered",
				"Zombies": [ {
						"Row": "2",
						"Type": "RTID(explorer@ZombieTypes)"
					}, {
						"Row": "1",
						"Type": "RTID(explorer@ZombieTypes)"
					}, {
						"Row": "4",
						"Type": "RTID(explorer@ZombieTypes)"
					}, {
						"Row": "5",
						"Type": "RTID(tomb_raiser@ZombieTypes)"
					}, {
						"Row": "2",
						"Type": "RTID(explorer@ZombieTypes)"
					}, {
						"Row": "1",
						"Type": "RTID(explorer@ZombieTypes)"
					}, {
						"Row": "5",
						"Type": "RTID(tomb_raiser@ZombieTypes)"
					}, {
						"Row": "3",
						"Type": "RTID(pharaoh@ZombieTypes)"
					}, {
						"Row": "4",
						"Type": "RTID(explorer@ZombieTypes)"
					} ]
			}
		}, {
			"aliases": [ "Wave5" ],
			"objclass": "SpawnZombiesJitteredWaveActionProps",
			"objdata": {
				"AdditionalPlantfood": 0,
				"ZombieSpawnPattern": "ZombieSpawnerPatternStaggered",
				"Zombies": [ {
						"Row": "4",
						"Type": "RTID(pharaoh@ZombieTypes)"
					}, {
						"Row": "4",
						"Type": "RTID(pharaoh@ZombieTypes)"
					}, {
						"Row": "3",
						"Type": "RTID(pharaoh@ZombieTypes)"
					}, {
						"Row": "2",
						"Type": "RTID(pharaoh@ZombieTypes)"
					}, {
						"Row": "1",
						"Type": "RTID(pharaoh@ZombieTypes)"
					}, {
						"Row": "1",
						"Type": "RTID(pharaoh@ZombieTypes)"
					} ]
			}
		}, {
			"aliases": [ "Wave6" ],
			"objclass": "SpawnZombiesJitteredWaveActionProps",
			"objdata": {
				"AdditionalPlantfood": 1,
				"ZombieSpawnPattern": "ZombieSpawnerPatternStaggered",
				"Zombies": [ {
						"Row": "1",
						"Type": "RTID(tutorial@ZombieTypes)"
					}, {
						"Row": "1",
						"Type": "RTID(explorer@ZombieTypes)"
					}, {
						"Row": "1",
						"Type": "RTID(explorer@ZombieTypes)"
					}, {
						"Row": "2",
						"Type": "RTID(explorer@ZombieTypes)"
					}, {
						"Row": "2",
						"Type": "RTID(explorer@ZombieTypes)"
					}, {
						"Row": "3",
						"Type": "RTID(explorer@ZombieTypes)"
					}, {
						"Row": "3",
						"Type": "RTID(explorer@ZombieTypes)"
					}, {
						"Row": "4",
						"Type": "RTID(explorer@ZombieTypes)"
					}, {
						"Row": "4",
						"Type": "RTID(explorer@ZombieTypes)"
					}, {
						"Row": "5",
						"Type": "RTID(explorer@ZombieTypes)"
					}, {
						"Row": "5",
						"Type": "RTID(explorer@ZombieTypes)"
					}, {
						"Row": "1",
						"Type": "RTID(camel_onehump@ZombieTypes)"
					}, {
						"Row": "5",
						"Type": "RTID(tomb_raiser@ZombieTypes)"
					}, {
						"Row": "5",
						"Type": "RTID(tomb_raiser@ZombieTypes)"
					}, {
						"Row": "5",
						"Type": "RTID(camel_onehump@ZombieTypes)"
					} ]
			}
		}, {
			"aliases": [ "Wave7" ],
			"objclass": "SpawnZombiesJitteredWaveActionProps",
			"objdata": {
				"AdditionalPlantfood": 0,
				"ZombieSpawnPattern": "ZombieSpawnerPatternStaggered",
				"Zombies": [ {
						"Row": "4",
						"Type": "RTID(tomb_raiser@ZombieTypes)"
					}, {
						"Row": "4",
						"Type": "RTID(tutorial_armor1@ZombieTypes)"
					}, {
						"Row": "4",
						"Type": "RTID(tutorial_armor1@ZombieTypes)"
					}, {
						"Row": "2",
						"Type": "RTID(tomb_raiser@ZombieTypes)"
					}, {
						"Row": "2",
						"Type": "RTID(tutorial@ZombieTypes)"
					}, {
						"Row": "2",
						"Type": "RTID(explorer@ZombieTypes)"
					} ]
			}
		}, {
			"aliases": [ "Wave8" ],
			"objclass": "SpawnZombiesJitteredWaveActionProps",
			"objdata": {
				"AdditionalPlantfood": 1,
				"ZombieSpawnPattern": "ZombieSpawnerPatternStaggered",
				"Zombies": [ {
						"Row": "3",
						"Type": "RTID(pharaoh@ZombieTypes)"
					}, {
						"Row": "3",
						"Type": "RTID(explorer@ZombieTypes)"
					}, {
						"Row": "3",
						"Type": "RTID(tomb_raiser@ZombieTypes)"
					}, {
						"Row": "5",
						"Type": "RTID(tomb_raiser@ZombieTypes)"
					}, {
						"Row": "5",
						"Type": "RTID(tomb_raiser@ZombieTypes)"
					}, {
						"Row": "5",
						"Type": "RTID(explorer@ZombieTypes)"
					}, {
						"Row": "2",
						"Type": "RTID(pharaoh@ZombieTypes)"
					}, {
						"Row": "2",
						"Type": "RTID(explorer@ZombieTypes)"
					}, {
						"Row": "2",
						"Type": "RTID(tomb_raiser@ZombieTypes)"
					} ]
			}
		}, {
			"aliases": [ "Wave9" ],
			"objclass": "SpawnZombiesJitteredWaveActionProps",
			"objdata": {
				"AdditionalPlantfood": 0,
				"ZombieSpawnPattern": "ZombieSpawnerPatternStaggered",
				"Zombies": [ {
						"Row": "1",
						"Type": "RTID(tutorial_armor1@ZombieTypes)"
					}, {
						"Row": "1",
						"Type": "RTID(tutorial_armor1@ZombieTypes)"
					}, {
						"Row": "4",
						"Type": "RTID(tutorial_armor1@ZombieTypes)"
					}, {
						"Row": "4",
						"Type": "RTID(explorer@ZombieTypes)"
					}, {
						"Row": "1",
						"Type": "RTID(tutorial_armor1@ZombieTypes)"
					}, {
						"Row": "1",
						"Type": "RTID(tutorial_armor1@ZombieTypes)"
					}, {
						"Row": "5",
						"Type": "RTID(tutorial_armor1@ZombieTypes)"
					}, {
						"Row": "5",
						"Type": "RTID(tutorial_armor1@ZombieTypes)"
					}, {
						"Row": "2",
						"Type": "RTID(tutorial_armor1@ZombieTypes)"
					}, {
						"Row": "2",
						"Type": "RTID(explorer@ZombieTypes)"
					}, {
						"Row": "3",
						"Type": "RTID(tutorial_armor2@ZombieTypes)"
					}, {
						"Row": "3",
						"Type": "RTID(tutorial_armor2@ZombieTypes)"
					}, {
						"Row": "3",
						"Type": "RTID(tutorial_armor2@ZombieTypes)"
					}, {
						"Row": "3",
						"Type": "RTID(tutorial_armor2@ZombieTypes)"
					}, {
						"Row": "3",
						"Type": "RTID(explorer@ZombieTypes)"
					}, {
						"Row": "5",
						"Type": "RTID(tutorial@ZombieTypes)"
					}, {
						"Row": "5",
						"Type": "RTID(tutorial@ZombieTypes)"
					} ]
			}
		}, {
			"aliases": [ "Gravestones" ],
			"objclass": "GravestoneProperties",
			"objdata": {
				"ForceSpawnData": [ {
						"GridX": 1,
						"GridY": 0
					}, {
						"GridX": 2,
						"GridY": 0
					}, {
						"GridX": 3,
						"GridY": 0
					}, {
						"GridX": 4,
						"GridY": 0
					}, {
						"GridX": 5,
						"GridY": 0
					}, {
						"GridX": 6,
						"GridY": 0
					}, {
						"GridX": 7,
						"GridY": 0
					}, {
						"GridX": 8,
						"GridY": 0
					}, {
						"GridX": 1,
						"GridY": 2
					}, {
						"GridX": 2,
						"GridY": 2
					}, {
						"GridX": 3,
						"GridY": 2
					}, {
						"GridX": 4,
						"GridY": 2
					}, {
						"GridX": 5,
						"GridY": 2
					}, {
						"GridX": 6,
						"GridY": 2
					}, {
						"GridX": 7,
						"GridY": 2
					}, {
						"GridX": 1,
						"GridY": 4
					}, {
						"GridX": 2,
						"GridY": 4
					}, {
						"GridX": 3,
						"GridY": 4
					}, {
						"GridX": 4,
						"GridY": 4
					}, {
						"GridX": 5,
						"GridY": 4
					}, {
						"GridX": 6,
						"GridY": 4
					}, {
						"GridX": 7,
						"GridY": 4
					}, {
						"GridX": 8,
						"GridY": 4
					} ]
			}
		}, {
			"aliases": [ "NewWaves" ],
			"objclass": "WaveManagerModuleProperties",
			"objdata": {}
		}, {
			"aliases": [ "Wave5ModConveyor0" ],
			"objclass": "ModifyConveyorWaveActionProps",
			"objdata": {
				"Add": [ {
						"Type": "RTID(akee@PlantTypes)",
						"Weight": 10
					} ],
				"Remove": []
			}
		} ],
	"version": 1
}