{
	"#comment": "LOD template level. Delete unnecessary Modules (e.g. Challenge, Frozen)",
	"objects": [ {
			"objclass": "LevelDefinition",
			"objdata": {
				"Description": "[PREMIUM_PLANT_QUEST_LOD_DESC]",
				"FirstIntroNarrative": "STRAWBURST_LOD",
				"Loot": "RTID(DefaultLoot@LevelModules)",
				"Modules": [ "RTID(StandardIntro@LevelModules)", "RTID(LevelEscalationModule@CurrentLevel)", "RTID(FrontLawnMowers@LevelModules)", "RTID(NewWaves@CurrentLevel)", "RTID(DefaultZombieWinCondition@LevelModules)", "RTID(Gravestones@CurrentLevel)", "RTID(ConveyorBelt@CurrentLevel)", "RTID(ZombiesDeadWinCon@LevelModules)" ],
				"Name": "[PREMIUM_PLANT_QUEST_LOD_NAME]",
				"NormalPresentTable": "egypt_normal_01",
				"ShinyPresentTable": "egypt_shiny_01",
				"ForceToWorldMap": true,
				"RepeatPlayForceToWorldMap": true,
				"StageModule": "RTID(FrontLawnStage@LevelModules)"
			}
		}, {
			"aliases": [ "LevelEscalationModule" ],
			"objclass": "LevelEscalationModuleProperties",
			"objdata": {
				"FlagCount": 3,
				"PlantfoodToSpawnCount": 4,
				"PointIncrementPerWave": 100,
				"StartingPoints": 100,
				"WaveManagerProps": "RTID(WaveManagerProps@CurrentLevel)",
				"WavesPerFlag": 4,
				"ZombiePool": [ "RTID(lostcity_bug_armor1@ZombieTypes)", "RTID(lostcity_bug@ZombieTypes)" ]
			}
		}, {
			"aliases": [ "WaveManagerProps" ],
			"objclass": "WaveManagerProperties",
			"objdata": {
				"MaxNextWaveHealthPercentage": 0.9,
				"MinNextWaveHealthPercentage": 0.8,
				"Waves": [ [ "RTID(Wave1@CurrentLevel)" ], [ "RTID(Wave2@CurrentLevel)", "RTID(Wave2ModConveyor0@CurrentLevel)" ], [ "RTID(Wave3@CurrentLevel)", "RTID(Wave3ModConveyor0@CurrentLevel)" ], [ "RTID(Wave4@CurrentLevel)", "RTID(Wave4ModConveyor0@CurrentLevel)" ], [ "RTID(Wave5@CurrentLevel)" ], [ "RTID(Wave6@CurrentLevel)" ], [ "RTID(Wave7@CurrentLevel)" ], [ "RTID(Wave8@CurrentLevel)" ], [ "RTID(Wave9@CurrentLevel)" ], [ "RTID(Wave10@CurrentLevel)" ], [ "RTID(Wave11@CurrentLevel)" ], [ "RTID(Wave12@CurrentLevel)" ] ]
			}
		}, {
			"aliases": [ "Wave1" ],
			"objclass": "SpawnZombiesJitteredWaveActionProps",
			"objdata": {
				"Zombies": [ {
						"Row": "5",
						"Type": "RTID(mummy@ZombieTypes)"
					}, {
						"Row": "4",
						"Type": "RTID(mummy@ZombieTypes)"
					} ]
			}
		}, {
			"aliases": [ "Wave2" ],
			"objclass": "SpawnZombiesJitteredWaveActionProps",
			"objdata": {
				"Zombies": [ {
						"Row": "3",
						"Type": "RTID(mummy@ZombieTypes)"
					}, {
						"Row": "2",
						"Type": "RTID(mummy@ZombieTypes)"
					}, {
						"Row": "1",
						"Type": "RTID(mummy@ZombieTypes)"
					} ]
			}
		}, {
			"aliases": [ "Wave3" ],
			"objclass": "SpawnZombiesJitteredWaveActionProps",
			"objdata": {
				"Zombies": [ {
						"Row": "4",
						"Type": "RTID(mech_cone@ZombieTypes)"
					}, {
						"Row": "3",
						"Type": "RTID(mummy@ZombieTypes)"
					}, {
						"Row": "3",
						"Type": "RTID(mummy@ZombieTypes)"
					} ]
			}
		}, {
			"aliases": [ "Wave4" ],
			"objclass": "SpawnZombiesJitteredWaveActionProps",
			"objdata": {
				"Zombies": [ {
						"Type": "RTID(mummy@ZombieTypes)"
					}, {
						"Type": "RTID(lostcity_bug@ZombieTypes)"
					}, {
						"Row": "2",
						"Type": "RTID(mummy@ZombieTypes)"
					}, {
						"Row": "2",
						"Type": "RTID(mummy_armor1@ZombieTypes)"
					}, {
						"Row": "1",
						"Type": "RTID(mummy@ZombieTypes)"
					}, {
						"Row": "1",
						"Type": "RTID(mummy_armor1@ZombieTypes)"
					} ]
			}
		}, {
			"aliases": [ "Wave5" ],
			"objclass": "SpawnZombiesJitteredWaveActionProps",
			"objdata": {
				"Zombies": [ {
						"Type": "RTID(lostcity_bug@ZombieTypes)"
					}, {
						"Row": "5",
						"Type": "RTID(mummy@ZombieTypes)"
					}, {
						"Row": "3",
						"Type": "RTID(mech_cone@ZombieTypes)"
					}, {
						"Row": "2",
						"Type": "RTID(mech_cone@ZombieTypes)"
					} ]
			}
		}, {
			"aliases": [ "Wave6" ],
			"objclass": "SpawnZombiesJitteredWaveActionProps",
			"objdata": {
				"Zombies": [ {
						"Type": "RTID(lostcity_bug@ZombieTypes)"
					}, {
						"Type": "RTID(mummy@ZombieTypes)"
					}, {
						"Row": "4",
						"Type": "RTID(mummy@ZombieTypes)"
					}, {
						"Row": "4",
						"Type": "RTID(mummy_armor1@ZombieTypes)"
					}, {
						"Row": "3",
						"Type": "RTID(mummy@ZombieTypes)"
					}, {
						"Row": "3",
						"Type": "RTID(mummy_armor1@ZombieTypes)"
					} ]
			}
		}, {
			"aliases": [ "Wave7" ],
			"objclass": "SpawnZombiesJitteredWaveActionProps",
			"objdata": {
				"Zombies": [ {
						"Type": "RTID(lostcity_bug@ZombieTypes)"
					}, {
						"Type": "RTID(mummy@ZombieTypes)"
					}, {
						"Row": "5",
						"Type": "RTID(mech_cone@ZombieTypes)"
					}, {
						"Row": "4",
						"Type": "RTID(mech_cone@ZombieTypes)"
					}, {
						"Row": "2",
						"Type": "RTID(mummy_armor1@ZombieTypes)"
					}, {
						"Row": "1",
						"Type": "RTID(mummy_armor1@ZombieTypes)"
					} ]
			}
		}, {
			"aliases": [ "Wave8" ],
			"objclass": "SpawnZombiesJitteredWaveActionProps",
			"objdata": {
				"Zombies": [ {
						"Type": "RTID(lostcity_bug@ZombieTypes)"
					}, {
						"Type": "RTID(lostcity_bug_armor1@ZombieTypes)"
					}, {
						"Type": "RTID(mummy@ZombieTypes)"
					}, {
						"Type": "RTID(mummy_armor1@ZombieTypes)"
					}, {
						"Row": "3",
						"Type": "RTID(mummy_armor2@ZombieTypes)"
					}, {
						"Row": "2",
						"Type": "RTID(mummy_armor2@ZombieTypes)"
					}, {
						"Row": "1",
						"Type": "RTID(mummy_armor1@ZombieTypes)"
					} ]
			}
		}, {
			"aliases": [ "Wave9" ],
			"objclass": "SpawnZombiesJitteredWaveActionProps",
			"objdata": {
				"Zombies": [ {
						"Type": "RTID(lostcity_bug@ZombieTypes)"
					}, {
						"Row": "5",
						"Type": "RTID(mummy_armor1@ZombieTypes)"
					}, {
						"Row": "4",
						"Type": "RTID(mech_cone@ZombieTypes)"
					}, {
						"Row": "3",
						"Type": "RTID(mech_cone@ZombieTypes)"
					} ]
			}
		}, {
			"aliases": [ "Gravestones" ],
			"objclass": "GravestoneProperties",
			"objdata": {}
		}, {
			"aliases": [ "NewWaves" ],
			"objclass": "WaveManagerModuleProperties",
			"objdata": {}
		}, {
			"aliases": [ "ConveyorBelt" ],
			"objclass": "ConveyorSeedBankProperties",
			"objdata": {
				"DropDelayConditions": [ {
						"Delay": 3,
						"MaxPackets": 0
					}, {
						"Delay": 6,
						"MaxPackets": 2
					}, {
						"Delay": 9,
						"MaxPackets": 4
					}, {
						"Delay": 12,
						"MaxPackets": 8
					} ],
				"InitialPlantList": [ {
						"MaxCount": 5,
						"MaxWeightFactor": 0.25,
						"PlantType": "strawburst",
						"Weight": 40
					} ],
				"SpeedConditions": [ {
						"MaxPackets": 0,
						"Speed": 100
					} ]
			}
		}, {
			"aliases": [ "Wave10" ],
			"objclass": "SpawnZombiesJitteredWaveActionProps",
			"objdata": {
				"Zombies": [ {
						"Type": "RTID(lostcity_bug_armor1@ZombieTypes)"
					}, {
						"Row": "5",
						"Type": "RTID(mummy@ZombieTypes)"
					}, {
						"Row": "5",
						"Type": "RTID(mummy_armor1@ZombieTypes)"
					}, {
						"Row": "3",
						"Type": "RTID(mummy_armor1@ZombieTypes)"
					}, {
						"Row": "3",
						"Type": "RTID(mummy_armor2@ZombieTypes)"
					} ]
			}
		}, {
			"aliases": [ "Wave11" ],
			"objclass": "SpawnZombiesJitteredWaveActionProps",
			"objdata": {
				"Zombies": [ {
						"Type": "RTID(lostcity_bug@ZombieTypes)"
					}, {
						"Type": "RTID(mummy_armor1@ZombieTypes)"
					}, {
						"Row": "5",
						"Type": "RTID(mech_cone@ZombieTypes)"
					}, {
						"Row": "4",
						"Type": "RTID(mummy_armor2@ZombieTypes)"
					}, {
						"Row": "2",
						"Type": "RTID(mummy_armor2@ZombieTypes)"
					}, {
						"Row": "1",
						"Type": "RTID(mech_cone@ZombieTypes)"
					} ]
			}
		}, {
			"aliases": [ "Wave12" ],
			"objclass": "SpawnZombiesJitteredWaveActionProps",
			"objdata": {
				"Zombies": [ {
						"Type": "RTID(lostcity_bug@ZombieTypes)"
					}, {
						"Type": "RTID(lostcity_bug_armor1@ZombieTypes)"
					}, {
						"Type": "RTID(lostcity_bug_armor1@ZombieTypes)"
					}, {
						"Type": "RTID(mummy@ZombieTypes)"
					}, {
						"Row": "5",
						"Type": "RTID(mummy_armor2@ZombieTypes)"
					}, {
						"Row": "4",
						"Type": "RTID(mummy_armor2@ZombieTypes)"
					}, {
						"Row": "3",
						"Type": "RTID(mummy_armor2@ZombieTypes)"
					}, {
						"Row": "2",
						"Type": "RTID(mummy_armor2@ZombieTypes)"
					}, {
						"Row": "1",
						"Type": "RTID(mummy_armor2@ZombieTypes)"
					} ]
			}
		}, {
			"aliases": [ "Wave2ModConveyor0" ],
			"objclass": "ModifyConveyorWaveActionProps",
			"objdata": {
				"Add": [ {
						"MaxWeightFactor": 10.0,
						"MinWeightFactor": 0.1,
						"Type": "RTID(kernelpult@PlantTypes)",
						"Weight": 20
					} ],
				"Remove": []
			}
		}, {
			"aliases": [ "Wave4ModConveyor0" ],
			"objclass": "ModifyConveyorWaveActionProps",
			"objdata": {
				"Add": [ {
						"MaxCount": 2,
						"MaxWeightFactor": 0,
						"MinWeightFactor": 0.1,
						"Type": "RTID(blover@PlantTypes)",
						"Weight": 20
					} ],
				"Remove": []
			}
		}, {
			"aliases": [ "Wave3ModConveyor0" ],
			"objclass": "ModifyConveyorWaveActionProps",
			"objdata": {
				"Add": [ {
						"MaxCount": 5,
						"MaxWeightFactor": 0.5,
						"MinWeightFactor": 0.1,
						"Type": "RTID(holonut@PlantTypes)",
						"Weight": 30
					} ],
				"Remove": []
			}
		} ],
	"version": 1
}