{
	"#comment": "premiumquest - caulipower",
	"objects": [ {
			"objclass": "LevelDefinition",
			"objdata": {
				"Description": "[PREMIUM_PLANT_QUEST_LOD_DESC]",
				"ForceToWorldMap": true,
				"Loot": "RTID(DefaultLoot@LevelModules)",
				"Modules": [ "RTID(StandardIntro@LevelModules)", "RTID(LevelEscalationModule@CurrentLevel)", "RTID(FrontLawnMowers@LevelModules)", "RTID(NewWaves@CurrentLevel)", "RTID(DefaultZombieWinCondition@LevelModules)", "RTID(Gravestones@CurrentLevel)", "RTID(ConveyorBelt@CurrentLevel)", "RTID(ZombiesDeadWinCon@LevelModules)", "RTID(FutureLinkedTileGroups@CurrentLevel)" ],
				"Name": "[PREMIUM_PLANT_QUEST_LOD_NAME]",
				"NormalPresentTable": "egypt_normal_01",
				"RepeatPlayForceToWorldMap": true,
				"ShinyPresentTable": "egypt_shiny_01",
				"StageModule": "RTID(FutureStage@LevelModules)"
			}
		}, {
			"aliases": [ "LevelEscalationModule" ],
			"objclass": "LevelEscalationModuleProperties",
			"objdata": {
				"FlagCount": 4,
				"PlantfoodToSpawnCount": 0,
				"PointIncrementPerWave": 1,
				"StartingPoints": 1,
				"WaveManagerProps": "RTID(WaveManagerProps@CurrentLevel)",
				"WavesPerFlag": 3,
				"ZombiePool": [ "RTID(iceage_armor2@ZombieTypes)", "RTID(iceage@ZombieTypes)", "RTID(iceage_imp@ZombieTypes)", "RTID(iceage_weaselhoarder@ZombieTypes)", "RTID(iceage_armor1@ZombieTypes)", "RTID(iceage_troglobite_2block@ZombieTypes)", "RTID(iceage_troglobite@ZombieTypes)", "RTID(iceage_dodo@ZombieTypes)", "RTID(iceage_hunter@ZombieTypes)", "RTID(iceage_armor3@ZombieTypes)", "RTID(iceage_gargantuar@ZombieTypes)", "RTID(iceage_troglobite_1block@ZombieTypes)" ]
			}
		}, {
			"aliases": [ "FutureLinkedTileGroups" ],
			"objclass": "PowerTileProperties",
			"objdata": {
				"LinkedTiles": [ {
						"Group": "gamma",
						"Location": {
							"mX": 3,
							"mY": 0
						},
						"PropagationDelay": 1.5
					}, {
						"Group": "beta",
						"Location": {
							"mX": 4,
							"mY": 0
						},
						"PropagationDelay": 1.5
					}, {
						"Group": "gamma",
						"Location": {
							"mX": 5,
							"mY": 2
						},
						"PropagationDelay": 1.5
					}, {
						"Group": "gamma",
						"Location": {
							"mX": 3,
							"mY": 4
						},
						"PropagationDelay": 1.5
					}, {
						"Group": "beta",
						"Location": {
							"mX": 4,
							"mY": 4
						},
						"PropagationDelay": 1.5
					} ]
			}
		}, {
			"aliases": [ "WaveManagerProps" ],
			"objclass": "WaveManagerProperties",
			"objdata": {
				"FlagWaveInterval": 6,
				"MaxNextWaveHealthPercentage": 0.9,
				"MinNextWaveHealthPercentage": 0.8,
				"WaveCount": 12,
				"Waves": [ [ "RTID(Wave1@CurrentLevel)" ], [ "RTID(Wave2@CurrentLevel)", "RTID(Wave2ModConveyor0@CurrentLevel)", "RTID(Wave2PortalsEvent0@CurrentLevel)" ], [ "RTID(Wave3@CurrentLevel)" ], [ "RTID(Wave4@CurrentLevel)" ], [ "RTID(Wave5@CurrentLevel)", "RTID(Wave5DinoTimeEvent0@CurrentLevel)", "RTID(Wave5DinoTimeEvent1@CurrentLevel)" ], [ "RTID(Wave6@CurrentLevel)" ], [ "RTID(Wave7@CurrentLevel)", "RTID(Wave7DinoTimeEvent0@CurrentLevel)", "RTID(Wave7DinoTimeEvent1@CurrentLevel)" ], [ "RTID(Wave8@CurrentLevel)", "RTID(Wave8DinoTimeEvent0@CurrentLevel)", "RTID(Wave8DinoTimeEvent1@CurrentLevel)" ], [ "RTID(Wave9@CurrentLevel)" ], [ "RTID(Wave10@CurrentLevel)" ], [ "RTID(Wave11@CurrentLevel)", "RTID(Wave11DinoTimeEvent0@CurrentLevel)", "RTID(Wave11DinoTimeEvent1@CurrentLevel)" ], [ "RTID(Wave12@CurrentLevel)" ] ]
			}
		}, {
			"aliases": [ "Wave1" ],
			"objclass": "SpawnZombiesJitteredWaveActionProps",
			"objdata": {
				"AdditionalPlantfood": 1,
				"Zombies": [ {
						"Type": "RTID(dino_armor1@ZombieTypes)"
					}, {
						"Type": "RTID(dino_armor1@ZombieTypes)"
					} ]
			}
		}, {
			"aliases": [ "Wave2" ],
			"objclass": "SpawnZombiesJitteredWaveActionProps",
			"objdata": {
				"Zombies": [ {
						"Type": "RTID(mech_cone@ZombieTypes)"
					} ]
			}
		}, {
			"aliases": [ "Wave3" ],
			"objclass": "SpawnZombiesJitteredWaveActionProps",
			"objdata": {
				"AdditionalPlantfood": 1,
				"Zombies": [ {
						"Type": "RTID(future_jetpack@ZombieTypes)"
					}, {
						"Type": "RTID(future_jetpack@ZombieTypes)"
					}, {
						"Type": "RTID(future_jetpack@ZombieTypes)"
					} ]
			}
		}, {
			"aliases": [ "Wave4" ],
			"objclass": "SpawnZombiesJitteredWaveActionProps",
			"objdata": {
				"Zombies": [ {
						"Type": "RTID(future@ZombieTypes)"
					}, {
						"Row": "3",
						"Type": "RTID(iceage_weaselhoarder@ZombieTypes)"
					}, {
						"Type": "RTID(future@ZombieTypes)"
					} ]
			}
		}, {
			"aliases": [ "Wave5" ],
			"objclass": "SpawnZombiesJitteredWaveActionProps",
			"objdata": {
				"AdditionalPlantfood": 0,
				"Zombies": [ {
						"Row": "2",
						"Type": "RTID(football_mech@ZombieTypes)"
					}, {
						"Row": "4",
						"Type": "RTID(football_mech@ZombieTypes)"
					} ]
			}
		}, {
			"aliases": [ "Wave6" ],
			"objclass": "SpawnZombiesJitteredWaveActionProps",
			"objdata": {
				"AdditionalPlantfood": 1,
				"Zombies": [ {
						"Row": "2",
						"Type": "RTID(iceage_armor2@ZombieTypes)"
					}, {
						"Row": "4",
						"Type": "RTID(iceage_armor2@ZombieTypes)"
					}, {
						"Type": "RTID(iceage_weaselhoarder@ZombieTypes)"
					}, {
						"Type": "RTID(iceage_troglobite_2block@ZombieTypes)"
					}, {
						"Type": "RTID(iceage_weaselhoarder@ZombieTypes)"
					}, {
						"Type": "RTID(iceage_weaselhoarder@ZombieTypes)"
					}, {
						"Type": "RTID(iceage_troglobite_2block@ZombieTypes)"
					} ]
			}
		}, {
			"aliases": [ "Wave7" ],
			"objclass": "SpawnZombiesJitteredWaveActionProps",
			"objdata": {
				"AdditionalPlantfood": 0,
				"Zombies": [ {
						"Row": "1",
						"Type": "RTID(dino_armor1@ZombieTypes)"
					}, {
						"Row": "1",
						"Type": "RTID(dino_armor1@ZombieTypes)"
					}, {
						"Row": "1",
						"Type": "RTID(dino_armor1@ZombieTypes)"
					}, {
						"Row": "1",
						"Type": "RTID(dino_armor1@ZombieTypes)"
					}, {
						"Row": "1",
						"Type": "RTID(dino_armor1@ZombieTypes)"
					}, {
						"Row": "5",
						"Type": "RTID(dino_armor1@ZombieTypes)"
					}, {
						"Row": "5",
						"Type": "RTID(dino_armor1@ZombieTypes)"
					}, {
						"Row": "5",
						"Type": "RTID(dino_armor1@ZombieTypes)"
					}, {
						"Row": "5",
						"Type": "RTID(dino_armor1@ZombieTypes)"
					}, {
						"Row": "5",
						"Type": "RTID(dino_armor1@ZombieTypes)"
					} ]
			}
		}, {
			"aliases": [ "Wave8" ],
			"objclass": "SpawnZombiesJitteredWaveActionProps",
			"objdata": {
				"Zombies": [ {
						"Row": "2",
						"Type": "RTID(future_jetpack@ZombieTypes)"
					}, {
						"Row": "2",
						"Type": "RTID(future_jetpack@ZombieTypes)"
					}, {
						"Row": "2",
						"Type": "RTID(future_jetpack@ZombieTypes)"
					}, {
						"Row": "3",
						"Type": "RTID(future_jetpack@ZombieTypes)"
					}, {
						"Row": "3",
						"Type": "RTID(future_jetpack@ZombieTypes)"
					}, {
						"Row": "3",
						"Type": "RTID(future_jetpack@ZombieTypes)"
					} ]
			}
		}, {
			"aliases": [ "Wave9" ],
			"objclass": "SpawnZombiesJitteredWaveActionProps",
			"objdata": {
				"Zombies": [ {
						"Row": "4",
						"Type": "RTID(mech_cone@ZombieTypes)"
					} ]
			}
		}, {
			"aliases": [ "Gravestones" ],
			"objclass": "GravestoneProperties",
			"objdata": {}
		}, {
			"aliases": [ "NewWaves" ],
			"objclass": "WaveManagerModuleProperties",
			"objdata": {
				"DynamicZombies": [ {}, {}, {}, {}, {}, {}, {} ]
			}
		}, {
			"aliases": [ "ConveyorBelt" ],
			"objclass": "ConveyorSeedBankProperties",
			"objdata": {
				"DropDelayConditions": [ {
						"Delay": 4,
						"MaxPackets": 0
					}, {
						"Delay": 6,
						"MaxPackets": 2
					}, {
						"Delay": 9,
						"MaxPackets": 4
					}, {
						"Delay": 12,
						"MaxPackets": 8
					} ],
				"InitialPlantList": [ {
						"PlantType": "caulipower",
						"Weight": 30
					}, {
						"PlantType": "sporeshroom",
						"Weight": 100
					} ],
				"SpeedConditions": [ {
						"MaxPackets": 0,
						"Speed": 100
					} ]
			}
		}, {
			"aliases": [ "Wave10" ],
			"objclass": "SpawnZombiesJitteredWaveActionProps",
			"objdata": {
				"AdditionalPlantfood": 1,
				"Zombies": [ {
						"Row": "1",
						"Type": "RTID(iceage_dodo@ZombieTypes)"
					}, {
						"Row": "2",
						"Type": "RTID(iceage_dodo@ZombieTypes)"
					}, {
						"Row": "3",
						"Type": "RTID(iceage_dodo@ZombieTypes)"
					}, {
						"Row": "4",
						"Type": "RTID(iceage_dodo@ZombieTypes)"
					}, {
						"Row": "5",
						"Type": "RTID(iceage_dodo@ZombieTypes)"
					} ]
			}
		}, {
			"aliases": [ "Wave2ModConveyor0" ],
			"objclass": "ModifyConveyorWaveActionProps",
			"objdata": {
				"Add": [ {
						"MaxCount": 5,
						"MaxWeightFactor": 0,
						"Type": "RTID(wallnut@PlantTypes)",
						"Weight": 25
					} ],
				"Remove": []
			}
		}, {
			"aliases": [ "Wave5DinoTimeEvent0" ],
			"objclass": "DinoWaveActionProps",
			"objdata": {
				"DinoRow": 1,
				"DinoType": "raptor",
				"DinoWaveDuration": "0"
			}
		}, {
			"aliases": [ "Wave2PortalsEvent0" ],
			"objclass": "SpawnModernPortalsWaveActionProps",
			"objdata": {
				"PortalColumn": 5,
				"PortalRow": 1,
				"PortalType": "iceage",
				"SpawnEffectAnimID": "",
				"SpawnSoundID": ""
			}
		}, {
			"aliases": [ "Wave7DinoTimeEvent0" ],
			"objclass": "DinoWaveActionProps",
			"objdata": {
				"DinoRow": 0,
				"DinoType": "ptero",
				"DinoWaveDuration": "0"
			}
		}, {
			"aliases": [ "Wave7DinoTimeEvent1" ],
			"objclass": "DinoWaveActionProps",
			"objdata": {
				"DinoRow": 4,
				"DinoType": "ptero",
				"DinoWaveDuration": "0"
			}
		}, {
			"aliases": [ "Wave5DinoTimeEvent1" ],
			"objclass": "DinoWaveActionProps",
			"objdata": {
				"DinoRow": 3,
				"DinoType": "raptor",
				"DinoWaveDuration": "0"
			}
		}, {
			"aliases": [ "Wave11" ],
			"objclass": "SpawnZombiesJitteredWaveActionProps",
			"objdata": {
				"Zombies": [ {
						"Row": "1",
						"Type": "RTID(iceage_gargantuar@ZombieTypes)"
					}, {
						"Row": "3",
						"Type": "RTID(iceage_gargantuar@ZombieTypes)"
					} ]
			}
		}, {
			"aliases": [ "Wave11DinoTimeEvent0" ],
			"objclass": "DinoWaveActionProps",
			"objdata": {
				"DinoRow": 0,
				"DinoType": "tyranno",
				"DinoWaveDuration": "0"
			}
		}, {
			"aliases": [ "Wave11DinoTimeEvent1" ],
			"objclass": "DinoWaveActionProps",
			"objdata": {
				"DinoRow": 2,
				"DinoType": "tyranno",
				"DinoWaveDuration": 0
			}
		}, {
			"aliases": [ "Wave12" ],
			"objclass": "SpawnZombiesJitteredWaveActionProps",
			"objdata": {
				"Zombies": [ {
						"Row": "1",
						"Type": "RTID(iceage_weaselhoarder@ZombieTypes)"
					}, {
						"Row": "1",
						"Type": "RTID(iceage_weaselhoarder@ZombieTypes)"
					}, {
						"Row": "2",
						"Type": "RTID(iceage_weaselhoarder@ZombieTypes)"
					}, {
						"Row": "2",
						"Type": "RTID(iceage_weaselhoarder@ZombieTypes)"
					}, {
						"Row": "3",
						"Type": "RTID(iceage_weaselhoarder@ZombieTypes)"
					}, {
						"Row": "3",
						"Type": "RTID(iceage_weaselhoarder@ZombieTypes)"
					}, {
						"Row": "4",
						"Type": "RTID(iceage_weaselhoarder@ZombieTypes)"
					}, {
						"Row": "4",
						"Type": "RTID(iceage_weaselhoarder@ZombieTypes)"
					}, {
						"Row": "5",
						"Type": "RTID(iceage_weaselhoarder@ZombieTypes)"
					}, {
						"Row": "5",
						"Type": "RTID(iceage_weaselhoarder@ZombieTypes)"
					}, {
						"Type": "RTID(iceage_weaselhoarder@ZombieTypes)"
					}, {
						"Type": "RTID(iceage_weaselhoarder@ZombieTypes)"
					} ]
			}
		}, {
			"aliases": [ "Wave8DinoTimeEvent0" ],
			"objclass": "DinoWaveActionProps",
			"objdata": {
				"DinoRow": 1,
				"DinoType": "tyranno",
				"DinoWaveDuration": 0
			}
		}, {
			"aliases": [ "Wave8DinoTimeEvent1" ],
			"objclass": "DinoWaveActionProps",
			"objdata": {
				"DinoRow": 2,
				"DinoType": "tyranno",
				"DinoWaveDuration": "0"
			}
		} ],
	"version": 1
}