{
	"#comment": "Level Of The Day Birthday",
	"objects": [ {
			"objclass": "LevelDefinition",
			"objdata": {
				"Description": "[PREMIUM_PLANT_QUEST_LOD_DESC]",
				"DraperPromo": "jalapeno",
				"Loot": "RTID(DefaultLoot@LevelModules)",
				"Modules": [ "RTID(StandardIntro@LevelModules)", "RTID(LevelEscalationModule@CurrentLevel)", "RTID(FrontLawnMowers@LevelModules)", "RTID(NewWaves@CurrentLevel)", "RTID(DefaultZombieWinCondition@LevelModules)", "RTID(Gravestones@CurrentLevel)", "RTID(ConveyorBelt@CurrentLevel)", "RTID(ZombiesDeadWinCon@LevelModules)" ],
				"Name": "[PREMIUM_PLANT_QUEST_LOD_NAME]",
				"NormalPresentTable": "egypt_normal_01",
				"ShinyPresentTable": "egypt_shiny_01",
				"ForceToWorldMap": true,
				"RepeatPlayForceToWorldMap": true,
				"StageModule": "RTID(FrontLawnStage@LevelModules)"
			}
		}, {
			"aliases": [ "WaveManagerProps" ],
			"objclass": "WaveManagerProperties",
			"objdata": {
				"MaxNextWaveHealthPercentage": 0.9,
				"MinNextWaveHealthPercentage": 0.8,
				"Waves": [ [ "RTID(Wave1@CurrentLevel)" ], [ "RTID(Wave2@CurrentLevel)" ], [ "RTID(Wave3@CurrentLevel)" ], [ "RTID(Wave4@CurrentLevel)" ], [ "RTID(Wave5@CurrentLevel)" ], [ "RTID(Wave6@CurrentLevel)" ], [ "RTID(Wave7@CurrentLevel)" ], [ "RTID(Wave8@CurrentLevel)" ], [ "RTID(Wave9@CurrentLevel)" ] ]
			}
		}, {
			"aliases": [ "Wave1" ],
			"objclass": "SpawnZombiesJitteredWaveActionProps",
			"objdata": {
				"Zombies": [ {
						"Type": "RTID(tutorial@ZombieTypes)"
					} ]
			}
		}, {
			"aliases": [ "Wave2" ],
			"objclass": "SpawnZombiesJitteredWaveActionProps",
			"objdata": {
				"Zombies": [ {
						"Type": "RTID(tutorial@ZombieTypes)"
					} ]
			}
		}, {
			"aliases": [ "Wave3" ],
			"objclass": "SpawnZombiesJitteredWaveActionProps",
			"objdata": {
				"Zombies": [ {
						"Type": "RTID(tutorial@ZombieTypes)"
					} ]
			}
		}, {
			"aliases": [ "Wave4" ],
			"objclass": "SpawnZombiesJitteredWaveActionProps",
			"objdata": {
				"Zombies": [ {
						"Type": "RTID(tutorial@ZombieTypes)"
					} ]
			}
		}, {
			"aliases": [ "Wave5" ],
			"objclass": "SpawnZombiesJitteredWaveActionProps",
			"objdata": {
				"Zombies": [ {
						"Type": "RTID(tutorial@ZombieTypes)"
					} ]
			}
		}, {
			"aliases": [ "Wave6" ],
			"objclass": "SpawnZombiesJitteredWaveActionProps",
			"objdata": {
				"Zombies": [ {
						"Type": "RTID(tutorial@ZombieTypes)"
					} ]
			}
		}, {
			"aliases": [ "Wave7" ],
			"objclass": "SpawnZombiesJitteredWaveActionProps",
			"objdata": {
				"Zombies": [ {
						"Type": "RTID(tutorial@ZombieTypes)"
					} ]
			}
		}, {
			"aliases": [ "Wave8" ],
			"objclass": "SpawnZombiesJitteredWaveActionProps",
			"objdata": {
				"Zombies": [ {
						"Type": "RTID(tutorial@ZombieTypes)"
					} ]
			}
		}, {
			"aliases": [ "Wave9" ],
			"objclass": "SpawnZombiesJitteredWaveActionProps",
			"objdata": {
				"Zombies": [ {
						"Type": "RTID(tutorial@ZombieTypes)"
					} ]
			}
		}, {
			"aliases": [ "LevelEscalationModule" ],
			"objclass": "LevelEscalationModuleProperties",
			"objdata": {
				"FlagCount": 4,
				"PlantfoodToSpawnCount": 7,
				"PointIncrementPerWave": 250,
				"StartingPoints": 200,
				"WaveManagerProps": "RTID(WaveManagerProps@CurrentLevel)",
				"WavesPerFlag": 3,
				"ZombiePool": [ "RTID(tutorial@ZombieTypes)", "RTID(tutorial_armor1@ZombieTypes)", "RTID(tutorial_armor2@ZombieTypes)", "RTID(pharaoh@ZombieTypes)", "RTID(tomb_raiser@ZombieTypes)" ]
			}
		}, {
			"aliases": [ "Gravestones" ],
			"objclass": "GravestoneProperties",
			"objdata": {
				"ForceSpawnData": [ {
						"GridX": 1,
						"GridY": 0
					}, {
						"GridX": 2,
						"GridY": 0
					}, {
						"GridX": 3,
						"GridY": 0
					}, {
						"GridX": 4,
						"GridY": 0
					}, {
						"GridX": 5,
						"GridY": 0
					}, {
						"GridX": 6,
						"GridY": 0
					}, {
						"GridX": 7,
						"GridY": 0
					}, {
						"GridX": 8,
						"GridY": 0
					}, {
						"GridX": 1,
						"GridY": 1
					}, {
						"GridX": 2,
						"GridY": 1
					}, {
						"GridX": 3,
						"GridY": 1
					}, {
						"GridX": 4,
						"GridY": 1
					}, {
						"GridX": 5,
						"GridY": 1
					}, {
						"GridX": 6,
						"GridY": 1
					}, {
						"GridX": 7,
						"GridY": 1
					}, {
						"GridX": 8,
						"GridY": 1
					}, {
						"GridX": 1,
						"GridY": 2
					}, {
						"GridX": 2,
						"GridY": 2
					}, {
						"GridX": 3,
						"GridY": 2
					}, {
						"GridX": 4,
						"GridY": 2
					}, {
						"GridX": 5,
						"GridY": 2
					}, {
						"GridX": 6,
						"GridY": 2
					}, {
						"GridX": 7,
						"GridY": 2
					}, {
						"GridX": 8,
						"GridY": 2
					}, {
						"GridX": 1,
						"GridY": 3
					}, {
						"GridX": 2,
						"GridY": 3
					}, {
						"GridX": 3,
						"GridY": 3
					}, {
						"GridX": 4,
						"GridY": 3
					}, {
						"GridX": 5,
						"GridY": 3
					}, {
						"GridX": 6,
						"GridY": 3
					}, {
						"GridX": 7,
						"GridY": 3
					}, {
						"GridX": 8,
						"GridY": 3
					}, {
						"GridX": 1,
						"GridY": 4
					}, {
						"GridX": 2,
						"GridY": 4
					}, {
						"GridX": 3,
						"GridY": 4
					}, {
						"GridX": 4,
						"GridY": 4
					}, {
						"GridX": 5,
						"GridY": 4
					}, {
						"GridX": 6,
						"GridY": 4
					}, {
						"GridX": 7,
						"GridY": 4
					}, {
						"GridX": 8,
						"GridY": 4
					} ]
			}
		}, {
			"aliases": [ "NewWaves" ],
			"objclass": "WaveManagerModuleProperties",
			"objdata": {}
		}, {
			"aliases": [ "ConveyorBelt" ],
			"objclass": "ConveyorSeedBankProperties",
			"objdata": {
				"DropDelayConditions": [ {
						"Delay": 3,
						"MaxPackets": 0
					}, {
						"Delay": 6,
						"MaxPackets": 2
					}, {
						"Delay": 9,
						"MaxPackets": 4
					}, {
						"Delay": 12,
						"MaxPackets": 8
					} ],
				"InitialPlantList": [ {
						"MaxCount": 2,
						"MaxWeightFactor": 0,
						"MinCount": 1,
						"MinWeightFactor": 6,
						"PlantType": "jalapeno",
						"Weight": 3
					}, {
						"MaxCount": 75,
						"MaxWeightFactor": 0,
						"PlantType": "peapod",
						"Weight": 25
					} ],
				"SpeedConditions": [ {
						"MaxPackets": 0,
						"Speed": 100
					} ]
			}
		} ],
	"version": 1
}