{
	"#comment": "LOD 224 - Vasebreaker - Wasabi Whip",
	"objects": [ {
			"objclass": "LevelDefinition",
			"objdata": {
				"Description": "[PREMIUM_PLANT_QUEST_LOD_DESC]",
				"IsVasebreaker": true,
				"Loot": "RTID(DefaultLoot@LevelModules)",
				"Modules": [ "RTID(StandardIntro@LevelModules)", "RTID(LevelEscalationModule@CurrentLevel)", "RTID(DefaultZombieWinCondition@LevelModules)", "RTID(ZombiesDeadWinCon@LevelModules)", "RTID(VaseBreakerArcade@LevelModules)", "RTID(VaseBreakerProps@.)" ],
				"Name": "[PREMIUM_PLANT_QUEST_LOD_NAME]",
				"NormalPresentTable": "egypt_normal_01",
				"ShinyPresentTable": "egypt_shiny_01",
				"ForceToWorldMap": true,
				"RepeatPlayForceToWorldMap": true,
				"StageModule": "RTID(DinoStage@LevelModules)"
			}
		}, {
			"aliases": [ "LevelEscalationModule" ],
			"objclass": "LevelEscalationModuleProperties",
			"objdata": {
				"FlagCount": 0,
				"PlantfoodToSpawnCount": 0,
				"PointIncrementPerWave": 0,
				"StartingPoints": 0,
				"WavesPerFlag": 0,
				"ZombiePool": []
			}
		}, {
			"objclass": "VaseBreakerPresetProperties",
			"aliases": [ "VaseBreakerProps" ],
			"objdata": {
				"MinColumnIndex": 3,
				"MaxColumnIndex": 8,
				"Vases": [ {
						"ZombieTypeName": "dino_imp",
						"Count": 3
					}, {
						"ZombieTypeName": "dino",
						"Count": 3
					}, {
						"ZombieTypeName": "dino_armor1",
						"Count": 5
					}, {
						"ZombieTypeName": "dino_armor2",
						"Count": 2
					}, {
						"ZombieTypeName": "dino_bully",
						"Count": 2
					}, {
						"PlantTypeName": "wasabiwhip",
						"Count": 6
					}, {
						"PlantTypeName": "primalwallnut",
						"Count": 5
					}, {
						"PlantTypeName": "primalpeashooter",
						"Count": 2
					}, {
						"CollectableTypeName": "plantfood",
						"Count": 2
					} ],
				"NumColoredPlantVases": 4,
				"NumColoredZombieVases": 0
			}
		} ],
	"version": 1
}