{
	"#comment": "LOD template level. Delete unnecessary Modules (e.g. Challenge, Frozen)",
	"objects": [ {
			"objclass": "LevelDefinition",
			"objdata": {
				"Description": "[PREMIUM_PLANT_QUEST_LOD_DESC]",
				"DraperPromo": "shrinkingviolet",
				"ForceToWorldMap": true,
				"Loot": "RTID(DefaultLoot@LevelModules)",
				"Modules": [ "RTID(StandardIntro@LevelModules)", "RTID(LevelEscalationModule@CurrentLevel)", "RTID(FrontLawnMowers@LevelModules)", "RTID(NewWaves@CurrentLevel)", "RTID(DefaultZombieWinCondition@LevelModules)", "RTID(ConveyorBelt@CurrentLevel)", "RTID(ChallengeModule@CurrentLevel)", "RTID(ProtectThePlant@CurrentLevel)", "RTID(ZombiesDeadWinCon@LevelModules)" ],
				"Name": "[PREMIUM_PLANT_QUEST_LOD_NAME]",
				"NormalPresentTable": "egypt_normal_01",
				"RepeatPlayForceToWorldMap": true,
				"ShinyPresentTable": "egypt_shiny_01",
				"StageModule": "RTID(FrontLawnStage@LevelModules)"
			}
		}, {
			"aliases": [ "LevelEscalationModule" ],
			"objclass": "LevelEscalationModuleProperties",
			"objdata": {
				"FlagCount": 3,
				"PlantfoodToSpawnCount": 4,
				"PointIncrementPerWave": 200,
				"StartingPoints": 500,
				"WaveManagerProps": "RTID(WaveManagerProps@CurrentLevel)",
				"WavesPerFlag": 3,
				"ZombiePool": [ "RTID(dark@ZombieTypes)", "RTID(dark_armor1@ZombieTypes)", "RTID(dark_armor2@ZombieTypes)", "RTID(pirate_captain@ZombieTypes)", "RTID(prospector@ZombieTypes)" ]
			}
		}, {
			"aliases": [ "ChallengeModule" ],
			"objclass": "StarChallengeModuleProperties",
			"objdata": {
				"Challenges": [ [ "RTID(BeatTheLevel@CurrentLevel)", "RTID(SimultaneousPlants@CurrentLevel)" ] ],
				"ChallengesAlwaysAvailable": true
			}
		}, {
			"aliases": [ "SimultaneousPlants" ],
			"objclass": "StarChallengeSimultaneousPlantsProps",
			"objdata": {
				"MaximumPlants": 13
			}
		}, {
			"aliases": [ "BeatTheLevel" ],
			"objclass": "StarChallengeBeatTheLevelProps",
			"objdata": {
				"Description": "[STARCHALLENGE_PROTECT_THE_PLANT]",
				"DescriptiveName": "[STARCHALLENGE_PROTECT_THE_PLANT_NAME]"
			}
		}, {
			"aliases": [ "ProtectThePlant" ],
			"objclass": "ProtectThePlantChallengeProperties",
			"objdata": {
				"MustProtectCount": 3,
				"Plants": [ {
						"GridX": 3,
						"GridY": 1,
						"PlantType": "jackolantern"
					}, {
						"GridX": 3,
						"GridY": 2,
						"PlantType": "jackolantern"
					}, {
						"GridX": 3,
						"GridY": 3,
						"PlantType": "jackolantern"
					} ]
			}
		}, {
			"aliases": [ "WaveManagerProps" ],
			"objclass": "WaveManagerProperties",
			"objdata": {
				"FlagWaveInterval": 3,
				"MaxNextWaveHealthPercentage": 0.9,
				"MinNextWaveHealthPercentage": 0.8,
				"WaveCount": 12,
				"WaveSpendingPointIncrement": 200,
				"WaveSpendingPoints": 1000,
				"Waves": [ [ "RTID(Wave1@CurrentLevel)" ], [ "RTID(Wave2@CurrentLevel)" ], [ "RTID(Wave3@CurrentLevel)" ], [ "RTID(Wave4@CurrentLevel)" ], [ "RTID(Wave5@CurrentLevel)" ], [ "RTID(Wave6@CurrentLevel)" ], [ "RTID(Wave7@CurrentLevel)" ], [ "RTID(Wave8@CurrentLevel)" ], [ "RTID(Wave9@CurrentLevel)" ], [ "RTID(Wave10@CurrentLevel)" ], [ "RTID(Wave11@CurrentLevel)" ], [ "RTID(Wave12@CurrentLevel)" ] ]
			}
		}, {
			"aliases": [ "Wave1" ],
			"objclass": "SpawnZombiesJitteredWaveActionProps",
			"objdata": {
				"Zombies": [ {
						"Type": "RTID(barrelroller@ZombieTypes)"
					}, {
						"Type": "RTID(barrelroller@ZombieTypes)"
					} ]
			}
		}, {
			"aliases": [ "Wave2" ],
			"objclass": "SpawnZombiesJitteredWaveActionProps",
			"objdata": {
				"Zombies": [ {
						"Type": "RTID(barrelroller@ZombieTypes)"
					}, {
						"Type": "RTID(barrelroller@ZombieTypes)"
					}, {
						"Type": "RTID(barrelroller@ZombieTypes)"
					} ]
			}
		}, {
			"aliases": [ "Wave3" ],
			"objclass": "SpawnZombiesJitteredWaveActionProps",
			"objdata": {
				"AdditionalPlantfood": 1,
				"Zombies": [ {
						"Row": "5",
						"Type": "RTID(barrelroller@ZombieTypes)"
					}, {
						"Type": "RTID(barrelroller@ZombieTypes)"
					}, {
						"Type": "RTID(chicken_farmer@ZombieTypes)"
					}, {
						"Type": "RTID(chicken_farmer@ZombieTypes)"
					}, {
						"Row": "3",
						"Type": "RTID(dark_king@ZombieTypes)"
					}, {
						"Row": "2",
						"Type": "RTID(dark_king@ZombieTypes)"
					}, {
						"Row": "4",
						"Type": "RTID(dark_king@ZombieTypes)"
					} ]
			}
		}, {
			"aliases": [ "Wave4" ],
			"objclass": "SpawnZombiesJitteredWaveActionProps",
			"objdata": {
				"Zombies": [ {
						"Type": "RTID(barrelroller@ZombieTypes)"
					}, {
						"Type": "RTID(barrelroller@ZombieTypes)"
					}, {
						"Type": "RTID(barrelroller@ZombieTypes)"
					} ]
			}
		}, {
			"aliases": [ "Wave5" ],
			"objclass": "SpawnZombiesJitteredWaveActionProps",
			"objdata": {
				"AdditionalPlantfood": 0,
				"Zombies": [ {
						"Type": "RTID(barrelroller@ZombieTypes)"
					}, {
						"Type": "RTID(barrelroller@ZombieTypes)"
					}, {
						"Type": "RTID(barrelroller@ZombieTypes)"
					}, {
						"Type": "RTID(barrelroller@ZombieTypes)"
					} ]
			}
		}, {
			"aliases": [ "Wave6" ],
			"objclass": "SpawnZombiesJitteredWaveActionProps",
			"objdata": {
				"Zombies": [ {
						"Row": "5",
						"Type": "RTID(dark_king@ZombieTypes)"
					}, {
						"Row": "4",
						"Type": "RTID(dark_king@ZombieTypes)"
					}, {
						"Row": "3",
						"Type": "RTID(dark_king@ZombieTypes)"
					}, {
						"Row": "2",
						"Type": "RTID(dark_king@ZombieTypes)"
					}, {
						"Row": "1",
						"Type": "RTID(dark_king@ZombieTypes)"
					}, {
						"Type": "RTID(barrelroller@ZombieTypes)"
					}, {
						"Type": "RTID(barrelroller@ZombieTypes)"
					}, {
						"Row": "3",
						"Type": "RTID(chicken_farmer@ZombieTypes)"
					}, {
						"Row": "5",
						"Type": "RTID(chicken_farmer@ZombieTypes)"
					}, {
						"Row": "1",
						"Type": "RTID(chicken_farmer@ZombieTypes)"
					} ]
			}
		}, {
			"aliases": [ "Wave7" ],
			"objclass": "SpawnZombiesJitteredWaveActionProps",
			"objdata": {
				"AdditionalPlantfood": 1,
				"Zombies": [ {
						"Type": "RTID(barrelroller@ZombieTypes)"
					}, {
						"Type": "RTID(barrelroller@ZombieTypes)"
					}, {
						"Type": "RTID(barrelroller@ZombieTypes)"
					}, {
						"Type": "RTID(barrelroller@ZombieTypes)"
					} ]
			}
		}, {
			"aliases": [ "Wave8" ],
			"objclass": "SpawnZombiesJitteredWaveActionProps",
			"objdata": {
				"Zombies": [ {
						"Type": "RTID(barrelroller@ZombieTypes)"
					}, {
						"Type": "RTID(barrelroller@ZombieTypes)"
					}, {
						"Type": "RTID(barrelroller@ZombieTypes)"
					}, {
						"Type": "RTID(barrelroller@ZombieTypes)"
					}, {
						"Type": "RTID(barrelroller@ZombieTypes)"
					} ]
			}
		}, {
			"aliases": [ "Wave9" ],
			"objclass": "SpawnZombiesJitteredWaveActionProps",
			"objdata": {
				"Zombies": [ {
						"Type": "RTID(barrelroller@ZombieTypes)"
					}, {
						"Type": "RTID(barrelroller@ZombieTypes)"
					}, {
						"Type": "RTID(lostcity_gargantuar@ZombieTypes)"
					}, {
						"Row": "1",
						"Type": "RTID(dark_king@ZombieTypes)"
					}, {
						"Row": "5",
						"Type": "RTID(dark_king@ZombieTypes)"
					}, {
						"Row": "4",
						"Type": "RTID(dark_king@ZombieTypes)"
					}, {
						"Row": "3",
						"Type": "RTID(dark_king@ZombieTypes)"
					}, {
						"Row": "2",
						"Type": "RTID(dark_king@ZombieTypes)"
					}, {
						"Row": "5",
						"Type": "RTID(chicken_farmer@ZombieTypes)"
					}, {
						"Row": "1",
						"Type": "RTID(chicken_farmer@ZombieTypes)"
					} ]
			}
		}, {
			"aliases": [ "Gravestones" ],
			"objclass": "GravestoneProperties",
			"objdata": {}
		}, {
			"aliases": [ "NewWaves" ],
			"objclass": "WaveManagerModuleProperties",
			"objdata": {}
		}, {
			"aliases": [ "ConveyorBelt" ],
			"objclass": "ConveyorSeedBankProperties",
			"objdata": {
				"DropDelayConditions": [ {
						"Delay": 3,
						"MaxPackets": 0
					}, {
						"Delay": 4,
						"MaxPackets": 2
					}, {
						"Delay": 8,
						"MaxPackets": 4
					}, {
						"Delay": 10,
						"MaxPackets": 8
					} ],
				"InitialPlantList": [ {
						"MaxCount": 1,
						"MaxCountCooldownSeconds": 20,
						"MaxWeightFactor": 0,
						"PlantType": "electricitea",
						"Weight": 15
					}, {
						"MaxCount": 5,
						"MaxCountCooldownSeconds": 15,
						"MaxWeightFactor": 0,
						"MinCount": 1,
						"MinWeightFactor": 3,
						"PlantType": "primalwallnut",
						"Weight": 5
					}, {
						"Level": 10,
						"MaxCount": 10,
						"MaxCountCooldownSeconds": 20,
						"MaxWeightFactor": 0,
						"MinCount": 4,
						"MinWeightFactor": 2,
						"PlantType": "pokra",
						"Weight": 25
					} ],
				"SpeedConditions": [ {
						"MaxPackets": 0,
						"Speed": 100
					} ]
			}
		}, {
			"aliases": [ "Wave10" ],
			"objclass": "SpawnZombiesJitteredWaveActionProps",
			"objdata": {
				"Zombies": [ {
						"Type": "RTID(chicken_farmer@ZombieTypes)"
					}, {
						"Type": "RTID(barrelroller@ZombieTypes)"
					}, {
						"Type": "RTID(barrelroller@ZombieTypes)"
					}, {
						"Type": "RTID(barrelroller@ZombieTypes)"
					}, {
						"Type": "RTID(barrelroller@ZombieTypes)"
					}, {
						"Type": "RTID(barrelroller@ZombieTypes)"
					} ]
			}
		}, {
			"aliases": [ "Wave11" ],
			"objclass": "SpawnZombiesJitteredWaveActionProps",
			"objdata": {
				"Zombies": [ {
						"Type": "RTID(barrelroller@ZombieTypes)"
					}, {
						"Type": "RTID(barrelroller@ZombieTypes)"
					}, {
						"Type": "RTID(barrelroller@ZombieTypes)"
					}, {
						"Type": "RTID(barrelroller@ZombieTypes)"
					}, {
						"Type": "RTID(barrelroller@ZombieTypes)"
					}, {
						"Type": "RTID(barrelroller@ZombieTypes)"
					} ]
			}
		}, {
			"aliases": [ "Wave12" ],
			"objclass": "SpawnZombiesJitteredWaveActionProps",
			"objdata": {
				"Zombies": [ {
						"Row": "4",
						"Type": "RTID(dark_king@ZombieTypes)"
					}, {
						"Row": "3",
						"Type": "RTID(dark_king@ZombieTypes)"
					}, {
						"Row": "2",
						"Type": "RTID(dark_king@ZombieTypes)"
					}, {
						"Row": "3",
						"Type": "RTID(pirate_gargantuar@ZombieTypes)"
					}, {
						"Row": "5",
						"Type": "RTID(chicken_farmer@ZombieTypes)"
					}, {
						"Row": "1",
						"Type": "RTID(chicken_farmer@ZombieTypes)"
					}, {
						"Type": "RTID(barrelroller@ZombieTypes)"
					}, {
						"Type": "RTID(barrelroller@ZombieTypes)"
					}, {
						"Type": "RTID(barrelroller@ZombieTypes)"
					}, {
						"Type": "RTID(barrelroller@ZombieTypes)"
					}, {
						"Type": "RTID(barrelroller@ZombieTypes)"
					}, {
						"Row": "3",
						"Type": "RTID(lostcity_gargantuar@ZombieTypes)"
					} ]
			}
		} ],
	"version": 1
}