{
	"#comment": "LOD template level. Delete unnecessary Modules (e.g. Challenge, Frozen)",
	"objects": [ {
			"objclass": "LevelDefinition",
			"objdata": {
				"Description": "[PREMIUM_PLANT_QUEST_LOD_DESC]",
				"ForceToWorldMap": true,
				"Loot": "RTID(DefaultLoot@LevelModules)",
				"Modules": [ "RTID(StandardIntro@LevelModules)", "RTID(LevelEscalationModule@CurrentLevel)", "RTID(FrontLawnMowers@LevelModules)", "RTID(NewWaves@CurrentLevel)", "RTID(DefaultZombieWinCondition@LevelModules)", "RTID(Gravestones@CurrentLevel)", "RTID(ConveyorBelt@CurrentLevel)", "RTID(ZombiesDeadWinCon@LevelModules)" ],
				"Name": "[PREMIUM_PLANT_QUEST_LOD_NAME]",
				"NormalPresentTable": "egypt_normal_01",
				"RepeatPlayForceToWorldMap": true,
				"ShinyPresentTable": "egypt_shiny_01",
				"StageModule": "RTID(FrontLawnStage@LevelModules)"
			}
		}, {
			"aliases": [ "LevelEscalationModule" ],
			"objclass": "LevelEscalationModuleProperties",
			"objdata": {
				"FlagCount": 2,
				"PlantfoodToSpawnCount": 3,
				"PointIncrementPerWave": 100,
				"StartingPoints": 100,
				"WaveManagerProps": "RTID(WaveManagerProps@CurrentLevel)",
				"WavesPerFlag": 5,
				"ZombiePool": [ "RTID(mummy_armor2@ZombieTypes)", "RTID(mummy@ZombieTypes)", "RTID(tutorial_armor2@ZombieTypes)", "RTID(tutorial_armor1@ZombieTypes)", "RTID(tutorial@ZombieTypes)", "RTID(mummy_armor1@ZombieTypes)" ]
			}
		}, {
			"aliases": [ "WaveManagerProps" ],
			"objclass": "WaveManagerProperties",
			"objdata": {
				"FlagWaveInterval": 5,
				"WaveCount": 10,
				"WaveSpendingPointIncrement": 150,
				"WaveSpendingPoints": 100,
				"Waves": [ [ "RTID(Wave1@CurrentLevel)" ], [ "RTID(Wave2@CurrentLevel)", "RTID(Wave2ModConveyor0@CurrentLevel)" ], [ "RTID(Wave3@CurrentLevel)", "RTID(Wave3ModConveyor0@CurrentLevel)" ], [ "RTID(Wave4@CurrentLevel)" ], [ "RTID(Wave5@CurrentLevel)", "RTID(Wave5ModConveyor0@CurrentLevel)", "RTID(Wave5PortalsEvent0@CurrentLevel)" ], [ "RTID(Wave6@CurrentLevel)" ], [ "RTID(Wave7@CurrentLevel)" ], [ "RTID(Wave8@CurrentLevel)" ], [ "RTID(Wave9@CurrentLevel)", "RTID(Wave9PortalsEvent0@CurrentLevel)" ], [ "RTID(Wave10@CurrentLevel)", "RTID(Wave10PortalsEvent0@CurrentLevel)" ] ]
			}
		}, {
			"aliases": [ "Wave1" ],
			"objclass": "SpawnZombiesJitteredWaveActionProps",
			"objdata": {
				"AdditionalPlantfood": 0,
				"Zombies": [ {
						"Type": "RTID(tutorial@ZombieTypes)"
					} ]
			}
		}, {
			"aliases": [ "Wave2" ],
			"objclass": "SpawnZombiesJitteredWaveActionProps",
			"objdata": {
				"Zombies": [ {
						"Type": "RTID(camel_onehump@ZombieTypes)"
					}, {
						"Type": "RTID(tutorial@ZombieTypes)"
					} ]
			}
		}, {
			"aliases": [ "Wave3" ],
			"objclass": "SpawnZombiesJitteredWaveActionProps",
			"objdata": {
				"AdditionalPlantfood": 1,
				"Zombies": [ {
						"Row": "3",
						"Type": "RTID(tutorial@ZombieTypes)"
					}, {
						"Row": "3",
						"Type": "RTID(camel_twohump@ZombieTypes)"
					}, {
						"Row": "1",
						"Type": "RTID(tutorial@ZombieTypes)"
					} ]
			}
		}, {
			"aliases": [ "Wave4" ],
			"objclass": "SpawnZombiesJitteredWaveActionProps",
			"objdata": {
				"Zombies": [ {
						"Row": "5",
						"Type": "RTID(tutorial@ZombieTypes)"
					}, {
						"Row": "4",
						"Type": "RTID(explorer@ZombieTypes)"
					}, {
						"Row": "3",
						"Type": "RTID(tutorial_armor1@ZombieTypes)"
					}, {
						"Row": "2",
						"Type": "RTID(tutorial@ZombieTypes)"
					} ]
			}
		}, {
			"aliases": [ "Wave5" ],
			"objclass": "SpawnZombiesJitteredWaveActionProps",
			"objdata": {
				"AdditionalPlantfood": 0,
				"Zombies": [ {
						"Row": "1",
						"Type": "RTID(tutorial_armor2@ZombieTypes)"
					}, {
						"Row": "2",
						"Type": "RTID(explorer@ZombieTypes)"
					}, {
						"Row": "2",
						"Type": "RTID(tutorial_armor1@ZombieTypes)"
					}, {
						"Row": "5",
						"Type": "RTID(tutorial_armor2@ZombieTypes)"
					}, {
						"Row": "4",
						"Type": "RTID(explorer@ZombieTypes)"
					}, {
						"Row": "4",
						"Type": "RTID(tutorial_armor1@ZombieTypes)"
					}, {
						"Row": "3",
						"Type": "RTID(tutorial_armor1@ZombieTypes)"
					} ]
			}
		}, {
			"aliases": [ "Wave6" ],
			"objclass": "SpawnZombiesJitteredWaveActionProps",
			"objdata": {
				"AdditionalPlantfood": 1,
				"Zombies": [ {
						"Row": "5",
						"Type": "RTID(camel_onehump@ZombieTypes)"
					}, {
						"Row": "4",
						"Type": "RTID(future_jetpack@ZombieTypes)"
					}, {
						"Row": "3",
						"Type": "RTID(future_jetpack@ZombieTypes)"
					}, {
						"Row": "2",
						"Type": "RTID(future_jetpack@ZombieTypes)"
					}, {
						"Row": "1",
						"Type": "RTID(camel_onehump@ZombieTypes)"
					} ]
			}
		}, {
			"aliases": [ "Wave7" ],
			"objclass": "SpawnZombiesJitteredWaveActionProps",
			"objdata": {
				"Zombies": [ {
						"Row": "1",
						"Type": "RTID(explorer@ZombieTypes)"
					}, {
						"Row": "2",
						"Type": "RTID(egypt_gargantuar@ZombieTypes)"
					}, {
						"Row": "2",
						"Type": "RTID(tutorial@ZombieTypes)"
					}, {
						"Row": "4",
						"Type": "RTID(egypt_gargantuar@ZombieTypes)"
					}, {
						"Row": "4",
						"Type": "RTID(tutorial_armor2@ZombieTypes)"
					}, {
						"Row": "5",
						"Type": "RTID(explorer@ZombieTypes)"
					} ]
			}
		}, {
			"aliases": [ "Wave8" ],
			"objclass": "SpawnZombiesJitteredWaveActionProps",
			"objdata": {
				"AdditionalPlantfood": 0,
				"Zombies": [ {
						"Row": "2",
						"Type": "RTID(tutorial_armor2@ZombieTypes)"
					}, {
						"Row": "3",
						"Type": "RTID(tutorial_armor2@ZombieTypes)"
					}, {
						"Row": "4",
						"Type": "RTID(camel_twohump@ZombieTypes)"
					} ]
			}
		}, {
			"aliases": [ "Wave9" ],
			"objclass": "SpawnZombiesJitteredWaveActionProps",
			"objdata": {
				"AdditionalPlantfood": 1,
				"Zombies": [ {
						"Row": "5",
						"Type": "RTID(future_jetpack@ZombieTypes)"
					}, {
						"Row": "4",
						"Type": "RTID(tutorial_armor1@ZombieTypes)"
					}, {
						"Row": "3",
						"Type": "RTID(future_jetpack@ZombieTypes)"
					} ]
			}
		}, {
			"aliases": [ "Wave10" ],
			"objclass": "SpawnZombiesJitteredWaveActionProps",
			"objdata": {
				"AdditionalPlantfood": 0,
				"Zombies": [ {
						"Row": "3",
						"Type": "RTID(egypt_gargantuar@ZombieTypes)"
					}, {
						"Row": "2",
						"Type": "RTID(future_jetpack@ZombieTypes)"
					}, {
						"Row": "5",
						"Type": "RTID(explorer@ZombieTypes)"
					}, {
						"Row": "4",
						"Type": "RTID(future_jetpack@ZombieTypes)"
					}, {
						"Row": "3",
						"Type": "RTID(tutorial_armor1@ZombieTypes)"
					}, {
						"Row": "2",
						"Type": "RTID(tutorial_armor2@ZombieTypes)"
					}, {
						"Row": "1",
						"Type": "RTID(explorer@ZombieTypes)"
					}, {
						"Row": "5",
						"Type": "RTID(future_jetpack@ZombieTypes)"
					}, {
						"Row": "5",
						"Type": "RTID(future_jetpack@ZombieTypes)"
					}, {
						"Row": "1",
						"Type": "RTID(future_jetpack@ZombieTypes)"
					}, {
						"Row": "1",
						"Type": "RTID(future_jetpack@ZombieTypes)"
					}, {
						"Row": "1",
						"Type": "RTID(future_jetpack@ZombieTypes)"
					} ]
			}
		}, {
			"aliases": [ "Gravestones" ],
			"objclass": "GravestoneProperties",
			"objdata": {}
		}, {
			"aliases": [ "NewWaves" ],
			"objclass": "WaveManagerModuleProperties",
			"objdata": {
				"DynamicZombies": [ {}, {}, {}, {}, {}, {}, {} ]
			}
		}, {
			"aliases": [ "ConveyorBelt" ],
			"objclass": "ConveyorSeedBankProperties",
			"objdata": {
				"DropDelayConditions": [ {
						"Delay": 3,
						"MaxPackets": 0
					}, {
						"Delay": 6,
						"MaxPackets": 2
					}, {
						"Delay": 9,
						"MaxPackets": 4
					}, {
						"Delay": 12,
						"MaxPackets": 8
					} ],
				"InitialPlantList": [ {
						"PlantType": "potatomine",
						"Weight": 10
					}, {
						"PlantType": "primalpotatomine",
						"Weight": 10
					} ],
				"SpeedConditions": [ {
						"MaxPackets": 0,
						"Speed": 100
					} ]
			}
		}, {
			"aliases": [ "Wave5PortalsEvent0" ],
			"objclass": "SpawnModernPortalsWaveActionProps",
			"objdata": {
				"PortalColumn": 5,
				"PortalRow": 0,
				"PortalType": "beach",
				"SpawnEffectAnimID": "",
				"SpawnSoundID": ""
			}
		}, {
			"aliases": [ "Wave9PortalsEvent0" ],
			"objclass": "SpawnModernPortalsWaveActionProps",
			"objdata": {
				"PortalColumn": 6,
				"PortalRow": 3,
				"PortalType": "beach",
				"SpawnEffectAnimID": "",
				"SpawnSoundID": ""
			}
		}, {
			"aliases": [ "Wave10PortalsEvent0" ],
			"objclass": "SpawnModernPortalsWaveActionProps",
			"objdata": {
				"PortalColumn": "5",
				"PortalRow": "2",
				"PortalType": "beach",
				"SpawnEffectAnimID": "",
				"SpawnSoundID": ""
			}
		}, {
			"aliases": [ "Wave2ModConveyor0" ],
			"objclass": "ModifyConveyorWaveActionProps",
			"objdata": {
				"Add": [ {
						"Type": "RTID(chilibean@PlantTypes)",
						"Weight": 10
					} ],
				"Remove": []
			}
		}, {
			"aliases": [ "Wave5ModConveyor0" ],
			"objclass": "ModifyConveyorWaveActionProps",
			"objdata": {
				"Add": [ {
						"Type": "RTID(bonkchoy@PlantTypes)",
						"Weight": 10
					} ],
				"Remove": []
			}
		}, {
			"aliases": [ "Wave3ModConveyor0" ],
			"objclass": "ModifyConveyorWaveActionProps",
			"objdata": {
				"Add": [ {
						"Type": "RTID(bloominghearts@PlantTypes)",
						"Weight": 15
					} ],
				"Remove": []
			}
		} ],
	"version": 1
}