{
	"#comment": "LOD 155 - Toadstool",
	"objects": [ {
			"objclass": "LevelDefinition",
			"objdata": {
				"Description": "[PREMIUM_PLANT_QUEST_LOD_DESC]",
				"DraperPromo": "toadstool",
				"ForceToWorldMap": true,
				"Loot": "RTID(DefaultLoot@LevelModules)",
				"Modules": [ "RTID(StandardIntro@LevelModules)", "RTID(LevelEscalationModule@CurrentLevel)", "RTID(FrontLawnMowers@LevelModules)", "RTID(NewWaves@CurrentLevel)", "RTID(SeedBank@CurrentLevel)", "RTID(DefaultZombieWinCondition@LevelModules)", "RTID(ZombiesDeadWinCon@LevelModules)", "RTID(FrozenPlantPlacement@CurrentLevel)" ],
				"Name": "[PREMIUM_PLANT_QUEST_LOD_NAME]",
				"NormalPresentTable": "egypt_normal_01",
				"RepeatPlayForceToWorldMap": true,
				"ShinyPresentTable": "egypt_shiny_01",
				"StageModule": "RTID(FrontLawnStage@LevelModules)"
			}
		}, {
			"aliases": [ "FrozenPlantPlacement" ],
			"objclass": "InitialPlantProperties",
			"objdata": {
				"InitialPlantPlacements": [ {
						"GridX": 2,
						"GridY": 0,
						"TypeName": "solarsage"
					}, {
						"GridX": 2,
						"GridY": 1,
						"TypeName": "solarsage"
					}, {
						"GridX": 2,
						"GridY": 2,
						"TypeName": "solarsage"
					}, {
						"GridX": 2,
						"GridY": 3,
						"TypeName": "solarsage"
					}, {
						"GridX": 2,
						"GridY": 4,
						"TypeName": "solarsage"
					} ]
			}
		}, {
			"aliases": [ "SeedBank" ],
			"objclass": "SeedBankProperties",
			"objdata": {
				"PresetPlantList": [ {
						"Level": -1,
						"PlantType": "solarsage"
					}, {
						"Level": -1,
						"PlantType": "peashooter"
					}, {
						"Level": -1,
						"PlantType": "powerplant"
					}, {
						"Level": -1,
						"PlantType": "tallnut"
					}, {
						"Level": -1,
						"PlantType": "spikeweed"
					} ],
				"SelectionMethod": "preset"
			}
		}, {
			"aliases": [ "LevelEscalationModule" ],
			"objclass": "LevelEscalationModuleProperties",
			"objdata": {
				"FlagCount": 2,
				"PlantfoodToSpawnCount": 0,
				"PointIncrementPerWave": 0,
				"StartingPoints": 0,
				"WaveManagerProps": "RTID(WaveManagerProps@CurrentLevel)",
				"WavesPerFlag": 5,
				"ZombiePool": []
			}
		}, {
			"aliases": [ "WaveManagerProps" ],
			"objclass": "WaveManagerProperties",
			"objdata": {
				"FlagWaveInterval": 6,
				"MaxNextWaveHealthPercentage": 0.9,
				"MinNextWaveHealthPercentage": 0.8,
				"WaveCount": 12,
				"Waves": [ [ "RTID(Wave1@CurrentLevel)" ], [ "RTID(Wave2@CurrentLevel)" ], [ "RTID(Wave3@CurrentLevel)" ], [ "RTID(Wave4@CurrentLevel)" ], [ "RTID(Wave5@CurrentLevel)" ], [ "RTID(Wave6@CurrentLevel)" ], [ "RTID(Wave7@CurrentLevel)" ], [ "RTID(Wave8@CurrentLevel)" ], [ "RTID(Wave9@CurrentLevel)" ], [ "RTID(Wave10@CurrentLevel)" ], [ "RTID(Wave11@CurrentLevel)" ], [ "RTID(Wave12@CurrentLevel)" ] ]
			}
		}, {
			"aliases": [ "Wave1" ],
			"objclass": "SpawnZombiesJitteredWaveActionProps",
			"objdata": {
				"Zombies": [ {
						"Row": "1",
						"Type": "RTID(seagull@ZombieTypes)"
					}, {
						"Row": "3",
						"Type": "RTID(seagull@ZombieTypes)"
					}, {
						"Row": "5",
						"Type": "RTID(seagull@ZombieTypes)"
					} ]
			}
		}, {
			"aliases": [ "Wave2" ],
			"objclass": "SpawnZombiesJitteredWaveActionProps",
			"objdata": {
				"AdditionalPlantfood": 1,
				"Zombies": [ {
						"Row": "4",
						"Type": "RTID(seagull@ZombieTypes)"
					}, {
						"Row": "2",
						"Type": "RTID(seagull@ZombieTypes)"
					} ]
			}
		}, {
			"aliases": [ "Wave3" ],
			"objclass": "SpawnZombiesJitteredWaveActionProps",
			"objdata": {
				"AdditionalPlantfood": 0,
				"Zombies": [ {
						"Row": "5",
						"Type": "RTID(barrelroller@ZombieTypes)"
					}, {
						"Row": "2",
						"Type": "RTID(pirate@ZombieTypes)"
					}, {
						"Row": "2",
						"Type": "RTID(pirate@ZombieTypes)"
					} ]
			}
		}, {
			"aliases": [ "Wave4" ],
			"objclass": "SpawnZombiesJitteredWaveActionProps",
			"objdata": {
				"AdditionalPlantfood": 1,
				"Zombies": [ {
						"Row": "5",
						"Type": "RTID(pirate@ZombieTypes)"
					}, {
						"Row": "4",
						"Type": "RTID(pirate@ZombieTypes)"
					}, {
						"Row": "2",
						"Type": "RTID(seagull@ZombieTypes)"
					}, {
						"Row": "3",
						"Type": "RTID(zcorp_consultant@ZombieTypes)"
					}, {
						"Row": "2",
						"Type": "RTID(seagull@ZombieTypes)"
					}, {
						"Row": "1",
						"Type": "RTID(pirate@ZombieTypes)"
					} ]
			}
		}, {
			"aliases": [ "Wave5" ],
			"objclass": "SpawnZombiesJitteredWaveActionProps",
			"objdata": {
				"AdditionalPlantfood": 1,
				"Zombies": [ {
						"Row": "1",
						"Type": "RTID(swashbuckler@ZombieTypes)"
					}, {
						"Row": "2",
						"Type": "RTID(swashbuckler@ZombieTypes)"
					}, {
						"Row": "3",
						"Type": "RTID(swashbuckler@ZombieTypes)"
					}, {
						"Row": "4",
						"Type": "RTID(swashbuckler@ZombieTypes)"
					}, {
						"Row": "4",
						"Type": "RTID(pirate@ZombieTypes)"
					}, {
						"Row": "3",
						"Type": "RTID(pirate_armor4@ZombieTypes)"
					}, {
						"Row": "1",
						"Type": "RTID(pirate@ZombieTypes)"
					} ]
			}
		}, {
			"aliases": [ "Wave6" ],
			"objclass": "SpawnZombiesJitteredWaveActionProps",
			"objdata": {
				"Zombies": [ {
						"Row": "5",
						"Type": "RTID(pirate@ZombieTypes)"
					}, {
						"Row": "3",
						"Type": "RTID(pirate_armor2@ZombieTypes)"
					}, {
						"Row": "2",
						"Type": "RTID(barrelroller@ZombieTypes)"
					} ]
			}
		}, {
			"aliases": [ "Wave7" ],
			"objclass": "SpawnZombiesJitteredWaveActionProps",
			"objdata": {
				"AdditionalPlantfood": 1,
				"Zombies": [ {
						"Row": "5",
						"Type": "RTID(pirate@ZombieTypes)"
					}, {
						"Row": "4",
						"Type": "RTID(pirate_armor4@ZombieTypes)"
					}, {
						"Row": "2",
						"Type": "RTID(pirate@ZombieTypes)"
					}, {
						"Row": "1",
						"Type": "RTID(pirate@ZombieTypes)"
					} ]
			}
		}, {
			"aliases": [ "Wave8" ],
			"objclass": "SpawnZombiesJitteredWaveActionProps",
			"objdata": {
				"AdditionalPlantfood": 1,
				"Zombies": [ {
						"Type": "RTID(pirate@ZombieTypes)"
					}, {
						"Type": "RTID(pirate@ZombieTypes)"
					}, {
						"Type": "RTID(pirate@ZombieTypes)"
					}, {
						"Type": "RTID(pirate@ZombieTypes)"
					}, {
						"Type": "RTID(pirate@ZombieTypes)"
					} ]
			}
		}, {
			"aliases": [ "Wave9" ],
			"objclass": "SpawnZombiesJitteredWaveActionProps",
			"objdata": {
				"AdditionalPlantfood": 1,
				"Zombies": [ {
						"Row": "5",
						"Type": "RTID(pirate@ZombieTypes)"
					}, {
						"Row": "3",
						"Type": "RTID(pirate_armor2@ZombieTypes)"
					}, {
						"Row": "3",
						"Type": "RTID(pirate@ZombieTypes)"
					}, {
						"Row": "3",
						"Type": "RTID(pirate_armor2@ZombieTypes)"
					}, {
						"Row": "2",
						"Type": "RTID(pirate@ZombieTypes)"
					}, {
						"Row": "1",
						"Type": "RTID(pirate_armor4@ZombieTypes)"
					} ]
			}
		}, {
			"aliases": [ "NewWaves" ],
			"objclass": "WaveManagerModuleProperties",
			"objdata": {}
		}, {
			"aliases": [ "Wave10" ],
			"objclass": "SpawnZombiesJitteredWaveActionProps",
			"objdata": {
				"Zombies": [ {
						"Row": "2",
						"Type": "RTID(zcorp_consultant@ZombieTypes)"
					}, {
						"Row": "4",
						"Type": "RTID(zcorp_consultant@ZombieTypes)"
					}, {
						"Row": "5",
						"Type": "RTID(pirate_armor1@ZombieTypes)"
					}, {
						"Row": "3",
						"Type": "RTID(barrelroller@ZombieTypes)"
					}, {
						"Row": "1",
						"Type": "RTID(pirate_armor2@ZombieTypes)"
					} ]
			}
		}, {
			"aliases": [ "Wave11" ],
			"objclass": "SpawnZombiesJitteredWaveActionProps",
			"objdata": {
				"AdditionalPlantfood": 1,
				"Zombies": [ {
						"Row": "1",
						"Type": "RTID(swashbuckler@ZombieTypes)"
					}, {
						"Row": "2",
						"Type": "RTID(swashbuckler@ZombieTypes)"
					}, {
						"Row": "3",
						"Type": "RTID(swashbuckler@ZombieTypes)"
					}, {
						"Row": "4",
						"Type": "RTID(swashbuckler@ZombieTypes)"
					}, {
						"Row": "5",
						"Type": "RTID(swashbuckler@ZombieTypes)"
					}, {
						"Row": "4",
						"Type": "RTID(pirate_armor4@ZombieTypes)"
					}, {
						"Row": "2",
						"Type": "RTID(barrelroller@ZombieTypes)"
					} ]
			}
		}, {
			"aliases": [ "Wave12" ],
			"objclass": "SpawnZombiesJitteredWaveActionProps",
			"objdata": {
				"AdditionalPlantfood": 1,
				"Zombies": [ {
						"Row": "5",
						"Type": "RTID(barrelroller@ZombieTypes)"
					}, {
						"Row": "4",
						"Type": "RTID(cannon@ZombieTypes)"
					}, {
						"Row": "3",
						"Type": "RTID(barrelroller@ZombieTypes)"
					}, {
						"Row": "2",
						"Type": "RTID(cannon@ZombieTypes)"
					}, {
						"Row": "1",
						"Type": "RTID(barrelroller@ZombieTypes)"
					} ]
			}
		} ],
	"version": 1
}