{
	"#comment": "LOD template level. Delete unnecessary Modules (e.g. Challenge, Frozen)",
	"objects": [ {
			"objclass": "LevelDefinition",
			"objdata": {
				"Description": "[PREMIUM_PLANT_QUEST_LOD_DESC]",
				"FirstIntroNarrative": "STRAWBURST_LOD",
				"Loot": "RTID(DefaultLoot@LevelModules)",
				"Modules": [ "RTID(StandardIntro@LevelModules)", "RTID(LevelEscalationModule@CurrentLevel)", "RTID(FrontLawnMowers@LevelModules)", "RTID(NewWaves@CurrentLevel)", "RTID(DefaultZombieWinCondition@LevelModules)", "RTID(Gravestones@CurrentLevel)", "RTID(ConveyorBelt@CurrentLevel)", "RTID(ZombiesDeadWinCon@LevelModules)", "RTID(FrozenPlantPlacement@CurrentLevel)", "RTID(FrozenZombiePlacement@CurrentLevel)" ],
				"Name": "[PREMIUM_PLANT_QUEST_LOD_NAME]",
				"NormalPresentTable": "egypt_normal_01",
				"ShinyPresentTable": "egypt_shiny_01",
				"ForceToWorldMap": true,
				"RepeatPlayForceToWorldMap": true,
				"StageModule": "RTID(FrontLawnStage@LevelModules)"
			}
		}, {
			"aliases": [ "FrozenPlantPlacement" ],
			"objclass": "InitialPlantProperties",
			"objdata": {
				"InitialPlantPlacements": [ {
						"GridX": 1,
						"GridY": 1,
						"TypeName": "strawburst"
					} ]
			}
		}, {
			"aliases": [ "FrozenZombiePlacement" ],
			"objclass": "InitialZombieProperties",
			"objdata": {}
		}, {
			"aliases": [ "LevelEscalationModule" ],
			"objclass": "LevelEscalationModuleProperties",
			"objdata": {
				"FlagCount": 3,
				"PlantfoodToSpawnCount": 3,
				"PointIncrementPerWave": 100,
				"StartingPoints": 100,
				"WaveManagerProps": "RTID(WaveManagerProps@CurrentLevel)",
				"WavesPerFlag": 4,
				"ZombiePool": [ "RTID(mummy@ZombieTypes)", "RTID(mummy_armor2@ZombieTypes)", "RTID(mummy_armor1@ZombieTypes)" ]
			}
		}, {
			"aliases": [ "WaveManagerProps" ],
			"objclass": "WaveManagerProperties",
			"objdata": {
				"MaxNextWaveHealthPercentage": 0.9,
				"MinNextWaveHealthPercentage": 0.8,
				"WaveCount": 12,
				"Waves": [ [ "RTID(Wave1@CurrentLevel)", "RTID(Wave1ModConveyor0@CurrentLevel)" ], [ "RTID(Wave2@CurrentLevel)" ], [ "RTID(Wave3@CurrentLevel)", "RTID(Wave3ModConveyor0@CurrentLevel)" ], [ "RTID(Wave4@CurrentLevel)", "RTID(Wave4ModConveyor0@CurrentLevel)" ], [ "RTID(Wave5@CurrentLevel)" ], [ "RTID(Wave6@CurrentLevel)", "RTID(Wave6ParachuteRainEvent0@CurrentLevel)", "RTID(Wave6ModConveyor0@CurrentLevel)" ], [ "RTID(Wave7@CurrentLevel)" ], [ "RTID(Wave8@CurrentLevel)" ], [ "RTID(Wave9@CurrentLevel)" ], [ "RTID(Wave10@CurrentLevel)", "RTID(Wave10SpiderRainEvent0@CurrentLevel)" ], [ "RTID(Wave11@CurrentLevel)" ], [ "RTID(Wave12@CurrentLevel)", "RTID(Wave12ModConveyor0@CurrentLevel)" ] ]
			}
		}, {
			"aliases": [ "Wave1" ],
			"objclass": "SpawnZombiesJitteredWaveActionProps",
			"objdata": {
				"Zombies": [ {
						"Row": "2",
						"Type": "RTID(mummy@ZombieTypes)"
					}, {
						"Row": "1",
						"Type": "RTID(mummy@ZombieTypes)"
					} ]
			}
		}, {
			"aliases": [ "Wave2" ],
			"objclass": "SpawnZombiesJitteredWaveActionProps",
			"objdata": {
				"Zombies": [ {
						"Row": "5",
						"Type": "RTID(mummy_armor1@ZombieTypes)"
					}, {
						"Row": "4",
						"Type": "RTID(mummy_armor1@ZombieTypes)"
					} ]
			}
		}, {
			"aliases": [ "Wave3" ],
			"objclass": "SpawnZombiesJitteredWaveActionProps",
			"objdata": {
				"Zombies": [ {
						"Row": "4",
						"Type": "RTID(mummy_armor1@ZombieTypes)"
					}, {
						"Row": "3",
						"Type": "RTID(mummy_armor1@ZombieTypes)"
					}, {
						"Row": "2",
						"Type": "RTID(lostcity_excavator@ZombieTypes)"
					} ]
			}
		}, {
			"aliases": [ "Wave4" ],
			"objclass": "SpawnZombiesJitteredWaveActionProps",
			"objdata": {
				"Zombies": [ {
						"Row": "1",
						"Type": "RTID(dark_juggler@ZombieTypes)"
					}, {
						"Row": "1",
						"Type": "RTID(dark_juggler@ZombieTypes)"
					}, {
						"Row": "2",
						"Type": "RTID(dark_juggler@ZombieTypes)"
					}, {
						"Row": "2",
						"Type": "RTID(camel_manyhump@ZombieTypes)"
					}, {
						"Row": "3",
						"Type": "RTID(dark_juggler@ZombieTypes)"
					}, {
						"Row": "3",
						"Type": "RTID(camel_manyhump@ZombieTypes)"
					}, {
						"Row": "4",
						"Type": "RTID(dark_juggler@ZombieTypes)"
					}, {
						"Row": "4",
						"Type": "RTID(camel_manyhump@ZombieTypes)"
					}, {
						"Row": "5",
						"Type": "RTID(dark_juggler@ZombieTypes)"
					}, {
						"Row": "5",
						"Type": "RTID(dark_juggler@ZombieTypes)"
					} ]
			}
		}, {
			"aliases": [ "Wave5" ],
			"objclass": "SpawnZombiesJitteredWaveActionProps",
			"objdata": {
				"Zombies": [ {
						"Row": "5",
						"Type": "RTID(pharaoh@ZombieTypes)"
					}, {
						"Row": "1",
						"Type": "RTID(pharaoh@ZombieTypes)"
					} ]
			}
		}, {
			"aliases": [ "Wave6" ],
			"objclass": "SpawnZombiesJitteredWaveActionProps",
			"objdata": {}
		}, {
			"aliases": [ "Wave7" ],
			"objclass": "SpawnZombiesJitteredWaveActionProps",
			"objdata": {
				"Zombies": [ {
						"Row": "5",
						"Type": "RTID(lostcity_excavator@ZombieTypes)"
					}, {
						"Row": "4",
						"Type": "RTID(football_mech@ZombieTypes)"
					}, {
						"Row": "3",
						"Type": "RTID(pharaoh@ZombieTypes)"
					}, {
						"Row": "2",
						"Type": "RTID(football_mech@ZombieTypes)"
					}, {
						"Row": "1",
						"Type": "RTID(lostcity_excavator@ZombieTypes)"
					} ]
			}
		}, {
			"aliases": [ "Wave8" ],
			"objclass": "SpawnZombiesJitteredWaveActionProps",
			"objdata": {
				"Zombies": [ {
						"Row": "4",
						"Type": "RTID(lostcity_excavator@ZombieTypes)"
					}, {
						"Row": "2",
						"Type": "RTID(lostcity_excavator@ZombieTypes)"
					} ]
			}
		}, {
			"aliases": [ "Wave9" ],
			"objclass": "SpawnZombiesJitteredWaveActionProps",
			"objdata": {
				"Zombies": [ {
						"Row": "5",
						"Type": "RTID(pharaoh@ZombieTypes)"
					}, {
						"Row": "4",
						"Type": "RTID(pharaoh@ZombieTypes)"
					}, {
						"Row": "2",
						"Type": "RTID(pharaoh@ZombieTypes)"
					}, {
						"Row": "1",
						"Type": "RTID(pharaoh@ZombieTypes)"
					} ]
			}
		}, {
			"aliases": [ "Gravestones" ],
			"objclass": "GravestoneProperties",
			"objdata": {}
		}, {
			"aliases": [ "NewWaves" ],
			"objclass": "WaveManagerModuleProperties",
			"objdata": {}
		}, {
			"aliases": [ "ConveyorBelt" ],
			"objclass": "ConveyorSeedBankProperties",
			"objdata": {
				"DropDelayConditions": [ {
						"Delay": 3,
						"MaxPackets": 0
					}, {
						"Delay": 6,
						"MaxPackets": 2
					}, {
						"Delay": 9,
						"MaxPackets": 4
					}, {
						"Delay": 12,
						"MaxPackets": 8
					} ],
				"InitialPlantList": [ {
						"MaxCount": 15,
						"MaxWeightFactor": 0.5,
						"MinCount": 5,
						"MinWeightFactor": 3,
						"PlantType": "strawburst",
						"Weight": 100
					} ],
				"SpeedConditions": [ {
						"MaxPackets": 0,
						"Speed": 100
					} ]
			}
		}, {
			"aliases": [ "Wave10" ],
			"objclass": "SpawnZombiesJitteredWaveActionProps",
			"objdata": {}
		}, {
			"aliases": [ "Wave11" ],
			"objclass": "SpawnZombiesJitteredWaveActionProps",
			"objdata": {
				"Zombies": [ {
						"Row": "3",
						"Type": "RTID(disco_mech@ZombieTypes)"
					} ]
			}
		}, {
			"aliases": [ "Wave12" ],
			"objclass": "SpawnZombiesJitteredWaveActionProps",
			"objdata": {
				"Zombies": [ {
						"Row": "5",
						"Type": "RTID(pharaoh@ZombieTypes)"
					}, {
						"Row": "4",
						"Type": "RTID(football_mech@ZombieTypes)"
					}, {
						"Row": "2",
						"Type": "RTID(football_mech@ZombieTypes)"
					}, {
						"Row": "1",
						"Type": "RTID(pharaoh@ZombieTypes)"
					} ]
			}
		}, {
			"aliases": [ "Wave6ModConveyor0" ],
			"objclass": "ModifyConveyorWaveActionProps",
			"objdata": {
				"Add": [ {
						"MaxCount": 1,
						"MaxWeightFactor": 0.1,
						"MinCount": 1,
						"MinWeightFactor": 2,
						"Type": "RTID(empea@PlantTypes)",
						"Weight": 200
					} ],
				"Remove": []
			}
		}, {
			"aliases": [ "Wave10SpiderRainEvent0" ],
			"objclass": "SpiderRainZombieSpawnerProps",
			"objdata": {
				"ColumnEnd": "8",
				"ColumnStart": 5,
				"GroupSize": "2",
				"SpiderCount": "4",
				"SpiderZombieName": "future_imp",
				"TimeBeforeFullSpawn": "1",
				"TimeBetweenGroups": "0.2",
				"WaveStartMessage": "[WARNING_SPIDERRAIN]",
				"ZombieFallTime": "1.5"
			}
		}, {
			"aliases": [ "Wave6ParachuteRainEvent0" ],
			"objclass": "ParachuteRainZombieSpawnerProps",
			"objdata": {
				"ColumnEnd": "8",
				"ColumnStart": "4",
				"GroupSize": "2",
				"SpiderCount": "4",
				"SpiderZombieName": "lostcity_lostpilot",
				"TimeBeforeFullSpawn": "1",
				"TimeBetweenGroups": "0.2",
				"WaveStartMessage": "[WARNING_PARACHUTERAIN]",
				"ZombieFallTime": "1.5"
			}
		}, {
			"aliases": [ "Wave1ModConveyor0" ],
			"objclass": "ModifyConveyorWaveActionProps",
			"objdata": {
				"Add": [ {
						"MaxCount": 5,
						"MaxWeightFactor": 0.1,
						"MinWeightFactor": 0.1,
						"Type": "RTID(wallnut@PlantTypes)",
						"Weight": 100
					} ],
				"Remove": []
			}
		}, {
			"aliases": [ "Wave3ModConveyor0" ],
			"objclass": "ModifyConveyorWaveActionProps",
			"objdata": {
				"Add": [ {
						"MaxCount": 1,
						"MaxWeightFactor": 0.5,
						"MinWeightFactor": 0.1,
						"Type": "RTID(stallia@PlantTypes)",
						"Weight": 50
					} ],
				"Remove": []
			}
		}, {
			"aliases": [ "Wave4ModConveyor0" ],
			"objclass": "ModifyConveyorWaveActionProps",
			"objdata": {
				"Add": [ {
						"MaxCount": 1,
						"MaxWeightFactor": 0.5,
						"MinWeightFactor": 0.1,
						"Type": "RTID(iceburg@PlantTypes)",
						"Weight": 50
					} ],
				"Remove": []
			}
		}, {
			"aliases": [ "Wave12ModConveyor0" ],
			"objclass": "ModifyConveyorWaveActionProps",
			"objdata": {
				"Add": [],
				"Remove": [ {
						"Type": "RTID(stallia@PlantTypes)"
					}, {
						"Type": "RTID(wallnut@PlantTypes)"
					} ]
			}
		} ],
	"version": 1
}