{
	"#comment": "LOD Lava Guava 6 (Beach)",
	"objects": [ {
			"objclass": "LevelDefinition",
			"objdata": {
				"Description": "[PREMIUM_PLANT_QUEST_LOD_DESC]",
				"DraperPromo": "lavaguava",
				"Loot": "RTID(DefaultLoot@LevelModules)",
				"Modules": [ "RTID(StandardIntro@LevelModules)", "RTID(LevelEscalationModule@CurrentLevel)", "RTID(FrontLawnMowers@LevelModules)", "RTID(NewWaves@CurrentLevel)", "RTID(DefaultZombieWinCondition@LevelModules)", "RTID(Gravestones@CurrentLevel)", "RTID(ConveyorBelt@CurrentLevel)", "RTID(ZombiesDeadWinCon@LevelModules)", "RTID(FrozenPlantPlacement@CurrentLevel)" ],
				"Name": "[PREMIUM_PLANT_QUEST_LOD_NAME]",
				"NormalPresentTable": "egypt_normal_01",
				"ShinyPresentTable": "egypt_shiny_01",
				"ForceToWorldMap": true,
				"RepeatPlayForceToWorldMap": true,
				"StageModule": "RTID(FrontLawnStage@LevelModules)"
			}
		}, {
			"aliases": [ "FrozenPlantPlacement" ],
			"objclass": "InitialPlantProperties",
			"objdata": {
				"InitialPlantPlacements": [ {
						"GridX": 6,
						"GridY": 2,
						"TypeName": "lavaguava"
					} ]
			}
		}, {
			"aliases": [ "LevelEscalationModule" ],
			"objclass": "LevelEscalationModuleProperties",
			"objdata": {
				"FlagCount": 2,
				"PlantfoodToSpawnCount": 4,
				"PointIncrementPerWave": 75,
				"StartingPoints": 0,
				"WaveManagerProps": "RTID(WaveManagerProps@CurrentLevel)",
				"WavesPerFlag": 5,
				"ZombiePool": [ "RTID(beach_fem@ZombieTypes)", "RTID(beach@ZombieTypes)", "RTID(beach_armor1@ZombieTypes)", "RTID(beach_fem_armor1@ZombieTypes)" ]
			}
		}, {
			"aliases": [ "WaveManagerProps" ],
			"objclass": "WaveManagerProperties",
			"objdata": {
				"MaxNextWaveHealthPercentage": 0.9,
				"MinNextWaveHealthPercentage": 0.8,
				"Waves": [ [ "RTID(Wave1@CurrentLevel)", "RTID(Wave1ModConveyor0@CurrentLevel)" ], [ "RTID(Wave2@CurrentLevel)", "RTID(Wave2ModConveyor0@CurrentLevel)" ], [ "RTID(Wave3@CurrentLevel)" ], [ "RTID(Wave4@CurrentLevel)" ], [ "RTID(Wave5@CurrentLevel)" ], [ "RTID(Wave6@CurrentLevel)" ], [ "RTID(Wave7@CurrentLevel)" ], [ "RTID(Wave8@CurrentLevel)" ], [ "RTID(Wave9@CurrentLevel)" ], [ "RTID(Wave10@CurrentLevel)", "RTID(Wave10ModConveyor0@CurrentLevel)" ] ]
			}
		}, {
			"aliases": [ "Wave1" ],
			"objclass": "SpawnZombiesJitteredWaveActionProps",
			"objdata": {
				"Zombies": [ {
						"Row": "3",
						"Type": "RTID(beach_fem@ZombieTypes)"
					}, {
						"Row": "3",
						"Type": "RTID(beach_armor1@ZombieTypes)"
					}, {
						"Row": "5",
						"Type": "RTID(beach@ZombieTypes)"
					}, {
						"Row": "5",
						"Type": "RTID(beach_fem_armor1@ZombieTypes)"
					} ]
			}
		}, {
			"aliases": [ "Wave2" ],
			"objclass": "SpawnZombiesJitteredWaveActionProps",
			"objdata": {
				"Zombies": [ {
						"Row": "4",
						"Type": "RTID(beach_fem@ZombieTypes)"
					}, {
						"Row": "4",
						"Type": "RTID(beach_surfer@ZombieTypes)"
					}, {
						"Row": "2",
						"Type": "RTID(beach_armor1@ZombieTypes)"
					}, {
						"Row": "2",
						"Type": "RTID(beach_fem_armor1@ZombieTypes)"
					} ]
			}
		}, {
			"aliases": [ "Wave3" ],
			"objclass": "SpawnZombiesJitteredWaveActionProps",
			"objdata": {
				"Zombies": [ {
						"Type": "RTID(beach@ZombieTypes)"
					}, {
						"Type": "RTID(beach_surfer@ZombieTypes)"
					} ]
			}
		}, {
			"aliases": [ "Wave4" ],
			"objclass": "SpawnZombiesJitteredWaveActionProps",
			"objdata": {
				"Zombies": [ {
						"Type": "RTID(beach_armor1@ZombieTypes)"
					}, {
						"Type": "RTID(beach_surfer@ZombieTypes)"
					}, {
						"Row": "3",
						"Type": "RTID(beach_octopus@ZombieTypes)"
					} ]
			}
		}, {
			"aliases": [ "Wave5" ],
			"objclass": "SpawnZombiesJitteredWaveActionProps",
			"objdata": {
				"Zombies": [ {
						"Type": "RTID(beach_fem@ZombieTypes)"
					}, {
						"Type": "RTID(beach_fem@ZombieTypes)"
					}, {
						"Row": "5",
						"Type": "RTID(beach_surfer@ZombieTypes)"
					}, {
						"Row": "1",
						"Type": "RTID(beach_surfer@ZombieTypes)"
					} ]
			}
		}, {
			"aliases": [ "Wave6" ],
			"objclass": "SpawnZombiesJitteredWaveActionProps",
			"objdata": {
				"Zombies": [ {
						"Type": "RTID(beach_fem@ZombieTypes)"
					}, {
						"Type": "RTID(beach_armor1@ZombieTypes)"
					}, {
						"Row": "2",
						"Type": "RTID(beach_octopus@ZombieTypes)"
					} ]
			}
		}, {
			"aliases": [ "Wave7" ],
			"objclass": "SpawnZombiesJitteredWaveActionProps",
			"objdata": {
				"Zombies": [ {
						"Type": "RTID(beach_fem@ZombieTypes)"
					}, {
						"Type": "RTID(beach_surfer@ZombieTypes)"
					} ]
			}
		}, {
			"aliases": [ "Wave8" ],
			"objclass": "SpawnZombiesJitteredWaveActionProps",
			"objdata": {
				"Zombies": [ {
						"Type": "RTID(beach_armor2@ZombieTypes)"
					}, {
						"Type": "RTID(beach_surfer@ZombieTypes)"
					}, {
						"Row": "4",
						"Type": "RTID(beach_octopus@ZombieTypes)"
					} ]
			}
		}, {
			"aliases": [ "Wave9" ],
			"objclass": "SpawnZombiesJitteredWaveActionProps",
			"objdata": {
				"Zombies": [ {
						"Type": "RTID(beach_surfer@ZombieTypes)"
					}, {
						"Type": "RTID(beach_surfer@ZombieTypes)"
					} ]
			}
		}, {
			"aliases": [ "Gravestones" ],
			"objclass": "GravestoneProperties",
			"objdata": {}
		}, {
			"aliases": [ "NewWaves" ],
			"objclass": "WaveManagerModuleProperties",
			"objdata": {}
		}, {
			"aliases": [ "ConveyorBelt" ],
			"objclass": "ConveyorSeedBankProperties",
			"objdata": {
				"DropDelayConditions": [ {
						"Delay": 3,
						"MaxPackets": 0
					}, {
						"Delay": 6,
						"MaxPackets": 2
					}, {
						"Delay": 9,
						"MaxPackets": 4
					}, {
						"Delay": 12,
						"MaxPackets": 8
					} ],
				"InitialPlantList": [ {
						"PlantType": "lavaguava",
						"Weight": 100
					} ],
				"SpeedConditions": [ {
						"MaxPackets": 0,
						"Speed": 100
					} ]
			}
		}, {
			"aliases": [ "Wave10" ],
			"objclass": "SpawnZombiesJitteredWaveActionProps",
			"objdata": {
				"Zombies": [ {
						"Row": "3",
						"Type": "RTID(beach_gargantuar@ZombieTypes)"
					} ]
			}
		}, {
			"aliases": [ "Wave2ModConveyor0" ],
			"objclass": "ModifyConveyorWaveActionProps",
			"objdata": {
				"Add": [ {
						"MaxCount": 5,
						"MaxWeightFactor": 0,
						"MinWeightFactor": 0.1,
						"Type": "RTID(wallnut@PlantTypes)",
						"Weight": 40
					} ],
				"Remove": []
			}
		}, {
			"aliases": [ "Wave1ModConveyor0" ],
			"objclass": "ModifyConveyorWaveActionProps",
			"objdata": {
				"Add": [ {
						"MaxCount": 1,
						"MaxCountCooldownSeconds": 8,
						"MaxWeightFactor": 1,
						"MinWeightFactor": 0.1,
						"Type": "RTID(guacodile@PlantTypes)",
						"Weight": 50
					}, {
						"MaxCount": 1,
						"MaxCountCooldownSeconds": 30,
						"MaxWeightFactor": 1,
						"MinWeightFactor": 0.1,
						"Type": "RTID(bowlingbulb@PlantTypes)",
						"Weight": 50
					} ],
				"Remove": []
			}
		}, {
			"aliases": [ "Wave10ModConveyor0" ],
			"objclass": "ModifyConveyorWaveActionProps",
			"objdata": {
				"Add": [],
				"Remove": [ {
						"Type": "RTID(guacodile@PlantTypes)"
					}, {
						"Type": "RTID(bowlingbulb@PlantTypes)"
					} ]
			}
		} ],
	"version": 1
}