{
	"#comment": "LOD 155 - Toadstool",
	"objects": [ {
			"objclass": "LevelDefinition",
			"objdata": {
				"Description": "[PREMIUM_PLANT_QUEST_LOD_DESC]",
				"DraperPromo": "toadstool",
				"ForceToWorldMap": true,
				"Loot": "RTID(DefaultLoot@LevelModules)",
				"Modules": [ "RTID(StandardIntro@LevelModules)", "RTID(LevelEscalationModule@CurrentLevel)", "RTID(FrontLawnMowers@LevelModules)", "RTID(DefaultSunDropper@LevelModules)", "RTID(NewWaves@CurrentLevel)", "RTID(FrozenPlantPlacement@CurrentLevel)", "RTID(SeedBank@CurrentLevel)", "RTID(DefaultZombieWinCondition@LevelModules)", "RTID(ZombiesDeadWinCon@LevelModules)" ],
				"Name": "[PREMIUM_PLANT_QUEST_LOD_NAME]",
				"NormalPresentTable": "egypt_normal_01",
				"RepeatPlayForceToWorldMap": true,
				"ShinyPresentTable": "egypt_shiny_01",
				"StageModule": "RTID(FrontLawnStage@LevelModules)",
				"StartingSun": 300
			}
		}, {
			"aliases": [ "FrozenPlantPlacement" ],
			"objclass": "InitialPlantProperties",
			"objdata": {
				"InitialPlantPlacements": [ {
						"GridX": 1,
						"GridY": 0,
						"TypeName": "sunshroom"
					}, {
						"GridX": 1,
						"GridY": 2,
						"TypeName": "sunshroom"
					}, {
						"GridX": 1,
						"GridY": 4,
						"TypeName": "sunshroom"
					} ]
			}
		}, {
			"aliases": [ "SeedBank" ],
			"objclass": "SeedBankProperties",
			"objdata": {
				"PresetPlantList": [ {
						"Level": -1,
						"PlantType": "solartomato"
					}, {
						"Level": -1,
						"PlantType": "blover"
					}, {
						"Level": -1,
						"PlantType": "citron"
					} ],
				"SelectionMethod": "preset"
			}
		}, {
			"aliases": [ "LevelEscalationModule" ],
			"objclass": "LevelEscalationModuleProperties",
			"objdata": {
				"FlagCount": 2,
				"PlantfoodToSpawnCount": 0,
				"PointIncrementPerWave": 0,
				"StartingPoints": 0,
				"WaveManagerProps": "RTID(WaveManagerProps@CurrentLevel)",
				"WavesPerFlag": 4,
				"ZombiePool": []
			}
		}, {
			"aliases": [ "WaveManagerProps" ],
			"objclass": "WaveManagerProperties",
			"objdata": {
				"FlagWaveInterval": 4,
				"MaxNextWaveHealthPercentage": 0.9,
				"MinNextWaveHealthPercentage": 0.8,
				"WaveCount": 8,
				"Waves": [ [ "RTID(Wave1@CurrentLevel)" ], [ "RTID(Wave2@CurrentLevel)" ], [ "RTID(Wave3@CurrentLevel)" ], [ "RTID(Wave4@CurrentLevel)", "RTID(Wave4SpiderRainEvent0@CurrentLevel)" ], [ "RTID(Wave5@CurrentLevel)" ], [ "RTID(Wave6@CurrentLevel)" ], [ "RTID(Wave7@CurrentLevel)", "RTID(Wave7SpiderRainEvent0@CurrentLevel)" ], [ "RTID(Wave8@CurrentLevel)" ] ]
			}
		}, {
			"aliases": [ "Wave1" ],
			"objclass": "SpawnZombiesJitteredWaveActionProps",
			"objdata": {
				"Zombies": [ {
						"Row": "3",
						"Type": "RTID(disco_mech@ZombieTypes)"
					} ]
			}
		}, {
			"aliases": [ "Wave2" ],
			"objclass": "SpawnZombiesJitteredWaveActionProps",
			"objdata": {
				"Zombies": [ {
						"Row": "2",
						"Type": "RTID(disco_mech@ZombieTypes)"
					} ]
			}
		}, {
			"aliases": [ "Wave3" ],
			"objclass": "SpawnZombiesJitteredWaveActionProps",
			"objdata": {
				"Zombies": [ {
						"Row": "4",
						"Type": "RTID(future_armor1@ZombieTypes)"
					}, {
						"Row": "5",
						"Type": "RTID(disco_mech@ZombieTypes)"
					} ]
			}
		}, {
			"aliases": [ "Wave4" ],
			"objclass": "SpawnZombiesJitteredWaveActionProps",
			"objdata": {
				"AdditionalPlantfood": 1,
				"Zombies": [ {
						"Row": "4",
						"Type": "RTID(disco_mech@ZombieTypes)"
					} ]
			}
		}, {
			"aliases": [ "Wave5" ],
			"objclass": "SpawnZombiesJitteredWaveActionProps",
			"objdata": {
				"Zombies": [ {
						"Row": "2",
						"Type": "RTID(future_armor1@ZombieTypes)"
					}, {
						"Row": "1",
						"Type": "RTID(disco_mech@ZombieTypes)"
					}, {
						"Row": "2",
						"Type": "RTID(future_armor1@ZombieTypes)"
					} ]
			}
		}, {
			"aliases": [ "Wave6" ],
			"objclass": "SpawnZombiesJitteredWaveActionProps",
			"objdata": {
				"Zombies": [ {
						"Row": "2",
						"Type": "RTID(disco_mech@ZombieTypes)"
					}, {
						"Row": "3",
						"Type": "RTID(disco_mech@ZombieTypes)"
					} ]
			}
		}, {
			"aliases": [ "Wave7" ],
			"objclass": "SpawnZombiesJitteredWaveActionProps",
			"objdata": {
				"AdditionalPlantfood": 1,
				"Zombies": [ {
						"Row": "4",
						"Type": "RTID(disco_mech@ZombieTypes)"
					} ]
			}
		}, {
			"aliases": [ "Wave8" ],
			"objclass": "SpawnZombiesJitteredWaveActionProps",
			"objdata": {
				"Zombies": [ {
						"Row": "5",
						"Type": "RTID(disco_mech@ZombieTypes)"
					}, {
						"Row": "3",
						"Type": "RTID(disco_mech@ZombieTypes)"
					}, {
						"Row": "1",
						"Type": "RTID(disco_mech@ZombieTypes)"
					} ]
			}
		}, {
			"aliases": [ "NewWaves" ],
			"objclass": "WaveManagerModuleProperties",
			"objdata": {}
		}, {
			"aliases": [ "Wave7SpiderRainEvent0" ],
			"objclass": "SpiderRainZombieSpawnerProps",
			"objdata": {
				"ColumnEnd": "8",
				"ColumnStart": "4",
				"GroupSize": "2",
				"SpiderCount": "4",
				"SpiderZombieName": "future_imp",
				"TimeBeforeFullSpawn": "1",
				"TimeBetweenGroups": "0.2",
				"WaveStartMessage": "[WARNING_SPIDERRAIN]",
				"ZombieFallTime": "1.5"
			}
		}, {
			"aliases": [ "Wave4SpiderRainEvent0" ],
			"objclass": "SpiderRainZombieSpawnerProps",
			"objdata": {
				"ColumnEnd": "8",
				"ColumnStart": 3,
				"GroupSize": "2",
				"SpiderCount": "4",
				"SpiderZombieName": "future_imp",
				"TimeBeforeFullSpawn": "1",
				"TimeBetweenGroups": "0.2",
				"WaveStartMessage": "[WARNING_SPIDERRAIN]",
				"ZombieFallTime": "1.5"
			}
		} ],
	"version": 1
}