{
	"#comment": "Level Of The Day Test 1",
	"objects": [ {
			"objclass": "LevelDefinition",
			"objdata": {
				"Description": "[PREMIUM_PLANT_QUEST_LOD_DESC]",
				"DraperPromo": "slingpea",
				"ForceToWorldMap": true,
				"Loot": "RTID(DefaultLoot@LevelModules)",
				"Modules": [ "RTID(StandardIntro@LevelModules)", "RTID(LevelEscalationModule@CurrentLevel)", "RTID(FrontLawnMowers@LevelModules)", "RTID(NewWaves@CurrentLevel)", "RTID(DefaultZombieWinCondition@LevelModules)", "RTID(ConveyorBelt@CurrentLevel)", "RTID(ZombiesDeadWinCon@LevelModules)" ],
				"Name": "[PREMIUM_PLANT_QUEST_LOD_NAME]",
				"NormalPresentTable": "egypt_normal_01",
				"RepeatPlayForceToWorldMap": true,
				"ShinyPresentTable": "egypt_shiny_01",
				"StageModule": "RTID(FrontLawnStage@LevelModules)"
			}
		}, {
			"aliases": [ "WaveManagerProps" ],
			"objclass": "WaveManagerProperties",
			"objdata": {
				"MaxNextWaveHealthPercentage": 0.9,
				"MinNextWaveHealthPercentage": 0.8,
				"Waves": [ [ "RTID(Wave1@CurrentLevel)", "RTID(Wave1ModConveyor0@CurrentLevel)" ], [ "RTID(Wave2@CurrentLevel)" ], [ "RTID(Wave3@CurrentLevel)" ], [ "RTID(Wave4@CurrentLevel)" ], [ "RTID(Wave5@CurrentLevel)", "RTID(Wave5ModConveyor0@CurrentLevel)" ], [ "RTID(Wave6@CurrentLevel)", "RTID(Wave6ModConveyor0@CurrentLevel)" ], [ "RTID(Wave7@CurrentLevel)" ], [ "RTID(Wave8@CurrentLevel)" ], [ "RTID(Wave9@CurrentLevel)" ], [ "RTID(Wave10@CurrentLevel)" ], [ "RTID(Wave11@CurrentLevel)" ], [ "RTID(Wave12@CurrentLevel)" ] ]
			}
		}, {
			"aliases": [ "Wave1" ],
			"objclass": "SpawnZombiesJitteredWaveActionProps",
			"objdata": {
				"Zombies": [ {
						"Type": "RTID(piano@ZombieTypes)"
					} ]
			}
		}, {
			"aliases": [ "Wave2" ],
			"objclass": "SpawnZombiesJitteredWaveActionProps",
			"objdata": {
				"Zombies": [ {
						"Type": "RTID(piano@ZombieTypes)"
					}, {
						"Type": "RTID(piano@ZombieTypes)"
					}, {
						"Type": "RTID(piano@ZombieTypes)"
					} ]
			}
		}, {
			"aliases": [ "Wave3" ],
			"objclass": "SpawnZombiesJitteredWaveActionProps",
			"objdata": {
				"Zombies": [ {
						"Type": "RTID(disco_mech@ZombieTypes)"
					} ]
			}
		}, {
			"aliases": [ "Wave4" ],
			"objclass": "SpawnZombiesJitteredWaveActionProps",
			"objdata": {
				"AdditionalPlantfood": 1,
				"Zombies": [ {
						"Type": "RTID(future_protector@ZombieTypes)"
					}, {
						"Type": "RTID(future_protector@ZombieTypes)"
					}, {
						"Type": "RTID(future@ZombieTypes)"
					} ]
			}
		}, {
			"aliases": [ "Wave5" ],
			"objclass": "SpawnZombiesJitteredWaveActionProps",
			"objdata": {
				"Zombies": [ {
						"Row": "1",
						"Type": "RTID(piano@ZombieTypes)"
					}, {
						"Row": "1",
						"Type": "RTID(piano@ZombieTypes)"
					}, {
						"Row": "2",
						"Type": "RTID(piano@ZombieTypes)"
					}, {
						"Row": "2",
						"Type": "RTID(piano@ZombieTypes)"
					}, {
						"Row": "3",
						"Type": "RTID(piano@ZombieTypes)"
					}, {
						"Row": "3",
						"Type": "RTID(piano@ZombieTypes)"
					}, {
						"Row": "4",
						"Type": "RTID(piano@ZombieTypes)"
					}, {
						"Row": "4",
						"Type": "RTID(piano@ZombieTypes)"
					}, {
						"Row": "5",
						"Type": "RTID(piano@ZombieTypes)"
					}, {
						"Row": "5",
						"Type": "RTID(piano@ZombieTypes)"
					}, {
						"Type": "RTID(dark_wizard@ZombieTypes)"
					}, {
						"Type": "RTID(dark_wizard@ZombieTypes)"
					} ]
			}
		}, {
			"aliases": [ "Wave6" ],
			"objclass": "SpawnZombiesJitteredWaveActionProps",
			"objdata": {
				"Zombies": [ {
						"Type": "RTID(future_protector@ZombieTypes)"
					}, {
						"Type": "RTID(future_protector@ZombieTypes)"
					}, {
						"Type": "RTID(mech_cone_veteran@ZombieTypes)"
					} ]
			}
		}, {
			"aliases": [ "Wave7" ],
			"objclass": "SpawnZombiesJitteredWaveActionProps",
			"objdata": {
				"AdditionalPlantfood": 1,
				"Zombies": [ {
						"Row": "1",
						"Type": "RTID(future_protector@ZombieTypes)"
					}, {
						"Row": "2",
						"Type": "RTID(future_protector@ZombieTypes)"
					}, {
						"Row": "3",
						"Type": "RTID(future_protector@ZombieTypes)"
					}, {
						"Row": "4",
						"Type": "RTID(future_protector@ZombieTypes)"
					}, {
						"Row": "5",
						"Type": "RTID(future_protector@ZombieTypes)"
					}, {
						"Type": "RTID(disco_mech@ZombieTypes)"
					}, {
						"Type": "RTID(disco_mech@ZombieTypes)"
					}, {
						"Type": "RTID(disco_mech@ZombieTypes)"
					}, {
						"Type": "RTID(disco_mech@ZombieTypes)"
					}, {
						"Type": "RTID(future@ZombieTypes)"
					} ]
			}
		}, {
			"aliases": [ "Wave8" ],
			"objclass": "SpawnZombiesJitteredWaveActionProps",
			"objdata": {
				"Zombies": [ {
						"Row": "4",
						"Type": "RTID(future_protector@ZombieTypes)"
					}, {
						"Row": "4",
						"Type": "RTID(football_mech@ZombieTypes)"
					}, {
						"Row": "4",
						"Type": "RTID(football_mech@ZombieTypes)"
					}, {
						"Row": "1",
						"Type": "RTID(future_protector@ZombieTypes)"
					}, {
						"Row": "1",
						"Type": "RTID(dark_wizard@ZombieTypes)"
					}, {
						"Row": "1",
						"Type": "RTID(dark_wizard@ZombieTypes)"
					}, {
						"Row": "1",
						"Type": "RTID(dark_wizard@ZombieTypes)"
					}, {
						"Row": "2",
						"Type": "RTID(future_protector@ZombieTypes)"
					}, {
						"Row": "2",
						"Type": "RTID(dark_wizard@ZombieTypes)"
					}, {
						"Row": "2",
						"Type": "RTID(dark_wizard@ZombieTypes)"
					}, {
						"Row": "3",
						"Type": "RTID(future_protector@ZombieTypes)"
					}, {
						"Row": "3",
						"Type": "RTID(dark_wizard@ZombieTypes)"
					}, {
						"Row": "3",
						"Type": "RTID(dark_wizard@ZombieTypes)"
					}, {
						"Row": "3",
						"Type": "RTID(dark_wizard@ZombieTypes)"
					}, {
						"Row": "4",
						"Type": "RTID(future_protector@ZombieTypes)"
					}, {
						"Row": "4",
						"Type": "RTID(dark_wizard@ZombieTypes)"
					}, {
						"Row": "4",
						"Type": "RTID(dark_wizard@ZombieTypes)"
					}, {
						"Row": "4",
						"Type": "RTID(dark_wizard@ZombieTypes)"
					}, {
						"Row": "5",
						"Type": "RTID(future_protector@ZombieTypes)"
					}, {
						"Row": "5",
						"Type": "RTID(dark_wizard@ZombieTypes)"
					}, {
						"Row": "5",
						"Type": "RTID(dark_wizard@ZombieTypes)"
					}, {
						"Row": "5",
						"Type": "RTID(dark_wizard@ZombieTypes)"
					} ]
			}
		}, {
			"aliases": [ "Wave9" ],
			"objclass": "SpawnZombiesJitteredWaveActionProps",
			"objdata": {
				"AdditionalPlantfood": 1,
				"Zombies": [ {
						"Type": "RTID(future@ZombieTypes)"
					}, {
						"Type": "RTID(future_gargantuar@ZombieTypes)"
					} ]
			}
		}, {
			"aliases": [ "Wave10" ],
			"objclass": "SpawnZombiesJitteredWaveActionProps",
			"objdata": {
				"Zombies": [ {
						"Type": "RTID(future_protector@ZombieTypes)"
					}, {
						"Type": "RTID(future_protector@ZombieTypes)"
					}, {
						"Type": "RTID(future_protector@ZombieTypes)"
					}, {
						"Row": "1",
						"Type": "RTID(football_mech@ZombieTypes)"
					}, {
						"Row": "2",
						"Type": "RTID(mech_cone_veteran@ZombieTypes)"
					}, {
						"Row": "3",
						"Type": "RTID(football_mech@ZombieTypes)"
					}, {
						"Row": "4",
						"Type": "RTID(mech_cone_veteran@ZombieTypes)"
					}, {
						"Row": "5",
						"Type": "RTID(football_mech@ZombieTypes)"
					} ]
			}
		}, {
			"aliases": [ "LevelEscalationModule" ],
			"objclass": "LevelEscalationModuleProperties",
			"objdata": {
				"FlagCount": 3,
				"PlantfoodToSpawnCount": 2,
				"PointIncrementPerWave": 0,
				"StartingPoints": 0,
				"WaveManagerProps": "RTID(WaveManagerProps@CurrentLevel)",
				"WavesPerFlag": 4,
				"ZombiePool": [ "RTID(mummy@ZombieTypes)" ]
			}
		}, {
			"aliases": [ "NewWaves" ],
			"objclass": "WaveManagerModuleProperties",
			"objdata": {}
		}, {
			"aliases": [ "ConveyorBelt" ],
			"objclass": "ConveyorSeedBankProperties",
			"objdata": {
				"DropDelayConditions": [ {
						"Delay": 3,
						"MaxPackets": 0
					}, {
						"Delay": 6,
						"MaxPackets": 2
					}, {
						"Delay": 9,
						"MaxPackets": 4
					}, {
						"Delay": 12,
						"MaxPackets": 8
					} ],
				"InitialPlantList": [ {
						"PlantType": "slingpea",
						"Weight": 100
					} ],
				"SpeedConditions": [ {
						"MaxPackets": 0,
						"Speed": 100
					} ]
			}
		}, {
			"aliases": [ "Wave11" ],
			"objclass": "SpawnZombiesJitteredWaveActionProps",
			"objdata": {
				"Zombies": [ {
						"Row": "1",
						"Type": "RTID(treasureyeti@ZombieTypes)"
					}, {
						"Row": "2",
						"Type": "RTID(disco_mech@ZombieTypes)"
					}, {
						"Row": "3",
						"Type": "RTID(disco_mech@ZombieTypes)"
					}, {
						"Row": "4",
						"Type": "RTID(disco_mech@ZombieTypes)"
					}, {
						"Row": "5",
						"Type": "RTID(piano@ZombieTypes)"
					} ]
			}
		}, {
			"aliases": [ "Wave12" ],
			"objclass": "SpawnZombiesJitteredWaveActionProps",
			"objdata": {
				"Zombies": [ {
						"Row": "1",
						"Type": "RTID(future_gargantuar@ZombieTypes)"
					}, {
						"Row": "2",
						"Type": "RTID(football_mech@ZombieTypes)"
					}, {
						"Row": "3",
						"Type": "RTID(future_gargantuar@ZombieTypes)"
					}, {
						"Row": "4",
						"Type": "RTID(football_mech@ZombieTypes)"
					}, {
						"Row": "5",
						"Type": "RTID(future_gargantuar@ZombieTypes)"
					} ]
			}
		}, {
			"aliases": [ "Wave5ModConveyor0" ],
			"objclass": "ModifyConveyorWaveActionProps",
			"objdata": {
				"Add": [ {
						"Type": "RTID(empea@PlantTypes)",
						"Weight": 20
					} ],
				"Remove": []
			}
		}, {
			"aliases": [ "Wave6ModConveyor0" ],
			"objclass": "ModifyConveyorWaveActionProps",
			"objdata": {
				"Add": [ {
						"MaxCount": 1,
						"MaxCountCooldownSeconds": 30,
						"Type": "RTID(armamint@PlantTypes)",
						"Weight": 50
					} ],
				"Remove": []
			}
		}, {
			"aliases": [ "Wave1ModConveyor0" ],
			"objclass": "ModifyConveyorWaveActionProps",
			"objdata": {
				"Add": [ {
						"Type": "RTID(shrinkingviolet@PlantTypes)",
						"Weight": 20
					} ],
				"Remove": []
			}
		} ],
	"version": 1
}